<?xml version="1.0" encoding="UTF-8"?>
<svg xmlns="http://www.w3.org/2000/svg" xmlns:xlink="http://www.w3.org/1999/xlink" width="289.2524848640025pt" height="157.61662348876783pt" viewBox="0 0 167 91" version="1.1">
<defs>
<g>
<symbol overflow="visible" id="glyph0-0">
<path style="stroke:none;" d=""/>
</symbol>
<symbol overflow="visible" id="glyph0-1">
<path style="stroke:none;" d="M 2.140625 -0.625 C 2.234375 -0.421875 2.265625 -0.3125 2.4375 -0.15625 C 2.703125 0.078125 3.09375 0.125 3.421875 -0.015625 C 3.609375 -0.09375 3.75 -0.21875 3.890625 -0.375 C 4.328125 -0.859375 4.484375 -1.546875 4.609375 -2.1875 C 4.671875 -2.5 4.71875 -3.046875 4.546875 -3.28125 C 4.515625 -3.328125 4.453125 -3.34375 4.375 -3.34375 C 4.234375 -3.34375 4.09375 -3.21875 4.078125 -3.0625 C 4.0625 -2.984375 4.109375 -2.921875 4.125 -2.84375 C 4.203125 -2.53125 4.046875 -1.953125 4 -1.75 C 3.9375 -1.453125 3.875 -1.140625 3.734375 -0.859375 C 3.609375 -0.640625 3.4375 -0.453125 3.171875 -0.4375 C 2.828125 -0.4375 2.59375 -0.578125 2.46875 -0.828125 C 2.4375 -0.890625 2.390625 -0.96875 2.390625 -1.03125 C 2.390625 -1.0625 2.453125 -1.203125 2.46875 -1.234375 C 2.546875 -1.4375 2.6875 -1.859375 2.640625 -2.078125 C 2.625 -2.1875 2.546875 -2.25 2.453125 -2.25 C 2.34375 -2.234375 2.265625 -2.140625 2.21875 -2.0625 C 2.09375 -1.828125 2.0625 -1.484375 2.0625 -1.1875 C 2.0625 -1.03125 2.078125 -1.03125 2 -0.9375 C 1.8125 -0.671875 1.46875 -0.40625 1.09375 -0.4375 C 1.046875 -0.4375 1 -0.453125 0.96875 -0.46875 C 0.703125 -0.578125 0.65625 -0.890625 0.65625 -1.140625 C 0.65625 -1.734375 0.890625 -2.375 1.1875 -2.796875 C 1.234375 -2.875 1.328125 -2.96875 1.328125 -3.09375 C 1.328125 -3.265625 1.125 -3.328125 0.984375 -3.265625 C 0.90625 -3.21875 0.84375 -3.125 0.796875 -3.046875 C 0.453125 -2.515625 0.15625 -1.890625 0.15625 -1.109375 C 0.15625 -0.703125 0.265625 -0.328125 0.546875 -0.09375 C 0.8125 0.09375 1.171875 0.09375 1.453125 -0.03125 C 1.625 -0.109375 1.78125 -0.21875 1.921875 -0.34375 C 2 -0.4375 2.078125 -0.515625 2.140625 -0.625 Z M 2.140625 -0.625 "/>
</symbol>
<symbol overflow="visible" id="glyph0-2">
<path style="stroke:none;" d="M 0.75 -3.296875 C 0.828125 -3.140625 0.921875 -3.015625 1.015625 -2.875 C 1.078125 -2.796875 1.6875 -1.875 1.71875 -1.84375 C 1.734375 -1.8125 1.796875 -1.75 1.796875 -1.703125 C 1.796875 -1.65625 1.71875 -1.609375 1.6875 -1.578125 C 1.375 -1.296875 0.046875 -0.046875 0 0 C 0.1875 0 0.375 0 0.53125 0 L 0.6875 -0.140625 L 1.984375 -1.4375 C 2.265625 -0.953125 2.53125 -0.46875 2.84375 -0.015625 C 3.015625 0 3.203125 0 3.390625 0 C 3.296875 -0.140625 2.359375 -1.53125 2.328125 -1.5625 C 2.3125 -1.609375 2.265625 -1.65625 2.265625 -1.6875 C 2.28125 -1.734375 2.34375 -1.78125 2.375 -1.8125 C 2.484375 -1.921875 2.59375 -2.015625 2.703125 -2.125 C 2.8125 -2.21875 3.921875 -3.25 3.953125 -3.296875 C 3.765625 -3.296875 3.59375 -3.296875 3.421875 -3.28125 C 2.96875 -2.875 2.546875 -2.4375 2.09375 -2.03125 C 1.828125 -2.453125 1.578125 -2.890625 1.28125 -3.28125 C 1.109375 -3.296875 0.921875 -3.296875 0.75 -3.296875 Z M 0.75 -3.296875 "/>
</symbol>
<symbol overflow="visible" id="glyph1-0">
<path style="stroke:none;" d=""/>
</symbol>
<symbol overflow="visible" id="glyph1-1">
<path style="stroke:none;" d="M 1.15625 -3.453125 L 0.421875 0 C 0.53125 0 0.671875 0 0.78125 -0.015625 C 0.8125 -0.109375 0.828125 -0.21875 0.859375 -0.328125 L 0.859375 -0.328125 C 0.90625 -0.21875 1.015625 -0.109375 1.109375 -0.0625 C 1.375 0.109375 1.71875 0.046875 1.96875 -0.09375 C 2.46875 -0.375 2.78125 -0.9375 2.78125 -1.5 C 2.796875 -1.84375 2.640625 -2.265625 2.265625 -2.375 C 1.84375 -2.484375 1.40625 -2.203125 1.203125 -2.015625 L 1.5 -3.453125 L 1.15625 -3.453125 Z M 2.140625 -2.03125 C 2.1875 -2.015625 2.234375 -1.984375 2.265625 -1.9375 C 2.453125 -1.75 2.4375 -1.453125 2.390625 -1.21875 C 2.359375 -1.03125 2.296875 -0.84375 2.1875 -0.6875 C 2.015625 -0.40625 1.703125 -0.265625 1.390625 -0.234375 C 1.25 -0.234375 1.109375 -0.265625 1.015625 -0.375 C 0.984375 -0.421875 0.90625 -0.515625 0.90625 -0.578125 C 0.90625 -0.640625 0.9375 -0.703125 0.9375 -0.75 C 0.984375 -0.921875 1.15625 -1.765625 1.171875 -1.796875 C 1.203125 -1.84375 1.25 -1.890625 1.296875 -1.921875 C 1.5 -2.09375 1.859375 -2.1875 2.140625 -2.03125 Z M 2.140625 -2.03125 "/>
</symbol>
<symbol overflow="visible" id="glyph1-2">
<path style="stroke:none;" d="M 2.390625 -0.578125 C 2.328125 -0.53125 2.25 -0.484375 2.171875 -0.4375 C 1.984375 -0.328125 1.765625 -0.265625 1.546875 -0.25 C 1.375 -0.25 1.21875 -0.265625 1.09375 -0.34375 C 0.796875 -0.53125 0.78125 -0.90625 0.859375 -1.234375 C 0.96875 -1.625 1.21875 -1.984375 1.609375 -2.09375 C 1.734375 -2.125 1.859375 -2.125 1.984375 -2.125 C 2.203125 -2.109375 2.359375 -2.0625 2.515625 -1.96875 C 2.546875 -1.9375 2.59375 -1.90625 2.625 -1.90625 L 2.734375 -2.203125 C 2.484375 -2.34375 2.25 -2.4375 1.828125 -2.40625 C 1.46875 -2.375 1.1875 -2.21875 0.96875 -2.015625 C 0.5625 -1.65625 0.203125 -0.84375 0.65625 -0.296875 C 0.703125 -0.234375 0.75 -0.1875 0.796875 -0.140625 C 1.125 0.109375 1.578125 0.0625 1.953125 -0.0625 C 2.03125 -0.09375 2.3125 -0.203125 2.359375 -0.265625 C 2.375 -0.296875 2.390625 -0.5625 2.390625 -0.578125 Z M 2.390625 -0.578125 "/>
</symbol>
<symbol overflow="visible" id="glyph1-3">
<path style="stroke:none;" d="M 0.859375 -1.890625 C 1.046875 -1.984375 1.140625 -2.0625 1.390625 -2.109375 C 1.484375 -2.140625 1.71875 -2.15625 1.8125 -2.15625 C 1.984375 -2.140625 2.109375 -2.03125 2.15625 -1.875 C 2.203125 -1.6875 2.125 -1.515625 2.109375 -1.328125 C 1.65625 -1.328125 1.1875 -1.25 0.859375 -1.09375 C 0.671875 -1 0.484375 -0.859375 0.421875 -0.640625 C 0.328125 -0.359375 0.453125 0 0.796875 0.046875 C 1.25 0.0625 1.671875 -0.109375 1.90625 -0.328125 L 1.828125 0 L 2.09375 0 C 2.140625 0 2.1875 0.015625 2.1875 -0.0625 C 2.203125 -0.09375 2.296875 -0.5625 2.296875 -0.5625 L 2.46875 -1.34375 C 2.5 -1.46875 2.53125 -1.59375 2.546875 -1.71875 C 2.5625 -1.9375 2.46875 -2.140625 2.3125 -2.265625 C 2.140625 -2.40625 1.90625 -2.421875 1.6875 -2.40625 C 1.53125 -2.390625 1.375 -2.375 1.21875 -2.328125 C 1.171875 -2.3125 0.9375 -2.234375 0.90625 -2.203125 C 0.890625 -2.171875 0.859375 -1.96875 0.859375 -1.890625 Z M 2.0625 -1.15625 C 2.046875 -1.0625 2.03125 -0.953125 2 -0.859375 C 1.96875 -0.734375 1.953125 -0.609375 1.875 -0.5 C 1.8125 -0.421875 1.734375 -0.375 1.640625 -0.328125 C 1.390625 -0.21875 0.984375 -0.171875 0.8125 -0.375 C 0.703125 -0.5 0.75 -0.671875 0.84375 -0.78125 C 1 -0.96875 1.265625 -1.046875 1.5 -1.09375 C 1.6875 -1.140625 1.875 -1.15625 2.0625 -1.15625 Z M 2.0625 -1.15625 "/>
</symbol>
<symbol overflow="visible" id="glyph2-0">
<path style="stroke:none;" d=""/>
</symbol>
<symbol overflow="visible" id="glyph2-1">
<path style="stroke:none;" d="M 0.984375 -5.21875 C 0.84375 -5.171875 0.859375 -5.03125 0.859375 -4.90625 L 0.859375 1.25 C 0.859375 1.359375 0.84375 1.46875 0.953125 1.53125 C 0.96875 1.53125 0.984375 1.546875 1 1.546875 C 1.015625 1.546875 1.03125 1.546875 1.0625 1.546875 C 1.21875 1.5 1.1875 1.3125 1.1875 1.1875 L 1.1875 -5 C 1.1875 -5.03125 1.1875 -5.078125 1.171875 -5.125 C 1.15625 -5.1875 1.0625 -5.234375 0.984375 -5.21875 Z M 0.984375 -5.21875 "/>
</symbol>
</g>
<clipPath id="clip1">
  <path d="M -221 666 L 391 666 L 391 -126 L -221 -126 L -221 666 Z M -221 666 "/>
</clipPath>
<clipPath id="clip2">
  <path d="M 1.003906 84.625 L 168.246094 84.625 L 168.246094 -1.199219 L 1.003906 -1.199219 L 1.003906 84.625 Z M 1.003906 84.625 "/>
</clipPath>
<clipPath id="clip3">
  <path d="M -221 666 L 391 666 L 391 -126 L -221 -126 L -221 666 Z M -221 666 "/>
</clipPath>
</defs>
<g id="surface0">
<g clip-path="url(#clip1)" clip-rule="nonzero">
<g clip-path="url(#clip2)" clip-rule="nonzero">
<path style="fill:none;stroke-width:5;stroke-linecap:butt;stroke-linejoin:miter;stroke:rgb(0%,0%,0%);stroke-opacity:1;stroke-miterlimit:4;" d="M 14.715155 717.033975 L 14.715155 17.040962 L 1462.202862 17.040962 " transform="matrix(0.110029,0,0,-0.110029,1.002,84.625)"/>
<path style=" stroke:none;fill-rule:nonzero;fill:rgb(0%,0%,0%);fill-opacity:1;" d="M 160.796875 84.328125 L 166.761719 82.730469 L 160.796875 81.128906 L 160.796875 84.328125 "/>
<path style=" stroke:none;fill-rule:nonzero;fill:rgb(0%,0%,0%);fill-opacity:1;" d="M 4.199219 6.820313 L 2.601563 0.855469 L 1.003906 6.820313 L 4.199219 6.820313 "/>
<path style="fill:none;stroke-width:7.5;stroke-linecap:butt;stroke-linejoin:miter;stroke:rgb(0%,0%,0%);stroke-opacity:1;stroke-miterlimit:4;" d="M 14.715155 32.05831 C 14.715155 32.05831 544.724573 42.034373 598.048583 42.034373 C 598.048583 42.034373 812.196671 44.555015 849.686787 198.740218 C 849.970803 199.840781 850.219317 201.012347 850.467831 202.148411 C 851.177871 205.556603 851.887911 208.964796 852.597951 212.372988 C 853.734016 218.017807 854.834578 223.662625 855.899638 229.307444 C 857.390722 237.117885 858.7753 244.928326 860.159878 252.774269 C 861.899477 262.750332 863.532569 272.690893 865.130159 282.702458 C 867.047267 294.737637 868.893371 306.808319 870.632969 318.879 C 872.692086 333.008798 874.609194 347.138595 876.419796 361.268393 C 878.514414 377.386303 880.467025 393.504213 882.313129 409.657624 C 884.372245 427.763646 886.289353 445.869668 888.064453 463.97569 C 890.017064 483.998821 891.827666 504.021951 893.425256 524.080583 C 895.235858 545.98532 896.833448 567.890056 898.253529 589.830295 C 899.815617 613.545633 901.164693 637.296474 902.300757 661.082817 C 902.868789 672.869482 903.401319 684.656147 903.862845 696.442813 C 904.075857 701.768113 904.182363 707.128916 904.821399 712.454217 C 905.353929 716.714457 905.531439 721.0102 906.489994 725.199436 C 907.271038 728.501122 908.478106 732.974375 911.424772 734.997989 C 913.093366 736.134053 915.187985 736.702085 917.176097 736.560077 C 925.838586 735.850037 926.229108 722.217268 926.61963 715.755903 C 926.761638 713.838795 926.868144 711.921687 926.97465 710.004578 C 927.294168 704.075744 927.613686 698.182411 927.933204 692.289078 C 928.430232 683.946107 928.891758 675.638638 929.353284 667.295668 C 929.921316 656.929082 930.489348 646.526995 931.092882 636.16041 C 931.76742 624.125231 932.441958 612.090051 933.116497 600.054872 C 933.826537 586.74162 934.572079 573.428369 935.317621 560.115117 C 936.134167 545.914316 936.915211 531.678012 937.696255 517.477211 C 938.512801 502.743879 939.329347 488.046049 940.145893 473.312718 C 940.962439 458.47288 941.814488 443.59754 942.631034 428.757703 C 943.44758 414.166379 944.264126 399.539553 945.04517 384.94823 C 945.826214 370.995942 946.607258 357.043654 947.3528 343.091367 C 948.098342 330.133135 948.77288 317.210406 949.48292 304.252174 C 950.121956 292.714023 950.760993 281.175872 951.400029 269.637721 C 951.897057 259.910171 952.429587 250.14712 952.962117 240.384069 C 953.352639 232.822142 953.778663 225.224713 954.169185 217.662787 C 954.346695 214.112586 954.524205 210.597888 954.701715 207.047687 C 954.701715 207.047687 948.027338 12.070681 1258.030837 18.709556 L 1453.043345 18.709556 " transform="matrix(0.110029,0,0,-0.110029,1.002,84.625)"/>
<path style="fill:none;stroke-width:3.8;stroke-linecap:butt;stroke-linejoin:miter;stroke:rgb(0%,0%,0%);stroke-opacity:1;stroke-miterlimit:4;" d="M 1004.972553 747.246181 L 969.967577 747.246181 " transform="matrix(0.110029,0,0,-0.110029,1.002,84.625)"/>
<path style=" stroke:none;fill-rule:nonzero;fill:rgb(0%,0%,0%);fill-opacity:1;" d="M 108.347656 1.507813 L 104.945313 2.417969 L 108.347656 3.328125 L 108.347656 1.507813 "/>
<path style="fill:none;stroke-width:3.8;stroke-linecap:butt;stroke-linejoin:miter;stroke:rgb(0%,0%,0%);stroke-opacity:1;stroke-miterlimit:4;" d="M 591.196696 67.169792 L 571.280072 95.926415 L 543.872525 132.884001 L 528.038631 132.884001 " transform="matrix(0.110029,0,0,-0.110029,1.002,84.625)"/>
<path style=" stroke:none;fill-rule:nonzero;fill:rgb(0%,0%,0%);fill-opacity:1;" d="M 64.957031 77.238281 L 67.644531 79.511719 L 66.453125 76.199219 L 64.957031 77.238281 "/>
<path style="fill:none;stroke-width:4.05;stroke-linecap:butt;stroke-linejoin:miter;stroke:rgb(0%,0%,0%);stroke-opacity:1;stroke-miterlimit:4;" d="M 906.383488 35.004976 L 906.383488 0 " transform="matrix(0.110029,0,0,-0.110029,1.002,84.625)"/>
<path style="fill:none;stroke-width:4.05;stroke-linecap:butt;stroke-linejoin:miter;stroke:rgb(0%,0%,0%);stroke-opacity:1;stroke-miterlimit:4;" d="M 763.026395 35.004976 L 763.026395 0 " transform="matrix(0.110029,0,0,-0.110029,1.002,84.625)"/>
<path style="fill:none;stroke-width:4.05;stroke-linecap:butt;stroke-linejoin:miter;stroke:rgb(0%,0%,0%);stroke-opacity:1;stroke-miterlimit:4;" d="M 611.361834 35.004976 L 611.361834 0 " transform="matrix(0.110029,0,0,-0.110029,1.002,84.625)"/>
<path style=" stroke:none;fill-rule:nonzero;fill:rgb(0%,0%,0%);fill-opacity:1;" d="M 102.941406 4.289063 C 102.941406 4.898438 102.445313 5.390625 101.839844 5.390625 C 101.230469 5.390625 100.738281 4.898438 100.738281 4.289063 C 100.738281 3.683594 101.230469 3.191406 101.839844 3.191406 C 102.445313 3.191406 102.941406 3.683594 102.941406 4.289063 "/>
<path style="fill:none;stroke-width:5;stroke-linecap:butt;stroke-linejoin:miter;stroke:rgb(0%,0%,0%);stroke-opacity:1;stroke-miterlimit:4;" d="M 916.466057 730.134215 L 916.466057 747.601201 " transform="matrix(0.110029,0,0,-0.110029,1.002,84.625)"/>
</g>
</g>
<g clip-path="url(#clip3)" clip-rule="nonzero">
<g style="fill:rgb(0%,0%,0%);fill-opacity:1;">
  <use xlink:href="#glyph0-1" x="161.175" y="89.052"/>
</g>
<g style="fill:rgb(0%,0%,0%);fill-opacity:1;">
  <use xlink:href="#glyph0-1" x="64.229" y="89.052"/>
</g>
<g style="fill:rgb(0%,0%,0%);fill-opacity:1;">
  <use xlink:href="#glyph1-1" x="69.066" y="90.109"/>
</g>
<g style="fill:rgb(0%,0%,0%);fill-opacity:1;">
  <use xlink:href="#glyph0-1" x="80.931" y="89.052"/>
</g>
<g style="fill:rgb(0%,0%,0%);fill-opacity:1;">
  <use xlink:href="#glyph1-2" x="85.768" y="89.923"/>
</g>
<g style="fill:rgb(0%,0%,0%);fill-opacity:1;">
  <use xlink:href="#glyph0-1" x="96.774" y="89.052"/>
</g>
<g style="fill:rgb(0%,0%,0%);fill-opacity:1;">
  <use xlink:href="#glyph1-3" x="101.611" y="89.923"/>
</g>
<g style="fill:rgb(0%,0%,0%);fill-opacity:1;">
  <use xlink:href="#glyph2-1" x="5.537" y="6.245"/>
</g>
<g style="fill:rgb(0%,0%,0%);fill-opacity:1;">
  <use xlink:href="#glyph0-2" x="7.596" y="6.245"/>
</g>
<g style="fill:rgb(0%,0%,0%);fill-opacity:1;">
  <use xlink:href="#glyph2-1" x="11.669" y="6.245"/>
</g>
<g style="fill:rgb(0%,0%,0%);fill-opacity:1;">
  <use xlink:href="#glyph0-2" x="50.945" y="71.116"/>
</g>
<g style="fill:rgb(0%,0%,0%);fill-opacity:1;">
  <use xlink:href="#glyph1-1" x="54.34" y="72.173"/>
</g>
<g style="fill:rgb(0%,0%,0%);fill-opacity:1;">
  <use xlink:href="#glyph0-2" x="112.687" y="3.631"/>
</g>
<g style="fill:rgb(0%,0%,0%);fill-opacity:1;">
  <use xlink:href="#glyph1-3" x="116.082" y="4.502"/>
</g>
</g>
</g>
</svg>
