<?xml version="1.0" encoding="UTF-8"?>
<svg xmlns="http://www.w3.org/2000/svg" xmlns:xlink="http://www.w3.org/1999/xlink" width="306.5729929396913pt" height="138.56406460551017pt" viewBox="0 0 177 80" version="1.1">
<defs>
<g>
<symbol overflow="visible" id="glyph0-0">
<path style="stroke:none;" d=""/>
</symbol>
<symbol overflow="visible" id="glyph0-1">
<path style="stroke:none;" d="M 1.796875 -3.265625 C 1.703125 -3.25 1.625 -3.21875 1.546875 -3.171875 C 0.828125 -2.8125 0.25 -2.03125 0.25 -1.15625 C 0.25 -0.96875 0.265625 -0.796875 0.328125 -0.625 C 0.4375 -0.265625 0.703125 0.046875 1.0625 0.171875 C 1.25 0.234375 1.515625 0.28125 1.734375 0.21875 C 2.078125 0.125 2.375 -0.15625 2.5625 -0.453125 C 2.78125 -0.84375 2.90625 -1.265625 2.96875 -1.703125 C 3.03125 -2.15625 2.984375 -2.625 2.71875 -3.015625 C 2.609375 -3.171875 2.453125 -3.3125 2.3125 -3.4375 C 2.15625 -3.59375 2 -3.75 1.859375 -3.90625 C 1.734375 -4.046875 1.609375 -4.21875 1.609375 -4.40625 C 1.609375 -4.46875 1.625 -4.53125 1.640625 -4.5625 C 1.71875 -4.6875 1.84375 -4.640625 1.953125 -4.625 C 2.140625 -4.578125 2.328125 -4.546875 2.515625 -4.5 C 2.59375 -4.484375 2.84375 -4.40625 2.90625 -4.390625 C 3.0625 -4.375 3.234375 -4.5625 3.1875 -4.71875 C 3.15625 -4.8125 3.078125 -4.828125 3 -4.84375 C 2.890625 -4.859375 2.59375 -4.9375 2.515625 -4.96875 L 2.34375 -5 C 2 -5.0625 1.5625 -5.078125 1.34375 -4.765625 C 1.21875 -4.609375 1.21875 -4.40625 1.296875 -4.171875 C 1.421875 -3.84375 1.625 -3.5625 1.796875 -3.265625 Z M 2 -2.9375 C 2.03125 -2.9375 2.046875 -2.90625 2.0625 -2.875 C 2.09375 -2.84375 2.125 -2.796875 2.140625 -2.765625 C 2.25 -2.578125 2.34375 -2.390625 2.40625 -2.171875 C 2.546875 -1.640625 2.453125 -1.046875 2.265625 -0.65625 C 2.109375 -0.390625 1.890625 -0.109375 1.484375 -0.140625 C 1.25 -0.171875 1.03125 -0.28125 0.90625 -0.46875 C 0.71875 -0.734375 0.71875 -1.09375 0.78125 -1.46875 C 0.890625 -2.078125 1.203125 -2.6875 1.796875 -2.890625 C 1.84375 -2.90625 1.9375 -2.9375 2 -2.9375 Z M 2 -2.9375 "/>
</symbol>
<symbol overflow="visible" id="glyph0-2">
<path style="stroke:none;" d="M 2.25 -4.890625 C 1.8125 -4.84375 1.453125 -4.5 1.1875 -4.15625 C 0.765625 -3.609375 0.515625 -2.953125 0.390625 -2.265625 C 0.296875 -1.828125 0.296875 -1.359375 0.375 -0.921875 C 0.46875 -0.484375 0.734375 0.109375 1.34375 0.0625 C 1.796875 0 2.15625 -0.34375 2.421875 -0.6875 C 2.8125 -1.1875 3.046875 -1.796875 3.1875 -2.421875 C 3.28125 -2.890625 3.34375 -3.515625 3.21875 -3.9375 C 3.125 -4.34375 2.890625 -4.828125 2.4375 -4.890625 C 2.375 -4.890625 2.3125 -4.90625 2.25 -4.890625 Z M 2.71875 -2.609375 L 0.96875 -2.609375 C 1 -2.796875 1.0625 -2.984375 1.109375 -3.15625 C 1.25 -3.546875 1.421875 -3.9375 1.703125 -4.234375 C 1.90625 -4.4375 2.234375 -4.609375 2.5 -4.421875 C 2.671875 -4.3125 2.734375 -4.09375 2.78125 -3.90625 C 2.84375 -3.609375 2.828125 -3.3125 2.78125 -3.03125 C 2.765625 -2.890625 2.734375 -2.75 2.71875 -2.609375 Z M 2.625 -2.21875 C 2.625 -2.171875 2.609375 -2.109375 2.59375 -2.046875 C 2.4375 -1.5 2.296875 -1.015625 1.90625 -0.625 C 1.734375 -0.4375 1.453125 -0.25 1.171875 -0.375 C 0.859375 -0.5 0.78125 -0.953125 0.78125 -1.359375 C 0.78125 -1.65625 0.828125 -1.9375 0.890625 -2.21875 L 2.625 -2.21875 Z M 2.625 -2.21875 "/>
</symbol>
<symbol overflow="visible" id="glyph0-3">
<path style="stroke:none;" d="M 2.609375 -2.0625 C 2.71875 -1.8125 3.34375 -0.5 3.4375 -0.3125 C 3.5 -0.171875 3.5625 -0.0625 3.6875 0.015625 C 3.765625 0.0625 3.84375 0.0625 3.921875 0.0625 L 4.265625 0.0625 C 4.125 -0.140625 4.015625 -0.359375 3.921875 -0.578125 C 3.8125 -0.8125 2.109375 -4.453125 2.0625 -4.546875 C 1.921875 -4.8125 1.53125 -4.84375 1.15625 -4.84375 C 1.09375 -4.84375 1.046875 -4.84375 0.984375 -4.828125 C 0.890625 -4.78125 0.8125 -4.65625 0.84375 -4.5625 C 0.875 -4.4375 1 -4.453125 1.09375 -4.453125 C 1.265625 -4.4375 1.46875 -4.421875 1.5625 -4.265625 C 1.609375 -4.1875 1.75 -3.90625 1.765625 -3.84375 C 1.8125 -3.75 2.328125 -2.671875 2.34375 -2.625 C 2.359375 -2.578125 2.40625 -2.53125 2.390625 -2.5 C 2.375 -2.453125 2.265625 -2.328125 2.265625 -2.328125 L 1.9375 -1.96875 L 0.703125 -0.5625 C 0.578125 -0.421875 0.328125 -0.203125 0.453125 -0.03125 C 0.484375 0 0.546875 0.046875 0.578125 0.0625 C 0.765625 0.09375 0.875 -0.0625 0.96875 -0.1875 L 1.046875 -0.265625 C 1.078125 -0.296875 2.59375 -2.0625 2.609375 -2.0625 Z M 2.609375 -2.0625 "/>
</symbol>
<symbol overflow="visible" id="glyph0-4">
<path style="stroke:none;" d="M 3.09375 -5.21875 C 2.953125 -5.1875 2.921875 -5 2.875 -4.890625 L 0.90625 0.109375 L 0.453125 1.234375 C 0.4375 1.28125 0.40625 1.328125 0.40625 1.390625 C 0.40625 1.484375 0.5 1.546875 0.59375 1.546875 C 0.6875 1.53125 0.71875 1.46875 0.75 1.390625 C 0.78125 1.328125 3.21875 -4.84375 3.265625 -5 C 3.28125 -5.03125 3.296875 -5.078125 3.28125 -5.109375 C 3.25 -5.1875 3.15625 -5.234375 3.09375 -5.21875 Z M 3.09375 -5.21875 "/>
</symbol>
<symbol overflow="visible" id="glyph0-5">
<path style="stroke:none;" d="M 1.59375 -2.453125 L 1.578125 -2.453125 C 1.640625 -2.71875 1.703125 -3 1.75 -3.296875 L 1.28125 -3.296875 L 0.578125 0 L 0.9375 0 C 0.96875 0 1.046875 0.015625 1.078125 -0.015625 C 1.09375 -0.03125 1.09375 -0.109375 1.109375 -0.140625 C 1.21875 -0.578125 1.375 -1.40625 1.46875 -1.78125 C 1.640625 -2.46875 2.390625 -2.90625 3.0625 -2.90625 L 3.15625 -3.34375 C 2.6875 -3.34375 2.265625 -3.140625 1.921875 -2.828125 C 1.828125 -2.75 1.640625 -2.5625 1.59375 -2.453125 Z M 1.59375 -2.453125 "/>
</symbol>
<symbol overflow="visible" id="glyph1-0">
<path style="stroke:none;" d=""/>
</symbol>
<symbol overflow="visible" id="glyph1-1">
<path style="stroke:none;" d="M 0.328125 0 L 4.84375 0 C 4.828125 -0.0625 4.796875 -0.109375 4.78125 -0.15625 L 2.984375 -4.609375 L 2.90625 -4.8125 C 2.890625 -4.84375 2.890625 -4.875 2.859375 -4.890625 C 2.828125 -4.921875 2.75 -4.90625 2.71875 -4.90625 L 2.453125 -4.90625 C 2.421875 -4.90625 2.375 -4.90625 2.328125 -4.90625 C 2.296875 -4.90625 2.28125 -4.859375 2.265625 -4.828125 C 1.859375 -3.8125 0.34375 -0.09375 0.328125 0 Z M 2.5625 -4.328125 L 2.6875 -3.96875 L 3.6875 -1.453125 C 3.8125 -1.140625 3.9375 -0.828125 4.0625 -0.5 L 1.03125 -0.5 C 1.46875 -1.640625 1.9375 -2.75 2.390625 -3.890625 C 2.453125 -4.03125 2.5 -4.1875 2.5625 -4.328125 Z M 2.5625 -4.328125 "/>
</symbol>
<symbol overflow="visible" id="glyph1-2">
<path style="stroke:none;" d="M 0.4375 -2.671875 C 0.375 -2.578125 0.4375 -2.453125 0.53125 -2.421875 C 0.578125 -2.40625 0.625 -2.421875 0.671875 -2.421875 L 5.125 -2.421875 C 5.1875 -2.421875 5.234375 -2.421875 5.296875 -2.453125 C 5.375 -2.546875 5.328125 -2.71875 5.203125 -2.734375 C 5.09375 -2.75 4.984375 -2.734375 4.890625 -2.734375 L 0.671875 -2.734375 C 0.5625 -2.734375 0.5 -2.75 0.4375 -2.671875 Z M 0.4375 -1.1875 C 0.375 -1.09375 0.4375 -0.96875 0.53125 -0.953125 C 0.578125 -0.9375 0.625 -0.9375 0.671875 -0.9375 L 5.125 -0.9375 C 5.1875 -0.9375 5.234375 -0.9375 5.296875 -0.984375 C 5.375 -1.078125 5.328125 -1.234375 5.203125 -1.265625 C 5.09375 -1.28125 4.984375 -1.265625 4.890625 -1.265625 L 0.65625 -1.265625 C 0.5625 -1.265625 0.484375 -1.265625 0.4375 -1.1875 Z M 0.4375 -1.1875 "/>
</symbol>
<symbol overflow="visible" id="glyph2-0">
<path style="stroke:none;" d=""/>
</symbol>
<symbol overflow="visible" id="glyph2-1">
<path style="stroke:none;" d="M 1.171875 -1.875 L 1.15625 -1.875 C 1.203125 -2.03125 1.234375 -2.1875 1.265625 -2.359375 L 0.90625 -2.359375 L 0.40625 0 L 0.671875 0 C 0.71875 0 0.78125 0.015625 0.78125 -0.046875 C 0.796875 -0.078125 0.875 -0.421875 0.890625 -0.546875 C 0.9375 -0.71875 1.0625 -1.328125 1.09375 -1.453125 C 1.15625 -1.65625 1.25 -1.828125 1.40625 -1.953125 C 1.5 -2.03125 1.609375 -2.09375 1.734375 -2.109375 C 1.96875 -2.125 2.1875 -2.078125 2.28125 -1.921875 C 2.359375 -1.78125 2.296875 -1.609375 2.265625 -1.453125 L 1.953125 0 L 2.21875 0 C 2.265625 0 2.328125 0.015625 2.328125 -0.046875 C 2.34375 -0.078125 2.40625 -0.421875 2.4375 -0.546875 C 2.46875 -0.71875 2.59375 -1.328125 2.625 -1.453125 C 2.6875 -1.65625 2.796875 -1.828125 2.9375 -1.953125 C 3.03125 -2.03125 3.15625 -2.09375 3.28125 -2.109375 C 3.515625 -2.125 3.734375 -2.078125 3.8125 -1.921875 C 3.890625 -1.78125 3.828125 -1.609375 3.796875 -1.453125 L 3.5 0 L 3.765625 0 C 3.8125 0 3.875 0.015625 3.875 -0.0625 C 3.890625 -0.15625 3.96875 -0.515625 3.96875 -0.515625 L 4.1875 -1.5625 C 4.234375 -1.765625 4.265625 -1.984375 4.15625 -2.171875 C 4.0625 -2.328125 3.890625 -2.375 3.703125 -2.390625 C 3.359375 -2.421875 3.078125 -2.265625 2.90625 -2.109375 C 2.828125 -2.03125 2.734375 -1.953125 2.703125 -1.859375 C 2.6875 -1.90625 2.6875 -1.9375 2.6875 -1.96875 C 2.671875 -2.0625 2.640625 -2.15625 2.578125 -2.234375 C 2.46875 -2.34375 2.3125 -2.375 2.171875 -2.390625 C 1.8125 -2.421875 1.5625 -2.265625 1.375 -2.109375 C 1.296875 -2.046875 1.21875 -1.96875 1.171875 -1.875 Z M 1.171875 -1.875 "/>
</symbol>
<symbol overflow="visible" id="glyph2-2">
<path style="stroke:none;" d="M 2.6875 -3.453125 L 2.609375 -3.078125 L 2.390625 -2.03125 L 2.390625 -2.03125 C 2.359375 -2.125 2.265625 -2.203125 2.1875 -2.25 C 2.03125 -2.375 1.796875 -2.40625 1.59375 -2.375 C 1.3125 -2.34375 1.0625 -2.15625 0.90625 -1.984375 C 0.609375 -1.671875 0.4375 -1.234375 0.453125 -0.796875 C 0.453125 -0.40625 0.671875 0 1.125 0.046875 C 1.53125 0.0625 1.828125 -0.171875 2.03125 -0.359375 L 1.953125 0 L 2.21875 0 C 2.25 0 2.296875 0.015625 2.3125 -0.015625 C 2.328125 -0.046875 2.328125 -0.078125 2.34375 -0.109375 C 2.359375 -0.171875 3.046875 -3.421875 3.046875 -3.453125 L 2.6875 -3.453125 Z M 2.25 -1.953125 C 2.28125 -1.921875 2.3125 -1.875 2.328125 -1.828125 C 2.34375 -1.78125 2.3125 -1.71875 2.296875 -1.671875 C 2.265625 -1.515625 2.09375 -0.703125 2.09375 -0.703125 C 2.078125 -0.578125 2.03125 -0.53125 1.9375 -0.453125 C 1.8125 -0.34375 1.65625 -0.25 1.46875 -0.234375 C 1.265625 -0.21875 1.09375 -0.296875 0.984375 -0.40625 C 0.78125 -0.59375 0.796875 -0.890625 0.84375 -1.140625 C 0.890625 -1.40625 1 -1.6875 1.21875 -1.875 C 1.3125 -1.953125 1.40625 -2 1.515625 -2.046875 C 1.78125 -2.140625 2.078125 -2.15625 2.25 -1.953125 Z M 2.03125 -0.375 C 2.03125 -0.375 2.03125 -0.375 2.03125 -0.375 C 2.03125 -0.359375 2.03125 -0.359375 2.03125 -0.375 Z M 2.03125 -0.375 "/>
</symbol>
<symbol overflow="visible" id="glyph2-3">
<path style="stroke:none;" d="M 2.078125 -0.640625 L 2.078125 -0.640625 C 2.046875 -0.46875 2.015625 -0.3125 1.984375 -0.140625 C 1.953125 -0.03125 1.9375 0.09375 1.875 0.203125 C 1.78125 0.390625 1.609375 0.546875 1.40625 0.609375 C 1.3125 0.640625 1.203125 0.640625 1.109375 0.640625 C 0.921875 0.625 0.75 0.59375 0.5625 0.515625 C 0.46875 0.484375 0.390625 0.4375 0.296875 0.390625 L 0.234375 0.703125 C 0.4375 0.78125 0.59375 0.875 0.859375 0.890625 C 1.03125 0.921875 1.203125 0.9375 1.375 0.90625 C 1.703125 0.84375 2.015625 0.609375 2.1875 0.328125 C 2.265625 0.171875 2.3125 0.015625 2.34375 -0.15625 C 2.375 -0.296875 2.765625 -2.15625 2.828125 -2.390625 C 2.703125 -2.390625 2.59375 -2.390625 2.484375 -2.390625 L 2.453125 -2.359375 L 2.375 -1.953125 C 2.34375 -2 2.328125 -2.046875 2.296875 -2.09375 C 2.25 -2.1875 2.171875 -2.265625 2.0625 -2.328125 C 1.796875 -2.46875 1.484375 -2.375 1.234375 -2.234375 C 0.890625 -2.03125 0.640625 -1.703125 0.53125 -1.328125 C 0.453125 -1.125 0.4375 -0.890625 0.484375 -0.671875 C 0.546875 -0.421875 0.703125 -0.25 0.9375 -0.15625 C 1.296875 0 1.6875 -0.171875 1.9375 -0.4375 C 1.984375 -0.5 2.046875 -0.5625 2.078125 -0.640625 Z M 1.84375 -2.109375 C 1.921875 -2.125 2.03125 -2.109375 2.109375 -2.0625 C 2.234375 -1.96875 2.296875 -1.796875 2.296875 -1.625 C 2.296875 -1.53125 2.265625 -1.4375 2.25 -1.34375 C 2.234375 -1.265625 2.234375 -1.296875 2.203125 -1.1875 C 2.1875 -1.125 2.171875 -1.078125 2.15625 -1.03125 C 2.046875 -0.734375 1.84375 -0.40625 1.5 -0.375 C 1.359375 -0.359375 1.21875 -0.40625 1.125 -0.453125 C 0.875 -0.609375 0.78125 -0.921875 0.859375 -1.1875 C 0.953125 -1.65625 1.359375 -2.078125 1.84375 -2.109375 Z M 1.84375 -2.109375 "/>
</symbol>
<symbol overflow="visible" id="glyph3-0">
<path style="stroke:none;" d=""/>
</symbol>
<symbol overflow="visible" id="glyph3-1">
<path style="stroke:none;" d="M 0.296875 -0.125 L 4.484375 -1.8125 C 4.46875 -1.875 4.40625 -1.890625 4.375 -1.9375 L 1.03125 -5.40625 L 0.890625 -5.5625 C 0.875 -5.5625 0.859375 -5.59375 0.828125 -5.609375 C 0.78125 -5.625 0.703125 -5.578125 0.671875 -5.5625 L 0.4375 -5.46875 C 0.40625 -5.453125 0.359375 -5.4375 0.3125 -5.421875 C 0.28125 -5.40625 0.296875 -5.359375 0.28125 -5.328125 C 0.296875 -4.234375 0.28125 -0.21875 0.296875 -0.125 Z M 0.75 -4.96875 L 1 -4.6875 L 2.875 -2.71875 C 3.109375 -2.484375 3.34375 -2.234375 3.578125 -1.984375 L 0.765625 -0.859375 C 0.75 -2.0625 0.765625 -3.265625 0.765625 -4.5 C 0.765625 -4.65625 0.75 -4.8125 0.75 -4.96875 Z M 0.75 -4.96875 "/>
</symbol>
<symbol overflow="visible" id="glyph3-2">
<path style="stroke:none;" d="M 1.765625 -2.875 L -0.109375 -2.109375 C -0.15625 -2.09375 -0.21875 -2.078125 -0.25 -2.0625 C -0.3125 -2 -0.34375 -1.921875 -0.3125 -1.859375 C -0.28125 -1.796875 -0.21875 -1.75 -0.125 -1.765625 C -0.09375 -1.765625 -0.03125 -1.78125 0.015625 -1.796875 L 1.890625 -2.5625 L 2.65625 -0.6875 C 2.671875 -0.640625 2.671875 -0.59375 2.703125 -0.53125 C 2.765625 -0.5 2.84375 -0.46875 2.90625 -0.5 C 2.96875 -0.53125 3.015625 -0.59375 3 -0.65625 C 3 -0.71875 2.96875 -0.765625 2.953125 -0.8125 L 2.1875 -2.6875 L 4.078125 -3.453125 C 4.125 -3.46875 4.171875 -3.484375 4.21875 -3.515625 C 4.265625 -3.5625 4.296875 -3.640625 4.265625 -3.703125 C 4.234375 -3.765625 4.171875 -3.8125 4.09375 -3.8125 C 4.046875 -3.796875 4 -3.78125 3.953125 -3.765625 L 2.0625 -3 L 1.296875 -4.875 C 1.28125 -4.921875 1.28125 -4.984375 1.25 -5.015625 C 1.203125 -5.078125 1.125 -5.109375 1.0625 -5.078125 C 1 -5.046875 0.953125 -4.984375 0.953125 -4.890625 C 0.953125 -4.859375 0.984375 -4.796875 1 -4.75 L 1.765625 -2.875 Z M 1.765625 -2.875 "/>
</symbol>
<symbol overflow="visible" id="glyph4-0">
<path style="stroke:none;" d=""/>
</symbol>
<symbol overflow="visible" id="glyph4-1">
<path style="stroke:none;" d="M 0.265625 -5.375 C -0.125 -5.15625 -0.34375 -4.71875 -0.46875 -4.296875 C -0.65625 -3.625 -0.625 -2.921875 -0.484375 -2.234375 C -0.40625 -1.796875 -0.234375 -1.375 0 -1 C 0.25 -0.625 0.734375 -0.1875 1.265625 -0.4375 C 1.671875 -0.671875 1.875 -1.125 2 -1.546875 C 2.171875 -2.140625 2.15625 -2.8125 2.046875 -3.4375 C 1.96875 -3.921875 1.78125 -4.515625 1.515625 -4.859375 C 1.265625 -5.203125 0.875 -5.5625 0.4375 -5.4375 C 0.375 -5.421875 0.296875 -5.40625 0.265625 -5.375 Z M 1.53125 -3.4375 L -0.09375 -2.78125 C -0.125 -2.96875 -0.140625 -3.15625 -0.15625 -3.34375 C -0.171875 -3.75 -0.15625 -4.1875 -0.015625 -4.5625 C 0.109375 -4.828125 0.34375 -5.125 0.65625 -5.03125 C 0.875 -5 1 -4.828125 1.109375 -4.671875 C 1.28125 -4.40625 1.390625 -4.140625 1.4375 -3.859375 C 1.484375 -3.71875 1.5 -3.578125 1.53125 -3.4375 Z M 1.609375 -3.046875 C 1.625 -3 1.625 -2.9375 1.640625 -2.859375 C 1.703125 -2.296875 1.75 -1.796875 1.53125 -1.296875 C 1.453125 -1.0625 1.25 -0.78125 0.953125 -0.78125 C 0.609375 -0.796875 0.359375 -1.1875 0.203125 -1.5625 C 0.09375 -1.828125 0.046875 -2.109375 0 -2.390625 L 1.609375 -3.046875 Z M 1.609375 -3.046875 "/>
</symbol>
<symbol overflow="visible" id="glyph5-0">
<path style="stroke:none;" d=""/>
</symbol>
<symbol overflow="visible" id="glyph5-1">
<path style="stroke:none;" d="M 1.6875 -1.375 L 1.6875 -1.375 C 1.71875 -1.203125 1.765625 -1.046875 1.796875 -0.875 C 1.796875 -0.765625 1.828125 -0.625 1.8125 -0.515625 C 1.796875 -0.3125 1.703125 -0.109375 1.53125 0.03125 C 1.453125 0.109375 1.34375 0.140625 1.265625 0.171875 C 1.09375 0.234375 0.921875 0.265625 0.703125 0.28125 C 0.625 0.28125 0.515625 0.265625 0.421875 0.25 L 0.484375 0.5625 C 0.703125 0.5625 0.875 0.59375 1.125 0.5 C 1.296875 0.46875 1.453125 0.421875 1.625 0.328125 C 1.890625 0.140625 2.109375 -0.1875 2.15625 -0.515625 C 2.15625 -0.6875 2.140625 -0.84375 2.109375 -1.015625 C 2.09375 -1.171875 1.75 -3.03125 1.734375 -3.28125 C 1.609375 -3.234375 1.515625 -3.1875 1.40625 -3.15625 L 1.390625 -3.109375 L 1.46875 -2.703125 C 1.421875 -2.734375 1.390625 -2.765625 1.34375 -2.796875 C 1.28125 -2.875 1.171875 -2.90625 1.03125 -2.921875 C 0.75 -2.953125 0.484375 -2.765625 0.296875 -2.546875 C 0.0625 -2.21875 -0.046875 -1.8125 0 -1.4375 C 0 -1.21875 0.078125 -0.984375 0.203125 -0.8125 C 0.34375 -0.59375 0.5625 -0.5 0.8125 -0.484375 C 1.203125 -0.484375 1.5 -0.78125 1.640625 -1.125 C 1.65625 -1.21875 1.6875 -1.28125 1.6875 -1.375 Z M 0.90625 -2.640625 C 0.984375 -2.6875 1.09375 -2.71875 1.1875 -2.703125 C 1.34375 -2.671875 1.453125 -2.53125 1.515625 -2.359375 C 1.546875 -2.28125 1.5625 -2.171875 1.59375 -2.09375 C 1.609375 -2.015625 1.59375 -2.046875 1.609375 -1.921875 C 1.609375 -1.859375 1.609375 -1.8125 1.609375 -1.765625 C 1.609375 -1.453125 1.546875 -1.0625 1.25 -0.90625 C 1.125 -0.84375 0.96875 -0.828125 0.875 -0.84375 C 0.578125 -0.890625 0.375 -1.15625 0.359375 -1.421875 C 0.265625 -1.890625 0.484375 -2.4375 0.90625 -2.640625 Z M 0.90625 -2.640625 "/>
</symbol>
<symbol overflow="visible" id="glyph5-2">
<path style="stroke:none;" d="M 1.1875 -4.203125 L 1.265625 -3.84375 L 1.453125 -2.78125 L 1.453125 -2.78125 C 1.390625 -2.859375 1.265625 -2.890625 1.1875 -2.90625 C 1 -2.96875 0.765625 -2.90625 0.59375 -2.796875 C 0.34375 -2.65625 0.171875 -2.390625 0.09375 -2.1875 C -0.0625 -1.78125 -0.0625 -1.296875 0.125 -0.90625 C 0.265625 -0.546875 0.625 -0.25 1.0625 -0.375 C 1.4375 -0.515625 1.625 -0.84375 1.75 -1.09375 L 1.8125 -0.734375 L 2.0625 -0.828125 C 2.09375 -0.84375 2.125 -0.84375 2.140625 -0.875 C 2.140625 -0.921875 2.125 -0.953125 2.125 -0.96875 C 2.125 -1.046875 1.546875 -4.3125 1.53125 -4.34375 L 1.1875 -4.203125 Z M 1.359375 -2.65625 C 1.390625 -2.640625 1.4375 -2.59375 1.46875 -2.5625 C 1.5 -2.53125 1.5 -2.453125 1.5 -2.40625 C 1.53125 -2.25 1.671875 -1.4375 1.671875 -1.4375 C 1.703125 -1.3125 1.6875 -1.265625 1.625 -1.140625 C 1.5625 -0.984375 1.4375 -0.859375 1.265625 -0.765625 C 1.09375 -0.671875 0.90625 -0.6875 0.75 -0.75 C 0.5 -0.84375 0.40625 -1.125 0.359375 -1.375 C 0.296875 -1.625 0.296875 -1.9375 0.421875 -2.1875 C 0.484375 -2.296875 0.546875 -2.390625 0.640625 -2.453125 C 0.859375 -2.65625 1.109375 -2.78125 1.359375 -2.65625 Z M 1.75 -1.109375 C 1.75 -1.109375 1.75 -1.109375 1.75 -1.109375 C 1.75 -1.09375 1.75 -1.09375 1.75 -1.109375 Z M 1.75 -1.109375 "/>
</symbol>
</g>
<clipPath id="clip1">
  <path d="M -217 668 L 395 668 L 395 -124 L -217 -124 L -217 668 Z M -217 668 "/>
</clipPath>
<clipPath id="clip2">
  <path d="M 14 72.976563 L 176.992188 72.976563 L 176.992188 0.800781 L 14 0.800781 L 14 72.976563 Z M 14 72.976563 "/>
</clipPath>
<clipPath id="clip3">
  <path d="M -217 668 L 395 668 L 395 -124 L -217 -124 L -217 668 Z M -217 668 "/>
</clipPath>
</defs>
<g id="surface0">
<g clip-path="url(#clip1)" clip-rule="nonzero">
<g clip-path="url(#clip2)" clip-rule="nonzero">
<path style=" stroke:none;fill-rule:nonzero;fill:rgb(0%,0%,0%);fill-opacity:1;" d="M 173.191406 71.996094 L 173.191406 72.761719 L 176.085938 71.996094 L 173.191406 71.230469 L 173.191406 71.996094 "/>
<path style="fill:none;stroke-width:5;stroke-linecap:butt;stroke-linejoin:miter;stroke:rgb(0%,0%,0%);stroke-opacity:1;stroke-miterlimit:10;" d="M 3330.461674 20.521781 L 3330.461674 4.503952 L 3391.018875 20.521781 L 3330.461674 36.53961 L 3330.461674 20.521781 M 28.990963 20.521781 L 3330.461674 20.521781 " transform="matrix(0.0477983,0,0,-0.0477983,14.001,72.977)"/>
<path style="fill-rule:nonzero;fill:rgb(0%,0%,0%);fill-opacity:1;stroke-width:5;stroke-linecap:butt;stroke-linejoin:miter;stroke:rgb(0%,0%,0%);stroke-opacity:1;stroke-miterlimit:10;" d="M 3330.461674 20.521781 L 3330.461674 4.503952 L 3391.018875 20.521781 L 3330.461674 36.53961 L 3330.461674 20.521781 " transform="matrix(0.0477983,0,0,-0.0477983,14.001,72.977)"/>
<path style=" stroke:none;fill-rule:nonzero;fill:rgb(0%,0%,0%);fill-opacity:1;" d="M 15.386719 4.195313 L 16.152344 4.195313 L 15.386719 1.304688 L 14.621094 4.195313 L 15.386719 4.195313 "/>
<path style="fill:none;stroke-width:5;stroke-linecap:butt;stroke-linejoin:miter;stroke:rgb(0%,0%,0%);stroke-opacity:1;stroke-miterlimit:10;" d="M 28.990963 1438.998615 L 45.008792 1438.998615 L 28.990963 1499.474092 L 12.973134 1438.998615 L 28.990963 1438.998615 M 28.990963 20.521781 L 28.990963 1438.998615 " transform="matrix(0.0477983,0,0,-0.0477983,14.001,72.977)"/>
<path style="fill-rule:nonzero;fill:rgb(0%,0%,0%);fill-opacity:1;stroke-width:5;stroke-linecap:butt;stroke-linejoin:miter;stroke:rgb(0%,0%,0%);stroke-opacity:1;stroke-miterlimit:10;" d="M 28.990963 1438.998615 L 45.008792 1438.998615 L 28.990963 1499.474092 L 12.973134 1438.998615 L 28.990963 1438.998615 " transform="matrix(0.0477983,0,0,-0.0477983,14.001,72.977)"/>
<path style="fill:none;stroke-width:7.5;stroke-linecap:butt;stroke-linejoin:miter;stroke:rgb(0%,0%,0%);stroke-opacity:1;stroke-miterlimit:10;" d="M 28.990963 20.521781 L 3391.018875 1496.532042 " transform="matrix(0.0477983,0,0,-0.0477983,14.001,72.977)"/>
<path style="fill:none;stroke-width:5;stroke-linecap:butt;stroke-linejoin:miter;stroke:rgb(0%,0%,0%);stroke-opacity:1;stroke-miterlimit:10;" d="M 736.962664 20.521781 L 736.962664 642.029894 L 28.990963 642.029894 " transform="matrix(0.0477983,0,0,-0.0477983,14.001,72.977)"/>
<path style=" stroke:none;fill-rule:nonzero;fill:rgb(0%,0%,0%);fill-opacity:1;" d="M 119.277344 64.730469 L 118.847656 64.085938 L 116.886719 66.355469 L 119.707031 65.378906 L 119.277344 64.730469 "/>
<path style="fill:none;stroke-width:5;stroke-linecap:butt;stroke-linejoin:miter;stroke:rgb(0%,0%,0%);stroke-opacity:1;stroke-miterlimit:10;" d="M 2202.512302 172.52771 L 2193.522704 186.012107 L 2152.497448 138.530685 L 2211.5019 158.96159 L 2202.512302 172.52771 M 2418.017482 318.976433 L 2202.512302 172.52771 " transform="matrix(0.0477983,0,0,-0.0477983,14.001,72.977)"/>
<path style="fill-rule:nonzero;fill:rgb(0%,0%,0%);fill-opacity:1;stroke-width:5;stroke-linecap:butt;stroke-linejoin:miter;stroke:rgb(0%,0%,0%);stroke-opacity:1;stroke-miterlimit:10;" d="M 2202.512302 172.52771 L 2193.522704 186.012107 L 2152.497448 138.530685 L 2211.5019 158.96159 L 2202.512302 172.52771 " transform="matrix(0.0477983,0,0,-0.0477983,14.001,72.977)"/>
<path style=" stroke:none;fill-rule:nonzero;fill:rgb(0%,0%,0%);fill-opacity:1;" d="M 127.378906 26.421875 L 127.761719 25.871094 L 125.347656 25.058594 L 127.019531 26.972656 L 127.378906 26.421875 "/>
<path style="fill:none;stroke-width:5;stroke-linecap:butt;stroke-linejoin:miter;stroke:rgb(0%,0%,0%);stroke-opacity:1;stroke-miterlimit:10;" d="M 2372.007085 973.99123 L 2380.016 985.51426 L 2329.510804 1002.512772 L 2364.488512 962.4682 L 2372.007085 973.99123 M 2478.002617 902.973406 L 2372.007085 973.99123 " transform="matrix(0.0477983,0,0,-0.0477983,14.001,72.977)"/>
<path style="fill-rule:nonzero;fill:rgb(0%,0%,0%);fill-opacity:1;stroke-width:5;stroke-linecap:butt;stroke-linejoin:miter;stroke:rgb(0%,0%,0%);stroke-opacity:1;stroke-miterlimit:10;" d="M 2372.007085 973.99123 L 2380.016 985.51426 L 2329.510804 1002.512772 L 2364.488512 962.4682 L 2372.007085 973.99123 " transform="matrix(0.0477983,0,0,-0.0477983,14.001,72.977)"/>
<path style=" stroke:none;fill-rule:nonzero;fill:rgb(0%,0%,0%);fill-opacity:1;" d="M 83.859375 29.71875 L 83.117188 29.503906 L 83.046875 32.492188 L 84.621094 29.933594 L 83.859375 29.71875 "/>
<path style="fill:none;stroke-width:5;stroke-linecap:butt;stroke-linejoin:miter;stroke:rgb(0%,0%,0%);stroke-opacity:1;stroke-miterlimit:10;" d="M 1461.524259 905.016496 L 1445.996772 909.511295 L 1444.525747 846.992728 L 1477.460365 900.521697 L 1461.524259 905.016496 M 1515.461847 1083.010536 L 1461.524259 905.016496 " transform="matrix(0.0477983,0,0,-0.0477983,14.001,72.977)"/>
<path style="fill-rule:nonzero;fill:rgb(0%,0%,0%);fill-opacity:1;stroke-width:5;stroke-linecap:butt;stroke-linejoin:miter;stroke:rgb(0%,0%,0%);stroke-opacity:1;stroke-miterlimit:10;" d="M 1461.524259 905.016496 L 1445.996772 909.511295 L 1444.525747 846.992728 L 1477.460365 900.521697 L 1461.524259 905.016496 " transform="matrix(0.0477983,0,0,-0.0477983,14.001,72.977)"/>
<path style="fill:none;stroke-width:10;stroke-linecap:butt;stroke-linejoin:miter;stroke:rgb(0%,0%,0%);stroke-opacity:1;stroke-miterlimit:10;" d="M 185.001349 1499.474092 L 186.962716 1481.985238 L 209.518435 1317.965937 L 231.99243 1192.520184 L 254.466425 1093.961501 L 277.022143 1015.506828 L 299.98648 951.517235 L 322.460475 898.968949 L 345.016193 855.491984 L 367.490188 818.961527 L 389.964183 787.988276 L 412.519901 762.000165 L 434.993896 740.506854 L 457.467891 721.465251 L 480.513951 706.019487 L 502.987946 692.53509 L 525.461941 681.502402 L 548.01766 672.022462 L 570.491655 664.503889 L 592.965649 657.966 L 615.521368 652.980859 L 637.995363 648.976402 L 660.959699 646.034352 L 683.515418 643.991261 L 705.989413 642.520236 L 728.463408 642.029894 L 751.019126 642.029894 L 773.493121 642.520236 L 795.967116 643.991261 L 818.522834 645.462286 L 841.487171 647.995718 L 863.961166 650.529151 L 886.516884 653.471201 L 908.990879 656.494975 L 931.464874 660.499432 L 954.020593 664.503889 L 976.494588 668.508347 L 998.968583 673.003146 L 1022.014643 677.988286 L 1044.488638 682.973427 L 1066.962633 688.040291 L 1089.518351 693.515774 L 1111.992346 698.991256 L 1134.466341 705.038804 L 1157.022059 710.514286 L 1179.986396 716.970452 L 1202.460391 723.018 L 1225.016109 729.474165 L 1247.490104 736.012055 L 1269.964099 742.468221 L 1292.519818 749.00611 L 1314.993813 756.034341 L 1337.467807 762.980849 L 1360.513868 770.00908 L 1382.987863 777.527653 L 1405.461857 784.47416 L 1428.017576 791.992733 L 1450.491571 799.020964 L 1472.965566 806.539537 L 1495.521284 814.466728 L 1517.995279 821.985301 L 1540.959616 829.503874 L 1563.515334 837.512788 L 1585.989329 845.031361 L 1608.463324 853.040275 L 1631.019043 860.967466 L 1653.493037 868.976381 L 1675.967032 876.985296 L 1698.522751 884.99421 L 1721.487087 893.493466 L 1743.961082 901.502381 L 1766.516801 910.001637 L 1788.990796 918.010552 L 1811.464791 926.509808 L 1834.020509 935.009064 L 1856.494504 943.017979 L 1878.968499 951.517235 L 1902.014559 960.016491 L 1924.488554 968.515747 L 1946.962549 977.015004 L 1969.518267 985.51426 L 1991.992262 994.503858 L 2014.466257 1003.003114 L 2037.021976 1011.50237 L 2059.495971 1020.491968 L 2082.460307 1028.991225 L 2105.016026 1037.490481 L 2127.490021 1046.480079 L 2149.964015 1055.469677 L 2172.519734 1063.968933 L 2194.993729 1073.040255 L 2217.467724 1082.029853 L 2240.023442 1090.529109 L 2262.987779 1099.518707 L 2285.461774 1108.508305 L 2308.017492 1117.497903 L 2330.491487 1126.487501 L 2352.965482 1135.477099 L 2375.521201 1144.466697 L 2397.995195 1153.538018 L 2420.959532 1162.527616 L 2443.515251 1171.517214 L 2465.989245 1180.506812 L 2488.46324 1189.49641 L 2511.018959 1198.486008 L 2533.492954 1207.965948 L 2555.966949 1217.037269 L 2578.522667 1226.026867 L 2601.487004 1235.016465 L 2623.960999 1244.496405 L 2646.516717 1253.486003 L 2668.990712 1262.475601 L 2691.464707 1272.037264 L 2714.020425 1281.026862 L 2736.49442 1290.506801 L 2758.968415 1299.496399 L 2782.014475 1308.976339 L 2804.48847 1317.965937 L 2826.962465 1327.5276 L 2849.518184 1336.517198 L 2871.992179 1345.997138 L 2894.466173 1354.986736 L 2917.021892 1364.466676 L 2939.495887 1374.028339 L 2962.460223 1383.017937 L 2985.015942 1392.497876 L 3007.489937 1401.977816 L 3029.963932 1410.967414 L 3052.51965 1420.529077 L 3074.993645 1430.009017 L 3097.46764 1439.488957 L 3120.023359 1448.478555 L 3142.987695 1458.040218 L 3165.46169 1467.520158 L 3188.017409 1477.000097 L 3210.491403 1486.480037 L 3232.965398 1495.469635 L 3242.03672 1499.474092 " transform="matrix(0.0477983,0,0,-0.0477983,14.001,72.977)"/>
<path style="fill:none;stroke-width:7.5;stroke-linecap:butt;stroke-linejoin:miter;stroke:rgb(0%,0%,0%);stroke-opacity:1;stroke-miterlimit:10;" d="M 178.46346 1499.474092 L 186.962716 1413.010505 L 209.518435 1239.020922 L 231.99243 1103.523164 L 254.466425 994.9942 L 277.022143 906.487522 L 299.98648 832.527647 L 322.460475 770.00908 L 345.016193 716.48011 L 367.490188 670.469713 L 389.964183 629.526181 L 412.519901 593.976407 L 434.993896 562.022473 L 457.467891 533.50093 L 480.513951 508.003161 L 502.987946 484.466759 L 525.461941 463.46379 L 548.01766 444.50391 L 570.491655 426.524714 L 592.965649 410.506885 L 615.521368 395.46974 L 637.995363 381.495001 L 660.959699 368.500946 L 683.515418 356.487574 L 705.989413 345.536609 L 728.463408 334.994262 L 751.019126 325.023981 L 773.493121 316.034383 L 795.967116 306.963061 L 818.522834 299.035871 L 841.487171 291.026956 L 863.961166 283.998725 L 886.516884 276.970494 L 908.990879 270.514328 L 931.464874 263.976438 L 954.020593 258.010614 L 976.494588 252.535132 L 998.968583 246.977926 L 1022.014643 241.992785 L 1044.488638 237.007645 L 1066.962633 232.512846 L 1089.518351 228.018047 L 1111.992346 223.523248 L 1134.466341 219.51879 L 1157.022059 215.514333 L 1179.986396 211.509876 L 1202.460391 207.99576 L 1225.016109 204.481645 L 1247.490104 200.967529 L 1269.964099 197.535137 L 1292.519818 194.511363 L 1314.993813 191.48759 L 1337.467807 188.463816 L 1360.513868 185.521765 L 1382.987863 182.988333 L 1405.461857 180.536625 L 1428.017576 177.512851 L 1450.491571 174.979419 L 1472.965566 173.018052 L 1495.521284 170.48462 L 1517.995279 168.032911 L 1540.959616 165.989821 L 1563.515334 164.028454 L 1585.989329 161.985363 L 1608.463324 159.533655 L 1631.019043 157.980906 L 1653.493037 156.019539 L 1675.967032 153.976449 L 1698.522751 152.015082 L 1721.487087 150.462333 L 1743.961082 148.500967 L 1766.516801 147.029941 L 1788.990796 145.477193 L 1811.464791 144.006168 L 1834.020509 142.535142 L 1856.494504 140.982394 L 1878.968499 139.511369 L 1902.014559 138.040343 L 1924.488554 136.487595 L 1946.962549 135.01657 L 1969.518267 134.035886 L 1991.992262 132.483137 L 2014.466257 131.502454 L 2037.021976 130.031429 L 2059.495971 128.969022 L 2082.460307 127.497997 L 2105.016026 126.517313 L 2127.490021 125.53663 L 2149.964015 123.983881 L 2172.519734 123.003198 L 2194.993729 122.022514 L 2217.467724 120.960107 L 2240.023442 119.979424 L 2262.987779 118.998741 L 2285.461774 118.018057 L 2308.017492 117.037374 L 2330.491487 115.974967 L 2352.965482 114.994283 L 2375.521201 114.0136 L 2397.995195 113.523258 L 2420.959532 112.460851 L 2443.515251 111.480168 L 2465.989245 110.499484 L 2488.46324 110.009143 L 2511.018959 109.028459 L 2533.492954 108.538117 L 2555.966949 107.47571 L 2578.522667 106.985369 L 2601.487004 106.004685 L 2623.960999 105.514344 L 2646.516717 104.53366 L 2668.990712 103.961595 L 2691.464707 102.980911 L 2714.020425 102.49057 L 2736.49442 101.509886 L 2758.968415 101.019545 L 2782.014475 100.529203 L 2804.48847 99.466796 L 2826.962465 98.976454 L 2849.518184 98.486112 L 2871.992179 97.995771 L 2894.466173 97.015087 L 2917.021892 96.524746 L 2939.495887 96.034404 L 2962.460223 95.462339 L 2985.015942 94.971997 L 3007.489937 94.481655 L 3029.963932 93.991313 L 3052.51965 93.01063 L 3074.993645 92.520288 L 3097.46764 92.029947 L 3120.023359 91.539605 L 3142.987695 90.96754 L 3165.46169 90.477198 L 3188.017409 89.986856 L 3210.491403 89.496515 L 3232.965398 89.006173 L 3255.521117 88.515831 L 3277.995112 88.025489 L 3300.469107 87.535148 L 3323.515167 87.535148 L 3345.989162 86.963082 L 3368.463157 86.472741 L 3391.018875 85.982399 " transform="matrix(0.0477983,0,0,-0.0477983,14.001,72.977)"/>
<path style=" stroke:none;fill-rule:nonzero;fill:rgb(0%,0%,0%);fill-opacity:1;" d="M 50.359375 42.289063 C 50.359375 41.667969 49.851563 41.160156 49.230469 41.160156 C 48.605469 41.160156 48.101563 41.667969 48.101563 42.289063 C 48.101563 42.914063 48.605469 43.417969 49.230469 43.417969 C 49.851563 43.417969 50.359375 42.914063 50.359375 42.289063 "/>
</g>
</g>
<g clip-path="url(#clip3)" clip-rule="nonzero">
<g style="fill:rgb(0%,0%,0%);fill-opacity:1;">
  <use xlink:href="#glyph0-1" x="172.927" y="79.238"/>
</g>
<g style="fill:rgb(0%,0%,0%);fill-opacity:1;">
  <use xlink:href="#glyph1-1" x="4.364" y="7.367"/>
</g>
<g style="fill:rgb(0%,0%,0%);fill-opacity:1;">
  <use xlink:href="#glyph0-2" x="9.536" y="7.367"/>
</g>
<g style="fill:rgb(0%,0%,0%);fill-opacity:1;">
  <use xlink:href="#glyph0-1" x="45.037" y="78.387"/>
</g>
<g style="fill:rgb(0%,0%,0%);fill-opacity:1;">
  <use xlink:href="#glyph2-1" x="48.373" y="79.259"/>
</g>
<g style="fill:rgb(0%,0%,0%);fill-opacity:1;">
  <use xlink:href="#glyph1-1" x="0.255" y="44.349"/>
</g>
<g style="fill:rgb(0%,0%,0%);fill-opacity:1;">
  <use xlink:href="#glyph0-2" x="5.427" y="44.349"/>
</g>
<g style="fill:rgb(0%,0%,0%);fill-opacity:1;">
  <use xlink:href="#glyph2-1" x="8.826" y="45.221"/>
</g>
<g style="fill:rgb(0%,0%,0%);fill-opacity:1;">
  <use xlink:href="#glyph1-1" x="130.788" y="59.511"/>
</g>
<g style="fill:rgb(0%,0%,0%);fill-opacity:1;">
  <use xlink:href="#glyph0-2" x="135.96" y="59.511"/>
</g>
<g style="fill:rgb(0%,0%,0%);fill-opacity:1;">
  <use xlink:href="#glyph2-2" x="139.359" y="60.568"/>
</g>
<g style="fill:rgb(0%,0%,0%);fill-opacity:1;">
  <use xlink:href="#glyph1-2" x="145.122" y="59.511"/>
</g>
<g style="fill:rgb(0%,0%,0%);fill-opacity:1;">
  <use xlink:href="#glyph0-3" x="152.944" y="59.511"/>
  <use xlink:href="#glyph0-4" x="157.469996" y="59.511"/>
  <use xlink:href="#glyph0-1" x="161.175176" y="59.511"/>
</g>
<g style="fill:rgb(0%,0%,0%);fill-opacity:1;">
  <use xlink:href="#glyph1-1" x="133.623" y="31.655"/>
</g>
<g style="fill:rgb(0%,0%,0%);fill-opacity:1;">
  <use xlink:href="#glyph0-2" x="138.795" y="31.655"/>
</g>
<g style="fill:rgb(0%,0%,0%);fill-opacity:1;">
  <use xlink:href="#glyph2-3" x="142.194" y="32.527"/>
</g>
<g style="fill:rgb(0%,0%,0%);fill-opacity:1;">
  <use xlink:href="#glyph1-2" x="147.722" y="31.655"/>
</g>
<g style="fill:rgb(0%,0%,0%);fill-opacity:1;">
  <use xlink:href="#glyph0-1" x="155.543" y="31.655"/>
</g>
<g style="fill:rgb(0%,0%,0%);fill-opacity:1;">
  <use xlink:href="#glyph0-4" x="159.136599" y="31.655"/>
  <use xlink:href="#glyph0-5" x="162.841779" y="31.655"/>
</g>
<g style="fill:rgb(0%,0%,0%);fill-opacity:1;">
  <use xlink:href="#glyph3-1" x="88.857" y="22.56"/>
</g>
<g style="fill:rgb(0%,0%,0%);fill-opacity:1;">
  <use xlink:href="#glyph4-1" x="93.652427" y="20.622569"/>
</g>
<g style="fill:rgb(0%,0%,0%);fill-opacity:1;">
  <use xlink:href="#glyph5-1" x="97.130222" y="20.156886"/>
</g>
<g style="fill:rgb(0%,0%,0%);fill-opacity:1;">
  <use xlink:href="#glyph3-2" x="101.54745" y="17.43285"/>
</g>
<g style="fill:rgb(0%,0%,0%);fill-opacity:1;">
  <use xlink:href="#glyph3-1" x="108.416968" y="14.657451"/>
</g>
<g style="fill:rgb(0%,0%,0%);fill-opacity:1;">
  <use xlink:href="#glyph4-1" x="113.213354" y="12.719633"/>
</g>
<g style="fill:rgb(0%,0%,0%);fill-opacity:1;">
  <use xlink:href="#glyph5-2" x="116.760825" y="12.426407"/>
</g>
</g>
</g>
</svg>
