<?xml version="1.0" encoding="UTF-8" standalone="no"?>
<!-- Created with Inkscape (http://www.inkscape.org/) -->
<svg xmlns:dc="http://purl.org/dc/elements/1.1/" xmlns:cc="http://creativecommons.org/ns#" xmlns:rdf="http://www.w3.org/1999/02/22-rdf-syntax-ns#" xmlns:svg="http://www.w3.org/2000/svg" xmlns="http://www.w3.org/2000/svg" xmlns:xlink="http://www.w3.org/1999/xlink" version="1.1" width="224.1pt" height="199.2pt" viewBox="0 0 161.71947 143.74549" id="svg53816">
  <defs id="defs53818">
    <g id="g53820">
      <g id="glyph0-0"/>
      <g id="glyph0-1">
        <path d="m 0.75,-3.296875 c 0.078125,0.140625 0.1875,0.265625 0.265625,0.40625 0.0625,0.078125 0.671875,1 0.703125,1.046875 0.03125,0.03125 0.078125,0.09375 0.078125,0.125 0,0.046875 -0.0625,0.109375 -0.109375,0.125 C 1.375,-1.296875 0.046875,-0.046875 0,0 0.1875,0 0.375,0 0.53125,0 L 0.6875,-0.140625 1.984375,-1.4375 c 0.28125,0.484375 0.5625,0.96875 0.875,1.421875 C 3.03125,0 3.21875,0 3.40625,0 3.3125,-0.140625 2.359375,-1.546875 2.34375,-1.578125 c -0.015625,-0.03125 -0.0625,-0.078125 -0.0625,-0.125 0,-0.046875 0.078125,-0.09375 0.109375,-0.109375 0.09375,-0.109375 0.21875,-0.203125 0.328125,-0.3125 0.109375,-0.09375 1.21875,-1.140625 1.25,-1.171875 -0.1875,0 -0.359375,0 -0.53125,0 -0.46875,0.40625 -0.875,0.84375 -1.328125,1.265625 -0.28125,-0.421875 -0.53125,-0.859375 -0.828125,-1.265625 -0.171875,0 -0.34375,0 -0.53125,0 z m 0,0" id="path53824"/>
      </g>
      <g id="glyph0-2">
        <path d="m 0.8125,-3.296875 c 0.015625,0.09375 0.046875,0.1875 0.0625,0.28125 0.140625,0.6875 0.640625,2.9375 0.640625,3.015625 0,0.03125 -0.1875,0.296875 -0.1875,0.296875 -0.15625,0.28125 -0.390625,0.578125 -0.8125,0.53125 -0.09375,0 -0.1875,-0.015625 -0.28125,-0.03125 C 0.171875,0.78125 0.09375,0.75 0.03125,0.734375 l -0.046875,0.4375 C 0.203125,1.21875 0.59375,1.25 0.796875,1.1875 c 0.4375,-0.109375 0.75,-0.59375 0.96875,-0.921875 L 2.109375,-0.28125 C 2.296875,-0.59375 3.90625,-3.140625 4,-3.296875 c -0.171875,0 -0.34375,-0.015625 -0.484375,0 -0.171875,0.25 -0.3125,0.515625 -0.484375,0.75 -0.390625,0.6875 -0.84375,1.3125 -1.1875,2.03125 l -0.015625,0 c -0.09375,-1 -0.34375,-1.859375 -0.515625,-2.78125 l -0.5,0 z m 0,0" id="path53827"/>
      </g>
      <g id="glyph0-3">
        <path d="m 1.015625,-3.296875 -0.078125,0.375 2.140625,0 L 1.046875,-1 C 0.796875,-0.75 0.53125,-0.515625 0.28125,-0.265625 0.265625,-0.171875 0.234375,-0.09375 0.21875,0 1.171875,0 2.203125,0.015625 3.109375,0 3.15625,-0.125 3.1875,-0.265625 3.21875,-0.390625 l -2.265625,0 L 3.75,-3.046875 c 0.03125,-0.078125 0.046875,-0.171875 0.0625,-0.25 l -2.796875,0 z m 0,0" id="path53830"/>
      </g>
      <g id="glyph1-0"/>
      <g id="glyph1-1">
        <path d="M 2.59375,1.546875 C 2.5625,1.515625 2.5,1.484375 2.46875,1.4375 1.703125,0.75 1.234375,-0.3125 1.1875,-1.609375 c -0.046875,-0.875 0.109375,-1.78125 0.53125,-2.5625 0.1875,-0.375 0.4375,-0.6875 0.75,-0.96875 C 2.5,-5.171875 2.5625,-5.203125 2.59375,-5.25 l -0.265625,0 c -0.140625,0 -0.125,0 -0.234375,0.078125 C 1.734375,-4.875 1.421875,-4.5 1.203125,-4.09375 0.53125,-2.828125 0.484375,-1.171875 1.09375,0.1875 c 0.234375,0.5 0.5625,0.9375 1,1.28125 0.078125,0.078125 0.078125,0.078125 0.234375,0.078125 l 0.265625,0 z m 0,0" id="path53834"/>
      </g>
      <g id="glyph1-2">
        <path d="m 0.640625,-2.65625 c 0.125,-0.0625 0.234375,-0.140625 0.34375,-0.1875 C 1.21875,-2.953125 1.453125,-3 1.6875,-3.015625 1.765625,-3.03125 1.84375,-3.03125 1.90625,-3.03125 c 0.28125,0.046875 0.515625,0.234375 0.609375,0.515625 0.0625,0.203125 0.046875,0.4375 0.046875,0.640625 -0.375,0 -0.75,0.03125 -1.09375,0.125 -0.515625,0.125 -1.140625,0.390625 -1.0625,1.015625 0.03125,0.296875 0.1875,0.578125 0.453125,0.71875 C 1.046875,0.0625 1.25,0.0625 1.4375,0.046875 1.75,0.015625 2.0625,-0.0625 2.328125,-0.25 2.421875,-0.3125 2.484375,-0.390625 2.5625,-0.46875 l 0,0.46875 0.5,0 0,-1.828125 c 0,-0.203125 0.03125,-0.40625 -0.015625,-0.59375 -0.0625,-0.5 -0.5,-0.859375 -0.953125,-0.9375 -0.296875,-0.0625 -0.734375,0 -0.953125,0.0625 C 1.046875,-3.28125 0.671875,-3.15625 0.625,-3.09375 0.609375,-3.0625 0.609375,-3 0.609375,-2.96875 c 0.015625,0.109375 0.03125,0.203125 0.03125,0.3125 z M 2.5625,-1.625 l 0,0.515625 c 0,0.125 0,0.265625 -0.0625,0.375 -0.078125,0.15625 -0.234375,0.265625 -0.390625,0.3125 -0.328125,0.125 -0.765625,0.140625 -1.0625,-0.09375 C 0.984375,-0.5625 0.90625,-0.640625 0.890625,-0.75 0.8125,-1.046875 1.078125,-1.28125 1.328125,-1.40625 1.65625,-1.546875 2.109375,-1.625 2.5625,-1.625 z m 0,0" id="path53837"/>
      </g>
      <g id="glyph1-3">
        <path d="m 0.4375,-5.25 c 0.03125,0.046875 0.078125,0.078125 0.125,0.109375 C 1.421875,-4.375 1.90625,-3.125 1.84375,-1.609375 1.8125,-0.859375 1.640625,-0.09375 1.265625,0.5625 1.078125,0.890625 0.84375,1.1875 0.5625,1.4375 0.515625,1.484375 0.46875,1.515625 0.4375,1.546875 l 0.25,0 c 0.15625,0 0.140625,0 0.25,-0.078125 C 1.296875,1.1875 1.59375,0.8125 1.828125,0.390625 2.484375,-0.859375 2.546875,-2.53125 1.9375,-3.875 1.703125,-4.390625 1.359375,-4.8125 0.9375,-5.171875 0.84375,-5.234375 0.84375,-5.25 0.6875,-5.25 l -0.25,0 z m 0,0" id="path53840"/>
      </g>
      <g id="glyph1-4">
        <path d="m 0.78125,-4.234375 0,0.390625 c 0.34375,0 0.6875,-0.0625 1.015625,-0.203125 l 0,3.65625 -0.984375,0 0,0.390625 2.453125,0 0,-0.390625 -0.96875,0 0,-4.3125 c -0.046875,0 -0.09375,-0.015625 -0.125,0 -0.0625,0.03125 -0.09375,0.078125 -0.15625,0.125 -0.28125,0.234375 -0.78125,0.34375 -1.234375,0.34375 z m 0,0" id="path53843"/>
      </g>
      <g id="glyph1-5">
        <path d="M 1.84375,-4.703125 C 1.671875,-4.6875 1.515625,-4.65625 1.359375,-4.578125 0.625,-4.3125 0.375,-3.359375 0.375,-2.421875 c 0,0.15625 0,0.296875 0,0.4375 0.03125,0.65625 0.171875,1.296875 0.546875,1.6875 0.296875,0.3125 0.765625,0.4375 1.1875,0.40625 0.25,-0.03125 0.484375,-0.125 0.671875,-0.25 C 3.375,-0.5625 3.515625,-1.421875 3.515625,-2.359375 3.515625,-3.140625 3.375,-3.828125 3,-4.25 2.71875,-4.5625 2.265625,-4.75 1.84375,-4.703125 z M 2.4375,-4.1875 c 0.0625,0.03125 0.140625,0.09375 0.203125,0.15625 0.25,0.25 0.34375,0.75 0.359375,1.21875 0,0.09375 0,0.1875 0,0.28125 l 0,0.359375 C 3,-1.5625 2.953125,-0.984375 2.6875,-0.625 2.328125,-0.171875 1.59375,-0.15625 1.21875,-0.609375 1.140625,-0.71875 1.078125,-0.828125 1.03125,-0.9375 0.90625,-1.296875 0.875,-1.75 0.875,-2.203125 l 0,-0.359375 c 0,-0.078125 0.015625,-0.171875 0.015625,-0.265625 0,-0.546875 0.140625,-1.09375 0.515625,-1.328125 C 1.671875,-4.328125 2.09375,-4.375 2.4375,-4.1875 z m 0,0" id="path53846"/>
      </g>
      <g id="glyph1-6">
        <path d="m 1.09375,-2.828125 -0.015625,0 0,-0.46875 -0.484375,0 0,4.46875 0.5,0 0,-1.640625 c 0.0625,0.078125 0.125,0.15625 0.1875,0.21875 0.1875,0.15625 0.40625,0.265625 0.640625,0.296875 0.09375,0.015625 0.203125,0.015625 0.296875,0 0.578125,-0.0625 1,-0.53125 1.1875,-1.046875 0.25,-0.71875 0.03125,-1.546875 -0.375,-1.984375 -0.140625,-0.171875 -0.328125,-0.296875 -0.546875,-0.34375 -0.359375,-0.09375 -0.765625,0.03125 -1,0.171875 -0.125,0.0625 -0.328125,0.203125 -0.390625,0.328125 z m 1.515625,0.1875 C 3.15625,-2.09375 3.125,-1.015625 2.4375,-0.53125 2.359375,-0.484375 2.28125,-0.4375 2.203125,-0.40625 1.8125,-0.28125 1.46875,-0.328125 1.21875,-0.640625 1.171875,-0.6875 1.125,-0.75 1.109375,-0.8125 1.09375,-0.859375 1.09375,-0.90625 1.09375,-0.9375 l 0,-1.390625 c 0,-0.0625 -0.015625,-0.15625 0.015625,-0.21875 0.03125,-0.046875 0.09375,-0.09375 0.125,-0.140625 0.375,-0.375 0.984375,-0.34375 1.375,0.046875 z m 0,0" id="path53849"/>
      </g>
      <g id="glyph1-7">
        <path d="m 0.59375,-4.859375 0,4.859375 0.484375,0 0,-4.859375 -0.484375,0 z m 0,0" id="path53852"/>
      </g>
      <g id="glyph1-8">
        <path d="m 1.078125,-2.625 0,0 0,-0.671875 -0.5,0 0,3.296875 0.515625,0 0,-1.546875 c 0,-0.328125 -0.03125,-0.671875 0.125,-0.96875 C 1.3125,-2.6875 1.4375,-2.828125 1.609375,-2.90625 1.75,-2.96875 1.890625,-2.96875 2.03125,-2.96875 2.25,-2.953125 2.484375,-2.890625 2.625,-2.6875 2.734375,-2.546875 2.75,-2.359375 2.75,-2.171875 L 2.75,0 l 0.5,0 0,-1.890625 C 3.25,-2.234375 3.296875,-2.625 3.109375,-2.9375 2.96875,-3.1875 2.703125,-3.3125 2.421875,-3.34375 2.09375,-3.390625 1.765625,-3.328125 1.5,-3.140625 1.34375,-3.03125 1.140625,-2.8125 1.078125,-2.625 z m 0,0" id="path53855"/>
      </g>
      <g id="glyph1-9">
        <path d="M 3.15625,-0.796875 C 3.109375,-0.765625 3.0625,-0.71875 3.015625,-0.6875 2.609375,-0.40625 1.890625,-0.140625 1.34375,-0.53125 1,-0.78125 0.78125,-1.171875 0.78125,-1.75 l 2.4375,0 c 0,-0.515625 -0.125,-1 -0.4375,-1.28125 -0.328125,-0.328125 -0.875,-0.421875 -1.3125,-0.3125 -0.1875,0.046875 -0.359375,0.140625 -0.515625,0.265625 -0.4375,0.34375 -0.65625,0.90625 -0.65625,1.46875 0.015625,0.78125 0.59375,1.5 1.375,1.640625 C 2.078125,0.109375 2.5,0.015625 2.859375,-0.15625 2.921875,-0.203125 3.15625,-0.3125 3.171875,-0.375 3.203125,-0.40625 3.15625,-0.703125 3.15625,-0.796875 z M 2.796875,-2.0625 l -1.984375,0 c 0.09375,-0.296875 0.25,-0.609375 0.53125,-0.78125 0.34375,-0.234375 0.875,-0.203125 1.171875,0.109375 0.171875,0.1875 0.25,0.4375 0.28125,0.671875 z m 0,0" id="path53858"/>
      </g>
      <g id="glyph1-10">
        <path d="m 0.828125,-5.25 0,6.796875 1.203125,0 0,-0.390625 -0.71875,0 0,-6.015625 0.71875,0 0,-0.390625 -1.203125,0 z m 0,0" id="path53861"/>
      </g>
      <g id="glyph1-11">
        <path d="m 0.171875,-5.25 0,0.390625 0.703125,0 0,6.015625 -0.703125,0 0,0.390625 1.203125,0 0,-6.796875 -1.203125,0 z m 0,0" id="path53864"/>
      </g>
      <g id="glyph1-12">
        <path d="m 0.59375,-4.859375 0,4.859375 0.5,0 0,-0.46875 0.015625,0 c 0.046875,0.109375 0.15625,0.203125 0.25,0.28125 0.3125,0.25 0.828125,0.328125 1.28125,0.109375 0.21875,-0.125 0.390625,-0.28125 0.515625,-0.46875 0.703125,-0.96875 0.28125,-2.546875 -0.6875,-2.78125 -0.140625,-0.03125 -0.28125,-0.03125 -0.4375,-0.015625 -0.40625,0.046875 -0.71875,0.25 -0.953125,0.515625 l 0,-2.03125 -0.484375,0 z M 1.8125,-2.96875 C 2.15625,-3 2.53125,-2.859375 2.75,-2.578125 c 0.15625,0.21875 0.21875,0.484375 0.234375,0.75 0.03125,0.375 -0.015625,0.78125 -0.25,1.09375 -0.203125,0.265625 -0.53125,0.375 -0.84375,0.390625 C 1.609375,-0.328125 1.375,-0.421875 1.21875,-0.640625 1.171875,-0.6875 1.125,-0.75 1.109375,-0.8125 1.09375,-0.859375 1.09375,-0.90625 1.09375,-0.9375 l 0,-1.390625 c 0,-0.078125 -0.015625,-0.15625 0.015625,-0.21875 0.03125,-0.078125 0.109375,-0.125 0.15625,-0.1875 0.15625,-0.125 0.34375,-0.21875 0.546875,-0.234375 z m 0,0" id="path53867"/>
      </g>
      <g id="glyph1-13">
        <path d="M 3.203125,-0.8125 C 3.140625,-0.765625 3.09375,-0.734375 3.03125,-0.6875 2.953125,-0.625 2.84375,-0.5625 2.75,-0.515625 2.3125,-0.3125 1.6875,-0.265625 1.3125,-0.5625 1.046875,-0.75 0.875,-1.109375 0.84375,-1.515625 0.8125,-1.953125 0.921875,-2.46875 1.296875,-2.765625 1.5,-2.921875 1.78125,-3.015625 2.15625,-2.96875 2.484375,-2.953125 2.671875,-2.890625 2.9375,-2.765625 3,-2.734375 3.046875,-2.6875 3.109375,-2.671875 L 3.1875,-3.09375 C 3.03125,-3.15625 2.890625,-3.25 2.71875,-3.296875 2.296875,-3.4375 1.6875,-3.421875 1.3125,-3.25 c -0.34375,0.15625 -0.625,0.4375 -0.796875,0.765625 -0.25,0.515625 -0.25,1.125 0,1.625 0.09375,0.203125 0.21875,0.375 0.390625,0.515625 0.484375,0.4375 1.1875,0.484375 1.78125,0.28125 0.140625,-0.0625 0.28125,-0.125 0.40625,-0.203125 0.046875,-0.03125 0.109375,-0.0625 0.125,-0.09375 C 3.234375,-0.40625 3.203125,-0.8125 3.203125,-0.8125 z m 0,0" id="path53870"/>
      </g>
    </g>
    <clipPath id="clip1">
      <path d="m 116.38281,28.792969 -25.050779,25.050781 0,70.85547 25.050779,-25.050782 0,-70.855469 z m 0,0" id="path53873"/>
    </clipPath>
    <clipPath id="clip2">
      <path d="m 137.64062,186.08984 -25.05078,95.90235 95.90235,-25.05078 -70.85157,-70.85157 z m 0,0" id="path53876"/>
    </clipPath>
  </defs>
  <g transform="translate(-1.1756464,-0.25785436)" id="g54399">
    <path d="M 5.4492188,139.73047 45.53125,99.64844" id="path53879" style="fill:none;stroke:#000000;stroke-width:0.51014501;stroke-linecap:round;stroke-linejoin:round;stroke-miterlimit:10"/>
    <path d="M 1.441406,143.73828 6.339844,140.61719 4.5625,138.83984 1.441406,143.73828" id="path53881"/>
    <path d="M 1.4414063,143.73828 6.3398438,140.61719 4.5625,138.83984 1.4414063,143.73828 z m 0,0" id="path53883" style="fill:none;stroke:#000000;stroke-width:0.51014501;stroke-linecap:round;stroke-linejoin:round;stroke-miterlimit:10"/>
    <path d="m 139.05859,99.64844 -93.52734,0" id="path53885" style="fill:none;stroke:#000000;stroke-width:0.51014501;stroke-linecap:round;stroke-linejoin:round;stroke-miterlimit:10"/>
    <path d="m 144.72656,99.648438 -5.66797,-1.257813 0,2.515625 5.66797,-1.257812" id="path53887"/>
    <path d="m 144.72656,99.64844 -5.66797,-1.25782 0,2.51563 5.66797,-1.25781 z m 0,0" id="path53889" style="fill:none;stroke:#000000;stroke-width:0.51014501;stroke-linecap:round;stroke-linejoin:round;stroke-miterlimit:10"/>
    <path d="m 45.53125,6.12109 0,93.52735" id="path53891" style="fill:none;stroke:#000000;stroke-width:0.51014501;stroke-linecap:round;stroke-linejoin:round;stroke-miterlimit:10"/>
    <path d="m 45.53125,0.453125 -1.257812,5.667969 2.515625,0 -1.257813,-5.667969" id="path53893"/>
    <path d="m 45.53125,0.45312 -1.257813,5.66797 2.515625,0 -1.257812,-5.66797 z m 0,0" id="path53895" style="fill:none;stroke:#000000;stroke-width:0.51014501;stroke-linecap:round;stroke-linejoin:round;stroke-miterlimit:10"/>
    <path d="m 116.38281,28.792969 -25.050779,25.050781 0,70.85547 25.050779,-25.050782 0,-70.855469" id="path53897" style="fill:#ffffff"/>
    <path d="m 116.38281,99.64844 0,-70.85547 -70.85156,0 -25.050781,25.05078 0,70.85547 70.851562,0 25.050779,-25.05078 z m 0,0" id="path53899" style="fill:none;stroke:#000000;stroke-width:0.51014501;stroke-linecap:round;stroke-linejoin:round;stroke-miterlimit:10"/>
    <path d="m 23.316406,53.84375 68.015625,0 0,68.01953" id="path53901" style="fill:none;stroke:#ffffff;stroke-width:2.55072999;stroke-linecap:round;stroke-linejoin:round;stroke-miterlimit:10"/>
    <path d="m 20.480469,53.84375 70.851562,0 0,70.85547" id="path53903" style="fill:none;stroke:#000000;stroke-width:0.51014501;stroke-linecap:round;stroke-linejoin:round;stroke-miterlimit:10"/>
    <path d="M 116.38281,28.79297 91.332031,53.84375" id="path53905" style="fill:none;stroke:#000000;stroke-width:0.51014501;stroke-linecap:round;stroke-linejoin:round;stroke-miterlimit:10"/>
    <g clip-path="url(#clip1)" id="g53907">
      <path d="m 755.19531,1758.4406 566.79689,981.7969" transform="matrix(0.1,0,0,-0.1,0,301.68)" id="path53909" style="fill:none;stroke:#000000;stroke-width:3.68438005;stroke-linecap:round;stroke-linejoin:round;stroke-miterlimit:10"/>
      <path d="m 710.97656,1783.9484 566.83594,981.7969" transform="matrix(0.1,0,0,-0.1,0,301.68)" id="path53911" style="fill:none;stroke:#000000;stroke-width:3.68438005;stroke-linecap:round;stroke-linejoin:round;stroke-miterlimit:10"/>
      <path d="m 799.33594,1732.9328 566.83596,981.7578" transform="matrix(0.1,0,0,-0.1,0,301.68)" id="path53913" style="fill:none;stroke:#000000;stroke-width:3.68438005;stroke-linecap:round;stroke-linejoin:round;stroke-miterlimit:10"/>
      <path d="m 666.79687,1809.4563 566.83593,981.7968" transform="matrix(0.1,0,0,-0.1,0,301.68)" id="path53915" style="fill:none;stroke:#000000;stroke-width:3.68438005;stroke-linecap:round;stroke-linejoin:round;stroke-miterlimit:10"/>
      <path d="m 843.51562,1707.425 566.83598,981.7969" transform="matrix(0.1,0,0,-0.1,0,301.68)" id="path53917" style="fill:none;stroke:#000000;stroke-width:3.68438005;stroke-linecap:round;stroke-linejoin:round;stroke-miterlimit:10"/>
      <path d="m 622.65625,1834.9641 566.79685,981.7968" transform="matrix(0.1,0,0,-0.1,0,301.68)" id="path53919" style="fill:none;stroke:#000000;stroke-width:3.68438005;stroke-linecap:round;stroke-linejoin:round;stroke-miterlimit:10"/>
      <path d="m 887.73437,1681.9172 566.79693,981.7969" transform="matrix(0.1,0,0,-0.1,0,301.68)" id="path53921" style="fill:none;stroke:#000000;stroke-width:3.68438005;stroke-linecap:round;stroke-linejoin:round;stroke-miterlimit:10"/>
      <path d="m 578.4375,1860.4719 566.8359,981.7969" transform="matrix(0.1,0,0,-0.1,0,301.68)" id="path53923" style="fill:none;stroke:#000000;stroke-width:3.68438005;stroke-linecap:round;stroke-linejoin:round;stroke-miterlimit:10"/>
      <path d="m 931.91406,1656.4094 566.79684,981.7969" transform="matrix(0.1,0,0,-0.1,0,301.68)" id="path53925" style="fill:none;stroke:#000000;stroke-width:3.68438005;stroke-linecap:round;stroke-linejoin:round;stroke-miterlimit:10"/>
    </g>
    <path d="m 106.57813,109.76953 11.45312,13.74219" id="path53927" style="fill:none;stroke:#000000;stroke-width:0.36843801;stroke-linecap:round;stroke-linejoin:round;stroke-miterlimit:10"/>
    <path d="m 103.85938,106.50391 1.99609,3.87109 1.44922,-1.20703 -3.44531,-2.66406" id="path53929"/>
    <path d="m 103.85938,106.50391 1.99609,3.87109 1.44922,-1.20703 -3.44531,-2.66406 z m 0,0" id="path53931" style="fill:none;stroke:#000000;stroke-width:0.36843801;stroke-linecap:round;stroke-linejoin:round;stroke-miterlimit:10"/>
    <path d="m 103.85938,76.74609 28.33984,0" id="path53933" style="fill:none;stroke:#ffffff;stroke-width:3.54268003;stroke-linecap:round;stroke-linejoin:round;stroke-miterlimit:10"/>
    <path d="m 140.70313,76.74609 -36.84375,0" id="path53935" style="fill:none;stroke:#000000;stroke-width:0.70853502;stroke-linecap:round;stroke-linejoin:round;stroke-miterlimit:10"/>
    <path d="m 146.37109,76.746094 -5.66797,-1.257813 0,2.515625 5.66797,-1.257812" id="path53937"/>
    <path d="m 146.37109,76.74609 -5.66796,-1.25781 0,2.51563 5.66796,-1.25782 z m 0,0" id="path53939" style="fill:none;stroke:#000000;stroke-width:0.70853502;stroke-linecap:round;stroke-linejoin:round;stroke-miterlimit:10"/>
    <path d="m 104.85156,76.746094 c 0,-0.546875 -0.44531,-0.992188 -0.99218,-0.992188 -0.54688,0 -0.99219,0.445313 -0.99219,0.992188 0,0.546875 0.44531,0.992187 0.99219,0.992187 0.54687,0 0.99218,-0.445312 0.99218,-0.992187" id="path53941"/>
    <g id="g54057">
      <use transform="translate(139.92,105.96)" id="use54059" x="0" y="0" width="329.26001" height="301.67999" xlink:href="#glyph0-1"/>
    </g>
    <g id="g54061">
      <use transform="translate(48.6001,4.32)" id="use54063" x="0" y="0" width="329.26001" height="301.67999" xlink:href="#glyph0-2"/>
    </g>
    <g id="g54065">
      <use transform="translate(6.9603,143.4)" id="use54067" x="0" y="0" width="329.26001" height="301.67999" xlink:href="#glyph0-3"/>
    </g>
    <g id="g54069">
      <use transform="translate(0.9603,90.1199)" id="use54071" x="0" y="0" width="329.26001" height="301.67999" xlink:href="#glyph1-1"/>
    </g>
    <g id="g54073">
      <use transform="translate(3.960301,90.1199)" id="use54075" x="0" y="0" width="329.26001" height="301.67999" xlink:href="#glyph1-2"/>
    </g>
    <g id="g54077">
      <use transform="translate(7.560303,90.1199)" id="use54079" x="0" y="0" width="329.26001" height="301.67999" xlink:href="#glyph1-3"/>
    </g>
    <g id="g54081">
      <use transform="translate(108.4803,129.7199)" id="use54083" x="0" y="0" width="329.26001" height="301.67999" xlink:href="#glyph1-4"/>
    </g>
    <g id="g54085">
      <use transform="translate(112.32031,129.7199)" id="use54087" x="0" y="0" width="329.26001" height="301.67999" xlink:href="#glyph1-5"/>
    </g>
    <g id="g54089">
      <use transform="translate(116.16032,129.7199)" id="use54091" x="0" y="0" width="329.26001" height="301.67999" xlink:href="#glyph1-5"/>
    </g>
    <g id="g54093">
      <use transform="translate(122.52017,129.7199)" id="use54095" x="0" y="0" width="329.26001" height="301.67999" xlink:href="#glyph1-6"/>
    </g>
    <g id="g54097">
      <use transform="translate(126.36018,129.7199)" id="use54099" x="0" y="0" width="329.26001" height="301.67999" xlink:href="#glyph1-7"/>
      <use transform="translate(128.04018,129.7199)" id="use54101" x="0" y="0" width="329.26001" height="301.67999" xlink:href="#glyph1-2"/>
    </g>
    <g id="g54103">
      <use transform="translate(131.64019,129.7199)" id="use54105" x="0" y="0" width="329.26001" height="301.67999" xlink:href="#glyph1-8"/>
    </g>
    <g id="g54107">
      <use transform="translate(135.4802,129.7199)" id="use54109" x="0" y="0" width="329.26001" height="301.67999" xlink:href="#glyph1-9"/>
    </g>
    <g id="g54111">
      <use transform="translate(147.8401,73.6801)" id="use54113" x="0" y="0" width="329.26001" height="301.67999" xlink:href="#glyph1-10"/>
    </g>
    <g id="g54115">
      <use transform="translate(150.0001,73.6801)" id="use54117" x="0" y="0" width="329.26001" height="301.67999" xlink:href="#glyph1-4"/>
    </g>
    <g id="g54119">
      <use transform="translate(153.84011,73.6801)" id="use54121" x="0" y="0" width="329.26001" height="301.67999" xlink:href="#glyph1-5"/>
    </g>
    <g id="g54123">
      <use transform="translate(157.68013,73.6801)" id="use54125" x="0" y="0" width="329.26001" height="301.67999" xlink:href="#glyph1-5"/>
    </g>
    <g id="g54127">
      <use transform="translate(161.52012,73.6801)" id="use54129" x="0" y="0" width="329.26001" height="301.67999" xlink:href="#glyph1-11"/>
    </g>
  </g>
</svg>
