<?xml version="1.0" encoding="UTF-8"?>
<svg xmlns="http://www.w3.org/2000/svg" xmlns:xlink="http://www.w3.org/1999/xlink" width="251pt" height="111pt" viewBox="0 0 181 80" version="1.1">
<defs>
<g>
<symbol overflow="visible" id="glyph0-0">
<path style="stroke:none;" d=""/>
</symbol>
<symbol overflow="visible" id="glyph0-1">
<path style="stroke:none;" d="M 0.625 -4.109375 L 0.625 0 L 1.0625 0 L 1.0625 -1.890625 L 1.9375 -1.890625 C 2.0625 -1.890625 2.171875 -1.890625 2.25 -1.875 C 2.375 -1.734375 2.46875 -1.578125 2.578125 -1.421875 C 2.90625 -0.953125 3.234375 -0.46875 3.59375 -0.015625 C 3.71875 0 3.890625 0 4.03125 0 L 3.796875 -0.34375 L 2.65625 -1.9375 C 2.765625 -1.953125 2.875 -1.984375 2.984375 -2.03125 C 3.40625 -2.171875 3.890625 -2.53125 3.859375 -3.03125 C 3.84375 -3.234375 3.78125 -3.359375 3.6875 -3.484375 C 3.40625 -3.828125 2.953125 -4.046875 2.453125 -4.09375 C 2.234375 -4.109375 2.03125 -4.109375 1.8125 -4.109375 L 0.625 -4.109375 Z M 1.0625 -2.21875 L 1.0625 -3.765625 L 1.953125 -3.765625 C 2.25 -3.765625 2.546875 -3.765625 2.84375 -3.671875 C 3.125 -3.578125 3.40625 -3.375 3.4375 -3.046875 C 3.453125 -2.859375 3.375 -2.671875 3.234375 -2.53125 C 3.125 -2.4375 3.015625 -2.375 2.875 -2.328125 C 2.59375 -2.21875 2.28125 -2.21875 1.984375 -2.21875 L 1.0625 -2.21875 Z M 1.0625 -2.21875 "/>
</symbol>
<symbol overflow="visible" id="glyph0-2">
<path style="stroke:none;" d="M 0.078125 -1.5625 L 0.078125 -1.234375 L 1.828125 -1.234375 L 1.828125 -1.5625 L 0.078125 -1.5625 Z M 0.078125 -1.5625 "/>
</symbol>
<symbol overflow="visible" id="glyph0-3">
<path style="stroke:none;" d="M 0.625 -4.09375 L 0.625 0 L 1.078125 0 L 1.078125 -1.875 L 3.203125 -1.875 L 3.203125 -2.234375 L 1.078125 -2.234375 L 1.078125 -3.75 L 3.484375 -3.75 L 3.484375 -4.09375 L 0.625 -4.09375 Z M 0.625 -4.09375 "/>
</symbol>
<symbol overflow="visible" id="glyph0-4">
<path style="stroke:none;" d="M 0.375 -0.78125 C 0.359375 -0.71875 0.28125 -0.34375 0.296875 -0.3125 C 0.3125 -0.296875 0.328125 -0.296875 0.34375 -0.28125 L 0.5 -0.203125 C 1.046875 0.078125 2 0.25 2.640625 -0.109375 C 2.96875 -0.28125 3.28125 -0.640625 3.28125 -1.109375 C 3.28125 -1.71875 2.796875 -2.09375 2.375 -2.234375 C 2.265625 -2.265625 1.8125 -2.359375 1.734375 -2.375 C 1.4375 -2.453125 1.09375 -2.515625 0.890625 -2.78125 C 0.859375 -2.8125 0.828125 -2.859375 0.8125 -2.90625 C 0.65625 -3.296875 0.953125 -3.625 1.3125 -3.75 C 1.703125 -3.90625 2.1875 -3.859375 2.546875 -3.71875 C 2.640625 -3.671875 2.734375 -3.625 2.8125 -3.5625 C 2.875 -3.53125 2.921875 -3.484375 2.96875 -3.453125 C 3 -3.5625 3.015625 -3.671875 3.03125 -3.78125 C 3.046875 -3.859375 3.078125 -3.921875 2.984375 -3.9375 L 2.84375 -4.015625 C 2.1875 -4.28125 1.328125 -4.3125 0.75 -3.84375 C 0.671875 -3.78125 0.609375 -3.703125 0.546875 -3.625 C 0.375 -3.375 0.296875 -3.015625 0.46875 -2.671875 C 0.609375 -2.390625 0.859375 -2.1875 1.1875 -2.078125 C 1.3125 -2.03125 1.4375 -2 1.5625 -1.96875 C 1.703125 -1.9375 2.171875 -1.84375 2.25 -1.8125 C 2.484375 -1.734375 2.71875 -1.578125 2.8125 -1.359375 C 2.875 -1.25 2.890625 -1.171875 2.890625 -1.03125 C 2.84375 -0.671875 2.53125 -0.421875 2.203125 -0.328125 C 1.6875 -0.1875 1.09375 -0.34375 0.71875 -0.546875 C 0.59375 -0.609375 0.484375 -0.703125 0.375 -0.78125 Z M 0.375 -0.78125 "/>
</symbol>
<symbol overflow="visible" id="glyph0-5">
<path style="stroke:none;" d="M 0.625 -4.109375 L 0.625 0 L 1.078125 0 L 1.078125 -4.109375 L 0.625 -4.109375 Z M 0.625 -4.109375 "/>
</symbol>
<symbol overflow="visible" id="glyph0-6">
<path style="stroke:none;" d="M 3.953125 -1.953125 L 2.5625 -1.953125 L 2.5625 -1.59375 L 3.515625 -1.59375 L 3.515625 -0.5625 C 3.515625 -0.46875 3.5 -0.4375 3.40625 -0.421875 C 3.109375 -0.34375 2.703125 -0.265625 2.359375 -0.3125 C 1.96875 -0.375 1.625 -0.578125 1.40625 -0.84375 C 0.8125 -1.515625 0.8125 -2.625 1.421875 -3.28125 C 1.71875 -3.609375 2.140625 -3.84375 2.71875 -3.796875 C 2.96875 -3.78125 3.234375 -3.734375 3.46875 -3.625 C 3.59375 -3.5625 3.6875 -3.46875 3.8125 -3.40625 C 3.84375 -3.5625 3.875 -3.71875 3.890625 -3.859375 C 3.453125 -4.0625 3.15625 -4.15625 2.53125 -4.15625 C 1.953125 -4.15625 1.5 -3.890625 1.171875 -3.609375 C 1.046875 -3.5 0.953125 -3.375 0.859375 -3.234375 C 0.390625 -2.53125 0.390625 -1.578125 0.859375 -0.875 C 1.09375 -0.53125 1.390625 -0.265625 1.796875 -0.109375 C 2.328125 0.109375 2.90625 0.078125 3.453125 -0.0625 C 3.515625 -0.078125 3.921875 -0.203125 3.9375 -0.25 C 3.953125 -0.265625 3.953125 -0.296875 3.953125 -0.3125 L 3.953125 -1.953125 Z M 3.953125 -1.953125 "/>
</symbol>
<symbol overflow="visible" id="glyph0-7">
<path style="stroke:none;" d="M 0.640625 -4.109375 L 0.640625 0 L 1.046875 0 L 1.046875 -3.75 L 1.046875 -3.75 L 1.21875 -3.453125 L 2.5625 -1.109375 C 2.765625 -0.75 2.96875 -0.375 3.1875 -0.015625 C 3.375 0.03125 3.609375 -0.015625 3.8125 0 L 3.8125 -4.109375 L 3.40625 -4.109375 L 3.40625 -0.359375 L 1.859375 -3.0625 C 1.65625 -3.40625 1.484375 -3.765625 1.25 -4.09375 C 1.078125 -4.140625 0.828125 -4.09375 0.640625 -4.109375 Z M 0.640625 -4.109375 "/>
</symbol>
<symbol overflow="visible" id="glyph0-8">
<path style="stroke:none;" d="M 0.1875 0 L 0.484375 0 C 0.53125 0 0.578125 0.015625 0.609375 -0.015625 C 0.640625 -0.03125 0.640625 -0.0625 0.65625 -0.078125 C 0.734375 -0.296875 1.03125 -1.015625 1.078125 -1.09375 C 1.078125 -1.15625 1.09375 -1.1875 1.171875 -1.1875 L 2.59375 -1.1875 C 2.75 -1.1875 2.90625 -1.1875 3.0625 -1.1875 C 3.125 -1.171875 3.15625 -1.09375 3.171875 -1.046875 C 3.234375 -0.875 3.546875 -0.09375 3.578125 -0.046875 C 3.59375 0.015625 3.65625 0 3.75 0 L 4.078125 0 C 3.921875 -0.390625 3.765625 -0.765625 3.609375 -1.140625 L 2.390625 -4.109375 C 2.375 -4.125 2.375 -4.15625 2.34375 -4.171875 C 2.3125 -4.171875 2.265625 -4.171875 2.234375 -4.171875 L 2.015625 -4.171875 C 1.984375 -4.171875 1.921875 -4.1875 1.890625 -4.15625 C 1.875 -4.140625 1.859375 -4.109375 1.859375 -4.09375 L 0.640625 -1.140625 L 0.34375 -0.421875 C 0.296875 -0.28125 0.234375 -0.140625 0.1875 0 Z M 2.109375 -3.671875 C 2.375 -2.9375 2.6875 -2.25 2.96875 -1.53125 L 1.25 -1.53125 C 1.53125 -2.25 1.828125 -2.9375 2.109375 -3.671875 L 2.109375 -3.671875 Z M 2.109375 -3.671875 "/>
</symbol>
<symbol overflow="visible" id="glyph0-9">
<path style="stroke:none;" d="M 0.625 -4.109375 L 0.625 0 L 3.296875 0 L 3.296875 -0.34375 L 1.078125 -0.34375 L 1.078125 -4.109375 L 0.625 -4.109375 Z M 0.625 -4.109375 "/>
</symbol>
<symbol overflow="visible" id="glyph0-10">
<path style="stroke:none;" d="M 0.625 -4.09375 L 0.625 0 L 3.671875 0 L 3.671875 -0.359375 L 1.078125 -0.359375 L 1.078125 -1.953125 L 3.390625 -1.953125 L 3.390625 -2.296875 L 1.078125 -2.296875 L 1.078125 -3.75 L 3.578125 -3.75 L 3.578125 -4.09375 L 0.625 -4.09375 Z M 0.625 -4.09375 "/>
</symbol>
<symbol overflow="visible" id="glyph0-11">
<path style="stroke:none;" d="M 0.234375 -4.09375 L 0.234375 -3.75 L 2.0625 -3.75 L 2.0625 0 L 2.5 0 L 2.5 -3.75 L 4.3125 -3.75 L 4.3125 -4.09375 L 0.234375 -4.09375 Z M 0.234375 -4.09375 "/>
</symbol>
<symbol overflow="visible" id="glyph0-12">
<path style="stroke:none;" d="M 0.859375 -3.421875 C 0.21875 -2.65625 0.203125 -1.5 0.828125 -0.703125 C 1.078125 -0.375 1.4375 -0.125 1.890625 0.015625 C 3.15625 0.359375 4.1875 -0.46875 4.453125 -1.40625 C 4.703125 -2.203125 4.46875 -3.09375 3.859375 -3.65625 C 3.546875 -3.9375 3.109375 -4.15625 2.59375 -4.203125 C 1.8125 -4.25 1.203125 -3.859375 0.859375 -3.421875 Z M 2.96875 -3.78125 C 3.375 -3.65625 3.703125 -3.375 3.90625 -3 C 4.015625 -2.78125 4.078125 -2.515625 4.09375 -2.265625 C 4.15625 -1.5625 3.859375 -0.796875 3.21875 -0.453125 C 2.90625 -0.28125 2.515625 -0.203125 2.109375 -0.296875 C 1.828125 -0.359375 1.578125 -0.515625 1.390625 -0.671875 C 1.03125 -1.015625 0.859375 -1.5 0.828125 -1.984375 C 0.765625 -2.84375 1.203125 -3.484375 1.828125 -3.734375 C 2.171875 -3.875 2.5625 -3.90625 2.96875 -3.78125 Z M 2.96875 -3.78125 "/>
</symbol>
<symbol overflow="visible" id="glyph0-13">
<path style="stroke:none;" d="M 0.625 -4.109375 L 0.625 0 L 1.921875 0 C 2.453125 0 2.71875 0.03125 3.15625 -0.1875 C 3.703125 -0.4375 4.140625 -0.953125 4.28125 -1.59375 C 4.453125 -2.421875 4.109375 -3.3125 3.40625 -3.78125 C 3.140625 -3.953125 2.84375 -4.0625 2.546875 -4.09375 C 2.3125 -4.125 2.0625 -4.109375 1.828125 -4.109375 L 0.625 -4.109375 Z M 1.0625 -0.34375 L 1.0625 -3.765625 L 1.890625 -3.765625 C 2.0625 -3.765625 2.21875 -3.765625 2.375 -3.75 C 2.796875 -3.71875 3.15625 -3.546875 3.421875 -3.28125 C 3.71875 -2.96875 3.859375 -2.546875 3.875 -2.125 C 3.90625 -1.625 3.75 -1.109375 3.375 -0.765625 C 3.125 -0.53125 2.765625 -0.390625 2.375 -0.359375 C 2.21875 -0.34375 2.0625 -0.34375 1.90625 -0.34375 L 1.0625 -0.34375 Z M 1.0625 -0.34375 "/>
</symbol>
<symbol overflow="visible" id="glyph0-14">
<path style="stroke:none;" d="M 3.84375 -0.671875 C 3.5 -0.5 3.296875 -0.3125 2.8125 -0.3125 C 2.625 -0.296875 2.453125 -0.296875 2.265625 -0.328125 C 1.796875 -0.421875 1.390625 -0.765625 1.171875 -1.171875 C 0.765625 -1.9375 0.953125 -2.984375 1.65625 -3.5 C 1.78125 -3.59375 1.90625 -3.65625 2.03125 -3.71875 C 2.4375 -3.859375 2.90625 -3.84375 3.3125 -3.6875 C 3.453125 -3.625 3.578125 -3.5625 3.71875 -3.484375 C 3.75 -3.640625 3.78125 -3.796875 3.796875 -3.953125 C 3.671875 -3.984375 3.546875 -4.03125 3.40625 -4.0625 C 3.125 -4.140625 2.703125 -4.1875 2.375 -4.15625 C 1.765625 -4.09375 1.25 -3.75 0.9375 -3.359375 C 0.546875 -2.84375 0.421875 -2.171875 0.5625 -1.546875 C 0.8125 -0.578125 1.625 0.109375 2.78125 0.046875 C 3.171875 0.03125 3.421875 -0.0625 3.71875 -0.203125 C 3.75 -0.21875 3.84375 -0.265625 3.859375 -0.296875 C 3.875 -0.328125 3.84375 -0.59375 3.84375 -0.671875 Z M 3.84375 -0.671875 "/>
</symbol>
<symbol overflow="visible" id="glyph0-15">
<path style="stroke:none;" d="M 1.3125 -2.09375 C 1.265625 -2.0625 1.21875 -2.03125 1.171875 -2 L 0.9375 -1.796875 C 0.765625 -1.65625 0.578125 -1.546875 0.4375 -1.359375 C 0.265625 -1.125 0.21875 -0.828125 0.328125 -0.5625 C 0.453125 -0.21875 0.828125 0 1.203125 0.078125 C 1.734375 0.15625 2.296875 -0.015625 2.640625 -0.1875 C 2.65625 -0.203125 2.75 -0.25 2.78125 -0.25 C 2.796875 -0.25 2.8125 -0.234375 2.84375 -0.21875 C 3.21875 0 3.609375 0.15625 4.21875 0.0625 C 4.28125 0.0625 4.515625 0.015625 4.53125 -0.015625 C 4.5625 -0.046875 4.546875 -0.09375 4.546875 -0.125 L 4.546875 -0.390625 C 4.46875 -0.359375 4.390625 -0.328125 4.3125 -0.3125 C 4.0625 -0.25 3.78125 -0.21875 3.53125 -0.296875 C 3.421875 -0.328125 3.34375 -0.359375 3.25 -0.40625 C 3.203125 -0.421875 3.15625 -0.46875 3.109375 -0.484375 C 3.15625 -0.53125 3.234375 -0.59375 3.296875 -0.640625 C 3.6875 -1.015625 4 -1.46875 4.234375 -2 C 4.296875 -2.15625 4.359375 -2.3125 4.390625 -2.46875 L 4.03125 -2.5625 C 3.84375 -1.890625 3.46875 -1.25 2.96875 -0.828125 C 2.9375 -0.796875 2.890625 -0.734375 2.84375 -0.734375 C 2.796875 -0.71875 2.765625 -0.765625 2.734375 -0.78125 C 2.46875 -1.03125 2.125 -1.484375 1.953125 -1.734375 C 1.921875 -1.78125 1.796875 -1.984375 1.78125 -2.03125 C 1.78125 -2.078125 1.875 -2.125 1.890625 -2.140625 C 2 -2.234375 2.109375 -2.328125 2.21875 -2.421875 C 2.40625 -2.609375 2.703125 -2.90625 2.75 -3.203125 C 2.828125 -3.53125 2.59375 -3.890625 2.453125 -4.015625 C 2.21875 -4.234375 1.84375 -4.265625 1.578125 -4.09375 C 1.4375 -4.015625 1.328125 -3.859375 1.25 -3.71875 C 1.046875 -3.3125 1.09375 -2.84375 1.203125 -2.421875 C 1.234375 -2.3125 1.28125 -2.203125 1.3125 -2.09375 Z M 1.625 -2.359375 C 1.53125 -2.609375 1.46875 -2.890625 1.453125 -3.15625 C 1.453125 -3.265625 1.4375 -3.375 1.46875 -3.484375 C 1.546875 -3.71875 1.78125 -3.921875 2.046875 -3.859375 C 2.25 -3.8125 2.34375 -3.59375 2.375 -3.40625 C 2.375 -3.34375 2.390625 -3.28125 2.375 -3.21875 C 2.296875 -2.953125 2.015625 -2.703125 1.859375 -2.5625 C 1.78125 -2.5 1.71875 -2.421875 1.625 -2.359375 Z M 1.453125 -1.796875 C 1.625 -1.453125 1.859375 -1.15625 2.125 -0.875 C 2.1875 -0.796875 2.265625 -0.703125 2.34375 -0.640625 C 2.390625 -0.59375 2.453125 -0.546875 2.484375 -0.5 C 2.21875 -0.375 1.96875 -0.28125 1.609375 -0.265625 C 1.296875 -0.234375 1.046875 -0.3125 0.875 -0.484375 C 0.71875 -0.65625 0.65625 -0.890625 0.734375 -1.109375 C 0.8125 -1.296875 0.953125 -1.390625 1.125 -1.515625 C 1.234375 -1.609375 1.34375 -1.71875 1.453125 -1.796875 Z M 1.453125 -1.796875 "/>
</symbol>
<symbol overflow="visible" id="glyph0-16">
<path style="stroke:none;" d="M 0.640625 -4.109375 L 0.640625 0 L 1.046875 0 L 1.046875 -3.671875 L 1.0625 -3.671875 C 1.09375 -3.5625 1.15625 -3.453125 1.203125 -3.328125 C 1.265625 -3.140625 2.515625 -0.234375 2.546875 -0.171875 C 2.59375 -0.109375 2.5625 -0.09375 2.671875 -0.09375 L 2.84375 -0.09375 C 2.875 -0.09375 2.90625 -0.09375 2.9375 -0.09375 C 2.96875 -0.09375 2.984375 -0.125 2.984375 -0.15625 C 3.015625 -0.203125 3.03125 -0.25 3.0625 -0.296875 L 3.328125 -0.953125 C 3.421875 -1.15625 4.46875 -3.59375 4.5 -3.671875 L 4.5 -3.671875 L 4.5 0 L 4.90625 0 L 4.90625 -4.109375 C 4.71875 -4.09375 4.484375 -4.125 4.3125 -4.09375 L 4.265625 -4.015625 L 2.765625 -0.53125 L 1.640625 -3.125 C 1.5 -3.453125 1.375 -3.796875 1.21875 -4.09375 C 1.0625 -4.140625 0.828125 -4.09375 0.640625 -4.109375 Z M 0.640625 -4.109375 "/>
</symbol>
<symbol overflow="visible" id="glyph0-17">
<path style="stroke:none;" d="M 0.625 -4.109375 L 0.625 0 L 1.078125 0 L 1.078125 -1.71875 L 1.953125 -1.71875 C 2.078125 -1.71875 2.234375 -1.71875 2.359375 -1.71875 C 3.015625 -1.765625 3.640625 -2.140625 3.75 -2.734375 C 3.8125 -3.078125 3.6875 -3.359375 3.53125 -3.5625 C 3.28125 -3.84375 2.90625 -4.046875 2.46875 -4.09375 C 2.25 -4.125 2.046875 -4.109375 1.84375 -4.109375 L 0.625 -4.109375 Z M 1.0625 -2.0625 L 1.0625 -3.765625 L 1.953125 -3.765625 C 2.46875 -3.765625 2.953125 -3.703125 3.203125 -3.359375 C 3.40625 -3.09375 3.40625 -2.71875 3.203125 -2.453125 C 3.125 -2.359375 3.046875 -2.296875 2.9375 -2.234375 C 2.640625 -2.0625 2.296875 -2.0625 1.96875 -2.0625 L 1.0625 -2.0625 Z M 1.0625 -2.0625 "/>
</symbol>
<symbol overflow="visible" id="glyph0-18">
<path style="stroke:none;" d="M 0.09375 -4.109375 C 0.125 -3.984375 0.1875 -3.875 0.25 -3.765625 L 1.78125 -0.203125 L 1.84375 -0.046875 C 1.859375 -0.015625 1.859375 0.015625 1.890625 0.03125 C 1.921875 0.046875 1.984375 0.046875 2.015625 0.046875 L 2.234375 0.046875 C 2.265625 0.046875 2.3125 0.046875 2.34375 0.046875 C 2.375 0.03125 2.390625 0 2.40625 -0.03125 C 2.421875 -0.078125 2.453125 -0.140625 2.484375 -0.203125 C 2.59375 -0.453125 4.140625 -4.0625 4.15625 -4.109375 C 4.015625 -4.109375 3.859375 -4.109375 3.71875 -4.09375 L 3.6875 -4.03125 L 2.140625 -0.4375 L 1.734375 -1.421875 L 0.578125 -4.109375 L 0.09375 -4.109375 Z M 0.09375 -4.109375 "/>
</symbol>
<symbol overflow="visible" id="glyph0-19">
<path style="stroke:none;" d="M 0.015625 -4.109375 L 1.90625 -1.640625 C 1.921875 -1.109375 1.90625 -0.546875 1.90625 0 L 2.34375 0 C 2.34375 -0.546875 2.328125 -1.109375 2.34375 -1.640625 L 2.40625 -1.71875 L 4.234375 -4.109375 C 4.0625 -4.109375 3.890625 -4.109375 3.71875 -4.109375 L 3.671875 -4.046875 L 2.53125 -2.5625 C 2.40625 -2.390625 2.28125 -2.234375 2.140625 -2.0625 L 2 -2.25 L 1.765625 -2.5625 C 1.359375 -3.0625 0.984375 -3.59375 0.578125 -4.09375 C 0.421875 -4.125 0.203125 -4.09375 0.015625 -4.109375 Z M 0.015625 -4.109375 "/>
</symbol>
<symbol overflow="visible" id="glyph1-0">
<path style="stroke:none;" d=""/>
</symbol>
<symbol overflow="visible" id="glyph1-1">
<path style="stroke:none;" d="M 1.3125 -3.34375 C 1.1875 -3.328125 1.078125 -3.3125 0.96875 -3.265625 C 0.453125 -3.0625 0.265625 -2.390625 0.265625 -1.71875 C 0.265625 -1.609375 0.265625 -1.515625 0.265625 -1.40625 C 0.28125 -0.953125 0.390625 -0.5 0.65625 -0.21875 C 0.875 0.015625 1.203125 0.109375 1.5 0.078125 C 1.6875 0.0625 1.84375 -0.015625 1.984375 -0.09375 C 2.40625 -0.40625 2.5 -1.015625 2.5 -1.6875 C 2.5 -2.234375 2.40625 -2.71875 2.140625 -3.03125 C 1.9375 -3.25 1.609375 -3.375 1.3125 -3.34375 Z M 1.734375 -2.984375 C 1.78125 -2.953125 1.828125 -2.921875 1.875 -2.875 C 2.0625 -2.6875 2.125 -2.328125 2.140625 -2 C 2.140625 -1.9375 2.140625 -1.875 2.140625 -1.796875 L 2.140625 -1.546875 C 2.140625 -1.109375 2.09375 -0.703125 1.90625 -0.453125 C 1.65625 -0.125 1.125 -0.109375 0.875 -0.4375 C 0.8125 -0.515625 0.765625 -0.59375 0.734375 -0.671875 C 0.640625 -0.921875 0.625 -1.25 0.625 -1.5625 L 0.625 -1.8125 C 0.625 -1.890625 0.640625 -1.9375 0.640625 -2.015625 C 0.640625 -2.40625 0.734375 -2.796875 1 -2.953125 C 1.1875 -3.078125 1.5 -3.109375 1.734375 -2.984375 Z M 1.734375 -2.984375 "/>
</symbol>
<symbol overflow="visible" id="glyph1-2">
<path style="stroke:none;" d="M 0.546875 -3.015625 L 0.546875 -2.734375 C 0.796875 -2.734375 1.046875 -2.78125 1.28125 -2.875 L 1.28125 -0.28125 L 0.578125 -0.28125 L 0.578125 0 L 2.328125 0 L 2.328125 -0.28125 L 1.640625 -0.28125 L 1.640625 -3.34375 C 1.609375 -3.34375 1.5625 -3.359375 1.546875 -3.34375 C 1.5 -3.328125 1.46875 -3.296875 1.4375 -3.265625 C 1.234375 -3.09375 0.875 -3.015625 0.546875 -3.015625 Z M 0.546875 -3.015625 "/>
</symbol>
</g>
<clipPath id="clip1">
  <path d="M -215 666 L 397 666 L 397 -126 L -215 -126 L -215 666 Z M -215 666 "/>
</clipPath>
<clipPath id="clip2">
  <path d="M -0.792969 74.34375 L 182.042969 74.34375 L 182.042969 -1.199219 L -0.792969 -1.199219 L -0.792969 74.34375 Z M -0.792969 74.34375 "/>
</clipPath>
<clipPath id="clip3">
  <path d="M -215 666 L 397 666 L 397 -126 L -215 -126 L -215 666 Z M -215 666 "/>
</clipPath>
</defs>
<g id="surface0">
<g clip-path="url(#clip1)" clip-rule="nonzero">
<g clip-path="url(#clip2)" clip-rule="nonzero">
<path style="fill:none;stroke-width:5;stroke-linecap:butt;stroke-linejoin:miter;stroke:rgb(13.730068%,12.159915%,12.54902%);stroke-opacity:1;stroke-miterlimit:4;" d="M 441.676151 118.600763 C 441.676151 117.4947 440.784165 116.602714 439.678102 116.602714 L 11.988579 116.602714 C 10.882517 116.602714 9.99053 117.4947 9.99053 118.600763 L 9.99053 671.275385 C 9.99053 672.381448 10.882517 673.273434 11.988579 673.273434 L 439.678102 673.273434 C 440.784165 673.273434 441.676151 672.381448 441.676151 671.275385 L 441.676151 118.600763 Z M 441.676151 118.600763 " transform="matrix(0.109482,0,0,-0.109482,-0.793,74.344)"/>
<path style="fill:none;stroke-width:5;stroke-linecap:butt;stroke-linejoin:miter;stroke:rgb(13.730068%,12.159915%,12.54902%);stroke-opacity:1;stroke-miterlimit:4;" d="M 1219.166964 167.410245 L 1219.166964 671.275385 C 1219.166964 672.381448 1220.05895 673.273434 1221.165013 673.273434 L 1648.854536 673.273434 C 1649.924919 673.273434 1650.816905 672.381448 1650.816905 671.275385 L 1650.816905 118.600763 C 1650.816905 117.4947 1649.924919 116.602714 1648.854536 116.602714 L 1221.165013 116.602714 C 1220.05895 116.602714 1219.166964 117.4947 1219.166964 118.600763 L 1219.166964 137.261113 " transform="matrix(0.109482,0,0,-0.109482,-0.793,74.344)"/>
<path style="fill:none;stroke-width:5;stroke-linecap:butt;stroke-linejoin:miter;stroke:rgb(13.730068%,12.159915%,12.54902%);stroke-opacity:1;stroke-miterlimit:4;" d="M 258.319476 238.269626 C 258.319476 221.714363 244.904005 208.263211 228.348742 208.263211 C 211.757799 208.263211 198.342327 221.714363 198.342327 238.269626 C 198.342327 254.860568 211.757799 268.27604 228.348742 268.27604 C 244.904005 268.27604 258.319476 254.860568 258.319476 238.269626 Z M 258.319476 238.269626 " transform="matrix(0.109482,0,0,-0.109482,-0.793,74.344)"/>
<path style="fill:none;stroke-width:5;stroke-linecap:butt;stroke-linejoin:miter;stroke:rgb(13.730068%,12.159915%,12.54902%);stroke-opacity:1;stroke-miterlimit:4;" d="M 303.346938 238.269626 C 303.346938 196.845789 269.772579 163.27143 228.348742 163.27143 C 186.924904 163.27143 153.350545 196.845789 153.350545 238.269626 C 153.350545 279.693463 186.924904 313.267822 228.348742 313.267822 C 269.772579 313.267822 303.346938 279.693463 303.346938 238.269626 Z M 303.346938 238.269626 " transform="matrix(0.109482,0,0,-0.109482,-0.793,74.344)"/>
<path style="fill:none;stroke-width:5;stroke-linecap:butt;stroke-linejoin:miter;stroke:rgb(13.730068%,12.159915%,12.54902%);stroke-opacity:1;stroke-miterlimit:4;" d="M 229.169369 332.427684 L 229.169369 291.610398 " transform="matrix(0.109482,0,0,-0.109482,-0.793,74.344)"/>
<path style="fill:none;stroke-width:5;stroke-linecap:butt;stroke-linejoin:miter;stroke:rgb(13.730068%,12.159915%,12.54902%);stroke-opacity:1;stroke-miterlimit:4;" d="M 198.770481 307.237995 L 206.655638 299.317158 " transform="matrix(0.109482,0,0,-0.109482,-0.793,74.344)"/>
<path style="fill:none;stroke-width:5;stroke-linecap:butt;stroke-linejoin:miter;stroke:rgb(13.730068%,12.159915%,12.54902%);stroke-opacity:1;stroke-miterlimit:4;" d="M 174.29438 289.612349 L 182.179538 281.727191 " transform="matrix(0.109482,0,0,-0.109482,-0.793,74.344)"/>
<path style="fill:none;stroke-width:5;stroke-linecap:butt;stroke-linejoin:miter;stroke:rgb(13.730068%,12.159915%,12.54902%);stroke-opacity:1;stroke-miterlimit:4;" d="M 159.237654 263.530674 L 166.908735 261.532625 " transform="matrix(0.109482,0,0,-0.109482,-0.793,74.344)"/>
<path style="fill:none;stroke-width:5;stroke-linecap:butt;stroke-linejoin:miter;stroke:rgb(13.730068%,12.159915%,12.54902%);stroke-opacity:1;stroke-miterlimit:4;" d="M 153.957096 238.590741 L 163.305111 238.983215 " transform="matrix(0.109482,0,0,-0.109482,-0.793,74.344)"/>
<path style="fill:none;stroke-width:5;stroke-linecap:butt;stroke-linejoin:miter;stroke:rgb(13.730068%,12.159915%,12.54902%);stroke-opacity:1;stroke-miterlimit:4;" d="M 157.667758 216.07701 L 164.518212 220.073108 " transform="matrix(0.109482,0,0,-0.109482,-0.793,74.344)"/>
<path style="fill:none;stroke-width:5;stroke-linecap:butt;stroke-linejoin:miter;stroke:rgb(13.730068%,12.159915%,12.54902%);stroke-opacity:1;stroke-miterlimit:4;" d="M 170.904833 192.064743 L 177.719607 199.093594 " transform="matrix(0.109482,0,0,-0.109482,-0.793,74.344)"/>
<path style="fill:none;stroke-width:5;stroke-linecap:butt;stroke-linejoin:miter;stroke:rgb(13.730068%,12.159915%,12.54902%);stroke-opacity:1;stroke-miterlimit:4;" d="M 193.02609 172.084253 L 196.165881 186.320352 " transform="matrix(0.109482,0,0,-0.109482,-0.793,74.344)"/>
<path style="fill:none;stroke-width:5;stroke-linecap:butt;stroke-linejoin:miter;stroke:rgb(13.730068%,12.159915%,12.54902%);stroke-opacity:1;stroke-miterlimit:4;" d="M 261.816062 172.084253 L 255.215365 186.320352 " transform="matrix(0.109482,0,0,-0.109482,-0.793,74.344)"/>
<path style="fill:none;stroke-width:5;stroke-linecap:butt;stroke-linejoin:miter;stroke:rgb(13.730068%,12.159915%,12.54902%);stroke-opacity:1;stroke-miterlimit:4;" d="M 288.39725 193.456241 L 274.089792 205.230458 " transform="matrix(0.109482,0,0,-0.109482,-0.793,74.344)"/>
<path style="fill:none;stroke-width:5;stroke-linecap:butt;stroke-linejoin:miter;stroke:rgb(13.730068%,12.159915%,12.54902%);stroke-opacity:1;stroke-miterlimit:4;" d="M 303.097181 224.996872 L 288.825403 226.602447 " transform="matrix(0.109482,0,0,-0.109482,-0.793,74.344)"/>
<path style="fill:none;stroke-width:5;stroke-linecap:butt;stroke-linejoin:miter;stroke:rgb(13.730068%,12.159915%,12.54902%);stroke-opacity:1;stroke-miterlimit:4;" d="M 300.385544 259.356178 L 290.038504 254.824889 " transform="matrix(0.109482,0,0,-0.109482,-0.793,74.344)"/>
<path style="fill:none;stroke-width:5;stroke-linecap:butt;stroke-linejoin:miter;stroke:rgb(13.730068%,12.159915%,12.54902%);stroke-opacity:1;stroke-miterlimit:4;" d="M 287.11279 286.258481 L 272.805332 277.231581 " transform="matrix(0.109482,0,0,-0.109482,-0.793,74.344)"/>
<path style="fill:none;stroke-width:5;stroke-linecap:butt;stroke-linejoin:miter;stroke:rgb(13.730068%,12.159915%,12.54902%);stroke-opacity:1;stroke-miterlimit:4;" d="M 260.388884 304.740434 L 252.967559 289.933464 " transform="matrix(0.109482,0,0,-0.109482,-0.793,74.344)"/>
<path style="fill:none;stroke-width:5;stroke-linecap:butt;stroke-linejoin:miter;stroke:rgb(13.730068%,12.159915%,12.54902%);stroke-opacity:1;stroke-miterlimit:4;" d="M 398.5397 230.562865 C 398.5397 224.925513 395.97078 220.358544 392.795309 220.358544 C 389.655518 220.358544 387.086598 224.925513 387.086598 230.562865 C 387.086598 236.200218 389.655518 240.767187 392.795309 240.767187 C 395.97078 240.767187 398.5397 236.200218 398.5397 230.562865 Z M 398.5397 230.562865 " transform="matrix(0.109482,0,0,-0.109482,-0.793,74.344)"/>
<path style="fill:none;stroke-width:5;stroke-linecap:butt;stroke-linejoin:miter;stroke:rgb(13.730068%,12.159915%,12.54902%);stroke-opacity:1;stroke-miterlimit:4;" d="M 972.693349 230.348789 C 972.693349 195.133175 931.019756 166.625298 879.569995 166.625298 C 828.155913 166.625298 786.44664 195.133175 786.44664 230.348789 C 786.44664 265.564402 828.155913 294.107959 879.569995 294.107959 C 931.019756 294.107959 972.693349 265.564402 972.693349 230.348789 Z M 972.693349 230.348789 " transform="matrix(0.109482,0,0,-0.109482,-0.793,74.344)"/>
<path style="fill:none;stroke-width:5;stroke-linecap:butt;stroke-linejoin:miter;stroke:rgb(13.730068%,12.159915%,12.54902%);stroke-opacity:1;stroke-miterlimit:4;" d="M 786.517999 133.58613 L 786.517999 230.348789 L 786.44664 230.348789 C 786.44664 195.133175 828.155913 166.625298 879.569995 166.625298 C 931.019756 166.625298 970.909377 192.599934 972.122478 226.602447 L 972.122478 74.358249 C 966.84192 38.143612 926.845261 9.992528 878.321214 9.992528 C 833.757586 9.992528 796.436885 33.71936 786.517999 65.652465 L 786.517999 105.113932 " transform="matrix(0.109482,0,0,-0.109482,-0.793,74.344)"/>
<path style=" stroke:none;fill-rule:nonzero;fill:rgb(100%,100%,100%);fill-opacity:1;" d="M 42.664063 48.328125 C 42.628906 48.246094 42.558594 48.234375 42.640625 48.242188 C 45.65625 48.46875 48.820313 49.644531 51.289063 51.347656 C 53.5 52.867188 55.414063 54.871094 56.824219 57.152344 C 58.4375 59.753906 58.878906 62.921875 60.871094 65.324219 C 62 66.683594 63.554688 67.648438 65.335938 67.820313 C 66.789063 67.964844 68.730469 67.734375 69.898438 66.828125 C 72.648438 64.691406 75.476563 62.558594 78.691406 61.164063 C 80.265625 60.480469 82.105469 60.09375 83.796875 59.871094 C 84.554688 59.773438 85.78125 59.546875 86.496094 59.9375 C 87.234375 60.339844 87.386719 61.757813 86.796875 62.347656 C 86.273438 62.867188 84.996094 62.835938 84.320313 62.921875 C 82.519531 63.144531 80.6875 63.25 78.984375 63.925781 C 76.800781 64.792969 75.453125 66.230469 73.636719 67.652344 C 72.703125 68.382813 71.707031 69.039063 70.640625 69.558594 C 68.523438 70.589844 66.132813 71.023438 63.835938 70.355469 C 62.46875 69.960938 61.21875 69.21875 60.144531 68.289063 C 59.714844 67.921875 59.300781 67.523438 58.933594 67.089844 C 58.1875 66.207031 57.613281 64.683594 57.195313 63.605469 C 56.730469 62.398438 56.148438 61.238281 55.464844 60.144531 C 54.234375 58.183594 52.675781 56.441406 50.910156 54.953125 C 48.5625 52.96875 45.816406 51.34375 42.917969 50.300781 C 42.703125 50.222656 42.707031 50.21875 42.488281 50.148438 C 42.488281 50.148438 43.183594 49.527344 42.664063 48.328125 "/>
<path style="fill:none;stroke-width:5;stroke-linecap:butt;stroke-linejoin:miter;stroke:rgb(13.730068%,12.159915%,12.54902%);stroke-opacity:1;stroke-miterlimit:4;" d="M 396.934125 237.627396 C 396.61301 238.376664 395.97078 238.483702 396.720048 238.412343 C 424.264581 236.342936 453.164932 225.603422 475.714342 210.047184 C 495.908909 196.167879 513.391838 177.864323 526.272118 157.027526 C 541.007729 133.265015 545.039507 104.328984 563.236024 82.386125 C 573.547384 69.969678 587.747804 61.156854 604.017631 59.586959 C 617.290385 58.266819 635.02307 60.371907 645.691224 68.649538 C 670.809555 88.166195 696.641474 107.647173 726.005658 120.384735 C 740.384475 126.628638 757.189494 130.160903 772.638694 132.194632 C 779.560507 133.086618 790.763853 135.156026 797.293192 131.588081 C 804.036607 127.913098 805.428105 114.961459 800.040509 109.573863 C 795.259463 104.828497 783.592284 105.113932 777.41974 104.328984 C 760.971515 102.295256 744.237855 101.331911 728.681616 95.159367 C 708.736806 87.23853 696.427397 74.108493 679.836455 61.121175 C 671.309067 54.449118 662.210808 48.454972 652.470319 43.709605 C 633.132059 34.290231 611.296238 30.329813 590.316724 36.430998 C 577.828918 40.034622 566.411495 46.813717 556.599647 55.305425 C 552.674908 58.659293 548.892887 62.298597 545.539019 66.259015 C 538.724245 74.32257 533.479366 88.237554 529.661665 98.085081 C 525.415811 109.11003 520.099574 119.706826 513.855671 129.697071 C 502.616645 147.608153 488.380546 163.521186 472.253436 177.115055 C 450.810089 195.240213 425.727438 210.082863 399.253289 219.609275 C 397.29092 220.322864 397.326599 220.358544 395.32855 221.000774 C 395.32855 221.000774 401.679491 226.673806 396.934125 237.627396 Z M 396.934125 237.627396 " transform="matrix(0.109482,0,0,-0.109482,-0.793,74.344)"/>
<path style="fill-rule:nonzero;fill:rgb(100%,100%,100%);fill-opacity:1;stroke-width:5;stroke-linecap:butt;stroke-linejoin:miter;stroke:rgb(13.730068%,12.159915%,12.54902%);stroke-opacity:1;stroke-miterlimit:4;" d="M 1279.964741 157.990872 C 1234.402088 156.884809 1209.569193 128.483969 1174.175183 105.328009 C 1166.753858 100.511284 1158.511906 97.264454 1149.913159 95.302084 C 1132.037757 91.198948 1113.234688 93.0186 1095.287927 95.979994 C 1064.603603 101.082155 1027.996491 117.815815 996.634258 110.323131 C 990.176278 108.753236 981.185058 104.899856 974.869796 104.293305 C 968.697252 103.686754 958.029097 112.071424 963.595091 120.06362 C 968.411816 126.985433 988.891818 130.803133 996.634258 132.658465 C 1027.996491 140.151148 1064.603603 123.453168 1095.287927 118.351007 C 1113.234688 115.389613 1132.037757 113.569961 1149.913159 117.673097 C 1158.511906 119.635467 1166.753858 122.846617 1174.175183 127.699022 C 1209.10536 150.498188 1237.185085 180.790038 1281.820072 182.752407 " transform="matrix(0.109482,0,0,-0.109482,-0.793,74.344)"/>
<path style="fill:none;stroke-width:5;stroke-linecap:butt;stroke-linejoin:miter;stroke:rgb(13.730068%,12.159915%,12.54902%);stroke-opacity:1;stroke-miterlimit:4;" d="M 1289.384115 169.943486 C 1289.384115 162.807597 1286.315682 157.027526 1282.497981 157.027526 C 1278.71596 157.027526 1275.647528 162.807597 1275.647528 169.943486 C 1275.647528 177.079375 1278.71596 182.859446 1282.497981 182.859446 C 1286.315682 182.859446 1289.384115 177.079375 1289.384115 169.943486 Z M 1289.384115 169.943486 " transform="matrix(0.109482,0,0,-0.109482,-0.793,74.344)"/>
<path style="fill:none;stroke-width:3.8;stroke-linecap:butt;stroke-linejoin:miter;stroke:rgb(13.730068%,12.159915%,12.54902%);stroke-opacity:1;stroke-miterlimit:4;" d="M 1012.083458 159.096934 C 1012.083458 159.096934 1043.945204 165.983068 1078.94674 152.853031 " transform="matrix(0.109482,0,0,-0.109482,-0.793,74.344)"/>
<path style=" stroke:none;fill-rule:nonzero;fill:rgb(13.730068%,12.159915%,12.54902%);fill-opacity:1;" d="M 116.601563 58.292969 L 120.105469 58.179688 L 117.015625 56.527344 L 116.601563 58.292969 "/>
<path style="fill:none;stroke-width:3.8;stroke-linecap:butt;stroke-linejoin:miter;stroke:rgb(13.730068%,12.159915%,12.54902%);stroke-opacity:1;stroke-miterlimit:4;" d="M 590.851916 94.124663 C 590.851916 94.124663 617.076309 72.859713 638.341259 94.124663 " transform="matrix(0.109482,0,0,-0.109482,-0.793,74.344)"/>
<path style=" stroke:none;fill-rule:nonzero;fill:rgb(13.730068%,12.159915%,12.54902%);fill-opacity:1;" d="M 69.289063 65.109375 L 71.039063 62.078125 L 68.007813 63.828125 L 69.289063 65.109375 "/>
<path style="fill:none;stroke-width:4.583;stroke-linecap:butt;stroke-linejoin:miter;stroke:rgb(13.730068%,12.159915%,12.54902%);stroke-opacity:1;stroke-miterlimit:4;" d="M 1550.022469 499.942685 C 1550.022469 439.180588 1500.749154 389.942952 1440.022737 389.942952 C 1379.26064 389.942952 1330.023004 439.180588 1330.023004 499.942685 C 1330.023004 560.704782 1379.26064 609.942417 1440.022737 609.942417 C 1500.749154 609.942417 1550.022469 560.704782 1550.022469 499.942685 Z M 1550.022469 499.942685 " transform="matrix(0.109482,0,0,-0.109482,-0.793,74.344)"/>
<path style="fill:none;stroke-width:3.8;stroke-linecap:butt;stroke-linejoin:miter;stroke:rgb(13.730068%,12.159915%,12.54902%);stroke-opacity:1;stroke-miterlimit:4;" d="M 1440.022737 434.934733 L 1431.673746 504.937807 " transform="matrix(0.109482,0,0,-0.109482,-0.793,74.344)"/>
<path style=" stroke:none;fill-rule:nonzero;fill:rgb(13.730068%,12.159915%,12.54902%);fill-opacity:1;" d="M 156.910156 19.570313 L 155.609375 16.316406 L 155.109375 19.785156 L 156.910156 19.570313 "/>
<path style="fill:none;stroke-width:5;stroke-linecap:butt;stroke-linejoin:miter;stroke:rgb(13.730068%,12.159915%,12.54902%);stroke-opacity:1;stroke-miterlimit:4;" d="M 1358.316805 536.621155 L 1374.158479 520.779481 " transform="matrix(0.109482,0,0,-0.109482,-0.793,74.344)"/>
<path style="fill:none;stroke-width:5;stroke-linecap:butt;stroke-linejoin:miter;stroke:rgb(13.730068%,12.159915%,12.54902%);stroke-opacity:1;stroke-miterlimit:4;" d="M 1382.114995 559.563039 L 1392.069561 539.475511 " transform="matrix(0.109482,0,0,-0.109482,-0.793,74.344)"/>
<path style="fill:none;stroke-width:5;stroke-linecap:butt;stroke-linejoin:miter;stroke:rgb(13.730068%,12.159915%,12.54902%);stroke-opacity:1;stroke-miterlimit:4;" d="M 1420.149285 577.795236 L 1424.038345 555.745338 " transform="matrix(0.109482,0,0,-0.109482,-0.793,74.344)"/>
<path style="fill:none;stroke-width:5;stroke-linecap:butt;stroke-linejoin:miter;stroke:rgb(13.730068%,12.159915%,12.54902%);stroke-opacity:1;stroke-miterlimit:4;" d="M 1457.255909 575.369034 L 1454.044759 553.212098 " transform="matrix(0.109482,0,0,-0.109482,-0.793,74.344)"/>
<path style="fill:none;stroke-width:5;stroke-linecap:butt;stroke-linejoin:miter;stroke:rgb(13.730068%,12.159915%,12.54902%);stroke-opacity:1;stroke-miterlimit:4;" d="M 1485.192916 565.521507 L 1478.556539 544.113839 " transform="matrix(0.109482,0,0,-0.109482,-0.793,74.344)"/>
<path style="fill:none;stroke-width:5;stroke-linecap:butt;stroke-linejoin:miter;stroke:rgb(13.730068%,12.159915%,12.54902%);stroke-opacity:1;stroke-miterlimit:4;" d="M 1512.273615 549.679833 L 1499.71445 531.1622 " transform="matrix(0.109482,0,0,-0.109482,-0.793,74.344)"/>
<path style="fill:none;stroke-width:5;stroke-linecap:butt;stroke-linejoin:miter;stroke:rgb(13.730068%,12.159915%,12.54902%);stroke-opacity:1;stroke-miterlimit:4;" d="M 1530.64853 531.304918 L 1518.089365 512.787285 " transform="matrix(0.109482,0,0,-0.109482,-0.793,74.344)"/>
</g>
</g>
<g clip-path="url(#clip3)" clip-rule="nonzero">
<g style="fill:rgb(0%,0%,0%);fill-opacity:1;">
  <use xlink:href="#glyph0-1" x="18.76745" y="6.8034"/>
  <use xlink:href="#glyph0-2" x="23.001035" y="6.8034"/>
  <use xlink:href="#glyph0-3" x="25.199037" y="6.8034"/>
</g>
<g style="fill:rgb(0%,0%,0%);fill-opacity:1;">
  <use xlink:href="#glyph0-4" x="12.8251" y="13.5779"/>
  <use xlink:href="#glyph0-5" x="16.48903" y="13.5779"/>
  <use xlink:href="#glyph0-6" x="18.193252" y="13.5779"/>
  <use xlink:href="#glyph0-7" x="22.58985" y="13.5779"/>
  <use xlink:href="#glyph0-8" x="27.056394" y="13.5779"/>
  <use xlink:href="#glyph0-9" x="31.324953" y="13.5779"/>
</g>
<g style="fill:rgb(0%,0%,0%);fill-opacity:1;">
  <use xlink:href="#glyph0-6" x="4.643" y="20.3524"/>
  <use xlink:href="#glyph0-10" x="9.039597" y="20.3524"/>
  <use xlink:href="#glyph0-7" x="12.991615" y="20.3524"/>
  <use xlink:href="#glyph0-10" x="17.458159" y="20.3524"/>
  <use xlink:href="#glyph0-1" x="21.410177" y="20.3524"/>
  <use xlink:href="#glyph0-8" x="25.643762" y="20.3524"/>
</g>
<g style="fill:rgb(0%,0%,0%);fill-opacity:1;">
  <use xlink:href="#glyph0-11" x="29.361041" y="20.3524"/>
  <use xlink:href="#glyph0-12" x="33.925986" y="20.3524"/>
  <use xlink:href="#glyph0-1" x="38.857858" y="20.3524"/>
</g>
<g style="fill:rgb(0%,0%,0%);fill-opacity:1;">
  <use xlink:href="#glyph1-1" x="148.341" y="21.771"/>
</g>
<g style="fill:rgb(0%,0%,0%);fill-opacity:1;">
  <use xlink:href="#glyph1-2" x="163.931" y="22.905"/>
</g>
<g style="fill:rgb(0%,0%,0%);fill-opacity:1;">
  <use xlink:href="#glyph0-13" x="135.468" y="37.98465"/>
  <use xlink:href="#glyph0-10" x="140.166912" y="37.98465"/>
  <use xlink:href="#glyph0-11" x="144.118929" y="37.98465"/>
  <use xlink:href="#glyph0-10" x="148.683874" y="37.98465"/>
  <use xlink:href="#glyph0-14" x="152.635892" y="37.98465"/>
  <use xlink:href="#glyph0-11" x="156.849322" y="37.98465"/>
  <use xlink:href="#glyph0-12" x="161.414267" y="37.98465"/>
  <use xlink:href="#glyph0-1" x="166.346138" y="37.98465"/>
</g>
<g style="fill:rgb(0%,0%,0%);fill-opacity:1;">
  <use xlink:href="#glyph0-15" x="172.666284" y="37.98465"/>
</g>
<g style="fill:rgb(0%,0%,0%);fill-opacity:1;">
  <use xlink:href="#glyph0-8" x="140.0631" y="44.75915"/>
  <use xlink:href="#glyph0-16" x="144.331658" y="44.75915"/>
  <use xlink:href="#glyph0-17" x="149.897204" y="44.75915"/>
  <use xlink:href="#glyph0-9" x="154.046615" y="44.75915"/>
  <use xlink:href="#glyph0-5" x="157.632299" y="44.75915"/>
  <use xlink:href="#glyph0-3" x="159.336521" y="44.75915"/>
  <use xlink:href="#glyph0-5" x="163.105372" y="44.75915"/>
  <use xlink:href="#glyph0-10" x="164.809594" y="44.75915"/>
  <use xlink:href="#glyph0-1" x="168.761612" y="44.75915"/>
</g>
<g style="fill:rgb(0%,0%,0%);fill-opacity:1;">
  <use xlink:href="#glyph0-14" x="84.306" y="79.17"/>
  <use xlink:href="#glyph0-8" x="88.51943" y="79.17"/>
</g>
<g style="fill:rgb(0%,0%,0%);fill-opacity:1;">
  <use xlink:href="#glyph0-18" x="92.05295" y="79.17"/>
  <use xlink:href="#glyph0-5" x="96.321509" y="79.17"/>
  <use xlink:href="#glyph0-11" x="98.025731" y="79.17"/>
</g>
<g style="fill:rgb(0%,0%,0%);fill-opacity:1;">
  <use xlink:href="#glyph0-19" x="102.596604" y="79.17"/>
</g>
</g>
</g>
</svg>
