<?xml version="1.0" encoding="UTF-8" standalone="no"?>
<!-- Created with Inkscape (http://www.inkscape.org/) -->
<svg xmlns:dc="http://purl.org/dc/elements/1.1/" xmlns:cc="http://creativecommons.org/ns#" xmlns:rdf="http://www.w3.org/1999/02/22-rdf-syntax-ns#" xmlns:svg="http://www.w3.org/2000/svg" xmlns="http://www.w3.org/2000/svg" xmlns:xlink="http://www.w3.org/1999/xlink" version="1.1" width="123.0pt" height="119.6pt" viewBox="0 0 71.016924 69.03928" id="svg12001">
  <metadata id="metadata12155">
    <rdf:RDF>
      <cc:Work rdf:about="">
        <dc:format>image/svg+xml</dc:format>
        <dc:type rdf:resource="http://purl.org/dc/dcmitype/StillImage"/>
        <dc:title/>
      </cc:Work>
    </rdf:RDF>
  </metadata>
  <defs id="defs12003">
    <g id="g12005">
      <g id="glyph0-0"/>
      <g id="glyph0-1">
        <path d="m 0.78125,-4.21875 0,0.390625 c 0.34375,0 0.6875,-0.0625 1,-0.203125 l 0,3.640625 -0.96875,0 0,0.390625 2.4375,0 0,-0.390625 -0.96875,0 0,-4.296875 c -0.03125,0 -0.09375,0 -0.125,0.015625 C 2.109375,-4.65625 2.0625,-4.59375 2.015625,-4.5625 1.734375,-4.328125 1.21875,-4.21875 0.78125,-4.21875 z m 0,0" id="path12009"/>
      </g>
      <g id="glyph0-2">
        <path d="m 0.578125,-4.84375 0,4.84375 0.5,0 0,-4.84375 -0.5,0 z m 0,0" id="path12012"/>
      </g>
      <g id="glyph0-3">
        <path d="m 0.578125,-4.84375 0,4.84375 0.515625,0 0,-0.46875 0,0 c 0.0625,0.109375 0.171875,0.203125 0.265625,0.28125 0.3125,0.25 0.828125,0.328125 1.28125,0.109375 0.203125,-0.109375 0.375,-0.28125 0.515625,-0.46875 C 3.84375,-1.5 3.421875,-3.09375 2.453125,-3.3125 c -0.125,-0.046875 -0.28125,-0.046875 -0.421875,-0.015625 -0.40625,0.046875 -0.71875,0.25 -0.953125,0.5 l 0,-2.015625 -0.5,0 z M 1.8125,-2.953125 c 0.328125,-0.03125 0.703125,0.109375 0.921875,0.375 0.171875,0.21875 0.234375,0.5 0.234375,0.765625 0.03125,0.375 -0.015625,0.78125 -0.25,1.078125 -0.203125,0.265625 -0.53125,0.375 -0.84375,0.40625 -0.265625,0 -0.5,-0.09375 -0.671875,-0.3125 C 1.171875,-0.6875 1.125,-0.75 1.09375,-0.8125 c 0,-0.046875 0,-0.09375 0,-0.125 l 0,-1.390625 c 0,-0.0625 -0.015625,-0.140625 0.015625,-0.203125 0.03125,-0.078125 0.09375,-0.125 0.15625,-0.1875 0.15625,-0.125 0.34375,-0.21875 0.546875,-0.234375 z m 0,0" id="path12015"/>
      </g>
      <g id="glyph0-4">
        <path d="m 0.78125,-0.578125 0,0.578125 0.578125,0 0,-0.578125 -0.578125,0 z m 0,0" id="path12018"/>
      </g>
      <g id="glyph0-5">
        <path d="m 0.6875,-3.546875 0,0 C 0.96875,-4.03125 1.515625,-4.34375 2.078125,-4.28125 2.484375,-4.265625 2.875,-4.03125 2.8125,-3.546875 2.765625,-3.15625 2.453125,-2.859375 2.078125,-2.75 1.875,-2.6875 1.515625,-2.671875 1.296875,-2.65625 l 0,0.390625 0.453125,0 c 0.09375,0 0.1875,-0.015625 0.296875,0 0.25,0.015625 0.5,0.109375 0.6875,0.28125 C 3.046875,-1.6875 3.09375,-1.15625 2.90625,-0.78125 2.8125,-0.640625 2.703125,-0.515625 2.546875,-0.4375 2.1875,-0.21875 1.734375,-0.265625 1.34375,-0.390625 1.078125,-0.46875 0.828125,-0.609375 0.625,-0.796875 0.53125,-0.875 0.46875,-0.953125 0.390625,-1.03125 0.375,-0.953125 0.359375,-0.859375 0.34375,-0.78125 0.328125,-0.671875 0.3125,-0.640625 0.390625,-0.5625 l 0.125,0.125 c 0.203125,0.171875 0.4375,0.3125 0.6875,0.421875 0.546875,0.203125 1.1875,0.1875 1.6875,-0.125 C 3.375,-0.46875 3.734375,-1.09375 3.453125,-1.6875 3.265625,-2.09375 2.921875,-2.328125 2.46875,-2.46875 c 0.265625,-0.125 0.453125,-0.234375 0.625,-0.484375 0.140625,-0.203125 0.296875,-0.515625 0.21875,-0.84375 -0.0625,-0.34375 -0.34375,-0.609375 -0.65625,-0.75 -0.453125,-0.203125 -1,-0.171875 -1.453125,0.03125 -0.234375,0.09375 -0.4375,0.25 -0.609375,0.4375 C 0.5625,-4.0625 0.453125,-3.921875 0.453125,-3.875 c 0,0.03125 0.171875,0.265625 0.234375,0.328125 z m 0,0" id="path12021"/>
      </g>
      <g id="glyph0-6">
        <path d="m 0.65625,-4.578125 0,2.546875 0.296875,0 c 0.046875,0 0.09375,0.015625 0.140625,-0.015625 0.03125,-0.015625 0.0625,-0.0625 0.078125,-0.09375 0.046875,-0.0625 0.09375,-0.125 0.15625,-0.171875 0.296875,-0.234375 0.765625,-0.3125 1.125,-0.140625 0.390625,0.171875 0.5,0.625 0.5,1.015625 0,0.25 -0.046875,0.5 -0.171875,0.703125 C 2.5,-0.3125 1.921875,-0.21875 1.453125,-0.328125 1.0625,-0.421875 0.78125,-0.640625 0.578125,-0.921875 l -0.015625,0 c -0.015625,0.03125 -0.21875,0.3125 -0.21875,0.34375 0,0.03125 0.03125,0.046875 0.046875,0.0625 C 0.625,-0.28125 0.84375,-0.109375 1.1875,0 1.828125,0.21875 2.578125,0.109375 3.0625,-0.390625 3.28125,-0.625 3.421875,-0.90625 3.46875,-1.21875 3.59375,-2.09375 2.953125,-3.015625 1.875,-2.921875 1.5625,-2.890625 1.359375,-2.765625 1.140625,-2.59375 l 0,-1.5625 2.078125,0 0,-0.421875 -2.5625,0 z m 0,0" id="path12024"/>
      </g>
      <g id="glyph0-7">
        <path d="m 0.21875,-1.21875 2.125,0 0,1.21875 0.46875,0 0,-1.21875 0.84375,0 0,-0.421875 -0.84375,0 0,-3 -0.390625,0 c -0.046875,0 -0.125,-0.015625 -0.15625,0.015625 -0.0625,0.046875 -0.15625,0.21875 -0.1875,0.234375 L 1.671875,-3.78125 C 1.515625,-3.546875 0.375,-1.875 0.296875,-1.75 0.21875,-1.671875 0.21875,-1.640625 0.21875,-1.5 l 0,0.28125 z m 2.140625,-2.96875 0,2.546875 -1.640625,0 1.046875,-1.546875 c 0.1875,-0.328125 0.421875,-0.640625 0.59375,-1 z m 0,0" id="path12027"/>
      </g>
      <g id="glyph0-8">
        <path d="M 2.578125,1.546875 C 2.546875,1.5 2.5,1.46875 2.453125,1.4375 1.6875,0.75 1.21875,-0.3125 1.171875,-1.59375 c -0.03125,-0.875 0.125,-1.78125 0.53125,-2.5625 0.203125,-0.375 0.4375,-0.6875 0.75,-0.953125 C 2.5,-5.15625 2.546875,-5.1875 2.578125,-5.21875 l -0.25,0 c -0.15625,0 -0.140625,0 -0.25,0.078125 -0.359375,0.28125 -0.65625,0.65625 -0.890625,1.078125 -0.65625,1.234375 -0.703125,2.90625 -0.09375,4.25 0.21875,0.5 0.5625,0.921875 0.984375,1.28125 0.09375,0.0625 0.09375,0.078125 0.25,0.078125 l 0.25,0 z m 0,0" id="path12030"/>
      </g>
      <g id="glyph0-9">
        <path d="m 0.640625,-2.640625 c 0.125,-0.0625 0.21875,-0.140625 0.34375,-0.203125 C 1.203125,-2.9375 1.4375,-2.984375 1.6875,-3 1.75,-3.015625 1.828125,-3.015625 1.90625,-3.015625 c 0.28125,0.046875 0.515625,0.234375 0.59375,0.5 0.078125,0.203125 0.046875,0.453125 0.046875,0.65625 -0.359375,0 -0.734375,0.03125 -1.09375,0.125 -0.5,0.125 -1.125,0.375 -1.0625,1.015625 0.046875,0.28125 0.203125,0.5625 0.46875,0.703125 C 1.03125,0.0625 1.234375,0.0625 1.4375,0.046875 1.734375,0.015625 2.0625,-0.0625 2.3125,-0.25 c 0.09375,-0.0625 0.171875,-0.140625 0.25,-0.21875 l 0,0.46875 0.484375,0 0,-1.828125 c 0,-0.1875 0.03125,-0.390625 -0.015625,-0.59375 -0.0625,-0.484375 -0.5,-0.84375 -0.953125,-0.9375 -0.28125,-0.046875 -0.71875,0.015625 -0.953125,0.0625 -0.078125,0.03125 -0.46875,0.15625 -0.5,0.21875 -0.03125,0.03125 -0.015625,0.09375 -0.015625,0.125 0.015625,0.109375 0.03125,0.203125 0.03125,0.3125 z m 1.90625,1.015625 0,0.515625 c 0,0.140625 0,0.265625 -0.0625,0.390625 -0.078125,0.140625 -0.21875,0.25 -0.375,0.296875 -0.328125,0.125 -0.78125,0.140625 -1.0625,-0.09375 C 0.96875,-0.5625 0.90625,-0.640625 0.890625,-0.75 0.8125,-1.046875 1.078125,-1.28125 1.3125,-1.390625 1.640625,-1.546875 2.109375,-1.625 2.546875,-1.625 z m 0,0" id="path12033"/>
      </g>
      <g id="glyph0-10">
        <path d="m 0.4375,-5.21875 c 0.03125,0.03125 0.078125,0.0625 0.125,0.109375 0.859375,0.765625 1.328125,2 1.265625,3.515625 -0.015625,0.75 -0.203125,1.5 -0.5625,2.15625 C 1.078125,0.890625 0.84375,1.1875 0.5625,1.4375 0.515625,1.46875 0.46875,1.5 0.4375,1.546875 l 0.25,0 c 0.15625,0 0.140625,0 0.234375,-0.078125 0.375,-0.296875 0.671875,-0.671875 0.890625,-1.078125 0.671875,-1.25 0.71875,-2.90625 0.109375,-4.25 C 1.6875,-4.375 1.359375,-4.796875 0.9375,-5.140625 0.84375,-5.21875 0.84375,-5.21875 0.6875,-5.21875 l -0.25,0 z m 0,0" id="path12036"/>
      </g>
      <g id="glyph1-0"/>
      <g id="glyph1-1">
        <path d="m 0.4375,-4.84375 c 0.1875,1.625 0.359375,3.265625 0.546875,4.890625 l 0.328125,0 c 0.046875,0 0.109375,0.015625 0.15625,0 C 1.5,0.03125 1.515625,-0.015625 1.53125,-0.046875 L 1.625,-0.21875 C 2.03125,-1 3.71875,-4.125 3.78125,-4.328125 l 0,0 c 0,0.265625 0.09375,1.15625 0.109375,1.28125 0.0625,0.53125 0.25,2.390625 0.3125,2.84375 l 0.03125,0.1875 c 0,0.015625 0,0.046875 0.03125,0.0625 0.03125,0.015625 0.078125,0 0.125,0 l 0.234375,0 c 0.109375,0 0.125,0.015625 0.171875,-0.09375 l 0.5,-0.921875 1.359375,-2.515625 c 0.078125,-0.15625 0.6875,-1.25 0.71875,-1.359375 -0.140625,0 -0.3125,0 -0.453125,0.015625 -0.203125,0.3125 -0.359375,0.65625 -0.53125,0.96875 -0.59375,1.125 -1.21875,2.203125 -1.765625,3.34375 l -0.015625,0 C 4.5,-1.890625 4.328125,-3.21875 4.1875,-4.578125 4.171875,-4.65625 4.171875,-4.765625 4.140625,-4.828125 4,-4.84375 3.8125,-4.84375 3.671875,-4.828125 L 3.609375,-4.75 3.21875,-4.03125 c -0.59375,1.1875 -1.25,2.3125 -1.828125,3.515625 l -0.015625,0 -0.015625,-0.40625 C 1.21875,-2.25 1.078125,-3.546875 0.9375,-4.84375 l -0.5,0 z m 3.34375,0.515625 c 0,0 0.015625,0 0.015625,0 0,0 -0.015625,0.015625 -0.015625,0 z m -2.40625,3.8125 c 0,0 0,0 0,0 0,0 0,0.015625 0,0 z m 0,0" id="path12040"/>
      </g>
    </g>
    <clipPath id="clip1">
      <path d="m -232,666 612,0 0,-792 -612,0 0,792 z m 0,0" id="path12043"/>
    </clipPath>
    <clipPath id="clip2">
      <path d="m 2.265625,67.847656 144.566405,0 0,-69.046875 -144.566405,0 0,69.046875 z m 0,0" id="path12046"/>
    </clipPath>
  </defs>
  <g transform="translate(-0.8505,-0.1250007)" id="g12422">
    <path d="m 64.921991,36.503848 -4.312508,5.757823 -7.871108,-5.894542 4.308601,-5.757823 7.875015,5.894542 0,0 z m 0,0" id="path12053" style="fill:none;stroke:#000000;stroke-width:1.07886004;stroke-linejoin:round"/>
    <path d="M 54.906348,33.468687 10.523453,1.0115947" id="path12055" style="fill:none;stroke:#000000;stroke-width:0.53943002"/>
    <path d="m 5.4023496,9.9608301 0,-6.3320429" id="path12057" style="fill:none;stroke:#000000;stroke-width:0.53943002"/>
    <path d="m 8.6367306,6.8787936 c -1.7890658,0 -3.2382873,-1.4492218 -3.2382873,-3.2382878 0,-1.7851595 1.4492215,-3.23438131 3.2382873,-3.23438131 1.7851594,0 3.2343814,1.44922181 3.2343814,3.23438131 0,0.6757828 -0.207032,1.3046902 -0.562501,1.8242228" id="path12059" style="fill:#ffffff;stroke:#000000;stroke-width:0.53943002"/>
    <path d="m 7.4609472,19.46866 -4.113289,0 0,-9.5078299 4.113289,0 0,9.5078299 z m 0,0" id="path12061" style="fill:none;stroke:#000000;stroke-width:1.07886004;stroke-linejoin:round"/>
    <path d="m 60.64464,42.320265 -51.9922844,0 0,-38.6250718 51.9922844,38.6250718 0,0 z m 0,0" id="path12063" style="fill:none;stroke:#000000;stroke-width:0.53943002;stroke-linejoin:round"/>
    <use transform="translate(58.677,30.432)" id="use12095" x="0" y="0" width="145" height="68" xlink:href="#glyph0-1"/>
    <use transform="translate(65.0113,30.432)" id="use12099" x="0" y="0" width="145" height="68" xlink:href="#glyph0-2"/>
    <use transform="translate(66.68223,30.432)" id="use12101" x="0" y="0" width="145" height="68" xlink:href="#glyph0-3"/>
    <use transform="translate(70.50805,30.432)" id="use12103" x="0" y="0" width="145" height="68" xlink:href="#glyph0-4"/>
    <use transform="translate(0.413,26.487)" id="use12111" x="0" y="0" width="145" height="68" xlink:href="#glyph1-1"/>
    <use transform="translate(9.921,27.703)" id="use12115" x="0" y="0" width="145" height="68" xlink:href="#glyph0-5"/>
    <use transform="translate(29.569,27.703)" id="use12119" x="0" y="0" width="145" height="68" xlink:href="#glyph0-6"/>
    <use transform="translate(20.737,41.005)" id="use12123" x="0" y="0" width="145" height="68" xlink:href="#glyph0-7"/>
    <use transform="translate(29.718,53.761)" id="use12139" x="0" y="0" width="145" height="68" xlink:href="#glyph0-8"/>
    <use transform="translate(32.734866,53.761)" id="use12141" x="0" y="0" width="145" height="68" xlink:href="#glyph0-9"/>
    <use transform="translate(36.3717,53.761)" id="use12143" x="0" y="0" width="145" height="68" xlink:href="#glyph0-10"/>
  </g>
</svg>
