<?xml version="1.0" encoding="UTF-8" standalone="no"?>
<!-- Created with Inkscape (http://www.inkscape.org/) -->
<svg xmlns:dc="http://purl.org/dc/elements/1.1/" xmlns:cc="http://creativecommons.org/ns#" xmlns:rdf="http://www.w3.org/1999/02/22-rdf-syntax-ns#" xmlns:svg="http://www.w3.org/2000/svg" xmlns="http://www.w3.org/2000/svg" xmlns:xlink="http://www.w3.org/1999/xlink" version="1.1" width="251.8pt" height="174.1pt" viewBox="0 0 181.676 125.62809" id="svg11490">
  <metadata id="metadata11908">
    <rdf:RDF>
      <cc:Work rdf:about="">
        <dc:format>image/svg+xml</dc:format>
        <dc:type rdf:resource="http://purl.org/dc/dcmitype/StillImage"/>
        <dc:title/>
      </cc:Work>
    </rdf:RDF>
  </metadata>
  <defs id="defs11492">
    <g id="g11494">
      <g id="glyph0-0"/>
      <g id="glyph0-1">
        <path d="M 2.578125,1.546875 C 2.546875,1.5 2.5,1.46875 2.453125,1.4375 1.6875,0.75 1.21875,-0.3125 1.171875,-1.59375 c -0.03125,-0.875 0.125,-1.78125 0.53125,-2.5625 0.203125,-0.375 0.4375,-0.6875 0.75,-0.953125 C 2.5,-5.15625 2.546875,-5.1875 2.578125,-5.21875 l -0.25,0 c -0.15625,0 -0.140625,0 -0.25,0.078125 -0.359375,0.28125 -0.65625,0.65625 -0.890625,1.078125 -0.65625,1.234375 -0.703125,2.90625 -0.09375,4.25 0.21875,0.5 0.5625,0.921875 0.984375,1.28125 0.09375,0.0625 0.09375,0.078125 0.25,0.078125 l 0.25,0 z m 0,0" id="path11498"/>
      </g>
      <g id="glyph0-2">
        <path d="m 0.640625,-2.640625 c 0.125,-0.0625 0.21875,-0.140625 0.34375,-0.203125 C 1.203125,-2.9375 1.4375,-2.984375 1.6875,-3 1.75,-3.015625 1.828125,-3.015625 1.90625,-3.015625 c 0.28125,0.046875 0.515625,0.234375 0.59375,0.5 0.078125,0.203125 0.046875,0.453125 0.046875,0.65625 -0.359375,0 -0.734375,0.03125 -1.09375,0.125 -0.5,0.125 -1.125,0.375 -1.0625,1.015625 0.046875,0.28125 0.203125,0.5625 0.46875,0.703125 C 1.03125,0.0625 1.234375,0.0625 1.4375,0.046875 1.734375,0.015625 2.0625,-0.0625 2.3125,-0.25 c 0.09375,-0.0625 0.171875,-0.140625 0.25,-0.21875 l 0,0.46875 0.484375,0 0,-1.828125 c 0,-0.1875 0.03125,-0.390625 -0.015625,-0.59375 -0.0625,-0.484375 -0.5,-0.84375 -0.953125,-0.9375 -0.28125,-0.046875 -0.71875,0.015625 -0.953125,0.0625 -0.078125,0.03125 -0.46875,0.15625 -0.5,0.21875 -0.03125,0.03125 -0.015625,0.09375 -0.015625,0.125 0.015625,0.109375 0.03125,0.203125 0.03125,0.3125 z m 1.90625,1.015625 0,0.515625 c 0,0.140625 0,0.265625 -0.0625,0.390625 -0.078125,0.140625 -0.21875,0.25 -0.375,0.296875 -0.328125,0.125 -0.78125,0.140625 -1.0625,-0.09375 C 0.96875,-0.5625 0.90625,-0.640625 0.890625,-0.75 0.8125,-1.046875 1.078125,-1.28125 1.3125,-1.390625 1.640625,-1.546875 2.109375,-1.625 2.546875,-1.625 z m 0,0" id="path11501"/>
      </g>
      <g id="glyph0-3">
        <path d="m 0.4375,-5.21875 c 0.03125,0.03125 0.078125,0.0625 0.125,0.109375 0.859375,0.765625 1.328125,2 1.265625,3.515625 -0.015625,0.75 -0.203125,1.5 -0.5625,2.15625 C 1.078125,0.890625 0.84375,1.1875 0.5625,1.4375 0.515625,1.46875 0.46875,1.5 0.4375,1.546875 l 0.25,0 c 0.15625,0 0.140625,0 0.234375,-0.078125 0.375,-0.296875 0.671875,-0.671875 0.890625,-1.078125 0.671875,-1.25 0.71875,-2.90625 0.109375,-4.25 C 1.6875,-4.375 1.359375,-4.796875 0.9375,-5.140625 0.84375,-5.21875 0.84375,-5.21875 0.6875,-5.21875 l -0.25,0 z m 0,0" id="path11504"/>
      </g>
      <g id="glyph0-4">
        <path d="M 0.21875,0 0.578125,0 C 0.625,0 0.6875,0.015625 0.71875,-0.015625 0.75,-0.03125 0.75,-0.0625 0.765625,-0.09375 c 0.109375,-0.25 0.453125,-1.109375 0.5,-1.203125 0.015625,-0.0625 0.03125,-0.09375 0.109375,-0.09375 l 1.671875,0 c 0.1875,0 0.375,-0.015625 0.5625,0 0.078125,0 0.09375,0.09375 0.125,0.15625 C 3.8125,-1.03125 4.1875,-0.125 4.203125,-0.0625 4.234375,0.015625 4.296875,0 4.40625,0 L 4.796875,0 C 4.625,-0.453125 4.4375,-0.890625 4.25,-1.34375 L 2.8125,-4.828125 C 2.796875,-4.859375 2.796875,-4.90625 2.765625,-4.90625 c -0.046875,0 -0.09375,0 -0.140625,0 l -0.25,0 c -0.046875,0 -0.109375,-0.015625 -0.140625,0.015625 C 2.203125,-4.875 2.1875,-4.84375 2.1875,-4.8125 L 0.765625,-1.34375 0.40625,-0.484375 C 0.34375,-0.328125 0.265625,-0.171875 0.21875,0 z M 2.484375,-4.328125 C 2.796875,-3.46875 3.15625,-2.640625 3.5,-1.8125 l -2.03125,0 c 0.328125,-0.828125 0.6875,-1.65625 1,-2.515625 l 0.015625,0 z m 0,0" id="path11507"/>
      </g>
      <g id="glyph0-5">
        <path d="m 0.734375,-4.84375 0,4.84375 3.15625,0 0,-0.40625 -2.625,0 0,-4.4375 -0.53125,0 z m 0,0" id="path11510"/>
      </g>
      <g id="glyph0-6">
        <path d="m 0.734375,-4.84375 0,3.0625 c 0,0.140625 0,0.28125 0.015625,0.421875 0.0625,0.40625 0.265625,0.734375 0.53125,0.96875 C 1.84375,0.125 2.703125,0.265625 3.390625,-0.0625 3.75,-0.234375 4.078125,-0.5625 4.25,-0.921875 4.375,-1.21875 4.390625,-1.40625 4.390625,-1.8125 l 0,-3.03125 -0.5,0 0,3.078125 C 3.890625,-1.5 3.875,-1.21875 3.75,-0.96875 3.671875,-0.8125 3.5625,-0.65625 3.40625,-0.546875 2.8125,-0.109375 1.765625,-0.28125 1.4375,-0.875 1.28125,-1.15625 1.265625,-1.46875 1.265625,-1.78125 l 0,-3.0625 -0.53125,0 z m 0,0" id="path11513"/>
      </g>
      <g id="glyph0-7">
        <path d="m 0.765625,-4.84375 0,4.84375 0.46875,0 0,-4.328125 0.015625,0 C 1.28125,-4.1875 1.359375,-4.0625 1.40625,-3.921875 1.5,-3.703125 2.96875,-0.265625 3,-0.1875 c 0.046875,0.0625 0.015625,0.078125 0.15625,0.078125 l 0.203125,0 c 0.03125,0 0.0625,0 0.109375,0 C 3.5,-0.125 3.5,-0.15625 3.515625,-0.1875 3.546875,-0.234375 3.5625,-0.296875 3.59375,-0.359375 L 3.921875,-1.125 c 0.09375,-0.234375 1.34375,-3.109375 1.375,-3.203125 l 0,0 0,4.328125 0.484375,0 0,-4.84375 C 5.546875,-4.828125 5.265625,-4.859375 5.078125,-4.828125 L 5.03125,-4.734375 3.25,-0.625 1.9375,-3.671875 c -0.171875,-0.390625 -0.3125,-0.78125 -0.5,-1.15625 -0.1875,-0.03125 -0.46875,0 -0.671875,-0.015625 z m 0,0" id="path11516"/>
      </g>
      <g id="glyph0-8">
        <path d="m 0.734375,-4.84375 0,4.84375 0.53125,0 0,-4.84375 -0.53125,0 z m 0,0" id="path11519"/>
      </g>
      <g id="glyph0-9">
        <path d="M 0.75,-4.84375 0.75,0 l 0.484375,0 0,-4.40625 0,0 0.203125,0.34375 1.578125,2.75 C 3.265625,-0.875 3.5,-0.4375 3.75,-0.015625 3.96875,0.03125 4.25,-0.015625 4.484375,0 l 0,-4.84375 L 4,-4.84375 4,-0.421875 2.1875,-3.59375 C 1.953125,-4 1.734375,-4.4375 1.484375,-4.828125 c -0.203125,-0.03125 -0.5,0 -0.734375,-0.015625 z m 0,0" id="path11522"/>
      </g>
      <g id="glyph0-10">
        <path d="m 0.734375,-4.84375 0,4.84375 1.53125,0 c 0.625,0 0.9375,0.03125 1.453125,-0.21875 C 4.359375,-0.515625 4.875,-1.109375 5.03125,-1.875 5.234375,-2.84375 4.828125,-3.90625 4,-4.453125 3.703125,-4.640625 3.359375,-4.78125 3,-4.828125 2.71875,-4.84375 2.4375,-4.84375 2.15625,-4.84375 l -1.421875,0 z m 0.515625,4.4375 0,-4.015625 0.984375,0 c 0.1875,0 0.375,-0.015625 0.5625,0 0.5,0.046875 0.921875,0.25 1.21875,0.546875 C 4.375,-3.5 4.53125,-3 4.5625,-2.5 4.59375,-1.90625 4.40625,-1.296875 3.96875,-0.890625 3.6875,-0.640625 3.25,-0.453125 2.796875,-0.421875 2.609375,-0.40625 2.4375,-0.40625 2.25,-0.40625 l -1,0 z m 0,0" id="path11525"/>
      </g>
      <g id="glyph0-11">
        <path d="m 0.4375,-0.90625 c -0.015625,0.0625 -0.109375,0.5 -0.09375,0.53125 0.015625,0.015625 0.046875,0.03125 0.0625,0.046875 L 0.578125,-0.25 c 0.65625,0.34375 1.78125,0.546875 2.53125,0.125 C 3.5,-0.328125 3.875,-0.765625 3.875,-1.296875 c 0,-0.71875 -0.578125,-1.15625 -1.078125,-1.328125 -0.140625,-0.046875 -0.65625,-0.15625 -0.75,-0.171875 -0.359375,-0.078125 -0.75,-0.171875 -1,-0.46875 -0.03125,-0.046875 -0.0625,-0.09375 -0.078125,-0.15625 -0.203125,-0.453125 0.15625,-0.84375 0.578125,-1 C 2,-4.59375 2.578125,-4.546875 2.984375,-4.375 3.09375,-4.328125 3.21875,-4.265625 3.3125,-4.1875 c 0.0625,0.03125 0.125,0.078125 0.1875,0.125 0.03125,-0.125 0.046875,-0.265625 0.0625,-0.390625 0.015625,-0.09375 0.0625,-0.15625 -0.046875,-0.1875 L 3.34375,-4.71875 c -0.765625,-0.3125 -1.796875,-0.359375 -2.453125,0.203125 -0.09375,0.0625 -0.171875,0.15625 -0.25,0.25 -0.203125,0.28125 -0.296875,0.71875 -0.09375,1.109375 0.171875,0.34375 0.46875,0.578125 0.84375,0.71875 0.15625,0.046875 0.296875,0.078125 0.453125,0.109375 C 2,-2.28125 2.5625,-2.171875 2.65625,-2.125 2.921875,-2.03125 3.1875,-1.859375 3.3125,-1.59375 3.375,-1.484375 3.390625,-1.375 3.390625,-1.203125 3.34375,-0.78125 2.96875,-0.5 2.59375,-0.390625 1.984375,-0.21875 1.296875,-0.40625 0.84375,-0.640625 0.703125,-0.71875 0.578125,-0.828125 0.4375,-0.90625 z m 0,0" id="path11528"/>
      </g>
      <g id="glyph0-12">
        <path d="M 4.515625,-0.796875 C 4.125,-0.578125 3.875,-0.375 3.296875,-0.359375 c -0.203125,0 -0.421875,0.015625 -0.625,-0.03125 -0.5625,-0.109375 -1.03125,-0.5 -1.296875,-1 C 0.890625,-2.28125 1.125,-3.5 1.953125,-4.125 c 0.140625,-0.09375 0.28125,-0.1875 0.4375,-0.25 0.46875,-0.15625 1.03125,-0.140625 1.5,0.03125 C 4.0625,-4.265625 4.21875,-4.1875 4.375,-4.109375 4.40625,-4.28125 4.453125,-4.46875 4.46875,-4.640625 4.328125,-4.703125 4.171875,-4.75 4,-4.78125 3.671875,-4.859375 3.171875,-4.921875 2.796875,-4.890625 c -0.71875,0.0625 -1.328125,0.46875 -1.6875,0.953125 -0.46875,0.59375 -0.625,1.390625 -0.453125,2.125 0.296875,1.125 1.25,1.9375 2.625,1.859375 C 3.734375,0.03125 4.015625,-0.0625 4.375,-0.234375 4.40625,-0.265625 4.53125,-0.3125 4.546875,-0.34375 4.5625,-0.390625 4.515625,-0.6875 4.515625,-0.796875 z m 0,0" id="path11531"/>
      </g>
      <g id="glyph0-13">
        <path d="m 0.78125,-0.578125 0,0.578125 0.578125,0 0,-0.578125 -0.578125,0 z m 0,0" id="path11534"/>
      </g>
      <g id="glyph0-14">
        <path d="m 4.640625,-2.296875 -1.625,0 0,0.421875 1.125,0 0,1.21875 C 4.140625,-0.546875 4.125,-0.515625 4,-0.5 3.65625,-0.390625 3.171875,-0.328125 2.78125,-0.375 2.3125,-0.4375 1.921875,-0.6875 1.65625,-0.984375 0.953125,-1.796875 0.953125,-3.078125 1.671875,-3.875 2.03125,-4.25 2.515625,-4.515625 3.1875,-4.46875 3.5,-4.453125 3.796875,-4.390625 4.078125,-4.265625 4.21875,-4.1875 4.34375,-4.09375 4.484375,-4 4.515625,-4.1875 4.5625,-4.375 4.578125,-4.546875 4.0625,-4.78125 3.703125,-4.890625 2.96875,-4.890625 2.3125,-4.890625 1.75,-4.578125 1.375,-4.25 c -0.140625,0.125 -0.25,0.28125 -0.359375,0.4375 -0.546875,0.828125 -0.5625,1.953125 0,2.78125 0.265625,0.390625 0.625,0.71875 1.09375,0.90625 0.625,0.25 1.3125,0.203125 1.953125,0.046875 0.0625,-0.015625 0.5625,-0.15625 0.578125,-0.21875 0,-0.03125 0,-0.046875 0,-0.078125 l 0,-1.921875 z m 0,0" id="path11537"/>
      </g>
      <g id="glyph0-15">
        <path d="m 0.734375,-4.828125 0,4.828125 3.59375,0 0,-0.4375 -3.0625,0 0,-1.859375 2.734375,0 0,-0.40625 -2.734375,0 0,-1.703125 2.9375,0 0,-0.421875 -3.46875,0 z m 0,0" id="path11540"/>
      </g>
      <g id="glyph0-16">
        <path d="m 0.28125,-4.8125 0,0.40625 2.140625,0 0,4.40625 0.53125,0 0,-4.40625 2.125,0 0,-0.40625 -4.796875,0 z m 0,0" id="path11543"/>
      </g>
      <g id="glyph0-17">
        <path d="M 1,-4.03125 C 0.265625,-3.125 0.234375,-1.75 0.96875,-0.84375 1.28125,-0.4375 1.703125,-0.140625 2.234375,0.015625 3.71875,0.421875 4.921875,-0.546875 5.25,-1.65625 5.53125,-2.578125 5.25,-3.640625 4.53125,-4.3125 4.171875,-4.640625 3.65625,-4.90625 3.046875,-4.9375 2.125,-5.015625 1.421875,-4.53125 1,-4.03125 z m 2.484375,-0.421875 c 0.484375,0.15625 0.875,0.484375 1.109375,0.921875 0.140625,0.265625 0.203125,0.5625 0.234375,0.859375 0.0625,0.828125 -0.28125,1.734375 -1.03125,2.140625 -0.375,0.203125 -0.828125,0.296875 -1.3125,0.1875 -0.328125,-0.078125 -0.625,-0.25 -0.84375,-0.453125 C 1.21875,-1.1875 1,-1.765625 0.96875,-2.328125 0.90625,-3.34375 1.421875,-4.109375 2.140625,-4.390625 2.5625,-4.5625 3.03125,-4.59375 3.484375,-4.453125 z m 0,0" id="path11546"/>
      </g>
      <g id="glyph0-18">
        <path d="M 0.734375,-4.84375 0.734375,0 1.25,0 l 0,-2.21875 1.03125,0 c 0.140625,0 0.265625,-0.015625 0.375,0.015625 0.125,0.171875 0.25,0.34375 0.375,0.53125 C 3.421875,-1.125 3.8125,-0.5625 4.21875,-0.015625 4.390625,0 4.578125,0 4.75,0 L 4.46875,-0.390625 3.125,-2.28125 C 3.25,-2.296875 3.390625,-2.328125 3.515625,-2.390625 4.015625,-2.5625 4.578125,-2.96875 4.53125,-3.5625 4.515625,-3.796875 4.453125,-3.9375 4.328125,-4.109375 4.015625,-4.515625 3.484375,-4.765625 2.875,-4.828125 2.625,-4.84375 2.390625,-4.84375 2.125,-4.84375 l -1.390625,0 z M 1.25,-2.609375 l 0,-1.8125 1.046875,0 c 0.34375,0 0.703125,0 1.046875,0.09375 C 3.671875,-4.203125 4,-3.96875 4.046875,-3.59375 4.0625,-3.359375 3.96875,-3.140625 3.8125,-2.984375 c -0.125,0.109375 -0.265625,0.1875 -0.421875,0.25 -0.34375,0.125 -0.703125,0.125 -1.0625,0.125 l -1.078125,0 z m 0,0" id="path11549"/>
      </g>
      <g id="glyph0-19">
        <path d="m 0.578125,-4.84375 0,4.84375 0.515625,0 0,-0.46875 0,0 c 0.0625,0.109375 0.171875,0.203125 0.265625,0.28125 0.3125,0.25 0.828125,0.328125 1.28125,0.109375 0.203125,-0.109375 0.375,-0.28125 0.515625,-0.46875 C 3.84375,-1.5 3.421875,-3.09375 2.453125,-3.3125 c -0.125,-0.046875 -0.28125,-0.046875 -0.421875,-0.015625 -0.40625,0.046875 -0.71875,0.25 -0.953125,0.5 l 0,-2.015625 -0.5,0 z M 1.8125,-2.953125 c 0.328125,-0.03125 0.703125,0.109375 0.921875,0.375 0.171875,0.21875 0.234375,0.5 0.234375,0.765625 0.03125,0.375 -0.015625,0.78125 -0.25,1.078125 -0.203125,0.265625 -0.53125,0.375 -0.84375,0.40625 -0.265625,0 -0.5,-0.09375 -0.671875,-0.3125 C 1.171875,-0.6875 1.125,-0.75 1.09375,-0.8125 c 0,-0.046875 0,-0.09375 0,-0.125 l 0,-1.390625 c 0,-0.0625 -0.015625,-0.140625 0.015625,-0.203125 0.03125,-0.078125 0.09375,-0.125 0.15625,-0.1875 0.15625,-0.125 0.34375,-0.21875 0.546875,-0.234375 z m 0,0" id="path11552"/>
      </g>
      <g id="glyph0-20">
        <path d="m 0.734375,-4.84375 0,4.84375 0.53125,0 0,-2.015625 1.03125,0 c 0.15625,0 0.328125,0 0.484375,0 0.765625,-0.0625 1.515625,-0.5 1.640625,-1.203125 C 4.5,-3.625 4.328125,-3.953125 4.140625,-4.1875 3.859375,-4.53125 3.421875,-4.765625 2.90625,-4.828125 2.65625,-4.84375 2.40625,-4.84375 2.171875,-4.84375 l -1.4375,0 z M 1.25,-2.421875 l 0,-2 1.046875,0 c 0.609375,0 1.171875,0.0625 1.46875,0.46875 0.234375,0.3125 0.234375,0.75 0,1.0625 C 3.6875,-2.78125 3.578125,-2.703125 3.46875,-2.625 3.109375,-2.421875 2.703125,-2.421875 2.328125,-2.421875 l -1.078125,0 z m 0,0" id="path11555"/>
      </g>
      <g id="glyph1-0"/>
      <g id="glyph1-1">
        <path d="M 1.78125,-4.84375 0.765625,0 1.109375,0 c 0.03125,0 0.109375,0.015625 0.125,-0.015625 0.03125,-0.03125 0.078125,-0.3125 0.078125,-0.3125 l 0.84375,-4 0.015625,0 c 0,0.125 0.15625,0.859375 0.21875,1.09375 0.140625,0.71875 0.5625,2.625 0.609375,2.875 L 3.046875,-0.1875 c 0,0.03125 0,0.0625 0.03125,0.078125 0.03125,0 0.078125,0 0.109375,0 l 0.203125,0 c 0.03125,0 0.09375,0 0.125,-0.015625 0.03125,-0.015625 0.03125,-0.046875 0.0625,-0.078125 L 3.671875,-0.375 c 0.484375,-0.734375 2.46875,-3.8125 2.53125,-3.953125 l 0.015625,0 L 5.296875,0 C 5.453125,0 5.625,0 5.765625,-0.015625 l 0.03125,-0.078125 c 0.328125,-1.59375 0.671875,-3.15625 1,-4.75 -0.21875,0.015625 -0.5,-0.015625 -0.703125,0.015625 C 6.015625,-4.71875 5.9375,-4.59375 5.875,-4.484375 L 3.390625,-0.625 2.71875,-3.6875 C 2.625,-4.0625 2.578125,-4.46875 2.453125,-4.828125 L 2.40625,-4.84375 l -0.625,0 z m 0,0" id="path11559"/>
      </g>
    </g>
    <clipPath id="clip1">
      <path d="m -212,667 612,0 0,-792 -612,0 0,792 z m 0,0" id="path11562"/>
    </clipPath>
    <clipPath id="clip2">
      <path d="m 18.925781,267.80078 167.999999,0 0,-267.999999 -167.999999,0 0,267.999999 z m 0,0" id="path11565"/>
    </clipPath>
    <clipPath id="clip3">
      <path d="m -46.074219,284.80078 260.613279,0 0,-290.999999 -260.613279,0 0,290.999999 z m 0,0" id="path11568"/>
    </clipPath>
    <clipPath id="clip7">
      <path d="m -46.074219,-6.199219 260.613279,0 0,290.999999 -260.613279,0 0,-290.999999 z m 0,0" id="path11571"/>
    </clipPath>
  </defs>
  <g transform="translate(-4.85525,-141.27616)" id="g12582">
    <path d="m 86.17187,266.5625 -37.238276,0 0,-64.27734 37.238276,0 0,64.27734 z m 0,0" id="path11652" style="fill:none;stroke:#231f20;stroke-width:0.75;stroke-linejoin:round"/>
    <path d="m 48.929687,266.5625 -9.578125,-9.58203 0,-64.27735 37.242188,0 9.578125,9.58204" id="path11654" style="fill:none;stroke:#231f20;stroke-width:0.75;stroke-linejoin:round"/>
    <path d="m 39.351562,192.70312 9.582032,9.58204" id="path11656" style="fill:none;stroke:#231f20;stroke-width:0.75"/>
    <path d="m 39.351562,192.70312 9.582032,9.58204 0,64.27734" id="path11658" style="fill:none;stroke:#231f20;stroke-width:0.40000001;stroke-linejoin:round"/>
    <path d="m 41.542969,192.70312 9.578125,9.58204 0,64.27734" id="path11660" style="fill:none;stroke:#231f20;stroke-width:0.40000001;stroke-linejoin:round"/>
    <path d="m 43.734375,192.70312 9.578125,9.58204 0,64.27734" id="path11662" style="fill:none;stroke:#231f20;stroke-width:0.40000001;stroke-linejoin:round"/>
    <path d="m 45.925781,192.70312 9.578125,9.58204 0,64.27734" id="path11664" style="fill:none;stroke:#231f20;stroke-width:0.40000001;stroke-linejoin:round"/>
    <path d="m 48.113281,192.70312 9.578125,9.58204 0,64.27734" id="path11666" style="fill:none;stroke:#231f20;stroke-width:0.40000001;stroke-linejoin:round"/>
    <path d="m 50.304687,192.70312 9.582032,9.58204 0,64.27734" id="path11668" style="fill:none;stroke:#231f20;stroke-width:0.40000001;stroke-linejoin:round"/>
    <path d="m 52.496094,192.70312 9.578125,9.58204 0,64.27734" id="path11670" style="fill:none;stroke:#231f20;stroke-width:0.40000001;stroke-linejoin:round"/>
    <path d="m 54.6875,192.70312 9.578125,9.58204 0,64.27734" id="path11672" style="fill:none;stroke:#231f20;stroke-width:0.40000001;stroke-linejoin:round"/>
    <path d="m 56.878906,192.70312 9.578125,9.58204 0,64.27734" id="path11674" style="fill:none;stroke:#231f20;stroke-width:0.40000001;stroke-linejoin:round"/>
    <path d="m 59.070312,192.70312 9.578125,9.58204 0,64.27734" id="path11676" style="fill:none;stroke:#231f20;stroke-width:0.40000001;stroke-linejoin:round"/>
    <path d="m 61.257812,192.70312 9.582032,9.58204 0,64.27734" id="path11678" style="fill:none;stroke:#231f20;stroke-width:0.40000001;stroke-linejoin:round"/>
    <path d="m 63.449219,192.70312 9.582031,9.58204 0,64.27734" id="path11680" style="fill:none;stroke:#231f20;stroke-width:0.40000001;stroke-linejoin:round"/>
    <path d="m 65.640625,192.70312 9.582031,9.58204 0,64.27734" id="path11682" style="fill:none;stroke:#231f20;stroke-width:0.40000001;stroke-linejoin:round"/>
    <path d="m 67.828125,192.70312 9.582031,9.58204 0,64.27734" id="path11684" style="fill:none;stroke:#231f20;stroke-width:0.40000001;stroke-linejoin:round"/>
    <path d="m 70.019531,192.70312 9.582031,9.58204 0,64.27734" id="path11686" style="fill:none;stroke:#231f20;stroke-width:0.40000001;stroke-linejoin:round"/>
    <path d="m 72.210937,192.70312 9.582032,9.58204 0,64.27734" id="path11688" style="fill:none;stroke:#231f20;stroke-width:0.40000001;stroke-linejoin:round"/>
    <path d="m 74.402344,192.70312 9.578125,9.58204 0,64.27734" id="path11690" style="fill:none;stroke:#231f20;stroke-width:0.40000001;stroke-linejoin:round"/>
    <path d="m 76.59375,192.70312 9.578125,9.58204 0,64.27734" id="path11692" style="fill:none;stroke:#231f20;stroke-width:0.40000001;stroke-linejoin:round"/>
    <path d="m 86.171875,217.1875 c 0,0 5.214844,3.29297 0,5.91016 -5.234375,2.6289 -35.003906,0.26953 -46.820312,-4.83594 0,0 -8.058594,-2.01172 -12.890625,1.07422" id="path11694" style="fill:none;stroke:#231f20;stroke-width:0.5;stroke-linejoin:round"/>
    <path d="m 39.351562,223.5 c 0,0 -3.625,2.01562 1.34375,5.10156 4.234375,2.63281 10.542969,3.0586 15.335938,3.7461 7.519531,1.07421 15.179687,1.71484 22.78125,1.48437 2.40625,-0.0742 12.5625,-0.52734 7.726562,-5.36328" id="path11696" style="fill:none;stroke:#231f20;stroke-width:0.5;stroke-linejoin:round"/>
    <path d="m 39.351562,232.56641 c 0,0 -3.625,2.01171 1.34375,5.10156 4.234375,2.6289 10.542969,3.05859 15.335938,3.74219 7.519531,1.07812 15.179687,1.71484 22.78125,1.48437 2.40625,-0.0703 12.5625,-0.52344 7.726562,-5.35937" id="path11698" style="fill:none;stroke:#231f20;stroke-width:0.5;stroke-linejoin:round"/>
    <path d="m 39.351562,244.15234 c 0,0 -3.625,2.01563 1.34375,5.10157 4.234375,2.63281 10.542969,3.05859 15.335938,3.74218 7.519531,1.07813 15.179687,1.71875 22.78125,1.48828 2.40625,-0.0742 12.5625,-0.52734 7.726562,-5.36328" id="path11700" style="fill:none;stroke:#231f20;stroke-width:0.5;stroke-linejoin:round"/>
    <path d="m 24.847656,245.12109 c 0,0 6.042969,6.9375 14.503906,9.39844" id="path11702" style="fill:none;stroke:#231f20;stroke-width:0.5;stroke-linejoin:round"/>
    <path d="m 89.027344,198.64453 -47.359375,0 0.0078,1.35156 47.355469,0 -0.0039,-1.35156 z m 0,0" id="path11704" style="fill:#ffffff;stroke:#231f20;stroke-width:0.5;stroke-linejoin:round"/>
    <path d="m 32.714844,189.06641 8.953125,9.57812 0,1.35156 -8.953125,-9.57812 0,-1.35156 z m 0,0" id="path11706" style="fill:#ffffff;stroke:#231f20;stroke-width:0.5;stroke-linejoin:round"/>
    <path d="m 39.332031,192.70312 5.9375,5.94141" id="path11708" style="fill:none;stroke:#231f20;stroke-width:0.38;stroke-dasharray:2, 1"/>
    <path d="m 19.714844,169.92969 c 0,0 9.894531,13.6289 17.722656,17.83593" id="path11710" style="fill:none;stroke:#231f20;stroke-width:0.38;stroke-linejoin:round"/>
    <path d="m 36.488281,188.25391 3.34375,0.78906 -2.503906,-2.35547 -0.839844,1.56641" id="path11712" style="fill:#231f20"/>
    <path d="m 89.027344,198.64453 -47.359375,0 -8.953125,-9.57812 47.359375,0 8.953125,9.57812 z m 0,0" id="path11714" style="fill:#ffffff;stroke:#231f20;stroke-width:0.5;stroke-linejoin:round"/>
    <path d="m 39.332031,196.14062 0,-3.4375 37.242188,0 5.9375,5.94141" id="path11716" style="fill:none;stroke:#231f20;stroke-width:0.38;stroke-linejoin:round;stroke-dasharray:2, 1"/>
    <path d="m 51.515625,179.93359 0,2.01172 c 0,8.45313 30.140625,15.3086 67.324215,15.3086 37.17969,0 67.32032,-6.85547 67.32032,-15.3086 l 0,-2.01172" id="path11718" style="fill:#ffffff;stroke:#231f20;stroke-width:0.75"/>
    <path d="m 121.13281,197.23437 0,10.72266 -2.32422,5.55078 -2.14843,-5.55078 0,-10.70312" id="path11720" style="fill:none;stroke:#231f20;stroke-width:0.75;stroke-linejoin:round"/>
    <path d="m 113.4375,219.16406 0,-9.48828 5.37109,4.29297 5.55079,-4.29297 0,9.48828" id="path11722" style="fill:none;stroke:#231f20;stroke-width:0.75;stroke-linejoin:round"/>
    <path d="m 121.66797,164.64453 c 35.51953,0.42578 64.49219,7.10938 64.49219,15.28906 0,8.45313 -30.13672,15.3086 -67.32032,15.3086 -37.18359,0 -67.324215,-6.85547 -67.324215,-15.3086 0,-8.45703 28.070313,-15.30859 65.253905,-15.30859" id="path11724" style="fill:#ffffff;stroke:#231f20;stroke-width:0.75"/>
    <path d="m 121.13281,152.44922 0,22.02344 c 0,0.88671 -0.72265,1.61328 -1.60937,1.61328 l -1.25,0 c -0.89063,0 -1.61328,-0.72657 -1.61328,-1.61328 l 0,-22.02344 2.32812,-5.55078 2.14453,5.55078 z m 0,0" id="path11726" style="fill:none;stroke:#231f20;stroke-width:0.75;stroke-linejoin:round"/>
    <path d="m 124.35938,141.24219 0,9.48828 -5.375,-4.29688 -5.54688,4.29688 0,-9.48828" id="path11728" style="fill:none;stroke:#231f20;stroke-width:0.75;stroke-linejoin:round"/>
    <path d="m 175.91016,194.27344 c -2.45704,0.97265 -5.71875,2.01953 -9.71485,2.75781" id="path11730" style="fill:none;stroke:#231f20;stroke-width:0.38;stroke-linejoin:round"/>
    <path d="m 166.63281,196.05859 -3.10156,1.48047 3.42578,0.26953 -0.32031,-1.75" id="path11732" style="fill:#231f20"/>
    <use transform="translate(162.248,248.666)" id="use11836" x="0" y="0" width="187" height="267" xlink:href="#glyph0-1"/>
    <use transform="translate(165.26487,248.666)" id="use11838" x="0" y="0" width="187" height="267" xlink:href="#glyph0-19"/>
    <use transform="translate(169.09069,248.666)" id="use11840" x="0" y="0" width="187" height="267" xlink:href="#glyph0-3"/>
    <use transform="translate(4.574,230.12)" id="use11844" x="0" y="0" width="187" height="267" xlink:href="#glyph0-16"/>
    <use transform="translate(9.944523,230.12)" id="use11846" x="0" y="0" width="187" height="267" xlink:href="#glyph0-17"/>
    <use transform="translate(18.201503,230.12)" id="use11850" x="0" y="0" width="187" height="267" xlink:href="#glyph0-4"/>
    <use transform="translate(23.22334,230.12)" id="use11852" x="0" y="0" width="187" height="267" xlink:href="#glyph0-13"/>
    <use transform="translate(25.37824,230.12)" id="use11854" x="0" y="0" width="187" height="267" xlink:href="#glyph0-12"/>
    <use transform="translate(30.335217,230.12)" id="use11856" x="0" y="0" width="187" height="267" xlink:href="#glyph0-13"/>
    <use transform="translate(4.574,238.09)" id="use11860" x="0" y="0" width="187" height="267" xlink:href="#glyph0-11"/>
    <use transform="translate(8.884506,238.09)" id="use11862" x="0" y="0" width="187" height="267" xlink:href="#glyph0-17"/>
    <use transform="translate(14.686707,238.09)" id="use11864" x="0" y="0" width="187" height="267" xlink:href="#glyph0-6"/>
    <use transform="translate(19.825003,238.09)" id="use11866" x="0" y="0" width="187" height="267" xlink:href="#glyph0-18"/>
    <use transform="translate(24.805691,238.09)" id="use11868" x="0" y="0" width="187" height="267" xlink:href="#glyph0-12"/>
    <use transform="translate(29.762668,238.09)" id="use11870" x="0" y="0" width="187" height="267" xlink:href="#glyph0-15"/>
    <use transform="translate(5.924,160.619)" id="use11874" x="0" y="0" width="187" height="267" xlink:href="#glyph0-4"/>
    <use transform="translate(10.945833,160.619)" id="use11876" x="0" y="0" width="187" height="267" xlink:href="#glyph0-5"/>
    <use transform="translate(15.16428,160.619)" id="use11878" x="0" y="0" width="187" height="267" xlink:href="#glyph0-6"/>
    <use transform="translate(20.302581,160.619)" id="use11880" x="0" y="0" width="187" height="267" xlink:href="#glyph0-7"/>
    <use transform="translate(26.850282,160.619)" id="use11882" x="0" y="0" width="187" height="267" xlink:href="#glyph0-8"/>
    <use transform="translate(28.855249,160.619)" id="use11884" x="0" y="0" width="187" height="267" xlink:href="#glyph0-9"/>
    <use transform="translate(34.11001,160.619)" id="use11886" x="0" y="0" width="187" height="267" xlink:href="#glyph0-8"/>
    <use transform="translate(36.11498,160.619)" id="use11888" x="0" y="0" width="187" height="267" xlink:href="#glyph0-6"/>
    <use transform="translate(41.25327,160.619)" id="use11890" x="0" y="0" width="187" height="267" xlink:href="#glyph0-7"/>
    <use transform="translate(5.924,168.589)" id="use11894" x="0" y="0" width="187" height="267" xlink:href="#glyph0-20"/>
    <use transform="translate(10.80566,168.589)" id="use11896" x="0" y="0" width="187" height="267" xlink:href="#glyph0-5"/>
    <use transform="translate(15.02411,168.589)" id="use11898" x="0" y="0" width="187" height="267" xlink:href="#glyph0-4"/>
    <use transform="translate(19.397382,168.589)" id="use11902" x="0" y="0" width="187" height="267" xlink:href="#glyph0-16"/>
    <use transform="translate(24.767905,168.589)" id="use11904" x="0" y="0" width="187" height="267" xlink:href="#glyph0-15"/>
  </g>
</svg>
