<?xml version="1.0" encoding="UTF-8" standalone="no"?>
<svg xmlns="http://www.w3.org/2000/svg" xmlns:xlink="http://www.w3.org/1999/xlink" version="1.1" width="230.0pt" height="325.3pt" viewBox="0.0 0.0 132.77723 187.80114">
 <metadata id="metadata61511"/>
 <defs id="defs61160">
  <g id="g61162">
   <g id="glyph0-0">
   </g>
   <g id="glyph0-1">
    <path d="M 2.578125,1.546875 C 2.546875,1.5 2.5,1.46875 2.453125,1.4375 1.6875,0.75 1.21875,-0.3125 1.171875,-1.59375 c -0.03125,-0.875 0.125,-1.78125 0.53125,-2.5625 0.203125,-0.375 0.4375,-0.6875 0.75,-0.953125 C 2.5,-5.15625 2.546875,-5.1875 2.578125,-5.21875 l -0.25,0 c -0.15625,0 -0.140625,0 -0.25,0.078125 -0.359375,0.28125 -0.65625,0.65625 -0.890625,1.078125 -0.65625,1.234375 -0.703125,2.90625 -0.09375,4.25 0.21875,0.5 0.5625,0.921875 0.984375,1.28125 0.09375,0.0625 0.09375,0.078125 0.25,0.078125 l 0.25,0 z m 0,0" id="path61168"/>
   </g>
   <g id="glyph0-2">
    <path d="m 0.640625,-2.640625 c 0.125,-0.0625 0.21875,-0.140625 0.34375,-0.203125 C 1.203125,-2.9375 1.4375,-2.984375 1.6875,-3 1.75,-3.015625 1.828125,-3.015625 1.90625,-3.015625 c 0.28125,0.046875 0.515625,0.234375 0.59375,0.5 0.078125,0.203125 0.046875,0.453125 0.046875,0.65625 -0.359375,0 -0.734375,0.03125 -1.09375,0.125 -0.5,0.125 -1.125,0.375 -1.0625,1.015625 0.046875,0.28125 0.203125,0.5625 0.46875,0.703125 C 1.03125,0.0625 1.234375,0.0625 1.4375,0.046875 1.734375,0.015625 2.0625,-0.0625 2.3125,-0.25 c 0.09375,-0.0625 0.171875,-0.140625 0.25,-0.21875 l 0,0.46875 0.484375,0 0,-1.828125 c 0,-0.1875 0.03125,-0.390625 -0.015625,-0.59375 -0.0625,-0.484375 -0.5,-0.84375 -0.953125,-0.9375 -0.28125,-0.046875 -0.71875,0.015625 -0.953125,0.0625 -0.078125,0.03125 -0.46875,0.15625 -0.5,0.21875 -0.03125,0.03125 -0.015625,0.09375 -0.015625,0.125 0.015625,0.109375 0.03125,0.203125 0.03125,0.3125 z m 1.90625,1.015625 0,0.515625 c 0,0.140625 0,0.265625 -0.0625,0.390625 -0.078125,0.140625 -0.21875,0.25 -0.375,0.296875 -0.328125,0.125 -0.78125,0.140625 -1.0625,-0.09375 C 0.96875,-0.5625 0.90625,-0.640625 0.890625,-0.75 0.8125,-1.046875 1.078125,-1.28125 1.3125,-1.390625 1.640625,-1.546875 2.109375,-1.625 2.546875,-1.625 z m 0,0" id="path61171"/>
   </g>
   <g id="glyph0-3">
    <path d="m 0.4375,-5.21875 c 0.03125,0.03125 0.078125,0.0625 0.125,0.109375 0.859375,0.765625 1.328125,2 1.265625,3.515625 -0.015625,0.75 -0.203125,1.5 -0.5625,2.15625 C 1.078125,0.890625 0.84375,1.1875 0.5625,1.4375 0.515625,1.46875 0.46875,1.5 0.4375,1.546875 l 0.25,0 c 0.15625,0 0.140625,0 0.234375,-0.078125 0.375,-0.296875 0.671875,-0.671875 0.890625,-1.078125 0.671875,-1.25 0.71875,-2.90625 0.109375,-4.25 C 1.6875,-4.375 1.359375,-4.796875 0.9375,-5.140625 0.84375,-5.21875 0.84375,-5.21875 0.6875,-5.21875 l -0.25,0 z m 0,0" id="path61174"/>
   </g>
   <g id="glyph0-4">
    <path d="m 0.578125,-4.84375 0,4.84375 0.515625,0 0,-0.46875 0,0 c 0.0625,0.109375 0.171875,0.203125 0.265625,0.28125 0.3125,0.25 0.828125,0.328125 1.28125,0.109375 0.203125,-0.109375 0.375,-0.28125 0.515625,-0.46875 C 3.84375,-1.5 3.421875,-3.09375 2.453125,-3.3125 c -0.125,-0.046875 -0.28125,-0.046875 -0.421875,-0.015625 -0.40625,0.046875 -0.71875,0.25 -0.953125,0.5 l 0,-2.015625 -0.5,0 z M 1.8125,-2.953125 c 0.328125,-0.03125 0.703125,0.109375 0.921875,0.375 0.171875,0.21875 0.234375,0.5 0.234375,0.765625 0.03125,0.375 -0.015625,0.78125 -0.25,1.078125 -0.203125,0.265625 -0.53125,0.375 -0.84375,0.40625 -0.265625,0 -0.5,-0.09375 -0.671875,-0.3125 C 1.171875,-0.6875 1.125,-0.75 1.09375,-0.8125 c 0,-0.046875 0,-0.09375 0,-0.125 l 0,-1.390625 c 0,-0.0625 -0.015625,-0.140625 0.015625,-0.203125 0.03125,-0.078125 0.09375,-0.125 0.15625,-0.1875 0.15625,-0.125 0.34375,-0.21875 0.546875,-0.234375 z m 0,0" id="path61177"/>
   </g>
   <g id="glyph0-5">
    <path d="M 3.1875,-0.796875 C 3.125,-0.765625 3.078125,-0.71875 3.03125,-0.6875 2.9375,-0.625 2.84375,-0.5625 2.734375,-0.515625 2.3125,-0.3125 1.671875,-0.265625 1.296875,-0.5625 1.03125,-0.75 0.859375,-1.109375 0.84375,-1.5 0.8125,-1.953125 0.921875,-2.453125 1.296875,-2.75 1.5,-2.90625 1.765625,-3 2.140625,-2.96875 2.46875,-2.9375 2.65625,-2.890625 2.921875,-2.75 c 0.0625,0.03125 0.109375,0.078125 0.171875,0.09375 L 3.171875,-3.078125 C 3.015625,-3.15625 2.875,-3.234375 2.703125,-3.28125 c -0.40625,-0.140625 -1.03125,-0.125 -1.390625,0.046875 -0.34375,0.15625 -0.625,0.4375 -0.796875,0.765625 -0.25,0.5 -0.25,1.109375 0,1.625 0.09375,0.1875 0.21875,0.359375 0.390625,0.5 0.46875,0.4375 1.1875,0.484375 1.78125,0.28125 0.140625,-0.0625 0.265625,-0.125 0.390625,-0.203125 0.046875,-0.03125 0.109375,-0.0625 0.125,-0.09375 C 3.21875,-0.40625 3.1875,-0.796875 3.1875,-0.796875 z m 0,0" id="path61180"/>
   </g>
   <g id="glyph1-0">
   </g>
   <g id="glyph1-1">
    <path d="M 1.671875,-4.84375 0.640625,0 l 1.6875,0 c 0.203125,0 0.421875,0 0.625,0 0.65625,-0.0625 1.234375,-0.296875 1.5625,-0.75 0.265625,-0.375 0.4375,-0.984375 0.09375,-1.375 -0.203125,-0.25 -0.5,-0.34375 -0.84375,-0.40625 C 3.875,-2.5625 3.96875,-2.578125 4.0625,-2.609375 4.328125,-2.703125 4.578125,-2.828125 4.765625,-3.03125 5.09375,-3.390625 5.21875,-3.984375 4.90625,-4.375 4.8125,-4.5 4.671875,-4.59375 4.53125,-4.65625 c -0.375,-0.1875 -0.8125,-0.1875 -1.234375,-0.1875 l -1.625,0 z m 0.359375,2.109375 0.328125,-1.578125 0.671875,0 c 0.453125,0 0.90625,0 1.125,0.265625 0.296875,0.296875 0.0625,0.78125 -0.21875,1 -0.34375,0.296875 -0.828125,0.3125 -1.25,0.3125 l -0.65625,0 z M 1.5625,-0.515625 C 1.578125,-0.65625 1.90625,-2.15625 1.90625,-2.15625 1.921875,-2.21875 1.921875,-2.296875 2,-2.296875 l 0.953125,0 c 0.375,0.015625 0.859375,0.09375 1,0.484375 0.15625,0.34375 -0.015625,0.75 -0.25,0.96875 C 3.578125,-0.75 3.4375,-0.671875 3.28125,-0.625 3,-0.515625 2.703125,-0.515625 2.40625,-0.515625 l -0.84375,0 z m 0,0" id="path61186"/>
   </g>
  </g>
  <clipPath id="clip1">
   <path d="m -138,667 612,0 0,-792 -612,0 0,792 z m 0,0" id="path61189"/>
  </clipPath>
  <clipPath id="clip2">
   <path d="m -0.875,307.80078 337,0 0,-307.999999 -337,0 0,307.999999 z m 0,0" id="path61192"/>
  </clipPath>
  <clipPath id="clip3">
   <path d="m 0.125,307.80078 335.32812,0 0,-307.816405 -335.32812,0 0,307.816405 z m 0,0" id="path61195"/>
  </clipPath>
 </defs>
 <g transform="translate(-203.65835,-0.21875)" id="g62154">
  <path d="m 206.99219,42.320313 -1.66407,-6.226563 -1.67187,6.226563 3.33594,0" id="path61311"/>
  <path d="m 208.29297,145.78516 -1.66797,-6.22657 -1.66797,6.22657 3.33594,0" id="path61313"/>
  <path d="m 333.67187,40.679688 -1.66796,-6.226563 -1.67188,6.226563 3.33984,0" id="path61315"/>
  <path d="m 321.75,131.95312 -1.66797,-6.22656 -1.67187,6.22656 3.33984,0" id="path61317"/>
  <path d="m 335.21094,143.82812 -1.66407,-6.23046 -1.67187,6.23046 3.33594,0" id="path61319"/>
  <path d="m 319.62109,20.09375 -1.66406,-6.226562 -1.67187,6.226562 3.33593,0" id="path61321"/>
  <path d="m 309.28125,150.31641 -1.66406,-6.22657 -1.67188,6.22657 3.33594,0" id="path61323"/>
  <path d="m 307.92187,47.050781 -1.89062,-6.164062 -1.44531,6.28125 3.33593,-0.117188" id="path61325"/>
  <path d="m 221.83594,151.89844 -1.66797,-6.22657 -1.66797,6.22657 3.33594,0" id="path61327"/>
  <path d="m 233.48828,133.13281 -1.66797,-6.22656 -1.66797,6.22656 3.33594,0" id="path61329"/>
  <path d="m 220.33984,48.644531 -1.66406,-6.226562 -1.67187,6.226562 3.33593,0" id="path61331"/>
  <path d="m 231.81641,113.91797 0,27.66797" id="path61333" fill="none" stroke="#000000" stroke-width="0.5"/>
  <path d="m 272.24219,144.85937 -1.66797,-6.22656 -1.66797,6.22656 3.33594,0" id="path61335"/>
  <path d="m 298.80469,132.24219 -0.73438,-6.40235 -2.5664,5.91407 3.30078,0.48828" id="path61337"/>
  <path d="m 257.49609,126.79687 0,15.89063" id="path61339" fill="none" stroke="#000000" stroke-width="0.5"/>
  <path d="m 259.13281,132.79687 -1.66406,-6.22656 -1.67188,6.22656 3.33594,0" id="path61341"/>
  <path d="m 246.44141,152.98437 -2.11719,-6.08984 -1.21094,6.33203 3.32813,-0.24219" id="path61343"/>
  <path d="m 284.06641,152.04297 -1.66797,-6.22656 -1.66797,6.22656 3.33594,0" id="path61345"/>
  <path d="m 232.60156,21.292969 -1.79687,-6.191406 -1.53907,6.261718 3.33594,-0.07031" id="path61347"/>
  <path d="m 260.21094,18.390625 -1.67188,-6.226562 -1.66797,6.226562 3.33594,0" id="path61349"/>
  <path d="m 242.10937,48.84375 -0.89843,-6.382812 -2.41797,5.972656 3.3164,0.410156" id="path61351"/>
  <path d="m 272.39453,40.601563 -1.66797,-6.226563 -1.66797,6.226563 3.33594,0" id="path61353"/>
  <path d="m 283.14844,45.628906 -1.66797,-6.226562 -1.67188,6.226562 3.33985,0" id="path61355"/>
  <path d="m 294.96484,18.300781 -1.8164,-6.183593 -1.51953,6.265625 3.33593,-0.08203" id="path61357"/>
  <path d="m 253.73047,63.72656 -21.92969,10.1836 m 19.87891,-14.46094 -20.41016,9.59375 m 18.36328,-13.875 -16.5664,7.79687 m 40.53906,-8.58593 -19.875,9.34765 m 17.82812,-13.6289 -19.8789,9.35156 m 10.92187,-10.38281 -12.96875,6.10156 m 34.08594,-5.54688 -10.11328,4.75782 m 0.99609,-5.71094 -3.04687,1.42969 m -11.67578,26.46875 -17.54297,8.2539 m 15.49218,-12.53125 -20.2539,9.73047 M 255.78125,68.00781 233.875,78.25391 m 45.87891,-11.03516 -19.875,9.34766 m 17.82812,-13.62891 -19.87891,9.35156 m 17.82813,-13.63281 -19.875,9.35156 m 46.89062,-11.53125 -22.91796,10.74219 m 17.82812,-13.63281 -19.875,9.35156 m 13.49609,-11.59375 -15.54687,7.3125 m -11.67969,26.47266 -7.39453,3.48046 m 5.34375,-7.76171 -13.22266,6.22265 m 37.19922,-7.01172 -19.875,9.35157 m 17.82813,-13.63282 -19.87891,9.35157 m 17.82813,-13.63282 -19.875,9.35157 m 49.17187,-12.14454 -25.19922,11.35547 m 23.70313,-16.59375 -25.75391,12.3125 m 22.78906,-16.14843 -24.83593,11.86718 m 28.18359,2.375 -32.5,15.36328" id="path61359" fill="none" stroke="#000000" stroke-width="0.4"/>
  <path d="m 300.75781,67.53125 c 0.17188,7.992188 -12.8125,14.765625 -29.0039,15.121094 -16.19141,0.359375 -29.46094,-5.832031 -29.64063,-13.824219 -0.17187,-7.996094 12.80859,-14.765625 29,-15.125 16.19531,-0.355469 29.46484,5.835938 29.64453,13.828125" id="path61361" fill="#ffffff"/>
  <path d="m 300.75781,67.53125 c 0.17188,7.99219 -12.8125,14.76562 -29.0039,15.12109 -16.19141,0.35938 -29.46094,-5.83203 -29.64063,-13.82422 -0.17187,-7.99609 12.80859,-14.76562 29,-15.125 16.19531,-0.35546 29.46484,5.83594 29.64453,13.82813 l 0,0 z m 0,0" id="path61363" fill="none" stroke="#000000" stroke-width="0.5"/>
  <path d="m 310.75,71.60156 -0.004,33.91016 c -4.3789,10.47265 -20.59375,18.21484 -39.89453,18.16406 -18.89844,-0.0469 -34.77344,-7.55078 -39.49219,-17.71484 l 0.10938,-33.5586" id="path61365" fill="none" stroke="#000000" stroke-width="0.5"/>
  <path d="m 311.10937,69.04297 c 0,11.29297 -17.87109,20.44531 -39.91796,20.44531 -41.00391,0 -39.92188,-17.01172 -39.92188,-20.44531 0,-11.29688 17.875,-20.45313 39.92188,-20.45313 22.04687,0 39.91796,9.15625 39.91796,20.45313 l 0,0 z m 0,0" id="path61367" fill="none" stroke="#000000" stroke-width="0.5"/>
  <path d="m 253.22656,57.22266 0,22.55468 m 1.33985,-23.16797 0,23.58985 m 1.5664,-24.00391 0,24.5586 m 1.85156,-25.10157 0,25.51953 m 1.99219,-26.21093 0,26.5664 m 2.61719,-27.03906 0,27.47266 m 3.46094,-27.87891 0,28.33984" id="path61369" fill="none" stroke="#000000" stroke-width="0.25"/>
  <path d="m 251.67969,58.07812 0,20.98047" id="path61371" fill="none" stroke="#000000" stroke-width="0.55"/>
  <path d="m 250.35547,58.5625 0,19.79687" id="path61373" fill="none" stroke="#000000" stroke-width="0.65"/>
  <path d="m 249.30469,59.18359 0,18.77344" id="path61375" fill="none" stroke="#000000" stroke-width="0.25"/>
  <path d="m 245.39844,62.02734 0.0156,13.07813 m 2.83203,-15.27735 0,17.5" id="path61377" fill="none" stroke="#000000" stroke-width="0.75"/>
  <path d="m 293.96484,58.63672 0,18.42187 m -2.63281,-19.76172 0,18.11719 m -3.26172,-19.45703 0,15.73828 m -44.86328,-7.02344 0,7.79688 m 1.23438,-9.59375 0,11.27344" id="path61379" fill="none" stroke="#000000" stroke-width="0.25"/>
  <path d="m 298.39062,62.14062 -0.0703,11.1836 m -1.24219,-12.50391 0,14.03516 0,-14.03516 z m -1.28125,-1.14844 0,16.04688" id="path61381" fill="none" stroke="#000000" stroke-width="0.75"/>
  <path d="m 309.28125,75.17578 -0.0508,32.90234 m -2.66797,-29.59375 0,32.94141 m -3.52734,-30.125 0.0703,33.28516 m -3.7461,-30.94532 0.0117,33.4375 m -5.3125,-31.23828 0,33.62891 m -6.90625,-31.51953 -0.0351,33.72265 m -53.96094,-44.41796 0,31.875 m 1.93359,-29.32032 0,31.28516 m 2.90235,-28.79688 -0.0625,31.64454 m 3.98437,-29.46485 0,31.88281 m 3.41406,-30.40625 0,32.19922 m 54.23438,-54.30468 -0.0937,8.13671" id="path61383" fill="none" stroke="#000000" stroke-width="0.25"/>
  <path d="m 281.48047,21.33984 0,58.57032" id="path61385" fill="none" stroke="#000000" stroke-width="0.5"/>
  <path d="m 270.73047,10.710937 0,69.218753" id="path61387" fill="none" stroke="#000000" stroke-width="0.5"/>
  <path d="m 205.26953,15.554687 0,17.664063 c 0,8.5 1.19531,17.05469 0.30469,25.55469 -0.88672,8.43359 -1.65625,16.72656 -1.56641,25.21875 0.0547,4.94531 0.28906,9.88672 0.63672,14.8164 0.29688,4.19141 0.71094,8.375 1.34375,12.53125" id="path61389" fill="none" stroke="#000000" stroke-width="0.5"/>
  <path d="m 206.625,124.55078 0,37.05078" id="path61391" fill="none" stroke="#000000" stroke-width="0.5"/>
  <path d="m 218.625,28.76562 0,17.375 c 0.24219,6.70313 -1.3125,13.16016 -1.84375,19.79297 -0.48047,5.97266 -0.79297,11.97266 -0.80469,17.96485 -0.0234,13.52343 2.46485,26.73437 3.38672,40.17578 0.27344,3.99609 0.50391,7.99219 0.64063,11.99219 0.38671,11.2539 0.0586,22.5625 0.0586,33.82031 0,1.30859 0,2.61328 0,3.92187" id="path61393" fill="none" stroke="#000000" stroke-width="0.5"/>
  <path d="m 230.6875,1.863281 c 0.0625,7.738281 0.12891,15.480469 0.26172,23.218749 0.20703,12.33203 0.375,24.64063 -1.21875,36.90625" id="path61395" fill="none" stroke="#000000" stroke-width="0.5"/>
  <path d="m 243.51562,12.585937 c 0.0703,3.304688 0.0391,6.617183 -0.0664,9.917973 -0.375,12.03906 -3.40625,23.82812 -3.95313,35.84375 0,0 -2.67968,38.29687 1.14844,58.97656 0,0 6.51172,46.52734 5.16797,55.52734" id="path61397" fill="none" stroke="#000000" stroke-width="0.5"/>
  <path d="m 270.48828,126.70703 c 0,0.10156 0,0.20703 0,0.30859 0.0273,4.94922 0.0586,9.90235 0.0859,14.84766 0.0351,5.87109 0.48437,11.96094 0.48437,17.73047" id="path61399" fill="none" stroke="#000000" stroke-width="0.5"/>
  <path d="m 280.66406,125.70312 c 0.4375,5.21875 1.22656,10.39844 1.59375,15.625 0.41797,5.96094 0.0508,10.9375 0.1211,16.41407 0.0508,3.88672 0.0234,7.78515 0.0195,11.67578 0,1.07812 -0.0352,2.16406 -0.0117,3.24219" id="path61401" fill="none" stroke="#000000" stroke-width="0.5"/>
  <path d="m 299.33203,118.95312 c 0,0 -2.01172,9.85938 -3.35156,22.11329" id="path61403" fill="none" stroke="#000000" stroke-width="0.5"/>
  <path d="m 258.55859,1.097656 0,14.839844 c 0,9.64453 1.97657,19.24609 2.24219,28.87891 0.11719,4.09765 0.17188,8.19921 0.21094,12.30468 l 0,22.40235" id="path61405" fill="none" stroke="#000000" stroke-width="0.5"/>
  <path d="m 293.01562,0.476562 c 0,0 -0.57421,15.363282 2.01172,30.874998 0,0 4.16407,18.37891 4.16407,20.53516" id="path61407" fill="none" stroke="#000000" stroke-width="0.5"/>
  <path d="m 305.74609,28.57422 c 0,0 0.0977,17.13672 0.96094,22.30859 0,0 1.72266,14.07422 2.10547,20.10156 0.0508,3.79297 0.0937,7.58204 0.125,11.3711 0.0586,6.95703 0.11328,13.91797 0.0625,20.875 -0.0273,3.80078 -0.0547,7.47265 -0.50391,11.24609 -0.47656,3.98828 -0.80468,7.9961 -0.96484,12.00781 -0.12109,3.03907 -0.15625,6.08594 -0.0625,9.125 l 0.28906,18.85938 c 0,0 0.47656,15.70312 0.28516,18.38281" id="path61409" fill="none" stroke="#000000" stroke-width="0.5"/>
  <path d="m 317.62109,0.234375 c 0,0 0.57422,23.554685 0.57422,24.128905 0,0.57422 0.0937,10.91406 1.53125,22.49609 0,0 2.10547,15.89454 2.29688,30.0625 0,0 0.38281,12.34766 -0.67188,22.01954 -0.62109,4.02343 -1.16797,8.10156 -1.375,12.16796 -0.23828,4.78516 0.0859,9.69922 0.13672,14.48829 0.0586,5.47656 0.10547,10.94921 0.15234,16.42578 0.0117,1.24609 0.0234,2.48828 0.0352,3.73437" id="path61411" fill="none" stroke="#000000" stroke-width="0.5"/>
  <path d="m 331.40625,13.925781 c 0,0 0.95703,25.277339 0.57422,28.148439 0.39844,9.80469 1.36719,19.51953 2.125,29.26562 0.27344,3.48047 0.5039,6.96485 0.68359,10.44922 0.20703,4.08203 0.42188,8.16406 0.41406,12.25 -0.004,3.67578 -0.21093,7.34766 -0.54296,11.03906 -0.34375,3.8086 -0.75391,7.61329 -1.04297,11.42579 -0.16407,2.15234 -0.29297,4.30859 -0.34766,6.46875 -0.10937,4.43359 -0.0859,8.8789 0.24219,13.30468 l 0.57422,21.64063" id="path61413" fill="none" stroke="#000000" stroke-width="0.5"/>
  <use id="use61487" width="336" height="321" xlink:href="#glyph0-1" transform="translate(265.186,185.47301)"/>
  <use id="use61489" width="336" height="321" xlink:href="#glyph0-4" transform="translate(268.20288,185.47301)"/>
  <use id="use61491" width="336" height="321" xlink:href="#glyph0-3" transform="translate(272.02869,185.47301)"/>
  <use id="use61495" width="336" height="321" xlink:href="#glyph1-1" transform="translate(278.99799,15.42)"/>
 </g>
</svg>
