<?xml version="1.0" encoding="UTF-8" standalone="no"?>
<svg xmlns="http://www.w3.org/2000/svg" xmlns:xlink="http://www.w3.org/1999/xlink" version="1.1" width="227.6pt" height="323.4pt" viewBox="0.0 0.0 131.4255 186.73863">
 <metadata id="metadata61511"/>
 <defs id="defs61160">
  <g id="g61162">
   <g id="glyph0-0">
   </g>
   <g id="glyph0-1">
    <path d="M 2.578125,1.546875 C 2.546875,1.5 2.5,1.46875 2.453125,1.4375 1.6875,0.75 1.21875,-0.3125 1.171875,-1.59375 c -0.03125,-0.875 0.125,-1.78125 0.53125,-2.5625 0.203125,-0.375 0.4375,-0.6875 0.75,-0.953125 C 2.5,-5.15625 2.546875,-5.1875 2.578125,-5.21875 l -0.25,0 c -0.15625,0 -0.140625,0 -0.25,0.078125 -0.359375,0.28125 -0.65625,0.65625 -0.890625,1.078125 -0.65625,1.234375 -0.703125,2.90625 -0.09375,4.25 0.21875,0.5 0.5625,0.921875 0.984375,1.28125 0.09375,0.0625 0.09375,0.078125 0.25,0.078125 l 0.25,0 z m 0,0" id="path61168"/>
   </g>
   <g id="glyph0-2">
    <path d="m 0.640625,-2.640625 c 0.125,-0.0625 0.21875,-0.140625 0.34375,-0.203125 C 1.203125,-2.9375 1.4375,-2.984375 1.6875,-3 1.75,-3.015625 1.828125,-3.015625 1.90625,-3.015625 c 0.28125,0.046875 0.515625,0.234375 0.59375,0.5 0.078125,0.203125 0.046875,0.453125 0.046875,0.65625 -0.359375,0 -0.734375,0.03125 -1.09375,0.125 -0.5,0.125 -1.125,0.375 -1.0625,1.015625 0.046875,0.28125 0.203125,0.5625 0.46875,0.703125 C 1.03125,0.0625 1.234375,0.0625 1.4375,0.046875 1.734375,0.015625 2.0625,-0.0625 2.3125,-0.25 c 0.09375,-0.0625 0.171875,-0.140625 0.25,-0.21875 l 0,0.46875 0.484375,0 0,-1.828125 c 0,-0.1875 0.03125,-0.390625 -0.015625,-0.59375 -0.0625,-0.484375 -0.5,-0.84375 -0.953125,-0.9375 -0.28125,-0.046875 -0.71875,0.015625 -0.953125,0.0625 -0.078125,0.03125 -0.46875,0.15625 -0.5,0.21875 -0.03125,0.03125 -0.015625,0.09375 -0.015625,0.125 0.015625,0.109375 0.03125,0.203125 0.03125,0.3125 z m 1.90625,1.015625 0,0.515625 c 0,0.140625 0,0.265625 -0.0625,0.390625 -0.078125,0.140625 -0.21875,0.25 -0.375,0.296875 -0.328125,0.125 -0.78125,0.140625 -1.0625,-0.09375 C 0.96875,-0.5625 0.90625,-0.640625 0.890625,-0.75 0.8125,-1.046875 1.078125,-1.28125 1.3125,-1.390625 1.640625,-1.546875 2.109375,-1.625 2.546875,-1.625 z m 0,0" id="path61171"/>
   </g>
   <g id="glyph0-3">
    <path d="m 0.4375,-5.21875 c 0.03125,0.03125 0.078125,0.0625 0.125,0.109375 0.859375,0.765625 1.328125,2 1.265625,3.515625 -0.015625,0.75 -0.203125,1.5 -0.5625,2.15625 C 1.078125,0.890625 0.84375,1.1875 0.5625,1.4375 0.515625,1.46875 0.46875,1.5 0.4375,1.546875 l 0.25,0 c 0.15625,0 0.140625,0 0.234375,-0.078125 0.375,-0.296875 0.671875,-0.671875 0.890625,-1.078125 0.671875,-1.25 0.71875,-2.90625 0.109375,-4.25 C 1.6875,-4.375 1.359375,-4.796875 0.9375,-5.140625 0.84375,-5.21875 0.84375,-5.21875 0.6875,-5.21875 l -0.25,0 z m 0,0" id="path61174"/>
   </g>
   <g id="glyph0-4">
    <path d="m 0.578125,-4.84375 0,4.84375 0.515625,0 0,-0.46875 0,0 c 0.0625,0.109375 0.171875,0.203125 0.265625,0.28125 0.3125,0.25 0.828125,0.328125 1.28125,0.109375 0.203125,-0.109375 0.375,-0.28125 0.515625,-0.46875 C 3.84375,-1.5 3.421875,-3.09375 2.453125,-3.3125 c -0.125,-0.046875 -0.28125,-0.046875 -0.421875,-0.015625 -0.40625,0.046875 -0.71875,0.25 -0.953125,0.5 l 0,-2.015625 -0.5,0 z M 1.8125,-2.953125 c 0.328125,-0.03125 0.703125,0.109375 0.921875,0.375 0.171875,0.21875 0.234375,0.5 0.234375,0.765625 0.03125,0.375 -0.015625,0.78125 -0.25,1.078125 -0.203125,0.265625 -0.53125,0.375 -0.84375,0.40625 -0.265625,0 -0.5,-0.09375 -0.671875,-0.3125 C 1.171875,-0.6875 1.125,-0.75 1.09375,-0.8125 c 0,-0.046875 0,-0.09375 0,-0.125 l 0,-1.390625 c 0,-0.0625 -0.015625,-0.140625 0.015625,-0.203125 0.03125,-0.078125 0.09375,-0.125 0.15625,-0.1875 0.15625,-0.125 0.34375,-0.21875 0.546875,-0.234375 z m 0,0" id="path61177"/>
   </g>
   <g id="glyph0-5">
    <path d="M 3.1875,-0.796875 C 3.125,-0.765625 3.078125,-0.71875 3.03125,-0.6875 2.9375,-0.625 2.84375,-0.5625 2.734375,-0.515625 2.3125,-0.3125 1.671875,-0.265625 1.296875,-0.5625 1.03125,-0.75 0.859375,-1.109375 0.84375,-1.5 0.8125,-1.953125 0.921875,-2.453125 1.296875,-2.75 1.5,-2.90625 1.765625,-3 2.140625,-2.96875 2.46875,-2.9375 2.65625,-2.890625 2.921875,-2.75 c 0.0625,0.03125 0.109375,0.078125 0.171875,0.09375 L 3.171875,-3.078125 C 3.015625,-3.15625 2.875,-3.234375 2.703125,-3.28125 c -0.40625,-0.140625 -1.03125,-0.125 -1.390625,0.046875 -0.34375,0.15625 -0.625,0.4375 -0.796875,0.765625 -0.25,0.5 -0.25,1.109375 0,1.625 0.09375,0.1875 0.21875,0.359375 0.390625,0.5 0.46875,0.4375 1.1875,0.484375 1.78125,0.28125 0.140625,-0.0625 0.265625,-0.125 0.390625,-0.203125 0.046875,-0.03125 0.109375,-0.0625 0.125,-0.09375 C 3.21875,-0.40625 3.1875,-0.796875 3.1875,-0.796875 z m 0,0" id="path61180"/>
   </g>
   <g id="glyph1-0">
   </g>
   <g id="glyph1-1">
    <path d="M 1.671875,-4.84375 0.640625,0 l 1.6875,0 c 0.203125,0 0.421875,0 0.625,0 0.65625,-0.0625 1.234375,-0.296875 1.5625,-0.75 0.265625,-0.375 0.4375,-0.984375 0.09375,-1.375 -0.203125,-0.25 -0.5,-0.34375 -0.84375,-0.40625 C 3.875,-2.5625 3.96875,-2.578125 4.0625,-2.609375 4.328125,-2.703125 4.578125,-2.828125 4.765625,-3.03125 5.09375,-3.390625 5.21875,-3.984375 4.90625,-4.375 4.8125,-4.5 4.671875,-4.59375 4.53125,-4.65625 c -0.375,-0.1875 -0.8125,-0.1875 -1.234375,-0.1875 l -1.625,0 z m 0.359375,2.109375 0.328125,-1.578125 0.671875,0 c 0.453125,0 0.90625,0 1.125,0.265625 0.296875,0.296875 0.0625,0.78125 -0.21875,1 -0.34375,0.296875 -0.828125,0.3125 -1.25,0.3125 l -0.65625,0 z M 1.5625,-0.515625 C 1.578125,-0.65625 1.90625,-2.15625 1.90625,-2.15625 1.921875,-2.21875 1.921875,-2.296875 2,-2.296875 l 0.953125,0 c 0.375,0.015625 0.859375,0.09375 1,0.484375 0.15625,0.34375 -0.015625,0.75 -0.25,0.96875 C 3.578125,-0.75 3.4375,-0.671875 3.28125,-0.625 3,-0.515625 2.703125,-0.515625 2.40625,-0.515625 l -0.84375,0 z m 0,0" id="path61186"/>
   </g>
  </g>
  <clipPath id="clip1">
   <path d="m -138,667 612,0 0,-792 -612,0 0,792 z m 0,0" id="path61189"/>
  </clipPath>
  <clipPath id="clip2">
   <path d="m -0.875,307.80078 337,0 0,-307.999999 -337,0 0,307.999999 z m 0,0" id="path61192"/>
  </clipPath>
  <clipPath id="clip3">
   <path d="m 0.125,307.80078 335.32812,0 0,-307.816405 -335.32812,0 0,307.816405 z m 0,0" id="path61195"/>
  </clipPath>
 </defs>
 <g transform="translate(-0.13039568,-1.28125)" id="g62096">
  <path d="M 47.67578,68.1875 25.70312,78.43359 M 45.66797,63.875 25.17969,73.58594 M 43.65625,59.5625 27.10156,67.28516 M 67.52344,58.93359 47.67578,68.1875 M 65.51172,54.61719 45.66797,63.875 M 56.44531,53.59766 43.65625,59.5625 m 33.79687,-5.26172 -9.92968,4.63281 m 0.98828,-5.71484 -3,1.39844 M 53.70703,81.13281 36.11719,89.33594 M 51.69922,76.82031 31.28906,86.46094 M 49.6875,72.50391 27.81641,82.86328 M 73.55469,71.87109 53.70703,81.12891 M 71.54297,67.5625 51.69922,76.82031 M 69.53125,63.24609 49.6875,72.50391 M 96.46484,61.21484 73.55469,71.87109 M 91.39062,58.30078 71.54297,67.5625 M 85.09375,55.98828 69.53125,63.24609 M 57.73047,89.75781 50.42969,93.16406 M 55.71875,85.44531 42.5,91.61328 M 79.58594,84.81641 59.73828,94.07422 M 77.57422,80.5 57.73047,89.75781 m 17.83203,-13.5664 -19.84375,9.2539 m 48.82422,-12.1914 -24.95703,11.5625 M 103.3125,68.50391 77.57422,80.5 M 100.48437,64.55859 75.56641,76.19141 m 6.03125,12.9375 -9.85547,4.59765 M 103.03125,79.1875 81.59766,89.13281" id="path61207" fill="none" stroke="#000000" stroke-width="0.4"/>
  <path d="m 94.097656,72.074219 c 0.175782,7.996094 -12.808593,14.765625 -29,15.121094 -16.195312,0.355468 -29.464843,-5.832032 -29.640625,-13.828125 -0.175781,-7.992188 12.808594,-14.761719 29,-15.121094 16.195313,-0.359375 29.464844,5.832031 29.640625,13.828125" id="path61209" fill="#ffffff"/>
  <path d="m 94.09766,72.07422 c 0.17578,7.99609 -12.8086,14.76562 -29,15.12109 -16.19532,0.35547 -29.46485,-5.83203 -29.64063,-13.82812 -0.17578,-7.99219 12.80859,-14.76172 29,-15.1211 16.19531,-0.35937 29.46484,5.83203 29.64063,13.82813 l 0,0 0,0 z m 0,0" id="path61211" fill="none" stroke="#000000" stroke-width="0.5"/>
  <path d="m 104.54297,72.80469 0,37.25781 c -4.36719,9.95312 -20.53516,17.30859 -39.79297,17.25781 -18.85156,-0.0508 -34.6875,-7.18359 -39.39844,-16.83984 l 0,-33.42578" id="path61213" fill="none" stroke="#000000" stroke-width="0.5"/>
  <path d="m 104.54687,73.58594 c 0,11.29297 -17.76953,20.44531 -39.68359,20.44531 -40.76172,0 -39.68359,-17.01172 -39.68359,-20.44531 0,-11.29297 17.76562,-20.45313 39.68359,-20.45313 21.91406,0 39.68359,9.16016 39.68359,20.45313 l 0,0 z m 0,0" id="path61215" fill="none" stroke="#000000" stroke-width="0.5"/>
  <path d="m 26.66016,115.39844 0,3.44531" id="path61217" fill="none" stroke="#000000" stroke-width="0.5"/>
  <path d="m 1.79297,15.640625 0,143.316405" id="path61219" fill="none" stroke="#000000" stroke-width="0.5"/>
  <path d="M 3.460938,46.277344 1.792969,40.050781 0.125,46.277344 l 3.335938,0" id="path61221"/>
  <path d="m 3.460938,144.21875 -1.667969,-6.22656 -1.667969,6.22656 3.335938,0" id="path61223"/>
  <path d="m 130.55469,41.96875 -1.66797,-6.226562 -1.66797,6.226562 3.33594,0" id="path61225"/>
  <path d="m 128.81641,15.351562 0,143.320308" id="path61227" fill="none" stroke="#000000" stroke-width="0.5"/>
  <path d="m 130.48437,140.77344 -1.66796,-6.22657 -1.67188,6.22657 3.33984,0" id="path61229"/>
  <path d="m 114.64453,1.277344 0,143.320316" id="path61231" fill="none" stroke="#000000" stroke-width="0.5"/>
  <path d="m 116.3125,127.38672 -1.66797,-6.22656 -1.66797,6.22656 3.33594,0" id="path61233"/>
  <path d="m 116.3125,31.742188 -1.66797,-6.226563 -1.66797,6.226563 3.33594,0" id="path61235"/>
  <path d="m 102.29297,29.13672 0,143.32031" id="path61237" fill="none" stroke="#000000" stroke-width="0.5"/>
  <path d="m 103.96484,152.66016 -1.66796,-6.22657 -1.67188,6.22657 3.33984,0" id="path61239"/>
  <path d="m 103.96484,58.453125 -1.66796,-6.226562 -1.67188,6.226562 3.33984,0" id="path61241"/>
  <path d="m 14.11719,28.85156 0,141.59375" id="path61243" fill="none" stroke="#000000" stroke-width="0.5"/>
  <path d="m 15.789063,152.37109 -1.667969,-6.22265 -1.671875,6.22265 3.339844,0" id="path61245"/>
  <path d="m 15.789063,54.433594 -1.667969,-6.226563 -1.671875,6.226563 3.339844,0" id="path61247"/>
  <path d="m 26.66016,2.425781 0,59.453129 m 0,55.43359 0,26.71094" id="path61249" fill="none" stroke="#000000" stroke-width="0.5"/>
  <path d="m 28.328125,131.69531 -1.667969,-6.23047 -1.667968,6.23047 3.335937,0" id="path61251"/>
  <path d="m 64.71875,128.22656 0,28.4336" id="path61253" fill="none" stroke="#000000" stroke-width="0.5"/>
  <path d="m 66.386719,141.74609 -1.667969,-6.22656 -1.671875,6.22656 3.339844,0" id="path61255"/>
  <path d="m 89.70312,125.06641 0,24.70312" id="path61257" fill="none" stroke="#000000" stroke-width="0.5"/>
  <path d="m 91.375,133.9375 -1.667969,-6.22656 -1.671875,6.22656 3.339844,0" id="path61259"/>
  <path d="m 51.9375,127.95312 0,24.33985" id="path61261" fill="none" stroke="#000000" stroke-width="0.5"/>
  <path d="m 53.605469,134.79297 -1.667969,-6.22656 -1.671875,6.22656 3.339844,0" id="path61263"/>
  <path d="m 40.16016,126.78906 0,41.35938" id="path61265" fill="none" stroke="#000000" stroke-width="0.5"/>
  <path d="m 41.828125,150.36328 -1.667969,-6.22656 -1.667968,6.22656 3.335937,0" id="path61267"/>
  <path d="m 76.92578,127.96094 0,44.80859" id="path61269" fill="none" stroke="#000000" stroke-width="0.5"/>
  <path d="m 78.59375,154.67187 -1.667969,-6.22656 -1.667968,6.22656 3.335937,0" id="path61271"/>
  <path d="m 28.328125,33.753906 -1.667969,-6.226562 -1.667968,6.226562 3.335937,0" id="path61273"/>
  <path d="m 51.79297,4.148437 0,51.773433" id="path61275" fill="none" stroke="#000000" stroke-width="0.5"/>
  <path d="m 53.460938,33.179688 -1.667969,-6.226563 -1.671875,6.226563 3.339844,0" id="path61277"/>
  <path d="m 39.87109,22.82031 0,60.81641" id="path61279" fill="none" stroke="#000000" stroke-width="0.5"/>
  <path d="M 41.542969,52.710938 39.875,46.484375 l -1.671875,6.226563 3.339844,0" id="path61281"/>
  <path d="m 64.57422,13.339844 0,71.160156" id="path61283" fill="none" stroke="#000000" stroke-width="0.5"/>
  <path d="m 66.242188,43.230469 -1.667969,-6.226563 -1.667969,6.226563 3.335938,0" id="path61285"/>
  <path d="m 77.35547,23.96875 0,63.40234" id="path61287" fill="none" stroke="#000000" stroke-width="0.5"/>
  <path d="m 79.023438,51.273438 -1.667969,-6.226563 -1.667969,6.226563 3.335938,0" id="path61289"/>
  <path d="m 89.70312,3.574219 0,58.093751" id="path61291" fill="none" stroke="#000000" stroke-width="0.5"/>
  <path d="m 91.375,30.882813 -1.667969,-6.226563 -1.671875,6.226563 3.339844,0" id="path61293"/>
  <path d="m 46.56641,61.69141 0,22.59375 m 1.33984,-23.07032 0,23.64844 m 1.57031,-24.17578 0,24.50781 m 1.85156,-25.08594 0,25.78125 m 1.98829,-26.25781 0,26.66406 m 2.62109,-27.21484 0,27.54688 m 3.45703,-28.00391 0,28.33984" id="path61295" fill="none" stroke="#000000" stroke-width="0.25"/>
  <path d="m 45.02344,62.33984 0,21.42188" id="path61297" fill="none" stroke="#000000" stroke-width="0.55"/>
  <path d="m 43.69531,63.08203 0,20.10547" id="path61299" fill="none" stroke="#000000" stroke-width="0.65"/>
  <path d="m 42.61719,63.60547 0.0586,18.88672" id="path61301" fill="none" stroke="#000000" stroke-width="0.25"/>
  <path d="m 38.73828,66.57812 0.0156,13.11329 m 2.83203,-15.46094 0,17.66406" id="path61303" fill="none" stroke="#000000" stroke-width="0.75"/>
  <path d="m 87.35156,63.16797 0,18.38281 m -2.68359,-19.72266 0,18.24219 m -3.25391,-19.48437 0,15.65234 m -44.86328,-6.93359 0,7.68359 m 1.23047,-9.42969 0,11.17578" id="path61305" fill="none" stroke="#000000" stroke-width="0.25"/>
  <path d="m 91.73047,66.61328 0,11.34375 m -1.26172,-12.53906 0,13.80859 0,-13.80859 z m -1.30859,-1.09766 0,16.00781" id="path61307" fill="none" stroke="#000000" stroke-width="0.75"/>
  <path d="m 103.60547,77.91406 0,33.96485 m -3.78516,-28.69532 0,33.21875 M 96.375,85.95703 l 0,32.98438 m -3.67578,-30.75782 0,33.03125 m -5.34766,-30.82812 0.008,33.16406 m -6.86718,-31.05859 0,33.10156 m -53.9961,-45.01953 0,31.95312 m 1.9336,-28.9375 0,31.28125 m 2.85937,-28.41015 0,31.08203 m 3.96875,-28.71485 0,31.3086 m 3.41016,-29.77344 0,31.57031 m 54.23437,-53.63672 0,8.08204" id="path61309" fill="none" stroke="#000000" stroke-width="0.25"/>
  <use id="use61475" width="336" height="321" xlink:href="#glyph0-1" transform="translate(60.334999,185.47301)"/>
  <use id="use61477" width="336" height="321" xlink:href="#glyph0-2" transform="translate(63.351868,185.47301)"/>
  <use id="use61479" width="336" height="321" xlink:href="#glyph0-3" transform="translate(66.988701,185.47301)"/>
  <use id="use61483" width="336" height="321" xlink:href="#glyph1-1" transform="translate(74.620003,15.42)"/>
 </g>
</svg>
