<?xml version="1.0" encoding="UTF-8"?>
<svg xmlns="http://www.w3.org/2000/svg" xmlns:xlink="http://www.w3.org/1999/xlink" width="323pt" height="327pt" viewBox="0 0 187 189" version="1.1">
<defs>
<g>
<symbol overflow="visible" id="glyph0-0">
<path style="stroke:none;" d=""/>
</symbol>
<symbol overflow="visible" id="glyph0-1">
<path style="stroke:none;" d="M 0.75 -3.296875 C 0.828125 -3.140625 0.921875 -3.015625 1.015625 -2.875 C 1.078125 -2.796875 1.6875 -1.875 1.71875 -1.84375 C 1.734375 -1.8125 1.796875 -1.75 1.796875 -1.703125 C 1.796875 -1.65625 1.71875 -1.609375 1.6875 -1.578125 C 1.375 -1.296875 0.046875 -0.046875 0 0 C 0.1875 0 0.375 0 0.53125 0 L 0.6875 -0.140625 L 1.984375 -1.4375 C 2.265625 -0.953125 2.53125 -0.46875 2.84375 -0.015625 C 3.015625 0 3.203125 0 3.390625 0 C 3.296875 -0.140625 2.359375 -1.53125 2.328125 -1.5625 C 2.3125 -1.609375 2.265625 -1.65625 2.265625 -1.6875 C 2.28125 -1.734375 2.34375 -1.78125 2.375 -1.8125 C 2.484375 -1.921875 2.59375 -2.015625 2.703125 -2.125 C 2.8125 -2.21875 3.921875 -3.25 3.953125 -3.296875 C 3.765625 -3.296875 3.59375 -3.296875 3.421875 -3.28125 C 2.96875 -2.875 2.546875 -2.4375 2.09375 -2.03125 C 1.828125 -2.453125 1.578125 -2.890625 1.28125 -3.28125 C 1.109375 -3.296875 0.921875 -3.296875 0.75 -3.296875 Z M 0.75 -3.296875 "/>
</symbol>
<symbol overflow="visible" id="glyph0-2">
<path style="stroke:none;" d="M 0.4375 -4.84375 L 1.4375 -0.25 C 1.46875 -0.140625 1.46875 -0.03125 1.515625 0.046875 C 1.703125 0.0625 1.90625 0.0625 2.078125 0.03125 L 2.140625 -0.046875 L 5.21875 -4.84375 C 5.046875 -4.84375 4.875 -4.84375 4.703125 -4.828125 L 4.640625 -4.75 L 2.6875 -1.703125 C 2.4375 -1.296875 2.171875 -0.921875 1.9375 -0.515625 L 1.921875 -0.515625 C 1.640625 -1.984375 1.296875 -3.390625 1 -4.84375 L 0.4375 -4.84375 Z M 0.4375 -4.84375 "/>
</symbol>
<symbol overflow="visible" id="glyph0-3">
<path style="stroke:none;" d="M 1.75 -4.828125 L 0.734375 0 C 1.921875 0 3.15625 0.015625 4.3125 0 C 4.359375 -0.125 4.390625 -0.28125 4.40625 -0.4375 L 1.359375 -0.4375 L 1.75 -2.296875 C 2.640625 -2.3125 3.609375 -2.28125 4.46875 -2.3125 C 4.515625 -2.421875 4.546875 -2.578125 4.578125 -2.703125 L 1.84375 -2.703125 C 1.953125 -3.28125 2.078125 -3.84375 2.1875 -4.40625 L 5.15625 -4.40625 L 5.234375 -4.828125 L 1.75 -4.828125 Z M 1.75 -4.828125 "/>
</symbol>
<symbol overflow="visible" id="glyph0-4">
<path style="stroke:none;" d="M 1.203125 -2.640625 C 1.46875 -2.78125 1.609375 -2.890625 1.953125 -2.953125 C 2.078125 -2.984375 2.390625 -3.03125 2.53125 -3.015625 C 2.765625 -2.984375 2.953125 -2.84375 3.015625 -2.609375 C 3.09375 -2.359375 2.96875 -2.109375 2.9375 -1.859375 C 2.328125 -1.859375 1.65625 -1.75 1.1875 -1.53125 C 0.9375 -1.390625 0.671875 -1.1875 0.578125 -0.90625 C 0.46875 -0.5 0.640625 0 1.109375 0.0625 C 1.75 0.09375 2.328125 -0.15625 2.65625 -0.46875 L 2.5625 0 L 2.921875 0 C 3 0 3.0625 0.015625 3.0625 -0.078125 C 3.078125 -0.125 3.21875 -0.78125 3.21875 -0.78125 L 3.453125 -1.875 C 3.484375 -2.046875 3.546875 -2.21875 3.546875 -2.390625 C 3.578125 -2.703125 3.4375 -2.984375 3.234375 -3.15625 C 2.984375 -3.359375 2.671875 -3.390625 2.359375 -3.359375 C 2.140625 -3.359375 1.921875 -3.3125 1.703125 -3.25 C 1.640625 -3.234375 1.3125 -3.125 1.265625 -3.078125 C 1.25 -3.046875 1.203125 -2.75 1.203125 -2.640625 Z M 2.890625 -1.625 C 2.875 -1.484375 2.828125 -1.34375 2.796875 -1.203125 C 2.765625 -1.03125 2.734375 -0.84375 2.625 -0.703125 C 2.546875 -0.59375 2.421875 -0.515625 2.296875 -0.453125 C 1.9375 -0.296875 1.375 -0.25 1.125 -0.53125 C 0.984375 -0.6875 1.046875 -0.9375 1.171875 -1.09375 C 1.40625 -1.359375 1.765625 -1.46875 2.09375 -1.546875 C 2.359375 -1.59375 2.625 -1.625 2.890625 -1.625 Z M 2.890625 -1.625 "/>
</symbol>
<symbol overflow="visible" id="glyph1-0">
<path style="stroke:none;" d=""/>
</symbol>
<symbol overflow="visible" id="glyph1-1">
<path style="stroke:none;" d="M 0.546875 -3.015625 L 0.546875 -2.734375 C 0.796875 -2.734375 1.046875 -2.78125 1.28125 -2.875 L 1.28125 -0.28125 L 0.578125 -0.28125 L 0.578125 0 L 2.328125 0 L 2.328125 -0.28125 L 1.640625 -0.28125 L 1.640625 -3.34375 C 1.609375 -3.34375 1.5625 -3.359375 1.546875 -3.34375 C 1.5 -3.328125 1.46875 -3.296875 1.4375 -3.265625 C 1.234375 -3.09375 0.875 -3.015625 0.546875 -3.015625 Z M 0.546875 -3.015625 "/>
</symbol>
<symbol overflow="visible" id="glyph1-2">
<path style="stroke:none;" d="M 0.4375 -2.28125 C 0.515625 -2.578125 0.65625 -2.890625 0.953125 -3 C 1.078125 -3.046875 1.203125 -3.0625 1.328125 -3.046875 C 1.578125 -3.03125 1.84375 -2.921875 2 -2.703125 C 2.109375 -2.5625 2.140625 -2.375 2.109375 -2.203125 C 2.046875 -1.71875 1.625 -1.421875 1.28125 -1.15625 C 1 -0.9375 0.421875 -0.421875 0.421875 -0.421875 L 0.328125 -0.34375 C 0.28125 -0.296875 0.28125 -0.296875 0.28125 -0.1875 L 0.28125 0 L 2.5 0 L 2.5 -0.3125 L 0.59375 -0.3125 C 0.796875 -0.484375 1.359375 -0.953125 1.53125 -1.078125 C 1.84375 -1.3125 2.1875 -1.546875 2.390625 -1.890625 C 2.609375 -2.28125 2.46875 -2.8125 2.125 -3.078125 C 1.75 -3.40625 1.046875 -3.453125 0.625 -3.140625 C 0.46875 -3.03125 0.359375 -2.84375 0.28125 -2.671875 C 0.265625 -2.625 0.234375 -2.578125 0.234375 -2.546875 C 0.25 -2.515625 0.28125 -2.484375 0.296875 -2.46875 C 0.34375 -2.40625 0.390625 -2.34375 0.4375 -2.28125 Z M 0.4375 -2.28125 "/>
</symbol>
<symbol overflow="visible" id="glyph2-0">
<path style="stroke:none;" d=""/>
</symbol>
<symbol overflow="visible" id="glyph2-1">
<path style="stroke:none;" d="M 0.859375 -1.890625 C 1.046875 -1.984375 1.140625 -2.0625 1.390625 -2.109375 C 1.484375 -2.140625 1.71875 -2.15625 1.8125 -2.15625 C 1.984375 -2.140625 2.109375 -2.03125 2.15625 -1.875 C 2.203125 -1.6875 2.125 -1.515625 2.109375 -1.328125 C 1.65625 -1.328125 1.1875 -1.25 0.859375 -1.09375 C 0.671875 -1 0.484375 -0.859375 0.421875 -0.640625 C 0.328125 -0.359375 0.453125 0 0.796875 0.046875 C 1.25 0.0625 1.671875 -0.109375 1.90625 -0.328125 L 1.828125 0 L 2.09375 0 C 2.140625 0 2.1875 0.015625 2.1875 -0.0625 C 2.203125 -0.09375 2.296875 -0.5625 2.296875 -0.5625 L 2.46875 -1.34375 C 2.5 -1.46875 2.53125 -1.59375 2.546875 -1.71875 C 2.5625 -1.9375 2.46875 -2.140625 2.3125 -2.265625 C 2.140625 -2.40625 1.90625 -2.421875 1.6875 -2.40625 C 1.53125 -2.390625 1.375 -2.375 1.21875 -2.328125 C 1.171875 -2.3125 0.9375 -2.234375 0.90625 -2.203125 C 0.890625 -2.171875 0.859375 -1.96875 0.859375 -1.890625 Z M 2.0625 -1.15625 C 2.046875 -1.0625 2.03125 -0.953125 2 -0.859375 C 1.96875 -0.734375 1.953125 -0.609375 1.875 -0.5 C 1.8125 -0.421875 1.734375 -0.375 1.640625 -0.328125 C 1.390625 -0.21875 0.984375 -0.171875 0.8125 -0.375 C 0.703125 -0.5 0.75 -0.671875 0.84375 -0.78125 C 1 -0.96875 1.265625 -1.046875 1.5 -1.09375 C 1.6875 -1.140625 1.875 -1.15625 2.0625 -1.15625 Z M 2.0625 -1.15625 "/>
</symbol>
<symbol overflow="visible" id="glyph3-0">
<path style="stroke:none;" d=""/>
</symbol>
<symbol overflow="visible" id="glyph3-1">
<path style="stroke:none;" d="M 2.578125 1.546875 C 2.546875 1.5 2.5 1.46875 2.453125 1.4375 C 1.6875 0.75 1.21875 -0.3125 1.171875 -1.59375 C 1.140625 -2.46875 1.296875 -3.375 1.703125 -4.15625 C 1.90625 -4.53125 2.140625 -4.84375 2.453125 -5.109375 C 2.5 -5.15625 2.546875 -5.1875 2.578125 -5.21875 L 2.328125 -5.21875 C 2.171875 -5.21875 2.1875 -5.21875 2.078125 -5.140625 C 1.71875 -4.859375 1.421875 -4.484375 1.1875 -4.0625 C 0.53125 -2.828125 0.484375 -1.15625 1.09375 0.1875 C 1.3125 0.6875 1.65625 1.109375 2.078125 1.46875 C 2.171875 1.53125 2.171875 1.546875 2.328125 1.546875 L 2.578125 1.546875 Z M 2.578125 1.546875 "/>
</symbol>
<symbol overflow="visible" id="glyph3-2">
<path style="stroke:none;" d="M 0.4375 -5.21875 C 0.46875 -5.1875 0.515625 -5.15625 0.5625 -5.109375 C 1.421875 -4.34375 1.890625 -3.109375 1.828125 -1.59375 C 1.8125 -0.84375 1.625 -0.09375 1.265625 0.5625 C 1.078125 0.890625 0.84375 1.1875 0.5625 1.4375 C 0.515625 1.46875 0.46875 1.5 0.4375 1.546875 L 0.6875 1.546875 C 0.84375 1.546875 0.828125 1.546875 0.921875 1.46875 C 1.296875 1.171875 1.59375 0.796875 1.8125 0.390625 C 2.484375 -0.859375 2.53125 -2.515625 1.921875 -3.859375 C 1.6875 -4.375 1.359375 -4.796875 0.9375 -5.140625 C 0.84375 -5.21875 0.84375 -5.21875 0.6875 -5.21875 L 0.4375 -5.21875 Z M 0.4375 -5.21875 "/>
</symbol>
</g>
<clipPath id="clip1">
  <path d="M -212 667 L 400 667 L 400 -125 L -212 -125 L -212 667 Z M -212 667 "/>
</clipPath>
<clipPath id="clip2">
  <path d="M 4.660156 189.800781 L 187.660156 189.800781 L 187.660156 -0.199219 L 4.660156 -0.199219 L 4.660156 189.800781 Z M 4.660156 189.800781 "/>
</clipPath>
<clipPath id="clip3">
  <path d="M -212 667 L 400 667 L 400 -125 L -212 -125 L -212 667 Z M -212 667 "/>
</clipPath>
</defs>
<g id="surface0">
<g clip-path="url(#clip1)" clip-rule="nonzero">
<g clip-path="url(#clip2)" clip-rule="nonzero">
<path style="fill:none;stroke-width:5;stroke-linecap:round;stroke-linejoin:round;stroke:rgb(0%,0%,0%);stroke-opacity:1;stroke-miterlimit:10;" d="M 17.15 1021.262188 L 1817.15 1021.262188 " transform="matrix(0.1,0,0,-0.1,4.66,189.802)"/>
<path style=" stroke:none;fill-rule:nonzero;fill:rgb(0%,0%,0%);fill-opacity:1;" d="M 180.839844 88.902344 L 186.375 87.675781 L 180.839844 86.449219 "/>
<path style="fill:none;stroke-width:5;stroke-linecap:round;stroke-linejoin:round;stroke:rgb(0%,0%,0%);stroke-opacity:1;stroke-miterlimit:10;" d="M 1761.798438 1008.996563 L 1817.15 1021.262188 L 1761.798438 1033.527813 L 1761.798438 1008.996563 Z M 1761.798438 1008.996563 " transform="matrix(0.1,0,0,-0.1,4.66,189.802)"/>
<path style="fill:none;stroke-width:5;stroke-linecap:round;stroke-linejoin:round;stroke:rgb(0%,0%,0%);stroke-opacity:1;stroke-miterlimit:10;" d="M 116.36875 1021.262188 L 116.36875 1885.8325 " transform="matrix(0.1,0,0,-0.1,4.66,189.802)"/>
<path style=" stroke:none;fill-rule:nonzero;fill:rgb(0%,0%,0%);fill-opacity:1;" d="M 17.523438 6.753906 L 16.296875 1.21875 L 15.070313 6.753906 "/>
<path style="fill:none;stroke-width:5;stroke-linecap:round;stroke-linejoin:round;stroke:rgb(0%,0%,0%);stroke-opacity:1;stroke-miterlimit:10;" d="M 128.634375 1830.480938 L 116.36875 1885.8325 L 104.103125 1830.480938 L 128.634375 1830.480938 Z M 128.634375 1830.480938 " transform="matrix(0.1,0,0,-0.1,4.66,189.802)"/>
<path style="fill:none;stroke-width:5;stroke-linecap:round;stroke-linejoin:round;stroke:rgb(0%,0%,0%);stroke-opacity:1;stroke-dasharray:30,30;stroke-miterlimit:10;" d="M 116.36875 1318.879375 L 1760.470313 1318.879375 " transform="matrix(0.1,0,0,-0.1,4.66,189.802)"/>
<path style="fill:none;stroke-width:5;stroke-linecap:round;stroke-linejoin:round;stroke:rgb(0%,0%,0%);stroke-opacity:1;stroke-dasharray:30,30;stroke-miterlimit:10;" d="M 579.49375 1318.879375 L 579.49375 85.8325 " transform="matrix(0.1,0,0,-0.1,4.66,189.802)"/>
<path style="fill:none;stroke-width:5;stroke-linecap:round;stroke-linejoin:round;stroke:rgb(0%,0%,0%);stroke-opacity:1;stroke-dasharray:30,30;stroke-miterlimit:10;" d="M 1240.626563 1318.879375 L 1240.626563 85.8325 " transform="matrix(0.1,0,0,-0.1,4.66,189.802)"/>
<path style="fill:none;stroke-width:7;stroke-linecap:round;stroke-linejoin:round;stroke:rgb(0%,0%,0%);stroke-opacity:1;stroke-miterlimit:10;" d="M 59.689063 1715.754375 L 286.446875 1715.754375 C 348.634375 1715.754375 385.43125 1684.348125 399.845313 1651.965313 C 417.735938 1611.691875 436.525 1571.496563 456.525 1531.496563 C 474.3375 1495.910625 493.0875 1460.441875 513.204688 1425.2075 C 530.860938 1394.309063 549.610938 1363.566875 569.923438 1333.059063 C 587.423438 1306.848125 606.05625 1280.793438 626.603125 1255.129375 C 643.907813 1233.48875 662.4625 1212.160625 683.282813 1191.340313 C 700.353125 1174.27 718.829688 1157.590313 740.001563 1141.730938 C 756.798438 1129.11375 775.235938 1117.004375 796.68125 1106.30125 C 813.478125 1097.902813 832.110938 1090.36375 853.360938 1085.012188 C 871.017188 1080.637188 890.314063 1077.941875 910.079688 1077.941875 L 910.079688 1077.941875 C 929.80625 1077.941875 949.103125 1080.637188 966.759375 1085.012188 C 988.048438 1090.36375 1006.642188 1097.902813 1023.478125 1106.30125 C 1044.923438 1117.004375 1063.321875 1129.11375 1080.157813 1141.730938 C 1101.290625 1157.590313 1119.80625 1174.27 1136.8375 1191.340313 C 1157.657813 1212.160625 1176.251563 1233.48875 1193.55625 1255.129375 C 1214.064063 1280.793438 1232.735938 1306.848125 1250.235938 1333.059063 C 1270.548438 1363.566875 1289.259375 1394.309063 1306.915625 1425.2075 C 1327.071875 1460.441875 1345.821875 1495.910625 1363.595313 1531.496563 C 1383.634375 1571.496563 1402.423438 1611.691875 1420.314063 1651.965313 C 1434.728125 1684.348125 1471.525 1715.754375 1533.673438 1715.754375 L 1760.470313 1715.754375 " transform="matrix(0.1,0,0,-0.1,4.66,189.802)"/>
<path style="fill:none;stroke-width:5;stroke-linecap:round;stroke-linejoin:round;stroke:rgb(0%,0%,0%);stroke-opacity:1;stroke-miterlimit:10;" d="M 17.15 397.629375 L 1817.15 397.629375 " transform="matrix(0.1,0,0,-0.1,4.66,189.802)"/>
<path style=" stroke:none;fill-rule:nonzero;fill:rgb(0%,0%,0%);fill-opacity:1;" d="M 180.839844 151.265625 L 186.375 150.039063 L 180.839844 148.8125 "/>
<path style="fill:none;stroke-width:5;stroke-linecap:round;stroke-linejoin:round;stroke:rgb(0%,0%,0%);stroke-opacity:1;stroke-miterlimit:10;" d="M 1761.798438 385.36375 L 1817.15 397.629375 L 1761.798438 409.895 L 1761.798438 385.36375 Z M 1761.798438 385.36375 " transform="matrix(0.1,0,0,-0.1,4.66,189.802)"/>
<path style="fill:none;stroke-width:5;stroke-linecap:round;stroke-linejoin:round;stroke:rgb(0%,0%,0%);stroke-opacity:1;stroke-miterlimit:10;" d="M 116.36875 14.934063 L 116.36875 950.402813 " transform="matrix(0.1,0,0,-0.1,4.66,189.802)"/>
<path style=" stroke:none;fill-rule:nonzero;fill:rgb(0%,0%,0%);fill-opacity:1;" d="M 17.523438 100.296875 L 16.296875 94.761719 L 15.070313 100.296875 "/>
<path style="fill:none;stroke-width:5;stroke-linecap:round;stroke-linejoin:round;stroke:rgb(0%,0%,0%);stroke-opacity:1;stroke-miterlimit:10;" d="M 128.634375 895.05125 L 116.36875 950.402813 L 104.103125 895.05125 L 128.634375 895.05125 Z M 128.634375 895.05125 " transform="matrix(0.1,0,0,-0.1,4.66,189.802)"/>
<path style="fill:none;stroke-width:7;stroke-linecap:round;stroke-linejoin:round;stroke:rgb(0%,0%,0%);stroke-opacity:1;stroke-miterlimit:10;" d="M 229.767188 397.629375 C 260.001563 397.55125 290.235938 397.629375 320.470313 397.785625 C 335.5875 397.902813 350.704688 398.02 365.821875 398.410625 C 373.4 398.605938 380.939063 398.840313 388.478125 399.230938 C 396.05625 399.621563 403.634375 400.129375 411.173438 400.871563 C 418.790625 401.652813 426.36875 402.629375 433.86875 403.996563 C 441.525 405.36375 449.142188 407.160625 456.525 409.465313 C 464.376563 411.887188 471.99375 414.895 479.220313 418.48875 C 487.267188 422.512188 494.845313 427.199688 501.876563 432.473125 C 510.11875 438.566875 517.61875 445.36375 524.571875 452.55125 C 532.775 461.027813 540.196875 470.012188 547.228125 479.230938 C 555.235938 489.73875 562.657813 500.559063 569.923438 511.4575 C 577.501563 522.86375 584.884375 534.348125 592.579688 545.715313 C 597.423438 552.824688 602.384375 559.895 607.696875 566.730938 C 612.30625 572.629375 617.228125 578.3325 622.814063 583.566875 C 627.189063 587.590313 632.032813 591.340313 637.93125 593.48875 C 640.353125 594.387188 642.892188 594.973125 645.509375 595.05125 C 648.0875 595.129375 650.665625 594.73875 653.048438 593.9575 C 655.860938 593.02 658.360938 591.574688 660.626563 589.895 C 663.478125 587.785625 665.939063 585.324688 668.165625 582.7075 C 671.017188 579.42625 673.478125 575.910625 675.74375 572.316875 C 678.517188 567.86375 681.017188 563.293438 683.282813 558.645 C 686.05625 553.098125 688.517188 547.434063 690.860938 541.730938 C 693.55625 535.168438 696.05625 528.48875 698.4 521.809063 C 701.095313 514.27 703.595313 506.691875 705.978125 499.11375 C 708.595313 490.793438 711.095313 482.434063 713.517188 474.074688 C 716.134375 465.090313 718.634375 456.145 721.095313 447.160625 C 723.673438 437.746563 726.173438 428.371563 728.673438 418.996563 C 731.173438 409.387188 733.7125 399.816875 736.2125 390.246563 C 738.7125 380.754375 741.2125 371.223125 743.790625 361.730938 C 746.251563 352.55125 748.751563 343.371563 751.329688 334.230938 C 753.751563 325.637188 756.251563 317.0825 758.907813 308.566875 C 761.251563 300.871563 763.751563 293.17625 766.446875 285.559063 C 768.790625 278.996563 771.251563 272.434063 774.025 265.98875 C 776.251563 260.715313 778.673438 255.52 781.564063 250.52 C 783.751563 246.77 786.173438 243.098125 789.142188 239.777813 C 791.173438 237.473125 793.55625 235.246563 796.68125 234.191875 C 799.103125 233.3325 801.798438 233.254375 804.259375 233.996563 C 807.384375 234.973125 809.767188 237.121563 811.798438 239.387188 C 814.80625 242.7075 817.228125 246.379375 819.376563 250.168438 C 822.30625 255.324688 824.689063 260.67625 826.915625 266.105938 C 829.689063 272.902813 832.189063 279.777813 834.49375 286.691875 C 837.189063 294.816875 839.689063 302.980938 842.032813 311.223125 C 844.689063 320.402813 847.189063 329.621563 849.610938 338.840313 C 852.189063 348.762188 854.689063 358.684063 857.15 368.645 C 859.689063 378.918438 862.228125 389.191875 864.728125 399.465313 C 867.228125 409.73875 869.728125 420.012188 872.267188 430.246563 C 874.728125 440.129375 877.228125 449.973125 879.845313 459.816875 C 882.228125 468.918438 884.728125 478.02 887.384375 487.043438 C 889.728125 495.05125 892.228125 503.02 894.9625 510.949688 C 897.228125 517.55125 899.689063 524.11375 902.501563 530.559063 C 904.689063 535.559063 907.15 540.480938 910.079688 545.2075 C 912.15 548.48875 914.454688 551.691875 917.61875 554.27 C 919.767188 555.98875 922.30625 557.395 925.196875 557.434063 C 928.048438 557.473125 930.5875 556.223125 932.735938 554.621563 C 935.939063 552.199688 938.24375 549.074688 940.314063 545.871563 C 943.24375 541.30125 945.665625 536.496563 947.853125 531.652813 C 950.704688 525.324688 953.165625 518.879375 955.43125 512.395 C 958.165625 504.621563 960.626563 496.809063 962.970313 488.918438 C 965.665625 480.012188 968.126563 471.066875 970.548438 462.0825 C 973.165625 452.395 975.665625 442.668438 978.0875 432.941875 C 980.665625 422.785625 983.165625 412.629375 985.665625 402.473125 C 988.165625 392.277813 990.665625 382.043438 993.204688 371.848125 C 995.704688 361.92625 998.204688 352.043438 1000.782813 342.121563 C 1003.204688 332.86375 1005.704688 323.566875 1008.321875 314.348125 C 1010.704688 305.98875 1013.204688 297.7075 1015.9 289.42625 C 1018.204688 282.277813 1020.704688 275.168438 1023.478125 268.137188 C 1025.704688 262.395 1028.165625 256.691875 1031.017188 251.184063 C 1033.204688 246.965313 1035.626563 242.824688 1038.55625 238.996563 C 1040.665625 236.262188 1043.009375 233.645 1046.134375 231.848125 C 1048.4 230.559063 1051.017188 229.73875 1053.7125 229.934063 C 1056.564063 230.129375 1059.103125 231.4575 1061.251563 233.098125 C 1064.298438 235.402813 1066.68125 238.254375 1068.790625 241.223125 C 1071.720313 245.246563 1074.142188 249.504375 1076.36875 253.840313 C 1079.18125 259.309063 1081.642188 264.895 1083.946875 270.52 C 1086.642188 277.160625 1089.142188 283.918438 1091.485938 290.67625 C 1094.142188 298.293438 1096.642188 305.949688 1099.064063 313.645 C 1101.642188 321.965313 1104.142188 330.36375 1106.603125 338.723125 C 1109.18125 347.590313 1111.68125 356.418438 1114.18125 365.285625 C 1116.720313 374.387188 1119.220313 383.48875 1121.720313 392.590313 C 1124.259375 401.730938 1126.759375 410.871563 1129.298438 420.012188 C 1131.798438 428.996563 1134.298438 437.980938 1136.8375 446.965313 C 1139.298438 455.637188 1141.8375 464.309063 1144.415625 472.941875 C 1146.8375 481.145 1149.376563 489.348125 1151.954688 497.512188 C 1154.376563 505.129375 1156.915625 512.746563 1159.532813 520.324688 C 1161.915625 527.316875 1164.454688 534.230938 1167.071875 541.145 C 1169.454688 547.434063 1171.99375 553.684063 1174.65 559.855938 C 1177.032813 565.402813 1179.532813 570.910625 1182.189063 576.340313 C 1184.571875 581.184063 1187.071875 585.98875 1189.767188 590.67625 C 1192.110938 594.855938 1194.610938 598.9575 1197.30625 602.941875 C 1199.689063 606.496563 1202.189063 609.973125 1204.884375 613.3325 C 1211.407813 621.496563 1218.985938 628.996563 1227.540625 635.598125 C 1231.759375 638.879375 1236.2125 641.92625 1240.626563 644.973125 " transform="matrix(0.1,0,0,-0.1,4.66,189.802)"/>
</g>
</g>
<g clip-path="url(#clip3)" clip-rule="nonzero">
<g style="fill:rgb(0%,0%,0%);fill-opacity:1;">
  <use xlink:href="#glyph0-1" x="178.655" y="93.883"/>
</g>
<g style="fill:rgb(0%,0%,0%);fill-opacity:1;">
  <use xlink:href="#glyph0-1" x="63.904" y="92.749"/>
</g>
<g style="fill:rgb(0%,0%,0%);fill-opacity:1;">
  <use xlink:href="#glyph1-1" x="67.299" y="93.621"/>
</g>
<g style="fill:rgb(0%,0%,0%);fill-opacity:1;">
  <use xlink:href="#glyph0-1" x="130.235" y="92.749"/>
</g>
<g style="fill:rgb(0%,0%,0%);fill-opacity:1;">
  <use xlink:href="#glyph1-2" x="133.63" y="93.621"/>
</g>
<g style="fill:rgb(0%,0%,0%);fill-opacity:1;">
  <use xlink:href="#glyph0-2" x="7.994" y="9.389"/>
</g>
<g style="fill:rgb(0%,0%,0%);fill-opacity:1;">
  <use xlink:href="#glyph0-3" x="6.63" y="59.977"/>
</g>
<g style="fill:rgb(0%,0%,0%);fill-opacity:1;">
  <use xlink:href="#glyph2-1" x="11.687" y="60.848"/>
</g>
<g style="fill:rgb(0%,0%,0%);fill-opacity:1;">
  <use xlink:href="#glyph0-1" x="178.655" y="156.245"/>
</g>
<g style="fill:rgb(0%,0%,0%);fill-opacity:1;">
  <use xlink:href="#glyph0-4" x="-0.412" y="102.351"/>
</g>
<g style="fill:rgb(0%,0%,0%);fill-opacity:1;">
  <use xlink:href="#glyph3-1" x="3.34" y="102.351"/>
</g>
<g style="fill:rgb(0%,0%,0%);fill-opacity:1;">
  <use xlink:href="#glyph0-1" x="6.357" y="102.351"/>
</g>
<g style="fill:rgb(0%,0%,0%);fill-opacity:1;">
  <use xlink:href="#glyph3-2" x="10.43" y="102.351"/>
</g>
</g>
</g>
</svg>
