<?xml version="1.0" encoding="UTF-8"?>
<svg xmlns="http://www.w3.org/2000/svg" xmlns:xlink="http://www.w3.org/1999/xlink" width="226pt" height="256pt" viewBox="0 0 163 185" version="1.1">
<defs>
<g>
<symbol overflow="visible" id="glyph0-0">
<path style="stroke:none;" d=""/>
</symbol>
<symbol overflow="visible" id="glyph0-1">
<path style="stroke:none;" d="M 1.59375 -2.453125 L 1.578125 -2.453125 C 1.640625 -2.71875 1.703125 -3 1.75 -3.296875 L 1.28125 -3.296875 L 0.578125 0 L 0.9375 0 C 0.96875 0 1.046875 0.015625 1.078125 -0.015625 C 1.09375 -0.03125 1.09375 -0.109375 1.109375 -0.140625 C 1.21875 -0.578125 1.375 -1.40625 1.46875 -1.78125 C 1.640625 -2.46875 2.390625 -2.90625 3.0625 -2.90625 L 3.15625 -3.34375 C 2.6875 -3.34375 2.265625 -3.140625 1.921875 -2.828125 C 1.828125 -2.75 1.640625 -2.5625 1.59375 -2.453125 Z M 1.59375 -2.453125 "/>
</symbol>
<symbol overflow="visible" id="glyph0-2">
<path style="stroke:none;" d="M 1.765625 -4.84375 L 0.734375 0 L 1.109375 0 C 1.140625 0 1.21875 0.015625 1.25 -0.015625 C 1.28125 -0.03125 1.28125 -0.09375 1.28125 -0.125 C 1.296875 -0.203125 1.6875 -2.046875 1.6875 -2.046875 C 1.703125 -2.109375 1.703125 -2.21875 1.78125 -2.21875 C 1.890625 -2.234375 2 -2.21875 2.109375 -2.21875 L 3.015625 -2.21875 C 3.046875 -2.21875 3.09375 -2.234375 3.125 -2.203125 C 3.15625 -2.171875 3.1875 -2.109375 3.203125 -2.0625 C 3.4375 -1.609375 4 -0.4375 4.140625 -0.15625 C 4.171875 -0.109375 4.1875 -0.03125 4.234375 -0.015625 C 4.265625 0.015625 4.328125 0 4.375 0 L 4.75 0 L 3.609375 -2.28125 C 3.765625 -2.296875 3.9375 -2.34375 4.078125 -2.40625 C 4.453125 -2.546875 4.828125 -2.75 5.078125 -3.078125 C 5.265625 -3.328125 5.375 -3.671875 5.25 -3.984375 C 5.09375 -4.515625 4.390625 -4.78125 3.828125 -4.828125 C 3.640625 -4.84375 3.4375 -4.84375 3.25 -4.84375 L 1.765625 -4.84375 Z M 1.8125 -2.609375 C 1.828125 -2.75 2.109375 -4.0625 2.171875 -4.28125 C 2.1875 -4.359375 2.171875 -4.421875 2.265625 -4.421875 L 2.953125 -4.421875 C 3.28125 -4.421875 3.59375 -4.4375 3.921875 -4.390625 C 4.34375 -4.34375 4.84375 -4.125 4.796875 -3.59375 C 4.765625 -3.171875 4.390625 -2.890625 4 -2.75 C 3.75 -2.65625 3.484375 -2.640625 3.21875 -2.609375 C 3.046875 -2.609375 2.890625 -2.609375 2.734375 -2.609375 L 1.8125 -2.609375 Z M 1.8125 -2.609375 "/>
</symbol>
<symbol overflow="visible" id="glyph0-3">
<path style="stroke:none;" d="M 1.75 -4.828125 L 0.734375 0 C 1.921875 0 3.15625 0.015625 4.3125 0 C 4.359375 -0.125 4.390625 -0.28125 4.40625 -0.4375 L 1.359375 -0.4375 L 1.75 -2.296875 C 2.640625 -2.3125 3.609375 -2.28125 4.46875 -2.3125 C 4.515625 -2.421875 4.546875 -2.578125 4.578125 -2.703125 L 1.84375 -2.703125 C 1.953125 -3.28125 2.078125 -3.84375 2.1875 -4.40625 L 5.15625 -4.40625 L 5.234375 -4.828125 L 1.75 -4.828125 Z M 1.75 -4.828125 "/>
</symbol>
<symbol overflow="visible" id="glyph1-0">
<path style="stroke:none;" d=""/>
</symbol>
<symbol overflow="visible" id="glyph1-1">
<path style="stroke:none;" d="M 0.640625 0 L 3.1875 0 C 3.484375 -0.015625 3.828125 0.03125 4.09375 -0.015625 C 4.171875 -0.203125 4.1875 -0.453125 4.234375 -0.671875 C 3.375 -0.65625 2.484375 -0.65625 1.625 -0.640625 C 1.703125 -1.03125 1.796875 -1.40625 1.875 -1.796875 L 1.9375 -2.09375 C 1.9375 -2.125 1.9375 -2.1875 1.96875 -2.203125 C 2 -2.234375 2.078125 -2.21875 2.125 -2.21875 L 4.265625 -2.21875 L 4.390625 -2.78125 L 2.078125 -2.78125 L 2.375 -4.203125 L 4.890625 -4.1875 L 5.03125 -4.8125 L 2.546875 -4.8125 C 2.265625 -4.796875 1.921875 -4.84375 1.671875 -4.796875 L 1.640625 -4.703125 L 0.640625 0 Z M 0.640625 0 "/>
</symbol>
<symbol overflow="visible" id="glyph2-0">
<path style="stroke:none;" d=""/>
</symbol>
<symbol overflow="visible" id="glyph2-1">
<path style="stroke:none;" d="M 0.734375 -4.84375 L 0.734375 -1.78125 C 0.734375 -1.640625 0.734375 -1.5 0.75 -1.359375 C 0.8125 -0.953125 1.015625 -0.625 1.28125 -0.390625 C 1.84375 0.125 2.703125 0.265625 3.390625 -0.0625 C 3.75 -0.234375 4.078125 -0.5625 4.25 -0.921875 C 4.375 -1.21875 4.390625 -1.40625 4.390625 -1.8125 L 4.390625 -4.84375 L 3.890625 -4.84375 L 3.890625 -1.765625 C 3.890625 -1.5 3.875 -1.21875 3.75 -0.96875 C 3.671875 -0.8125 3.5625 -0.65625 3.40625 -0.546875 C 2.8125 -0.109375 1.765625 -0.28125 1.4375 -0.875 C 1.28125 -1.15625 1.265625 -1.46875 1.265625 -1.78125 L 1.265625 -4.84375 L 0.734375 -4.84375 Z M 0.734375 -4.84375 "/>
</symbol>
<symbol overflow="visible" id="glyph2-2">
<path style="stroke:none;" d="M 0.75 -4.84375 L 0.75 0 L 1.234375 0 L 1.234375 -4.40625 L 1.234375 -4.40625 L 1.4375 -4.0625 L 3.015625 -1.3125 C 3.265625 -0.875 3.5 -0.4375 3.75 -0.015625 C 3.96875 0.03125 4.25 -0.015625 4.484375 0 L 4.484375 -4.84375 L 4 -4.84375 L 4 -0.421875 L 2.1875 -3.59375 C 1.953125 -4 1.734375 -4.4375 1.484375 -4.828125 C 1.28125 -4.859375 0.984375 -4.828125 0.75 -4.84375 Z M 0.75 -4.84375 "/>
</symbol>
<symbol overflow="visible" id="glyph2-3">
<path style="stroke:none;" d="M 0.734375 -4.84375 L 0.734375 0 L 1.265625 0 L 1.265625 -4.84375 L 0.734375 -4.84375 Z M 0.734375 -4.84375 "/>
</symbol>
<symbol overflow="visible" id="glyph2-4">
<path style="stroke:none;" d="M 0.734375 -4.828125 L 0.734375 0 L 1.265625 0 L 1.265625 -2.203125 L 3.78125 -2.203125 L 3.78125 -2.625 L 1.265625 -2.625 L 1.265625 -4.40625 L 4.109375 -4.40625 L 4.109375 -4.828125 L 0.734375 -4.828125 Z M 0.734375 -4.828125 "/>
</symbol>
<symbol overflow="visible" id="glyph2-5">
<path style="stroke:none;" d="M 1 -4.03125 C 0.265625 -3.125 0.234375 -1.75 0.96875 -0.84375 C 1.28125 -0.4375 1.703125 -0.140625 2.234375 0.015625 C 3.71875 0.421875 4.921875 -0.546875 5.25 -1.65625 C 5.53125 -2.578125 5.25 -3.640625 4.53125 -4.3125 C 4.171875 -4.640625 3.65625 -4.90625 3.046875 -4.9375 C 2.125 -5.015625 1.421875 -4.53125 1 -4.03125 Z M 3.484375 -4.453125 C 3.96875 -4.296875 4.359375 -3.96875 4.59375 -3.53125 C 4.734375 -3.265625 4.796875 -2.96875 4.828125 -2.671875 C 4.890625 -1.84375 4.546875 -0.9375 3.796875 -0.53125 C 3.421875 -0.328125 2.96875 -0.234375 2.484375 -0.34375 C 2.15625 -0.421875 1.859375 -0.59375 1.640625 -0.796875 C 1.21875 -1.1875 1 -1.765625 0.96875 -2.328125 C 0.90625 -3.34375 1.421875 -4.109375 2.140625 -4.390625 C 2.5625 -4.5625 3.03125 -4.59375 3.484375 -4.453125 Z M 3.484375 -4.453125 "/>
</symbol>
<symbol overflow="visible" id="glyph2-6">
<path style="stroke:none;" d="M 0.734375 -4.84375 L 0.734375 0 L 1.25 0 L 1.25 -2.21875 L 2.28125 -2.21875 C 2.421875 -2.21875 2.546875 -2.234375 2.65625 -2.203125 C 2.78125 -2.03125 2.90625 -1.859375 3.03125 -1.671875 C 3.421875 -1.125 3.8125 -0.5625 4.21875 -0.015625 C 4.390625 0 4.578125 0 4.75 0 L 4.46875 -0.390625 L 3.125 -2.28125 C 3.25 -2.296875 3.390625 -2.328125 3.515625 -2.390625 C 4.015625 -2.5625 4.578125 -2.96875 4.53125 -3.5625 C 4.515625 -3.796875 4.453125 -3.9375 4.328125 -4.109375 C 4.015625 -4.515625 3.484375 -4.765625 2.875 -4.828125 C 2.625 -4.84375 2.390625 -4.84375 2.125 -4.84375 L 0.734375 -4.84375 Z M 1.25 -2.609375 L 1.25 -4.421875 L 2.296875 -4.421875 C 2.640625 -4.421875 3 -4.421875 3.34375 -4.328125 C 3.671875 -4.203125 4 -3.96875 4.046875 -3.59375 C 4.0625 -3.359375 3.96875 -3.140625 3.8125 -2.984375 C 3.6875 -2.875 3.546875 -2.796875 3.390625 -2.734375 C 3.046875 -2.609375 2.6875 -2.609375 2.328125 -2.609375 L 1.25 -2.609375 Z M 1.25 -2.609375 "/>
</symbol>
<symbol overflow="visible" id="glyph2-7">
<path style="stroke:none;" d="M 0.765625 -4.84375 L 0.765625 0 L 1.234375 0 L 1.234375 -4.328125 L 1.25 -4.328125 C 1.28125 -4.1875 1.359375 -4.0625 1.40625 -3.921875 C 1.5 -3.703125 2.96875 -0.265625 3 -0.1875 C 3.046875 -0.125 3.015625 -0.109375 3.15625 -0.109375 L 3.359375 -0.109375 C 3.390625 -0.109375 3.421875 -0.109375 3.46875 -0.109375 C 3.5 -0.125 3.5 -0.15625 3.515625 -0.1875 C 3.546875 -0.234375 3.5625 -0.296875 3.59375 -0.359375 L 3.921875 -1.125 C 4.015625 -1.359375 5.265625 -4.234375 5.296875 -4.328125 L 5.296875 -4.328125 L 5.296875 0 L 5.78125 0 L 5.78125 -4.84375 C 5.546875 -4.828125 5.265625 -4.859375 5.078125 -4.828125 L 5.03125 -4.734375 L 3.25 -0.625 L 1.9375 -3.671875 C 1.765625 -4.0625 1.625 -4.453125 1.4375 -4.828125 C 1.25 -4.859375 0.96875 -4.828125 0.765625 -4.84375 Z M 0.765625 -4.84375 "/>
</symbol>
<symbol overflow="visible" id="glyph2-8">
<path style="stroke:none;" d="M 4.515625 -0.796875 C 4.125 -0.578125 3.875 -0.375 3.296875 -0.359375 C 3.09375 -0.359375 2.875 -0.34375 2.671875 -0.390625 C 2.109375 -0.5 1.640625 -0.890625 1.375 -1.390625 C 0.890625 -2.28125 1.125 -3.5 1.953125 -4.125 C 2.09375 -4.21875 2.234375 -4.3125 2.390625 -4.375 C 2.859375 -4.53125 3.421875 -4.515625 3.890625 -4.34375 C 4.0625 -4.265625 4.21875 -4.1875 4.375 -4.109375 C 4.40625 -4.28125 4.453125 -4.46875 4.46875 -4.640625 C 4.328125 -4.703125 4.171875 -4.75 4 -4.78125 C 3.671875 -4.859375 3.171875 -4.921875 2.796875 -4.890625 C 2.078125 -4.828125 1.46875 -4.421875 1.109375 -3.9375 C 0.640625 -3.34375 0.484375 -2.546875 0.65625 -1.8125 C 0.953125 -0.6875 1.90625 0.125 3.28125 0.046875 C 3.734375 0.03125 4.015625 -0.0625 4.375 -0.234375 C 4.40625 -0.265625 4.53125 -0.3125 4.546875 -0.34375 C 4.5625 -0.390625 4.515625 -0.6875 4.515625 -0.796875 Z M 4.515625 -0.796875 "/>
</symbol>
<symbol overflow="visible" id="glyph2-9">
<path style="stroke:none;" d="M 0.734375 -4.84375 L 0.734375 0 L 1.265625 0 L 1.265625 -2.3125 L 3.984375 -2.3125 L 3.984375 0 L 4.515625 0 L 4.515625 -4.84375 L 3.984375 -4.84375 L 3.984375 -2.71875 L 1.265625 -2.71875 L 1.265625 -4.84375 L 0.734375 -4.84375 Z M 0.734375 -4.84375 "/>
</symbol>
<symbol overflow="visible" id="glyph2-10">
<path style="stroke:none;" d="M 0.21875 0 L 0.578125 0 C 0.625 0 0.6875 0.015625 0.71875 -0.015625 C 0.75 -0.03125 0.75 -0.0625 0.765625 -0.09375 C 0.875 -0.34375 1.21875 -1.203125 1.265625 -1.296875 C 1.28125 -1.359375 1.296875 -1.390625 1.375 -1.390625 L 3.046875 -1.390625 C 3.234375 -1.390625 3.421875 -1.40625 3.609375 -1.390625 C 3.6875 -1.390625 3.703125 -1.296875 3.734375 -1.234375 C 3.8125 -1.03125 4.1875 -0.125 4.203125 -0.0625 C 4.234375 0.015625 4.296875 0 4.40625 0 L 4.796875 0 C 4.625 -0.453125 4.4375 -0.890625 4.25 -1.34375 L 2.8125 -4.828125 C 2.796875 -4.859375 2.796875 -4.90625 2.765625 -4.90625 C 2.71875 -4.90625 2.671875 -4.90625 2.625 -4.90625 L 2.375 -4.90625 C 2.328125 -4.90625 2.265625 -4.921875 2.234375 -4.890625 C 2.203125 -4.875 2.1875 -4.84375 2.1875 -4.8125 L 0.765625 -1.34375 L 0.40625 -0.484375 C 0.34375 -0.328125 0.265625 -0.171875 0.21875 0 Z M 2.484375 -4.328125 C 2.796875 -3.46875 3.15625 -2.640625 3.5 -1.8125 L 1.46875 -1.8125 C 1.796875 -2.640625 2.15625 -3.46875 2.46875 -4.328125 L 2.484375 -4.328125 Z M 2.484375 -4.328125 "/>
</symbol>
<symbol overflow="visible" id="glyph2-11">
<path style="stroke:none;" d="M 4.640625 -2.296875 L 3.015625 -2.296875 L 3.015625 -1.875 L 4.140625 -1.875 L 4.140625 -0.65625 C 4.140625 -0.546875 4.125 -0.515625 4 -0.5 C 3.65625 -0.390625 3.171875 -0.328125 2.78125 -0.375 C 2.3125 -0.4375 1.921875 -0.6875 1.65625 -0.984375 C 0.953125 -1.796875 0.953125 -3.078125 1.671875 -3.875 C 2.03125 -4.25 2.515625 -4.515625 3.1875 -4.46875 C 3.5 -4.453125 3.796875 -4.390625 4.078125 -4.265625 C 4.21875 -4.1875 4.34375 -4.09375 4.484375 -4 C 4.515625 -4.1875 4.5625 -4.375 4.578125 -4.546875 C 4.0625 -4.78125 3.703125 -4.890625 2.96875 -4.890625 C 2.3125 -4.890625 1.75 -4.578125 1.375 -4.25 C 1.234375 -4.125 1.125 -3.96875 1.015625 -3.8125 C 0.46875 -2.984375 0.453125 -1.859375 1.015625 -1.03125 C 1.28125 -0.640625 1.640625 -0.3125 2.109375 -0.125 C 2.734375 0.125 3.421875 0.078125 4.0625 -0.078125 C 4.125 -0.09375 4.625 -0.234375 4.640625 -0.296875 C 4.640625 -0.328125 4.640625 -0.34375 4.640625 -0.375 L 4.640625 -2.296875 Z M 4.640625 -2.296875 "/>
</symbol>
<symbol overflow="visible" id="glyph2-12">
<path style="stroke:none;" d="M 0.734375 -4.828125 L 0.734375 0 L 4.328125 0 L 4.328125 -0.4375 L 1.265625 -0.4375 L 1.265625 -2.296875 L 4 -2.296875 L 4 -2.703125 L 1.265625 -2.703125 L 1.265625 -4.40625 L 4.203125 -4.40625 L 4.203125 -4.828125 L 0.734375 -4.828125 Z M 0.734375 -4.828125 "/>
</symbol>
<symbol overflow="visible" id="glyph2-13">
<path style="stroke:none;" d="M 0.734375 -4.84375 L 0.734375 0 L 2.265625 0 C 2.890625 0 3.203125 0.03125 3.71875 -0.21875 C 4.359375 -0.515625 4.875 -1.109375 5.03125 -1.875 C 5.234375 -2.84375 4.828125 -3.90625 4 -4.453125 C 3.703125 -4.640625 3.359375 -4.78125 3 -4.828125 C 2.71875 -4.84375 2.4375 -4.84375 2.15625 -4.84375 L 0.734375 -4.84375 Z M 1.25 -0.40625 L 1.25 -4.421875 L 2.234375 -4.421875 C 2.421875 -4.421875 2.609375 -4.4375 2.796875 -4.421875 C 3.296875 -4.375 3.71875 -4.171875 4.015625 -3.875 C 4.375 -3.5 4.53125 -3 4.5625 -2.5 C 4.59375 -1.90625 4.40625 -1.296875 3.96875 -0.890625 C 3.6875 -0.640625 3.25 -0.453125 2.796875 -0.421875 C 2.609375 -0.40625 2.4375 -0.40625 2.25 -0.40625 L 1.25 -0.40625 Z M 1.25 -0.40625 "/>
</symbol>
<symbol overflow="visible" id="glyph2-14">
<path style="stroke:none;" d="M 0.4375 -0.90625 C 0.421875 -0.84375 0.328125 -0.40625 0.34375 -0.375 C 0.359375 -0.359375 0.390625 -0.34375 0.40625 -0.328125 L 0.578125 -0.25 C 1.234375 0.09375 2.359375 0.296875 3.109375 -0.125 C 3.5 -0.328125 3.875 -0.765625 3.875 -1.296875 C 3.875 -2.015625 3.296875 -2.453125 2.796875 -2.625 C 2.65625 -2.671875 2.140625 -2.78125 2.046875 -2.796875 C 1.6875 -2.875 1.296875 -2.96875 1.046875 -3.265625 C 1.015625 -3.3125 0.984375 -3.359375 0.96875 -3.421875 C 0.765625 -3.875 1.125 -4.265625 1.546875 -4.421875 C 2 -4.59375 2.578125 -4.546875 2.984375 -4.375 C 3.09375 -4.328125 3.21875 -4.265625 3.3125 -4.1875 C 3.375 -4.15625 3.4375 -4.109375 3.5 -4.0625 C 3.53125 -4.1875 3.546875 -4.328125 3.5625 -4.453125 C 3.578125 -4.546875 3.625 -4.609375 3.515625 -4.640625 L 3.34375 -4.71875 C 2.578125 -5.03125 1.546875 -5.078125 0.890625 -4.515625 C 0.796875 -4.453125 0.71875 -4.359375 0.640625 -4.265625 C 0.4375 -3.984375 0.34375 -3.546875 0.546875 -3.15625 C 0.71875 -2.8125 1.015625 -2.578125 1.390625 -2.4375 C 1.546875 -2.390625 1.6875 -2.359375 1.84375 -2.328125 C 2 -2.28125 2.5625 -2.171875 2.65625 -2.125 C 2.921875 -2.03125 3.1875 -1.859375 3.3125 -1.59375 C 3.375 -1.484375 3.390625 -1.375 3.390625 -1.203125 C 3.34375 -0.78125 2.96875 -0.5 2.59375 -0.390625 C 1.984375 -0.21875 1.296875 -0.40625 0.84375 -0.640625 C 0.703125 -0.71875 0.578125 -0.828125 0.4375 -0.90625 Z M 0.4375 -0.90625 "/>
</symbol>
<symbol overflow="visible" id="glyph2-15">
<path style="stroke:none;" d="M 0.28125 -4.8125 L 0.28125 -4.40625 L 2.421875 -4.40625 L 2.421875 0 L 2.953125 0 L 2.953125 -4.40625 L 5.078125 -4.40625 L 5.078125 -4.8125 L 0.28125 -4.8125 Z M 0.28125 -4.8125 "/>
</symbol>
<symbol overflow="visible" id="glyph2-16">
<path style="stroke:none;" d="M 0.015625 -4.84375 L 2.234375 -1.9375 C 2.265625 -1.3125 2.234375 -0.640625 2.25 0 L 2.765625 0 C 2.765625 -0.640625 2.75 -1.296875 2.765625 -1.921875 L 2.828125 -2.015625 L 4.984375 -4.84375 C 4.78125 -4.84375 4.578125 -4.84375 4.390625 -4.828125 L 4.328125 -4.765625 L 2.984375 -3.03125 C 2.828125 -2.828125 2.671875 -2.625 2.515625 -2.421875 L 2.34375 -2.65625 L 2.078125 -3.015625 C 1.609375 -3.609375 1.15625 -4.234375 0.671875 -4.828125 C 0.484375 -4.859375 0.234375 -4.828125 0.015625 -4.84375 Z M 0.015625 -4.84375 "/>
</symbol>
<symbol overflow="visible" id="glyph2-17">
<path style="stroke:none;" d="M 0.78125 -4.21875 L 0.78125 -3.828125 C 1.125 -3.828125 1.46875 -3.890625 1.78125 -4.03125 L 1.78125 -0.390625 L 0.8125 -0.390625 L 0.8125 0 L 3.25 0 L 3.25 -0.390625 L 2.28125 -0.390625 L 2.28125 -4.6875 C 2.25 -4.6875 2.1875 -4.6875 2.15625 -4.671875 C 2.109375 -4.65625 2.0625 -4.59375 2.015625 -4.5625 C 1.734375 -4.328125 1.21875 -4.21875 0.78125 -4.21875 Z M 0.78125 -4.21875 "/>
</symbol>
<symbol overflow="visible" id="glyph3-0">
<path style="stroke:none;" d=""/>
</symbol>
<symbol overflow="visible" id="glyph3-1">
<path style="stroke:none;" d="M 3.359375 -1.09375 C 3.40625 -1.015625 3.453125 -0.9375 3.5 -0.859375 C 3.828125 -0.390625 4.296875 -0.015625 4.875 0.0625 C 5.078125 0.09375 5.125 0.0625 5.34375 0.046875 L 5.34375 -0.28125 C 5.28125 -0.265625 5.21875 -0.265625 5.15625 -0.265625 C 5.078125 -0.265625 5 -0.28125 4.921875 -0.296875 C 4.484375 -0.421875 4.1875 -0.828125 3.9375 -1.171875 L 3.703125 -1.5 C 3.671875 -1.546875 3.625 -1.59375 3.625 -1.640625 C 3.625 -1.6875 3.671875 -1.734375 3.6875 -1.78125 C 3.953125 -2.265625 4.40625 -2.75 5 -2.828125 C 5.109375 -2.84375 5.21875 -2.828125 5.34375 -2.8125 L 5.34375 -3.046875 C 4.796875 -3.15625 4.265625 -2.921875 3.875 -2.53125 C 3.6875 -2.34375 3.5625 -2.125 3.421875 -1.921875 C 3.375 -2 3.328125 -2.0625 3.28125 -2.125 C 3.125 -2.34375 2.953125 -2.546875 2.734375 -2.71875 C 2.359375 -3 1.734375 -3.21875 1.203125 -2.953125 C 0.578125 -2.640625 0.171875 -1.6875 0.546875 -0.78125 C 0.765625 -0.234375 1.265625 0.1875 2.015625 0.03125 C 2.65625 -0.109375 3.0625 -0.578125 3.359375 -1.09375 Z M 2.59375 -2.171875 C 2.765625 -1.96875 3.09375 -1.484375 3.09375 -1.484375 C 3.109375 -1.453125 3.15625 -1.40625 3.15625 -1.359375 C 3.15625 -1.3125 3.125 -1.265625 3.09375 -1.234375 C 2.890625 -0.8125 2.515625 -0.421875 2.109375 -0.265625 C 1.96875 -0.203125 1.828125 -0.1875 1.6875 -0.171875 C 1.4375 -0.15625 1.1875 -0.265625 1 -0.4375 C 0.65625 -0.765625 0.46875 -1.515625 0.734375 -2.09375 C 0.84375 -2.34375 1.03125 -2.578125 1.296875 -2.671875 C 1.84375 -2.875 2.265625 -2.5625 2.59375 -2.171875 Z M 2.59375 -2.171875 "/>
</symbol>
<symbol overflow="visible" id="glyph4-0">
<path style="stroke:none;" d=""/>
</symbol>
<symbol overflow="visible" id="glyph4-1">
<path style="stroke:none;" d="M 0.4375 -2.28125 C 0.515625 -2.578125 0.65625 -2.890625 0.953125 -3 C 1.078125 -3.046875 1.203125 -3.0625 1.328125 -3.046875 C 1.578125 -3.03125 1.84375 -2.921875 2 -2.703125 C 2.109375 -2.5625 2.140625 -2.375 2.109375 -2.203125 C 2.046875 -1.71875 1.625 -1.421875 1.28125 -1.15625 C 1 -0.9375 0.421875 -0.421875 0.421875 -0.421875 L 0.328125 -0.34375 C 0.28125 -0.296875 0.28125 -0.296875 0.28125 -0.1875 L 0.28125 0 L 2.5 0 L 2.5 -0.3125 L 0.59375 -0.3125 C 0.796875 -0.484375 1.359375 -0.953125 1.53125 -1.078125 C 1.84375 -1.3125 2.1875 -1.546875 2.390625 -1.890625 C 2.609375 -2.28125 2.46875 -2.8125 2.125 -3.078125 C 1.75 -3.40625 1.046875 -3.453125 0.625 -3.140625 C 0.46875 -3.03125 0.359375 -2.84375 0.28125 -2.671875 C 0.265625 -2.625 0.234375 -2.578125 0.234375 -2.546875 C 0.25 -2.515625 0.28125 -2.484375 0.296875 -2.46875 C 0.34375 -2.40625 0.390625 -2.34375 0.4375 -2.28125 Z M 0.4375 -2.28125 "/>
</symbol>
</g>
<clipPath id="clip1">
  <path d="M -224 667 L 388 667 L 388 -125 L -224 -125 L -224 667 Z M -224 667 "/>
</clipPath>
<clipPath id="clip2">
  <path d="M 0.125 180.800781 L 163.125 180.800781 L 163.125 -0.199219 L 0.125 -0.199219 L 0.125 180.800781 Z M 0.125 180.800781 "/>
</clipPath>
<clipPath id="clip3">
  <path d="M 91.480469 45.800781 C 91.480469 33.773438 86.699219 22.238281 78.191406 13.730469 C 69.6875 5.226563 58.152344 0.445313 46.121094 0.445313 C 34.09375 0.445313 22.558594 5.226563 14.054688 13.730469 C 5.546875 22.234375 0.769531 33.769531 0.769531 45.800781 C 0.769531 57.828125 5.546875 69.367188 14.054688 77.871094 C 22.558594 86.375 34.09375 91.15625 46.121094 91.15625 C 58.152344 91.15625 69.6875 86.378906 78.191406 77.871094 C 86.695313 69.367188 91.480469 57.832031 91.480469 45.800781 "/>
</clipPath>
<clipPath id="clip4">
  <path d="M -224 667 L 388 667 L 388 -125 L -224 -125 L -224 667 Z M -224 667 "/>
</clipPath>
<clipPath id="clip5">
  <path d="M 0.125 180.800781 L 163.125 180.800781 L 163.125 -0.199219 L 0.125 -0.199219 L 0.125 180.800781 Z M 0.125 180.800781 "/>
</clipPath>
<clipPath id="clip6">
  <path d="M 0.425781 91.503906 L 91.824219 91.503906 L 91.824219 0.101563 L 0.425781 0.101563 "/>
</clipPath>
<clipPath id="clip7">
  <path d="M -224 667 L 388 667 L 388 -125 L -224 -125 L -224 667 Z M -224 667 "/>
</clipPath>
<clipPath id="clip8">
  <path d="M 0.125 180.800781 L 163.125 180.800781 L 163.125 -0.199219 L 0.125 -0.199219 L 0.125 180.800781 Z M 0.125 180.800781 "/>
</clipPath>
<clipPath id="clip9">
  <path d="M -224 667 L 388 667 L 388 -125 L -224 -125 L -224 667 Z M -224 667 "/>
</clipPath>
</defs>
<g id="surface0">
<g clip-path="url(#clip1)" clip-rule="nonzero">
<g clip-path="url(#clip2)" clip-rule="nonzero">
<g clip-path="url(#clip3)" clip-rule="nonzero">
<path style="fill:none;stroke-width:3.685;stroke-linecap:butt;stroke-linejoin:miter;stroke:rgb(0%,0%,0%);stroke-opacity:1;stroke-miterlimit:4;" d="M -66.70875 823.293438 L 86.72875 976.730938 " transform="matrix(0.1,0,0,-0.1,0.124,180.802)"/>
<path style="fill:none;stroke-width:3.685;stroke-linecap:butt;stroke-linejoin:miter;stroke:rgb(0%,0%,0%);stroke-opacity:1;stroke-miterlimit:4;" d="M 23.29125 823.293438 L 176.72875 976.730938 " transform="matrix(0.1,0,0,-0.1,0.124,180.802)"/>
<path style="fill:none;stroke-width:3.685;stroke-linecap:butt;stroke-linejoin:miter;stroke:rgb(0%,0%,0%);stroke-opacity:1;stroke-miterlimit:4;" d="M 113.29125 823.293438 L 266.72875 976.730938 " transform="matrix(0.1,0,0,-0.1,0.124,180.802)"/>
<path style="fill:none;stroke-width:3.685;stroke-linecap:butt;stroke-linejoin:miter;stroke:rgb(0%,0%,0%);stroke-opacity:1;stroke-miterlimit:4;" d="M 203.29125 823.293438 L 356.72875 976.730938 " transform="matrix(0.1,0,0,-0.1,0.124,180.802)"/>
<path style="fill:none;stroke-width:3.685;stroke-linecap:butt;stroke-linejoin:miter;stroke:rgb(0%,0%,0%);stroke-opacity:1;stroke-miterlimit:4;" d="M 293.29125 823.293438 L 446.72875 976.730938 " transform="matrix(0.1,0,0,-0.1,0.124,180.802)"/>
<path style="fill:none;stroke-width:3.685;stroke-linecap:butt;stroke-linejoin:miter;stroke:rgb(0%,0%,0%);stroke-opacity:1;stroke-miterlimit:4;" d="M 383.29125 823.293438 L 536.72875 976.730938 " transform="matrix(0.1,0,0,-0.1,0.124,180.802)"/>
<path style="fill:none;stroke-width:3.685;stroke-linecap:butt;stroke-linejoin:miter;stroke:rgb(0%,0%,0%);stroke-opacity:1;stroke-miterlimit:4;" d="M 473.29125 823.293438 L 626.72875 976.730938 " transform="matrix(0.1,0,0,-0.1,0.124,180.802)"/>
<path style="fill:none;stroke-width:3.685;stroke-linecap:butt;stroke-linejoin:miter;stroke:rgb(0%,0%,0%);stroke-opacity:1;stroke-miterlimit:4;" d="M 563.29125 823.293438 L 716.72875 976.730938 " transform="matrix(0.1,0,0,-0.1,0.124,180.802)"/>
<path style="fill:none;stroke-width:3.685;stroke-linecap:butt;stroke-linejoin:miter;stroke:rgb(0%,0%,0%);stroke-opacity:1;stroke-miterlimit:4;" d="M 653.29125 823.293438 L 806.72875 976.730938 " transform="matrix(0.1,0,0,-0.1,0.124,180.802)"/>
<path style="fill:none;stroke-width:3.685;stroke-linecap:butt;stroke-linejoin:miter;stroke:rgb(0%,0%,0%);stroke-opacity:1;stroke-miterlimit:4;" d="M 743.29125 823.293438 L 896.72875 976.730938 " transform="matrix(0.1,0,0,-0.1,0.124,180.802)"/>
<path style="fill:none;stroke-width:3.685;stroke-linecap:butt;stroke-linejoin:miter;stroke:rgb(0%,0%,0%);stroke-opacity:1;stroke-miterlimit:4;" d="M 833.29125 823.293438 L 986.72875 976.730938 " transform="matrix(0.1,0,0,-0.1,0.124,180.802)"/>
<path style="fill:none;stroke-width:3.685;stroke-linecap:butt;stroke-linejoin:miter;stroke:rgb(0%,0%,0%);stroke-opacity:1;stroke-miterlimit:4;" d="M -66.70875 913.293438 L 86.72875 1066.730938 " transform="matrix(0.1,0,0,-0.1,0.124,180.802)"/>
<path style="fill:none;stroke-width:3.685;stroke-linecap:butt;stroke-linejoin:miter;stroke:rgb(0%,0%,0%);stroke-opacity:1;stroke-miterlimit:4;" d="M 23.29125 913.293438 L 176.72875 1066.730938 " transform="matrix(0.1,0,0,-0.1,0.124,180.802)"/>
<path style="fill:none;stroke-width:3.685;stroke-linecap:butt;stroke-linejoin:miter;stroke:rgb(0%,0%,0%);stroke-opacity:1;stroke-miterlimit:4;" d="M 113.29125 913.293438 L 266.72875 1066.730938 " transform="matrix(0.1,0,0,-0.1,0.124,180.802)"/>
<path style="fill:none;stroke-width:3.685;stroke-linecap:butt;stroke-linejoin:miter;stroke:rgb(0%,0%,0%);stroke-opacity:1;stroke-miterlimit:4;" d="M 203.29125 913.293438 L 356.72875 1066.730938 " transform="matrix(0.1,0,0,-0.1,0.124,180.802)"/>
<path style="fill:none;stroke-width:3.685;stroke-linecap:butt;stroke-linejoin:miter;stroke:rgb(0%,0%,0%);stroke-opacity:1;stroke-miterlimit:4;" d="M 293.29125 913.293438 L 446.72875 1066.730938 " transform="matrix(0.1,0,0,-0.1,0.124,180.802)"/>
<path style="fill:none;stroke-width:3.685;stroke-linecap:butt;stroke-linejoin:miter;stroke:rgb(0%,0%,0%);stroke-opacity:1;stroke-miterlimit:4;" d="M 383.29125 913.293438 L 536.72875 1066.730938 " transform="matrix(0.1,0,0,-0.1,0.124,180.802)"/>
<path style="fill:none;stroke-width:3.685;stroke-linecap:butt;stroke-linejoin:miter;stroke:rgb(0%,0%,0%);stroke-opacity:1;stroke-miterlimit:4;" d="M 473.29125 913.293438 L 626.72875 1066.730938 " transform="matrix(0.1,0,0,-0.1,0.124,180.802)"/>
<path style="fill:none;stroke-width:3.685;stroke-linecap:butt;stroke-linejoin:miter;stroke:rgb(0%,0%,0%);stroke-opacity:1;stroke-miterlimit:4;" d="M 563.29125 913.293438 L 716.72875 1066.730938 " transform="matrix(0.1,0,0,-0.1,0.124,180.802)"/>
<path style="fill:none;stroke-width:3.685;stroke-linecap:butt;stroke-linejoin:miter;stroke:rgb(0%,0%,0%);stroke-opacity:1;stroke-miterlimit:4;" d="M 653.29125 913.293438 L 806.72875 1066.730938 " transform="matrix(0.1,0,0,-0.1,0.124,180.802)"/>
<path style="fill:none;stroke-width:3.685;stroke-linecap:butt;stroke-linejoin:miter;stroke:rgb(0%,0%,0%);stroke-opacity:1;stroke-miterlimit:4;" d="M 743.29125 913.293438 L 896.72875 1066.730938 " transform="matrix(0.1,0,0,-0.1,0.124,180.802)"/>
<path style="fill:none;stroke-width:3.685;stroke-linecap:butt;stroke-linejoin:miter;stroke:rgb(0%,0%,0%);stroke-opacity:1;stroke-miterlimit:4;" d="M 833.29125 913.293438 L 986.72875 1066.730938 " transform="matrix(0.1,0,0,-0.1,0.124,180.802)"/>
<path style="fill:none;stroke-width:3.685;stroke-linecap:butt;stroke-linejoin:miter;stroke:rgb(0%,0%,0%);stroke-opacity:1;stroke-miterlimit:4;" d="M -66.70875 1003.293438 L 86.72875 1156.730938 " transform="matrix(0.1,0,0,-0.1,0.124,180.802)"/>
<path style="fill:none;stroke-width:3.685;stroke-linecap:butt;stroke-linejoin:miter;stroke:rgb(0%,0%,0%);stroke-opacity:1;stroke-miterlimit:4;" d="M 23.29125 1003.293438 L 176.72875 1156.730938 " transform="matrix(0.1,0,0,-0.1,0.124,180.802)"/>
<path style="fill:none;stroke-width:3.685;stroke-linecap:butt;stroke-linejoin:miter;stroke:rgb(0%,0%,0%);stroke-opacity:1;stroke-miterlimit:4;" d="M 113.29125 1003.293438 L 266.72875 1156.730938 " transform="matrix(0.1,0,0,-0.1,0.124,180.802)"/>
<path style="fill:none;stroke-width:3.685;stroke-linecap:butt;stroke-linejoin:miter;stroke:rgb(0%,0%,0%);stroke-opacity:1;stroke-miterlimit:4;" d="M 203.29125 1003.293438 L 356.72875 1156.730938 " transform="matrix(0.1,0,0,-0.1,0.124,180.802)"/>
<path style="fill:none;stroke-width:3.685;stroke-linecap:butt;stroke-linejoin:miter;stroke:rgb(0%,0%,0%);stroke-opacity:1;stroke-miterlimit:4;" d="M 293.29125 1003.293438 L 446.72875 1156.730938 " transform="matrix(0.1,0,0,-0.1,0.124,180.802)"/>
<path style="fill:none;stroke-width:3.685;stroke-linecap:butt;stroke-linejoin:miter;stroke:rgb(0%,0%,0%);stroke-opacity:1;stroke-miterlimit:4;" d="M 383.29125 1003.293438 L 536.72875 1156.730938 " transform="matrix(0.1,0,0,-0.1,0.124,180.802)"/>
<path style="fill:none;stroke-width:3.685;stroke-linecap:butt;stroke-linejoin:miter;stroke:rgb(0%,0%,0%);stroke-opacity:1;stroke-miterlimit:4;" d="M 473.29125 1003.293438 L 626.72875 1156.730938 " transform="matrix(0.1,0,0,-0.1,0.124,180.802)"/>
<path style="fill:none;stroke-width:3.685;stroke-linecap:butt;stroke-linejoin:miter;stroke:rgb(0%,0%,0%);stroke-opacity:1;stroke-miterlimit:4;" d="M 563.29125 1003.293438 L 716.72875 1156.730938 " transform="matrix(0.1,0,0,-0.1,0.124,180.802)"/>
<path style="fill:none;stroke-width:3.685;stroke-linecap:butt;stroke-linejoin:miter;stroke:rgb(0%,0%,0%);stroke-opacity:1;stroke-miterlimit:4;" d="M 653.29125 1003.293438 L 806.72875 1156.730938 " transform="matrix(0.1,0,0,-0.1,0.124,180.802)"/>
<path style="fill:none;stroke-width:3.685;stroke-linecap:butt;stroke-linejoin:miter;stroke:rgb(0%,0%,0%);stroke-opacity:1;stroke-miterlimit:4;" d="M 743.29125 1003.293438 L 896.72875 1156.730938 " transform="matrix(0.1,0,0,-0.1,0.124,180.802)"/>
<path style="fill:none;stroke-width:3.685;stroke-linecap:butt;stroke-linejoin:miter;stroke:rgb(0%,0%,0%);stroke-opacity:1;stroke-miterlimit:4;" d="M 833.29125 1003.293438 L 986.72875 1156.730938 " transform="matrix(0.1,0,0,-0.1,0.124,180.802)"/>
<path style="fill:none;stroke-width:3.685;stroke-linecap:butt;stroke-linejoin:miter;stroke:rgb(0%,0%,0%);stroke-opacity:1;stroke-miterlimit:4;" d="M -66.70875 1093.293438 L 86.72875 1246.730938 " transform="matrix(0.1,0,0,-0.1,0.124,180.802)"/>
<path style="fill:none;stroke-width:3.685;stroke-linecap:butt;stroke-linejoin:miter;stroke:rgb(0%,0%,0%);stroke-opacity:1;stroke-miterlimit:4;" d="M 23.29125 1093.293438 L 176.72875 1246.730938 " transform="matrix(0.1,0,0,-0.1,0.124,180.802)"/>
<path style="fill:none;stroke-width:3.685;stroke-linecap:butt;stroke-linejoin:miter;stroke:rgb(0%,0%,0%);stroke-opacity:1;stroke-miterlimit:4;" d="M 113.29125 1093.293438 L 266.72875 1246.730938 " transform="matrix(0.1,0,0,-0.1,0.124,180.802)"/>
<path style="fill:none;stroke-width:3.685;stroke-linecap:butt;stroke-linejoin:miter;stroke:rgb(0%,0%,0%);stroke-opacity:1;stroke-miterlimit:4;" d="M 203.29125 1093.293438 L 356.72875 1246.730938 " transform="matrix(0.1,0,0,-0.1,0.124,180.802)"/>
<path style="fill:none;stroke-width:3.685;stroke-linecap:butt;stroke-linejoin:miter;stroke:rgb(0%,0%,0%);stroke-opacity:1;stroke-miterlimit:4;" d="M 293.29125 1093.293438 L 446.72875 1246.730938 " transform="matrix(0.1,0,0,-0.1,0.124,180.802)"/>
<path style="fill:none;stroke-width:3.685;stroke-linecap:butt;stroke-linejoin:miter;stroke:rgb(0%,0%,0%);stroke-opacity:1;stroke-miterlimit:4;" d="M 383.29125 1093.293438 L 536.72875 1246.730938 " transform="matrix(0.1,0,0,-0.1,0.124,180.802)"/>
<path style="fill:none;stroke-width:3.685;stroke-linecap:butt;stroke-linejoin:miter;stroke:rgb(0%,0%,0%);stroke-opacity:1;stroke-miterlimit:4;" d="M 473.29125 1093.293438 L 626.72875 1246.730938 " transform="matrix(0.1,0,0,-0.1,0.124,180.802)"/>
<path style="fill:none;stroke-width:3.685;stroke-linecap:butt;stroke-linejoin:miter;stroke:rgb(0%,0%,0%);stroke-opacity:1;stroke-miterlimit:4;" d="M 563.29125 1093.293438 L 716.72875 1246.730938 " transform="matrix(0.1,0,0,-0.1,0.124,180.802)"/>
<path style="fill:none;stroke-width:3.685;stroke-linecap:butt;stroke-linejoin:miter;stroke:rgb(0%,0%,0%);stroke-opacity:1;stroke-miterlimit:4;" d="M 653.29125 1093.293438 L 806.72875 1246.730938 " transform="matrix(0.1,0,0,-0.1,0.124,180.802)"/>
<path style="fill:none;stroke-width:3.685;stroke-linecap:butt;stroke-linejoin:miter;stroke:rgb(0%,0%,0%);stroke-opacity:1;stroke-miterlimit:4;" d="M 743.29125 1093.293438 L 896.72875 1246.730938 " transform="matrix(0.1,0,0,-0.1,0.124,180.802)"/>
<path style="fill:none;stroke-width:3.685;stroke-linecap:butt;stroke-linejoin:miter;stroke:rgb(0%,0%,0%);stroke-opacity:1;stroke-miterlimit:4;" d="M 833.29125 1093.293438 L 986.72875 1246.730938 " transform="matrix(0.1,0,0,-0.1,0.124,180.802)"/>
<path style="fill:none;stroke-width:3.685;stroke-linecap:butt;stroke-linejoin:miter;stroke:rgb(0%,0%,0%);stroke-opacity:1;stroke-miterlimit:4;" d="M -66.70875 1183.293438 L 86.72875 1336.730938 " transform="matrix(0.1,0,0,-0.1,0.124,180.802)"/>
<path style="fill:none;stroke-width:3.685;stroke-linecap:butt;stroke-linejoin:miter;stroke:rgb(0%,0%,0%);stroke-opacity:1;stroke-miterlimit:4;" d="M 23.29125 1183.293438 L 176.72875 1336.730938 " transform="matrix(0.1,0,0,-0.1,0.124,180.802)"/>
<path style="fill:none;stroke-width:3.685;stroke-linecap:butt;stroke-linejoin:miter;stroke:rgb(0%,0%,0%);stroke-opacity:1;stroke-miterlimit:4;" d="M 113.29125 1183.293438 L 266.72875 1336.730938 " transform="matrix(0.1,0,0,-0.1,0.124,180.802)"/>
<path style="fill:none;stroke-width:3.685;stroke-linecap:butt;stroke-linejoin:miter;stroke:rgb(0%,0%,0%);stroke-opacity:1;stroke-miterlimit:4;" d="M 203.29125 1183.293438 L 356.72875 1336.730938 " transform="matrix(0.1,0,0,-0.1,0.124,180.802)"/>
<path style="fill:none;stroke-width:3.685;stroke-linecap:butt;stroke-linejoin:miter;stroke:rgb(0%,0%,0%);stroke-opacity:1;stroke-miterlimit:4;" d="M 293.29125 1183.293438 L 446.72875 1336.730938 " transform="matrix(0.1,0,0,-0.1,0.124,180.802)"/>
<path style="fill:none;stroke-width:3.685;stroke-linecap:butt;stroke-linejoin:miter;stroke:rgb(0%,0%,0%);stroke-opacity:1;stroke-miterlimit:4;" d="M 383.29125 1183.293438 L 536.72875 1336.730938 " transform="matrix(0.1,0,0,-0.1,0.124,180.802)"/>
<path style="fill:none;stroke-width:3.685;stroke-linecap:butt;stroke-linejoin:miter;stroke:rgb(0%,0%,0%);stroke-opacity:1;stroke-miterlimit:4;" d="M 473.29125 1183.293438 L 626.72875 1336.730938 " transform="matrix(0.1,0,0,-0.1,0.124,180.802)"/>
<path style="fill:none;stroke-width:3.685;stroke-linecap:butt;stroke-linejoin:miter;stroke:rgb(0%,0%,0%);stroke-opacity:1;stroke-miterlimit:4;" d="M 563.29125 1183.293438 L 716.72875 1336.730938 " transform="matrix(0.1,0,0,-0.1,0.124,180.802)"/>
<path style="fill:none;stroke-width:3.685;stroke-linecap:butt;stroke-linejoin:miter;stroke:rgb(0%,0%,0%);stroke-opacity:1;stroke-miterlimit:4;" d="M 653.29125 1183.293438 L 806.72875 1336.730938 " transform="matrix(0.1,0,0,-0.1,0.124,180.802)"/>
<path style="fill:none;stroke-width:3.685;stroke-linecap:butt;stroke-linejoin:miter;stroke:rgb(0%,0%,0%);stroke-opacity:1;stroke-miterlimit:4;" d="M 743.29125 1183.293438 L 896.72875 1336.730938 " transform="matrix(0.1,0,0,-0.1,0.124,180.802)"/>
<path style="fill:none;stroke-width:3.685;stroke-linecap:butt;stroke-linejoin:miter;stroke:rgb(0%,0%,0%);stroke-opacity:1;stroke-miterlimit:4;" d="M 833.29125 1183.293438 L 986.72875 1336.730938 " transform="matrix(0.1,0,0,-0.1,0.124,180.802)"/>
<path style="fill:none;stroke-width:3.685;stroke-linecap:butt;stroke-linejoin:miter;stroke:rgb(0%,0%,0%);stroke-opacity:1;stroke-miterlimit:4;" d="M -66.70875 1273.293438 L 86.72875 1426.730938 " transform="matrix(0.1,0,0,-0.1,0.124,180.802)"/>
<path style="fill:none;stroke-width:3.685;stroke-linecap:butt;stroke-linejoin:miter;stroke:rgb(0%,0%,0%);stroke-opacity:1;stroke-miterlimit:4;" d="M 23.29125 1273.293438 L 176.72875 1426.730938 " transform="matrix(0.1,0,0,-0.1,0.124,180.802)"/>
<path style="fill:none;stroke-width:3.685;stroke-linecap:butt;stroke-linejoin:miter;stroke:rgb(0%,0%,0%);stroke-opacity:1;stroke-miterlimit:4;" d="M 113.29125 1273.293438 L 266.72875 1426.730938 " transform="matrix(0.1,0,0,-0.1,0.124,180.802)"/>
<path style="fill:none;stroke-width:3.685;stroke-linecap:butt;stroke-linejoin:miter;stroke:rgb(0%,0%,0%);stroke-opacity:1;stroke-miterlimit:4;" d="M 203.29125 1273.293438 L 356.72875 1426.730938 " transform="matrix(0.1,0,0,-0.1,0.124,180.802)"/>
<path style="fill:none;stroke-width:3.685;stroke-linecap:butt;stroke-linejoin:miter;stroke:rgb(0%,0%,0%);stroke-opacity:1;stroke-miterlimit:4;" d="M 293.29125 1273.293438 L 446.72875 1426.730938 " transform="matrix(0.1,0,0,-0.1,0.124,180.802)"/>
<path style="fill:none;stroke-width:3.685;stroke-linecap:butt;stroke-linejoin:miter;stroke:rgb(0%,0%,0%);stroke-opacity:1;stroke-miterlimit:4;" d="M 383.29125 1273.293438 L 536.72875 1426.730938 " transform="matrix(0.1,0,0,-0.1,0.124,180.802)"/>
<path style="fill:none;stroke-width:3.685;stroke-linecap:butt;stroke-linejoin:miter;stroke:rgb(0%,0%,0%);stroke-opacity:1;stroke-miterlimit:4;" d="M 473.29125 1273.293438 L 626.72875 1426.730938 " transform="matrix(0.1,0,0,-0.1,0.124,180.802)"/>
<path style="fill:none;stroke-width:3.685;stroke-linecap:butt;stroke-linejoin:miter;stroke:rgb(0%,0%,0%);stroke-opacity:1;stroke-miterlimit:4;" d="M 563.29125 1273.293438 L 716.72875 1426.730938 " transform="matrix(0.1,0,0,-0.1,0.124,180.802)"/>
<path style="fill:none;stroke-width:3.685;stroke-linecap:butt;stroke-linejoin:miter;stroke:rgb(0%,0%,0%);stroke-opacity:1;stroke-miterlimit:4;" d="M 653.29125 1273.293438 L 806.72875 1426.730938 " transform="matrix(0.1,0,0,-0.1,0.124,180.802)"/>
<path style="fill:none;stroke-width:3.685;stroke-linecap:butt;stroke-linejoin:miter;stroke:rgb(0%,0%,0%);stroke-opacity:1;stroke-miterlimit:4;" d="M 743.29125 1273.293438 L 896.72875 1426.730938 " transform="matrix(0.1,0,0,-0.1,0.124,180.802)"/>
<path style="fill:none;stroke-width:3.685;stroke-linecap:butt;stroke-linejoin:miter;stroke:rgb(0%,0%,0%);stroke-opacity:1;stroke-miterlimit:4;" d="M 833.29125 1273.293438 L 986.72875 1426.730938 " transform="matrix(0.1,0,0,-0.1,0.124,180.802)"/>
<path style="fill:none;stroke-width:3.685;stroke-linecap:butt;stroke-linejoin:miter;stroke:rgb(0%,0%,0%);stroke-opacity:1;stroke-miterlimit:4;" d="M -66.70875 1363.293438 L 86.72875 1516.730938 " transform="matrix(0.1,0,0,-0.1,0.124,180.802)"/>
<path style="fill:none;stroke-width:3.685;stroke-linecap:butt;stroke-linejoin:miter;stroke:rgb(0%,0%,0%);stroke-opacity:1;stroke-miterlimit:4;" d="M 23.29125 1363.293438 L 176.72875 1516.730938 " transform="matrix(0.1,0,0,-0.1,0.124,180.802)"/>
<path style="fill:none;stroke-width:3.685;stroke-linecap:butt;stroke-linejoin:miter;stroke:rgb(0%,0%,0%);stroke-opacity:1;stroke-miterlimit:4;" d="M 113.29125 1363.293438 L 266.72875 1516.730938 " transform="matrix(0.1,0,0,-0.1,0.124,180.802)"/>
<path style="fill:none;stroke-width:3.685;stroke-linecap:butt;stroke-linejoin:miter;stroke:rgb(0%,0%,0%);stroke-opacity:1;stroke-miterlimit:4;" d="M 203.29125 1363.293438 L 356.72875 1516.730938 " transform="matrix(0.1,0,0,-0.1,0.124,180.802)"/>
<path style="fill:none;stroke-width:3.685;stroke-linecap:butt;stroke-linejoin:miter;stroke:rgb(0%,0%,0%);stroke-opacity:1;stroke-miterlimit:4;" d="M 293.29125 1363.293438 L 446.72875 1516.730938 " transform="matrix(0.1,0,0,-0.1,0.124,180.802)"/>
<path style="fill:none;stroke-width:3.685;stroke-linecap:butt;stroke-linejoin:miter;stroke:rgb(0%,0%,0%);stroke-opacity:1;stroke-miterlimit:4;" d="M 383.29125 1363.293438 L 536.72875 1516.730938 " transform="matrix(0.1,0,0,-0.1,0.124,180.802)"/>
<path style="fill:none;stroke-width:3.685;stroke-linecap:butt;stroke-linejoin:miter;stroke:rgb(0%,0%,0%);stroke-opacity:1;stroke-miterlimit:4;" d="M 473.29125 1363.293438 L 626.72875 1516.730938 " transform="matrix(0.1,0,0,-0.1,0.124,180.802)"/>
<path style="fill:none;stroke-width:3.685;stroke-linecap:butt;stroke-linejoin:miter;stroke:rgb(0%,0%,0%);stroke-opacity:1;stroke-miterlimit:4;" d="M 563.29125 1363.293438 L 716.72875 1516.730938 " transform="matrix(0.1,0,0,-0.1,0.124,180.802)"/>
<path style="fill:none;stroke-width:3.685;stroke-linecap:butt;stroke-linejoin:miter;stroke:rgb(0%,0%,0%);stroke-opacity:1;stroke-miterlimit:4;" d="M 653.29125 1363.293438 L 806.72875 1516.730938 " transform="matrix(0.1,0,0,-0.1,0.124,180.802)"/>
<path style="fill:none;stroke-width:3.685;stroke-linecap:butt;stroke-linejoin:miter;stroke:rgb(0%,0%,0%);stroke-opacity:1;stroke-miterlimit:4;" d="M 743.29125 1363.293438 L 896.72875 1516.730938 " transform="matrix(0.1,0,0,-0.1,0.124,180.802)"/>
<path style="fill:none;stroke-width:3.685;stroke-linecap:butt;stroke-linejoin:miter;stroke:rgb(0%,0%,0%);stroke-opacity:1;stroke-miterlimit:4;" d="M 833.29125 1363.293438 L 986.72875 1516.730938 " transform="matrix(0.1,0,0,-0.1,0.124,180.802)"/>
<path style="fill:none;stroke-width:3.685;stroke-linecap:butt;stroke-linejoin:miter;stroke:rgb(0%,0%,0%);stroke-opacity:1;stroke-miterlimit:4;" d="M -66.70875 1453.293438 L 86.72875 1606.730938 " transform="matrix(0.1,0,0,-0.1,0.124,180.802)"/>
<path style="fill:none;stroke-width:3.685;stroke-linecap:butt;stroke-linejoin:miter;stroke:rgb(0%,0%,0%);stroke-opacity:1;stroke-miterlimit:4;" d="M 23.29125 1453.293438 L 176.72875 1606.730938 " transform="matrix(0.1,0,0,-0.1,0.124,180.802)"/>
<path style="fill:none;stroke-width:3.685;stroke-linecap:butt;stroke-linejoin:miter;stroke:rgb(0%,0%,0%);stroke-opacity:1;stroke-miterlimit:4;" d="M 113.29125 1453.293438 L 266.72875 1606.730938 " transform="matrix(0.1,0,0,-0.1,0.124,180.802)"/>
<path style="fill:none;stroke-width:3.685;stroke-linecap:butt;stroke-linejoin:miter;stroke:rgb(0%,0%,0%);stroke-opacity:1;stroke-miterlimit:4;" d="M 203.29125 1453.293438 L 356.72875 1606.730938 " transform="matrix(0.1,0,0,-0.1,0.124,180.802)"/>
<path style="fill:none;stroke-width:3.685;stroke-linecap:butt;stroke-linejoin:miter;stroke:rgb(0%,0%,0%);stroke-opacity:1;stroke-miterlimit:4;" d="M 293.29125 1453.293438 L 446.72875 1606.730938 " transform="matrix(0.1,0,0,-0.1,0.124,180.802)"/>
<path style="fill:none;stroke-width:3.685;stroke-linecap:butt;stroke-linejoin:miter;stroke:rgb(0%,0%,0%);stroke-opacity:1;stroke-miterlimit:4;" d="M 383.29125 1453.293438 L 536.72875 1606.730938 " transform="matrix(0.1,0,0,-0.1,0.124,180.802)"/>
<path style="fill:none;stroke-width:3.685;stroke-linecap:butt;stroke-linejoin:miter;stroke:rgb(0%,0%,0%);stroke-opacity:1;stroke-miterlimit:4;" d="M 473.29125 1453.293438 L 626.72875 1606.730938 " transform="matrix(0.1,0,0,-0.1,0.124,180.802)"/>
<path style="fill:none;stroke-width:3.685;stroke-linecap:butt;stroke-linejoin:miter;stroke:rgb(0%,0%,0%);stroke-opacity:1;stroke-miterlimit:4;" d="M 563.29125 1453.293438 L 716.72875 1606.730938 " transform="matrix(0.1,0,0,-0.1,0.124,180.802)"/>
<path style="fill:none;stroke-width:3.685;stroke-linecap:butt;stroke-linejoin:miter;stroke:rgb(0%,0%,0%);stroke-opacity:1;stroke-miterlimit:4;" d="M 653.29125 1453.293438 L 806.72875 1606.730938 " transform="matrix(0.1,0,0,-0.1,0.124,180.802)"/>
<path style="fill:none;stroke-width:3.685;stroke-linecap:butt;stroke-linejoin:miter;stroke:rgb(0%,0%,0%);stroke-opacity:1;stroke-miterlimit:4;" d="M 743.29125 1453.293438 L 896.72875 1606.730938 " transform="matrix(0.1,0,0,-0.1,0.124,180.802)"/>
<path style="fill:none;stroke-width:3.685;stroke-linecap:butt;stroke-linejoin:miter;stroke:rgb(0%,0%,0%);stroke-opacity:1;stroke-miterlimit:4;" d="M 833.29125 1453.293438 L 986.72875 1606.730938 " transform="matrix(0.1,0,0,-0.1,0.124,180.802)"/>
<path style="fill:none;stroke-width:3.685;stroke-linecap:butt;stroke-linejoin:miter;stroke:rgb(0%,0%,0%);stroke-opacity:1;stroke-miterlimit:4;" d="M -66.70875 1543.293438 L 86.72875 1696.730938 " transform="matrix(0.1,0,0,-0.1,0.124,180.802)"/>
<path style="fill:none;stroke-width:3.685;stroke-linecap:butt;stroke-linejoin:miter;stroke:rgb(0%,0%,0%);stroke-opacity:1;stroke-miterlimit:4;" d="M 23.29125 1543.293438 L 176.72875 1696.730938 " transform="matrix(0.1,0,0,-0.1,0.124,180.802)"/>
<path style="fill:none;stroke-width:3.685;stroke-linecap:butt;stroke-linejoin:miter;stroke:rgb(0%,0%,0%);stroke-opacity:1;stroke-miterlimit:4;" d="M 113.29125 1543.293438 L 266.72875 1696.730938 " transform="matrix(0.1,0,0,-0.1,0.124,180.802)"/>
<path style="fill:none;stroke-width:3.685;stroke-linecap:butt;stroke-linejoin:miter;stroke:rgb(0%,0%,0%);stroke-opacity:1;stroke-miterlimit:4;" d="M 203.29125 1543.293438 L 356.72875 1696.730938 " transform="matrix(0.1,0,0,-0.1,0.124,180.802)"/>
<path style="fill:none;stroke-width:3.685;stroke-linecap:butt;stroke-linejoin:miter;stroke:rgb(0%,0%,0%);stroke-opacity:1;stroke-miterlimit:4;" d="M 293.29125 1543.293438 L 446.72875 1696.730938 " transform="matrix(0.1,0,0,-0.1,0.124,180.802)"/>
<path style="fill:none;stroke-width:3.685;stroke-linecap:butt;stroke-linejoin:miter;stroke:rgb(0%,0%,0%);stroke-opacity:1;stroke-miterlimit:4;" d="M 383.29125 1543.293438 L 536.72875 1696.730938 " transform="matrix(0.1,0,0,-0.1,0.124,180.802)"/>
<path style="fill:none;stroke-width:3.685;stroke-linecap:butt;stroke-linejoin:miter;stroke:rgb(0%,0%,0%);stroke-opacity:1;stroke-miterlimit:4;" d="M 473.29125 1543.293438 L 626.72875 1696.730938 " transform="matrix(0.1,0,0,-0.1,0.124,180.802)"/>
<path style="fill:none;stroke-width:3.685;stroke-linecap:butt;stroke-linejoin:miter;stroke:rgb(0%,0%,0%);stroke-opacity:1;stroke-miterlimit:4;" d="M 563.29125 1543.293438 L 716.72875 1696.730938 " transform="matrix(0.1,0,0,-0.1,0.124,180.802)"/>
<path style="fill:none;stroke-width:3.685;stroke-linecap:butt;stroke-linejoin:miter;stroke:rgb(0%,0%,0%);stroke-opacity:1;stroke-miterlimit:4;" d="M 653.29125 1543.293438 L 806.72875 1696.730938 " transform="matrix(0.1,0,0,-0.1,0.124,180.802)"/>
<path style="fill:none;stroke-width:3.685;stroke-linecap:butt;stroke-linejoin:miter;stroke:rgb(0%,0%,0%);stroke-opacity:1;stroke-miterlimit:4;" d="M 743.29125 1543.293438 L 896.72875 1696.730938 " transform="matrix(0.1,0,0,-0.1,0.124,180.802)"/>
<path style="fill:none;stroke-width:3.685;stroke-linecap:butt;stroke-linejoin:miter;stroke:rgb(0%,0%,0%);stroke-opacity:1;stroke-miterlimit:4;" d="M 833.29125 1543.293438 L 986.72875 1696.730938 " transform="matrix(0.1,0,0,-0.1,0.124,180.802)"/>
<path style="fill:none;stroke-width:3.685;stroke-linecap:butt;stroke-linejoin:miter;stroke:rgb(0%,0%,0%);stroke-opacity:1;stroke-miterlimit:4;" d="M -66.70875 1633.293438 L 86.72875 1786.730938 " transform="matrix(0.1,0,0,-0.1,0.124,180.802)"/>
<path style="fill:none;stroke-width:3.685;stroke-linecap:butt;stroke-linejoin:miter;stroke:rgb(0%,0%,0%);stroke-opacity:1;stroke-miterlimit:4;" d="M 23.29125 1633.293438 L 176.72875 1786.730938 " transform="matrix(0.1,0,0,-0.1,0.124,180.802)"/>
<path style="fill:none;stroke-width:3.685;stroke-linecap:butt;stroke-linejoin:miter;stroke:rgb(0%,0%,0%);stroke-opacity:1;stroke-miterlimit:4;" d="M 113.29125 1633.293438 L 266.72875 1786.730938 " transform="matrix(0.1,0,0,-0.1,0.124,180.802)"/>
<path style="fill:none;stroke-width:3.685;stroke-linecap:butt;stroke-linejoin:miter;stroke:rgb(0%,0%,0%);stroke-opacity:1;stroke-miterlimit:4;" d="M 203.29125 1633.293438 L 356.72875 1786.730938 " transform="matrix(0.1,0,0,-0.1,0.124,180.802)"/>
<path style="fill:none;stroke-width:3.685;stroke-linecap:butt;stroke-linejoin:miter;stroke:rgb(0%,0%,0%);stroke-opacity:1;stroke-miterlimit:4;" d="M 293.29125 1633.293438 L 446.72875 1786.730938 " transform="matrix(0.1,0,0,-0.1,0.124,180.802)"/>
<path style="fill:none;stroke-width:3.685;stroke-linecap:butt;stroke-linejoin:miter;stroke:rgb(0%,0%,0%);stroke-opacity:1;stroke-miterlimit:4;" d="M 383.29125 1633.293438 L 536.72875 1786.730938 " transform="matrix(0.1,0,0,-0.1,0.124,180.802)"/>
<path style="fill:none;stroke-width:3.685;stroke-linecap:butt;stroke-linejoin:miter;stroke:rgb(0%,0%,0%);stroke-opacity:1;stroke-miterlimit:4;" d="M 473.29125 1633.293438 L 626.72875 1786.730938 " transform="matrix(0.1,0,0,-0.1,0.124,180.802)"/>
<path style="fill:none;stroke-width:3.685;stroke-linecap:butt;stroke-linejoin:miter;stroke:rgb(0%,0%,0%);stroke-opacity:1;stroke-miterlimit:4;" d="M 563.29125 1633.293438 L 716.72875 1786.730938 " transform="matrix(0.1,0,0,-0.1,0.124,180.802)"/>
<path style="fill:none;stroke-width:3.685;stroke-linecap:butt;stroke-linejoin:miter;stroke:rgb(0%,0%,0%);stroke-opacity:1;stroke-miterlimit:4;" d="M 653.29125 1633.293438 L 806.72875 1786.730938 " transform="matrix(0.1,0,0,-0.1,0.124,180.802)"/>
<path style="fill:none;stroke-width:3.685;stroke-linecap:butt;stroke-linejoin:miter;stroke:rgb(0%,0%,0%);stroke-opacity:1;stroke-miterlimit:4;" d="M 743.29125 1633.293438 L 896.72875 1786.730938 " transform="matrix(0.1,0,0,-0.1,0.124,180.802)"/>
<path style="fill:none;stroke-width:3.685;stroke-linecap:butt;stroke-linejoin:miter;stroke:rgb(0%,0%,0%);stroke-opacity:1;stroke-miterlimit:4;" d="M 833.29125 1633.293438 L 986.72875 1786.730938 " transform="matrix(0.1,0,0,-0.1,0.124,180.802)"/>
<path style="fill:none;stroke-width:3.685;stroke-linecap:butt;stroke-linejoin:miter;stroke:rgb(0%,0%,0%);stroke-opacity:1;stroke-miterlimit:4;" d="M -66.70875 1723.293438 L 86.72875 1876.730938 " transform="matrix(0.1,0,0,-0.1,0.124,180.802)"/>
<path style="fill:none;stroke-width:3.685;stroke-linecap:butt;stroke-linejoin:miter;stroke:rgb(0%,0%,0%);stroke-opacity:1;stroke-miterlimit:4;" d="M 23.29125 1723.293438 L 176.72875 1876.730938 " transform="matrix(0.1,0,0,-0.1,0.124,180.802)"/>
<path style="fill:none;stroke-width:3.685;stroke-linecap:butt;stroke-linejoin:miter;stroke:rgb(0%,0%,0%);stroke-opacity:1;stroke-miterlimit:4;" d="M 113.29125 1723.293438 L 266.72875 1876.730938 " transform="matrix(0.1,0,0,-0.1,0.124,180.802)"/>
<path style="fill:none;stroke-width:3.685;stroke-linecap:butt;stroke-linejoin:miter;stroke:rgb(0%,0%,0%);stroke-opacity:1;stroke-miterlimit:4;" d="M 203.29125 1723.293438 L 356.72875 1876.730938 " transform="matrix(0.1,0,0,-0.1,0.124,180.802)"/>
<path style="fill:none;stroke-width:3.685;stroke-linecap:butt;stroke-linejoin:miter;stroke:rgb(0%,0%,0%);stroke-opacity:1;stroke-miterlimit:4;" d="M 293.29125 1723.293438 L 446.72875 1876.730938 " transform="matrix(0.1,0,0,-0.1,0.124,180.802)"/>
<path style="fill:none;stroke-width:3.685;stroke-linecap:butt;stroke-linejoin:miter;stroke:rgb(0%,0%,0%);stroke-opacity:1;stroke-miterlimit:4;" d="M 383.29125 1723.293438 L 536.72875 1876.730938 " transform="matrix(0.1,0,0,-0.1,0.124,180.802)"/>
<path style="fill:none;stroke-width:3.685;stroke-linecap:butt;stroke-linejoin:miter;stroke:rgb(0%,0%,0%);stroke-opacity:1;stroke-miterlimit:4;" d="M 473.29125 1723.293438 L 626.72875 1876.730938 " transform="matrix(0.1,0,0,-0.1,0.124,180.802)"/>
<path style="fill:none;stroke-width:3.685;stroke-linecap:butt;stroke-linejoin:miter;stroke:rgb(0%,0%,0%);stroke-opacity:1;stroke-miterlimit:4;" d="M 563.29125 1723.293438 L 716.72875 1876.730938 " transform="matrix(0.1,0,0,-0.1,0.124,180.802)"/>
<path style="fill:none;stroke-width:3.685;stroke-linecap:butt;stroke-linejoin:miter;stroke:rgb(0%,0%,0%);stroke-opacity:1;stroke-miterlimit:4;" d="M 653.29125 1723.293438 L 806.72875 1876.730938 " transform="matrix(0.1,0,0,-0.1,0.124,180.802)"/>
<path style="fill:none;stroke-width:3.685;stroke-linecap:butt;stroke-linejoin:miter;stroke:rgb(0%,0%,0%);stroke-opacity:1;stroke-miterlimit:4;" d="M 743.29125 1723.293438 L 896.72875 1876.730938 " transform="matrix(0.1,0,0,-0.1,0.124,180.802)"/>
<path style="fill:none;stroke-width:3.685;stroke-linecap:butt;stroke-linejoin:miter;stroke:rgb(0%,0%,0%);stroke-opacity:1;stroke-miterlimit:4;" d="M 833.29125 1723.293438 L 986.72875 1876.730938 " transform="matrix(0.1,0,0,-0.1,0.124,180.802)"/>
</g>
</g>
</g>
<g clip-path="url(#clip4)" clip-rule="nonzero">
<g clip-path="url(#clip5)" clip-rule="nonzero">
<g clip-path="url(#clip6)" clip-rule="nonzero">
<path style="fill:none;stroke-width:5;stroke-linecap:butt;stroke-linejoin:round;stroke:rgb(0%,0%,0%);stroke-opacity:1;stroke-miterlimit:10;" d="M 913.564687 1350.012188 C 913.564687 1470.285625 865.752187 1585.637188 780.674062 1670.715313 C 695.635 1755.754375 580.283437 1803.566875 459.970938 1803.566875 C 339.6975 1803.566875 224.345938 1755.754375 139.306875 1670.715313 C 54.22875 1585.637188 6.455313 1470.285625 6.455313 1350.012188 C 6.455313 1229.699688 54.22875 1114.348125 139.306875 1029.309063 C 224.345938 944.230938 339.6975 896.4575 459.970938 896.4575 C 580.283437 896.4575 695.635 944.230938 780.674062 1029.309063 C 865.752187 1114.348125 913.564687 1229.699688 913.564687 1350.012188 L 913.564687 1350.012188 Z M 913.564687 1350.012188 " transform="matrix(0.1,0,0,-0.1,0.124,180.802)"/>
<path style="fill:none;stroke-width:5;stroke-linecap:butt;stroke-linejoin:round;stroke:rgb(0%,0%,0%);stroke-opacity:1;stroke-dasharray:56.693,20;stroke-miterlimit:10;" d="M 672.588125 1350.012188 C 672.588125 1406.379375 650.205312 1460.441875 610.3225 1500.324688 C 570.439687 1540.2075 516.377187 1562.590313 460.01 1562.590313 C 403.60375 1562.590313 349.54125 1540.2075 309.6975 1500.324688 C 269.814688 1460.441875 247.392813 1406.379375 247.392813 1350.012188 C 247.392813 1293.605938 269.814688 1239.543438 309.6975 1199.660625 C 349.54125 1159.816875 403.60375 1137.395 460.01 1137.395 C 516.377187 1137.395 570.47875 1159.777813 610.3225 1199.660625 C 650.205312 1239.543438 672.588125 1293.605938 672.588125 1350.012188 L 672.588125 1350.012188 Z M 672.588125 1350.012188 " transform="matrix(0.1,0,0,-0.1,0.124,180.802)"/>
<path style=" stroke:none;fill-rule:nonzero;fill:rgb(0%,0%,0%);fill-opacity:1;" d="M 47.257813 45.800781 C 47.257813 45.5 47.140625 45.214844 46.925781 45 C 46.714844 44.785156 46.425781 44.667969 46.125 44.667969 C 45.824219 44.667969 45.535156 44.789063 45.324219 45 C 45.109375 45.214844 44.992188 45.5 44.992188 45.800781 C 44.992188 46.101563 45.109375 46.390625 45.324219 46.605469 C 45.535156 46.816406 45.824219 46.933594 46.125 46.933594 C 46.425781 46.933594 46.714844 46.816406 46.925781 46.605469 C 47.140625 46.390625 47.257813 46.101563 47.257813 45.800781 "/>
<path style="fill:none;stroke-width:5;stroke-linecap:round;stroke-linejoin:round;stroke:rgb(0%,0%,0%);stroke-opacity:1;stroke-miterlimit:10;" d="M 460.01 1350.012188 L 590.908437 1517.512188 " transform="matrix(0.1,0,0,-0.1,0.124,180.802)"/>
<path style=" stroke:none;fill-rule:nonzero;fill:rgb(0%,0%,0%);fill-opacity:1;" d="M 57.078125 33.527344 L 59.214844 29.050781 L 55.386719 32.203125 "/>
<path style="fill:none;stroke-width:5;stroke-linecap:round;stroke-linejoin:round;stroke:rgb(0%,0%,0%);stroke-opacity:1;stroke-miterlimit:10;" d="M 569.54125 1472.746563 L 590.908437 1517.512188 L 552.627187 1485.98875 L 569.54125 1472.746563 Z M 569.54125 1472.746563 " transform="matrix(0.1,0,0,-0.1,0.124,180.802)"/>
<path style="fill:none;stroke-width:5;stroke-linecap:round;stroke-linejoin:round;stroke:rgb(0%,0%,0%);stroke-opacity:1;stroke-miterlimit:10;" d="M 460.01 1350.012188 L 852.783437 1123.215313 " transform="matrix(0.1,0,0,-0.1,0.124,180.802)"/>
<path style=" stroke:none;fill-rule:nonzero;fill:rgb(0%,0%,0%);fill-opacity:1;" d="M 80.671875 66.988281 L 85.402344 68.476563 L 81.742188 65.128906 "/>
<path style="fill:none;stroke-width:5;stroke-linecap:round;stroke-linejoin:round;stroke:rgb(0%,0%,0%);stroke-opacity:1;stroke-miterlimit:10;" d="M 805.47875 1138.137188 L 852.783437 1123.254375 L 816.181875 1156.730938 L 805.47875 1138.137188 Z M 805.47875 1138.137188 " transform="matrix(0.1,0,0,-0.1,0.124,180.802)"/>
<path style="fill:none;stroke-width:5;stroke-linecap:round;stroke-linejoin:round;stroke:rgb(0%,0%,0%);stroke-opacity:1;stroke-miterlimit:10;" d="M 652.705312 1439.855938 L 755.47875 1487.785625 " transform="matrix(0.1,0,0,-0.1,0.124,180.802)"/>
<path style=" stroke:none;fill-rule:nonzero;fill:rgb(0%,0%,0%);fill-opacity:1;" d="M 72.859375 34.183594 L 75.667969 32.023438 L 72.210938 32.792969 "/>
<path style="fill:none;stroke-width:5;stroke-linecap:round;stroke-linejoin:round;stroke:rgb(0%,0%,0%);stroke-opacity:1;stroke-miterlimit:10;" d="M 727.35375 1466.184063 L 755.439687 1487.785625 L 720.869375 1480.090313 L 727.35375 1466.184063 Z M 727.35375 1466.184063 " transform="matrix(0.1,0,0,-0.1,0.124,180.802)"/>
<path style="fill:none;stroke-width:5;stroke-linecap:round;stroke-linejoin:round;stroke:rgb(0%,0%,0%);stroke-opacity:1;stroke-miterlimit:10;" d="M 272.275625 1449.816875 L 172.158438 1503.059063 " transform="matrix(0.1,0,0,-0.1,0.124,180.802)"/>
<path style=" stroke:none;fill-rule:nonzero;fill:rgb(0%,0%,0%);fill-opacity:1;" d="M 20.753906 31.445313 L 17.339844 30.496094 L 20.035156 32.800781 "/>
<path style="fill:none;stroke-width:5;stroke-linecap:round;stroke-linejoin:round;stroke:rgb(0%,0%,0%);stroke-opacity:1;stroke-miterlimit:10;" d="M 206.299063 1493.566875 L 172.158438 1503.059063 L 199.111563 1480.012188 L 206.299063 1493.566875 Z M 206.299063 1493.566875 " transform="matrix(0.1,0,0,-0.1,0.124,180.802)"/>
<path style="fill:none;stroke-width:5;stroke-linecap:round;stroke-linejoin:round;stroke:rgb(0%,0%,0%);stroke-opacity:1;stroke-miterlimit:10;" d="M 415.79125 1142.043438 L 392.236563 1031.145 " transform="matrix(0.1,0,0,-0.1,0.124,180.802)"/>
<path style=" stroke:none;fill-rule:nonzero;fill:rgb(0%,0%,0%);fill-opacity:1;" d="M 39.316406 74.144531 L 39.347656 77.6875 L 40.816406 74.464844 "/>
<path style="fill:none;stroke-width:5;stroke-linecap:round;stroke-linejoin:round;stroke:rgb(0%,0%,0%);stroke-opacity:1;stroke-miterlimit:10;" d="M 391.924063 1066.574688 L 392.236563 1031.145 L 406.924063 1063.371563 L 391.924063 1066.574688 L 391.924063 1066.574688 Z M 391.924063 1066.574688 " transform="matrix(0.1,0,0,-0.1,0.124,180.802)"/>
</g>
</g>
</g>
<g clip-path="url(#clip7)" clip-rule="nonzero">
<g clip-path="url(#clip8)" clip-rule="nonzero">
<path style="fill:none;stroke-width:5;stroke-linecap:butt;stroke-linejoin:round;stroke:rgb(0%,0%,0%);stroke-opacity:1;stroke-dasharray:56.693,20;stroke-miterlimit:10;" d="M 913.525625 1275.012188 L 913.525625 17.746563 " transform="matrix(0.1,0,0,-0.1,0.124,180.802)"/>
<path style="fill:none;stroke-width:5.102;stroke-linecap:butt;stroke-linejoin:miter;stroke:rgb(0%,0%,0%);stroke-opacity:1;stroke-miterlimit:10;" d="M 460.01 17.746563 L 467.939688 27.746563 L 475.908438 37.590313 L 483.838125 47.629375 L 491.806875 57.473125 L 499.736563 67.473125 L 507.705313 77.355938 L 515.635 87.395 L 523.60375 97.395 L 531.5725 107.277813 L 539.6975 117.277813 L 547.627187 127.160625 L 555.595937 137.160625 L 563.525625 147.004375 L 571.494375 157.043438 L 579.424062 167.0825 L 587.392812 176.92625 L 595.361562 186.965313 L 603.29125 196.809063 L 611.26 206.809063 L 619.189687 216.691875 L 627.158437 226.691875 L 635.088125 236.730938 L 643.056875 246.574688 L 651.025625 256.61375 L 658.955312 266.4575 L 666.924062 276.496563 L 674.85375 286.340313 L 683.017812 296.340313 L 690.9475 306.223125 L 698.91625 316.223125 L 706.845937 326.262188 L 714.814687 336.105938 L 722.744375 346.145 L 730.713125 355.98875 L 738.642812 366.027813 L 746.611562 375.8325 L 754.54125 385.871563 L 762.51 395.910625 L 770.47875 405.754375 L 778.408437 415.793438 L 786.377187 425.637188 L 794.306875 435.67625 L 802.275625 445.52 L 810.205312 455.559063 L 818.174062 465.559063 L 826.299062 475.441875 L 834.267812 485.441875 L 842.1975 495.324688 L 850.16625 505.324688 L 858.095937 515.2075 L 866.064687 525.246563 L 873.994375 535.246563 L 881.963125 545.090313 L 889.931875 555.129375 L 897.861562 564.973125 L 905.830312 574.973125 L 913.76 584.152813 L 921.72875 564.777813 L 929.658437 546.4575 L 937.627187 528.996563 L 945.556875 512.23875 L 953.525625 496.535625 L 961.494375 481.496563 L 969.619375 467.121563 L 977.549062 453.293438 L 985.517812 440.129375 L 993.486562 427.7075 L 1001.41625 415.793438 L 1009.385 404.230938 L 1017.314688 393.3325 L 1025.283438 382.785625 L 1033.213125 372.746563 L 1041.181875 363.059063 L 1049.111563 353.723125 L 1057.080313 344.934063 L 1065.049063 336.262188 L 1072.97875 328.17625 L 1080.9475 320.2075 L 1088.877188 312.590313 L 1096.845938 305.324688 L 1104.775625 298.254375 L 1112.744375 291.496563 L 1120.869375 284.934063 L 1128.838125 278.527813 L 1136.767813 272.473125 L 1144.736563 266.61375 L 1152.66625 260.910625 L 1160.635 255.36375 L 1168.564688 250.012188 L 1176.533438 245.012188 L 1184.463125 239.973125 L 1192.431875 235.168438 L 1200.400625 230.480938 L 1208.330313 225.98875 L 1216.299063 221.652813 L 1224.22875 217.355938 L 1232.1975 213.371563 L 1240.127188 209.387188 L 1248.095938 205.441875 L 1256.064688 201.809063 L 1264.189688 198.17625 L 1272.119375 194.543438 L 1280.088125 191.262188 L 1288.017813 187.785625 L 1295.986563 184.699688 L 1303.955313 181.574688 L 1311.885 178.449688 L 1319.85375 175.52 L 1327.783438 172.590313 L 1335.752188 169.855938 L 1343.681875 167.0825 L 1351.650625 164.465313 L 1359.619375 161.887188 L 1367.549063 159.309063 L 1375.517813 156.887188 L 1383.4475 154.465313 L 1391.41625 152.199688 L 1399.345938 149.934063 L 1407.470938 147.7075 L 1415.439688 145.441875 L 1423.408438 143.371563 L 1431.338125 141.30125 L 1439.306875 139.387188 L 1447.236563 137.316875 L 1455.205313 135.402813 L 1463.135 133.684063 L 1471.10375 131.809063 L 1479.033438 130.05125 L 1487.002188 128.371563 L 1494.970938 126.61375 L 1502.900625 124.895 L 1510.869375 123.3325 L 1518.799063 121.77 L 1526.767813 120.246563 L 1534.6975 118.684063 L 1542.66625 117.316875 L 1550.79125 115.754375 L 1558.76 114.387188 L 1566.689688 112.980938 L 1574.658438 111.574688 L 1582.588125 110.36375 L 1590.556875 108.996563 L 1598.525625 107.785625 L 1606.455313 106.418438 L 1614.424063 105.2075 L 1622.35375 104.152813 " transform="matrix(0.1,0,0,-0.1,0.124,180.802)"/>
<path style="fill:none;stroke-width:3.8;stroke-linecap:butt;stroke-linejoin:miter;stroke:rgb(0%,0%,0%);stroke-opacity:1;stroke-miterlimit:4;" d="M 873.174062 1359.973125 C 873.174062 1359.973125 938.720937 1407.785625 1108.135 1448.762188 " transform="matrix(0.1,0,0,-0.1,0.124,180.802)"/>
<path style=" stroke:none;fill-rule:nonzero;fill:rgb(0%,0%,0%);fill-opacity:1;" d="M 87.414063 43.71875 L 85.21875 46.4375 L 88.480469 45.179688 L 87.414063 43.71875 "/>
<path style=" stroke:none;fill-rule:nonzero;fill:rgb(0%,0%,0%);fill-opacity:1;" d="M 156.417969 180.628906 L 162.34375 179.042969 L 156.417969 177.453125 L 156.417969 180.628906 "/>
<path style=" stroke:none;fill-rule:nonzero;fill:rgb(0%,0%,0%);fill-opacity:1;" d="M 47.710938 108.417969 L 46.125 102.496094 L 44.535156 108.417969 L 47.710938 108.417969 "/>
<path style="fill:none;stroke-width:5.102;stroke-linecap:butt;stroke-linejoin:miter;stroke:rgb(0%,0%,0%);stroke-opacity:1;stroke-miterlimit:10;" d="M 459.892813 17.629375 L 1583.4475 17.629375 M 459.892813 17.629375 L 459.892813 750.598125 " transform="matrix(0.1,0,0,-0.1,0.124,180.802)"/>
</g>
</g>
<g clip-path="url(#clip9)" clip-rule="nonzero">
<g style="fill:rgb(0%,0%,0%);fill-opacity:1;">
  <use xlink:href="#glyph0-1" x="47.196" y="40.149"/>
</g>
<g style="fill:rgb(0%,0%,0%);fill-opacity:1;">
  <use xlink:href="#glyph0-2" x="65.954" y="65.727"/>
</g>
<g style="fill:rgb(0%,0%,0%);fill-opacity:1;">
  <use xlink:href="#glyph1-1" x="75.172" y="38.515"/>
</g>
<g style="fill:rgb(0%,0%,0%);fill-opacity:1;">
  <use xlink:href="#glyph2-1" x="111.809" y="38.363"/>
  <use xlink:href="#glyph2-2" x="116.947296" y="38.363"/>
  <use xlink:href="#glyph2-3" x="122.202054" y="38.363"/>
  <use xlink:href="#glyph2-4" x="124.207022" y="38.363"/>
</g>
<g style="fill:rgb(0%,0%,0%);fill-opacity:1;">
  <use xlink:href="#glyph2-5" x="128.424776" y="38.363"/>
  <use xlink:href="#glyph2-6" x="134.226977" y="38.363"/>
  <use xlink:href="#glyph2-7" x="139.207665" y="38.363"/>
</g>
<g style="fill:rgb(0%,0%,0%);fill-opacity:1;">
  <use xlink:href="#glyph2-8" x="111.809" y="46.333"/>
  <use xlink:href="#glyph2-9" x="116.765977" y="46.333"/>
  <use xlink:href="#glyph2-10" x="122.020735" y="46.333"/>
  <use xlink:href="#glyph2-6" x="127.042569" y="46.333"/>
  <use xlink:href="#glyph2-11" x="132.023257" y="46.333"/>
  <use xlink:href="#glyph2-12" x="137.195724" y="46.333"/>
</g>
<g style="fill:rgb(0%,0%,0%);fill-opacity:1;">
  <use xlink:href="#glyph2-13" x="111.809" y="54.303"/>
  <use xlink:href="#glyph2-12" x="117.337131" y="54.303"/>
  <use xlink:href="#glyph2-2" x="121.986564" y="54.303"/>
  <use xlink:href="#glyph2-14" x="127.241322" y="54.303"/>
  <use xlink:href="#glyph2-3" x="131.551828" y="54.303"/>
  <use xlink:href="#glyph2-15" x="133.556795" y="54.303"/>
  <use xlink:href="#glyph2-16" x="138.927319" y="54.303"/>
</g>
<g style="fill:rgb(0%,0%,0%);fill-opacity:1;">
  <use xlink:href="#glyph0-1" x="157.747" y="184.946"/>
</g>
<g style="fill:rgb(0%,0%,0%);fill-opacity:1;">
  <use xlink:href="#glyph0-3" x="38.031" y="108.105"/>
</g>
<g style="fill:rgb(0%,0%,0%);fill-opacity:1;">
  <use xlink:href="#glyph3-1" x="62.636" y="136.527"/>
</g>
<g style="fill:rgb(0%,0%,0%);fill-opacity:1;">
  <use xlink:href="#glyph0-1" x="70.457" y="136.527"/>
</g>
<g style="fill:rgb(0%,0%,0%);fill-opacity:1;">
  <use xlink:href="#glyph3-1" x="107.84" y="137.082"/>
</g>
<g style="fill:rgb(0%,0%,0%);fill-opacity:1;">
  <use xlink:href="#glyph2-17" x="118.236" y="132.129"/>
</g>
<path style="fill:none;stroke-width:0.339;stroke-linecap:butt;stroke-linejoin:miter;stroke:rgb(0%,0%,0%);stroke-opacity:1;stroke-miterlimit:10;" d="M -0.00153125 -0.0001875 L 6.635188 -0.0001875 " transform="matrix(1,0,0,-1,116.857,135.242)"/>
<g style="fill:rgb(0%,0%,0%);fill-opacity:1;">
  <use xlink:href="#glyph0-1" x="116.857" y="142.209"/>
</g>
<g style="fill:rgb(0%,0%,0%);fill-opacity:1;">
  <use xlink:href="#glyph4-1" x="120.225" y="140.224"/>
</g>
</g>
</g>
</svg>
