<?xml version="1.0" encoding="UTF-8"?>
<svg xmlns="http://www.w3.org/2000/svg" xmlns:xlink="http://www.w3.org/1999/xlink" width="275pt" height="168pt" viewBox="0 0 159 97" version="1.1">
<defs>
<g>
<symbol overflow="visible" id="glyph0-0">
<path style="stroke:none;" d=""/>
</symbol>
<symbol overflow="visible" id="glyph0-1">
<path style="stroke:none;" d="M 1.625 -2.625 L 1.625 -2.625 C 1.671875 -2.84375 1.71875 -3.0625 1.765625 -3.296875 L 1.28125 -3.296875 L 0.578125 0 L 0.9375 0 C 1.015625 0 1.09375 0.015625 1.09375 -0.0625 C 1.109375 -0.125 1.21875 -0.578125 1.25 -0.78125 C 1.296875 -1 1.484375 -1.875 1.53125 -2.046875 C 1.609375 -2.3125 1.75 -2.5625 1.953125 -2.734375 C 2.09375 -2.84375 2.265625 -2.9375 2.4375 -2.953125 C 2.765625 -2.96875 3.0625 -2.90625 3.1875 -2.6875 C 3.296875 -2.484375 3.203125 -2.25 3.15625 -2.046875 L 2.734375 0 L 3.09375 0 C 3.171875 0 3.25 0.015625 3.25 -0.078125 C 3.296875 -0.21875 3.390625 -0.734375 3.390625 -0.734375 L 3.703125 -2.1875 C 3.765625 -2.453125 3.8125 -2.765625 3.671875 -3.03125 C 3.484375 -3.328125 3.078125 -3.375 2.671875 -3.328125 C 2.390625 -3.28125 2.125 -3.140625 1.921875 -2.953125 C 1.8125 -2.859375 1.703125 -2.75 1.625 -2.625 Z M 1.625 -2.625 "/>
</symbol>
<symbol overflow="visible" id="glyph0-2">
<path style="stroke:none;" d="M 1.75 -4.828125 L 0.734375 0 C 1.921875 0 3.15625 0.015625 4.3125 0 C 4.359375 -0.125 4.390625 -0.28125 4.40625 -0.4375 L 1.359375 -0.4375 L 1.75 -2.296875 C 2.640625 -2.3125 3.609375 -2.28125 4.46875 -2.3125 C 4.515625 -2.421875 4.546875 -2.578125 4.578125 -2.703125 L 1.84375 -2.703125 C 1.953125 -3.28125 2.078125 -3.84375 2.1875 -4.40625 L 5.15625 -4.40625 L 5.234375 -4.828125 L 1.75 -4.828125 Z M 1.75 -4.828125 "/>
</symbol>
<symbol overflow="visible" id="glyph1-0">
<path style="stroke:none;" d=""/>
</symbol>
<symbol overflow="visible" id="glyph1-1">
<path style="stroke:none;" d="M 1.828125 -4.6875 C 1.671875 -4.65625 1.5 -4.640625 1.359375 -4.5625 C 0.625 -4.28125 0.375 -3.34375 0.375 -2.40625 C 0.375 -2.265625 0.375 -2.125 0.375 -1.96875 C 0.390625 -1.328125 0.546875 -0.6875 0.90625 -0.296875 C 1.21875 0.015625 1.671875 0.140625 2.09375 0.109375 C 2.359375 0.078125 2.578125 -0.015625 2.765625 -0.140625 C 3.359375 -0.5625 3.5 -1.421875 3.5 -2.359375 C 3.5 -3.125 3.359375 -3.8125 2.984375 -4.234375 C 2.703125 -4.546875 2.265625 -4.71875 1.828125 -4.6875 Z M 2.421875 -4.171875 C 2.5 -4.125 2.5625 -4.078125 2.625 -4.015625 C 2.890625 -3.765625 2.96875 -3.265625 2.984375 -2.796875 C 2.984375 -2.703125 2.984375 -2.609375 2.984375 -2.515625 L 2.984375 -2.15625 C 2.984375 -1.5625 2.9375 -0.984375 2.671875 -0.625 C 2.328125 -0.171875 1.578125 -0.15625 1.21875 -0.609375 C 1.125 -0.703125 1.078125 -0.828125 1.03125 -0.9375 C 0.90625 -1.296875 0.875 -1.734375 0.875 -2.1875 L 0.875 -2.546875 C 0.875 -2.640625 0.890625 -2.71875 0.890625 -2.8125 C 0.890625 -3.359375 1.03125 -3.90625 1.390625 -4.140625 C 1.671875 -4.3125 2.09375 -4.359375 2.421875 -4.171875 Z M 2.421875 -4.171875 "/>
</symbol>
<symbol overflow="visible" id="glyph1-2">
<path style="stroke:none;" d="M 0.625 -3.203125 C 0.734375 -3.609375 0.90625 -4.046875 1.34375 -4.203125 C 1.5 -4.265625 1.671875 -4.28125 1.859375 -4.265625 C 2.21875 -4.234375 2.578125 -4.09375 2.796875 -3.78125 C 2.9375 -3.578125 2.984375 -3.328125 2.953125 -3.078125 C 2.875 -2.40625 2.28125 -1.984375 1.796875 -1.609375 C 1.40625 -1.3125 0.59375 -0.59375 0.59375 -0.59375 L 0.453125 -0.484375 C 0.390625 -0.40625 0.390625 -0.421875 0.390625 -0.265625 L 0.390625 0 L 3.484375 0 L 3.484375 -0.4375 L 0.84375 -0.4375 C 1.109375 -0.671875 1.90625 -1.34375 2.140625 -1.515625 C 2.578125 -1.84375 3.0625 -2.15625 3.34375 -2.640625 C 3.640625 -3.203125 3.453125 -3.921875 2.96875 -4.3125 C 2.4375 -4.765625 1.46875 -4.828125 0.875 -4.390625 C 0.65625 -4.234375 0.5 -3.984375 0.390625 -3.734375 C 0.375 -3.671875 0.328125 -3.609375 0.328125 -3.546875 C 0.34375 -3.515625 0.390625 -3.484375 0.40625 -3.4375 C 0.46875 -3.359375 0.546875 -3.265625 0.625 -3.203125 Z M 0.625 -3.203125 "/>
</symbol>
<symbol overflow="visible" id="glyph1-3">
<path style="stroke:none;" d="M 0.21875 -1.21875 L 2.34375 -1.21875 L 2.34375 0 L 2.8125 0 L 2.8125 -1.21875 L 3.65625 -1.21875 L 3.65625 -1.640625 L 2.8125 -1.640625 L 2.8125 -4.640625 L 2.421875 -4.640625 C 2.375 -4.640625 2.296875 -4.65625 2.265625 -4.625 C 2.203125 -4.578125 2.109375 -4.40625 2.078125 -4.390625 L 1.671875 -3.78125 C 1.515625 -3.546875 0.375 -1.875 0.296875 -1.75 C 0.21875 -1.671875 0.21875 -1.640625 0.21875 -1.5 L 0.21875 -1.21875 Z M 2.359375 -4.1875 L 2.359375 -1.640625 L 0.71875 -1.640625 L 1.765625 -3.1875 C 1.953125 -3.515625 2.1875 -3.828125 2.359375 -4.1875 Z M 2.359375 -4.1875 "/>
</symbol>
<symbol overflow="visible" id="glyph1-4">
<path style="stroke:none;" d="M 0.90625 -2.328125 L 0.90625 -2.328125 C 0.90625 -2.921875 1.03125 -3.609375 1.53125 -4 C 1.859375 -4.265625 2.328125 -4.390625 2.90625 -4.234375 C 3.015625 -4.21875 3.109375 -4.171875 3.21875 -4.140625 L 3.21875 -4.421875 C 3.21875 -4.453125 3.21875 -4.515625 3.203125 -4.53125 C 3.15625 -4.59375 2.734375 -4.65625 2.734375 -4.65625 C 2.109375 -4.75 1.640625 -4.578125 1.28125 -4.28125 C 0.828125 -3.9375 0.546875 -3.40625 0.4375 -2.84375 C 0.390625 -2.578125 0.375 -2.296875 0.390625 -2.015625 C 0.421875 -1.375 0.515625 -0.859375 0.84375 -0.4375 C 1.234375 0.09375 1.984375 0.265625 2.578125 -0.015625 C 2.84375 -0.140625 3.0625 -0.375 3.21875 -0.609375 C 3.453125 -0.9375 3.5 -1.328125 3.484375 -1.71875 C 3.46875 -1.921875 3.421875 -2.125 3.359375 -2.3125 C 3.21875 -2.609375 2.96875 -2.953125 2.6875 -3.09375 C 2.546875 -3.140625 2.40625 -3.15625 2.25 -3.15625 C 1.875 -3.15625 1.515625 -3 1.21875 -2.75 C 1.125 -2.65625 0.953125 -2.453125 0.90625 -2.328125 Z M 1.984375 -2.765625 C 2.21875 -2.765625 2.453125 -2.734375 2.640625 -2.5625 C 2.703125 -2.515625 2.734375 -2.453125 2.78125 -2.40625 C 2.96875 -2.15625 2.96875 -1.84375 2.96875 -1.546875 C 2.96875 -1.078125 2.921875 -0.796875 2.65625 -0.53125 C 2.453125 -0.328125 2.1875 -0.28125 1.90625 -0.28125 C 1.609375 -0.296875 1.328125 -0.4375 1.15625 -0.671875 C 1.0625 -0.828125 1.015625 -1 0.96875 -1.171875 C 0.921875 -1.40625 0.890625 -1.65625 0.9375 -1.875 C 1.03125 -2.375 1.46875 -2.78125 1.984375 -2.765625 Z M 1.984375 -2.765625 "/>
</symbol>
<symbol overflow="visible" id="glyph1-5">
<path style="stroke:none;" d="M 1.421875 -2.46875 L 1.421875 -2.46875 C 0.953125 -2.34375 0.515625 -2.03125 0.375 -1.59375 C 0.21875 -1.140625 0.40625 -0.65625 0.734375 -0.34375 C 1.078125 -0.015625 1.546875 0.125 2 0.109375 C 2.625 0.09375 3.28125 -0.28125 3.484375 -0.890625 C 3.546875 -1.09375 3.578125 -1.3125 3.515625 -1.546875 C 3.375 -2.03125 2.9375 -2.34375 2.453125 -2.46875 C 2.515625 -2.5 2.59375 -2.515625 2.65625 -2.53125 C 2.921875 -2.640625 3.171875 -2.8125 3.3125 -3.046875 C 3.59375 -3.484375 3.359375 -4.046875 2.984375 -4.34375 C 2.578125 -4.65625 2.015625 -4.75 1.515625 -4.640625 C 1.09375 -4.546875 0.6875 -4.265625 0.515625 -3.859375 C 0.453125 -3.734375 0.421875 -3.5625 0.4375 -3.40625 C 0.46875 -3.03125 0.75 -2.765625 1.078125 -2.59375 C 1.171875 -2.546875 1.296875 -2.484375 1.421875 -2.46875 Z M 2.09375 -4.28125 C 2.328125 -4.265625 2.59375 -4.203125 2.765625 -4.015625 C 3.03125 -3.734375 3.03125 -3.21875 2.75 -2.9375 C 2.578125 -2.765625 2.328125 -2.6875 2.109375 -2.671875 C 1.765625 -2.640625 1.359375 -2.6875 1.109375 -2.9375 C 0.828125 -3.21875 0.84375 -3.78125 1.140625 -4.0625 C 1.375 -4.265625 1.71875 -4.3125 2.09375 -4.28125 Z M 1.8125 -2.265625 C 2.1875 -2.296875 2.609375 -2.203125 2.859375 -1.890625 C 3.109375 -1.546875 3.109375 -0.921875 2.78125 -0.578125 C 2.609375 -0.40625 2.359375 -0.3125 2.109375 -0.296875 C 1.75 -0.265625 1.34375 -0.3125 1.078125 -0.578125 C 0.765625 -0.90625 0.703125 -1.59375 1.078125 -1.96875 C 1.265625 -2.15625 1.546875 -2.25 1.8125 -2.265625 Z M 1.8125 -2.265625 "/>
</symbol>
<symbol overflow="visible" id="glyph1-6">
<path style="stroke:none;" d="M 0.78125 -4.21875 L 0.78125 -3.828125 C 1.125 -3.828125 1.46875 -3.890625 1.78125 -4.03125 L 1.78125 -0.390625 L 0.8125 -0.390625 L 0.8125 0 L 3.25 0 L 3.25 -0.390625 L 2.28125 -0.390625 L 2.28125 -4.6875 C 2.25 -4.6875 2.1875 -4.6875 2.15625 -4.671875 C 2.109375 -4.65625 2.0625 -4.59375 2.015625 -4.5625 C 1.734375 -4.328125 1.21875 -4.21875 0.78125 -4.21875 Z M 0.78125 -4.21875 "/>
</symbol>
</g>
<clipPath id="clip1">
  <path d="M -226 666 L 386 666 L 386 -126 L -226 -126 L -226 666 Z M -226 666 "/>
</clipPath>
<clipPath id="clip2">
  <path d="M 5.355469 97.800781 L 159.355469 97.800781 L 159.355469 -1.199219 L 5.355469 -1.199219 L 5.355469 97.800781 Z M 5.355469 97.800781 "/>
</clipPath>
<clipPath id="clip3">
  <path d="M -226 666 L 386 666 L 386 -126 L -226 -126 L -226 666 Z M -226 666 "/>
</clipPath>
</defs>
<g id="surface0">
<g clip-path="url(#clip1)" clip-rule="nonzero">
<g clip-path="url(#clip2)" clip-rule="nonzero">
<path style="fill:none;stroke-width:5;stroke-linecap:round;stroke-linejoin:round;stroke:rgb(0%,0%,0%);stroke-opacity:1;stroke-miterlimit:10;" d="M 26.371875 549.42625 L 1528.715625 549.42625 " transform="matrix(0.1,0,0,-0.1,5.355,97.802)"/>
<path style=" stroke:none;fill-rule:nonzero;fill:rgb(0%,0%,0%);fill-opacity:1;" d="M 152.691406 44.085938 L 158.226563 42.859375 L 152.691406 41.632813 "/>
<path style="fill:none;stroke-width:5;stroke-linecap:round;stroke-linejoin:round;stroke:rgb(0%,0%,0%);stroke-opacity:1;stroke-miterlimit:10;" d="M 1473.364062 537.160625 L 1528.715625 549.42625 L 1473.364062 561.691875 L 1473.364062 537.160625 Z M 1473.364062 537.160625 " transform="matrix(0.1,0,0,-0.1,5.355,97.802)"/>
<path style="fill:none;stroke-width:5;stroke-linecap:round;stroke-linejoin:round;stroke:rgb(0%,0%,0%);stroke-opacity:1;stroke-miterlimit:10;" d="M 26.371875 10.871562 L 26.371875 974.621562 " transform="matrix(0.1,0,0,-0.1,5.355,97.802)"/>
<path style=" stroke:none;fill-rule:nonzero;fill:rgb(0%,0%,0%);fill-opacity:1;" d="M 9.21875 5.875 L 7.992188 0.339844 L 6.765625 5.875 "/>
<path style="fill:none;stroke-width:5;stroke-linecap:round;stroke-linejoin:round;stroke:rgb(0%,0%,0%);stroke-opacity:1;stroke-miterlimit:10;" d="M 38.6375 919.27 L 26.371875 974.621562 L 14.10625 919.27 L 38.6375 919.27 Z M 38.6375 919.27 " transform="matrix(0.1,0,0,-0.1,5.355,97.802)"/>
<path style=" stroke:none;fill-rule:nonzero;fill:rgb(0%,0%,0%);fill-opacity:1;" d="M 9.410156 42.859375 C 9.410156 42.480469 9.261719 42.121094 8.996094 41.855469 C 8.730469 41.589844 8.367188 41.441406 7.992188 41.441406 C 7.617188 41.441406 7.253906 41.589844 6.988281 41.855469 C 6.722656 42.121094 6.574219 42.480469 6.574219 42.859375 C 6.574219 43.234375 6.722656 43.59375 6.988281 43.859375 C 7.253906 44.125 7.617188 44.273438 7.992188 44.273438 C 8.367188 44.273438 8.730469 44.125 8.996094 43.859375 C 9.261719 43.59375 9.410156 43.234375 9.410156 42.859375 "/>
<path style=" stroke:none;fill-rule:nonzero;fill:rgb(0%,0%,0%);fill-opacity:1;" d="M 20.179688 54.195313 C 20.179688 53.820313 20.03125 53.460938 19.765625 53.195313 C 19.5 52.929688 19.140625 52.777344 18.765625 52.777344 C 18.386719 52.777344 18.027344 52.929688 17.761719 53.195313 C 17.496094 53.460938 17.347656 53.820313 17.347656 54.195313 C 17.347656 54.574219 17.496094 54.933594 17.761719 55.199219 C 18.027344 55.464844 18.386719 55.613281 18.765625 55.613281 C 19.140625 55.613281 19.5 55.464844 19.765625 55.199219 C 20.03125 54.933594 20.179688 54.574219 20.179688 54.195313 "/>
<path style=" stroke:none;fill-rule:nonzero;fill:rgb(0%,0%,0%);fill-opacity:1;" d="M 30.953125 65.535156 C 30.953125 65.160156 30.804688 64.796875 30.539063 64.53125 C 30.273438 64.265625 29.910156 64.117188 29.535156 64.117188 C 29.160156 64.117188 28.800781 64.265625 28.535156 64.53125 C 28.265625 64.796875 28.117188 65.160156 28.117188 65.535156 C 28.117188 65.910156 28.265625 66.273438 28.535156 66.539063 C 28.800781 66.804688 29.160156 66.953125 29.535156 66.953125 C 29.910156 66.953125 30.273438 66.804688 30.539063 66.539063 C 30.804688 66.273438 30.953125 65.910156 30.953125 65.535156 "/>
<path style=" stroke:none;fill-rule:nonzero;fill:rgb(0%,0%,0%);fill-opacity:1;" d="M 41.722656 71.203125 C 41.722656 70.828125 41.574219 70.46875 41.308594 70.203125 C 41.042969 69.9375 40.683594 69.785156 40.308594 69.785156 C 39.929688 69.785156 39.570313 69.9375 39.304688 70.203125 C 39.039063 70.46875 38.890625 70.828125 38.890625 71.203125 C 38.890625 71.582031 39.039063 71.941406 39.304688 72.207031 C 39.570313 72.472656 39.929688 72.621094 40.308594 72.621094 C 40.683594 72.621094 41.042969 72.472656 41.308594 72.207031 C 41.574219 71.941406 41.722656 71.582031 41.722656 71.203125 "/>
<path style=" stroke:none;fill-rule:nonzero;fill:rgb(0%,0%,0%);fill-opacity:1;" d="M 52.496094 76.875 C 52.496094 76.496094 52.347656 76.136719 52.082031 75.871094 C 51.816406 75.605469 51.453125 75.457031 51.078125 75.457031 C 50.703125 75.457031 50.34375 75.605469 50.078125 75.871094 C 49.8125 76.136719 49.660156 76.496094 49.660156 76.875 C 49.660156 77.25 49.8125 77.609375 50.078125 77.875 C 50.34375 78.140625 50.703125 78.292969 51.078125 78.292969 C 51.453125 78.292969 51.816406 78.140625 52.082031 77.875 C 52.347656 77.609375 52.496094 77.25 52.496094 76.875 "/>
<path style=" stroke:none;fill-rule:nonzero;fill:rgb(0%,0%,0%);fill-opacity:1;" d="M 63.269531 82.542969 C 63.269531 82.167969 63.117188 81.804688 62.851563 81.539063 C 62.585938 81.273438 62.226563 81.125 61.851563 81.125 C 61.472656 81.125 61.113281 81.273438 60.847656 81.539063 C 60.582031 81.804688 60.433594 82.167969 60.433594 82.542969 C 60.433594 82.917969 60.582031 83.28125 60.847656 83.546875 C 61.113281 83.8125 61.472656 83.960938 61.851563 83.960938 C 62.226563 83.960938 62.585938 83.8125 62.851563 83.546875 C 63.117188 83.28125 63.269531 82.917969 63.269531 82.542969 "/>
<path style=" stroke:none;fill-rule:nonzero;fill:rgb(0%,0%,0%);fill-opacity:1;" d="M 74.039063 88.210938 C 74.039063 87.835938 73.890625 87.476563 73.625 87.210938 C 73.359375 86.945313 72.996094 86.796875 72.621094 86.796875 C 72.246094 86.796875 71.886719 86.945313 71.621094 87.210938 C 71.355469 87.476563 71.203125 87.835938 71.203125 88.210938 C 71.203125 88.589844 71.355469 88.949219 71.621094 89.214844 C 71.886719 89.480469 72.246094 89.628906 72.621094 89.628906 C 72.996094 89.628906 73.359375 89.480469 73.625 89.214844 C 73.890625 88.949219 74.039063 88.589844 74.039063 88.210938 "/>
<path style=" stroke:none;fill-rule:nonzero;fill:rgb(0%,0%,0%);fill-opacity:1;" d="M 84.8125 82.542969 C 84.8125 82.167969 84.660156 81.804688 84.394531 81.539063 C 84.128906 81.273438 83.769531 81.125 83.394531 81.125 C 83.019531 81.125 82.65625 81.273438 82.390625 81.539063 C 82.125 81.804688 81.976563 82.167969 81.976563 82.542969 C 81.976563 82.917969 82.125 83.28125 82.390625 83.546875 C 82.65625 83.8125 83.019531 83.960938 83.394531 83.960938 C 83.769531 83.960938 84.128906 83.8125 84.394531 83.546875 C 84.660156 83.28125 84.8125 82.917969 84.8125 82.542969 "/>
<path style=" stroke:none;fill-rule:nonzero;fill:rgb(0%,0%,0%);fill-opacity:1;" d="M 95.582031 76.875 C 95.582031 76.496094 95.433594 76.136719 95.167969 75.871094 C 94.902344 75.605469 94.542969 75.457031 94.164063 75.457031 C 93.789063 75.457031 93.429688 75.605469 93.164063 75.871094 C 92.898438 76.136719 92.746094 76.496094 92.746094 76.875 C 92.746094 77.25 92.898438 77.609375 93.164063 77.875 C 93.429688 78.140625 93.789063 78.292969 94.164063 78.292969 C 94.542969 78.292969 94.902344 78.140625 95.167969 77.875 C 95.433594 77.609375 95.582031 77.25 95.582031 76.875 "/>
<path style=" stroke:none;fill-rule:nonzero;fill:rgb(0%,0%,0%);fill-opacity:1;" d="M 106.355469 71.203125 C 106.355469 70.828125 106.203125 70.46875 105.9375 70.203125 C 105.671875 69.9375 105.3125 69.785156 104.9375 69.785156 C 104.5625 69.785156 104.199219 69.9375 103.933594 70.203125 C 103.667969 70.46875 103.519531 70.828125 103.519531 71.203125 C 103.519531 71.582031 103.667969 71.941406 103.933594 72.207031 C 104.199219 72.472656 104.5625 72.621094 104.9375 72.621094 C 105.3125 72.621094 105.671875 72.472656 105.9375 72.207031 C 106.203125 71.941406 106.355469 71.582031 106.355469 71.203125 "/>
<path style=" stroke:none;fill-rule:nonzero;fill:rgb(0%,0%,0%);fill-opacity:1;" d="M 117.125 65.535156 C 117.125 65.160156 116.976563 64.796875 116.710938 64.53125 C 116.445313 64.265625 116.085938 64.117188 115.710938 64.117188 C 115.332031 64.117188 114.972656 64.265625 114.707031 64.53125 C 114.441406 64.796875 114.289063 65.160156 114.289063 65.535156 C 114.289063 65.910156 114.441406 66.273438 114.707031 66.539063 C 114.972656 66.804688 115.332031 66.953125 115.710938 66.953125 C 116.085938 66.953125 116.445313 66.804688 116.710938 66.539063 C 116.976563 66.273438 117.125 65.910156 117.125 65.535156 "/>
<path style=" stroke:none;fill-rule:nonzero;fill:rgb(0%,0%,0%);fill-opacity:1;" d="M 127.898438 54.195313 C 127.898438 53.820313 127.746094 53.460938 127.480469 53.195313 C 127.21875 52.929688 126.855469 52.777344 126.480469 52.777344 C 126.105469 52.777344 125.742188 52.929688 125.476563 53.195313 C 125.210938 53.460938 125.0625 53.820313 125.0625 54.195313 C 125.0625 54.574219 125.210938 54.933594 125.476563 55.199219 C 125.742188 55.464844 126.105469 55.613281 126.480469 55.613281 C 126.855469 55.613281 127.21875 55.464844 127.480469 55.199219 C 127.746094 54.933594 127.898438 54.574219 127.898438 54.195313 "/>
<path style=" stroke:none;fill-rule:nonzero;fill:rgb(0%,0%,0%);fill-opacity:1;" d="M 138.667969 42.859375 C 138.667969 42.480469 138.519531 42.121094 138.253906 41.855469 C 137.988281 41.589844 137.628906 41.441406 137.253906 41.441406 C 136.875 41.441406 136.515625 41.589844 136.25 41.855469 C 135.984375 42.121094 135.835938 42.480469 135.835938 42.859375 C 135.835938 43.234375 135.984375 43.59375 136.25 43.859375 C 136.515625 44.125 136.875 44.273438 137.253906 44.273438 C 137.628906 44.273438 137.988281 44.125 138.253906 43.859375 C 138.519531 43.59375 138.667969 43.234375 138.667969 42.859375 "/>
<path style="fill:none;stroke-width:5;stroke-linecap:round;stroke-linejoin:round;stroke:rgb(0%,0%,0%);stroke-opacity:1;stroke-miterlimit:10;" d="M 26.371875 549.42625 C 92.778125 478.605937 164.653125 409.230937 241.801562 341.4575 C 303.871875 286.965312 369.926562 233.17625 457.23125 189.230937 C 517.348437 158.9575 589.653125 133.48875 672.660937 133.48875 C 755.66875 133.48875 827.973437 158.9575 888.090625 189.230937 C 975.434375 233.17625 1041.45 286.965312 1103.559375 341.4575 C 1180.707812 409.230937 1252.582812 478.605937 1318.989062 549.42625 " transform="matrix(0.1,0,0,-0.1,5.355,97.802)"/>
<path style="fill:none;stroke-width:3;stroke-linecap:round;stroke-linejoin:round;stroke:rgb(0%,0%,0%);stroke-opacity:1;stroke-dasharray:30,30;stroke-miterlimit:10;" d="M 241.801562 563.605937 L 241.801562 322.668437 " transform="matrix(0.1,0,0,-0.1,5.355,97.802)"/>
<path style="fill:none;stroke-width:3;stroke-linecap:round;stroke-linejoin:round;stroke:rgb(0%,0%,0%);stroke-opacity:1;stroke-miterlimit:10;" d="M 457.23125 563.605937 L 457.23125 535.285625 " transform="matrix(0.1,0,0,-0.1,5.355,97.802)"/>
<path style="fill:none;stroke-width:3;stroke-linecap:round;stroke-linejoin:round;stroke:rgb(0%,0%,0%);stroke-opacity:1;stroke-dasharray:30,30;stroke-miterlimit:10;" d="M 672.660937 563.605937 L 672.660937 95.910625 " transform="matrix(0.1,0,0,-0.1,5.355,97.802)"/>
<path style="fill:none;stroke-width:3;stroke-linecap:round;stroke-linejoin:round;stroke:rgb(0%,0%,0%);stroke-opacity:1;stroke-miterlimit:10;" d="M 888.090625 563.605937 L 888.090625 535.285625 " transform="matrix(0.1,0,0,-0.1,5.355,97.802)"/>
<path style="fill:none;stroke-width:3;stroke-linecap:round;stroke-linejoin:round;stroke:rgb(0%,0%,0%);stroke-opacity:1;stroke-dasharray:30,30;stroke-miterlimit:10;" d="M 1103.559375 563.605937 L 1103.559375 322.668437 " transform="matrix(0.1,0,0,-0.1,5.355,97.802)"/>
</g>
</g>
<g clip-path="url(#clip3)" clip-rule="nonzero">
<g style="fill:rgb(0%,0%,0%);fill-opacity:1;">
  <use xlink:href="#glyph0-1" x="150.476" y="49.505"/>
</g>
<g style="fill:rgb(0%,0%,0%);fill-opacity:1;">
  <use xlink:href="#glyph0-2" x="-0.108" y="8.664"/>
</g>
<g style="fill:rgb(0%,0%,0%);fill-opacity:1;">
  <use xlink:href="#glyph1-1" x="9.324" y="39.692"/>
</g>
<g style="fill:rgb(0%,0%,0%);fill-opacity:1;">
  <use xlink:href="#glyph1-2" x="27.794" y="39.692"/>
</g>
<g style="fill:rgb(0%,0%,0%);fill-opacity:1;">
  <use xlink:href="#glyph1-3" x="49.337" y="39.692"/>
</g>
<g style="fill:rgb(0%,0%,0%);fill-opacity:1;">
  <use xlink:href="#glyph1-4" x="70.88" y="39.692"/>
</g>
<g style="fill:rgb(0%,0%,0%);fill-opacity:1;">
  <use xlink:href="#glyph1-5" x="92.424" y="39.692"/>
</g>
<g style="fill:rgb(0%,0%,0%);fill-opacity:1;">
  <use xlink:href="#glyph1-6" x="112.027" y="39.692"/>
  <use xlink:href="#glyph1-1" x="115.906525" y="39.692"/>
</g>
<g style="fill:rgb(0%,0%,0%);fill-opacity:1;">
  <use xlink:href="#glyph1-6" x="133.571" y="39.692"/>
  <use xlink:href="#glyph1-2" x="137.450525" y="39.692"/>
</g>
</g>
</g>
</svg>
