<?xml version="1.0" encoding="UTF-8"?>
<svg xmlns="http://www.w3.org/2000/svg" xmlns:xlink="http://www.w3.org/1999/xlink" width="234pt" height="487pt" viewBox="0 0 169 351" version="1.1">
<defs>
<g>
<symbol overflow="visible" id="glyph0-0">
<path style="stroke:none;" d=""/>
</symbol>
<symbol overflow="visible" id="glyph0-1">
<path style="stroke:none;" d="M 2.578125 1.546875 C 2.546875 1.5 2.5 1.46875 2.453125 1.4375 C 1.6875 0.75 1.21875 -0.3125 1.171875 -1.59375 C 1.140625 -2.46875 1.296875 -3.375 1.703125 -4.15625 C 1.90625 -4.53125 2.140625 -4.84375 2.453125 -5.109375 C 2.5 -5.15625 2.546875 -5.1875 2.578125 -5.21875 L 2.328125 -5.21875 C 2.171875 -5.21875 2.1875 -5.21875 2.078125 -5.140625 C 1.71875 -4.859375 1.421875 -4.484375 1.1875 -4.0625 C 0.53125 -2.828125 0.484375 -1.15625 1.09375 0.1875 C 1.3125 0.6875 1.65625 1.109375 2.078125 1.46875 C 2.171875 1.53125 2.171875 1.546875 2.328125 1.546875 L 2.578125 1.546875 Z M 2.578125 1.546875 "/>
</symbol>
<symbol overflow="visible" id="glyph0-2">
<path style="stroke:none;" d="M 0.640625 -2.640625 C 0.765625 -2.703125 0.859375 -2.78125 0.984375 -2.84375 C 1.203125 -2.9375 1.4375 -2.984375 1.6875 -3 C 1.75 -3.015625 1.828125 -3.015625 1.90625 -3.015625 C 2.1875 -2.96875 2.421875 -2.78125 2.5 -2.515625 C 2.578125 -2.3125 2.546875 -2.0625 2.546875 -1.859375 C 2.1875 -1.859375 1.8125 -1.828125 1.453125 -1.734375 C 0.953125 -1.609375 0.328125 -1.359375 0.390625 -0.71875 C 0.4375 -0.4375 0.59375 -0.15625 0.859375 -0.015625 C 1.03125 0.0625 1.234375 0.0625 1.4375 0.046875 C 1.734375 0.015625 2.0625 -0.0625 2.3125 -0.25 C 2.40625 -0.3125 2.484375 -0.390625 2.5625 -0.46875 L 2.5625 0 L 3.046875 0 L 3.046875 -1.828125 C 3.046875 -2.015625 3.078125 -2.21875 3.03125 -2.421875 C 2.96875 -2.90625 2.53125 -3.265625 2.078125 -3.359375 C 1.796875 -3.40625 1.359375 -3.34375 1.125 -3.296875 C 1.046875 -3.265625 0.65625 -3.140625 0.625 -3.078125 C 0.59375 -3.046875 0.609375 -2.984375 0.609375 -2.953125 C 0.625 -2.84375 0.640625 -2.75 0.640625 -2.640625 Z M 2.546875 -1.625 L 2.546875 -1.109375 C 2.546875 -0.96875 2.546875 -0.84375 2.484375 -0.71875 C 2.40625 -0.578125 2.265625 -0.46875 2.109375 -0.421875 C 1.78125 -0.296875 1.328125 -0.28125 1.046875 -0.515625 C 0.96875 -0.5625 0.90625 -0.640625 0.890625 -0.75 C 0.8125 -1.046875 1.078125 -1.28125 1.3125 -1.390625 C 1.640625 -1.546875 2.109375 -1.625 2.546875 -1.625 Z M 2.546875 -1.625 "/>
</symbol>
<symbol overflow="visible" id="glyph0-3">
<path style="stroke:none;" d="M 0.4375 -5.21875 C 0.46875 -5.1875 0.515625 -5.15625 0.5625 -5.109375 C 1.421875 -4.34375 1.890625 -3.109375 1.828125 -1.59375 C 1.8125 -0.84375 1.625 -0.09375 1.265625 0.5625 C 1.078125 0.890625 0.84375 1.1875 0.5625 1.4375 C 0.515625 1.46875 0.46875 1.5 0.4375 1.546875 L 0.6875 1.546875 C 0.84375 1.546875 0.828125 1.546875 0.921875 1.46875 C 1.296875 1.171875 1.59375 0.796875 1.8125 0.390625 C 2.484375 -0.859375 2.53125 -2.515625 1.921875 -3.859375 C 1.6875 -4.375 1.359375 -4.796875 0.9375 -5.140625 C 0.84375 -5.21875 0.84375 -5.21875 0.6875 -5.21875 L 0.4375 -5.21875 Z M 0.4375 -5.21875 "/>
</symbol>
<symbol overflow="visible" id="glyph0-4">
<path style="stroke:none;" d="M 0.4375 -2.671875 C 0.375 -2.578125 0.4375 -2.453125 0.53125 -2.421875 C 0.578125 -2.40625 0.625 -2.421875 0.671875 -2.421875 L 5.125 -2.421875 C 5.1875 -2.421875 5.234375 -2.421875 5.296875 -2.453125 C 5.375 -2.546875 5.328125 -2.71875 5.203125 -2.734375 C 5.09375 -2.75 4.984375 -2.734375 4.890625 -2.734375 L 0.671875 -2.734375 C 0.5625 -2.734375 0.5 -2.75 0.4375 -2.671875 Z M 0.4375 -1.1875 C 0.375 -1.09375 0.4375 -0.96875 0.53125 -0.953125 C 0.578125 -0.9375 0.625 -0.9375 0.671875 -0.9375 L 5.125 -0.9375 C 5.1875 -0.9375 5.234375 -0.9375 5.296875 -0.984375 C 5.375 -1.078125 5.328125 -1.234375 5.203125 -1.265625 C 5.09375 -1.28125 4.984375 -1.265625 4.890625 -1.265625 L 0.65625 -1.265625 C 0.5625 -1.265625 0.484375 -1.265625 0.4375 -1.1875 Z M 0.4375 -1.1875 "/>
</symbol>
<symbol overflow="visible" id="glyph0-5">
<path style="stroke:none;" d="M 1.828125 -4.6875 C 1.671875 -4.65625 1.5 -4.640625 1.359375 -4.5625 C 0.625 -4.28125 0.375 -3.34375 0.375 -2.40625 C 0.375 -2.265625 0.375 -2.125 0.375 -1.96875 C 0.390625 -1.328125 0.546875 -0.6875 0.90625 -0.296875 C 1.21875 0.015625 1.671875 0.140625 2.09375 0.109375 C 2.359375 0.078125 2.578125 -0.015625 2.765625 -0.140625 C 3.359375 -0.5625 3.5 -1.421875 3.5 -2.359375 C 3.5 -3.125 3.359375 -3.8125 2.984375 -4.234375 C 2.703125 -4.546875 2.265625 -4.71875 1.828125 -4.6875 Z M 2.421875 -4.171875 C 2.5 -4.125 2.5625 -4.078125 2.625 -4.015625 C 2.890625 -3.765625 2.96875 -3.265625 2.984375 -2.796875 C 2.984375 -2.703125 2.984375 -2.609375 2.984375 -2.515625 L 2.984375 -2.15625 C 2.984375 -1.5625 2.9375 -0.984375 2.671875 -0.625 C 2.328125 -0.171875 1.578125 -0.15625 1.21875 -0.609375 C 1.125 -0.703125 1.078125 -0.828125 1.03125 -0.9375 C 0.90625 -1.296875 0.875 -1.734375 0.875 -2.1875 L 0.875 -2.546875 C 0.875 -2.640625 0.890625 -2.71875 0.890625 -2.8125 C 0.890625 -3.359375 1.03125 -3.90625 1.390625 -4.140625 C 1.671875 -4.3125 2.09375 -4.359375 2.421875 -4.171875 Z M 2.421875 -4.171875 "/>
</symbol>
<symbol overflow="visible" id="glyph0-6">
<path style="stroke:none;" d="M 0.734375 -4.84375 L 0.734375 0 L 1.25 0 L 1.25 -2.21875 L 2.28125 -2.21875 C 2.421875 -2.21875 2.546875 -2.234375 2.65625 -2.203125 C 2.78125 -2.03125 2.90625 -1.859375 3.03125 -1.671875 C 3.421875 -1.125 3.8125 -0.5625 4.21875 -0.015625 C 4.390625 0 4.578125 0 4.75 0 L 4.46875 -0.390625 L 3.125 -2.28125 C 3.25 -2.296875 3.390625 -2.328125 3.515625 -2.390625 C 4.015625 -2.5625 4.578125 -2.96875 4.53125 -3.5625 C 4.515625 -3.796875 4.453125 -3.9375 4.328125 -4.109375 C 4.015625 -4.515625 3.484375 -4.765625 2.875 -4.828125 C 2.625 -4.84375 2.390625 -4.84375 2.125 -4.84375 L 0.734375 -4.84375 Z M 1.25 -2.609375 L 1.25 -4.421875 L 2.296875 -4.421875 C 2.640625 -4.421875 3 -4.421875 3.34375 -4.328125 C 3.671875 -4.203125 4 -3.96875 4.046875 -3.59375 C 4.0625 -3.359375 3.96875 -3.140625 3.8125 -2.984375 C 3.6875 -2.875 3.546875 -2.796875 3.390625 -2.734375 C 3.046875 -2.609375 2.6875 -2.609375 2.328125 -2.609375 L 1.25 -2.609375 Z M 1.25 -2.609375 "/>
</symbol>
<symbol overflow="visible" id="glyph0-7">
<path style="stroke:none;" d="M 0.734375 -4.828125 L 0.734375 0 L 4.328125 0 L 4.328125 -0.4375 L 1.265625 -0.4375 L 1.265625 -2.296875 L 4 -2.296875 L 4 -2.703125 L 1.265625 -2.703125 L 1.265625 -4.40625 L 4.203125 -4.40625 L 4.203125 -4.828125 L 0.734375 -4.828125 Z M 0.734375 -4.828125 "/>
</symbol>
<symbol overflow="visible" id="glyph0-8">
<path style="stroke:none;" d="M 4.640625 -2.296875 L 3.015625 -2.296875 L 3.015625 -1.875 L 4.140625 -1.875 L 4.140625 -0.65625 C 4.140625 -0.546875 4.125 -0.515625 4 -0.5 C 3.65625 -0.390625 3.171875 -0.328125 2.78125 -0.375 C 2.3125 -0.4375 1.921875 -0.6875 1.65625 -0.984375 C 0.953125 -1.796875 0.953125 -3.078125 1.671875 -3.875 C 2.03125 -4.25 2.515625 -4.515625 3.1875 -4.46875 C 3.5 -4.453125 3.796875 -4.390625 4.078125 -4.265625 C 4.21875 -4.1875 4.34375 -4.09375 4.484375 -4 C 4.515625 -4.1875 4.5625 -4.375 4.578125 -4.546875 C 4.0625 -4.78125 3.703125 -4.890625 2.96875 -4.890625 C 2.3125 -4.890625 1.75 -4.578125 1.375 -4.25 C 1.234375 -4.125 1.125 -3.96875 1.015625 -3.8125 C 0.46875 -2.984375 0.453125 -1.859375 1.015625 -1.03125 C 1.28125 -0.640625 1.640625 -0.3125 2.109375 -0.125 C 2.734375 0.125 3.421875 0.078125 4.0625 -0.078125 C 4.125 -0.09375 4.625 -0.234375 4.640625 -0.296875 C 4.640625 -0.328125 4.640625 -0.34375 4.640625 -0.375 L 4.640625 -2.296875 Z M 4.640625 -2.296875 "/>
</symbol>
<symbol overflow="visible" id="glyph0-9">
<path style="stroke:none;" d="M 0.734375 -4.84375 L 0.734375 0 L 1.265625 0 L 1.265625 -4.84375 L 0.734375 -4.84375 Z M 0.734375 -4.84375 "/>
</symbol>
<symbol overflow="visible" id="glyph0-10">
<path style="stroke:none;" d="M 1 -4.03125 C 0.265625 -3.125 0.234375 -1.75 0.96875 -0.84375 C 1.28125 -0.4375 1.703125 -0.140625 2.234375 0.015625 C 3.71875 0.421875 4.921875 -0.546875 5.25 -1.65625 C 5.53125 -2.578125 5.25 -3.640625 4.53125 -4.3125 C 4.171875 -4.640625 3.65625 -4.90625 3.046875 -4.9375 C 2.125 -5.015625 1.421875 -4.53125 1 -4.03125 Z M 3.484375 -4.453125 C 3.96875 -4.296875 4.359375 -3.96875 4.59375 -3.53125 C 4.734375 -3.265625 4.796875 -2.96875 4.828125 -2.671875 C 4.890625 -1.84375 4.546875 -0.9375 3.796875 -0.53125 C 3.421875 -0.328125 2.96875 -0.234375 2.484375 -0.34375 C 2.15625 -0.421875 1.859375 -0.59375 1.640625 -0.796875 C 1.21875 -1.1875 1 -1.765625 0.96875 -2.328125 C 0.90625 -3.34375 1.421875 -4.109375 2.140625 -4.390625 C 2.5625 -4.5625 3.03125 -4.59375 3.484375 -4.453125 Z M 3.484375 -4.453125 "/>
</symbol>
<symbol overflow="visible" id="glyph0-11">
<path style="stroke:none;" d="M 0.75 -4.84375 L 0.75 0 L 1.234375 0 L 1.234375 -4.40625 L 1.234375 -4.40625 L 1.4375 -4.0625 L 3.015625 -1.3125 C 3.265625 -0.875 3.5 -0.4375 3.75 -0.015625 C 3.96875 0.03125 4.25 -0.015625 4.484375 0 L 4.484375 -4.84375 L 4 -4.84375 L 4 -0.421875 L 2.1875 -3.59375 C 1.953125 -4 1.734375 -4.4375 1.484375 -4.828125 C 1.28125 -4.859375 0.984375 -4.828125 0.75 -4.84375 Z M 0.75 -4.84375 "/>
</symbol>
<symbol overflow="visible" id="glyph0-12">
<path style="stroke:none;" d="M 0.78125 -4.21875 L 0.78125 -3.828125 C 1.125 -3.828125 1.46875 -3.890625 1.78125 -4.03125 L 1.78125 -0.390625 L 0.8125 -0.390625 L 0.8125 0 L 3.25 0 L 3.25 -0.390625 L 2.28125 -0.390625 L 2.28125 -4.6875 C 2.25 -4.6875 2.1875 -4.6875 2.15625 -4.671875 C 2.109375 -4.65625 2.0625 -4.59375 2.015625 -4.5625 C 1.734375 -4.328125 1.21875 -4.21875 0.78125 -4.21875 Z M 0.78125 -4.21875 "/>
</symbol>
<symbol overflow="visible" id="glyph0-13">
<path style="stroke:none;" d="M 0.6875 -3.546875 L 0.6875 -3.546875 C 0.96875 -4.03125 1.515625 -4.34375 2.078125 -4.28125 C 2.484375 -4.265625 2.875 -4.03125 2.8125 -3.546875 C 2.765625 -3.15625 2.453125 -2.859375 2.078125 -2.75 C 1.875 -2.6875 1.515625 -2.671875 1.296875 -2.65625 L 1.296875 -2.265625 L 1.75 -2.265625 C 1.84375 -2.265625 1.9375 -2.28125 2.046875 -2.265625 C 2.296875 -2.25 2.546875 -2.15625 2.734375 -1.984375 C 3.046875 -1.6875 3.09375 -1.15625 2.90625 -0.78125 C 2.8125 -0.640625 2.703125 -0.515625 2.546875 -0.4375 C 2.1875 -0.21875 1.734375 -0.265625 1.34375 -0.390625 C 1.078125 -0.46875 0.828125 -0.609375 0.625 -0.796875 C 0.53125 -0.875 0.46875 -0.953125 0.390625 -1.03125 C 0.375 -0.953125 0.359375 -0.859375 0.34375 -0.78125 C 0.328125 -0.671875 0.3125 -0.640625 0.390625 -0.5625 L 0.515625 -0.4375 C 0.71875 -0.265625 0.953125 -0.125 1.203125 -0.015625 C 1.75 0.1875 2.390625 0.171875 2.890625 -0.140625 C 3.375 -0.46875 3.734375 -1.09375 3.453125 -1.6875 C 3.265625 -2.09375 2.921875 -2.328125 2.46875 -2.46875 C 2.734375 -2.59375 2.921875 -2.703125 3.09375 -2.953125 C 3.234375 -3.15625 3.390625 -3.46875 3.3125 -3.796875 C 3.25 -4.140625 2.96875 -4.40625 2.65625 -4.546875 C 2.203125 -4.75 1.65625 -4.71875 1.203125 -4.515625 C 0.96875 -4.421875 0.765625 -4.265625 0.59375 -4.078125 C 0.5625 -4.0625 0.453125 -3.921875 0.453125 -3.875 C 0.453125 -3.84375 0.625 -3.609375 0.6875 -3.546875 Z M 0.6875 -3.546875 "/>
</symbol>
<symbol overflow="visible" id="glyph0-14">
<path style="stroke:none;" d="M 0.625 -3.203125 C 0.734375 -3.609375 0.90625 -4.046875 1.34375 -4.203125 C 1.5 -4.265625 1.671875 -4.28125 1.859375 -4.265625 C 2.21875 -4.234375 2.578125 -4.09375 2.796875 -3.78125 C 2.9375 -3.578125 2.984375 -3.328125 2.953125 -3.078125 C 2.875 -2.40625 2.28125 -1.984375 1.796875 -1.609375 C 1.40625 -1.3125 0.59375 -0.59375 0.59375 -0.59375 L 0.453125 -0.484375 C 0.390625 -0.40625 0.390625 -0.421875 0.390625 -0.265625 L 0.390625 0 L 3.484375 0 L 3.484375 -0.4375 L 0.84375 -0.4375 C 1.109375 -0.671875 1.90625 -1.34375 2.140625 -1.515625 C 2.578125 -1.84375 3.0625 -2.15625 3.34375 -2.640625 C 3.640625 -3.203125 3.453125 -3.921875 2.96875 -4.3125 C 2.4375 -4.765625 1.46875 -4.828125 0.875 -4.390625 C 0.65625 -4.234375 0.5 -3.984375 0.390625 -3.734375 C 0.375 -3.671875 0.328125 -3.609375 0.328125 -3.546875 C 0.34375 -3.515625 0.390625 -3.484375 0.40625 -3.4375 C 0.46875 -3.359375 0.546875 -3.265625 0.625 -3.203125 Z M 0.625 -3.203125 "/>
</symbol>
<symbol overflow="visible" id="glyph0-15">
<path style="stroke:none;" d="M 0.578125 -4.84375 L 0.578125 0 L 1.09375 0 L 1.09375 -0.46875 L 1.09375 -0.46875 C 1.15625 -0.359375 1.265625 -0.265625 1.359375 -0.1875 C 1.671875 0.0625 2.1875 0.140625 2.640625 -0.078125 C 2.84375 -0.1875 3.015625 -0.359375 3.15625 -0.546875 C 3.84375 -1.5 3.421875 -3.09375 2.453125 -3.3125 C 2.328125 -3.359375 2.171875 -3.359375 2.03125 -3.328125 C 1.625 -3.28125 1.3125 -3.078125 1.078125 -2.828125 L 1.078125 -4.84375 L 0.578125 -4.84375 Z M 1.8125 -2.953125 C 2.140625 -2.984375 2.515625 -2.84375 2.734375 -2.578125 C 2.90625 -2.359375 2.96875 -2.078125 2.96875 -1.8125 C 3 -1.4375 2.953125 -1.03125 2.71875 -0.734375 C 2.515625 -0.46875 2.1875 -0.359375 1.875 -0.328125 C 1.609375 -0.328125 1.375 -0.421875 1.203125 -0.640625 C 1.171875 -0.6875 1.125 -0.75 1.09375 -0.8125 C 1.09375 -0.859375 1.09375 -0.90625 1.09375 -0.9375 L 1.09375 -2.328125 C 1.09375 -2.390625 1.078125 -2.46875 1.109375 -2.53125 C 1.140625 -2.609375 1.203125 -2.65625 1.265625 -2.71875 C 1.421875 -2.84375 1.609375 -2.9375 1.8125 -2.953125 Z M 1.8125 -2.953125 "/>
</symbol>
<symbol overflow="visible" id="glyph0-16">
<path style="stroke:none;" d="M 3.1875 -0.796875 C 3.125 -0.765625 3.078125 -0.71875 3.03125 -0.6875 C 2.9375 -0.625 2.84375 -0.5625 2.734375 -0.515625 C 2.3125 -0.3125 1.671875 -0.265625 1.296875 -0.5625 C 1.03125 -0.75 0.859375 -1.109375 0.84375 -1.5 C 0.8125 -1.953125 0.921875 -2.453125 1.296875 -2.75 C 1.5 -2.90625 1.765625 -3 2.140625 -2.96875 C 2.46875 -2.9375 2.65625 -2.890625 2.921875 -2.75 C 2.984375 -2.71875 3.03125 -2.671875 3.09375 -2.65625 L 3.171875 -3.078125 C 3.015625 -3.15625 2.875 -3.234375 2.703125 -3.28125 C 2.296875 -3.421875 1.671875 -3.40625 1.3125 -3.234375 C 0.96875 -3.078125 0.6875 -2.796875 0.515625 -2.46875 C 0.265625 -1.96875 0.265625 -1.359375 0.515625 -0.84375 C 0.609375 -0.65625 0.734375 -0.484375 0.90625 -0.34375 C 1.375 0.09375 2.09375 0.140625 2.6875 -0.0625 C 2.828125 -0.125 2.953125 -0.1875 3.078125 -0.265625 C 3.125 -0.296875 3.1875 -0.328125 3.203125 -0.359375 C 3.21875 -0.40625 3.1875 -0.796875 3.1875 -0.796875 Z M 3.1875 -0.796875 "/>
</symbol>
<symbol overflow="visible" id="glyph1-0">
<path style="stroke:none;" d=""/>
</symbol>
<symbol overflow="visible" id="glyph1-1">
<path style="stroke:none;" d="M 0.75 -3.296875 C 0.828125 -3.140625 0.921875 -3.015625 1.015625 -2.875 C 1.078125 -2.796875 1.6875 -1.875 1.71875 -1.84375 C 1.734375 -1.8125 1.796875 -1.75 1.796875 -1.703125 C 1.796875 -1.65625 1.71875 -1.609375 1.6875 -1.578125 C 1.375 -1.296875 0.046875 -0.046875 0 0 C 0.1875 0 0.375 0 0.53125 0 L 0.6875 -0.140625 L 1.984375 -1.4375 C 2.265625 -0.953125 2.53125 -0.46875 2.84375 -0.015625 C 3.015625 0 3.203125 0 3.390625 0 C 3.296875 -0.140625 2.359375 -1.53125 2.328125 -1.5625 C 2.3125 -1.609375 2.265625 -1.65625 2.265625 -1.6875 C 2.28125 -1.734375 2.34375 -1.78125 2.375 -1.8125 C 2.484375 -1.921875 2.59375 -2.015625 2.703125 -2.125 C 2.8125 -2.21875 3.921875 -3.25 3.953125 -3.296875 C 3.765625 -3.296875 3.59375 -3.296875 3.421875 -3.28125 C 2.96875 -2.875 2.546875 -2.4375 2.09375 -2.03125 C 1.828125 -2.453125 1.578125 -2.890625 1.28125 -3.28125 C 1.109375 -3.296875 0.921875 -3.296875 0.75 -3.296875 Z M 0.75 -3.296875 "/>
</symbol>
<symbol overflow="visible" id="glyph1-2">
<path style="stroke:none;" d="M 1.765625 -4.84375 L 0.734375 0 L 1.109375 0 C 1.15625 0 1.21875 0.015625 1.265625 -0.015625 C 1.296875 -0.03125 1.296875 -0.09375 1.296875 -0.125 C 1.3125 -0.203125 1.671875 -1.875 1.671875 -1.875 C 1.671875 -1.90625 1.671875 -1.984375 1.71875 -2 C 1.734375 -2.03125 1.765625 -2.015625 1.796875 -2.015625 L 2.640625 -2.015625 C 2.859375 -2.015625 3.078125 -2 3.296875 -2.03125 C 3.6875 -2.0625 4.078125 -2.203125 4.40625 -2.421875 C 4.890625 -2.734375 5.3125 -3.296875 5.15625 -3.890625 C 5.0625 -4.28125 4.75 -4.546875 4.421875 -4.6875 C 4.0625 -4.84375 3.65625 -4.84375 3.265625 -4.84375 L 1.765625 -4.84375 Z M 1.765625 -2.421875 C 1.796875 -2.625 1.859375 -2.8125 1.890625 -3.015625 C 1.921875 -3.125 2.15625 -4.21875 2.15625 -4.28125 C 2.171875 -4.34375 2.171875 -4.421875 2.265625 -4.421875 L 3.453125 -4.421875 C 3.9375 -4.421875 4.625 -4.296875 4.6875 -3.6875 C 4.734375 -3.1875 4.359375 -2.765625 3.921875 -2.578125 C 3.546875 -2.421875 3.21875 -2.421875 2.75 -2.421875 L 1.765625 -2.421875 Z M 1.765625 -2.421875 "/>
</symbol>
<symbol overflow="visible" id="glyph1-3">
<path style="stroke:none;" d="M 1.484375 -4 C 1.515625 -4.078125 1.546875 -4.15625 1.59375 -4.234375 C 1.71875 -4.421875 1.9375 -4.515625 2.15625 -4.546875 C 2.5625 -4.59375 2.984375 -4.46875 3.265625 -4.1875 C 3.578125 -3.84375 3.640625 -3.359375 3.609375 -2.921875 L 3.5625 -2.59375 C 3.546875 -2.53125 3.53125 -2.46875 3.53125 -2.40625 C 3.484375 -2.453125 3.484375 -2.515625 3.453125 -2.578125 C 3.265625 -2.9375 2.890625 -3.203125 2.46875 -3.296875 C 2.203125 -3.34375 1.90625 -3.359375 1.65625 -3.265625 C 1.421875 -3.1875 1.234375 -3.046875 1.078125 -2.890625 C 0.859375 -2.703125 0.6875 -2.484375 0.5625 -2.234375 C 0.390625 -1.875 0.203125 -1.296875 0.359375 -0.828125 C 0.40625 -0.6875 0.46875 -0.5625 0.5625 -0.453125 C 0.796875 -0.140625 1.09375 0.0625 1.578125 0.109375 C 2.0625 0.140625 2.515625 0 2.90625 -0.296875 C 3.515625 -0.75 3.84375 -1.53125 4 -2.265625 C 4.09375 -2.671875 4.140625 -3.078125 4.0625 -3.5 C 3.9375 -4.09375 3.59375 -4.578125 3.0625 -4.8125 C 2.625 -5 2.078125 -4.984375 1.640625 -4.796875 C 1.359375 -4.6875 1.125 -4.4375 1.03125 -4.140625 C 0.984375 -4.03125 0.9375 -3.875 1.046875 -3.796875 C 1.0625 -3.796875 1.078125 -3.78125 1.09375 -3.78125 C 1.203125 -3.75 1.3125 -3.78125 1.375 -3.875 C 1.421875 -3.921875 1.421875 -3.984375 1.484375 -4 Z M 2.9375 -2.78125 C 3.015625 -2.734375 3.078125 -2.6875 3.125 -2.640625 C 3.390625 -2.34375 3.4375 -1.9375 3.3125 -1.578125 C 3.21875 -1.28125 3.078125 -0.96875 2.84375 -0.71875 C 2.609375 -0.453125 2.265625 -0.3125 1.90625 -0.28125 C 1.65625 -0.265625 1.359375 -0.296875 1.15625 -0.4375 C 1.046875 -0.515625 0.953125 -0.640625 0.890625 -0.765625 C 0.765625 -1.03125 0.796875 -1.34375 0.875 -1.6875 C 1 -2.203125 1.203125 -2.578125 1.671875 -2.8125 C 2.046875 -2.984375 2.59375 -3 2.9375 -2.78125 Z M 2.9375 -2.78125 "/>
</symbol>
<symbol overflow="visible" id="glyph1-4">
<path style="stroke:none;" d="M 2.6875 -0.265625 L 2.609375 -0.46875 L 2.515625 -0.703125 C 2.46875 -0.671875 2.4375 -0.640625 2.390625 -0.609375 C 2.28125 -0.53125 2.171875 -0.46875 2.0625 -0.40625 C 1.921875 -0.328125 1.84375 -0.328125 1.625 -0.34375 C 1.296875 -0.390625 1.015625 -0.59375 0.90625 -0.90625 C 0.859375 -1.046875 0.84375 -1.203125 0.84375 -1.34375 C 0.84375 -1.421875 0.84375 -1.484375 0.84375 -1.546875 L 2.21875 -1.546875 C 2.265625 -1.546875 2.328125 -1.546875 2.375 -1.5625 C 2.484375 -1.59375 2.5625 -1.703125 2.546875 -1.8125 C 2.515625 -1.953125 2.359375 -1.9375 2.25 -1.9375 L 0.9375 -1.9375 C 1.0625 -2.421875 1.46875 -2.796875 1.953125 -2.890625 C 2.140625 -2.90625 2.328125 -2.90625 2.515625 -2.90625 C 2.640625 -2.90625 2.765625 -2.90625 2.8125 -3.046875 C 2.84375 -3.140625 2.84375 -3.25 2.734375 -3.28125 C 2.671875 -3.296875 2.609375 -3.296875 2.5625 -3.296875 L 2.234375 -3.296875 C 1.71875 -3.296875 1.203125 -3.03125 0.859375 -2.640625 C 0.71875 -2.5 0.609375 -2.34375 0.515625 -2.171875 C 0.296875 -1.703125 0.265625 -1.140625 0.5 -0.671875 C 0.65625 -0.328125 1.046875 -0.03125 1.484375 0.03125 C 1.984375 0.109375 2.375 -0.046875 2.6875 -0.265625 Z M 2.6875 -0.265625 "/>
</symbol>
<symbol overflow="visible" id="glyph1-5">
<path style="stroke:none;" d="M 1.75 -4.828125 L 0.734375 0 C 1.921875 0 3.15625 0.015625 4.3125 0 C 4.359375 -0.125 4.390625 -0.28125 4.40625 -0.4375 L 1.359375 -0.4375 L 1.75 -2.296875 C 2.640625 -2.3125 3.609375 -2.28125 4.46875 -2.3125 C 4.515625 -2.421875 4.546875 -2.578125 4.578125 -2.703125 L 1.84375 -2.703125 C 1.953125 -3.28125 2.078125 -3.84375 2.1875 -4.40625 L 5.15625 -4.40625 L 5.234375 -4.828125 L 1.75 -4.828125 Z M 1.75 -4.828125 "/>
</symbol>
<symbol overflow="visible" id="glyph2-0">
<path style="stroke:none;" d=""/>
</symbol>
<symbol overflow="visible" id="glyph2-1">
<path style="stroke:none;" d="M 0.53125 -2.359375 C 0.59375 -2.25 0.65625 -2.15625 0.734375 -2.0625 C 0.765625 -2 1.203125 -1.34375 1.21875 -1.3125 C 1.25 -1.296875 1.28125 -1.25 1.28125 -1.21875 C 1.28125 -1.1875 1.234375 -1.15625 1.203125 -1.125 C 0.984375 -0.921875 0.03125 -0.03125 0 0 C 0.140625 0 0.265625 0 0.390625 0 L 0.484375 -0.09375 L 1.421875 -1.03125 C 1.609375 -0.6875 1.8125 -0.34375 2.03125 -0.015625 C 2.15625 0 2.296875 0 2.421875 0 C 2.359375 -0.09375 1.6875 -1.09375 1.671875 -1.125 C 1.65625 -1.140625 1.625 -1.1875 1.625 -1.21875 C 1.625 -1.25 1.6875 -1.28125 1.703125 -1.296875 C 1.78125 -1.375 1.859375 -1.4375 1.9375 -1.515625 C 2.015625 -1.578125 2.796875 -2.328125 2.828125 -2.359375 C 2.703125 -2.359375 2.5625 -2.359375 2.4375 -2.34375 C 2.125 -2.0625 1.8125 -1.75 1.5 -1.453125 C 1.3125 -1.75 1.125 -2.0625 0.921875 -2.34375 C 0.796875 -2.359375 0.65625 -2.359375 0.53125 -2.359375 Z M 0.53125 -2.359375 "/>
</symbol>
<symbol overflow="visible" id="glyph3-0">
<path style="stroke:none;" d=""/>
</symbol>
<symbol overflow="visible" id="glyph3-1">
<path style="stroke:none;" d="M 0.546875 -3.015625 L 0.546875 -2.734375 C 0.796875 -2.734375 1.046875 -2.78125 1.28125 -2.875 L 1.28125 -0.28125 L 0.578125 -0.28125 L 0.578125 0 L 2.328125 0 L 2.328125 -0.28125 L 1.640625 -0.28125 L 1.640625 -3.34375 C 1.609375 -3.34375 1.5625 -3.359375 1.546875 -3.34375 C 1.5 -3.328125 1.46875 -3.296875 1.4375 -3.265625 C 1.234375 -3.09375 0.875 -3.015625 0.546875 -3.015625 Z M 0.546875 -3.015625 "/>
</symbol>
<symbol overflow="visible" id="glyph3-2">
<path style="stroke:none;" d="M 0.4375 -2.28125 C 0.515625 -2.578125 0.65625 -2.890625 0.953125 -3 C 1.078125 -3.046875 1.203125 -3.0625 1.328125 -3.046875 C 1.578125 -3.03125 1.84375 -2.921875 2 -2.703125 C 2.109375 -2.5625 2.140625 -2.375 2.109375 -2.203125 C 2.046875 -1.71875 1.625 -1.421875 1.28125 -1.15625 C 1 -0.9375 0.421875 -0.421875 0.421875 -0.421875 L 0.328125 -0.34375 C 0.28125 -0.296875 0.28125 -0.296875 0.28125 -0.1875 L 0.28125 0 L 2.5 0 L 2.5 -0.3125 L 0.59375 -0.3125 C 0.796875 -0.484375 1.359375 -0.953125 1.53125 -1.078125 C 1.84375 -1.3125 2.1875 -1.546875 2.390625 -1.890625 C 2.609375 -2.28125 2.46875 -2.8125 2.125 -3.078125 C 1.75 -3.40625 1.046875 -3.453125 0.625 -3.140625 C 0.46875 -3.03125 0.359375 -2.84375 0.28125 -2.671875 C 0.265625 -2.625 0.234375 -2.578125 0.234375 -2.546875 C 0.25 -2.515625 0.28125 -2.484375 0.296875 -2.46875 C 0.34375 -2.40625 0.390625 -2.34375 0.4375 -2.28125 Z M 0.4375 -2.28125 "/>
</symbol>
<symbol overflow="visible" id="glyph3-3">
<path style="stroke:none;" d="M 1.3125 -3.34375 C 1.1875 -3.328125 1.078125 -3.3125 0.96875 -3.265625 C 0.453125 -3.0625 0.265625 -2.390625 0.265625 -1.71875 C 0.265625 -1.609375 0.265625 -1.515625 0.265625 -1.40625 C 0.28125 -0.953125 0.390625 -0.5 0.65625 -0.21875 C 0.875 0.015625 1.203125 0.109375 1.5 0.078125 C 1.6875 0.0625 1.84375 -0.015625 1.984375 -0.09375 C 2.40625 -0.40625 2.5 -1.015625 2.5 -1.6875 C 2.5 -2.234375 2.40625 -2.71875 2.140625 -3.03125 C 1.9375 -3.25 1.609375 -3.375 1.3125 -3.34375 Z M 1.734375 -2.984375 C 1.78125 -2.953125 1.828125 -2.921875 1.875 -2.875 C 2.0625 -2.6875 2.125 -2.328125 2.140625 -2 C 2.140625 -1.9375 2.140625 -1.875 2.140625 -1.796875 L 2.140625 -1.546875 C 2.140625 -1.109375 2.09375 -0.703125 1.90625 -0.453125 C 1.65625 -0.125 1.125 -0.109375 0.875 -0.4375 C 0.8125 -0.515625 0.765625 -0.59375 0.734375 -0.671875 C 0.640625 -0.921875 0.625 -1.25 0.625 -1.5625 L 0.625 -1.8125 C 0.625 -1.890625 0.640625 -1.9375 0.640625 -2.015625 C 0.640625 -2.40625 0.734375 -2.796875 1 -2.953125 C 1.1875 -3.078125 1.5 -3.109375 1.734375 -2.984375 Z M 1.734375 -2.984375 "/>
</symbol>
<symbol overflow="visible" id="glyph4-0">
<path style="stroke:none;" d=""/>
</symbol>
<symbol overflow="visible" id="glyph4-1">
<path style="stroke:none;" d="M 0.734375 -2 C 0.59375 -1.953125 0.578125 -1.734375 0.71875 -1.6875 C 0.765625 -1.671875 0.8125 -1.671875 0.84375 -1.671875 L 4.78125 -1.671875 C 4.875 -1.671875 5.015625 -1.65625 5.09375 -1.71875 C 5.171875 -1.8125 5.125 -1.96875 5 -2 C 4.921875 -2.015625 4.828125 -2 4.734375 -2 L 0.859375 -2 C 0.828125 -2 0.78125 -2 0.734375 -2 Z M 0.734375 -2 "/>
</symbol>
</g>
<clipPath id="clip1">
  <path d="M -221 667 L 391 667 L 391 -125 L -221 -125 L -221 667 Z M -221 667 "/>
</clipPath>
<clipPath id="clip2">
  <path d="M -0.375 350.800781 L 169.625 350.800781 L 169.625 -0.199219 L -0.375 -0.199219 L -0.375 350.800781 Z M -0.375 350.800781 "/>
</clipPath>
<clipPath id="clip3">
  <path d="M -221 667 L 391 667 L 391 -125 L -221 -125 L -221 667 Z M -221 667 "/>
</clipPath>
</defs>
<g id="surface0">
<g clip-path="url(#clip1)" clip-rule="nonzero">
<g clip-path="url(#clip2)" clip-rule="nonzero">
<path style="fill:none;stroke-width:5;stroke-linecap:round;stroke-linejoin:round;stroke:rgb(0%,0%,0%);stroke-opacity:1;stroke-miterlimit:10;" d="M 12.744375 2618.3325 L 1685.205313 2618.3325 " transform="matrix(0.1,0,0,-0.1,-0.376,350.802)"/>
<path style=" stroke:none;fill-rule:nonzero;fill:rgb(0%,0%,0%);fill-opacity:1;" d="M 162.605469 90.195313 L 168.144531 88.96875 L 162.605469 87.742188 "/>
<path style="fill:none;stroke-width:5;stroke-linecap:round;stroke-linejoin:round;stroke:rgb(0%,0%,0%);stroke-opacity:1;stroke-miterlimit:10;" d="M 1629.814688 2606.066875 L 1685.205313 2618.3325 L 1629.814688 2630.598125 L 1629.814688 2606.066875 Z M 1629.814688 2606.066875 " transform="matrix(0.1,0,0,-0.1,-0.376,350.802)"/>
<path style="fill:none;stroke-width:5;stroke-linecap:round;stroke-linejoin:round;stroke:rgb(0%,0%,0%);stroke-opacity:1;stroke-miterlimit:10;" d="M 636.377187 2504.934063 L 636.377187 3468.723125 " transform="matrix(0.1,0,0,-0.1,-0.376,350.802)"/>
<path style=" stroke:none;fill-rule:nonzero;fill:rgb(0%,0%,0%);fill-opacity:1;" d="M 64.488281 9.464844 L 63.261719 3.929688 L 62.035156 9.464844 "/>
<path style="fill:none;stroke-width:5;stroke-linecap:round;stroke-linejoin:round;stroke:rgb(0%,0%,0%);stroke-opacity:1;stroke-miterlimit:10;" d="M 648.642812 3413.371563 L 636.377187 3468.723125 L 624.111562 3413.371563 L 648.642812 3413.371563 Z M 648.642812 3413.371563 " transform="matrix(0.1,0,0,-0.1,-0.376,350.802)"/>
<path style="fill:none;stroke-width:5;stroke-linecap:round;stroke-linejoin:round;stroke:rgb(0%,0%,0%);stroke-opacity:1;stroke-miterlimit:10;" d="M 657.627187 2618.3325 C 657.627187 2623.996563 655.400625 2629.387188 651.41625 2633.371563 C 647.431875 2637.355938 642.002187 2639.5825 636.377187 2639.5825 C 630.752187 2639.5825 625.3225 2637.355938 621.338125 2633.371563 C 617.35375 2629.387188 615.127187 2623.996563 615.127187 2618.3325 C 615.127187 2612.7075 617.35375 2607.277813 621.338125 2603.293438 C 625.3225 2599.309063 630.752187 2597.0825 636.377187 2597.0825 C 642.002187 2597.0825 647.431875 2599.309063 651.41625 2603.293438 C 655.400625 2607.277813 657.627187 2612.7075 657.627187 2618.3325 Z M 657.627187 2618.3325 " transform="matrix(0.1,0,0,-0.1,-0.376,350.802)"/>
<path style="fill:none;stroke-width:5;stroke-linecap:round;stroke-linejoin:round;stroke:rgb(0%,0%,0%);stroke-opacity:1;stroke-miterlimit:10;" d="M 12.744375 2618.3325 L 69.463125 2618.3325 L 126.142813 2618.3325 L 182.8225 2618.371563 L 239.54125 2618.410625 C 258.408438 2618.449688 277.314688 2618.48875 296.220938 2618.605938 C 315.127188 2618.723125 333.994375 2618.879375 352.900625 2619.309063 C 362.35375 2619.543438 371.806875 2619.816875 381.26 2620.2075 C 390.713125 2620.598125 400.16625 2621.145 409.619375 2621.887188 C 419.033438 2622.668438 428.486563 2623.645 437.939688 2625.090313 C 447.392813 2626.535625 456.845938 2628.371563 466.299063 2631.066875 C 475.752188 2633.762188 485.205313 2637.23875 494.658438 2642.160625 C 504.111563 2647.0825 513.525625 2653.449688 522.97875 2662.23875 C 532.431875 2671.027813 541.885 2682.199688 551.338125 2697.004375 C 560.79125 2711.809063 570.244375 2730.246563 579.6975 2752.902813 C 589.150625 2775.67625 598.60375 2802.746563 608.017812 2832.902813 C 617.470937 2863.215313 626.924062 2896.691875 636.377187 2930.168438 C 645.830312 2963.605938 655.244375 2997.0825 664.736562 3027.395 C 674.150625 3057.55125 683.60375 3084.621563 693.056875 3107.395 C 702.51 3130.05125 711.963125 3148.48875 721.41625 3163.293438 C 730.869375 3178.098125 740.3225 3189.27 749.775625 3198.059063 C 759.189687 3206.848125 768.642812 3213.215313 778.095937 3218.137188 C 787.549062 3223.059063 797.002187 3226.535625 806.455312 3229.230938 C 815.908437 3231.92625 825.361562 3233.762188 834.814687 3235.2075 C 844.22875 3236.652813 853.681875 3237.629375 863.135 3238.410625 C 872.588125 3239.152813 882.04125 3239.660625 891.494375 3240.090313 C 900.9475 3240.480938 910.400625 3240.754375 919.85375 3240.98875 C 938.720937 3241.418438 957.627187 3241.574688 976.533437 3241.691875 C 995.439687 3241.809063 1014.306875 3241.848125 1033.213125 3241.887188 L 1089.892813 3241.92625 L 1146.611563 3241.965313 L 1203.29125 3241.965313 L 1685.205313 3241.965313 " transform="matrix(0.1,0,0,-0.1,-0.376,350.802)"/>
<path style="fill:none;stroke-width:5;stroke-linecap:round;stroke-linejoin:round;stroke:rgb(0%,0%,0%);stroke-opacity:1;stroke-miterlimit:10;" d="M 12.744375 1399.42625 L 1685.205313 1399.42625 " transform="matrix(0.1,0,0,-0.1,-0.376,350.802)"/>
<path style=" stroke:none;fill-rule:nonzero;fill:rgb(0%,0%,0%);fill-opacity:1;" d="M 162.605469 212.085938 L 168.144531 210.859375 L 162.605469 209.632813 "/>
<path style="fill:none;stroke-width:5;stroke-linecap:round;stroke-linejoin:round;stroke:rgb(0%,0%,0%);stroke-opacity:1;stroke-miterlimit:10;" d="M 1629.814688 1387.160625 L 1685.205313 1399.42625 L 1629.814688 1411.691875 L 1629.814688 1387.160625 Z M 1629.814688 1387.160625 " transform="matrix(0.1,0,0,-0.1,-0.376,350.802)"/>
<path style="fill:none;stroke-width:5;stroke-linecap:round;stroke-linejoin:round;stroke:rgb(0%,0%,0%);stroke-opacity:1;stroke-miterlimit:10;" d="M 636.377187 1201.027813 L 636.377187 2363.215313 " transform="matrix(0.1,0,0,-0.1,-0.376,350.802)"/>
<path style=" stroke:none;fill-rule:nonzero;fill:rgb(0%,0%,0%);fill-opacity:1;" d="M 64.488281 120.015625 L 63.261719 114.480469 L 62.035156 120.015625 "/>
<path style="fill:none;stroke-width:5;stroke-linecap:round;stroke-linejoin:round;stroke:rgb(0%,0%,0%);stroke-opacity:1;stroke-miterlimit:10;" d="M 648.642812 2307.86375 L 636.377187 2363.215313 L 624.111562 2307.86375 L 648.642812 2307.86375 Z M 648.642812 2307.86375 " transform="matrix(0.1,0,0,-0.1,-0.376,350.802)"/>
<path style="fill:none;stroke-width:5;stroke-linecap:round;stroke-linejoin:round;stroke:rgb(0%,0%,0%);stroke-opacity:1;stroke-miterlimit:10;" d="M 657.627187 1399.42625 C 657.627187 1405.090313 655.400625 1410.480938 651.41625 1414.465313 C 647.431875 1418.449688 642.002187 1420.715313 636.377187 1420.715313 C 630.752187 1420.715313 625.3225 1418.449688 621.338125 1414.465313 C 617.35375 1410.480938 615.127187 1405.090313 615.127187 1399.42625 C 615.127187 1393.80125 617.35375 1388.371563 621.338125 1384.42625 C 625.3225 1380.402813 630.752187 1378.17625 636.377187 1378.17625 C 642.002187 1378.17625 647.431875 1380.402813 651.41625 1384.42625 C 655.400625 1388.371563 657.627187 1393.80125 657.627187 1399.42625 Z M 657.627187 1399.42625 " transform="matrix(0.1,0,0,-0.1,-0.376,350.802)"/>
<path style="fill:none;stroke-width:5;stroke-linecap:round;stroke-linejoin:round;stroke:rgb(0%,0%,0%);stroke-opacity:1;stroke-miterlimit:10;" d="M 12.744375 1399.42625 L 69.463125 1399.465313 L 126.142813 1399.465313 C 145.049063 1399.465313 163.91625 1399.504375 182.8225 1399.543438 C 201.72875 1399.5825 220.635 1399.621563 239.54125 1399.777813 C 258.408438 1399.934063 277.314688 1400.2075 296.220938 1400.715313 C 315.127188 1401.262188 333.994375 1402.0825 352.900625 1404.074688 C 362.35375 1405.05125 371.806875 1406.379375 381.26 1408.254375 C 390.713125 1410.129375 400.16625 1412.590313 409.619375 1416.145 C 419.033438 1419.699688 428.486563 1424.348125 437.939688 1430.98875 C 447.392813 1437.629375 456.845938 1446.223125 466.299063 1458.371563 C 475.752188 1470.559063 485.205313 1486.262188 494.658438 1507.785625 C 504.111563 1529.348125 513.564687 1556.77 522.97875 1592.355938 C 532.470937 1628.254375 541.924062 1672.434063 551.338125 1724.42625 C 560.830312 1776.965313 570.244375 1837.473125 579.6975 1898.3325 C 589.0725 1959.035625 598.486562 2020.129375 608.017812 2064.777813 C 617.392812 2108.605938 626.845937 2136.4575 636.377187 2136.4575 C 645.869375 2136.4575 655.361562 2108.605938 664.736562 2064.777813 C 674.267812 2020.129375 683.642812 1959.035625 693.056875 1898.3325 C 702.470937 1837.473125 711.924062 1776.965313 721.41625 1724.42625 C 730.79125 1672.434063 740.244375 1628.254375 749.775625 1592.355938 C 759.189687 1556.77 768.642812 1529.348125 778.095937 1507.785625 C 787.549062 1486.262188 797.002187 1470.559063 806.455312 1458.371563 C 815.908437 1446.223125 825.361562 1437.629375 834.814687 1430.98875 C 844.22875 1424.348125 853.681875 1419.699688 863.135 1416.145 C 872.588125 1412.590313 882.04125 1410.129375 891.494375 1408.254375 C 900.9475 1406.379375 910.400625 1405.05125 919.85375 1404.074688 C 938.720937 1402.0825 957.627187 1401.262188 976.533437 1400.715313 C 995.439687 1400.2075 1014.306875 1399.934063 1033.213125 1399.777813 C 1052.119375 1399.621563 1071.025625 1399.5825 1089.892813 1399.543438 C 1108.799063 1399.504375 1127.705313 1399.465313 1146.611563 1399.465313 L 1203.29125 1399.465313 L 1259.970938 1399.42625 L 1600.16625 1399.42625 " transform="matrix(0.1,0,0,-0.1,-0.376,350.802)"/>
<path style="fill:none;stroke-width:5;stroke-linecap:round;stroke-linejoin:round;stroke:rgb(0%,0%,0%);stroke-opacity:1;stroke-miterlimit:10;" d="M 12.744375 180.559063 L 1685.205313 180.559063 " transform="matrix(0.1,0,0,-0.1,-0.376,350.802)"/>
<path style=" stroke:none;fill-rule:nonzero;fill:rgb(0%,0%,0%);fill-opacity:1;" d="M 162.605469 333.976563 L 168.144531 332.746094 L 162.605469 331.519531 "/>
<path style="fill:none;stroke-width:5;stroke-linecap:round;stroke-linejoin:round;stroke:rgb(0%,0%,0%);stroke-opacity:1;stroke-miterlimit:10;" d="M 1629.814688 168.254375 L 1685.205313 180.559063 L 1629.814688 192.824688 L 1629.814688 168.254375 Z M 1629.814688 168.254375 " transform="matrix(0.1,0,0,-0.1,-0.376,350.802)"/>
<path style="fill:none;stroke-width:5;stroke-linecap:round;stroke-linejoin:round;stroke:rgb(0%,0%,0%);stroke-opacity:1;stroke-miterlimit:10;" d="M 636.377187 10.480938 L 636.377187 1087.629375 " transform="matrix(0.1,0,0,-0.1,-0.376,350.802)"/>
<path style=" stroke:none;fill-rule:nonzero;fill:rgb(0%,0%,0%);fill-opacity:1;" d="M 64.488281 247.574219 L 63.261719 242.039063 L 62.035156 247.574219 "/>
<path style="fill:none;stroke-width:5;stroke-linecap:round;stroke-linejoin:round;stroke:rgb(0%,0%,0%);stroke-opacity:1;stroke-miterlimit:10;" d="M 648.642812 1032.277813 L 636.377187 1087.629375 L 624.111562 1032.277813 L 648.642812 1032.277813 Z M 648.642812 1032.277813 " transform="matrix(0.1,0,0,-0.1,-0.376,350.802)"/>
<path style="fill:none;stroke-width:5;stroke-linecap:round;stroke-linejoin:round;stroke:rgb(0%,0%,0%);stroke-opacity:1;stroke-miterlimit:10;" d="M 657.627187 180.559063 C 657.627187 186.184063 655.400625 191.574688 651.41625 195.559063 C 647.431875 199.5825 642.002187 201.809063 636.377187 201.809063 C 630.752187 201.809063 625.3225 199.5825 621.338125 195.559063 C 617.35375 191.574688 615.127187 186.184063 615.127187 180.559063 C 615.127187 174.895 617.35375 169.504375 621.338125 165.52 C 625.3225 161.535625 630.752187 159.27 636.377187 159.27 C 642.002187 159.27 647.431875 161.535625 651.41625 165.52 C 655.400625 169.504375 657.627187 174.895 657.627187 180.559063 Z M 657.627187 180.559063 " transform="matrix(0.1,0,0,-0.1,-0.376,350.802)"/>
<path style="fill:none;stroke-width:5;stroke-linecap:round;stroke-linejoin:round;stroke:rgb(0%,0%,0%);stroke-opacity:1;stroke-miterlimit:10;" d="M 12.744375 180.559063 L 69.463125 180.559063 L 126.142813 180.559063 C 145.049063 180.559063 163.91625 180.598125 182.8225 180.637188 C 201.72875 180.67625 220.635 180.754375 239.54125 180.910625 C 258.408438 181.066875 277.314688 181.30125 296.220938 181.809063 C 315.127188 182.355938 333.994375 183.17625 352.900625 185.168438 C 362.35375 186.184063 371.806875 187.473125 381.26 189.348125 C 390.713125 191.223125 400.16625 193.684063 409.619375 197.23875 C 419.033438 200.793438 428.486563 205.441875 437.939688 212.0825 C 447.392813 218.723125 456.845938 227.355938 466.299063 239.504375 C 475.752188 251.652813 485.205313 267.355938 494.658438 288.879375 C 504.111563 310.480938 513.564687 337.902813 522.97875 373.449688 C 532.470937 409.348125 541.924062 453.527813 551.338125 505.52 C 560.830312 558.059063 570.244375 618.605938 579.6975 679.42625 C 589.0725 740.168438 598.486562 801.262188 608.017812 845.871563 C 617.392812 889.699688 626.845937 917.55125 636.377187 917.55125 C 645.869375 917.55125 655.361562 889.699688 664.736562 845.871563 C 674.267812 801.262188 683.642812 740.129375 693.056875 679.42625 C 702.470937 618.566875 711.924062 558.059063 721.41625 505.52 C 730.79125 453.527813 740.244375 409.348125 749.775625 373.449688 C 759.189687 337.902813 768.642812 310.480938 778.095937 288.879375 C 787.549062 267.355938 797.002187 251.652813 806.455312 239.504375 C 815.908437 227.355938 825.361562 218.723125 834.814687 212.0825 C 844.22875 205.441875 853.681875 200.793438 863.135 197.23875 C 872.588125 193.684063 882.04125 191.223125 891.494375 189.348125 C 900.9475 187.473125 910.400625 186.184063 919.85375 185.168438 C 938.720937 183.17625 957.627187 182.355938 976.533437 181.809063 C 995.439687 181.30125 1014.306875 181.066875 1033.213125 180.910625 C 1052.119375 180.754375 1071.025625 180.67625 1089.892813 180.637188 C 1108.799063 180.598125 1127.705313 180.559063 1146.611563 180.559063 L 1203.29125 180.559063 L 1259.970938 180.559063 L 1600.16625 180.559063 " transform="matrix(0.1,0,0,-0.1,-0.376,350.802)"/>
<path style="fill:none;stroke-width:3;stroke-linecap:round;stroke-linejoin:round;stroke:rgb(0%,0%,0%);stroke-opacity:1;stroke-dasharray:30,30;stroke-miterlimit:10;" d="M 423.76 180.559063 L 423.76 3497.0825 " transform="matrix(0.1,0,0,-0.1,-0.376,350.802)"/>
<path style="fill:none;stroke-width:3;stroke-linecap:round;stroke-linejoin:round;stroke:rgb(0%,0%,0%);stroke-opacity:1;stroke-dasharray:30,30;stroke-miterlimit:10;" d="M 848.955312 180.559063 L 848.955312 3497.0825 " transform="matrix(0.1,0,0,-0.1,-0.376,350.802)"/>
</g>
</g>
<g clip-path="url(#clip3)" clip-rule="nonzero">
<g style="fill:rgb(0%,0%,0%);fill-opacity:1;">
  <use xlink:href="#glyph0-1" x="16.882" y="49.335"/>
  <use xlink:href="#glyph0-2" x="19.898866" y="49.335"/>
  <use xlink:href="#glyph0-3" x="23.535703" y="49.335"/>
</g>
<g style="fill:rgb(0%,0%,0%);fill-opacity:1;">
  <use xlink:href="#glyph1-1" x="163.131" y="95.292"/>
</g>
<g style="fill:rgb(0%,0%,0%);fill-opacity:1;">
  <use xlink:href="#glyph1-2" x="65.388" y="8.945"/>
</g>
<g style="fill:rgb(0%,0%,0%);fill-opacity:1;">
  <use xlink:href="#glyph2-1" x="69.748" y="9.817"/>
</g>
<g style="fill:rgb(0%,0%,0%);fill-opacity:1;">
  <use xlink:href="#glyph1-2" x="9.018" y="86.308"/>
</g>
<g style="fill:rgb(0%,0%,0%);fill-opacity:1;">
  <use xlink:href="#glyph2-1" x="13.379" y="87.18"/>
</g>
<g style="fill:rgb(0%,0%,0%);fill-opacity:1;">
  <use xlink:href="#glyph3-1" x="16.288" y="87.18"/>
</g>
<g style="fill:rgb(0%,0%,0%);fill-opacity:1;">
  <use xlink:href="#glyph0-4" x="21.616" y="86.308"/>
</g>
<g style="fill:rgb(0%,0%,0%);fill-opacity:1;">
  <use xlink:href="#glyph0-5" x="29.436419" y="86.308"/>
</g>
<g style="fill:rgb(0%,0%,0%);fill-opacity:1;">
  <use xlink:href="#glyph1-2" x="121.063" y="24.23"/>
</g>
<g style="fill:rgb(0%,0%,0%);fill-opacity:1;">
  <use xlink:href="#glyph2-1" x="125.424" y="25.101"/>
</g>
<g style="fill:rgb(0%,0%,0%);fill-opacity:1;">
  <use xlink:href="#glyph3-2" x="128.333" y="25.101"/>
</g>
<g style="fill:rgb(0%,0%,0%);fill-opacity:1;">
  <use xlink:href="#glyph0-6" x="4.067" y="107.047"/>
  <use xlink:href="#glyph0-7" x="9.047688" y="107.047"/>
  <use xlink:href="#glyph0-8" x="13.69712" y="107.047"/>
  <use xlink:href="#glyph0-9" x="18.869588" y="107.047"/>
  <use xlink:href="#glyph0-10" x="20.874555" y="107.047"/>
  <use xlink:href="#glyph0-11" x="26.676757" y="107.047"/>
</g>
<g style="fill:rgb(0%,0%,0%);fill-opacity:1;">
  <use xlink:href="#glyph0-12" x="34.386293" y="107.047"/>
</g>
<g style="fill:rgb(0%,0%,0%);fill-opacity:1;">
  <use xlink:href="#glyph0-6" x="46.303" y="107.047"/>
  <use xlink:href="#glyph0-7" x="51.283688" y="107.047"/>
  <use xlink:href="#glyph0-8" x="55.93312" y="107.047"/>
  <use xlink:href="#glyph0-9" x="61.105588" y="107.047"/>
  <use xlink:href="#glyph0-10" x="63.110555" y="107.047"/>
  <use xlink:href="#glyph0-11" x="68.912757" y="107.047"/>
</g>
<g style="fill:rgb(0%,0%,0%);fill-opacity:1;">
  <use xlink:href="#glyph0-13" x="76.622293" y="107.047"/>
</g>
<g style="fill:rgb(0%,0%,0%);fill-opacity:1;">
  <use xlink:href="#glyph0-6" x="109.233" y="107.047"/>
  <use xlink:href="#glyph0-7" x="114.213688" y="107.047"/>
  <use xlink:href="#glyph0-8" x="118.86312" y="107.047"/>
  <use xlink:href="#glyph0-9" x="124.035588" y="107.047"/>
  <use xlink:href="#glyph0-10" x="126.040555" y="107.047"/>
  <use xlink:href="#glyph0-11" x="131.842757" y="107.047"/>
</g>
<g style="fill:rgb(0%,0%,0%);fill-opacity:1;">
  <use xlink:href="#glyph0-14" x="139.552293" y="107.047"/>
</g>
<g style="fill:rgb(0%,0%,0%);fill-opacity:1;">
  <use xlink:href="#glyph0-1" x="16.693" y="171.225"/>
  <use xlink:href="#glyph0-15" x="19.709866" y="171.225"/>
  <use xlink:href="#glyph0-3" x="23.535693" y="171.225"/>
</g>
<g style="fill:rgb(0%,0%,0%);fill-opacity:1;">
  <use xlink:href="#glyph1-1" x="163.131" y="217.182"/>
</g>
<g style="fill:rgb(0%,0%,0%);fill-opacity:1;">
  <use xlink:href="#glyph1-3" x="68.001" y="119.236"/>
</g>
<g style="fill:rgb(0%,0%,0%);fill-opacity:1;">
  <use xlink:href="#glyph1-2" x="72.254321" y="119.236"/>
</g>
<g style="fill:rgb(0%,0%,0%);fill-opacity:1;">
  <use xlink:href="#glyph2-1" x="76.613" y="120.107"/>
</g>
<path style="fill:none;stroke-width:0.339;stroke-linecap:butt;stroke-linejoin:miter;stroke:rgb(0%,0%,0%);stroke-opacity:1;stroke-miterlimit:10;" d="M -0.001 0.00034375 L 12.018531 0.00034375 " transform="matrix(1,0,0,-1,68.001,122.348)"/>
<g style="fill:rgb(0%,0%,0%);fill-opacity:1;">
  <use xlink:href="#glyph1-3" x="69.848" y="129.316"/>
</g>
<g style="fill:rgb(0%,0%,0%);fill-opacity:1;">
  <use xlink:href="#glyph1-1" x="74.101321" y="129.316"/>
</g>
<g style="fill:rgb(0%,0%,0%);fill-opacity:1;">
  <use xlink:href="#glyph0-1" x="17.071" y="293.115"/>
  <use xlink:href="#glyph0-16" x="20.087866" y="293.115"/>
  <use xlink:href="#glyph0-3" x="23.535713" y="293.115"/>
</g>
<g style="fill:rgb(0%,0%,0%);fill-opacity:1;">
  <use xlink:href="#glyph1-1" x="163.131" y="339.072"/>
</g>
<path style=" stroke:none;fill-rule:nonzero;fill:rgb(100%,100%,100%);fill-opacity:1;" d="M 65.105469 259.734375 L 99.609375 259.734375 L 99.609375 238.832031 L 65.105469 238.832031 L 65.105469 259.734375 Z M 65.105469 259.734375 "/>
<g style="fill:rgb(0%,0%,0%);fill-opacity:1;">
  <use xlink:href="#glyph4-1" x="68.093" y="251.618"/>
</g>
<g style="fill:rgb(0%,0%,0%);fill-opacity:1;">
  <use xlink:href="#glyph1-4" x="73.856" y="251.618"/>
</g>
<g style="fill:rgb(0%,0%,0%);fill-opacity:1;">
  <use xlink:href="#glyph3-3" x="77.01" y="252.49"/>
</g>
<g style="fill:rgb(0%,0%,0%);fill-opacity:1;">
  <use xlink:href="#glyph1-3" x="82.709" y="246.665"/>
</g>
<g style="fill:rgb(0%,0%,0%);fill-opacity:1;">
  <use xlink:href="#glyph1-5" x="86.962321" y="246.665"/>
</g>
<g style="fill:rgb(0%,0%,0%);fill-opacity:1;">
  <use xlink:href="#glyph2-1" x="92.017" y="247.537"/>
</g>
<path style="fill:none;stroke-width:0.339;stroke-linecap:butt;stroke-linejoin:miter;stroke:rgb(0%,0%,0%);stroke-opacity:1;stroke-miterlimit:10;" d="M 0.0019375 0.00065625 L 12.716781 0.00065625 " transform="matrix(1,0,0,-1,82.709,249.778)"/>
<g style="fill:rgb(0%,0%,0%);fill-opacity:1;">
  <use xlink:href="#glyph1-3" x="84.905" y="256.745"/>
</g>
<g style="fill:rgb(0%,0%,0%);fill-opacity:1;">
  <use xlink:href="#glyph1-1" x="89.158321" y="256.745"/>
</g>
</g>
</g>
</svg>
