<?xml version="1.0" encoding="UTF-8"?>
<svg xmlns="http://www.w3.org/2000/svg" xmlns:xlink="http://www.w3.org/1999/xlink" width="188.79353802500762pt" height="216.50635094610965pt" viewBox="0 0 109 125" version="1.1">
<defs>
<clipPath id="clip1">
  <path d="M -251 666 L 361 666 L 361 -126 L -251 -126 L -251 666 Z M -251 666 "/>
</clipPath>
<clipPath id="clip2">
  <path d="M -0.652344 125.617188 L 109.90625 125.617188 L 109.90625 -1.199219 L -0.652344 -1.199219 L -0.652344 125.617188 Z M -0.652344 125.617188 "/>
</clipPath>
</defs>
<g id="surface0">
<g clip-path="url(#clip1)" clip-rule="nonzero">
<g clip-path="url(#clip2)" clip-rule="nonzero">
<path style="fill:none;stroke-width:5;stroke-linecap:butt;stroke-linejoin:miter;stroke:rgb(0%,0%,0%);stroke-opacity:1;stroke-miterlimit:4;" d="M 875.372206 506.574001 L 149.844948 506.574001 L 149.844948 1049.566212 L 875.372206 506.574001 L 875.372206 506.574001 Z M 875.372206 506.574001 " transform="matrix(0.108391,0,0,-0.108391,-0.652,125.619)"/>
<path style="fill:none;stroke-width:5;stroke-linecap:butt;stroke-linejoin:miter;stroke:rgb(0%,0%,0%);stroke-opacity:1;stroke-miterlimit:4;" d="M 845.964783 615.662567 L 225.345624 1081.352176 C 225.345624 1081.352176 294.503522 1029.456724 216.98469 1088.343647 C 203.109864 1098.866892 188.910691 1109.137867 173.342056 1117.0303 C 119.464485 1144.275413 74.992965 1092.37996 80.326665 1040.016007 C 80.326665 931.612173 80.326665 823.1723 80.326665 714.768466 C 80.326665 670.801485 80.326665 626.834504 80.326665 582.867524 C 80.326665 521.638097 83.353899 461.021326 88.759676 399.972092 C 88.759676 399.972092 155.322801 73.355087 530.339523 80.022211 C 530.339523 80.022211 871.984586 90.004878 936.998056 445.020228 C 936.998056 445.020228 942.331755 543.369318 845.964783 615.662567 " transform="matrix(0.108391,0,0,-0.108391,-0.652,125.619)"/>
<path style=" stroke:none;fill-rule:nonzero;fill:rgb(100%,100%,100%);fill-opacity:1;" d="M 15.605469 19.664063 C 15.605469 23.855469 12.210938 27.253906 8.019531 27.253906 C 3.828125 27.253906 0.433594 23.855469 0.433594 19.664063 C 0.433594 15.476563 3.828125 12.078125 8.019531 12.078125 C 12.210938 12.078125 15.605469 15.476563 15.605469 19.664063 "/>
<path style="fill:none;stroke-width:5;stroke-linecap:butt;stroke-linejoin:miter;stroke:rgb(0%,0%,0%);stroke-opacity:1;stroke-miterlimit:4;" d="M 149.989102 977.525233 C 149.989102 938.855913 118.671638 907.50241 80.002318 907.50241 C 41.332998 907.50241 10.015534 938.855913 10.015534 977.525233 C 10.015534 1016.158514 41.332998 1047.512017 80.002318 1047.512017 C 118.671638 1047.512017 149.989102 1016.158514 149.989102 977.525233 Z M 149.989102 977.525233 " transform="matrix(0.108391,0,0,-0.108391,-0.652,125.619)"/>
<path style=" stroke:none;fill-rule:nonzero;fill:rgb(100%,100%,100%);fill-opacity:1;" d="M 15.605469 40.53125 C 15.605469 44.722656 12.210938 48.117188 8.019531 48.117188 C 3.828125 48.117188 0.433594 44.722656 0.433594 40.53125 C 0.433594 36.339844 3.828125 32.945313 8.019531 32.945313 C 12.210938 32.945313 15.605469 36.339844 15.605469 40.53125 "/>
<path style="fill:none;stroke-width:5;stroke-linecap:butt;stroke-linejoin:miter;stroke:rgb(0%,0%,0%);stroke-opacity:1;stroke-miterlimit:4;" d="M 149.989102 785.007519 C 149.989102 746.338199 118.671638 715.020735 80.002318 715.020735 C 41.332998 715.020735 10.015534 746.338199 10.015534 785.007519 C 10.015534 823.676839 41.332998 854.994303 80.002318 854.994303 C 118.671638 854.994303 149.989102 823.676839 149.989102 785.007519 Z M 149.989102 785.007519 " transform="matrix(0.108391,0,0,-0.108391,-0.652,125.619)"/>
<path style=" stroke:none;fill-rule:nonzero;fill:rgb(100%,100%,100%);fill-opacity:1;" d="M 15.605469 60.835938 C 15.605469 65.027344 12.210938 68.421875 8.019531 68.421875 C 3.828125 68.421875 0.433594 65.027344 0.433594 60.835938 C 0.433594 56.644531 3.828125 53.25 8.019531 53.25 C 12.210938 53.25 15.605469 56.644531 15.605469 60.835938 "/>
<path style="fill:none;stroke-width:5;stroke-linecap:butt;stroke-linejoin:miter;stroke:rgb(0%,0%,0%);stroke-opacity:1;stroke-miterlimit:4;" d="M 149.989102 597.679351 C 149.989102 559.010031 118.671638 527.692567 80.002318 527.692567 C 41.332998 527.692567 10.015534 559.010031 10.015534 597.679351 C 10.015534 636.348671 41.332998 667.666135 80.002318 667.666135 C 118.671638 667.666135 149.989102 636.348671 149.989102 597.679351 Z M 149.989102 597.679351 " transform="matrix(0.108391,0,0,-0.108391,-0.652,125.619)"/>
<path style=" stroke:none;fill-rule:nonzero;fill:rgb(100%,100%,100%);fill-opacity:1;" d="M 16.558594 82.265625 C 16.558594 86.453125 13.160156 89.851563 8.96875 89.851563 C 4.777344 89.851563 1.382813 86.453125 1.382813 82.265625 C 1.382813 78.074219 4.777344 74.675781 8.96875 74.675781 C 13.160156 74.675781 16.558594 78.074219 16.558594 82.265625 "/>
<path style="fill:none;stroke-width:5;stroke-linecap:butt;stroke-linejoin:miter;stroke:rgb(0%,0%,0%);stroke-opacity:1;stroke-miterlimit:4;" d="M 158.782498 399.972092 C 158.782498 361.33881 127.428995 329.985308 88.759676 329.985308 C 50.090356 329.985308 18.772892 361.33881 18.772892 399.972092 C 18.772892 438.641412 50.090356 469.994914 88.759676 469.994914 C 127.428995 469.994914 158.782498 438.641412 158.782498 399.972092 Z M 158.782498 399.972092 " transform="matrix(0.108391,0,0,-0.108391,-0.652,125.619)"/>
<path style=" stroke:none;fill-rule:nonzero;fill:rgb(100%,100%,100%);fill-opacity:1;" d="M 25.941406 100.6875 C 25.941406 104.878906 22.542969 108.277344 18.351563 108.277344 C 14.160156 108.277344 10.765625 104.878906 10.765625 100.6875 C 10.765625 96.5 14.160156 93.101563 18.351563 93.101563 C 22.542969 93.101563 25.941406 96.5 25.941406 100.6875 "/>
<path style="fill:none;stroke-width:5;stroke-linecap:butt;stroke-linejoin:miter;stroke:rgb(0%,0%,0%);stroke-opacity:1;stroke-miterlimit:4;" d="M 245.346996 230.014485 C 245.346996 191.345165 213.993493 159.991662 175.324174 159.991662 C 136.654854 159.991662 105.33739 191.345165 105.33739 230.014485 C 105.33739 268.647766 136.654854 300.001269 175.324174 300.001269 C 213.993493 300.001269 245.346996 268.647766 245.346996 230.014485 Z M 245.346996 230.014485 " transform="matrix(0.108391,0,0,-0.108391,-0.652,125.619)"/>
<path style=" stroke:none;fill-rule:nonzero;fill:rgb(100%,100%,100%);fill-opacity:1;" d="M 43.460938 113.695313 C 43.460938 117.886719 40.066406 121.285156 35.875 121.285156 C 31.683594 121.285156 28.289063 117.886719 28.289063 113.695313 C 28.289063 109.503906 31.683594 106.105469 35.875 106.105469 C 40.066406 106.105469 43.460938 109.503906 43.460938 113.695313 "/>
<path style="fill:none;stroke-width:5;stroke-linecap:butt;stroke-linejoin:miter;stroke:rgb(0%,0%,0%);stroke-opacity:1;stroke-miterlimit:4;" d="M 406.979708 110.006251 C 406.979708 71.336931 375.662244 39.983428 336.992924 39.983428 C 298.323604 39.983428 267.00614 71.336931 267.00614 110.006251 C 267.00614 148.67557 298.323604 180.029073 336.992924 180.029073 C 375.662244 180.029073 406.979708 148.67557 406.979708 110.006251 Z M 406.979708 110.006251 " transform="matrix(0.108391,0,0,-0.108391,-0.652,125.619)"/>
<path style=" stroke:none;fill-rule:nonzero;fill:rgb(100%,100%,100%);fill-opacity:1;" d="M 64.417969 116.949219 C 64.417969 121.136719 61.019531 124.535156 56.832031 124.535156 C 52.640625 124.535156 49.242188 121.136719 49.242188 116.949219 C 49.242188 112.757813 52.640625 109.359375 56.832031 109.359375 C 61.019531 109.359375 64.417969 112.757813 64.417969 116.949219 "/>
<path style="fill:none;stroke-width:5;stroke-linecap:butt;stroke-linejoin:miter;stroke:rgb(0%,0%,0%);stroke-opacity:1;stroke-miterlimit:4;" d="M 600.326307 79.986173 C 600.326307 41.352891 568.972804 9.999389 530.339523 9.999389 C 491.670203 9.999389 460.316701 41.352891 460.316701 79.986173 C 460.316701 118.655493 491.670203 150.008995 530.339523 150.008995 C 568.972804 150.008995 600.326307 118.655493 600.326307 79.986173 Z M 600.326307 79.986173 " transform="matrix(0.108391,0,0,-0.108391,-0.652,125.619)"/>
<path style=" stroke:none;fill-rule:nonzero;fill:rgb(100%,100%,100%);fill-opacity:1;" d="M 85.011719 110.984375 C 85.011719 115.175781 81.617188 118.574219 77.425781 118.574219 C 73.234375 118.574219 69.835938 115.175781 69.835938 110.984375 C 69.835938 106.796875 73.234375 103.398438 77.425781 103.398438 C 81.617188 103.398438 85.011719 106.796875 85.011719 110.984375 "/>
<path style="fill:none;stroke-width:5;stroke-linecap:butt;stroke-linejoin:miter;stroke:rgb(0%,0%,0%);stroke-opacity:1;stroke-miterlimit:4;" d="M 790.321325 135.016976 C 790.321325 96.347656 759.003861 64.994153 720.334541 64.994153 C 681.665221 64.994153 650.311719 96.347656 650.311719 135.016976 C 650.311719 173.650257 681.665221 205.00376 720.334541 205.00376 C 759.003861 205.00376 790.321325 173.650257 790.321325 135.016976 Z M 790.321325 135.016976 " transform="matrix(0.108391,0,0,-0.108391,-0.652,125.619)"/>
<path style=" stroke:none;fill-rule:nonzero;fill:rgb(100%,100%,100%);fill-opacity:1;" d="M 100.730469 96.894531 C 100.730469 101.085938 97.332031 104.484375 93.140625 104.484375 C 88.949219 104.484375 85.554688 101.085938 85.554688 96.894531 C 85.554688 92.703125 88.949219 89.308594 93.140625 89.308594 C 97.332031 89.308594 100.730469 92.703125 100.730469 96.894531 "/>
<path style="fill:none;stroke-width:5;stroke-linecap:butt;stroke-linejoin:miter;stroke:rgb(0%,0%,0%);stroke-opacity:1;stroke-miterlimit:4;" d="M 935.340284 265.007877 C 935.340284 226.338557 903.986782 194.985054 865.317462 194.985054 C 826.648142 194.985054 795.330678 226.338557 795.330678 265.007877 C 795.330678 303.677196 826.648142 334.994661 865.317462 334.994661 C 903.986782 334.994661 935.340284 303.677196 935.340284 265.007877 Z M 935.340284 265.007877 " transform="matrix(0.108391,0,0,-0.108391,-0.652,125.619)"/>
<path style=" stroke:none;fill-rule:nonzero;fill:rgb(100%,100%,100%);fill-opacity:1;" d="M 108.496094 77.386719 C 108.496094 81.574219 105.101563 84.972656 100.910156 84.972656 C 96.71875 84.972656 93.324219 81.574219 93.324219 77.386719 C 93.324219 73.195313 96.71875 69.796875 100.910156 69.796875 C 105.101563 69.796875 108.496094 73.195313 108.496094 77.386719 "/>
<path style="fill:none;stroke-width:5;stroke-linecap:butt;stroke-linejoin:miter;stroke:rgb(0%,0%,0%);stroke-opacity:1;stroke-miterlimit:4;" d="M 1006.98484 444.984189 C 1006.98484 406.350908 975.667376 374.997405 936.998056 374.997405 C 898.328736 374.997405 867.011272 406.350908 867.011272 444.984189 C 867.011272 483.653509 898.328736 515.007012 936.998056 515.007012 C 975.667376 515.007012 1006.98484 483.653509 1006.98484 444.984189 Z M 1006.98484 444.984189 " transform="matrix(0.108391,0,0,-0.108391,-0.652,125.619)"/>
<path style=" stroke:none;fill-rule:nonzero;fill:rgb(100%,100%,100%);fill-opacity:1;" d="M 31.359375 8.410156 C 31.359375 12.601563 27.960938 16 23.773438 16 C 19.582031 16 16.183594 12.601563 16.183594 8.410156 C 16.183594 4.222656 19.582031 0.824219 23.773438 0.824219 C 27.960938 0.824219 31.359375 4.222656 31.359375 8.410156 "/>
<path style="fill:none;stroke-width:5;stroke-linecap:butt;stroke-linejoin:miter;stroke:rgb(0%,0%,0%);stroke-opacity:1;stroke-miterlimit:4;" d="M 295.332408 1081.352176 C 295.332408 1042.682857 263.978905 1011.329354 225.345624 1011.329354 C 186.676304 1011.329354 155.322801 1042.682857 155.322801 1081.352176 C 155.322801 1119.985458 186.676304 1151.33896 225.345624 1151.33896 C 263.978905 1151.33896 295.332408 1119.985458 295.332408 1081.352176 Z M 295.332408 1081.352176 " transform="matrix(0.108391,0,0,-0.108391,-0.652,125.619)"/>
<path style=" stroke:none;fill-rule:nonzero;fill:rgb(100%,100%,100%);fill-opacity:1;" d="M 48.25 21.082031 C 48.25 25.273438 44.851563 28.671875 40.660156 28.671875 C 36.46875 28.671875 33.074219 25.273438 33.074219 21.082031 C 33.074219 16.894531 36.46875 13.496094 40.660156 13.496094 C 44.851563 13.496094 48.25 16.894531 48.25 21.082031 "/>
<path style="fill:none;stroke-width:5;stroke-linecap:butt;stroke-linejoin:miter;stroke:rgb(0%,0%,0%);stroke-opacity:1;stroke-miterlimit:4;" d="M 451.162919 964.443254 C 451.162919 925.773934 419.809417 894.420432 381.140097 894.420432 C 342.470777 894.420432 311.153313 925.773934 311.153313 964.443254 C 311.153313 1003.076535 342.470777 1034.430038 381.140097 1034.430038 C 419.809417 1034.430038 451.162919 1003.076535 451.162919 964.443254 Z M 451.162919 964.443254 " transform="matrix(0.108391,0,0,-0.108391,-0.652,125.619)"/>
<path style=" stroke:none;fill-rule:nonzero;fill:rgb(100%,100%,100%);fill-opacity:1;" d="M 65.066406 33.703125 C 65.066406 37.894531 61.671875 41.289063 57.480469 41.289063 C 53.289063 41.289063 49.894531 37.894531 49.894531 33.703125 C 49.894531 29.511719 53.289063 26.117188 57.480469 26.117188 C 61.671875 26.117188 65.066406 29.511719 65.066406 33.703125 "/>
<path style="fill:none;stroke-width:5;stroke-linecap:butt;stroke-linejoin:miter;stroke:rgb(0%,0%,0%);stroke-opacity:1;stroke-miterlimit:4;" d="M 606.3087 848.002832 C 606.3087 809.333512 574.991235 778.016048 536.321916 778.016048 C 497.652596 778.016048 466.335132 809.333512 466.335132 848.002832 C 466.335132 886.672152 497.652596 917.989616 536.321916 917.989616 C 574.991235 917.989616 606.3087 886.672152 606.3087 848.002832 Z M 606.3087 848.002832 " transform="matrix(0.108391,0,0,-0.108391,-0.652,125.619)"/>
<path style=" stroke:none;fill-rule:nonzero;fill:rgb(100%,100%,100%);fill-opacity:1;" d="M 81.542969 46.0625 C 81.542969 50.253906 78.144531 53.648438 73.953125 53.648438 C 69.765625 53.648438 66.367188 50.253906 66.367188 46.0625 C 66.367188 41.871094 69.765625 38.476563 73.953125 38.476563 C 78.144531 38.476563 81.542969 41.871094 81.542969 46.0625 "/>
<path style="fill:none;stroke-width:5;stroke-linecap:butt;stroke-linejoin:miter;stroke:rgb(0%,0%,0%);stroke-opacity:1;stroke-miterlimit:4;" d="M 758.319129 733.976991 C 758.319129 695.307671 726.965627 663.990207 688.296307 663.990207 C 649.663026 663.990207 618.309523 695.307671 618.309523 733.976991 C 618.309523 772.646311 649.663026 803.963775 688.296307 803.963775 C 726.965627 803.963775 758.319129 772.646311 758.319129 733.976991 Z M 758.319129 733.976991 " transform="matrix(0.108391,0,0,-0.108391,-0.652,125.619)"/>
<path style=" stroke:none;fill-rule:nonzero;fill:rgb(100%,100%,100%);fill-opacity:1;" d="M 98.632813 58.886719 C 98.632813 63.078125 95.234375 66.472656 91.042969 66.472656 C 86.855469 66.472656 83.457031 63.078125 83.457031 58.886719 C 83.457031 54.695313 86.855469 51.296875 91.042969 51.296875 C 95.234375 51.296875 98.632813 54.695313 98.632813 58.886719 "/>
<path style="fill:none;stroke-width:5;stroke-linecap:butt;stroke-linejoin:miter;stroke:rgb(0%,0%,0%);stroke-opacity:1;stroke-miterlimit:4;" d="M 915.987605 615.662567 C 915.987605 576.993247 884.634102 545.675783 845.964783 545.675783 C 807.331501 545.675783 775.977999 576.993247 775.977999 615.662567 C 775.977999 654.331886 807.331501 685.685389 845.964783 685.685389 C 884.634102 685.685389 915.987605 654.331886 915.987605 615.662567 Z M 915.987605 615.662567 " transform="matrix(0.108391,0,0,-0.108391,-0.652,125.619)"/>
</g>
</g>
</g>
</svg>
