<?xml version="1.0" encoding="UTF-8" standalone="no"?>
<!-- Created with Inkscape (http://www.inkscape.org/) -->
<svg xmlns:dc="http://purl.org/dc/elements/1.1/" xmlns:cc="http://creativecommons.org/ns#" xmlns:rdf="http://www.w3.org/1999/02/22-rdf-syntax-ns#" xmlns:svg="http://www.w3.org/2000/svg" xmlns="http://www.w3.org/2000/svg" xmlns:xlink="http://www.w3.org/1999/xlink" version="1.1" width="135.1pt" height="147.7pt" viewBox="0 0 97.5 106.54573" id="svg8394">
  <metadata id="metadata8723">
    <rdf:RDF>
      <cc:Work rdf:about="">
        <dc:format>image/svg+xml</dc:format>
        <dc:type rdf:resource="http://purl.org/dc/dcmitype/StillImage"/>
        <dc:title/>
      </cc:Work>
    </rdf:RDF>
  </metadata>
  <defs id="defs8396">
    <g id="g8398">
      <g id="glyph0-0"/>
      <g id="glyph0-1">
        <path d="M 2.578125,1.546875 C 2.546875,1.5 2.5,1.46875 2.453125,1.4375 1.6875,0.75 1.21875,-0.3125 1.171875,-1.59375 c -0.03125,-0.875 0.125,-1.78125 0.53125,-2.5625 0.203125,-0.375 0.4375,-0.6875 0.75,-0.953125 C 2.5,-5.15625 2.546875,-5.1875 2.578125,-5.21875 l -0.25,0 c -0.15625,0 -0.140625,0 -0.25,0.078125 -0.359375,0.28125 -0.65625,0.65625 -0.890625,1.078125 -0.65625,1.234375 -0.703125,2.90625 -0.09375,4.25 0.21875,0.5 0.5625,0.921875 0.984375,1.28125 0.09375,0.0625 0.09375,0.078125 0.25,0.078125 l 0.25,0 z m 0,0" id="path8402"/>
      </g>
      <g id="glyph0-2">
        <path d="m 0.640625,-2.640625 c 0.125,-0.0625 0.21875,-0.140625 0.34375,-0.203125 C 1.203125,-2.9375 1.4375,-2.984375 1.6875,-3 1.75,-3.015625 1.828125,-3.015625 1.90625,-3.015625 c 0.28125,0.046875 0.515625,0.234375 0.59375,0.5 0.078125,0.203125 0.046875,0.453125 0.046875,0.65625 -0.359375,0 -0.734375,0.03125 -1.09375,0.125 -0.5,0.125 -1.125,0.375 -1.0625,1.015625 0.046875,0.28125 0.203125,0.5625 0.46875,0.703125 C 1.03125,0.0625 1.234375,0.0625 1.4375,0.046875 1.734375,0.015625 2.0625,-0.0625 2.3125,-0.25 c 0.09375,-0.0625 0.171875,-0.140625 0.25,-0.21875 l 0,0.46875 0.484375,0 0,-1.828125 c 0,-0.1875 0.03125,-0.390625 -0.015625,-0.59375 -0.0625,-0.484375 -0.5,-0.84375 -0.953125,-0.9375 -0.28125,-0.046875 -0.71875,0.015625 -0.953125,0.0625 -0.078125,0.03125 -0.46875,0.15625 -0.5,0.21875 -0.03125,0.03125 -0.015625,0.09375 -0.015625,0.125 0.015625,0.109375 0.03125,0.203125 0.03125,0.3125 z m 1.90625,1.015625 0,0.515625 c 0,0.140625 0,0.265625 -0.0625,0.390625 -0.078125,0.140625 -0.21875,0.25 -0.375,0.296875 -0.328125,0.125 -0.78125,0.140625 -1.0625,-0.09375 C 0.96875,-0.5625 0.90625,-0.640625 0.890625,-0.75 0.8125,-1.046875 1.078125,-1.28125 1.3125,-1.390625 1.640625,-1.546875 2.109375,-1.625 2.546875,-1.625 z m 0,0" id="path8405"/>
      </g>
      <g id="glyph0-3">
        <path d="m 0.4375,-5.21875 c 0.03125,0.03125 0.078125,0.0625 0.125,0.109375 0.859375,0.765625 1.328125,2 1.265625,3.515625 -0.015625,0.75 -0.203125,1.5 -0.5625,2.15625 C 1.078125,0.890625 0.84375,1.1875 0.5625,1.4375 0.515625,1.46875 0.46875,1.5 0.4375,1.546875 l 0.25,0 c 0.15625,0 0.140625,0 0.234375,-0.078125 0.375,-0.296875 0.671875,-0.671875 0.890625,-1.078125 0.671875,-1.25 0.71875,-2.90625 0.109375,-4.25 C 1.6875,-4.375 1.359375,-4.796875 0.9375,-5.140625 0.84375,-5.21875 0.84375,-5.21875 0.6875,-5.21875 l -0.25,0 z m 0,0" id="path8408"/>
      </g>
      <g id="glyph0-4">
        <path d="m 0.578125,-4.84375 0,4.84375 0.515625,0 0,-0.46875 0,0 c 0.0625,0.109375 0.171875,0.203125 0.265625,0.28125 0.3125,0.25 0.828125,0.328125 1.28125,0.109375 0.203125,-0.109375 0.375,-0.28125 0.515625,-0.46875 C 3.84375,-1.5 3.421875,-3.09375 2.453125,-3.3125 c -0.125,-0.046875 -0.28125,-0.046875 -0.421875,-0.015625 -0.40625,0.046875 -0.71875,0.25 -0.953125,0.5 l 0,-2.015625 -0.5,0 z M 1.8125,-2.953125 c 0.328125,-0.03125 0.703125,0.109375 0.921875,0.375 0.171875,0.21875 0.234375,0.5 0.234375,0.765625 0.03125,0.375 -0.015625,0.78125 -0.25,1.078125 -0.203125,0.265625 -0.53125,0.375 -0.84375,0.40625 -0.265625,0 -0.5,-0.09375 -0.671875,-0.3125 C 1.171875,-0.6875 1.125,-0.75 1.09375,-0.8125 c 0,-0.046875 0,-0.09375 0,-0.125 l 0,-1.390625 c 0,-0.0625 -0.015625,-0.140625 0.015625,-0.203125 0.03125,-0.078125 0.09375,-0.125 0.15625,-0.1875 0.15625,-0.125 0.34375,-0.21875 0.546875,-0.234375 z m 0,0" id="path8411"/>
      </g>
      <g id="glyph1-0"/>
      <g id="glyph1-1">
        <path d="m 1.859375,-2.890625 0.078125,-0.40625 -0.75,0 -0.9375,4.453125 0.765625,0 0.328125,-1.515625 C 1.421875,-0.25 1.515625,-0.140625 1.625,-0.0625 2.046875,0.1875 2.640625,0.046875 2.96875,-0.171875 3.484375,-0.5 3.734375,-1.078125 3.859375,-1.65625 3.90625,-1.875 3.9375,-2.109375 3.9375,-2.34375 3.9375,-2.484375 3.921875,-2.640625 3.875,-2.78125 3.84375,-2.9375 3.765625,-3.0625 3.65625,-3.15625 3.359375,-3.421875 2.953125,-3.390625 2.59375,-3.28125 2.328125,-3.203125 2.078125,-3.0625 1.859375,-2.890625 z m 0.828125,0.03125 c 0.046875,0.015625 0.09375,0.03125 0.15625,0.0625 0.375,0.203125 0.328125,0.765625 0.234375,1.15625 -0.109375,0.5 -0.34375,1.0625 -0.890625,1.21875 C 1.9375,-0.34375 1.671875,-0.359375 1.5,-0.5625 1.4375,-0.609375 1.390625,-0.671875 1.421875,-0.765625 1.4375,-0.8125 1.765625,-2.34375 1.78125,-2.453125 c 0.03125,-0.15625 0.0625,-0.1875 0.1875,-0.25 0.203125,-0.125 0.4375,-0.203125 0.71875,-0.15625 z m 0,0" id="path8415"/>
      </g>
      <g id="glyph1-2">
        <path d="M 0.640625,0 3.1875,0 c 0.296875,-0.015625 0.640625,0.03125 0.90625,-0.015625 0.078125,-0.1875 0.09375,-0.4375 0.140625,-0.65625 C 3.375,-0.65625 2.484375,-0.65625 1.625,-0.640625 1.703125,-1.03125 1.796875,-1.40625 1.875,-1.796875 L 1.9375,-2.09375 c 0,-0.03125 0,-0.09375 0.03125,-0.109375 C 2,-2.234375 2.078125,-2.21875 2.125,-2.21875 l 2.140625,0 0.125,-0.5625 -2.3125,0 0.296875,-1.421875 2.515625,0.015625 0.140625,-0.625 -2.484375,0 c -0.28125,0.015625 -0.625,-0.03125 -0.875,0.015625 l -0.03125,0.09375 -1,4.703125 z m 0,0" id="path8418"/>
      </g>
      <g id="glyph2-0"/>
      <g id="glyph2-1">
        <path d="m 1.3125,-3.34375 c -0.125,0.015625 -0.234375,0.03125 -0.34375,0.078125 -0.515625,0.203125 -0.703125,0.875 -0.703125,1.546875 0,0.109375 0,0.203125 0,0.3125 0.015625,0.453125 0.125,0.90625 0.390625,1.1875 C 0.875,0.015625 1.203125,0.109375 1.5,0.078125 1.6875,0.0625 1.84375,-0.015625 1.984375,-0.09375 2.40625,-0.40625 2.5,-1.015625 2.5,-1.6875 2.5,-2.234375 2.40625,-2.71875 2.140625,-3.03125 1.9375,-3.25 1.609375,-3.375 1.3125,-3.34375 z m 0.421875,0.359375 c 0.046875,0.03125 0.09375,0.0625 0.140625,0.109375 0.1875,0.1875 0.25,0.546875 0.265625,0.875 0,0.0625 0,0.125 0,0.203125 l 0,0.25 c 0,0.4375 -0.046875,0.84375 -0.234375,1.09375 C 1.65625,-0.125 1.125,-0.109375 0.875,-0.4375 0.8125,-0.515625 0.765625,-0.59375 0.734375,-0.671875 0.640625,-0.921875 0.625,-1.25 0.625,-1.5625 l 0,-0.25 c 0,-0.078125 0.015625,-0.125 0.015625,-0.203125 0,-0.390625 0.09375,-0.78125 0.359375,-0.9375 0.1875,-0.125 0.5,-0.15625 0.734375,-0.03125 z m 0,0" id="path8422"/>
      </g>
    </g>
    <clipPath id="clip1">
      <path d="m -255,666 612,0 0,-792 -612,0 0,792 z m 0,0" id="path8425"/>
    </clipPath>
    <clipPath id="clip2">
      <path d="m -0.398438,213.75391 102.046878,0 0,-214.953129 -102.046878,0 0,214.953129 z m 0,0" id="path8428"/>
    </clipPath>
  </defs>
  <g transform="translate(-0.28125,-1.506567)" id="g9150">
    <path d="m 87.60555,58.542828 10.175791,0" id="path8435" style="fill:none;stroke:#000000;stroke-width:0.54280502"/>
    <path d="m 88.683594,56.984375 -5.886719,1.574219 5.886719,1.578125 0,-3.152344" id="path8437"/>
    <path d="m 92.105554,56.503759 c 1.121095,0 2.035158,0.914062 2.035158,2.039069 0,1.121088 -0.914063,2.035161 -2.035158,2.035161 -1.125001,0 -2.035158,-0.914073 -2.035158,-2.035161 0,-1.125007 0.910157,-2.039069 2.035158,-2.039069 z m 0,0" id="path8439" style="fill:none;stroke:#000000;stroke-width:0.81420749"/>
    <path d="m 69.125064,12.066225 0,10.175791" id="path8453" style="fill:none;stroke:#000000;stroke-width:0.54280502"/>
    <path d="m 70.683594,13.140625 -1.578125,-5.882812 -1.578125,5.882812 3.15625,0" id="path8455"/>
    <path d="m 71.160222,16.562322 c 0,1.124996 -0.914063,2.03515 -2.035158,2.03515 -1.125001,0 -2.035158,-0.910154 -2.035158,-2.03515 0,-1.121099 0.910157,-2.035161 2.035158,-2.035161 1.121095,0 2.035158,0.914062 2.035158,2.035161 z m 0,0" id="path8457" style="fill:none;stroke:#000000;stroke-width:0.81420749"/>
    <path d="m 2.7226591,57.058452 0,-10.175792" id="path8459" style="fill:none;stroke:#000000;stroke-width:0.54280502"/>
    <path d="m 1.164063,55.984375 1.574218,5.882813 1.578125,-5.882813 -3.152343,0" id="path8461"/>
    <path d="m 0.68750102,52.562355 c 0,-1.125007 0.91015708,-2.035161 2.03515808,-2.035161 1.1210948,0 2.0351581,0.910154 2.0351581,2.035161 0,1.121087 -0.9140633,2.035149 -2.0351581,2.035149 -1.125001,0 -2.03515808,-0.914062 -2.03515808,-2.035149 z m 0,0" id="path8463" style="fill:none;stroke:#000000;stroke-width:0.81420749"/>
    <path d="M 5.4726617,4.4373067 12.316418,11.968563" id="path8465" style="fill:none;stroke:#000000;stroke-width:0.54280502"/>
    <path d="M 7.347656,4.1875 2.222656,0.890625 5.011719,6.308594 7.347656,4.1875" id="path8467"/>
    <path d="M 10.003916,6.3943358 C 10.757823,7.2302772 10.699229,8.5154332 9.867197,9.2732541 9.0351649,10.027156 7.7461012,9.9685656 6.9921943,9.1365324 6.2343811,8.3044992 6.2968812,7.015435 7.1289131,6.2615223 7.9570389,5.5037122 9.2461027,5.5662108 10.003916,6.3943358 z m 0,0" id="path8469" style="fill:none;stroke:#000000;stroke-width:0.81420749"/>
    <path d="m 87.628987,24.273258 6.847663,7.531267" id="path8471" style="fill:none;stroke:#000000;stroke-width:0.54280502"/>
    <path d="m 89.503906,24.019531 -5.125,-3.292968 2.792969,5.417968 2.332031,-2.125" id="path8473"/>
    <path d="m 92.160242,26.230298 c 0.757812,0.832033 0.695313,2.121097 -0.132814,2.874999 -0.832032,0.75781 -2.121095,0.69922 -2.875002,-0.136722 -0.757813,-0.828125 -0.699219,-2.117189 0.132812,-2.871091 0.832033,-0.75781 2.121097,-0.695311 2.875004,0.132814 z m 0,0" id="path8475" style="fill:none;stroke:#000000;stroke-width:0.81420749"/>
    <path d="m 18.683611,55.316265 9.628915,3.296878" id="path8477" style="fill:none;stroke:#000000;stroke-width:0.54280502"/>
    <path d="M 20.207031,54.191406 14.125,53.777344 l 5.058594,3.398437 1.023437,-2.984375" id="path8479"/>
    <path d="m 23.597678,54.847509 c 1.066408,0.363278 1.632814,1.519529 1.269533,2.585945 -0.363282,1.062497 -1.52344,1.628904 -2.58594,1.265626 -1.066408,-0.363289 -1.632814,-1.523447 -1.269533,-2.585945 0.367188,-1.062497 1.52344,-1.628903 2.58594,-1.265626 z m 0,0" id="path8481" style="fill:none;stroke:#000000;stroke-width:0.81420749"/>
    <path d="M 9.066415,70.292841 2.2226587,77.824098" id="path8495" style="fill:none;stroke:#000000;stroke-width:0.54280502"/>
    <path d="M 7.191406,70.042969 12.316406,66.75 9.523438,72.164063 7.191406,70.042969" id="path8497"/>
    <path d="m 4.5351608,72.253778 c -0.7578132,0.832034 -0.6953131,2.11719 0.1367189,2.875 0.832032,0.75781 2.1210957,0.695311 2.8750026,-0.136722 0.7578132,-0.832033 0.6953131,-2.121097 -0.1367189,-2.874999 -0.832032,-0.75781 -2.1171894,-0.695312 -2.8750026,0.136721 z m 0,0" id="path8499" style="fill:none;stroke:#000000;stroke-width:0.81420749"/>
    <path d="m 90.707115,71.859246 6.847663,7.531257" id="path8507" style="fill:none;stroke:#000000;stroke-width:0.54280502"/>
    <path d="M 92.582031,71.609375 87.457031,68.3125 90.25,73.730469 92.582031,71.609375" id="path8509"/>
    <path d="m 95.23837,73.816275 c 0.757813,0.832033 0.695312,2.121098 -0.13672,2.878908 -0.832032,0.753912 -2.121095,0.691414 -2.875002,-0.136711 -0.757814,-0.835942 -0.695313,-2.121098 0.136718,-2.878919 0.832032,-0.753901 2.121096,-0.691403 2.875004,0.136722 z m 0,0" id="path8511" style="fill:none;stroke:#000000;stroke-width:0.81420749"/>
    <path d="m 32.43753,33.816236 2.886722,9.76173" id="path8513" style="fill:none;stroke:#000000;stroke-width:0.54280502"/>
    <path d="m 34.238281,34.40625 -3.183593,-5.195312 0.15625,6.089843 3.027343,-0.894531" id="path8515"/>
    <path d="m 35.668002,37.554524 c 0.316406,1.07813 -0.296876,2.207034 -1.375001,2.527343 -1.078126,0.32032 -2.21094,-0.296871 -2.531252,-1.375001 -0.316408,-1.078119 0.296875,-2.210931 1.375001,-2.527343 1.078126,-0.32031 2.210939,0.296881 2.531252,1.375001 z m 0,0" id="path8517" style="fill:none;stroke:#000000;stroke-width:0.81420749"/>
    <path d="m 62.636776,48.175633 -2.88672,9.75782" id="path8537" style="fill:none;stroke:#000000;stroke-width:0.54280502"/>
    <path d="m 60.835938,48.765625 3.183593,-5.195312 -0.15625,6.089843 -3.027343,-0.894531" id="path8539"/>
    <path d="m 59.410211,51.910012 c -0.320313,1.078119 0.296875,2.210931 1.371095,2.531251 1.082033,0.316401 2.21094,-0.296882 2.531253,-1.375001 0.320312,-1.07813 -0.296876,-2.210942 -1.375001,-2.527354 -1.078126,-0.320309 -2.207034,0.292973 -2.527347,1.371104 z m 0,0" id="path8541" style="fill:none;stroke:#000000;stroke-width:0.81420749"/>
    <path d="m 18.996112,40.339689 -4.175786,9.281249" id="path8543" style="fill:none;stroke:#000000;stroke-width:0.54280502"/>
    <path d="m 17.132813,40.679688 3.851562,-4.71875 -0.972656,6.015625 -2.878906,-1.296875" id="path8545"/>
    <path d="m 15.292983,43.605312 c -0.460938,1.023437 -0.0039,2.230473 1.019532,2.691412 1.027345,0.460939 2.230471,0.0039 2.691409,-1.01954 0.464844,-1.027345 0.0039,-2.230462 -1.019532,-2.691401 -1.023438,-0.460939 -2.230471,-0.0039 -2.691409,1.019529 z m 0,0" id="path8547" style="fill:none;stroke:#000000;stroke-width:0.81420749"/>
    <path d="M 51.023485,69.851432 46.8477,79.132692" id="path8597" style="fill:none;stroke:#000000;stroke-width:0.54280502"/>
    <path d="m 49.164063,70.191406 3.851562,-4.71875 -0.976562,6.015625 -2.875,-1.296875" id="path8599"/>
    <path d="m 47.324262,73.117055 c -0.464844,1.027346 -0.0039,2.230473 1.019533,2.691412 1.027345,0.460939 2.230471,0.0039 2.691408,-1.019529 0.460938,-1.027345 0.0039,-2.230472 -1.019532,-2.691411 -1.027344,-0.46094 -2.230471,-0.0039 -2.691409,1.019528 z m 0,0" id="path8601" style="fill:none;stroke:#000000;stroke-width:0.81420749"/>
    <path d="M 29.546903,17.831856 21.148457,12.081847" id="path8609" style="fill:none;stroke:#000000;stroke-width:0.54280502"/>
    <path d="m 27.777344,18.511719 5.746094,2.023437 -3.964844,-4.625 -1.78125,2.601563" id="path8611"/>
    <path d="m 24.683617,16.972476 c -0.929689,-0.636721 -1.164064,-1.906255 -0.531251,-2.832031 0.636719,-0.925786 1.906252,-1.164067 2.832034,-0.527345 0.929689,0.632812 1.164064,1.902346 0.527344,2.828122 -0.632813,0.925787 -1.902345,1.164067 -2.828127,0.531254 z m 0,0" id="path8613" style="fill:none;stroke:#000000;stroke-width:0.81420749"/>
    <path d="m 78.027416,39.847495 -7.4961,-6.882822" id="path8621" style="fill:none;stroke:#000000;stroke-width:0.54280502"/>
    <path d="m 76.183594,40.269531 5.398437,2.816407 -3.269531,-5.140625 -2.128906,2.324218" id="path8623"/>
    <path d="m 73.336006,38.308436 c -0.832033,-0.761729 -0.882814,-2.050782 -0.125001,-2.878918 0.76172,-0.828125 2.050784,-0.882807 2.878909,-0.121089 0.828126,0.761718 0.882813,2.046874 0.121094,2.874999 -0.757813,0.828125 -2.046877,0.882818 -2.875002,0.125008 z m 0,0" id="path8625" style="fill:none;stroke:#000000;stroke-width:0.81420749"/>
    <path d="M 43.695354,55.038913 35.296908,49.285007" id="path8627" style="fill:none;stroke:#000000;stroke-width:0.54280502"/>
    <path d="m 41.925781,55.714844 5.746094,2.023437 -3.960937,-4.625 -1.785157,2.601563" id="path8629"/>
    <path d="m 38.832067,54.175636 c -0.925782,-0.636721 -1.164063,-1.902347 -0.527343,-2.828133 0.632812,-0.929684 1.902344,-1.167965 2.828127,-0.531244 0.929688,0.636722 1.164063,1.902347 0.53125,2.828123 -0.63672,0.929695 -1.902346,1.164067 -2.832034,0.531254 z m 0,0" id="path8631" style="fill:none;stroke:#000000;stroke-width:0.81420749"/>
    <path d="M 71.941473,74.507689 62.82037,69.995959" id="path8633" style="fill:none;stroke:#000000;stroke-width:0.54280502"/>
    <path d="m 70.289063,75.425781 5.972656,1.195313 -4.578125,-4.023438 -1.394531,2.828125" id="path8635"/>
    <path d="m 67.007874,74.339713 c -1.007813,-0.5 -1.421875,-1.722657 -0.921875,-2.730472 0.496093,-1.007815 1.718751,-1.421878 2.726565,-0.921868 1.007813,0.5 1.421877,1.718749 0.921875,2.726564 -0.499999,1.007805 -1.718751,1.421867 -2.726565,0.925776 z m 0,0" id="path8637" style="fill:none;stroke:#000000;stroke-width:0.81420749"/>
    <path d="M 7.2148508,30.390453 3.398441,20.956849" id="path8639" style="fill:none;stroke:#000000;stroke-width:0.54280502"/>
    <path d="M 5.371094,29.976563 9.039063,34.839844 8.292969,28.792969 5.371094,29.976563" id="path8641"/>
    <path d="m 3.6406287,26.9842 c -0.4218753,-1.042968 0.082031,-2.230473 1.125001,-2.652341 1.0390635,-0.421879 2.2265646,0.08203 2.64844,1.124996 0.4218754,1.042967 -0.082031,2.230473 -1.1210948,2.648443 C 5.2500052,28.527177 4.0625041,28.027178 3.6406287,26.9842 z m 0,0" id="path8643" style="fill:none;stroke:#000000;stroke-width:0.81420749"/>
    <path d="M 31.007842,82.538945 27.187526,73.105342" id="path8645" style="fill:none;stroke:#000000;stroke-width:0.54280502"/>
    <path d="m 29.160156,82.128906 3.667969,4.863282 -0.746094,-6.046875 -2.921875,1.183593" id="path8647"/>
    <path d="m 27.429713,79.1366 c -0.421875,-1.042978 0.08594,-2.230473 1.125001,-2.652351 1.04297,-0.421879 2.230471,0.08203 2.652347,1.124996 0.421874,1.039069 -0.08203,2.226564 -1.125002,2.648443 -1.039063,0.421879 -2.23047,-0.08203 -2.652346,-1.121088 z m 0,0" id="path8649" style="fill:none;stroke:#000000;stroke-width:0.81420749"/>
    <path d="M 86.023517,11.784965 92.945399,4.3240233" id="path8657" style="fill:none;stroke:#000000;stroke-width:0.54280502"/>
    <path d="m 87.894531,12.054688 -5.160156,3.242187 2.851563,-5.386719 2.308593,2.144532" id="path8659"/>
    <path d="M 90.574303,9.8709042 C 91.339928,9.0466873 91.289147,7.7615314 90.468833,6.9959049 89.640708,6.2302784 88.35555,6.2771551 87.589925,7.1013719 86.824299,7.9255887 86.87508,9.2146529 87.6993,9.9802794 c 0.820313,0.7617186 2.109377,0.7148416 2.875003,-0.1093752 z m 0,0" id="path8661" style="fill:none;stroke:#000000;stroke-width:0.81420749"/>
    <path d="m 47.06645,29.269365 6.921881,-7.457044" id="path8669" style="fill:none;stroke:#000000;stroke-width:0.54280502"/>
    <path d="m 48.9375,29.542969 -5.160156,3.238281 2.851562,-5.386719 2.308594,2.148438" id="path8671"/>
    <path d="m 51.617235,27.359202 c 0.765626,-0.824217 0.718751,-2.113281 -0.105469,-2.878908 -0.824219,-0.765626 -2.113283,-0.714841 -2.878908,0.109376 -0.76172,0.824216 -0.714845,2.113281 0.109375,2.874999 0.820313,0.765626 2.109377,0.714852 2.875002,-0.105467 z m 0,0" id="path8673" style="fill:none;stroke:#000000;stroke-width:0.81420749"/>
    <path d="M 46.101605,14.503723 43.03129,4.796687" id="path8681" style="fill:none;stroke:#000000;stroke-width:0.54280502"/>
    <path d="m 44.292969,13.949219 3.273437,5.132812 -0.269531,-6.085937 -3.003906,0.953125" id="path8683"/>
    <path d="m 42.804727,10.827935 c -0.339844,-1.0742116 0.253907,-2.2148403 1.32422,-2.5546905 1.07422,-0.3398394 2.218753,0.2539133 2.55469,1.3281353 0.339844,1.0703032 -0.253906,2.2148402 -1.328126,2.5546792 -1.066408,0.335942 -2.214845,-0.257811 -2.550784,-1.328124 z m 0,0" id="path8685" style="fill:none;stroke:#000000;stroke-width:0.81420749"/>
    <use transform="translate(45.788,106.448)" id="use8695" x="0" y="0" width="100" height="235" xlink:href="#glyph0-1"/>
    <use transform="translate(48.804866,106.448)" id="use8697" x="0" y="0" width="100" height="235" xlink:href="#glyph0-2"/>
    <use transform="translate(52.4417,106.448)" id="use8699" x="0" y="0" width="100" height="235" xlink:href="#glyph0-3"/>
    <use transform="translate(88.78,84.668)" id="use8703" x="0" y="0" width="100" height="235" xlink:href="#glyph1-1"/>
    <use transform="translate(92.538,85.54)" id="use8707" x="0" y="0" width="100" height="235" xlink:href="#glyph2-1"/>
  </g>
</svg>
