<?xml version="1.0" encoding="UTF-8" standalone="no"?>
<!-- Created with Inkscape (http://www.inkscape.org/) -->
<svg xmlns:dc="http://purl.org/dc/elements/1.1/" xmlns:cc="http://creativecommons.org/ns#" xmlns:rdf="http://www.w3.org/1999/02/22-rdf-syntax-ns#" xmlns:svg="http://www.w3.org/2000/svg" xmlns="http://www.w3.org/2000/svg" xmlns:xlink="http://www.w3.org/1999/xlink" version="1.1" width="265.0pt" height="127.8pt" viewBox="0.0 -21.0 191.01676 92.103947" id="svg3885">
  <defs id="defs3887">
    <g id="g3889">
      <g id="glyph0-0"/>
      <g id="glyph0-1">
        <path d="M 1.75,-4.828125 0.734375,0 C 0.90625,0 1.09375,0 1.25,-0.015625 l 0.03125,-0.046875 0.453125,-2.140625 1.84375,0 C 3.796875,-2.21875 4.0625,-2.1875 4.234375,-2.21875 4.28125,-2.34375 4.3125,-2.484375 4.328125,-2.625 l -2.515625,0 c 0.125,-0.59375 0.265625,-1.1875 0.375,-1.78125 l 2.859375,0 0.078125,-0.421875 -3.375,0 z m 0,0" id="path3893"/>
      </g>
      <g id="glyph1-0"/>
      <g id="glyph1-1">
        <path d="m 0.546875,-3.015625 0,0.28125 c 0.25,0 0.5,-0.046875 0.734375,-0.140625 l 0,2.59375 -0.703125,0 0,0.28125 1.75,0 0,-0.28125 -0.6875,0 0,-3.0625 c -0.03125,0 -0.078125,-0.015625 -0.09375,0 C 1.5,-3.328125 1.46875,-3.296875 1.4375,-3.265625 c -0.203125,0.171875 -0.5625,0.25 -0.890625,0.25 z m 0,0" id="path3897"/>
      </g>
      <g id="glyph1-2">
        <path d="M 0.4375,-2.28125 C 0.515625,-2.578125 0.65625,-2.890625 0.953125,-3 c 0.125,-0.046875 0.25,-0.0625 0.375,-0.046875 0.25,0.015625 0.515625,0.125 0.671875,0.34375 0.109375,0.140625 0.140625,0.328125 0.109375,0.5 C 2.046875,-1.71875 1.625,-1.421875 1.28125,-1.15625 1,-0.9375 0.421875,-0.421875 0.421875,-0.421875 L 0.328125,-0.34375 C 0.28125,-0.296875 0.28125,-0.296875 0.28125,-0.1875 L 0.28125,0 2.5,0 l 0,-0.3125 -1.90625,0 C 0.796875,-0.484375 1.359375,-0.953125 1.53125,-1.078125 1.84375,-1.3125 2.1875,-1.546875 2.390625,-1.890625 2.609375,-2.28125 2.46875,-2.8125 2.125,-3.078125 c -0.375,-0.328125 -1.078125,-0.375 -1.5,-0.0625 -0.15625,0.109375 -0.265625,0.296875 -0.34375,0.46875 -0.015625,0.046875 -0.046875,0.09375 -0.046875,0.125 0.015625,0.03125 0.046875,0.0625 0.0625,0.078125 0.046875,0.0625 0.09375,0.125 0.140625,0.1875 z m 0,0" id="path3900"/>
      </g>
      <g id="glyph1-3">
        <path d="m 0.484375,-2.53125 0.015625,0 C 0.703125,-2.875 1.078125,-3.109375 1.484375,-3.0625 c 0.296875,0.015625 0.5625,0.171875 0.53125,0.53125 -0.046875,0.265625 -0.265625,0.484375 -0.53125,0.5625 -0.15625,0.046875 -0.390625,0.0625 -0.5625,0.0625 l 0,0.28125 0.328125,0 c 0.078125,0 0.140625,0 0.203125,0 0.1875,0.015625 0.359375,0.078125 0.5,0.203125 0.21875,0.21875 0.265625,0.59375 0.125,0.859375 -0.0625,0.109375 -0.15625,0.1875 -0.25,0.25 C 1.5625,-0.15625 1.234375,-0.1875 0.96875,-0.28125 0.765625,-0.328125 0.59375,-0.4375 0.4375,-0.578125 0.390625,-0.625 0.34375,-0.6875 0.28125,-0.734375 c -0.015625,0.0625 -0.03125,0.125 -0.03125,0.1875 -0.015625,0.0625 -0.03125,0.09375 0.03125,0.140625 L 0.375,-0.3125 c 0.140625,0.125 0.3125,0.234375 0.484375,0.296875 C 1.25,0.125 1.703125,0.125 2.0625,-0.109375 2.421875,-0.328125 2.671875,-0.78125 2.46875,-1.21875 2.34375,-1.5 2.09375,-1.671875 1.765625,-1.765625 1.953125,-1.859375 2.09375,-1.9375 2.21875,-2.109375 2.3125,-2.25 2.421875,-2.484375 2.375,-2.71875 2.328125,-2.96875 2.125,-3.15625 1.90625,-3.25 1.578125,-3.390625 1.1875,-3.375 0.859375,-3.234375 0.703125,-3.15625 0.546875,-3.0625 0.421875,-2.921875 0.40625,-2.90625 0.3125,-2.8125 0.3125,-2.765625 0.328125,-2.75 0.453125,-2.59375 0.484375,-2.53125 z m 0,0" id="path3903"/>
      </g>
    </g>
    <clipPath id="clip1">
      <path d="m -210,667 612,0 0,-792 -612,0 0,792 z m 0,0" id="path3906"/>
    </clipPath>
    <clipPath id="clip2">
      <path d="m 6.757813,240.80078 182.999997,0 0,-240.999999 -182.999997,0 0,240.999999 z m 0,0" id="path3909"/>
    </clipPath>
  </defs>
  <path d="m 26.991531,45.842117 119.054679,0 0,-34.01562 -119.054679,0 0,34.01562 z m 0,0" id="path3916" style="fill:none;stroke:#000000;stroke-width:0.5;stroke-linejoin:round;stroke-miterlimit:10"/>
  <path d="M 26.991531,11.826497 49.722,0.24446734 l 119.05469,0 -22.73047,11.58202966 -119.054689,0 z m 0,0" id="path3918" style="fill:none;stroke:#000000;stroke-width:0.5;stroke-linejoin:round;stroke-miterlimit:10"/>
  <path d="m 168.77669,0.24446734 0,34.01561966 -22.73047,11.58203" id="path3920" style="fill:none;stroke:#000000;stroke-width:0.5;stroke-linecap:round;stroke-linejoin:round;stroke-miterlimit:10"/>
  <path d="m 178.18684,25.459307 -25.51172,0" id="path3922" style="fill:none;stroke:#000000;stroke-width:0.5;stroke-linecap:round;stroke-linejoin:round;stroke-miterlimit:10"/>
  <path d="m 157.65559,24.35384 -4.98047,1.105468 4.98047,1.101563" id="path3924"/>
  <path d="m 157.65559,24.353837 -4.98047,1.10547 4.98047,1.10156 0,-2.20703 z m 0,0" id="path3926" style="fill:none;stroke:#000000;stroke-width:0.5;stroke-linecap:round;stroke-linejoin:round;stroke-miterlimit:10"/>
  <path d="m 187.6595,20.631187 -25.51563,0" id="path3928" style="fill:none;stroke:#000000;stroke-width:0.5;stroke-linecap:round;stroke-linejoin:round;stroke-miterlimit:10"/>
  <path d="m 167.12825,19.529621 -4.98438,1.101562 4.98438,1.105469" id="path3930"/>
  <path d="m 167.12825,19.529617 -4.98438,1.10157 4.98438,1.10546 0,-2.20703 z m 0,0" id="path3932" style="fill:none;stroke:#000000;stroke-width:0.5;stroke-linecap:round;stroke-linejoin:round;stroke-miterlimit:10"/>
  <path d="m 8.1087187,25.459307 18.8828123,0" id="path3934" style="fill:none;stroke:#000000;stroke-width:0.5;stroke-linecap:round;stroke-linejoin:round;stroke-miterlimit:10"/>
  <path d="m 17.577469,20.631187 9.414062,0" id="path3936" style="fill:none;stroke:#000000;stroke-width:0.5;stroke-linecap:round;stroke-linejoin:round;stroke-miterlimit:10"/>
  <use transform="translate(183.41062,27.650777)" id="use4010" x="0" y="0" width="191" height="240" xlink:href="#glyph0-1"/>
  <use transform="translate(187.68863,28.522777)" id="use4014" x="0" y="0" width="191" height="240" xlink:href="#glyph1-1"/>
  <use transform="translate(-0.734375,27.650777)" id="use4018" x="0" y="0" width="191" height="240" xlink:href="#glyph0-1"/>
  <use transform="translate(3.543625,28.522777)" id="use4022" x="0" y="0" width="191" height="240" xlink:href="#glyph1-1"/>
<!-- whitespace padded --></svg>
