<?xml version="1.0" encoding="UTF-8"?>
<svg xmlns="http://www.w3.org/2000/svg" xmlns:xlink="http://www.w3.org/1999/xlink" width="297pt" height="199pt" viewBox="0 0 172 115" version="1.1">
<defs>
<g>
<symbol overflow="visible" id="glyph0-0">
<path style="stroke:none;" d=""/>
</symbol>
<symbol overflow="visible" id="glyph0-1">
<path style="stroke:none;" d="M 1.75 -4.828125 L 0.734375 0 C 1.921875 0 3.15625 0.015625 4.3125 0 C 4.359375 -0.125 4.390625 -0.28125 4.40625 -0.4375 L 1.359375 -0.4375 L 1.75 -2.296875 C 2.640625 -2.3125 3.609375 -2.28125 4.46875 -2.3125 C 4.515625 -2.421875 4.546875 -2.578125 4.578125 -2.703125 L 1.84375 -2.703125 C 1.953125 -3.28125 2.078125 -3.84375 2.1875 -4.40625 L 5.15625 -4.40625 L 5.234375 -4.828125 L 1.75 -4.828125 Z M 1.75 -4.828125 "/>
</symbol>
<symbol overflow="visible" id="glyph0-2">
<path style="stroke:none;" d="M 0.21875 0 L 0.578125 0 L 0.71875 -0.015625 L 0.796875 -0.109375 C 1.0625 -0.53125 1.3125 -0.96875 1.609375 -1.375 L 1.671875 -1.390625 L 3.96875 -1.390625 C 4.0625 -0.9375 4.125 -0.453125 4.25 -0.015625 C 4.390625 0.03125 4.625 -0.015625 4.796875 0 C 4.78125 -0.140625 3.9375 -4.359375 3.890625 -4.609375 C 3.875 -4.65625 3.84375 -4.890625 3.8125 -4.90625 C 3.765625 -4.90625 3.71875 -4.90625 3.671875 -4.90625 L 3.40625 -4.90625 C 3.359375 -4.90625 3.296875 -4.921875 3.265625 -4.890625 C 3.21875 -4.859375 3.078125 -4.609375 3.078125 -4.609375 L 1.0625 -1.375 L 0.515625 -0.46875 C 0.40625 -0.328125 0.296875 -0.15625 0.21875 0 Z M 3.40625 -4.328125 C 3.546875 -3.484375 3.71875 -2.640625 3.875 -1.8125 L 1.859375 -1.8125 C 2.359375 -2.65625 2.890625 -3.484375 3.40625 -4.328125 Z M 3.40625 -4.328125 "/>
</symbol>
<symbol overflow="visible" id="glyph1-0">
<path style="stroke:none;" d=""/>
</symbol>
<symbol overflow="visible" id="glyph1-1">
<path style="stroke:none;" d="M 1.3125 -3.34375 C 1.1875 -3.328125 1.078125 -3.3125 0.96875 -3.265625 C 0.453125 -3.0625 0.265625 -2.390625 0.265625 -1.71875 C 0.265625 -1.609375 0.265625 -1.515625 0.265625 -1.40625 C 0.28125 -0.953125 0.390625 -0.5 0.65625 -0.21875 C 0.875 0.015625 1.203125 0.109375 1.5 0.078125 C 1.6875 0.0625 1.84375 -0.015625 1.984375 -0.09375 C 2.40625 -0.40625 2.5 -1.015625 2.5 -1.6875 C 2.5 -2.234375 2.40625 -2.71875 2.140625 -3.03125 C 1.9375 -3.25 1.609375 -3.375 1.3125 -3.34375 Z M 1.734375 -2.984375 C 1.78125 -2.953125 1.828125 -2.921875 1.875 -2.875 C 2.0625 -2.6875 2.125 -2.328125 2.140625 -2 C 2.140625 -1.9375 2.140625 -1.875 2.140625 -1.796875 L 2.140625 -1.546875 C 2.140625 -1.109375 2.09375 -0.703125 1.90625 -0.453125 C 1.65625 -0.125 1.125 -0.109375 0.875 -0.4375 C 0.8125 -0.515625 0.765625 -0.59375 0.734375 -0.671875 C 0.640625 -0.921875 0.625 -1.25 0.625 -1.5625 L 0.625 -1.8125 C 0.625 -1.890625 0.640625 -1.9375 0.640625 -2.015625 C 0.640625 -2.40625 0.734375 -2.796875 1 -2.953125 C 1.1875 -3.078125 1.5 -3.109375 1.734375 -2.984375 Z M 1.734375 -2.984375 "/>
</symbol>
<symbol overflow="visible" id="glyph2-0">
<path style="stroke:none;" d=""/>
</symbol>
<symbol overflow="visible" id="glyph2-1">
<path style="stroke:none;" d="M 2.71875 -2 L 0.6875 -2 C 0.640625 -2 0.578125 -2 0.53125 -2 C 0.453125 -1.96875 0.40625 -1.90625 0.40625 -1.84375 C 0.40625 -1.765625 0.453125 -1.703125 0.53125 -1.6875 C 0.578125 -1.671875 0.640625 -1.671875 0.6875 -1.671875 L 2.71875 -1.671875 L 2.71875 0.359375 C 2.71875 0.40625 2.703125 0.453125 2.71875 0.515625 C 2.75 0.578125 2.8125 0.625 2.875 0.625 C 2.953125 0.625 3.015625 0.578125 3.03125 0.515625 C 3.046875 0.453125 3.03125 0.40625 3.03125 0.359375 L 3.03125 -1.671875 L 5.078125 -1.671875 C 5.125 -1.671875 5.171875 -1.671875 5.21875 -1.6875 C 5.296875 -1.703125 5.34375 -1.765625 5.34375 -1.84375 C 5.34375 -1.90625 5.296875 -1.96875 5.21875 -2 C 5.171875 -2 5.125 -2 5.078125 -2 L 3.03125 -2 L 3.03125 -4.03125 C 3.03125 -4.078125 3.046875 -4.140625 3.03125 -4.1875 C 3.015625 -4.265625 2.953125 -4.3125 2.875 -4.3125 C 2.8125 -4.3125 2.75 -4.265625 2.71875 -4.1875 C 2.703125 -4.140625 2.71875 -4.078125 2.71875 -4.03125 L 2.71875 -2 Z M 2.71875 -2 "/>
</symbol>
<symbol overflow="visible" id="glyph2-2">
<path style="stroke:none;" d="M 2.578125 1.546875 C 2.546875 1.5 2.5 1.46875 2.453125 1.4375 C 1.6875 0.75 1.21875 -0.3125 1.171875 -1.59375 C 1.140625 -2.46875 1.296875 -3.375 1.703125 -4.15625 C 1.90625 -4.53125 2.140625 -4.84375 2.453125 -5.109375 C 2.5 -5.15625 2.546875 -5.1875 2.578125 -5.21875 L 2.328125 -5.21875 C 2.171875 -5.21875 2.1875 -5.21875 2.078125 -5.140625 C 1.71875 -4.859375 1.421875 -4.484375 1.1875 -4.0625 C 0.53125 -2.828125 0.484375 -1.15625 1.09375 0.1875 C 1.3125 0.6875 1.65625 1.109375 2.078125 1.46875 C 2.171875 1.53125 2.171875 1.546875 2.328125 1.546875 L 2.578125 1.546875 Z M 2.578125 1.546875 "/>
</symbol>
<symbol overflow="visible" id="glyph2-3">
<path style="stroke:none;" d="M 0.625 -3.203125 C 0.734375 -3.609375 0.90625 -4.046875 1.34375 -4.203125 C 1.5 -4.265625 1.671875 -4.28125 1.859375 -4.265625 C 2.21875 -4.234375 2.578125 -4.09375 2.796875 -3.78125 C 2.9375 -3.578125 2.984375 -3.328125 2.953125 -3.078125 C 2.875 -2.40625 2.28125 -1.984375 1.796875 -1.609375 C 1.40625 -1.3125 0.59375 -0.59375 0.59375 -0.59375 L 0.453125 -0.484375 C 0.390625 -0.40625 0.390625 -0.421875 0.390625 -0.265625 L 0.390625 0 L 3.484375 0 L 3.484375 -0.4375 L 0.84375 -0.4375 C 1.109375 -0.671875 1.90625 -1.34375 2.140625 -1.515625 C 2.578125 -1.84375 3.0625 -2.15625 3.34375 -2.640625 C 3.640625 -3.203125 3.453125 -3.921875 2.96875 -4.3125 C 2.4375 -4.765625 1.46875 -4.828125 0.875 -4.390625 C 0.65625 -4.234375 0.5 -3.984375 0.390625 -3.734375 C 0.375 -3.671875 0.328125 -3.609375 0.328125 -3.546875 C 0.34375 -3.515625 0.390625 -3.484375 0.40625 -3.4375 C 0.46875 -3.359375 0.546875 -3.265625 0.625 -3.203125 Z M 0.625 -3.203125 "/>
</symbol>
<symbol overflow="visible" id="glyph2-4">
<path style="stroke:none;" d="M 0.4375 -5.21875 C 0.46875 -5.1875 0.515625 -5.15625 0.5625 -5.109375 C 1.421875 -4.34375 1.890625 -3.109375 1.828125 -1.59375 C 1.8125 -0.84375 1.625 -0.09375 1.265625 0.5625 C 1.078125 0.890625 0.84375 1.1875 0.5625 1.4375 C 0.515625 1.46875 0.46875 1.5 0.4375 1.546875 L 0.6875 1.546875 C 0.84375 1.546875 0.828125 1.546875 0.921875 1.46875 C 1.296875 1.171875 1.59375 0.796875 1.8125 0.390625 C 2.484375 -0.859375 2.53125 -2.515625 1.921875 -3.859375 C 1.6875 -4.375 1.359375 -4.796875 0.9375 -5.140625 C 0.84375 -5.21875 0.84375 -5.21875 0.6875 -5.21875 L 0.4375 -5.21875 Z M 0.4375 -5.21875 "/>
</symbol>
<symbol overflow="visible" id="glyph2-5">
<path style="stroke:none;" d="M 0.78125 -4.21875 L 0.78125 -3.828125 C 1.125 -3.828125 1.46875 -3.890625 1.78125 -4.03125 L 1.78125 -0.390625 L 0.8125 -0.390625 L 0.8125 0 L 3.25 0 L 3.25 -0.390625 L 2.28125 -0.390625 L 2.28125 -4.6875 C 2.25 -4.6875 2.1875 -4.6875 2.15625 -4.671875 C 2.109375 -4.65625 2.0625 -4.59375 2.015625 -4.5625 C 1.734375 -4.328125 1.21875 -4.21875 0.78125 -4.21875 Z M 0.78125 -4.21875 "/>
</symbol>
<symbol overflow="visible" id="glyph3-0">
<path style="stroke:none;" d=""/>
</symbol>
<symbol overflow="visible" id="glyph3-1">
<path style="stroke:none;" d="M 0.734375 -2 C 0.59375 -1.953125 0.578125 -1.734375 0.71875 -1.6875 C 0.765625 -1.671875 0.8125 -1.671875 0.84375 -1.671875 L 4.78125 -1.671875 C 4.875 -1.671875 5.015625 -1.65625 5.09375 -1.71875 C 5.171875 -1.8125 5.125 -1.96875 5 -2 C 4.921875 -2.015625 4.828125 -2 4.734375 -2 L 0.859375 -2 C 0.828125 -2 0.78125 -2 0.734375 -2 Z M 0.734375 -2 "/>
</symbol>
</g>
<clipPath id="clip1">
  <path d="M -220 666 L 392 666 L 392 -126 L -220 -126 L -220 666 Z M -220 666 "/>
</clipPath>
<clipPath id="clip2">
  <path d="M -0.828125 115.800781 L 162.171875 115.800781 L 162.171875 -1.199219 L -0.828125 -1.199219 L -0.828125 115.800781 Z M -0.828125 115.800781 "/>
</clipPath>
<clipPath id="clip3">
  <path d="M -220 666 L 392 666 L 392 -126 L -220 -126 L -220 666 Z M -220 666 "/>
</clipPath>
</defs>
<g id="surface0">
<g clip-path="url(#clip1)" clip-rule="nonzero">
<g clip-path="url(#clip2)" clip-rule="nonzero">
<path style="fill:none;stroke-width:5;stroke-linecap:butt;stroke-linejoin:round;stroke:rgb(0%,0%,0%);stroke-opacity:1;stroke-miterlimit:10;" d="M 779.032188 499.42625 C 779.032188 600.949687 738.719688 698.254375 666.961875 770.012187 C 595.204063 841.809062 497.860313 882.121562 396.375938 882.121562 C 294.891563 882.121562 197.547813 841.809062 125.79 770.012187 C 54.032188 698.254375 13.680625 600.949687 13.680625 499.42625 C 13.680625 397.941875 54.032188 300.598125 125.79 228.840312 C 197.547813 157.0825 294.891563 116.77 396.375938 116.77 C 497.860313 116.77 595.204063 157.0825 666.961875 228.840312 C 738.719688 300.598125 779.032188 397.941875 779.032188 499.42625 Z M 779.032188 499.42625 " transform="matrix(0.1,0,0,-0.1,-0.829,115.802)"/>
<path style="fill:none;stroke-width:5;stroke-linecap:round;stroke-linejoin:round;stroke:rgb(0%,0%,0%);stroke-opacity:1;stroke-miterlimit:10;" d="M 396.375938 499.42625 L 396.375938 116.77 " transform="matrix(0.1,0,0,-0.1,-0.829,115.802)"/>
<path style=" stroke:none;fill-rule:nonzero;fill:rgb(0%,0%,0%);fill-opacity:1;" d="M 40.507813 104.125 C 40.507813 103.675781 40.328125 103.242188 40.011719 102.921875 C 39.691406 102.605469 39.257813 102.425781 38.808594 102.425781 C 38.355469 102.425781 37.925781 102.605469 37.605469 102.921875 C 37.285156 103.242188 37.105469 103.675781 37.105469 104.125 C 37.105469 104.578125 37.285156 105.007813 37.605469 105.328125 C 37.925781 105.648438 38.355469 105.828125 38.808594 105.828125 C 39.257813 105.828125 39.691406 105.648438 40.011719 105.328125 C 40.328125 105.007813 40.507813 104.578125 40.507813 104.125 "/>
<path style="fill:none;stroke-width:5;stroke-linecap:round;stroke-linejoin:round;stroke:rgb(0%,0%,0%);stroke-opacity:1;stroke-miterlimit:10;" d="M 396.375938 499.42625 L 727.782188 690.793437 " transform="matrix(0.1,0,0,-0.1,-0.829,115.802)"/>
<path style=" stroke:none;fill-rule:nonzero;fill:rgb(0%,0%,0%);fill-opacity:1;" d="M 73.648438 46.722656 C 73.648438 46.273438 73.46875 45.839844 73.152344 45.523438 C 72.832031 45.203125 72.398438 45.023438 71.949219 45.023438 C 71.496094 45.023438 71.066406 45.203125 70.746094 45.523438 C 70.425781 45.839844 70.25 46.273438 70.25 46.722656 C 70.25 47.175781 70.425781 47.609375 70.746094 47.925781 C 71.066406 48.246094 71.496094 48.425781 71.949219 48.425781 C 72.398438 48.425781 72.832031 48.246094 73.152344 47.925781 C 73.46875 47.609375 73.648438 47.175781 73.648438 46.722656 "/>
<path style="fill:none;stroke-width:5;stroke-linecap:round;stroke-linejoin:round;stroke:rgb(0%,0%,0%);stroke-opacity:1;stroke-miterlimit:10;" d="M 396.375938 499.42625 L 64.969688 690.793437 " transform="matrix(0.1,0,0,-0.1,-0.829,115.802)"/>
<path style=" stroke:none;fill-rule:nonzero;fill:rgb(0%,0%,0%);fill-opacity:1;" d="M 7.367188 46.722656 C 7.367188 46.273438 7.1875 45.839844 6.871094 45.523438 C 6.550781 45.203125 6.117188 45.023438 5.667969 45.023438 C 5.214844 45.023438 4.785156 45.203125 4.464844 45.523438 C 4.144531 45.839844 3.964844 46.273438 3.964844 46.722656 C 3.964844 47.175781 4.144531 47.609375 4.464844 47.925781 C 4.785156 48.246094 5.214844 48.425781 5.667969 48.425781 C 6.117188 48.425781 6.550781 48.246094 6.871094 47.925781 C 7.1875 47.609375 7.367188 47.175781 7.367188 46.722656 "/>
<path style="fill:none;stroke-width:5;stroke-linecap:round;stroke-linejoin:round;stroke:rgb(0%,0%,0%);stroke-opacity:1;stroke-miterlimit:10;" d="M 1275.125938 17.55125 L 1275.125938 1151.418437 " transform="matrix(0.1,0,0,-0.1,-0.829,115.802)"/>
<path style=" stroke:none;fill-rule:nonzero;fill:rgb(0%,0%,0%);fill-opacity:1;" d="M 127.910156 6.195313 L 126.683594 0.660156 L 125.453125 6.195313 "/>
<path style="fill:none;stroke-width:5;stroke-linecap:round;stroke-linejoin:round;stroke:rgb(0%,0%,0%);stroke-opacity:1;stroke-miterlimit:10;" d="M 1287.391563 1096.066875 L 1275.125938 1151.418437 L 1262.82125 1096.066875 L 1287.391563 1096.066875 Z M 1287.391563 1096.066875 " transform="matrix(0.1,0,0,-0.1,-0.829,115.802)"/>
<path style="fill:none;stroke-width:5;stroke-linecap:round;stroke-linejoin:round;stroke:rgb(0%,0%,0%);stroke-opacity:1;stroke-miterlimit:10;" d="M 1275.125938 116.77 L 1615.282188 116.77 " transform="matrix(0.1,0,0,-0.1,-0.829,115.802)"/>
<path style="fill:none;stroke-width:5;stroke-linecap:round;stroke-linejoin:round;stroke:rgb(0%,0%,0%);stroke-opacity:1;stroke-miterlimit:10;" d="M 1275.125938 690.793437 L 1615.282188 690.793437 " transform="matrix(0.1,0,0,-0.1,-0.829,115.802)"/>
<path style="fill:none;stroke-width:3;stroke-linecap:round;stroke-linejoin:round;stroke:rgb(0%,0%,0%);stroke-opacity:1;stroke-dasharray:30,30;stroke-miterlimit:10;" d="M 1275.125938 116.77 L 396.375938 116.77 " transform="matrix(0.1,0,0,-0.1,-0.829,115.802)"/>
<path style="fill:none;stroke-width:3;stroke-linecap:round;stroke-linejoin:round;stroke:rgb(0%,0%,0%);stroke-opacity:1;stroke-dasharray:30,30;stroke-miterlimit:10;" d="M 1275.125938 499.42625 L 396.375938 499.42625 " transform="matrix(0.1,0,0,-0.1,-0.829,115.802)"/>
<path style="fill:none;stroke-width:3;stroke-linecap:round;stroke-linejoin:round;stroke:rgb(0%,0%,0%);stroke-opacity:1;stroke-dasharray:30,30;stroke-miterlimit:10;" d="M 1275.125938 690.793437 L 64.969688 690.793437 " transform="matrix(0.1,0,0,-0.1,-0.829,115.802)"/>
</g>
</g>
<g clip-path="url(#clip3)" clip-rule="nonzero">
<g style="fill:rgb(0%,0%,0%);fill-opacity:1;">
  <use xlink:href="#glyph0-1" x="118.432" y="5.971"/>
</g>
<g style="fill:rgb(0%,0%,0%);fill-opacity:1;">
  <use xlink:href="#glyph0-1" x="92.714" y="44.348"/>
</g>
<g style="fill:rgb(0%,0%,0%);fill-opacity:1;">
  <use xlink:href="#glyph1-1" x="97.771" y="45.219"/>
</g>
<g style="fill:rgb(0%,0%,0%);fill-opacity:1;">
  <use xlink:href="#glyph2-1" x="102.686" y="44.348"/>
</g>
<g style="fill:rgb(0%,0%,0%);fill-opacity:1;">
  <use xlink:href="#glyph0-2" x="110.096" y="44.348"/>
</g>
<g style="fill:rgb(0%,0%,0%);fill-opacity:1;">
  <use xlink:href="#glyph0-1" x="92.714" y="63.34"/>
</g>
<g style="fill:rgb(0%,0%,0%);fill-opacity:1;">
  <use xlink:href="#glyph1-1" x="97.771" y="64.211"/>
</g>
<g style="fill:rgb(0%,0%,0%);fill-opacity:1;">
  <use xlink:href="#glyph0-1" x="92.714" y="101.891"/>
</g>
<g style="fill:rgb(0%,0%,0%);fill-opacity:1;">
  <use xlink:href="#glyph1-1" x="97.771" y="102.763"/>
</g>
<g style="fill:rgb(0%,0%,0%);fill-opacity:1;">
  <use xlink:href="#glyph3-1" x="102.686" y="101.891"/>
</g>
<g style="fill:rgb(0%,0%,0%);fill-opacity:1;">
  <use xlink:href="#glyph0-2" x="110.096" y="101.891"/>
</g>
<g style="fill:rgb(0%,0%,0%);fill-opacity:1;">
  <use xlink:href="#glyph2-2" x="162.163" y="48.477"/>
  <use xlink:href="#glyph2-3" x="165.179866" y="48.477"/>
  <use xlink:href="#glyph2-4" x="169.059391" y="48.477"/>
</g>
<g style="fill:rgb(0%,0%,0%);fill-opacity:1;">
  <use xlink:href="#glyph2-2" x="162.163" y="106.02"/>
  <use xlink:href="#glyph2-5" x="165.179866" y="106.02"/>
  <use xlink:href="#glyph2-4" x="169.059391" y="106.02"/>
</g>
</g>
</g>
</svg>
