<?xml version="1.0" encoding="UTF-8"?>
<svg xmlns="http://www.w3.org/2000/svg" xmlns:xlink="http://www.w3.org/1999/xlink" width="290.9845356715714pt" height="226.8986557915229pt" viewBox="0 0 168 131" version="1.1">
<defs>
<g>
<symbol overflow="visible" id="glyph0-0">
<path style="stroke:none;" d=""/>
</symbol>
<symbol overflow="visible" id="glyph0-1">
<path style="stroke:none;" d="M 0.28125 -4.8125 L 0.28125 -4.40625 L 2.421875 -4.40625 L 2.421875 0 L 2.953125 0 L 2.953125 -4.40625 L 5.078125 -4.40625 L 5.078125 -4.8125 L 0.28125 -4.8125 Z M 0.28125 -4.8125 "/>
</symbol>
<symbol overflow="visible" id="glyph0-2">
<path style="stroke:none;" d="M 0.734375 -4.828125 L 0.734375 0 L 4.328125 0 L 4.328125 -0.4375 L 1.265625 -0.4375 L 1.265625 -2.296875 L 4 -2.296875 L 4 -2.703125 L 1.265625 -2.703125 L 1.265625 -4.40625 L 4.203125 -4.40625 L 4.203125 -4.828125 L 0.734375 -4.828125 Z M 0.734375 -4.828125 "/>
</symbol>
<symbol overflow="visible" id="glyph0-3">
<path style="stroke:none;" d="M 0.765625 -4.84375 L 0.765625 0 L 1.234375 0 L 1.234375 -4.328125 L 1.25 -4.328125 C 1.28125 -4.1875 1.359375 -4.0625 1.40625 -3.921875 C 1.5 -3.703125 2.96875 -0.265625 3 -0.1875 C 3.046875 -0.125 3.015625 -0.109375 3.15625 -0.109375 L 3.359375 -0.109375 C 3.390625 -0.109375 3.421875 -0.109375 3.46875 -0.109375 C 3.5 -0.125 3.5 -0.15625 3.515625 -0.1875 C 3.546875 -0.234375 3.5625 -0.296875 3.59375 -0.359375 L 3.921875 -1.125 C 4.015625 -1.359375 5.265625 -4.234375 5.296875 -4.328125 L 5.296875 -4.328125 L 5.296875 0 L 5.78125 0 L 5.78125 -4.84375 C 5.546875 -4.828125 5.265625 -4.859375 5.078125 -4.828125 L 5.03125 -4.734375 L 3.25 -0.625 L 1.9375 -3.671875 C 1.765625 -4.0625 1.625 -4.453125 1.4375 -4.828125 C 1.25 -4.859375 0.96875 -4.828125 0.765625 -4.84375 Z M 0.765625 -4.84375 "/>
</symbol>
<symbol overflow="visible" id="glyph0-4">
<path style="stroke:none;" d="M 0.734375 -4.84375 L 0.734375 0 L 1.265625 0 L 1.265625 -2.015625 L 2.296875 -2.015625 C 2.453125 -2.015625 2.625 -2.015625 2.78125 -2.015625 C 3.546875 -2.078125 4.296875 -2.515625 4.421875 -3.21875 C 4.5 -3.625 4.328125 -3.953125 4.140625 -4.1875 C 3.859375 -4.53125 3.421875 -4.765625 2.90625 -4.828125 C 2.65625 -4.84375 2.40625 -4.84375 2.171875 -4.84375 L 0.734375 -4.84375 Z M 1.25 -2.421875 L 1.25 -4.421875 L 2.296875 -4.421875 C 2.90625 -4.421875 3.46875 -4.359375 3.765625 -3.953125 C 4 -3.640625 4 -3.203125 3.765625 -2.890625 C 3.6875 -2.78125 3.578125 -2.703125 3.46875 -2.625 C 3.109375 -2.421875 2.703125 -2.421875 2.328125 -2.421875 L 1.25 -2.421875 Z M 1.25 -2.421875 "/>
</symbol>
<symbol overflow="visible" id="glyph0-5">
<path style="stroke:none;" d="M 0.734375 -4.84375 L 0.734375 0 L 1.25 0 L 1.25 -2.21875 L 2.28125 -2.21875 C 2.421875 -2.21875 2.546875 -2.234375 2.65625 -2.203125 C 2.78125 -2.03125 2.90625 -1.859375 3.03125 -1.671875 C 3.421875 -1.125 3.8125 -0.5625 4.21875 -0.015625 C 4.390625 0 4.578125 0 4.75 0 L 4.46875 -0.390625 L 3.125 -2.28125 C 3.25 -2.296875 3.390625 -2.328125 3.515625 -2.390625 C 4.015625 -2.5625 4.578125 -2.96875 4.53125 -3.5625 C 4.515625 -3.796875 4.453125 -3.9375 4.328125 -4.109375 C 4.015625 -4.515625 3.484375 -4.765625 2.875 -4.828125 C 2.625 -4.84375 2.390625 -4.84375 2.125 -4.84375 L 0.734375 -4.84375 Z M 1.25 -2.609375 L 1.25 -4.421875 L 2.296875 -4.421875 C 2.640625 -4.421875 3 -4.421875 3.34375 -4.328125 C 3.671875 -4.203125 4 -3.96875 4.046875 -3.59375 C 4.0625 -3.359375 3.96875 -3.140625 3.8125 -2.984375 C 3.6875 -2.875 3.546875 -2.796875 3.390625 -2.734375 C 3.046875 -2.609375 2.6875 -2.609375 2.328125 -2.609375 L 1.25 -2.609375 Z M 1.25 -2.609375 "/>
</symbol>
<symbol overflow="visible" id="glyph0-6">
<path style="stroke:none;" d="M 0.21875 0 L 0.578125 0 C 0.625 0 0.6875 0.015625 0.71875 -0.015625 C 0.75 -0.03125 0.75 -0.0625 0.765625 -0.09375 C 0.875 -0.34375 1.21875 -1.203125 1.265625 -1.296875 C 1.28125 -1.359375 1.296875 -1.390625 1.375 -1.390625 L 3.046875 -1.390625 C 3.234375 -1.390625 3.421875 -1.40625 3.609375 -1.390625 C 3.6875 -1.390625 3.703125 -1.296875 3.734375 -1.234375 C 3.8125 -1.03125 4.1875 -0.125 4.203125 -0.0625 C 4.234375 0.015625 4.296875 0 4.40625 0 L 4.796875 0 C 4.625 -0.453125 4.4375 -0.890625 4.25 -1.34375 L 2.8125 -4.828125 C 2.796875 -4.859375 2.796875 -4.90625 2.765625 -4.90625 C 2.71875 -4.90625 2.671875 -4.90625 2.625 -4.90625 L 2.375 -4.90625 C 2.328125 -4.90625 2.265625 -4.921875 2.234375 -4.890625 C 2.203125 -4.875 2.1875 -4.84375 2.1875 -4.8125 L 0.765625 -1.34375 L 0.40625 -0.484375 C 0.34375 -0.328125 0.265625 -0.171875 0.21875 0 Z M 2.484375 -4.328125 C 2.796875 -3.46875 3.15625 -2.640625 3.5 -1.8125 L 1.46875 -1.8125 C 1.796875 -2.640625 2.15625 -3.46875 2.46875 -4.328125 L 2.484375 -4.328125 Z M 2.484375 -4.328125 "/>
</symbol>
<symbol overflow="visible" id="glyph0-7">
<path style="stroke:none;" d="M 0.734375 -4.84375 L 0.734375 -1.78125 C 0.734375 -1.640625 0.734375 -1.5 0.75 -1.359375 C 0.8125 -0.953125 1.015625 -0.625 1.28125 -0.390625 C 1.84375 0.125 2.703125 0.265625 3.390625 -0.0625 C 3.75 -0.234375 4.078125 -0.5625 4.25 -0.921875 C 4.375 -1.21875 4.390625 -1.40625 4.390625 -1.8125 L 4.390625 -4.84375 L 3.890625 -4.84375 L 3.890625 -1.765625 C 3.890625 -1.5 3.875 -1.21875 3.75 -0.96875 C 3.671875 -0.8125 3.5625 -0.65625 3.40625 -0.546875 C 2.8125 -0.109375 1.765625 -0.28125 1.4375 -0.875 C 1.28125 -1.15625 1.265625 -1.46875 1.265625 -1.78125 L 1.265625 -4.84375 L 0.734375 -4.84375 Z M 0.734375 -4.84375 "/>
</symbol>
<symbol overflow="visible" id="glyph0-8">
<path style="stroke:none;" d="M 2.578125 1.546875 C 2.546875 1.5 2.5 1.46875 2.453125 1.4375 C 1.6875 0.75 1.21875 -0.3125 1.171875 -1.59375 C 1.140625 -2.46875 1.296875 -3.375 1.703125 -4.15625 C 1.90625 -4.53125 2.140625 -4.84375 2.453125 -5.109375 C 2.5 -5.15625 2.546875 -5.1875 2.578125 -5.21875 L 2.328125 -5.21875 C 2.171875 -5.21875 2.1875 -5.21875 2.078125 -5.140625 C 1.71875 -4.859375 1.421875 -4.484375 1.1875 -4.0625 C 0.53125 -2.828125 0.484375 -1.15625 1.09375 0.1875 C 1.3125 0.6875 1.65625 1.109375 2.078125 1.46875 C 2.171875 1.53125 2.171875 1.546875 2.328125 1.546875 L 2.578125 1.546875 Z M 2.578125 1.546875 "/>
</symbol>
<symbol overflow="visible" id="glyph0-9">
<path style="stroke:none;" d="M 4.515625 -0.796875 C 4.125 -0.578125 3.875 -0.375 3.296875 -0.359375 C 3.09375 -0.359375 2.875 -0.34375 2.671875 -0.390625 C 2.109375 -0.5 1.640625 -0.890625 1.375 -1.390625 C 0.890625 -2.28125 1.125 -3.5 1.953125 -4.125 C 2.09375 -4.21875 2.234375 -4.3125 2.390625 -4.375 C 2.859375 -4.53125 3.421875 -4.515625 3.890625 -4.34375 C 4.0625 -4.265625 4.21875 -4.1875 4.375 -4.109375 C 4.40625 -4.28125 4.453125 -4.46875 4.46875 -4.640625 C 4.328125 -4.703125 4.171875 -4.75 4 -4.78125 C 3.671875 -4.859375 3.171875 -4.921875 2.796875 -4.890625 C 2.078125 -4.828125 1.46875 -4.421875 1.109375 -3.9375 C 0.640625 -3.34375 0.484375 -2.546875 0.65625 -1.8125 C 0.953125 -0.6875 1.90625 0.125 3.28125 0.046875 C 3.734375 0.03125 4.015625 -0.0625 4.375 -0.234375 C 4.40625 -0.265625 4.53125 -0.3125 4.546875 -0.34375 C 4.5625 -0.390625 4.515625 -0.6875 4.515625 -0.796875 Z M 4.515625 -0.796875 "/>
</symbol>
<symbol overflow="visible" id="glyph0-10">
<path style="stroke:none;" d="M 0.4375 -5.21875 C 0.46875 -5.1875 0.515625 -5.15625 0.5625 -5.109375 C 1.421875 -4.34375 1.890625 -3.109375 1.828125 -1.59375 C 1.8125 -0.84375 1.625 -0.09375 1.265625 0.5625 C 1.078125 0.890625 0.84375 1.1875 0.5625 1.4375 C 0.515625 1.46875 0.46875 1.5 0.4375 1.546875 L 0.6875 1.546875 C 0.84375 1.546875 0.828125 1.546875 0.921875 1.46875 C 1.296875 1.171875 1.59375 0.796875 1.8125 0.390625 C 2.484375 -0.859375 2.53125 -2.515625 1.921875 -3.859375 C 1.6875 -4.375 1.359375 -4.796875 0.9375 -5.140625 C 0.84375 -5.21875 0.84375 -5.21875 0.6875 -5.21875 L 0.4375 -5.21875 Z M 0.4375 -5.21875 "/>
</symbol>
<symbol overflow="visible" id="glyph0-11">
<path style="stroke:none;" d="M 1.828125 -4.6875 C 1.671875 -4.65625 1.5 -4.640625 1.359375 -4.5625 C 0.625 -4.28125 0.375 -3.34375 0.375 -2.40625 C 0.375 -2.265625 0.375 -2.125 0.375 -1.96875 C 0.390625 -1.328125 0.546875 -0.6875 0.90625 -0.296875 C 1.21875 0.015625 1.671875 0.140625 2.09375 0.109375 C 2.359375 0.078125 2.578125 -0.015625 2.765625 -0.140625 C 3.359375 -0.5625 3.5 -1.421875 3.5 -2.359375 C 3.5 -3.125 3.359375 -3.8125 2.984375 -4.234375 C 2.703125 -4.546875 2.265625 -4.71875 1.828125 -4.6875 Z M 2.421875 -4.171875 C 2.5 -4.125 2.5625 -4.078125 2.625 -4.015625 C 2.890625 -3.765625 2.96875 -3.265625 2.984375 -2.796875 C 2.984375 -2.703125 2.984375 -2.609375 2.984375 -2.515625 L 2.984375 -2.15625 C 2.984375 -1.5625 2.9375 -0.984375 2.671875 -0.625 C 2.328125 -0.171875 1.578125 -0.15625 1.21875 -0.609375 C 1.125 -0.703125 1.078125 -0.828125 1.03125 -0.9375 C 0.90625 -1.296875 0.875 -1.734375 0.875 -2.1875 L 0.875 -2.546875 C 0.875 -2.640625 0.890625 -2.71875 0.890625 -2.8125 C 0.890625 -3.359375 1.03125 -3.90625 1.390625 -4.140625 C 1.671875 -4.3125 2.09375 -4.359375 2.421875 -4.171875 Z M 2.421875 -4.171875 "/>
</symbol>
<symbol overflow="visible" id="glyph0-12">
<path style="stroke:none;" d="M 0.65625 -4.578125 L 0.65625 -2.03125 L 0.953125 -2.03125 C 1 -2.03125 1.046875 -2.015625 1.09375 -2.046875 C 1.125 -2.0625 1.15625 -2.109375 1.171875 -2.140625 C 1.21875 -2.203125 1.265625 -2.265625 1.328125 -2.3125 C 1.625 -2.546875 2.09375 -2.625 2.453125 -2.453125 C 2.84375 -2.28125 2.953125 -1.828125 2.953125 -1.4375 C 2.953125 -1.1875 2.90625 -0.9375 2.78125 -0.734375 C 2.5 -0.3125 1.921875 -0.21875 1.453125 -0.328125 C 1.0625 -0.421875 0.78125 -0.640625 0.578125 -0.921875 L 0.5625 -0.921875 C 0.546875 -0.890625 0.34375 -0.609375 0.34375 -0.578125 C 0.34375 -0.546875 0.375 -0.53125 0.390625 -0.515625 C 0.625 -0.28125 0.84375 -0.109375 1.1875 0 C 1.828125 0.21875 2.578125 0.109375 3.0625 -0.390625 C 3.28125 -0.625 3.421875 -0.90625 3.46875 -1.21875 C 3.59375 -2.09375 2.953125 -3.015625 1.875 -2.921875 C 1.5625 -2.890625 1.359375 -2.765625 1.140625 -2.59375 L 1.140625 -4.15625 L 3.21875 -4.15625 L 3.21875 -4.578125 L 0.65625 -4.578125 Z M 0.65625 -4.578125 "/>
</symbol>
<symbol overflow="visible" id="glyph0-13">
<path style="stroke:none;" d="M 0.78125 -4.21875 L 0.78125 -3.828125 C 1.125 -3.828125 1.46875 -3.890625 1.78125 -4.03125 L 1.78125 -0.390625 L 0.8125 -0.390625 L 0.8125 0 L 3.25 0 L 3.25 -0.390625 L 2.28125 -0.390625 L 2.28125 -4.6875 C 2.25 -4.6875 2.1875 -4.6875 2.15625 -4.671875 C 2.109375 -4.65625 2.0625 -4.59375 2.015625 -4.5625 C 1.734375 -4.328125 1.21875 -4.21875 0.78125 -4.21875 Z M 0.78125 -4.21875 "/>
</symbol>
<symbol overflow="visible" id="glyph0-14">
<path style="stroke:none;" d="M 0.625 -3.203125 C 0.734375 -3.609375 0.90625 -4.046875 1.34375 -4.203125 C 1.5 -4.265625 1.671875 -4.28125 1.859375 -4.265625 C 2.21875 -4.234375 2.578125 -4.09375 2.796875 -3.78125 C 2.9375 -3.578125 2.984375 -3.328125 2.953125 -3.078125 C 2.875 -2.40625 2.28125 -1.984375 1.796875 -1.609375 C 1.40625 -1.3125 0.59375 -0.59375 0.59375 -0.59375 L 0.453125 -0.484375 C 0.390625 -0.40625 0.390625 -0.421875 0.390625 -0.265625 L 0.390625 0 L 3.484375 0 L 3.484375 -0.4375 L 0.84375 -0.4375 C 1.109375 -0.671875 1.90625 -1.34375 2.140625 -1.515625 C 2.578125 -1.84375 3.0625 -2.15625 3.34375 -2.640625 C 3.640625 -3.203125 3.453125 -3.921875 2.96875 -4.3125 C 2.4375 -4.765625 1.46875 -4.828125 0.875 -4.390625 C 0.65625 -4.234375 0.5 -3.984375 0.390625 -3.734375 C 0.375 -3.671875 0.328125 -3.609375 0.328125 -3.546875 C 0.34375 -3.515625 0.390625 -3.484375 0.40625 -3.4375 C 0.46875 -3.359375 0.546875 -3.265625 0.625 -3.203125 Z M 0.625 -3.203125 "/>
</symbol>
<symbol overflow="visible" id="glyph0-15">
<path style="stroke:none;" d="M 0.21875 -1.21875 L 2.34375 -1.21875 L 2.34375 0 L 2.8125 0 L 2.8125 -1.21875 L 3.65625 -1.21875 L 3.65625 -1.640625 L 2.8125 -1.640625 L 2.8125 -4.640625 L 2.421875 -4.640625 C 2.375 -4.640625 2.296875 -4.65625 2.265625 -4.625 C 2.203125 -4.578125 2.109375 -4.40625 2.078125 -4.390625 L 1.671875 -3.78125 C 1.515625 -3.546875 0.375 -1.875 0.296875 -1.75 C 0.21875 -1.671875 0.21875 -1.640625 0.21875 -1.5 L 0.21875 -1.21875 Z M 2.359375 -4.1875 L 2.359375 -1.640625 L 0.71875 -1.640625 L 1.765625 -3.1875 C 1.953125 -3.515625 2.1875 -3.828125 2.359375 -4.1875 Z M 2.359375 -4.1875 "/>
</symbol>
<symbol overflow="visible" id="glyph0-16">
<path style="stroke:none;" d="M 0.90625 -2.328125 L 0.90625 -2.328125 C 0.90625 -2.921875 1.03125 -3.609375 1.53125 -4 C 1.859375 -4.265625 2.328125 -4.390625 2.90625 -4.234375 C 3.015625 -4.21875 3.109375 -4.171875 3.21875 -4.140625 L 3.21875 -4.421875 C 3.21875 -4.453125 3.21875 -4.515625 3.203125 -4.53125 C 3.15625 -4.59375 2.734375 -4.65625 2.734375 -4.65625 C 2.109375 -4.75 1.640625 -4.578125 1.28125 -4.28125 C 0.828125 -3.9375 0.546875 -3.40625 0.4375 -2.84375 C 0.390625 -2.578125 0.375 -2.296875 0.390625 -2.015625 C 0.421875 -1.375 0.515625 -0.859375 0.84375 -0.4375 C 1.234375 0.09375 1.984375 0.265625 2.578125 -0.015625 C 2.84375 -0.140625 3.0625 -0.375 3.21875 -0.609375 C 3.453125 -0.9375 3.5 -1.328125 3.484375 -1.71875 C 3.46875 -1.921875 3.421875 -2.125 3.359375 -2.3125 C 3.21875 -2.609375 2.96875 -2.953125 2.6875 -3.09375 C 2.546875 -3.140625 2.40625 -3.15625 2.25 -3.15625 C 1.875 -3.15625 1.515625 -3 1.21875 -2.75 C 1.125 -2.65625 0.953125 -2.453125 0.90625 -2.328125 Z M 1.984375 -2.765625 C 2.21875 -2.765625 2.453125 -2.734375 2.640625 -2.5625 C 2.703125 -2.515625 2.734375 -2.453125 2.78125 -2.40625 C 2.96875 -2.15625 2.96875 -1.84375 2.96875 -1.546875 C 2.96875 -1.078125 2.921875 -0.796875 2.65625 -0.53125 C 2.453125 -0.328125 2.1875 -0.28125 1.90625 -0.28125 C 1.609375 -0.296875 1.328125 -0.4375 1.15625 -0.671875 C 1.0625 -0.828125 1.015625 -1 0.96875 -1.171875 C 0.921875 -1.40625 0.890625 -1.65625 0.9375 -1.875 C 1.03125 -2.375 1.46875 -2.78125 1.984375 -2.765625 Z M 1.984375 -2.765625 "/>
</symbol>
<symbol overflow="visible" id="glyph0-17">
<path style="stroke:none;" d="M 1.421875 -2.46875 L 1.421875 -2.46875 C 0.953125 -2.34375 0.515625 -2.03125 0.375 -1.59375 C 0.21875 -1.140625 0.40625 -0.65625 0.734375 -0.34375 C 1.078125 -0.015625 1.546875 0.125 2 0.109375 C 2.625 0.09375 3.28125 -0.28125 3.484375 -0.890625 C 3.546875 -1.09375 3.578125 -1.3125 3.515625 -1.546875 C 3.375 -2.03125 2.9375 -2.34375 2.453125 -2.46875 C 2.515625 -2.5 2.59375 -2.515625 2.65625 -2.53125 C 2.921875 -2.640625 3.171875 -2.8125 3.3125 -3.046875 C 3.59375 -3.484375 3.359375 -4.046875 2.984375 -4.34375 C 2.578125 -4.65625 2.015625 -4.75 1.515625 -4.640625 C 1.09375 -4.546875 0.6875 -4.265625 0.515625 -3.859375 C 0.453125 -3.734375 0.421875 -3.5625 0.4375 -3.40625 C 0.46875 -3.03125 0.75 -2.765625 1.078125 -2.59375 C 1.171875 -2.546875 1.296875 -2.484375 1.421875 -2.46875 Z M 2.09375 -4.28125 C 2.328125 -4.265625 2.59375 -4.203125 2.765625 -4.015625 C 3.03125 -3.734375 3.03125 -3.21875 2.75 -2.9375 C 2.578125 -2.765625 2.328125 -2.6875 2.109375 -2.671875 C 1.765625 -2.640625 1.359375 -2.6875 1.109375 -2.9375 C 0.828125 -3.21875 0.84375 -3.78125 1.140625 -4.0625 C 1.375 -4.265625 1.71875 -4.3125 2.09375 -4.28125 Z M 1.8125 -2.265625 C 2.1875 -2.296875 2.609375 -2.203125 2.859375 -1.890625 C 3.109375 -1.546875 3.109375 -0.921875 2.78125 -0.578125 C 2.609375 -0.40625 2.359375 -0.3125 2.109375 -0.296875 C 1.75 -0.265625 1.34375 -0.3125 1.078125 -0.578125 C 0.765625 -0.90625 0.703125 -1.59375 1.078125 -1.96875 C 1.265625 -2.15625 1.546875 -2.25 1.8125 -2.265625 Z M 1.8125 -2.265625 "/>
</symbol>
<symbol overflow="visible" id="glyph0-18">
<path style="stroke:none;" d="M 0.734375 -4.84375 L 0.734375 0 L 1.265625 0 L 1.265625 -2.3125 L 3.984375 -2.3125 L 3.984375 0 L 4.515625 0 L 4.515625 -4.84375 L 3.984375 -4.84375 L 3.984375 -2.71875 L 1.265625 -2.71875 L 1.265625 -4.84375 L 0.734375 -4.84375 Z M 0.734375 -4.84375 "/>
</symbol>
<symbol overflow="visible" id="glyph0-19">
<path style="stroke:none;" d="M 1 -4.03125 C 0.265625 -3.125 0.234375 -1.75 0.96875 -0.84375 C 1.28125 -0.4375 1.703125 -0.140625 2.234375 0.015625 C 3.71875 0.421875 4.921875 -0.546875 5.25 -1.65625 C 5.53125 -2.578125 5.25 -3.640625 4.53125 -4.3125 C 4.171875 -4.640625 3.65625 -4.90625 3.046875 -4.9375 C 2.125 -5.015625 1.421875 -4.53125 1 -4.03125 Z M 3.484375 -4.453125 C 3.96875 -4.296875 4.359375 -3.96875 4.59375 -3.53125 C 4.734375 -3.265625 4.796875 -2.96875 4.828125 -2.671875 C 4.890625 -1.84375 4.546875 -0.9375 3.796875 -0.53125 C 3.421875 -0.328125 2.96875 -0.234375 2.484375 -0.34375 C 2.15625 -0.421875 1.859375 -0.59375 1.640625 -0.796875 C 1.21875 -1.1875 1 -1.765625 0.96875 -2.328125 C 0.90625 -3.34375 1.421875 -4.109375 2.140625 -4.390625 C 2.5625 -4.5625 3.03125 -4.59375 3.484375 -4.453125 Z M 3.484375 -4.453125 "/>
</symbol>
<symbol overflow="visible" id="glyph1-0">
<path style="stroke:none;" d=""/>
</symbol>
<symbol overflow="visible" id="glyph1-1">
<path style="stroke:none;" d="M 0.484375 -1.90625 C 0.234375 -1.546875 0.234375 -1.0625 0.5 -0.703125 C 0.6875 -0.453125 1.015625 -0.25 1.4375 -0.296875 C 1.734375 -0.328125 1.984375 -0.5 2.140625 -0.703125 C 2.375 -1.015625 2.40625 -1.453125 2.234375 -1.796875 C 2.109375 -2.03125 1.890625 -2.21875 1.609375 -2.296875 C 1.125 -2.453125 0.6875 -2.203125 0.484375 -1.90625 Z M 1.796875 -1.953125 C 2.140625 -1.6875 2.21875 -1.1875 1.953125 -0.84375 C 1.90625 -0.75 1.8125 -0.6875 1.71875 -0.625 C 1.453125 -0.46875 1.09375 -0.5 0.84375 -0.671875 C 0.5 -0.9375 0.421875 -1.453125 0.6875 -1.796875 C 0.75 -1.890625 0.828125 -1.953125 0.921875 -2.015625 C 1.203125 -2.171875 1.5625 -2.140625 1.796875 -1.953125 Z M 1.796875 -1.953125 "/>
</symbol>
<symbol overflow="visible" id="glyph2-0">
<path style="stroke:none;" d=""/>
</symbol>
<symbol overflow="visible" id="glyph2-1">
<path style="stroke:none;" d="M -0.046875 -1.890625 L 0.46875 -1.890625 C 0.546875 -2.25 0.78125 -2.59375 1.109375 -2.765625 C 1.296875 -2.84375 1.53125 -2.890625 1.734375 -2.8125 C 2.15625 -2.65625 2.328125 -2.171875 2.453125 -1.734375 C 2.515625 -1.546875 2.5625 -1.359375 2.609375 -1.171875 C 2.625 -1.078125 2.703125 -0.71875 2.703125 -0.625 C 2.703125 -0.578125 2.671875 -0.53125 2.671875 -0.5 C 2.5625 -0.109375 2.34375 0.734375 2.34375 1.046875 C 2.34375 1.15625 2.390625 1.28125 2.515625 1.28125 C 2.75 1.265625 2.84375 0.9375 2.875 0.734375 C 2.96875 0.390625 3.03125 -0.0625 3.0625 -0.4375 C 3.078125 -0.515625 3.078125 -0.59375 3.078125 -0.671875 C 3.078125 -0.71875 3.078125 -0.765625 3.09375 -0.8125 C 3.15625 -1.015625 3.234375 -1.203125 3.328125 -1.390625 C 3.5 -1.8125 3.703125 -2.234375 3.890625 -2.65625 L 4.0625 -3.046875 C 4.09375 -3.125 4.125 -3.203125 4.15625 -3.296875 C 4 -3.296875 3.8125 -3.296875 3.65625 -3.28125 L 3.59375 -3.15625 C 3.390625 -2.65625 3.203125 -2.171875 3.03125 -1.65625 C 2.984375 -1.796875 2.96875 -1.9375 2.921875 -2.09375 C 2.8125 -2.5 2.59375 -2.90625 2.234375 -3.15625 C 1.875 -3.40625 1.40625 -3.390625 1.015625 -3.21875 C 0.625 -3.03125 0.296875 -2.703125 0.109375 -2.328125 C 0.046875 -2.1875 -0.015625 -2.046875 -0.046875 -1.890625 Z M -0.046875 -1.890625 "/>
</symbol>
<symbol overflow="visible" id="glyph2-2">
<path style="stroke:none;" d="M 0.78125 -0.578125 L 0.78125 0 L 1.359375 0 L 1.359375 -0.578125 L 0.78125 -0.578125 Z M 0.78125 -0.578125 "/>
</symbol>
<symbol overflow="visible" id="glyph3-0">
<path style="stroke:none;" d=""/>
</symbol>
<symbol overflow="visible" id="glyph3-1">
<path style="stroke:none;" d="M 0.4375 -2.28125 C 0.515625 -2.578125 0.65625 -2.890625 0.953125 -3 C 1.078125 -3.046875 1.203125 -3.0625 1.328125 -3.046875 C 1.578125 -3.03125 1.84375 -2.921875 2 -2.703125 C 2.109375 -2.5625 2.140625 -2.375 2.109375 -2.203125 C 2.046875 -1.71875 1.625 -1.421875 1.28125 -1.15625 C 1 -0.9375 0.421875 -0.421875 0.421875 -0.421875 L 0.328125 -0.34375 C 0.28125 -0.296875 0.28125 -0.296875 0.28125 -0.1875 L 0.28125 0 L 2.5 0 L 2.5 -0.3125 L 0.59375 -0.3125 C 0.796875 -0.484375 1.359375 -0.953125 1.53125 -1.078125 C 1.84375 -1.3125 2.1875 -1.546875 2.390625 -1.890625 C 2.609375 -2.28125 2.46875 -2.8125 2.125 -3.078125 C 1.75 -3.40625 1.046875 -3.453125 0.625 -3.140625 C 0.46875 -3.03125 0.359375 -2.84375 0.28125 -2.671875 C 0.265625 -2.625 0.234375 -2.578125 0.234375 -2.546875 C 0.25 -2.515625 0.28125 -2.484375 0.296875 -2.46875 C 0.34375 -2.40625 0.390625 -2.34375 0.4375 -2.28125 Z M 0.4375 -2.28125 "/>
</symbol>
</g>
<clipPath id="clip1">
  <path d="M -221 666 L 391 666 L 391 -126 L -221 -126 L -221 666 Z M -221 666 "/>
</clipPath>
<clipPath id="clip2">
  <path d="M 10.492188 113.863281 L 169.234375 113.863281 L 169.234375 -1.199219 L 10.492188 -1.199219 L 10.492188 113.863281 Z M 10.492188 113.863281 "/>
</clipPath>
<clipPath id="clip3">
  <path d="M -221 666 L 391 666 L 391 -126 L -221 -126 L -221 666 Z M -221 666 "/>
</clipPath>
</defs>
<g id="surface0">
<g clip-path="url(#clip1)" clip-rule="nonzero">
<g clip-path="url(#clip2)" clip-rule="nonzero">
<path style="fill:none;stroke-width:5;stroke-linecap:butt;stroke-linejoin:miter;stroke:rgb(0%,0%,0%);stroke-opacity:1;stroke-miterlimit:4;" d="M 9.992714 1059.992362 L 9.992714 9.9977 L 1475.006043 9.9977 " transform="matrix(0.106537,0,0,-0.106537,10.494,113.862)"/>
<path style="fill:none;stroke-width:5;stroke-linecap:butt;stroke-linejoin:miter;stroke:rgb(0%,0%,0%);stroke-opacity:1;stroke-miterlimit:4;" d="M 9.992714 901.670018 L 39.985228 901.670018 " transform="matrix(0.106537,0,0,-0.106537,10.494,113.862)"/>
<path style="fill:none;stroke-width:5;stroke-linecap:butt;stroke-linejoin:miter;stroke:rgb(0%,0%,0%);stroke-opacity:1;stroke-miterlimit:4;" d="M 9.992714 603.321499 L 39.985228 603.321499 " transform="matrix(0.106537,0,0,-0.106537,10.494,113.862)"/>
<path style="fill:none;stroke-width:5;stroke-linecap:butt;stroke-linejoin:miter;stroke:rgb(0%,0%,0%);stroke-opacity:1;stroke-miterlimit:4;" d="M 9.992714 305.009645 L 39.985228 305.009645 " transform="matrix(0.106537,0,0,-0.106537,10.494,113.862)"/>
<path style="fill:none;stroke-width:5;stroke-linecap:butt;stroke-linejoin:miter;stroke:rgb(0%,0%,0%);stroke-opacity:1;stroke-miterlimit:4;" d="M 176.674829 11.647655 L 176.674829 104.961774 " transform="matrix(0.106537,0,0,-0.106537,10.494,113.862)"/>
<path style="fill:none;stroke-width:5;stroke-linecap:butt;stroke-linejoin:miter;stroke:rgb(0%,0%,0%);stroke-opacity:1;stroke-miterlimit:4;" d="M 480.413202 11.647655 L 480.413202 41.676835 " transform="matrix(0.106537,0,0,-0.106537,10.494,113.862)"/>
<path style="fill:none;stroke-width:5;stroke-linecap:butt;stroke-linejoin:miter;stroke:rgb(0%,0%,0%);stroke-opacity:1;stroke-miterlimit:4;" d="M 784.18824 11.647655 L 784.18824 41.676835 " transform="matrix(0.106537,0,0,-0.106537,10.494,113.862)"/>
<path style="fill:none;stroke-width:5;stroke-linecap:butt;stroke-linejoin:miter;stroke:rgb(0%,0%,0%);stroke-opacity:1;stroke-miterlimit:4;" d="M 1087.926612 11.647655 L 1087.926612 41.676835 " transform="matrix(0.106537,0,0,-0.106537,10.494,113.862)"/>
<path style="fill:none;stroke-width:5;stroke-linecap:butt;stroke-linejoin:miter;stroke:rgb(0%,0%,0%);stroke-opacity:1;stroke-miterlimit:4;" d="M 1391.664985 11.647655 L 1391.664985 41.676835 " transform="matrix(0.106537,0,0,-0.106537,10.494,113.862)"/>
<path style="fill:none;stroke-width:5;stroke-linecap:butt;stroke-linejoin:miter;stroke:rgb(0%,0%,0%);stroke-opacity:1;stroke-miterlimit:4;" d="M 1396.541518 477.924923 C 1382.938557 485.441384 1357.822576 487.201336 1342.826319 489.914595 C 1312.61381 495.37778 1282.144642 499.411003 1251.71214 503.260898 C 1122.905657 519.613784 993.145867 531.200135 864.339384 542.49316 C 837.610114 544.839762 810.91751 547.149699 784.18824 549.386305 C 678.95778 558.259396 573.837317 564.749219 468.570192 573.182322 C 408.988485 577.912192 349.406779 584.842003 291.145036 598.444965 C 252.536091 607.464719 213.083835 619.051069 178.544778 638.997191 C 142.722423 659.713292 122.812966 698.285572 107.450053 735.977876 C 96.853675 761.937167 88.567235 788.776434 81.820752 815.982358 C 74.670948 844.948234 68.914438 874.464095 65.834522 904.163284 L 65.834522 917.179595 " transform="matrix(0.106537,0,0,-0.106537,10.494,113.862)"/>
<path style="fill:none;stroke-width:5;stroke-linecap:butt;stroke-linejoin:miter;stroke:rgb(0%,0%,0%);stroke-opacity:1;stroke-dasharray:30,20;stroke-miterlimit:4;" d="M 65.834522 681.676026 C 66.971158 678.009459 68.621113 674.672884 70.527727 671.372974 C 87.577262 641.96711 125.012906 626.677528 155.885397 617.804436 C 215.247109 600.681571 277.505409 592.431796 338.957064 591.80848 C 408.69516 591.075166 459.587104 585.868642 526.538609 579.70881 C 647.241979 568.599113 767.762022 560.532667 888.06207 545.609741 C 1000.918988 531.603457 1113.812572 516.460537 1225.716183 496.257756 C 1263.665147 489.437942 1301.577445 482.141474 1338.903092 472.498404 C 1352.029401 469.125163 1365.192374 465.568594 1377.952026 460.985385 C 1381.691924 459.665421 1388.988391 458.308792 1391.848313 455.522201 C 1406.624576 441.259257 1370.582227 438.582664 1360.609166 437.409362 L 603.316512 437.409362 " transform="matrix(0.106537,0,0,-0.106537,10.494,113.862)"/>
<path style=" stroke:none;fill-rule:nonzero;fill:rgb(100%,100%,100%);fill-opacity:1;" d="M 18.574219 16.148438 C 18.574219 16.738281 18.09375 17.214844 17.507813 17.214844 C 16.917969 17.214844 16.441406 16.738281 16.441406 16.148438 C 16.441406 15.558594 16.917969 15.082031 17.507813 15.082031 C 18.09375 15.082031 18.574219 15.558594 18.574219 16.148438 "/>
<path style="fill:none;stroke-width:5;stroke-linecap:butt;stroke-linejoin:miter;stroke:rgb(0%,0%,0%);stroke-opacity:1;stroke-miterlimit:4;" d="M 75.844249 917.179595 C 75.844249 911.643079 71.334372 907.169868 65.834522 907.169868 C 60.298007 907.169868 55.824796 911.643079 55.824796 917.179595 C 55.824796 922.71611 60.298007 927.189322 65.834522 927.189322 C 71.334372 927.189322 75.844249 922.71611 75.844249 917.179595 Z M 75.844249 917.179595 " transform="matrix(0.106537,0,0,-0.106537,10.494,113.862)"/>
<path style=" stroke:none;fill-rule:nonzero;fill:rgb(100%,100%,100%);fill-opacity:1;" d="M 23.28125 36.101563 C 23.28125 36.691406 22.800781 37.167969 22.214844 37.167969 C 21.625 37.167969 21.148438 36.691406 21.148438 36.101563 C 21.148438 35.515625 21.625 35.035156 22.214844 35.035156 C 22.800781 35.035156 23.28125 35.515625 23.28125 36.101563 "/>
<path style="fill:none;stroke-width:5;stroke-linecap:butt;stroke-linejoin:miter;stroke:rgb(0%,0%,0%);stroke-opacity:1;stroke-miterlimit:4;" d="M 120.026376 729.891376 C 120.026376 724.35486 115.516499 719.881649 110.016649 719.881649 C 104.480134 719.881649 100.006922 724.35486 100.006922 729.891376 C 100.006922 735.391226 104.480134 739.901102 110.016649 739.901102 C 115.516499 739.901102 120.026376 735.391226 120.026376 729.891376 Z M 120.026376 729.891376 " transform="matrix(0.106537,0,0,-0.106537,10.494,113.862)"/>
<path style=" stroke:none;fill-rule:nonzero;fill:rgb(100%,100%,100%);fill-opacity:1;" d="M 29.625 45.785156 C 29.625 46.371094 29.148438 46.847656 28.558594 46.847656 C 27.972656 46.847656 27.496094 46.371094 27.496094 45.785156 C 27.496094 45.195313 27.972656 44.71875 28.558594 44.71875 C 29.148438 44.71875 29.625 45.195313 29.625 45.785156 "/>
<path style="fill:none;stroke-width:5;stroke-linecap:butt;stroke-linejoin:miter;stroke:rgb(0%,0%,0%);stroke-opacity:1;stroke-miterlimit:4;" d="M 179.571417 638.997191 C 179.571417 633.497341 175.098205 629.02413 169.56169 629.02413 C 164.06184 629.02413 159.588629 633.497341 159.588629 638.997191 C 159.588629 644.533707 164.06184 649.006918 169.56169 649.006918 C 175.098205 649.006918 179.571417 644.533707 179.571417 638.997191 Z M 179.571417 638.997191 " transform="matrix(0.106537,0,0,-0.106537,10.494,113.862)"/>
<path style=" stroke:none;fill-rule:nonzero;fill:rgb(100%,100%,100%);fill-opacity:1;" d="M 36.753906 48.492188 C 36.753906 49.082031 36.273438 49.558594 35.6875 49.558594 C 35.097656 49.558594 34.621094 49.082031 34.621094 48.492188 C 34.621094 47.90625 35.097656 47.429688 35.6875 47.429688 C 36.273438 47.429688 36.753906 47.90625 36.753906 48.492188 "/>
<path style="fill:none;stroke-width:5;stroke-linecap:butt;stroke-linejoin:miter;stroke:rgb(0%,0%,0%);stroke-opacity:1;stroke-miterlimit:4;" d="M 246.486256 613.587885 C 246.486256 608.051369 241.976379 603.578158 236.476529 603.578158 C 230.940014 603.578158 226.466803 608.051369 226.466803 613.587885 C 226.466803 619.087735 230.940014 623.560946 236.476529 623.560946 C 241.976379 623.560946 246.486256 619.087735 246.486256 613.587885 Z M 246.486256 613.587885 " transform="matrix(0.106537,0,0,-0.106537,10.494,113.862)"/>
<path style=" stroke:none;fill-rule:nonzero;fill:rgb(100%,100%,100%);fill-opacity:1;" d="M 81.828125 54.300781 C 81.828125 54.890625 81.351563 55.367188 80.761719 55.367188 C 80.175781 55.367188 79.695313 54.890625 79.695313 54.300781 C 79.695313 53.714844 80.175781 53.234375 80.761719 53.234375 C 81.351563 53.234375 81.828125 53.714844 81.828125 54.300781 "/>
<path style="fill:none;stroke-width:5;stroke-linecap:butt;stroke-linejoin:miter;stroke:rgb(0%,0%,0%);stroke-opacity:1;stroke-miterlimit:4;" d="M 669.57137 559.06604 C 669.57137 553.529525 665.098158 549.056314 659.561643 549.056314 C 654.061793 549.056314 649.551916 553.529525 649.551916 559.06604 C 649.551916 564.56589 654.061793 569.075767 659.561643 569.075767 C 665.098158 569.075767 669.57137 564.56589 669.57137 559.06604 Z M 669.57137 559.06604 " transform="matrix(0.106537,0,0,-0.106537,10.494,113.862)"/>
<path style=" stroke:none;fill-rule:nonzero;fill:rgb(100%,100%,100%);fill-opacity:1;" d="M 160.34375 62.945313 C 160.34375 63.535156 159.867188 64.011719 159.277344 64.011719 C 158.6875 64.011719 158.210938 63.535156 158.210938 62.945313 C 158.210938 62.359375 158.6875 61.878906 159.277344 61.878906 C 159.867188 61.878906 160.34375 62.359375 160.34375 62.945313 "/>
<path style="fill:none;stroke-width:5;stroke-linecap:butt;stroke-linejoin:miter;stroke:rgb(0%,0%,0%);stroke-opacity:1;stroke-miterlimit:4;" d="M 1406.551245 477.924923 C 1406.551245 472.388407 1402.078034 467.915196 1396.541518 467.915196 C 1391.005003 467.915196 1386.531792 472.388407 1386.531792 477.924923 C 1386.531792 483.424773 1391.005003 487.934649 1396.541518 487.934649 C 1402.078034 487.934649 1406.551245 483.424773 1406.551245 477.924923 Z M 1406.551245 477.924923 " transform="matrix(0.106537,0,0,-0.106537,10.494,113.862)"/>
<path style="fill-rule:nonzero;fill:rgb(100%,100%,100%);fill-opacity:1;stroke-width:5;stroke-linecap:butt;stroke-linejoin:miter;stroke:rgb(0%,0%,0%);stroke-opacity:1;stroke-miterlimit:4;" d="M 578.310528 860.824467 L 808.314248 860.824467 " transform="matrix(0.106537,0,0,-0.106537,10.494,113.862)"/>
<path style=" stroke:none;fill-rule:nonzero;fill:rgb(100%,100%,100%);fill-opacity:1;" d="M 85.425781 22.152344 C 85.425781 22.738281 84.949219 23.214844 84.359375 23.214844 C 83.769531 23.214844 83.292969 22.738281 83.292969 22.152344 C 83.292969 21.5625 83.769531 21.085938 84.359375 21.085938 C 84.949219 21.085938 85.425781 21.5625 85.425781 22.152344 "/>
<path style="fill:none;stroke-width:5;stroke-linecap:butt;stroke-linejoin:miter;stroke:rgb(0%,0%,0%);stroke-opacity:1;stroke-miterlimit:4;" d="M 703.340447 860.824467 C 703.340447 855.324617 698.867236 850.851406 693.330721 850.851406 C 687.794205 850.851406 683.320994 855.324617 683.320994 860.824467 C 683.320994 866.360983 687.794205 870.834194 693.330721 870.834194 C 698.867236 870.834194 703.340447 866.360983 703.340447 860.824467 Z M 703.340447 860.824467 " transform="matrix(0.106537,0,0,-0.106537,10.494,113.862)"/>
<path style="fill-rule:nonzero;fill:rgb(100%,100%,100%);fill-opacity:1;stroke-width:7.5;stroke-linecap:butt;stroke-linejoin:miter;stroke:rgb(0%,0%,0%);stroke-opacity:1;stroke-miterlimit:4;" d="M 54.724826 692.235737 L 77.640867 669.319696 " transform="matrix(0.106537,0,0,-0.106537,10.494,113.862)"/>
<path style="fill-rule:nonzero;fill:rgb(100%,100%,100%);fill-opacity:1;stroke-width:7.5;stroke-linecap:butt;stroke-linejoin:miter;stroke:rgb(0%,0%,0%);stroke-opacity:1;stroke-miterlimit:4;" d="M 77.640867 692.235737 L 54.724826 669.319696 " transform="matrix(0.106537,0,0,-0.106537,10.494,113.862)"/>
<path style="fill-rule:nonzero;fill:rgb(100%,100%,100%);fill-opacity:1;stroke-width:7.5;stroke-linecap:butt;stroke-linejoin:miter;stroke:rgb(0%,0%,0%);stroke-opacity:1;stroke-miterlimit:4;" d="M 119.219731 636.760586 L 142.135772 613.844545 " transform="matrix(0.106537,0,0,-0.106537,10.494,113.862)"/>
<path style="fill-rule:nonzero;fill:rgb(100%,100%,100%);fill-opacity:1;stroke-width:7.5;stroke-linecap:butt;stroke-linejoin:miter;stroke:rgb(0%,0%,0%);stroke-opacity:1;stroke-miterlimit:4;" d="M 142.135772 636.760586 L 119.219731 613.844545 " transform="matrix(0.106537,0,0,-0.106537,10.494,113.862)"/>
<path style="fill-rule:nonzero;fill:rgb(100%,100%,100%);fill-opacity:1;stroke-width:7.5;stroke-linecap:butt;stroke-linejoin:miter;stroke:rgb(0%,0%,0%);stroke-opacity:1;stroke-miterlimit:4;" d="M 177.884796 620.22437 L 200.800837 597.30833 " transform="matrix(0.106537,0,0,-0.106537,10.494,113.862)"/>
<path style="fill-rule:nonzero;fill:rgb(100%,100%,100%);fill-opacity:1;stroke-width:7.5;stroke-linecap:butt;stroke-linejoin:miter;stroke:rgb(0%,0%,0%);stroke-opacity:1;stroke-miterlimit:4;" d="M 200.837502 620.22437 L 177.921462 597.30833 " transform="matrix(0.106537,0,0,-0.106537,10.494,113.862)"/>
<path style="fill-rule:nonzero;fill:rgb(100%,100%,100%);fill-opacity:1;stroke-width:7.5;stroke-linecap:butt;stroke-linejoin:miter;stroke:rgb(0%,0%,0%);stroke-opacity:1;stroke-miterlimit:4;" d="M 409.501805 598.958284 L 432.417845 576.005578 " transform="matrix(0.106537,0,0,-0.106537,10.494,113.862)"/>
<path style="fill-rule:nonzero;fill:rgb(100%,100%,100%);fill-opacity:1;stroke-width:7.5;stroke-linecap:butt;stroke-linejoin:miter;stroke:rgb(0%,0%,0%);stroke-opacity:1;stroke-miterlimit:4;" d="M 432.417845 598.958284 L 409.501805 576.005578 " transform="matrix(0.106537,0,0,-0.106537,10.494,113.862)"/>
<path style="fill-rule:nonzero;fill:rgb(100%,100%,100%);fill-opacity:1;stroke-width:7.5;stroke-linecap:butt;stroke-linejoin:miter;stroke:rgb(0%,0%,0%);stroke-opacity:1;stroke-miterlimit:4;" d="M 684.714289 766.447044 L 707.593665 743.531003 " transform="matrix(0.106537,0,0,-0.106537,10.494,113.862)"/>
<path style="fill-rule:nonzero;fill:rgb(100%,100%,100%);fill-opacity:1;stroke-width:7.5;stroke-linecap:butt;stroke-linejoin:miter;stroke:rgb(0%,0%,0%);stroke-opacity:1;stroke-miterlimit:4;" d="M 707.63033 766.447044 L 684.714289 743.531003 " transform="matrix(0.106537,0,0,-0.106537,10.494,113.862)"/>
<path style="fill-rule:nonzero;fill:rgb(100%,100%,100%);fill-opacity:1;stroke-width:7.5;stroke-linecap:butt;stroke-linejoin:miter;stroke:rgb(0%,0%,0%);stroke-opacity:1;stroke-miterlimit:4;" d="M 772.748552 569.479089 L 795.664593 546.563049 " transform="matrix(0.106537,0,0,-0.106537,10.494,113.862)"/>
<path style="fill-rule:nonzero;fill:rgb(100%,100%,100%);fill-opacity:1;stroke-width:7.5;stroke-linecap:butt;stroke-linejoin:miter;stroke:rgb(0%,0%,0%);stroke-opacity:1;stroke-miterlimit:4;" d="M 795.664593 569.479089 L 772.748552 546.563049 " transform="matrix(0.106537,0,0,-0.106537,10.494,113.862)"/>
<path style="fill-rule:nonzero;fill:rgb(100%,100%,100%);fill-opacity:1;stroke-width:7.5;stroke-linecap:butt;stroke-linejoin:miter;stroke:rgb(0%,0%,0%);stroke-opacity:1;stroke-miterlimit:4;" d="M 1383.745201 461.498705 L 1406.661242 438.582664 " transform="matrix(0.106537,0,0,-0.106537,10.494,113.862)"/>
<path style="fill-rule:nonzero;fill:rgb(100%,100%,100%);fill-opacity:1;stroke-width:7.5;stroke-linecap:butt;stroke-linejoin:miter;stroke:rgb(0%,0%,0%);stroke-opacity:1;stroke-miterlimit:4;" d="M 1406.661242 461.498705 L 1383.745201 438.582664 " transform="matrix(0.106537,0,0,-0.106537,10.494,113.862)"/>
<path style="fill:none;stroke-width:5;stroke-linecap:butt;stroke-linejoin:miter;stroke:rgb(0%,0%,0%);stroke-opacity:1;stroke-dasharray:30,20;stroke-miterlimit:4;" d="M 580.400471 755.007357 L 806.224305 755.007357 " transform="matrix(0.106537,0,0,-0.106537,10.494,113.862)"/>
</g>
</g>
<g clip-path="url(#clip3)" clip-rule="nonzero">
<g style="fill:rgb(0%,0%,0%);fill-opacity:1;">
  <use xlink:href="#glyph0-1" x="53.345" y="129.014"/>
  <use xlink:href="#glyph0-2" x="58.715523" y="129.014"/>
  <use xlink:href="#glyph0-3" x="63.364956" y="129.014"/>
  <use xlink:href="#glyph0-4" x="69.912657" y="129.014"/>
  <use xlink:href="#glyph0-2" x="74.794317" y="129.014"/>
  <use xlink:href="#glyph0-5" x="79.443749" y="129.014"/>
  <use xlink:href="#glyph0-6" x="84.424437" y="129.014"/>
</g>
<g style="fill:rgb(0%,0%,0%);fill-opacity:1;">
  <use xlink:href="#glyph0-1" x="88.797707" y="129.014"/>
  <use xlink:href="#glyph0-7" x="94.16823" y="129.014"/>
  <use xlink:href="#glyph0-5" x="99.306526" y="129.014"/>
</g>
<g style="fill:rgb(0%,0%,0%);fill-opacity:1;">
  <use xlink:href="#glyph0-2" x="104.294188" y="129.014"/>
</g>
<g style="fill:rgb(0%,0%,0%);fill-opacity:1;">
  <use xlink:href="#glyph0-8" x="111.398398" y="129.014"/>
</g>
<g style="fill:rgb(0%,0%,0%);fill-opacity:1;">
  <use xlink:href="#glyph1-1" x="114.414" y="126.552"/>
</g>
<g style="fill:rgb(0%,0%,0%);fill-opacity:1;">
  <use xlink:href="#glyph0-9" x="117.559" y="129.014"/>
  <use xlink:href="#glyph0-10" x="122.515977" y="129.014"/>
</g>
<g style="fill:rgb(0%,0%,0%);fill-opacity:1;">
  <use xlink:href="#glyph0-11" x="27.263" y="119.005"/>
</g>
<g style="fill:rgb(0%,0%,0%);fill-opacity:1;">
  <use xlink:href="#glyph0-12" x="55.699" y="119.005"/>
  <use xlink:href="#glyph0-11" x="59.578525" y="119.005"/>
  <use xlink:href="#glyph0-11" x="63.45805" y="119.005"/>
</g>
<g style="fill:rgb(0%,0%,0%);fill-opacity:1;">
  <use xlink:href="#glyph0-13" x="86.074" y="119.005"/>
  <use xlink:href="#glyph0-11" x="89.953525" y="119.005"/>
  <use xlink:href="#glyph0-11" x="93.83305" y="119.005"/>
  <use xlink:href="#glyph0-11" x="97.712575" y="119.005"/>
</g>
<g style="fill:rgb(0%,0%,0%);fill-opacity:1;">
  <use xlink:href="#glyph0-13" x="118.531" y="119.005"/>
  <use xlink:href="#glyph0-12" x="122.410525" y="119.005"/>
  <use xlink:href="#glyph0-11" x="126.29005" y="119.005"/>
  <use xlink:href="#glyph0-11" x="130.169575" y="119.005"/>
</g>
<g style="fill:rgb(0%,0%,0%);fill-opacity:1;">
  <use xlink:href="#glyph0-14" x="145.177" y="119.005"/>
  <use xlink:href="#glyph0-11" x="149.056525" y="119.005"/>
  <use xlink:href="#glyph0-11" x="152.93605" y="119.005"/>
  <use xlink:href="#glyph0-11" x="156.815575" y="119.005"/>
</g>
<g style="fill:rgb(0%,0%,0%);fill-opacity:1;">
  <use xlink:href="#glyph2-1" x="12.762" y="4.053"/>
</g>
<g style="fill:rgb(0%,0%,0%);fill-opacity:1;">
  <use xlink:href="#glyph0-13" x="0.014" y="113.012"/>
</g>
<g style="fill:rgb(0%,0%,0%);fill-opacity:1;">
  <use xlink:href="#glyph2-2" x="3.893" y="113.012"/>
</g>
<g style="fill:rgb(0%,0%,0%);fill-opacity:1;">
  <use xlink:href="#glyph0-11" x="6.048" y="113.012"/>
</g>
<g style="fill:rgb(0%,0%,0%);fill-opacity:1;">
  <use xlink:href="#glyph0-13" x="0.014" y="83.694"/>
</g>
<g style="fill:rgb(0%,0%,0%);fill-opacity:1;">
  <use xlink:href="#glyph2-2" x="3.893" y="83.694"/>
</g>
<g style="fill:rgb(0%,0%,0%);fill-opacity:1;">
  <use xlink:href="#glyph0-14" x="6.048" y="83.694"/>
</g>
<g style="fill:rgb(0%,0%,0%);fill-opacity:1;">
  <use xlink:href="#glyph0-13" x="0.014" y="51.804"/>
</g>
<g style="fill:rgb(0%,0%,0%);fill-opacity:1;">
  <use xlink:href="#glyph2-2" x="3.893" y="51.804"/>
</g>
<g style="fill:rgb(0%,0%,0%);fill-opacity:1;">
  <use xlink:href="#glyph0-15" x="6.048" y="51.804"/>
</g>
<g style="fill:rgb(0%,0%,0%);fill-opacity:1;">
  <use xlink:href="#glyph0-13" x="0.014" y="19.772"/>
</g>
<g style="fill:rgb(0%,0%,0%);fill-opacity:1;">
  <use xlink:href="#glyph2-2" x="3.893" y="19.772"/>
</g>
<g style="fill:rgb(0%,0%,0%);fill-opacity:1;">
  <use xlink:href="#glyph0-16" x="6.048" y="19.772"/>
</g>
<g style="fill:rgb(0%,0%,0%);fill-opacity:1;">
  <use xlink:href="#glyph0-13" x="55.468" y="69.379"/>
</g>
<g style="fill:rgb(0%,0%,0%);fill-opacity:1;">
  <use xlink:href="#glyph2-2" x="59.347" y="69.379"/>
</g>
<g style="fill:rgb(0%,0%,0%);fill-opacity:1;">
  <use xlink:href="#glyph0-14" x="61.502" y="69.379"/>
  <use xlink:href="#glyph0-17" x="65.381525" y="69.379"/>
  <use xlink:href="#glyph0-16" x="69.26105" y="69.379"/>
</g>
<g style="fill:rgb(0%,0%,0%);fill-opacity:1;">
  <use xlink:href="#glyph0-18" x="97.801" y="24.289"/>
</g>
<g style="fill:rgb(0%,0%,0%);fill-opacity:1;">
  <use xlink:href="#glyph3-1" x="103.056" y="25.16"/>
</g>
<g style="fill:rgb(0%,0%,0%);fill-opacity:1;">
  <use xlink:href="#glyph0-19" x="97.801" y="35.344"/>
</g>
<g style="fill:rgb(0%,0%,0%);fill-opacity:1;">
  <use xlink:href="#glyph3-1" x="103.603" y="36.215"/>
</g>
</g>
</g>
</svg>
