<?xml version="1.0" encoding="UTF-8"?>
<svg xmlns="http://www.w3.org/2000/svg" xmlns:xlink="http://www.w3.org/1999/xlink" width="263.27172275046934pt" height="136.8320137979413pt" viewBox="0 0 152 79" version="1.1">
<defs>
<g>
<symbol overflow="visible" id="glyph0-0">
<path style="stroke:none;" d=""/>
</symbol>
<symbol overflow="visible" id="glyph0-1">
<path style="stroke:none;" d="M 1.75 -4.84375 L 0.734375 0 C 1.765625 0 2.875 0.015625 3.875 0 C 3.9375 -0.125 3.9375 -0.265625 3.96875 -0.40625 L 1.359375 -0.40625 L 2.28125 -4.84375 L 1.75 -4.84375 Z M 1.75 -4.84375 "/>
</symbol>
<symbol overflow="visible" id="glyph0-2">
<path style="stroke:none;" d="M 3.21875 -0.625 C 3.265625 -0.375 3.40625 -0.09375 3.65625 0 C 4.046875 0.171875 4.640625 -0.0625 4.6875 -0.4375 L 4.1875 -0.4375 C 4.140625 -0.34375 4.03125 -0.3125 3.9375 -0.34375 C 3.75 -0.40625 3.703125 -0.75 3.6875 -0.90625 C 3.671875 -0.96875 3.671875 -1.03125 3.671875 -1.09375 C 3.6875 -1.15625 3.796875 -1.28125 3.8125 -1.296875 C 4.140625 -1.75 4.4375 -2.390625 4.546875 -2.984375 C 4.390625 -2.984375 4.203125 -2.984375 4.046875 -2.96875 L 4.015625 -2.875 C 3.921875 -2.46875 3.78125 -2.125 3.609375 -1.8125 C 3.59375 -1.921875 3.59375 -2.03125 3.578125 -2.140625 C 3.484375 -2.59375 3.21875 -3.03125 2.84375 -3.21875 C 2.390625 -3.4375 1.875 -3.359375 1.46875 -3.125 C 0.875 -2.8125 0.4375 -2.1875 0.328125 -1.53125 C 0.265625 -1.046875 0.390625 -0.515625 0.78125 -0.1875 C 0.859375 -0.125 0.953125 -0.078125 1.03125 -0.046875 C 1.703125 0.21875 2.484375 -0.09375 2.9375 -0.40625 C 3.03125 -0.484375 3.125 -0.5625 3.21875 -0.625 Z M 2.546875 -2.875 C 3.046875 -2.609375 3.078125 -1.921875 3.125 -1.296875 C 3.140625 -1.140625 3.15625 -1.109375 3.046875 -1.015625 C 2.734375 -0.671875 2.25 -0.375 1.703125 -0.328125 C 1.4375 -0.3125 1.1875 -0.390625 1.046875 -0.53125 C 0.8125 -0.75 0.78125 -1.109375 0.828125 -1.421875 C 0.890625 -1.9375 1.09375 -2.484375 1.5625 -2.78125 C 1.8125 -2.921875 2.21875 -3.03125 2.546875 -2.875 Z M 2.546875 -2.875 "/>
</symbol>
<symbol overflow="visible" id="glyph0-3">
<path style="stroke:none;" d="M 2.609375 -2.0625 C 2.71875 -1.8125 3.34375 -0.5 3.4375 -0.3125 C 3.5 -0.171875 3.5625 -0.0625 3.6875 0.015625 C 3.765625 0.0625 3.84375 0.0625 3.921875 0.0625 L 4.265625 0.0625 C 4.125 -0.140625 4.015625 -0.359375 3.921875 -0.578125 C 3.8125 -0.8125 2.109375 -4.453125 2.0625 -4.546875 C 1.921875 -4.8125 1.53125 -4.84375 1.15625 -4.84375 C 1.09375 -4.84375 1.046875 -4.84375 0.984375 -4.828125 C 0.890625 -4.78125 0.8125 -4.65625 0.84375 -4.5625 C 0.875 -4.4375 1 -4.453125 1.09375 -4.453125 C 1.265625 -4.4375 1.46875 -4.421875 1.5625 -4.265625 C 1.609375 -4.1875 1.75 -3.90625 1.765625 -3.84375 C 1.8125 -3.75 2.328125 -2.671875 2.34375 -2.625 C 2.359375 -2.578125 2.40625 -2.53125 2.390625 -2.5 C 2.375 -2.453125 2.265625 -2.328125 2.265625 -2.328125 L 1.9375 -1.96875 L 0.703125 -0.5625 C 0.578125 -0.421875 0.328125 -0.203125 0.453125 -0.03125 C 0.484375 0 0.546875 0.046875 0.578125 0.0625 C 0.765625 0.09375 0.875 -0.0625 0.96875 -0.1875 L 1.046875 -0.265625 C 1.078125 -0.296875 2.59375 -2.0625 2.609375 -2.0625 Z M 2.609375 -2.0625 "/>
</symbol>
<symbol overflow="visible" id="glyph1-0">
<path style="stroke:none;" d=""/>
</symbol>
<symbol overflow="visible" id="glyph1-1">
<path style="stroke:none;" d="M 1.90625 -4.15625 C 1.53125 -4.109375 1.234375 -3.828125 1 -3.53125 C 0.65625 -3.0625 0.4375 -2.5 0.328125 -1.9375 C 0.25 -1.546875 0.25 -1.15625 0.3125 -0.78125 C 0.40625 -0.421875 0.625 0.09375 1.140625 0.046875 C 1.53125 0 1.828125 -0.296875 2.0625 -0.578125 C 2.390625 -1.015625 2.59375 -1.53125 2.703125 -2.0625 C 2.796875 -2.453125 2.84375 -2.984375 2.734375 -3.359375 C 2.65625 -3.6875 2.453125 -4.09375 2.078125 -4.15625 C 2.015625 -4.15625 1.96875 -4.15625 1.90625 -4.15625 Z M 2.3125 -2.21875 L 0.828125 -2.21875 C 0.84375 -2.375 0.90625 -2.53125 0.953125 -2.6875 C 1.0625 -3.015625 1.203125 -3.359375 1.453125 -3.59375 C 1.609375 -3.765625 1.90625 -3.921875 2.125 -3.765625 C 2.265625 -3.65625 2.328125 -3.46875 2.359375 -3.3125 C 2.40625 -3.078125 2.390625 -2.8125 2.375 -2.578125 C 2.34375 -2.453125 2.328125 -2.34375 2.3125 -2.21875 Z M 2.234375 -1.890625 C 2.234375 -1.84375 2.21875 -1.78125 2.203125 -1.734375 C 2.0625 -1.265625 1.953125 -0.859375 1.625 -0.53125 C 1.46875 -0.359375 1.234375 -0.21875 1 -0.3125 C 0.734375 -0.421875 0.671875 -0.8125 0.671875 -1.15625 C 0.671875 -1.40625 0.703125 -1.640625 0.75 -1.890625 L 2.234375 -1.890625 Z M 2.234375 -1.890625 "/>
</symbol>
<symbol overflow="visible" id="glyph2-0">
<path style="stroke:none;" d=""/>
</symbol>
<symbol overflow="visible" id="glyph2-1">
<path style="stroke:none;" d="M 0.46875 -2.5625 L 0.46875 -2.328125 C 0.6875 -2.328125 0.890625 -2.359375 1.078125 -2.453125 L 1.078125 -0.234375 L 0.5 -0.234375 L 0.5 0 L 1.984375 0 L 1.984375 -0.234375 L 1.390625 -0.234375 L 1.390625 -2.84375 C 1.359375 -2.84375 1.328125 -2.84375 1.3125 -2.84375 C 1.28125 -2.828125 1.25 -2.796875 1.21875 -2.78125 C 1.046875 -2.625 0.75 -2.5625 0.46875 -2.5625 Z M 0.46875 -2.5625 "/>
</symbol>
<symbol overflow="visible" id="glyph3-0">
<path style="stroke:none;" d=""/>
</symbol>
<symbol overflow="visible" id="glyph3-1">
<path style="stroke:none;" d="M 0.4375 -2.671875 C 0.375 -2.578125 0.4375 -2.453125 0.53125 -2.421875 C 0.578125 -2.40625 0.625 -2.421875 0.671875 -2.421875 L 5.125 -2.421875 C 5.1875 -2.421875 5.234375 -2.421875 5.296875 -2.453125 C 5.375 -2.546875 5.328125 -2.71875 5.203125 -2.734375 C 5.09375 -2.75 4.984375 -2.734375 4.890625 -2.734375 L 0.671875 -2.734375 C 0.5625 -2.734375 0.5 -2.75 0.4375 -2.671875 Z M 0.4375 -1.1875 C 0.375 -1.09375 0.4375 -0.96875 0.53125 -0.953125 C 0.578125 -0.9375 0.625 -0.9375 0.671875 -0.9375 L 5.125 -0.9375 C 5.1875 -0.9375 5.234375 -0.9375 5.296875 -0.984375 C 5.375 -1.078125 5.328125 -1.234375 5.203125 -1.265625 C 5.09375 -1.28125 4.984375 -1.265625 4.890625 -1.265625 L 0.65625 -1.265625 C 0.5625 -1.265625 0.484375 -1.265625 0.4375 -1.1875 Z M 0.4375 -1.1875 "/>
</symbol>
<symbol overflow="visible" id="glyph3-2">
<path style="stroke:none;" d="M 1.828125 -4.6875 C 1.671875 -4.65625 1.5 -4.640625 1.359375 -4.5625 C 0.625 -4.28125 0.375 -3.34375 0.375 -2.40625 C 0.375 -2.265625 0.375 -2.125 0.375 -1.96875 C 0.390625 -1.328125 0.546875 -0.6875 0.90625 -0.296875 C 1.21875 0.015625 1.671875 0.140625 2.09375 0.109375 C 2.359375 0.078125 2.578125 -0.015625 2.765625 -0.140625 C 3.359375 -0.5625 3.5 -1.421875 3.5 -2.359375 C 3.5 -3.125 3.359375 -3.8125 2.984375 -4.234375 C 2.703125 -4.546875 2.265625 -4.71875 1.828125 -4.6875 Z M 2.421875 -4.171875 C 2.5 -4.125 2.5625 -4.078125 2.625 -4.015625 C 2.890625 -3.765625 2.96875 -3.265625 2.984375 -2.796875 C 2.984375 -2.703125 2.984375 -2.609375 2.984375 -2.515625 L 2.984375 -2.15625 C 2.984375 -1.5625 2.9375 -0.984375 2.671875 -0.625 C 2.328125 -0.171875 1.578125 -0.15625 1.21875 -0.609375 C 1.125 -0.703125 1.078125 -0.828125 1.03125 -0.9375 C 0.90625 -1.296875 0.875 -1.734375 0.875 -2.1875 L 0.875 -2.546875 C 0.875 -2.640625 0.890625 -2.71875 0.890625 -2.8125 C 0.890625 -3.359375 1.03125 -3.90625 1.390625 -4.140625 C 1.671875 -4.3125 2.09375 -4.359375 2.421875 -4.171875 Z M 2.421875 -4.171875 "/>
</symbol>
</g>
<clipPath id="clip1">
  <path d="M -229 667 L 383 667 L 383 -125 L -229 -125 L -229 667 Z M -229 667 "/>
</clipPath>
<clipPath id="clip2">
  <path d="M 0.0898438 76.335938 L 153.160156 76.335938 L 153.160156 -0.199219 L 0.0898438 -0.199219 L 0.0898438 76.335938 Z M 0.0898438 76.335938 "/>
</clipPath>
<clipPath id="clip3">
  <path d="M -229 667 L 383 667 L 383 -125 L -229 -125 L -229 667 Z M -229 667 "/>
</clipPath>
</defs>
<g id="surface0">
<g clip-path="url(#clip1)" clip-rule="nonzero">
<g clip-path="url(#clip2)" clip-rule="nonzero">
<path style="fill:none;stroke-width:3.8;stroke-linecap:butt;stroke-linejoin:miter;stroke:rgb(13.730068%,12.159915%,12.54902%);stroke-opacity:1;stroke-miterlimit:4;" d="M 647.794998 268.057131 C 645.475811 256.135061 642.431879 244.901499 638.6632 234.646345 " transform="matrix(0.107796,0,0,-0.107796,0.088,76.337)"/>
<path style=" stroke:none;fill-rule:nonzero;fill:rgb(13.730068%,12.159915%,12.54902%);fill-opacity:1;" d="M 70.667969 48.203125 L 70.417969 44.765625 L 68.914063 47.867188 L 70.667969 48.203125 "/>
<path style="fill:none;stroke-width:3.8;stroke-linecap:butt;stroke-linejoin:miter;stroke:rgb(13.730068%,12.159915%,12.54902%);stroke-opacity:1;stroke-miterlimit:4;" d="M 651.382491 402.026413 C 652.86822 391.807495 653.774152 381.117493 654.06405 370.101355 " transform="matrix(0.107796,0,0,-0.107796,0.088,76.337)"/>
<path style=" stroke:none;fill-rule:nonzero;fill:rgb(13.730068%,12.159915%,12.54902%);fill-opacity:1;" d="M 69.695313 35.855469 L 70.675781 39.160156 L 71.480469 35.808594 L 69.695313 35.855469 "/>
<path style="fill:none;stroke-width:5;stroke-linecap:butt;stroke-linejoin:miter;stroke:rgb(13.730068%,12.159915%,12.54902%);stroke-opacity:1;stroke-miterlimit:4;" d="M 1317.496456 220.006477 L 140.436624 344.98891 L 1402.074304 344.98891 " transform="matrix(0.107796,0,0,-0.107796,0.088,76.337)"/>
<path style="fill:none;stroke-width:3.8;stroke-linecap:butt;stroke-linejoin:miter;stroke:rgb(13.730068%,12.159915%,12.54902%);stroke-opacity:1;stroke-miterlimit:4;" d="M 120.977196 48.531595 L 1.249172 48.531595 " transform="matrix(0.107796,0,0,-0.107796,0.088,76.337)"/>
<path style="fill:none;stroke-width:5;stroke-linecap:butt;stroke-linejoin:miter;stroke:rgb(13.730068%,12.159915%,12.54902%);stroke-opacity:1;stroke-miterlimit:4;" d="M 138.153674 643.801648 L 205.011485 637.786257 L 140.001776 48.531595 " transform="matrix(0.107796,0,0,-0.107796,0.088,76.337)"/>
<path style="fill:none;stroke-width:3.8;stroke-linecap:butt;stroke-linejoin:miter;stroke:rgb(13.730068%,12.159915%,12.54902%);stroke-opacity:1;stroke-miterlimit:4;" d="M 0.017104 644.780055 L 120.143739 644.780055 " transform="matrix(0.107796,0,0,-0.107796,0.088,76.337)"/>
<path style="fill-rule:nonzero;fill:rgb(100%,100%,100%);fill-opacity:1;stroke-width:3.8;stroke-linecap:butt;stroke-linejoin:miter;stroke:rgb(13.730068%,12.159915%,12.54902%);stroke-opacity:1;stroke-miterlimit:4;" d="M 43.900469 619.558898 L 43.75552 73.78899 " transform="matrix(0.107796,0,0,-0.107796,0.088,76.337)"/>
<path style=" stroke:none;fill-rule:nonzero;fill:rgb(13.730068%,12.159915%,12.54902%);fill-opacity:1;" d="M 3.921875 67.773438 L 4.8125 71.105469 L 5.707031 67.773438 L 3.921875 67.773438 "/>
<path style=" stroke:none;fill-rule:nonzero;fill:rgb(13.730068%,12.159915%,12.54902%);fill-opacity:1;" d="M 5.699219 10.160156 L 4.808594 6.832031 L 3.917969 10.160156 L 5.699219 10.160156 "/>
<path style="fill:none;stroke-width:3.8;stroke-linecap:butt;stroke-linejoin:miter;stroke:rgb(13.730068%,12.159915%,12.54902%);stroke-opacity:1;stroke-miterlimit:4;" d="M 138.189912 621.008389 L 138.189912 586.764145 " transform="matrix(0.107796,0,0,-0.107796,0.088,76.337)"/>
<path style=" stroke:none;fill-rule:nonzero;fill:rgb(13.730068%,12.159915%,12.54902%);fill-opacity:1;" d="M 15.863281 10.003906 L 14.972656 6.671875 L 14.082031 10.003906 "/>
<path style="fill:none;stroke-width:3.8;stroke-linecap:butt;stroke-linejoin:miter;stroke:rgb(13.730068%,12.159915%,12.54902%);stroke-opacity:1;stroke-miterlimit:4;" d="M 138.189912 541.757424 L 138.189912 512.550164 " transform="matrix(0.107796,0,0,-0.107796,0.088,76.337)"/>
<path style=" stroke:none;fill-rule:nonzero;fill:rgb(13.730068%,12.159915%,12.54902%);fill-opacity:1;" d="M 15.863281 18.546875 L 14.972656 15.214844 L 14.082031 18.546875 L 15.863281 18.546875 "/>
<path style="fill:none;stroke-width:3.8;stroke-linecap:butt;stroke-linejoin:miter;stroke:rgb(13.730068%,12.159915%,12.54902%);stroke-opacity:1;stroke-miterlimit:4;" d="M 138.189912 465.514154 L 138.189912 436.306894 " transform="matrix(0.107796,0,0,-0.107796,0.088,76.337)"/>
<path style=" stroke:none;fill-rule:nonzero;fill:rgb(13.730068%,12.159915%,12.54902%);fill-opacity:1;" d="M 15.863281 26.765625 L 14.972656 23.433594 L 14.082031 26.765625 L 15.863281 26.765625 "/>
<path style="fill:none;stroke-width:3.8;stroke-linecap:butt;stroke-linejoin:miter;stroke:rgb(13.730068%,12.159915%,12.54902%);stroke-opacity:1;stroke-miterlimit:4;" d="M 138.189912 388.002579 L 138.189912 358.795319 " transform="matrix(0.107796,0,0,-0.107796,0.088,76.337)"/>
<path style=" stroke:none;fill-rule:nonzero;fill:rgb(13.730068%,12.159915%,12.54902%);fill-opacity:1;" d="M 15.863281 35.121094 L 14.972656 31.789063 L 14.082031 35.121094 L 15.863281 35.121094 "/>
<path style="fill:none;stroke-width:3.8;stroke-linecap:butt;stroke-linejoin:miter;stroke:rgb(13.730068%,12.159915%,12.54902%);stroke-opacity:1;stroke-miterlimit:4;" d="M 138.189912 310.056157 L 138.189912 280.812659 " transform="matrix(0.107796,0,0,-0.107796,0.088,76.337)"/>
<path style=" stroke:none;fill-rule:nonzero;fill:rgb(13.730068%,12.159915%,12.54902%);fill-opacity:1;" d="M 15.863281 43.523438 L 14.972656 40.195313 L 14.082031 43.523438 L 15.863281 43.523438 "/>
<path style="fill:none;stroke-width:3.8;stroke-linecap:butt;stroke-linejoin:miter;stroke:rgb(13.730068%,12.159915%,12.54902%);stroke-opacity:1;stroke-miterlimit:4;" d="M 138.189912 238.233837 L 138.189912 209.026577 " transform="matrix(0.107796,0,0,-0.107796,0.088,76.337)"/>
<path style=" stroke:none;fill-rule:nonzero;fill:rgb(13.730068%,12.159915%,12.54902%);fill-opacity:1;" d="M 15.863281 51.265625 L 14.972656 47.933594 L 14.082031 51.265625 L 15.863281 51.265625 "/>
<path style="fill:none;stroke-width:3.8;stroke-linecap:butt;stroke-linejoin:miter;stroke:rgb(13.730068%,12.159915%,12.54902%);stroke-opacity:1;stroke-miterlimit:4;" d="M 138.189912 165.324399 L 138.189912 136.117138 " transform="matrix(0.107796,0,0,-0.107796,0.088,76.337)"/>
<path style=" stroke:none;fill-rule:nonzero;fill:rgb(13.730068%,12.159915%,12.54902%);fill-opacity:1;" d="M 15.863281 59.125 L 14.972656 55.792969 L 14.082031 59.125 L 15.863281 59.125 "/>
<path style="fill:none;stroke-width:3.8;stroke-linecap:butt;stroke-linejoin:miter;stroke:rgb(13.730068%,12.159915%,12.54902%);stroke-opacity:1;stroke-miterlimit:4;" d="M 138.189912 89.987061 L 138.189912 48.314171 " transform="matrix(0.107796,0,0,-0.107796,0.088,76.337)"/>
<path style=" stroke:none;fill-rule:nonzero;fill:rgb(13.730068%,12.159915%,12.54902%);fill-opacity:1;" d="M 15.863281 67.242188 L 14.972656 63.914063 L 14.082031 67.242188 L 15.863281 67.242188 "/>
<path style="fill:none;stroke-width:7.5;stroke-linecap:butt;stroke-linejoin:miter;stroke:rgb(13.730068%,12.159915%,12.54902%);stroke-opacity:1;stroke-miterlimit:4;" d="M 1044.593384 255.192891 C 1044.267248 253.779637 1044.049824 252.25767 1043.904875 250.735704 C 1042.63657 235.842176 1054.196267 225.73197 1052.746775 210.041221 C 1051.623419 198.010439 1043.941113 189.313488 1041.259553 178.188638 C 1038.759179 167.71606 1041.404502 152.134023 1045.426842 142.349953 C 1045.426842 142.349953 1050.753724 128.181171 1037.418399 99.843606 " transform="matrix(0.107796,0,0,-0.107796,0.088,76.337)"/>
<path style="fill:none;stroke-width:7.5;stroke-linecap:butt;stroke-linejoin:miter;stroke:rgb(13.730068%,12.159915%,12.54902%);stroke-opacity:1;stroke-miterlimit:4;" d="M 1037.418399 588.1774 C 1044.412197 578.502042 1050.065216 565.818988 1047.673554 554.186817 C 1045.535554 543.859187 1039.049078 537.698847 1039.701349 526.791421 C 1040.244908 517.224775 1043.542502 508.346638 1050.427588 501.497789 C 1065.538541 486.386837 1035.461585 459.643713 1042.093011 442.938319 C 1048.035927 428.008554 1062.20471 416.231433 1076.26478 409.672482 C 1086.773596 404.816685 1098.659429 402.06265 1110.798923 400.105836 C 1110.798923 400.105836 1349.167853 362.092913 1332.100086 344.98891 C 1331.230391 339.08223 1313.655303 335.386026 1309.777912 334.226433 C 1292.456485 329.153212 1274.736448 325.348295 1257.125122 321.652091 C 1216.575588 313.136327 1175.699919 306.106292 1134.82425 299.474867 C 1104.892244 294.619069 1050.717487 289.763271 1043.904875 250.735704 " transform="matrix(0.107796,0,0,-0.107796,0.088,76.337)"/>
<path style="fill-rule:nonzero;fill:rgb(100%,100%,100%);fill-opacity:1;stroke-width:5;stroke-linecap:butt;stroke-linejoin:miter;stroke:rgb(13.730068%,12.159915%,12.54902%);stroke-opacity:1;stroke-miterlimit:4;" d="M 1037.418399 693.338031 L 1037.418399 0.00985654 " transform="matrix(0.107796,0,0,-0.107796,0.088,76.337)"/>
</g>
</g>
<g clip-path="url(#clip3)" clip-rule="nonzero">
<path style=" stroke:none;fill-rule:nonzero;fill:rgb(100%,100%,100%);fill-opacity:1;" d="M 1.058594 42.808594 L 8.699219 42.808594 L 8.699219 34.976563 L 1.058594 34.976563 L 1.058594 42.808594 Z M 1.058594 42.808594 "/>
<g style="fill:rgb(0%,0%,0%);fill-opacity:1;">
  <use xlink:href="#glyph0-1" x="2.554" y="41.313"/>
</g>
<g style="fill:rgb(0%,0%,0%);fill-opacity:1;">
  <use xlink:href="#glyph1-1" x="69.255" y="44.009"/>
</g>
<g style="fill:rgb(0%,0%,0%);fill-opacity:1;">
  <use xlink:href="#glyph2-1" x="72.1433" y="44.7502"/>
</g>
<g style="fill:rgb(0%,0%,0%);fill-opacity:1;">
  <use xlink:href="#glyph0-2" x="5.704" y="78.476"/>
</g>
<g style="fill:rgb(0%,0%,0%);fill-opacity:1;">
  <use xlink:href="#glyph3-1" x="12.82" y="78.476"/>
</g>
<g style="fill:rgb(0%,0%,0%);fill-opacity:1;">
  <use xlink:href="#glyph3-2" x="20.640419" y="78.476"/>
</g>
<g style="fill:rgb(0%,0%,0%);fill-opacity:1;">
  <use xlink:href="#glyph0-3" x="16.534" y="5.755"/>
</g>
</g>
</g>
</svg>
