<?xml version="1.0" encoding="UTF-8" standalone="no"?>
<!-- Created with Inkscape (http://www.inkscape.org/) -->
<svg xmlns:dc="http://purl.org/dc/elements/1.1/" xmlns:cc="http://creativecommons.org/ns#" xmlns:rdf="http://www.w3.org/1999/02/22-rdf-syntax-ns#" xmlns:svg="http://www.w3.org/2000/svg" xmlns="http://www.w3.org/2000/svg" xmlns:xlink="http://www.w3.org/1999/xlink" version="1.1" width="391.9pt" height="126.8pt" viewBox="0 0 226.25668 73.18492" id="svg3882">
  <metadata id="metadata4487">
    <rdf:RDF>
      <cc:Work rdf:about="">
        <dc:format>image/svg+xml</dc:format>
        <dc:type rdf:resource="http://purl.org/dc/dcmitype/StillImage"/>
        <dc:title/>
      </cc:Work>
    </rdf:RDF>
  </metadata>
  <defs id="defs3884">
    <g id="g3886">
      <g id="glyph0-0"/>
      <g id="glyph0-1">
        <path d="M 2.1875,1.3125 C 2.15625,1.28125 2.125,1.25 2.078125,1.21875 1.4375,0.640625 1.046875,-0.265625 1,-1.359375 c -0.03125,-0.75 0.09375,-1.5 0.453125,-2.171875 0.15625,-0.3125 0.375,-0.578125 0.625,-0.8125 C 2.125,-4.375 2.15625,-4.40625 2.1875,-4.4375 l -0.21875,0 c -0.125,0 -0.109375,0 -0.203125,0.0625 -0.296875,0.25 -0.5625,0.5625 -0.75,0.921875 -0.5625,1.0625 -0.609375,2.46875 -0.09375,3.609375 C 1.125,0.59375 1.40625,0.953125 1.765625,1.25 1.84375,1.296875 1.84375,1.3125 1.96875,1.3125 l 0.21875,0 z m 0,0" id="path3890"/>
      </g>
      <g id="glyph0-2">
        <path d="m 0.546875,-2.25 c 0.09375,-0.046875 0.1875,-0.109375 0.28125,-0.15625 C 1.03125,-2.5 1.21875,-2.546875 1.4375,-2.546875 1.5,-2.5625 1.5625,-2.5625 1.609375,-2.5625 c 0.25,0.03125 0.453125,0.203125 0.515625,0.4375 0.0625,0.171875 0.03125,0.359375 0.03125,0.546875 -0.296875,0 -0.609375,0.015625 -0.921875,0.09375 C 0.8125,-1.375 0.265625,-1.15625 0.34375,-0.609375 0.359375,-0.375 0.5,-0.125 0.734375,-0.015625 0.875,0.0625 1.046875,0.046875 1.21875,0.03125 1.484375,0.015625 1.75,-0.046875 1.96875,-0.203125 c 0.078125,-0.0625 0.140625,-0.125 0.203125,-0.1875 l 0,0.390625 0.421875,0 0,-1.546875 c 0,-0.171875 0.015625,-0.34375 -0.015625,-0.515625 -0.0625,-0.40625 -0.421875,-0.71875 -0.8125,-0.78125 -0.25,-0.046875 -0.609375,0 -0.8125,0.046875 -0.0625,0.03125 -0.390625,0.125 -0.421875,0.1875 C 0.515625,-2.59375 0.515625,-2.53125 0.515625,-2.5 c 0.015625,0.078125 0.015625,0.171875 0.03125,0.25 z m 1.609375,0.875 0,0.4375 c 0,0.109375 0.015625,0.21875 -0.046875,0.328125 -0.0625,0.125 -0.1875,0.203125 -0.328125,0.25 C 1.515625,-0.25 1.125,-0.234375 0.890625,-0.4375 c -0.0625,-0.046875 -0.125,-0.109375 -0.125,-0.203125 C 0.6875,-0.890625 0.90625,-1.09375 1.125,-1.1875 1.390625,-1.3125 1.78125,-1.375 2.15625,-1.375 z m 0,0" id="path3893"/>
      </g>
      <g id="glyph0-3">
        <path d="M 0.359375,-4.4375 C 0.390625,-4.40625 0.4375,-4.375 0.46875,-4.34375 1.203125,-3.6875 1.609375,-2.640625 1.5625,-1.359375 1.53125,-0.71875 1.390625,-0.078125 1.078125,0.46875 0.921875,0.75 0.703125,1 0.46875,1.21875 0.4375,1.25 0.390625,1.28125 0.359375,1.3125 l 0.234375,0 c 0.109375,0 0.109375,0 0.1875,-0.0625 C 1.09375,1 1.34375,0.6875 1.546875,0.328125 2.109375,-0.734375 2.15625,-2.140625 1.640625,-3.28125 1.4375,-3.71875 1.15625,-4.078125 0.796875,-4.375 0.71875,-4.421875 0.71875,-4.4375 0.59375,-4.4375 l -0.234375,0 z m 0,0" id="path3896"/>
      </g>
      <g id="glyph0-4">
        <path d="M 0.625,-4.109375 0.625,0 l 2.671875,0 0,-0.34375 -2.21875,0 0,-3.765625 -0.453125,0 z m 0,0" id="path3899"/>
      </g>
      <g id="glyph0-5">
        <path d="m 0.5,-4.109375 0,0.421875 0.421875,0 0,-0.421875 -0.421875,0 z m 0,1.3125 L 0.5,0 l 0.421875,0 0,-2.796875 -0.421875,0 z m 0,0" id="path3902"/>
      </g>
      <g id="glyph0-6">
        <path d="m 2.3125,-0.75 0,0 0,0.5625 C 2.3125,0 2.328125,0.15625 2.25,0.328125 2.171875,0.515625 2,0.671875 1.8125,0.734375 1.703125,0.765625 1.59375,0.765625 1.46875,0.75 1.21875,0.734375 0.984375,0.6875 0.75,0.609375 0.65625,0.5625 0.5625,0.515625 0.453125,0.46875 l 0,0.25 c 0,0.03125 0,0.078125 0.015625,0.109375 0.046875,0.0625 0.5,0.1875 0.5,0.1875 C 1.1875,1.0625 1.546875,1.109375 1.796875,1.078125 2.265625,1.03125 2.65625,0.640625 2.734375,0.1875 2.75,0.078125 2.75,-0.03125 2.75,-0.140625 l 0,-2.703125 -0.421875,0 0,0.515625 C 2.234375,-2.484375 2.109375,-2.625 1.9375,-2.734375 c -0.421875,-0.234375 -0.96875,-0.0625 -1.28125,0.28125 -0.375,0.421875 -0.5,1.09375 -0.265625,1.625 0.171875,0.375 0.515625,0.65625 0.9375,0.703125 0.21875,0.03125 0.390625,-0.015625 0.53125,-0.09375 C 2.03125,-0.328125 2.25,-0.546875 2.3125,-0.75 z M 1.859375,-2.5 c 0.234375,0.0625 0.375,0.28125 0.453125,0.5 0.03125,0.109375 0.015625,0.21875 0.015625,0.328125 0,0.046875 0,0.109375 0,0.15625 0,0.03125 -0.015625,0.046875 -0.015625,0.078125 C 2.296875,-1.25 2.28125,-1.046875 2.203125,-0.859375 2.0625,-0.59375 1.84375,-0.375 1.453125,-0.46875 c -0.40625,-0.078125 -0.71875,-0.453125 -0.75,-0.875 -0.015625,-0.46875 0.25,-0.9375 0.6875,-1.109375 C 1.515625,-2.5 1.703125,-2.53125 1.859375,-2.5 z m 0,0" id="path3905"/>
      </g>
      <g id="glyph0-7">
        <path d="m 0.484375,-4.109375 0,4.109375 0.4375,0 0,-1.296875 C 0.921875,-1.59375 0.90625,-1.875 1.03125,-2.125 1.109375,-2.28125 1.21875,-2.390625 1.359375,-2.46875 1.46875,-2.515625 1.59375,-2.515625 1.71875,-2.5 c 0.1875,0 0.390625,0.046875 0.5,0.21875 0.09375,0.125 0.109375,0.296875 0.109375,0.453125 L 2.328125,0 2.75,0 l 0,-1.59375 c 0,-0.296875 0.03125,-0.609375 -0.109375,-0.875 -0.125,-0.234375 -0.359375,-0.328125 -0.59375,-0.359375 -0.28125,-0.03125 -0.546875,0.015625 -0.78125,0.15625 -0.125,0.109375 -0.296875,0.28125 -0.34375,0.4375 l -0.015625,0 0,-1.875 -0.421875,0 z m 0,0" id="path3908"/>
      </g>
      <g id="glyph0-8">
        <path d="m 0.71875,-3.59375 0,0.796875 -0.59375,0 0,0.328125 0.578125,0 0,1.6875 c 0,0.25 0.015625,0.5625 0.234375,0.734375 0.109375,0.09375 0.265625,0.09375 0.40625,0.09375 0.328125,-0.015625 0.609375,-0.125 0.84375,-0.265625 l -0.078125,-0.3125 c -0.0625,0.046875 -0.125,0.09375 -0.203125,0.125 C 1.71875,-0.3125 1.390625,-0.234375 1.234375,-0.390625 1.09375,-0.546875 1.125,-0.8125 1.125,-1.015625 l 0,-1.453125 0.953125,0 0,-0.328125 -0.953125,0 0,-0.796875 -0.40625,0 z m 0,0" id="path3911"/>
      </g>
      <g id="glyph0-9">
        <path d="M 0.625,-4.109375 0.625,0 l 0.4375,0 0,-1.890625 0.875,0 c 0.125,0 0.234375,0 0.3125,0.015625 0.125,0.140625 0.21875,0.296875 0.328125,0.453125 0.328125,0.46875 0.65625,0.953125 1.015625,1.40625 C 3.71875,0 3.890625,0 4.03125,0 L 3.796875,-0.34375 2.65625,-1.9375 c 0.109375,-0.015625 0.21875,-0.046875 0.328125,-0.09375 0.421875,-0.140625 0.90625,-0.5 0.875,-1 C 3.84375,-3.234375 3.78125,-3.359375 3.6875,-3.484375 3.40625,-3.828125 2.953125,-4.046875 2.453125,-4.09375 2.234375,-4.109375 2.03125,-4.109375 1.8125,-4.109375 l -1.1875,0 z m 0.4375,1.890625 0,-1.546875 0.890625,0 c 0.296875,0 0.59375,0 0.890625,0.09375 0.28125,0.09375 0.5625,0.296875 0.59375,0.625 0.015625,0.1875 -0.0625,0.375 -0.203125,0.515625 C 3.125,-2.4375 3.015625,-2.375 2.875,-2.328125 2.59375,-2.21875 2.28125,-2.21875 1.984375,-2.21875 l -0.921875,0 z m 0,0" id="path3914"/>
      </g>
      <g id="glyph0-10">
        <path d="m 2.671875,-0.671875 c -0.046875,0.03125 -0.078125,0.0625 -0.125,0.09375 C 2.203125,-0.34375 1.59375,-0.125 1.125,-0.453125 0.84375,-0.65625 0.65625,-0.984375 0.65625,-1.484375 l 2.0625,0 C 2.71875,-1.90625 2.625,-2.328125 2.359375,-2.5625 2.078125,-2.84375 1.609375,-2.921875 1.25,-2.828125 1.09375,-2.78125 0.9375,-2.703125 0.8125,-2.609375 0.4375,-2.3125 0.25,-1.84375 0.25,-1.375 c 0.015625,0.671875 0.515625,1.28125 1.171875,1.40625 0.328125,0.0625 0.6875,-0.015625 1,-0.171875 0.046875,-0.03125 0.25,-0.125 0.265625,-0.171875 0.015625,-0.03125 -0.015625,-0.28125 -0.015625,-0.359375 z m -0.296875,-1.0625 -1.6875,0 C 0.765625,-2 0.90625,-2.25 1.140625,-2.40625 1.4375,-2.59375 1.875,-2.578125 2.125,-2.3125 c 0.140625,0.15625 0.21875,0.359375 0.25,0.578125 z m 0,0" id="path3917"/>
      </g>
      <g id="glyph0-11">
        <path d="M 2.703125,-0.6875 C 2.65625,-0.65625 2.625,-0.609375 2.5625,-0.578125 2.5,-0.53125 2.40625,-0.484375 2.328125,-0.4375 1.953125,-0.265625 1.421875,-0.21875 1.109375,-0.484375 0.875,-0.640625 0.734375,-0.9375 0.71875,-1.28125 c -0.03125,-0.375 0.0625,-0.8125 0.375,-1.0625 C 1.265625,-2.46875 1.5,-2.546875 1.828125,-2.515625 2.109375,-2.5 2.25,-2.453125 2.484375,-2.34375 2.53125,-2.3125 2.578125,-2.28125 2.640625,-2.25 l 0.0625,-0.375 C 2.5625,-2.671875 2.4375,-2.75 2.296875,-2.796875 1.953125,-2.90625 1.421875,-2.890625 1.109375,-2.75 0.8125,-2.625 0.59375,-2.375 0.4375,-2.09375 c -0.203125,0.421875 -0.21875,0.9375 0,1.375 0.078125,0.15625 0.1875,0.296875 0.328125,0.421875 C 1.171875,0.078125 1.78125,0.125 2.28125,-0.0625 2.390625,-0.09375 2.515625,-0.15625 2.625,-0.21875 2.65625,-0.25 2.703125,-0.265625 2.71875,-0.3125 2.734375,-0.34375 2.703125,-0.6875 2.703125,-0.6875 z m 0,0" id="path3920"/>
      </g>
      <g id="glyph0-12">
        <path d="m 0.921875,-2.390625 0,0 0,-0.40625 -0.421875,0 0,3.78125 0.4375,0 0,-1.375 c 0.046875,0.0625 0.09375,0.125 0.15625,0.171875 0.140625,0.140625 0.328125,0.234375 0.53125,0.265625 0.09375,0 0.171875,0 0.265625,0 C 2.359375,-0.015625 2.71875,-0.40625 2.875,-0.84375 3.09375,-1.453125 2.90625,-2.15625 2.5625,-2.53125 2.453125,-2.671875 2.28125,-2.78125 2.109375,-2.8125 1.796875,-2.890625 1.453125,-2.78125 1.25,-2.671875 1.15625,-2.609375 0.984375,-2.5 0.921875,-2.390625 z m 1.28125,0.15625 c 0.46875,0.46875 0.4375,1.375 -0.140625,1.78125 C 2,-0.421875 1.9375,-0.375 1.859375,-0.34375 1.53125,-0.234375 1.234375,-0.265625 1.03125,-0.53125 1,-0.59375 0.953125,-0.640625 0.9375,-0.6875 c -0.015625,-0.046875 0,-0.078125 0,-0.109375 l 0,-1.171875 c 0,-0.046875 -0.015625,-0.125 0,-0.1875 0.03125,-0.046875 0.078125,-0.078125 0.109375,-0.125 0.3125,-0.3125 0.84375,-0.28125 1.15625,0.046875 z m 0,0" id="path3923"/>
      </g>
      <g id="glyph0-13">
        <path d="m 0.59375,-2.375 c -0.390625,0.484375 -0.46875,1.171875 -0.171875,1.703125 0.25,0.421875 0.734375,0.78125 1.359375,0.71875 0.5625,-0.0625 1,-0.46875 1.15625,-0.90625 C 3.171875,-1.4375 3,-2.15625 2.5,-2.5625 2.375,-2.671875 2.234375,-2.734375 2.0625,-2.796875 1.453125,-3 0.90625,-2.734375 0.59375,-2.375 z M 1.90625,-2.5 c 0.09375,0.015625 0.171875,0.046875 0.25,0.09375 0.390625,0.21875 0.484375,0.6875 0.453125,1.09375 -0.015625,0.265625 -0.09375,0.53125 -0.28125,0.75 -0.34375,0.359375 -1.03125,0.359375 -1.375,0 -0.1875,-0.21875 -0.25,-0.484375 -0.265625,-0.75 C 0.65625,-1.6875 0.734375,-2.03125 0.921875,-2.234375 1.15625,-2.484375 1.515625,-2.59375 1.90625,-2.5 z m 0,0" id="path3926"/>
      </g>
      <g id="glyph0-14">
        <path d="m 0.90625,-2.078125 0,0 0,-0.71875 -0.40625,0 L 0.5,0 l 0.421875,0 0,-1.109375 c 0,-0.234375 -0.03125,-0.46875 0.0625,-0.6875 C 1.09375,-2.09375 1.375,-2.296875 1.65625,-2.390625 1.796875,-2.4375 1.9375,-2.46875 2.078125,-2.46875 l 0,-0.375 c -0.390625,0 -0.75,0.171875 -0.984375,0.46875 -0.078125,0.09375 -0.15625,0.1875 -0.1875,0.296875 z m 0,0" id="path3929"/>
      </g>
      <g id="glyph0-15">
        <path d="M 0.25,-0.609375 C 0.234375,-0.53125 0.21875,-0.4375 0.203125,-0.34375 c 0,0.03125 -0.03125,0.078125 0,0.109375 0.015625,0.03125 0.078125,0.0625 0.109375,0.0625 0.28125,0.125 0.5,0.1875 0.84375,0.21875 0.421875,0.03125 0.9375,-0.0625 1.140625,-0.484375 C 2.34375,-0.53125 2.375,-0.671875 2.375,-0.78125 2.375,-0.859375 2.359375,-0.9375 2.34375,-1.015625 2.25,-1.28125 2,-1.46875 1.75,-1.5625 1.609375,-1.625 1.46875,-1.640625 1.3125,-1.671875 1.09375,-1.71875 0.828125,-1.734375 0.6875,-1.921875 0.578125,-2.0625 0.59375,-2.25 0.703125,-2.375 0.859375,-2.515625 1.09375,-2.546875 1.375,-2.53125 c 0.25,0.015625 0.453125,0.0625 0.65625,0.15625 0.046875,0.015625 0.109375,0.046875 0.15625,0.0625 L 2.25,-2.671875 c -0.296875,-0.125 -0.5625,-0.1875 -0.96875,-0.1875 -0.34375,0 -0.65625,0.0625 -0.859375,0.265625 -0.203125,0.21875 -0.265625,0.5625 -0.125,0.828125 0.109375,0.21875 0.359375,0.375 0.59375,0.453125 0.34375,0.09375 0.796875,0.078125 1,0.328125 C 2.015625,-0.84375 2,-0.609375 1.859375,-0.46875 1.78125,-0.390625 1.6875,-0.34375 1.578125,-0.328125 1.125,-0.21875 0.640625,-0.390625 0.359375,-0.546875 0.3125,-0.578125 0.28125,-0.59375 0.25,-0.609375 z m 0,0" id="path3932"/>
      </g>
      <g id="glyph0-16">
        <path d="m 0.234375,-4.09375 0,0.34375 1.828125,0 0,3.75 0.4375,0 0,-3.75 1.8125,0 0,-0.34375 -4.078125,0 z m 0,0" id="path3935"/>
      </g>
      <g id="glyph0-17">
        <path d="m 0.90625,-2.234375 0,0 0,-0.5625 -0.421875,0 0,2.796875 0.4375,0 0,-1.296875 C 0.921875,-1.59375 0.90625,-1.875 1.03125,-2.125 1.109375,-2.28125 1.21875,-2.390625 1.359375,-2.46875 1.46875,-2.515625 1.59375,-2.515625 1.71875,-2.5 c 0.1875,0 0.390625,0.046875 0.5,0.21875 0.09375,0.125 0.109375,0.296875 0.109375,0.453125 L 2.328125,0 2.75,0 l 0,-1.296875 C 2.75,-1.59375 2.734375,-1.875 2.859375,-2.125 2.9375,-2.28125 3.046875,-2.390625 3.1875,-2.46875 3.296875,-2.515625 3.421875,-2.515625 3.546875,-2.5 c 0.1875,0 0.390625,0.046875 0.5,0.21875 0.09375,0.125 0.109375,0.296875 0.109375,0.453125 l 0,1.828125 0.421875,0 0,-1.59375 c 0,-0.296875 0.03125,-0.625 -0.109375,-0.890625 -0.125,-0.21875 -0.359375,-0.3125 -0.59375,-0.34375 -0.109375,-0.015625 -0.234375,-0.015625 -0.34375,0 -0.25,0.03125 -0.484375,0.171875 -0.640625,0.359375 -0.0625,0.078125 -0.125,0.171875 -0.15625,0.25 C 2.71875,-2.265625 2.703125,-2.328125 2.6875,-2.375 2.5625,-2.65625 2.34375,-2.8125 1.984375,-2.84375 c -0.09375,0 -0.1875,0 -0.28125,0.015625 C 1.484375,-2.796875 1.28125,-2.6875 1.125,-2.53125 1.046875,-2.453125 0.953125,-2.34375 0.90625,-2.234375 z m 0,0" id="path3938"/>
      </g>
      <g id="glyph0-18">
        <path d="M 0.5,-4.109375 0.5,0 l 0.421875,0 0,-4.109375 -0.421875,0 z m 0,0" id="path3941"/>
      </g>
      <g id="glyph0-19">
        <path d="m 0.703125,-2.796875 -0.53125,0 0,0.328125 0.53125,0 0,2.46875 0.421875,0 0,-2.46875 0.8125,0 0,-0.328125 -0.828125,0 0,-0.484375 c 0,-0.09375 -0.015625,-0.1875 0.015625,-0.28125 0.046875,-0.140625 0.203125,-0.234375 0.34375,-0.25 0.171875,-0.03125 0.359375,0.03125 0.46875,0.09375 l 0,-0.390625 C 1.734375,-4.15625 1.53125,-4.1875 1.328125,-4.140625 1.125,-4.09375 0.96875,-3.953125 0.859375,-3.796875 c -0.125,0.203125 -0.15625,0.3125 -0.15625,0.640625 l 0,0.359375 z m 1.828125,-1.3125 0,0.421875 0.421875,0 0,-0.421875 -0.421875,0 z m 0,1.3125 0,2.796875 0.421875,0 0,-2.796875 -0.421875,0 z m 0,0" id="path3944"/>
      </g>
      <g id="glyph0-20">
        <path d="M 0.046875,-2.796875 0.59375,-2.15625 c 0.21875,0.234375 0.421875,0.484375 0.640625,0.71875 l 0,0 L 0,0 c 0.15625,0 0.3125,0 0.46875,-0.015625 0.078125,-0.09375 0.171875,-0.203125 0.25,-0.3125 C 0.953125,-0.625 1.1875,-0.921875 1.421875,-1.21875 l 0.09375,0.125 C 1.8125,-0.734375 2.109375,-0.359375 2.421875,0 2.5625,0 2.71875,0 2.875,0 l -1.265625,-1.4375 0,0 0.1875,-0.21875 0.96875,-1.140625 c -0.15625,0 -0.3125,0 -0.453125,0 l -0.078125,0.09375 C 1.953125,-2.375 1.6875,-2.0625 1.421875,-1.71875 1.109375,-2.0625 0.828125,-2.453125 0.5,-2.78125 0.359375,-2.796875 0.203125,-2.796875 0.046875,-2.796875 z m 0,0" id="path3947"/>
      </g>
      <g id="glyph0-21">
        <path d="m 0.484375,-2.796875 0,2.015625 c 0,0.25 0.03125,0.46875 0.171875,0.640625 0.21875,0.25 0.671875,0.21875 0.96875,0.125 0.28125,-0.0625 0.609375,-0.28125 0.703125,-0.5 l 0,0 0,0.515625 0.421875,0 0,-2.796875 -0.421875,0 0,1.421875 c 0,0.34375 0.015625,0.640625 -0.203125,0.859375 -0.21875,0.21875 -0.5,0.265625 -0.78125,0.25 C 1.21875,-0.28125 1.078125,-0.296875 1,-0.390625 0.9375,-0.484375 0.921875,-0.59375 0.921875,-0.703125 l 0,-2.09375 -0.4375,0 z m 0,0" id="path3950"/>
      </g>
      <g id="glyph0-22">
        <path d="M 0.859375,-3.421875 C 0.21875,-2.65625 0.203125,-1.5 0.828125,-0.703125 1.078125,-0.375 1.4375,-0.125 1.890625,0.015625 3.15625,0.359375 4.1875,-0.46875 4.453125,-1.40625 c 0.25,-0.796875 0.015625,-1.6875 -0.59375,-2.25 -0.3125,-0.28125 -0.75,-0.5 -1.265625,-0.546875 C 1.8125,-4.25 1.203125,-3.859375 0.859375,-3.421875 z M 2.96875,-3.78125 C 3.375,-3.65625 3.703125,-3.375 3.90625,-3 c 0.109375,0.21875 0.171875,0.484375 0.1875,0.734375 0.0625,0.703125 -0.234375,1.46875 -0.875,1.8125 -0.3125,0.171875 -0.703125,0.25 -1.109375,0.15625 -0.28125,-0.0625 -0.53125,-0.21875 -0.71875,-0.375 -0.359375,-0.34375 -0.53125,-0.828125 -0.5625,-1.3125 -0.0625,-0.859375 0.375,-1.5 1,-1.75 C 2.171875,-3.875 2.5625,-3.90625 2.96875,-3.78125 z m 0,0" id="path3953"/>
      </g>
      <g id="glyph0-23">
        <path d="m 0.90625,-2.234375 0,0 0,-0.5625 -0.421875,0 0,2.796875 0.4375,0 0,-1.296875 C 0.921875,-1.59375 0.90625,-1.875 1.03125,-2.125 1.109375,-2.28125 1.21875,-2.390625 1.359375,-2.46875 1.46875,-2.515625 1.59375,-2.515625 1.71875,-2.5 c 0.1875,0 0.390625,0.046875 0.5,0.21875 0.09375,0.125 0.109375,0.296875 0.109375,0.453125 L 2.328125,0 2.75,0 l 0,-1.59375 c 0,-0.296875 0.03125,-0.625 -0.109375,-0.890625 -0.125,-0.21875 -0.359375,-0.3125 -0.59375,-0.34375 C 1.765625,-2.859375 1.5,-2.8125 1.265625,-2.65625 1.125,-2.5625 0.96875,-2.375 0.90625,-2.234375 z m 0,0" id="path3956"/>
      </g>
      <g id="glyph0-24">
        <path d="m 0.09375,-2.796875 c 0.015625,0.078125 0.0625,0.15625 0.09375,0.234375 l 0.15625,0.40625 C 0.421875,-2 1.203125,-0.015625 1.21875,0 1.234375,0.03125 1.296875,0.015625 1.328125,0.015625 l 0.203125,0 c 0.078125,0 0.125,0.015625 0.15625,-0.046875 0.015625,-0.046875 0.25,-0.625 0.25,-0.625 L 2.5,-2.078125 c 0.09375,-0.25 0.203125,-0.46875 0.28125,-0.71875 -0.140625,0 -0.28125,0 -0.390625,0.015625 C 2.28125,-2.59375 2.21875,-2.359375 2.125,-2.15625 L 1.4375,-0.4375 C 1.140625,-1.21875 0.828125,-2.015625 0.5,-2.78125 0.375,-2.796875 0.234375,-2.796875 0.09375,-2.796875 z m 0,0" id="path3959"/>
      </g>
      <g id="glyph0-25">
        <path d="M 0.5,-4.109375 0.5,0 l 0.4375,0 0,-0.390625 0,0 c 0.046875,0.09375 0.140625,0.171875 0.21875,0.234375 0.265625,0.21875 0.703125,0.28125 1.078125,0.078125 0.1875,-0.09375 0.328125,-0.21875 0.4375,-0.390625 0.59375,-0.8125 0.234375,-2.15625 -0.578125,-2.34375 -0.125,-0.03125 -0.25,-0.03125 -0.375,-0.015625 -0.34375,0.046875 -0.609375,0.21875 -0.796875,0.4375 l 0,-1.71875 -0.421875,0 z m 1.03125,1.59375 C 1.828125,-2.53125 2.140625,-2.421875 2.328125,-2.1875 2.46875,-2 2.515625,-1.765625 2.53125,-1.546875 2.546875,-1.21875 2.515625,-0.875 2.3125,-0.625 2.140625,-0.40625 1.859375,-0.296875 1.59375,-0.28125 1.375,-0.265625 1.171875,-0.359375 1.03125,-0.53125 1,-0.59375 0.953125,-0.640625 0.9375,-0.6875 c -0.015625,-0.046875 0,-0.078125 0,-0.109375 l 0,-1.171875 c 0,-0.0625 -0.015625,-0.140625 0,-0.1875 0.03125,-0.0625 0.09375,-0.109375 0.140625,-0.15625 0.125,-0.109375 0.28125,-0.1875 0.453125,-0.203125 z m 0,0" id="path3962"/>
      </g>
    </g>
    <clipPath id="clip1">
      <path d="m -191,668 612,0 0,-792 -612,0 0,792 z m 0,0" id="path3965"/>
    </clipPath>
    <clipPath id="clip2">
      <path d="m 19.238281,144.80469 209.761719,0 0,-139.52344 -209.761719,0 0,139.52344 z m 0,0" id="path3968"/>
    </clipPath>
  </defs>
  <g transform="translate(-1.4659779,0.57542129)" id="g5232">
    <path d="m 94.375,13.566406 0,-3.5 0.832031,0 0,-1.382812 0.390625,0 0,9.59375 0.390625,0 0,-9.625 0.242188,0 0,11.128906 0.449219,0 0,-10.617187 0.269531,0 0,10.628906 0.421875,0 0,-11.140625 0.242187,0 0,11.140625 0.539063,0 0,-11.257813 0.421875,0 0,11.257813 0.480469,0 0,-11.351563 0.273437,0 0,11.351563 0.449219,0 0,-11.410156 0.300786,0 0,11.410156 0.60156,0 0,-11.5 0.35937,0 0,11.5 0.63282,0 0,-10.71875 0.35937,0 0,10.71875 0.60156,0 0,-11.800781 0.42188,0 0,11.800781 0.57031,0 0,-11.410156 0.39063,0 0,11.410156 0.7539,0 0,-11.257813 0.32813,0 0,11.257813 0.51172,0 0,-10.117188 0.39062,0 0,10.117188 0.69141,0 0,-11.320313 0.39453,0 0,11.320313 0.6914,0 0,-9.035156 0.44922,0 0,9.035156 0.48047,0 0,-11.378906 0.51172,0 0,11.378906 0.57031,0 0,-8.882813 0.42188,0 0,8.882813 0.63281,0 0,-9.546875 0.26953,0 0,9.546875 0.78125,0 0,-8.972656 0.33203,0 0,8.972656 0.69141,0 0,-8.582031 0.33203,0 0,8.582031 0.69141,0 0,-9.457031 0.46093,0 0,9.457031 0.5586,0 0,-11.109375 0.30078,0 0,11.109375 0.60156,0 0,-10.988281 0.30078,0 0,10.988281 0.8125,0 0,-11.4375 0.40235,0 0,11.4375 0.5,0 0,-11.4375 0.60156,0 0,11.4375 0.44922,0 0,-10.988281 0.48437,0 0,10.988281 0.60157,0 0,-10.054688 0.39062,0 0,10.054688 0.66016,0 0,-11.4375 0.42187,0 0,11.4375 0.78125,0 0,-11.140625 0.35938,0 0,11.140625 0.72265,0 0,-10.265625 0.35938,0 0,10.265625 0.60156,0 0,-10.867188 0.27344,0 0,10.867188 0.6914,0 0,-10.808594 0.20704,0 0,10.808594 0.63281,0 0,-10.628906 0.30078,0 0,10.628906 0.66406,0 0,-11.230469 0.35938,0 0,11.230469 0.72265,0 0,-11.078125 0.41797,0 0,11.078125 0.72266,0 0,-11.078125 0.49218,0 0,11.078125 0.66016,0 0,-10.898438 0.62109,0 0,10.898438 1.20313,0 0,-11.078125 0.51172,0 0,11.078125 0.63281,0 0,-10.777344 0.63281,0 0,10.777344 0.66016,0 0,-9.753906 0.71875,0 0,9.753906 0.90625,0 0,-10.839844 0.41797,0 0,10.839844 0.84375,0 0,-10.75 0.42187,0 0,10.75 0.75,0 0,-10.777344 0.75,0 0,10.777344 0.96485,0 0,-11.109375 0.625,0 0,11.109375 0.63672,0 0,-10.988281 0.57031,0 0,10.988281 0.57422,0 0,-11.046875 0.83984,0 0,11.046875 0.60547,0 0,-11.109375 0.50781,0 0,11.109375 0.83985,0 0,-11.230469 0.30078,0 0,11.230469 0.82031,0 0,-11.289063 0.23437,0 0,11.289063 0.75,0 0,-11.257813 0.36329,0 0,11.257813 0.87109,0 0,-9.003906 0.23828,0 0,9.003906 0.72266,0 0,-10.417969 0.30078,0 0,10.417969 0.6914,0 0,-9.816406 0.21094,0 0,9.816406 0.8125,0 0,-10.328125 0.30078,0 0,10.328125 0.8711,0 0,-11.621094 0.27343,0 0,11.621094 0.96094,0 0,-11.410156 0.33985,0 0,11.410156 0.62109,0 0,-11.410156 0.33203,0 0,11.410156 0.78125,0 0,-11.4375 0.23828,0 0,11.4375 0.66406,0 0,-11.769531 0.39063,0 0,11.769531 0.60156,0 0,-11.378906 0.53906,0 0,11.378906 0.57422,0 0,-10.355469 0.35938,0 0,10.355469 1.17187,0 0,-11.769531 0.30078,0 0,11.769531 0.48047,0 0,-11.53125 0.39453,0 0,11.53125 0.78125,0 0,-11.589844 0.39063,0 0,11.589844 0.57031,0 0,-11.679688 0.44922,0 0,11.679688 0.60156,0 0,-11.4375 0.60157,0 0,11.4375 0.72265,0 0,-11.621094 0.24219,0 0,11.621094 0.73047,0.4375 0,7.699219 -3.00781,0 c 0,-0.871094 -1.38282,-0.765625 -1.38282,-0.765625 -3.14843,0.0039 -4.89843,-0.01563 -5.80468,0 -0.91016,0.01563 -0.88672,1.019531 -0.88672,1.019531 l -2.22266,0 c 0.0781,-0.679688 -0.39062,-0.648438 -0.39062,-0.648438 l -0.0156,0 -0.0156,-0.01953 c -4.32813,-0.02734 -3.5625,0.01172 -4.26172,0.0039 -0.91407,-0.01172 -1.07422,0.664063 -1.07422,0.664063 l -1.98438,0.01563 -0.0313,0 c 0,-0.585938 -0.54297,-0.65625 -0.54297,-0.65625 -0.72265,0.0039 -1.61718,0.02734 -2.54687,0.03516 l 0.0508,-0.0078 -0.33594,0.01172 c -3.15234,0.0078 -2.16797,-0.01172 -3.07812,0 -0.91016,0.01563 -0.89844,0.664063 -0.89844,0.664063 l -2.22656,0 C 136.71875,27.5625 136.25,27.59375 136.25,27.59375 l -0.0195,0 -0.0117,-0.01563 c -4.32813,-0.02734 -3.56641,0.01172 -4.26563,0.0039 -0.91406,-0.01172 -1.07421,0.660157 -1.07421,0.660157 l -1.98438,0.01953 -0.0313,0 c 0,-0.585938 -0.54297,-0.660156 -0.54297,-0.660156 -0.71875,0.0039 -1.61328,0.02734 -2.54297,0.03516 l -0.0625,0.01172 c -1.3789,0.0039 -1.4414,0 -3.15234,-0.0039 -0.91016,-0.0039 -0.89844,0.660157 -0.89844,0.660157 l -2.22265,0 c 0.0781,-0.679688 -0.38672,-0.652344 -0.38672,-0.652344 l -0.0156,0 -0.0156,-0.01563 c -2.26953,0.0039 -3.46094,0.04687 -4.26563,0.0039 -0.91015,-0.04687 -1.07031,0.664063 -1.07031,0.664063 l -1.98828,0.01563 -0.0313,0 c 0,-0.585938 -0.54297,-0.65625 -0.54297,-0.65625 -1.35547,0.0039 -3.33203,0.08203 -5.00391,0 -0.91015,-0.04687 -0.9375,0.605468 -0.9375,0.605468 l -2.21875,0 c 0.082,-0.683593 -0.5039,-0.628906 -0.5039,-0.628906 l -0.0508,-0.0039 -0.0313,0.01172 c -2.26953,0.0039 -3.261722,0.03906 -4.06641,0 -0.914062,-0.04687 -0.9375,0.648437 -0.9375,0.648437 l -2.214844,0 c 0.07813,-0.71875 -0.507812,-0.65625 -0.507812,-0.65625 l -4.730469,0 c -1.078125,-0.02734 -1.15625,0.65625 -1.15625,0.65625 l -2.246094,0 c -0.332031,-0.726562 -1.0625,-0.648437 -1.0625,-0.648437 l -3.316406,0 -0.05078,-7.898438 6.449219,0 0,-10.40625 0.191406,0 0,4.871094 0.351562,0 0,-3.425781 0.199219,0 0,3.207031 0.324219,0 0,-2.40625 0.238281,0 0,2.085937 0.28125,0 0,-2.164062 0.359375,0 0,2.082031 0.402344,0 0,-2.683594 0.363281,0 0,2.5625 0.359375,0 0,-3.246093 0.441406,0 0,3.246093 0.28125,0 0,-3.367187 0.359375,0 0,3.210937 0.402344,0 0,-2.726562 0.359375,0 0,2.644531 0.320313,0 0,-3.890625 0.28125,0 0,4.222656 0.320312,0" id="path3975" style="fill:#231f20"/>
    <path d="m 162.03906,65.46875 c -3.14844,0.0078 -4.89844,-0.01563 -5.80469,0 -0.91015,0.01563 -0.88281,1.023438 -0.88281,1.023438 l -2.22656,0 c 0.0781,-0.683594 -0.38672,-0.652344 -0.38672,-0.652344 l -0.0195,0 -0.0117,-0.01563 c -4.32812,-0.02734 -3.56641,0.01172 -4.26562,0.0039 -0.91407,-0.01172 -1.07422,0.660156 -1.07422,0.660156 l -1.98438,0.01953 -0.0313,0 c 0,-0.585938 -0.54297,-0.660157 -0.54297,-0.660157 -0.72265,0.0039 -1.61328,0.02734 -2.54687,0.03516 l 0.0547,-0.0078 -0.33985,0.01563 c -3.14844,0.0039 -2.16797,-0.01563 -3.07422,0 C 137.98828,65.90625 138,66.550781 138,66.550781 l -2.22656,0 c 0.082,-0.679687 -0.38672,-0.652343 -0.38672,-0.652343 l -0.0156,0 -0.0156,-0.01563 c -4.32813,-0.02734 -3.56641,0.01172 -4.26563,0.0039 -0.91406,-0.01172 -1.07031,0.664062 -1.07031,0.664062 l -1.98828,0.01563 -0.0313,0 c 0,-0.585937 -0.54297,-0.65625 -0.54297,-0.65625 -0.71875,0.0039 -1.61328,0.02344 -2.54297,0.03516 l -0.0625,0.01172 c -1.3789,0 -1.4414,0 -3.14843,-0.0078 -0.91407,0 -0.90235,0.664062 -0.90235,0.664062 l -2.22656,0 c 0.082,-0.683593 -0.38672,-0.652343 -0.38672,-0.652343 l -0.0156,0 -0.0156,-0.01563 c -2.26953,0.0039 -3.46094,0.04297 -4.26562,0.0039 -0.91016,-0.04687 -1.07032,0.660156 -1.07032,0.660156 l -1.98828,0.01953 -0.0313,0 c 0,-0.585937 -0.54297,-0.660156 -0.54297,-0.660156 -1.35547,0.0078 -3.33203,0.08203 -5.0039,0 -0.91016,-0.04297 -0.9375,0.605469 -0.9375,0.605469 l -2.21485,0 c 0.0781,-0.679688 -0.50781,-0.625 -0.50781,-0.625 l -0.0508,-0.0039 -0.0313,0.0078 c -2.269532,0.0078 -3.26172,0.04297 -4.066407,0 -0.914063,-0.04687 -0.9375,0.652344 -0.9375,0.652344 l -2.214844,0 c 0.0821,-0.722649 -0.507743,-0.660149 -0.507743,-0.660149 l -4.730468,0 c -1.078125,-0.02344 -1.15625,0.65625 -1.15625,0.65625 l -2.246094,0 C 85.324219,65.875 84.59375,65.957031 84.59375,65.957031 l -3.320312,0 -0.05078,-7.417968 84.437502,0 0,7.699218 -2.23829,0 c 0,-0.875 -1.38281,-0.769531 -1.38281,-0.769531" id="path3977" style="fill:#231f20"/>
    <path d="m 81.222656,63.621094 4.8125,0 0,-1.113281 -4.8125,0 0,1.113281 z m 0,0" id="path3979" style="fill:#ffffff"/>
    <path d="m 225.87891,28.066406 0,-7.652343 -54.32813,0 0,7.128906 3.59375,0.02734 c 0,0 0.79688,-0.07031 1.16016,0.582031 l 2.44922,0 c 0,0 0.0898,-0.609375 1.26171,-0.589844 l 5.16407,0 c 0,0 0.64062,-0.05469 0.55468,0.589844 l 2.41797,0 c 0,0 0.0273,-0.621094 1.02344,-0.582031 0.87891,0.03906 1.96094,0.0039 4.4375,0 l 0.0352,-0.0078 0.0547,0.0039 c 0,0 0.64063,-0.05078 0.55079,0.5625 l 2.42187,0 c 0,0 0.0273,-0.585937 1.02344,-0.542968 1.82422,0.07031 3.98047,0.0078 5.46094,0 0,0 0.59375,0.0625 0.59375,0.585937 l 0.0313,0 2.16796,-0.01172 c 0,0 0.17579,-0.636718 1.17188,-0.597656 0.87891,0.03906 0,0 4.65625,0 l 0.0156,0.01172 0.0195,0 c 0,0 0.51171,-0.02344 0.42187,0.585937 l 2.06641,0 c 0,0 0.26953,-1.003906 2.21875,-1.003906 l 4.16797,0 c 0,0 1.5664,0.257813 1.5664,0.910156 l 3.6211,0" id="path3987" style="fill:#231f20"/>
    <path d="m 201.5,24.792969 24.47266,0 0,-0.996094 -24.47266,0 0,0.996094 z m 0,0" id="path3989" style="fill:#ffffff"/>
    <path d="m 24.132812,27.187497 c -0.761718,-3.808588 -1.109375,-5.730466 -2.164062,-6.457028 -0.449219,-0.304687 -1.523437,-0.355473 -1.804688,0.203124 -0.742187,1.468751 0.6875,2.964847 1.609376,3.89844 1.160156,1.175784 2.324218,2.351558 3.539062,3.468752 1.140625,1.050781 0.933594,2.914061 1.265625,4.292969 0.203125,0.847657 0.605469,1.589836 1.070312,2.324211 0.914063,1.453133 2.066407,2.69532 3.21875,3.960945 0.660157,0.722656 1.312501,1.445311 1.902344,2.230463 0.378906,0.507811 0.742187,1.027342 1.082032,1.558592 0.683594,1.062502 1.289062,2.179696 1.785155,3.34375 1.691407,3.980473 2.109376,8.515628 2.4375,12.796878 0.09375,1.23047 0.167969,2.464845 0.132813,3.69922" id="path3991" style="fill:none;stroke:#231f20;stroke-width:0.3656432"/>
    <path d="m 27.339844,25.46094 c -1.476563,-0.742189 -3.757813,-1.757811 -4.429688,-3.386723 -0.398437,-0.960939 -0.06641,-1.925775 0.863282,-2.308594 0.800781,-0.332033 1.472656,-0.105469 2.027343,0.582037 1.617188,2.011711 1.488281,4.914062 1.6875,7.363275 0.05078,0.60157 0.101563,1.199223 0.132813,1.800783 0.09375,1.917972 0.402344,3.925786 1.496093,5.558595 0.894532,1.343748 2.253907,2.445316 3.300782,3.683596 1.304687,1.554686 2.542969,3.210934 3.480468,5.015624 0.820313,1.574219 1.273438,3.269533 1.679688,4.980467 1.03125,4.332032 1.414063,9.363281 1.503906,13.804688" id="path3993" style="fill:none;stroke:#231f20;stroke-width:0.3656432"/>
    <path d="m 29.625,24.742191 c 0.1875,-1.605472 0.269531,-3.382816 -0.371094,-4.781257 -0.34375,-0.753898 -0.878906,-1.082025 -1.628906,-0.90234 -0.871094,0.203125 -1.339844,1.070315 -1.179687,2.058591 0.183593,1.14453 1.132812,1.976561 1.996093,2.656253 0.429688,0.339847 0.941407,0.628907 1.257813,1.078128 0.421874,0.597654 0.746093,1.542967 0.886718,2.253902 0.125,2.261715 0.277344,4.53516 0.621095,6.769528 0.324218,2.125003 1.722655,4.050788 3.074218,5.660157 0.867187,1.039062 1.792969,1.757811 2.351562,3.023437 0.496094,1.113287 0.789063,2.300781 1.164063,3.460938 1.660156,5.14844 2.472656,10.91016 2.308593,16.519535" id="path3995" style="fill:none;stroke:#231f20;stroke-width:0.3656432"/>
    <path d="m 33.320313,24.347652 c -1.214844,-1.062492 -2.46875,-2.324211 -2.933594,-3.792961 -0.25,-0.789068 -0.07422,-1.390628 0.601563,-1.761727 0.781249,-0.433585 1.710937,-0.105469 2.257812,0.734375 0.632812,0.972659 0.488281,2.222659 0.304688,3.3086 -0.08203,0.476558 -0.203126,0.953126 -0.199219,1.437497 0.0039,0.792975 0.472656,1.523443 0.445312,2.347661 -0.01172,0.453118 -0.06641,0.90234 -0.128907,1.351561 -0.08594,0.617187 -0.167968,1.234373 -0.238281,1.855467 -0.152343,1.238279 -0.269531,2.484372 -0.335937,3.734371 -0.05859,1.078128 -0.01953,2.210939 0.433594,3.207038 0.574218,1.277346 1.703125,2.359371 2.578125,3.429685 0.9375,1.148437 1.699218,2.457026 2.277343,3.820308 0.628907,1.476563 0.890626,3.074222 1.187501,4.636724 0.542969,2.83203 0.957031,5.507811 1.136718,8.585936 0.117188,2.058594 0.01563,3.988282 -0.0625,5.312501" id="path3997" style="fill:none;stroke:#231f20;stroke-width:0.3656432"/>
    <path d="m 36.605469,24.031246 c -1.050782,-1.22656 -2.113281,-2.656244 -2.363281,-4.171874 -0.132813,-0.816404 0.128905,-1.390618 0.847656,-1.660155 0.839843,-0.316406 1.710937,0.140628 2.128906,1.046875 0.488282,1.054688 0.167969,2.273435 -0.171875,3.324217 -0.144532,0.457034 -0.335937,0.910163 -0.402344,1.390627 -0.08984,0.652346 -0.05469,1.324216 -0.171874,1.968749 -0.128907,0.695318 -0.218751,1.394534 -0.351563,2.089843 -0.277344,1.425787 -0.53125,2.859378 -0.722657,4.300782 -0.136718,1.328132 0.01563,2.710937 0.285157,4.011722 0.285156,1.363282 0.746094,2.687497 1.378906,3.929683 0.605468,1.19141 1.367188,2.226565 1.878907,3.468752 0.503905,1.218756 0.878906,2.484372 1.179687,3.765625 1.101563,4.695315 1.277344,10.27344 1.01953,15.070314" id="path3999" style="fill:none;stroke:#231f20;stroke-width:0.3656432"/>
    <path d="m 39.972656,23.550781 c -1.046875,-1.22656 -2.113281,-2.656254 -2.359374,-4.171874 -0.136719,-0.816404 0.125,-1.390627 0.847656,-1.660155 0.835937,-0.316406 1.707031,0.140619 2.128906,1.046875 0.488281,1.054689 0.164062,2.273435 -0.171875,3.32031 -0.148438,0.460942 -0.339844,0.91406 -0.406251,1.394535 -0.08984,0.652336 -0.05469,1.324215 -0.171874,1.968748 0,0 -0.953125,8.031247 -1.031251,8.593751 -0.210937,1.453124 -0.285155,2.929687 -0.242187,4.394531 0.05078,1.640622 0.242187,3.328123 0.683594,4.898436 0.140625,0.499998 0.304687,0.992182 0.503906,1.46875 0.167969,0.410155 0.355469,0.816404 0.480469,1.246093 0.21875,0.734375 0.386719,1.476563 0.523437,2.230472 0.785157,4.437497 0.804688,9.781247 0.746094,14.273435" id="path4001" style="fill:none;stroke:#231f20;stroke-width:0.3656432"/>
    <path d="m 43.105469,23.792972 c -0.929687,-1.324226 -1.847657,-2.847659 -1.949219,-4.382812 -0.05859,-0.824227 0.257812,-1.367188 1,-1.570312 0.863281,-0.230471 1.6875,0.304686 2.019531,1.249999 0.386719,1.097651 -0.05469,2.277342 -0.492188,3.289057 -0.187499,0.441408 -0.421874,0.875004 -0.535155,1.347655 -0.449219,1.898439 -0.835938,3.839851 -1.582032,5.648437 -0.175781,0.417969 -0.367187,0.835938 -0.558594,1.25 -0.359374,0.796881 -0.722656,1.601565 -0.937499,2.453129 -0.1875,0.757815 -0.292969,1.535153 -0.347657,2.312501 -0.164062,2.246089 0.480469,6.796874 0.488281,6.832034 0,0 2.257813,13.019527 1.699219,20.316403" id="path4003" style="fill:none;stroke:#231f20;stroke-width:0.3656432"/>
    <path d="m 47.039063,24.054685 c 1.4375,-3.375002 2.1875,-5.062494 1.757812,-6.187501 -0.183594,-0.472651 -0.992187,-1.082025 -1.507813,-0.796871 -1.355468,0.757815 -1.042968,2.679684 -0.828125,3.89844 0.136719,0.750001 0.269531,1.499993 0.414063,2.249995 0.261719,1.367188 0.503906,2.558598 -0.109375,3.875 -0.59375,1.281253 -1.378906,2.457036 -2.238281,3.578127 -0.957032,1.25 -2.082031,2.390624 -2.789063,3.816411 -0.898438,1.820307 -1.15625,4.054685 -1.179687,6.054686 -0.02344,1.957028 0.109375,3.871094 0.414063,5.808589 l 1.355468,16.187502" id="path4005" style="fill:none;stroke:#231f20;stroke-width:0.3656432"/>
    <path d="m 50.59375,23.296875 c 0.265625,-0.371094 0.460938,-0.609375 0.691406,-1 C 52,21.109375 52.574219,19.792969 52.558594,18.382813 52.550781,17.5 52.164063,16.90625 51.328125,16.667969 c -0.964844,-0.277344 -1.824219,0.277344 -2.105469,1.28125 -0.480468,1.695312 0.683594,3.902344 1.378907,5.40625 l -0.0078,-0.05859" id="path4007" style="fill:#231f20"/>
    <path d="M 42.617187,61.90625 42.175782,49.476562 c -0.183595,-4.503909 0.128905,-9.191407 1.660156,-13.472656 0.527344,-1.484377 1.335937,-2.847658 2.171874,-4.179687 0.429688,-0.679692 0.867188,-1.351562 1.28125,-2.039067 0.40625,-0.667963 0.78125,-1.355468 1.128907,-2.050778 0.613281,-1.230466 1,-2.632814 1.738281,-3.792971 0.355469,-0.562494 0.789063,-1.074211 1.128906,-1.644528 0.714844,-1.187503 1.289063,-2.503906 1.273437,-3.914066 -0.0078,-0.882807 -0.394531,-1.476554 -1.230468,-1.714838 -0.964844,-0.27735 -1.824219,0.27734 -2.105469,1.281252 -0.480469,1.695305 0.683594,3.902337 1.378906,5.406247" id="path4009" style="fill:none;stroke:#231f20;stroke-width:0.3656432"/>
    <path d="m 52.867187,22.773433 c 1.304688,-0.859367 2.671876,-1.902336 3.308594,-3.249991 0.339844,-0.722665 0.25,-1.328131 -0.351562,-1.773446 -0.691406,-0.519531 -1.625,-0.332024 -2.257813,0.398445 -0.734375,0.851564 -0.753906,2.074217 -0.722656,3.140625 0.01953,0.535157 0.121094,1.093745 -0.01172,1.609369 -0.06641,0.257817 -0.183593,0.539064 -0.320312,0.820311 0,0 -1.355469,1.824223 -0.515626,7.238283 0.03906,0.308593 0.0625,0.621093 0.07813,0.933593 0.09766,1.718754 0.0078,3.554687 -0.628906,5.175785 -0.386719,0.980473 -1.039063,1.589846 -1.710938,2.363278 -0.980469,1.13281 -2.070313,2.167975 -3.003907,3.343749 -1.226561,1.554686 -2.363281,3.210944 -3.191406,5.011718 -0.398437,0.85938 -0.726562,1.757817 -0.902343,2.687504 -0.175782,0.929688 -0.02734,1.785156 -0.0625,2.707031 -0.09766,2.765626 0.160157,6.585938 0.160157,9.359376" id="path4011" style="fill:none;stroke:#231f20;stroke-width:0.3656432"/>
    <path d="m 55.136719,23.394536 c 1.507812,-0.574224 3.125,-1.324225 4.070312,-2.539065 0.507813,-0.652346 0.550782,-1.281252 0.04687,-1.86328 -0.585937,-0.675785 -1.570312,-0.691412 -2.371094,-0.09376 -0.933593,0.691412 -1.230468,1.917972 -1.433594,3.000006 -0.08984,0.472652 -0.140624,0.964846 -0.312499,1.417965 -0.429688,1.140624 -1.078125,2.128909 -1.414063,3.316413 -0.371093,1.320308 -0.628906,2.675777 -0.773437,4.042965 -0.179688,1.695314 -0.08203,3.417965 -0.347657,5.10156 -0.230469,1.476563 -0.804687,2.886724 -1.585937,4.156247 -1.703125,2.785162 -4.695312,4.503907 -6.273438,7.347658 -1.167968,2.093753 -1.542968,4.761722 -1.749999,7.101565 -0.218751,2.417969 -0.222657,4.820313 -0.05469,7.242188" id="path4013" style="fill:none;stroke:#231f20;stroke-width:0.3656432"/>
    <path d="m 57.929687,24.019536 c 1.117188,-0.429689 4.046876,-1.500004 3.992188,-2.988287 -0.02344,-0.675776 -0.527344,-1.296879 -1.207031,-1.324215 -0.644531,-0.02344 -1.179688,0.343743 -1.500001,0.89062 -0.40625,0.683599 -0.597655,1.51563 -0.839843,2.261725 -0.207031,0.640626 -0.597656,1.234373 -0.976563,1.78125 -0.359375,0.527344 -0.566406,1.136717 -0.871094,1.691398 -0.421874,0.765628 -0.83203,1.546882 -1.105468,2.378913 -0.28125,0.859377 -0.480469,1.738278 -0.664063,2.621094 -0.339843,1.621089 -0.449219,3.234374 -0.933593,4.82422 -0.500001,1.632809 -1.246094,3.187495 -2.210938,4.597656 -0.898437,1.324215 -2.078125,2.335931 -3.28125,3.371086 -0.683593,0.582036 -1.351563,1.222663 -1.886718,1.949225 -1.679688,2.265621 -2.613282,5.007811 -3.085939,7.769529 -0.437499,2.550781 -0.374999,6.105468 -0.144531,8.679688" id="path4015" style="fill:none;stroke:#231f20;stroke-width:0.3656432"/>
    <path d="m 60.734375,25.406247 c 1.074219,-0.531251 3.894531,-1.859373 3.707031,-3.335936 -0.08594,-0.67187 -0.644531,-1.246093 -1.324218,-1.210934 -0.644532,0.03515 -1.140625,0.449212 -1.414063,1.023436 -0.324219,0.679682 -0.394532,1.429684 -0.578125,2.148433 -0.1875,0.746095 -0.539063,1.425787 -0.894532,2.101563 -1.226561,2.605468 -1.902343,5.265628 -2.742187,8.003911 -0.855469,2.789059 -2.371094,5.527342 -4.667969,7.378901 -0.917968,0.742189 -2.031249,1.23829 -2.929687,2.015628 -0.757812,0.656252 -1.53125,1.332029 -2.175782,2.101563 -2.085936,2.484373 -3.429687,5.289063 -4.167968,8.441407 -0.554687,2.382812 -0.332032,6.039062 0.03125,8.449219" id="path4017" style="fill:none;stroke:#231f20;stroke-width:0.3656432"/>
    <path d="m 63.265625,27.011719 c 1.144531,-0.343753 4.148437,-1.175783 4.210937,-2.664067 0.03125,-0.675776 -0.421875,-1.335935 -1.097656,-1.414058 -0.644531,-0.07812 -1.203125,0.250004 -1.566406,0.769535 -0.433594,0.61328 -0.628906,1.343749 -0.933594,2.019525 -0.3125,0.703132 -0.769531,1.312505 -1.234375,1.921878 -0.308594,0.441408 -0.597656,0.886714 -0.875,1.339842 0,0 -3.558594,7.261722 -5.121093,9.429688 -0.484376,0.671879 -1.121094,1.269533 -1.691407,1.871093 -1.214843,1.285159 -2.496093,2.507812 -3.851563,3.64453 -1.808593,1.515629 -3.933593,2.765629 -5.039062,4.937502 -1.015625,1.996095 -1.539062,4.289063 -1.871093,6.480469 -0.304688,2 -0.273438,5.136719 -0.273438,7.160157" id="path4019" style="fill:none;stroke:#231f20;stroke-width:0.3656432"/>
    <path d="m 61.898437,28.671874 c -0.289062,0.02735 -0.585937,0.0039 -0.867187,-0.0664 -0.277344,-0.06641 -0.542969,-0.183601 -0.773437,-0.351566 -0.304688,-0.21875 -0.339845,-0.558597 -0.714844,-0.679682 -0.6875,-0.226564 -1.246094,0.437492 -1.933594,0.08984 -0.242188,-0.125002 -0.46875,-0.292967 -0.664063,-0.476568 -0.183593,-0.175778 -0.308593,-0.515624 -0.507812,-0.644532 -0.539063,-0.355463 -1.425781,0.07032 -2.035157,-0.210938 -0.304687,-0.136712 -0.476562,-0.273434 -0.839843,-0.308593 -0.359375,-0.03515 -0.652344,0.08594 -1.003907,0.08204 -0.46875,-0.0078 -0.617187,-0.316406 -0.999999,-0.445315 C 50.941406,25.453129 50.253906,25.57813 49.601562,25.625 49.222656,25.64844 48.875,25.6328 48.5,25.56641 c -0.199219,-0.03907 -0.414062,0.04687 -0.605469,0 C 47.65625,25.51172 47.566407,25.343753 47.367188,25.230471 47.007813,25.027347 46.5,25.042973 46.144531,25.281251 45.734375,25.558601 45.625,26.042973 45.0625,26.058599 c -0.429687,0.01172 -0.863282,-0.0039 -1.277344,-0.109375 -0.378906,-0.09375 -0.789062,-0.355463 -1.171875,-0.367183 -0.480468,-0.01563 -0.738281,0.238274 -1.15625,0.390622 -0.457031,0.160152 -0.941406,0.132815 -1.417968,0.132815 -0.632813,0 -1.01172,0.32422 -1.589844,0.398436 -0.722656,0.09375 -1.253907,-0.398436 -1.917969,-0.328126 -0.527344,0.05859 -0.855468,0.472651 -1.324219,0.640626 -0.449219,0.156245 -1.042969,-0.01953 -1.519531,0.0078 -0.601563,0.03515 -0.859375,0.628906 -1.4375,0.753908 -0.6875,0.152339 -1.542968,-0.214844 -2.160157,0.207031 -0.230468,0.156245 -0.515624,0.457025 -0.687499,0.679683 -0.285157,0.371099 -0.535157,0.621093 -0.871094,0.957032 -0.335937,0.339847 -0.359375,0.343753 -0.832031,0.37109 -0.304688,0.01563 -0.699219,-0.01952 -0.976563,0.08985 -0.125,0.04687 -0.226562,0.191404 -0.3125,0.226554 -0.101562,0.03907 -0.359375,-0.01172 -0.433593,0.05079 -0.171875,0.132815 -0.191407,0.593747 -0.269532,0.792965 -0.132812,0.339846 -0.277344,0.54297 -0.535156,0.804694 -0.1875,0.191405 -0.601563,0.441399 -0.589844,0.714842 0.976563,0.05078 1.363281,-0.406249 2.046875,-0.957033 0.316407,-0.25391 0.597656,-0.394529 0.992188,-0.480464 0.441406,-0.09767 0.503906,-0.27735 0.800781,-0.546877 0.167969,-0.156255 0.414062,-0.296874 0.558593,-0.453129 0.140626,-0.156245 0.25,-0.445315 0.402345,-0.605466 0.230468,-0.234378 0.632812,-0.617187 0.972656,-0.718749 0.164062,-0.05469 0.414062,-0.06251 0.593749,-0.03907 0.343751,0.04297 0.300782,0.148441 0.562501,0.32422 0.453124,0.30078 0.921874,0.09765 1.402344,0.195311 0.425781,0.08594 0.601562,0.433595 0.999999,0.523437 0.441407,0.09766 0.804688,-0.136721 1.132813,-0.363276 0.824219,-0.562504 1.687499,-1.042968 2.707031,-0.691412 0.191407,0.06641 0.378907,0.152348 0.53125,0.292967 0.152344,0.136722 0.285156,0.500007 0.480469,0.593756 0.433594,0.210938 0.914062,-0.214844 1.203125,-0.433595 0.410156,-0.3125 0.957031,-0.562503 1.460938,-0.453128 0.199218,0.04297 0.406249,0.191405 0.624999,0.132815 0.125,-0.03516 0.355469,-0.261723 0.523438,-0.343753 0.539063,-0.2539 1.074218,-0.57812 1.695312,-0.472651 0.621094,0.109375 1.207032,0.261714 1.792969,-0.148442 0.445312,-0.308593 1,-0.367183 1.585937,-0.238284 0.378907,0.08204 0.675782,0.238284 1.109375,0.199228 0.464845,-0.04297 0.847657,-0.460942 1.308594,-0.441409 0.382813,0.01563 1.058594,0.464839 1.316406,0.718749 0.425782,0.421875 0.703125,0.574214 1.320313,0.605467 0.488282,0.01953 0.84375,-0.09766 1.335938,-0.121095 0.265624,-0.01172 0.558593,-0.08594 0.828125,0.04297 0.300781,0.144526 0.07031,0.214845 0.25,0.402343 0.0039,0.0078 0.0078,0.01953 0.0078,0.02735 0.15625,0.03124 0.496093,0.125002 0.644531,0.08984 0.277344,-0.06251 0.492188,-0.30078 0.789063,-0.445315 0.191407,-0.09375 0.371094,-0.226564 0.605469,-0.199218 0.289062,0.03125 0.519531,0.281247 0.808594,0.304687 0.433593,0.02735 0.761718,-0.199218 1.167968,0.07422 0.363281,0.242191 0.785156,0.781254 0.984375,1.16797 0.195312,0.378913 0.375,1.015632 0.328125,1.460937" id="path4021" style="fill:none;stroke:#231f20;stroke-width:0.3656432"/>
    <path d="m 45.886719,30.429688 -0.804688,2.96875 2.183594,-2.167969 -1.378906,-0.800781" id="path4023" style="fill:#231f20"/>
    <path d="m 44.902344,51.761719 c 0,0 2.964844,0.804687 9.058594,-2.566406 4.933593,-2.722657 7.136719,1.925781 7.136719,1.925781" id="path4025" style="fill:none;stroke:#231f20;stroke-width:0.3656432"/>
    <path d="m 59.855469,50.917969 2.625,3.085937 L 61.75,50.019531 59.855469,50.917969" id="path4027" style="fill:#231f20"/>
    <path d="m 48.195313,52.492188 3.441406,-2.132813 -4.050781,0.128906 0.609375,2.003907" id="path4029" style="fill:#231f20"/>
    <path d="m 35.21875,58.539062 c 1.261719,-1.023437 3.679688,-1.957031 6.035157,-1.71875 3.51953,0.351563 6.269531,1.667969 6.140624,2.937501 -0.335937,3.371094 -5.730469,1.789062 -7.578125,0.886718 C 38.636719,60.074218 37.375,59.199219 36.101562,58.875 c -0.847656,-0.21875 -2.21875,-0.480469 -2.808594,0.386719" id="path4031" style="fill:none;stroke:#231f20;stroke-width:0.3656432"/>
    <path d="m 202.53906,24.832031 25.1836,0 0,-1.113281 -25.1836,0 0,1.113281 z m 0,0" id="path4091" style="fill:#ffffff"/>
    <path d="m 174.78906,65.875 -1.90234,0 0,-7.695312 52.63672,0 0,7.414062 -0.83594,0 c 0,0 -0.46094,-0.07813 -0.67188,0.648438 l -1.42187,0 c 0,0 -0.0508,-0.683594 -0.73047,-0.65625 l -2.99609,0 c 0,0 -0.3711,-0.0625 -0.32032,0.65625 l -1.40234,0 c 0,0 -0.0156,-0.695313 -0.59375,-0.648438 -0.50781,0.04297 -1.13672,0.0039 -2.57422,0 l -0.0195,-0.0078 -0.0313,0 c 0,0 -0.37109,-0.05078 -0.32031,0.628906 l -1.40235,0 c 0,0 -0.0156,-0.652344 -0.59375,-0.605469 -1.05859,0.08203 -2.30859,0.0078 -3.16796,0 0,0 -0.34375,0.07031 -0.34375,0.65625 l -0.0195,0 -1.25781,-0.01563 c 0,0 -0.10156,-0.710937 -0.67969,-0.664062 -0.50781,0.04297 -1.26171,0 -2.69921,-0.0039 l -0.008,0.01953 -0.008,0 c 0,0 -0.30078,-0.03125 -0.24609,0.648437 l -1.41016,0 c 0,0 0.008,-0.664062 -0.57031,-0.660156 -1.08203,0.0039 -1.1211,0.0078 -1.9961,0.0039 l -0.0391,-0.01172 c -0.58594,-0.0078 -1.15234,-0.03125 -1.60937,-0.03516 0,0 -0.34375,0.07422 -0.34375,0.660156 l -0.0195,0 -1.25782,-0.01953 c 0,0 -0.10156,-0.671875 -0.67968,-0.660156 -0.44141,0.0078 0.043,-0.03125 -2.69532,-0.0039 l -0.0117,0.01563 -0.0117,0 c 0,0 -0.29688,-0.03125 -0.2461,0.652343 l -1.40625,0 c 0,0 0.008,-0.648437 -0.57031,-0.660156 -0.57422,-0.01563 0.0469,0.0039 -1.94531,0 l -0.21485,-0.01563 0.0313,0.0078 c -0.58984,-0.0078 -1.15625,-0.03125 -1.60937,-0.03516 0,0 -0.34766,0.07031 -0.34766,0.65625 l -0.0156,0 -1.25782,-0.01563 c 0,0 -0.10156,-0.671875 -0.67968,-0.664062 -0.44141,0.0078 0.0391,-0.03125 -2.69922,-0.0039 l -0.0117,0.01953 -0.008,0 c 0,0 -0.29688,-0.03125 -0.2461,0.652344 l -1.41015,0 c 0,0 0.0195,-1.007813 -0.5625,-1.023438 -0.57032,-0.01563 -1.67578,0.0039 -3.67188,0 0,0 -0.875,-0.105469 -0.875,0.765625" id="path4093" style="fill:#231f20"/>
    <path d="m 204.23437,62.90625 21.89454,0 0,-1.113281 -21.89454,0 0,1.113281 z m 0,0" id="path4095" style="fill:#ffffff"/>
    <path d="m 110.75391,48.820313 0,10.343749" id="path4097" style="fill:#ffffff;stroke:#231f20;stroke-width:0.3656432"/>
    <path d="m 112.4375,52.671875 0,6.492187" id="path4099" style="fill:#ffffff;stroke:#231f20;stroke-width:0.3656432"/>
    <path d="m 112.4375,50.757813 0,1.503906" id="path4101" style="fill:#ffffff;stroke:#231f20;stroke-width:0.3656432"/>
    <path d="m 112.4375,47.929687 0,2.226563" id="path4103" style="fill:#ffffff;stroke:#231f20;stroke-width:0.3656432"/>
    <path d="m 114.12109,48.097652 c 0,0.300789 0,11.06641 0,11.06641" id="path4105" style="fill:#ffffff;stroke:#231f20;stroke-width:0.3656432"/>
    <path d="m 118.14844,48.281253 0,10.882809" id="path4107" style="fill:#ffffff;stroke:#231f20;stroke-width:0.3656432"/>
    <path d="m 132.10156,48.699218 0,10.464844" id="path4109" style="fill:#ffffff;stroke:#231f20;stroke-width:0.3656432"/>
    <path d="m 143.52735,48.820313 0,10.343749" id="path4111" style="fill:#ffffff;stroke:#231f20;stroke-width:0.3656432"/>
    <path d="m 157.71875,48.941406 c 0,0.179688 0,10.222656 0,10.222656" id="path4113" style="fill:#ffffff;stroke:#231f20;stroke-width:0.3656432"/>
    <path d="m 180.66406,47.992183 c 0,0.179694 0,10.222661 0,10.222661" id="path4115" style="fill:#ffffff;stroke:#231f20;stroke-width:0.3656432"/>
    <path d="m 204.31641,47.605467 c 0,0.187498 0,10.609377 0,10.609377" id="path4117" style="fill:#ffffff;stroke:#231f20;stroke-width:0.3656432"/>
    <path d="m 50.601562,6.9375022 0,5.7890558" id="path4135" style="fill:#ffffff;stroke:#231f20;stroke-width:0.3656432"/>
    <path d="m 49.8125,12.179688 0.796875,2.972656 0.796875,-2.972656 -1.59375,0" id="path4137" style="fill:#231f20"/>
    <path d="m 172.42968,9.261723 0,11.40625" id="path4147" style="fill:none;stroke:#231f20;stroke-width:0.28866571"/>
    <path d="m 173.53125,9.3007795 0,11.2148455" id="path4149" style="fill:none;stroke:#231f20;stroke-width:0.28866571"/>
    <path d="m 174.71094,9.3007795 0,11.2148455" id="path4151" style="fill:none;stroke:#231f20;stroke-width:0.28866571"/>
    <path d="m 175.85547,9.3007795 0,11.2148455" id="path4153" style="fill:none;stroke:#231f20;stroke-width:0.28866571"/>
    <path d="m 176.9961,9.3007795 0,11.2148455" id="path4155" style="fill:none;stroke:#231f20;stroke-width:0.28866571"/>
    <path d="m 178.13672,9.3007795 0,11.2148455" id="path4157" style="fill:none;stroke:#231f20;stroke-width:0.28866571"/>
    <path d="m 179.27734,9.3007795 0,11.2148455" id="path4159" style="fill:none;stroke:#231f20;stroke-width:0.28866571"/>
    <path d="m 180.42187,9.3007795 0,11.2148455" id="path4161" style="fill:none;stroke:#231f20;stroke-width:0.28866571"/>
    <path d="m 181.5625,9.3007795 0,11.2148455" id="path4163" style="fill:none;stroke:#231f20;stroke-width:0.28866571"/>
    <path d="m 182.70312,9.3007795 0,11.2148455" id="path4165" style="fill:none;stroke:#231f20;stroke-width:0.28866571"/>
    <path d="m 183.84765,9.3007795 0,11.2148455" id="path4167" style="fill:none;stroke:#231f20;stroke-width:0.28866571"/>
    <path d="m 184.98828,9.3007795 0,11.2148455" id="path4169" style="fill:none;stroke:#231f20;stroke-width:0.28866571"/>
    <path d="m 186.12891,9.3007795 0,11.2148455" id="path4171" style="fill:none;stroke:#231f20;stroke-width:0.28866571"/>
    <path d="m 187.26953,9.3007795 0,11.2148455" id="path4173" style="fill:none;stroke:#231f20;stroke-width:0.28866571"/>
    <path d="m 188.41406,9.3007795 0,11.2148455" id="path4175" style="fill:none;stroke:#231f20;stroke-width:0.28866571"/>
    <path d="m 189.55469,9.3007795 0,11.2148455" id="path4177" style="fill:none;stroke:#231f20;stroke-width:0.28866571"/>
    <path d="m 190.69531,9.3007795 0,11.2148455" id="path4179" style="fill:none;stroke:#231f20;stroke-width:0.28866571"/>
    <path d="m 191.83984,9.3007795 0,11.2148455" id="path4181" style="fill:none;stroke:#231f20;stroke-width:0.28866571"/>
    <path d="m 192.98047,9.3007795 0,11.2148455" id="path4183" style="fill:none;stroke:#231f20;stroke-width:0.28866571"/>
    <path d="m 194.12109,9.3007795 0,11.2148455" id="path4185" style="fill:none;stroke:#231f20;stroke-width:0.28866571"/>
    <path d="m 195.26172,9.3007795 0,11.2148455" id="path4187" style="fill:none;stroke:#231f20;stroke-width:0.28866571"/>
    <path d="m 196.40625,9.3007795 0,11.2148455" id="path4189" style="fill:none;stroke:#231f20;stroke-width:0.28866571"/>
    <path d="m 197.54687,9.3007795 0,11.2148455" id="path4191" style="fill:none;stroke:#231f20;stroke-width:0.28866571"/>
    <path d="m 198.6875,9.3007795 0,11.2148455" id="path4193" style="fill:none;stroke:#231f20;stroke-width:0.28866571"/>
    <path d="m 199.82813,9.3007795 0,11.2148455" id="path4195" style="fill:none;stroke:#231f20;stroke-width:0.28866571"/>
    <path d="m 200.97266,9.3007795 0,11.2148455" id="path4197" style="fill:none;stroke:#231f20;stroke-width:0.28866571"/>
    <path d="m 202.11328,9.3007795 0,11.2148455" id="path4199" style="fill:none;stroke:#231f20;stroke-width:0.28866571"/>
    <path d="m 203.25391,9.3007795 0,11.2148455" id="path4201" style="fill:none;stroke:#231f20;stroke-width:0.28866571"/>
    <path d="m 81.511719,25.253906 5.003906,0 0,-1.113281 -5.003906,0 0,1.113281 z m 0,0" id="path4203" style="fill:#ffffff"/>
    <path d="m 66.519532,31.687497 c 0,0 -1.062501,-0.61328 -1.164063,-3.398432" id="path4205" style="fill:none;stroke:#231f20;stroke-width:0.3656432"/>
    <path d="m 66.136719,29.132813 -0.796875,-2.972657 -0.796875,2.972657 1.59375,0" id="path4207" style="fill:#231f20"/>
    <path d="m 62.382813,43.246095 -5.613282,0 0,2.726563" id="path4209" style="fill:none;stroke:#231f20;stroke-width:0.3656432"/>
    <path d="m 55.980469,45.429688 0.796875,2.972656 0.796875,-2.972656 -1.59375,0" id="path4211" style="fill:#231f20"/>
    <path d="m 62.460937,45.792964 -2.804687,0 0,0.839844" id="path4213" style="fill:none;stroke:#231f20;stroke-width:0.3656432"/>
    <path d="m 58.867188,46.269531 0.796875,2.972657 0.796875,-2.972657 -1.59375,0" id="path4215" style="fill:#231f20"/>
    <path d="m 81.867187,27.648439 0,-9.804685" id="path4223" style="fill:#ffffff;stroke:#231f20;stroke-width:0.4811095"/>
    <use transform="translate(17.111,71.297)" id="use4231" x="0" y="0" width="227" height="150" xlink:href="#glyph0-1"/>
    <use transform="translate(19.675336,71.297)" id="use4233" x="0" y="0" width="227" height="150" xlink:href="#glyph0-2"/>
    <use transform="translate(22.766647,71.297)" id="use4235" x="0" y="0" width="227" height="150" xlink:href="#glyph0-3"/>
    <use transform="translate(43.756,4.91885)" id="use4239" x="0" y="0" width="227" height="150" xlink:href="#glyph0-4"/>
    <use transform="translate(47.34168,4.91885)" id="use4241" x="0" y="0" width="227" height="150" xlink:href="#glyph0-5"/>
    <use transform="translate(48.761968,4.91885)" id="use4243" x="0" y="0" width="227" height="150" xlink:href="#glyph0-6"/>
    <use transform="translate(52.01392,4.91885)" id="use4245" x="0" y="0" width="227" height="150" xlink:href="#glyph0-7"/>
    <use transform="translate(55.26587,4.91885)" id="use4247" x="0" y="0" width="227" height="150" xlink:href="#glyph0-8"/>
    <use transform="translate(67.993,32.983)" id="use4251" x="0" y="0" width="227" height="150" xlink:href="#glyph0-9"/>
    <use transform="translate(72.22659,32.983)" id="use4253" x="0" y="0" width="227" height="150" xlink:href="#glyph0-10"/>
    <use transform="translate(75.15725,32.983)" id="use4255" x="0" y="0" width="227" height="150" xlink:href="#glyph0-11"/>
    <use transform="translate(78.08792,32.983)" id="use4257" x="0" y="0" width="227" height="150" xlink:href="#glyph0-10"/>
    <use transform="translate(81.01859,32.983)" id="use4259" x="0" y="0" width="227" height="150" xlink:href="#glyph0-12"/>
    <use transform="translate(84.27055,32.983)" id="use4261" x="0" y="0" width="227" height="150" xlink:href="#glyph0-8"/>
    <use transform="translate(86.65172,32.983)" id="use4263" x="0" y="0" width="227" height="150" xlink:href="#glyph0-13"/>
    <use transform="translate(89.76555,32.983)" id="use4267" x="0" y="0" width="227" height="150" xlink:href="#glyph0-14"/>
    <use transform="translate(91.94103,32.983)" id="use4269" x="0" y="0" width="227" height="150" xlink:href="#glyph0-15"/>
    <use transform="translate(63.458,46.164)" id="use4273" x="0" y="0" width="227" height="150" xlink:href="#glyph0-16"/>
    <use transform="translate(67.47167,46.164)" id="use4277" x="0" y="0" width="227" height="150" xlink:href="#glyph0-13"/>
    <use transform="translate(72.861751,46.164)" id="use4281" x="0" y="0" width="227" height="150" xlink:href="#glyph0-2"/>
    <use transform="translate(75.953062,46.164)" id="use4283" x="0" y="0" width="227" height="150" xlink:href="#glyph0-17"/>
    <use transform="translate(81.03668,46.164)" id="use4285" x="0" y="0" width="227" height="150" xlink:href="#glyph0-12"/>
    <use transform="translate(84.28864,46.164)" id="use4287" x="0" y="0" width="227" height="150" xlink:href="#glyph0-18"/>
    <use transform="translate(85.70892,46.164)" id="use4289" x="0" y="0" width="227" height="150" xlink:href="#glyph0-5"/>
    <use transform="translate(87.1292,46.164)" id="use4291" x="0" y="0" width="227" height="150" xlink:href="#glyph0-19"/>
    <use transform="translate(90.58685,46.164)" id="use4293" x="0" y="0" width="227" height="150" xlink:href="#glyph0-10"/>
    <use transform="translate(93.51752,46.164)" id="use4295" x="0" y="0" width="227" height="150" xlink:href="#glyph0-14"/>
    <use transform="translate(4.813,31.08665)" id="use4299" x="0" y="0" width="227" height="150" xlink:href="#glyph0-4"/>
    <use transform="translate(8.398684,31.08665)" id="use4301" x="0" y="0" width="227" height="150" xlink:href="#glyph0-2"/>
    <use transform="translate(11.489995,31.08665)" id="use4303" x="0" y="0" width="227" height="150" xlink:href="#glyph0-8"/>
    <use transform="translate(13.871164,31.08665)" id="use4305" x="0" y="0" width="227" height="150" xlink:href="#glyph0-10"/>
    <use transform="translate(16.801834,31.08665)" id="use4307" x="0" y="0" width="227" height="150" xlink:href="#glyph0-14"/>
    <use transform="translate(18.977311,31.08665)" id="use4309" x="0" y="0" width="227" height="150" xlink:href="#glyph0-2"/>
    <use transform="translate(22.06862,31.08665)" id="use4311" x="0" y="0" width="227" height="150" xlink:href="#glyph0-18"/>
    <use transform="translate(6.0166,37.86115)" id="use4315" x="0" y="0" width="227" height="150" xlink:href="#glyph0-12"/>
    <use transform="translate(9.268553,37.86115)" id="use4317" x="0" y="0" width="227" height="150" xlink:href="#glyph0-18"/>
    <use transform="translate(10.688837,37.86115)" id="use4319" x="0" y="0" width="227" height="150" xlink:href="#glyph0-10"/>
    <use transform="translate(13.619506,37.86115)" id="use4321" x="0" y="0" width="227" height="150" xlink:href="#glyph0-20"/>
    <use transform="translate(16.505125,37.86115)" id="use4323" x="0" y="0" width="227" height="150" xlink:href="#glyph0-21"/>
    <use transform="translate(19.757078,37.86115)" id="use4325" x="0" y="0" width="227" height="150" xlink:href="#glyph0-15"/>
    <use transform="translate(1.097,60.762)" id="use4329" x="0" y="0" width="227" height="150" xlink:href="#glyph0-22"/>
    <use transform="translate(6.02887,60.762)" id="use4331" x="0" y="0" width="227" height="150" xlink:href="#glyph0-12"/>
    <use transform="translate(9.280824,60.762)" id="use4333" x="0" y="0" width="227" height="150" xlink:href="#glyph0-8"/>
    <use transform="translate(11.661993,60.762)" id="use4335" x="0" y="0" width="227" height="150" xlink:href="#glyph0-5"/>
    <use transform="translate(13.08228,60.762)" id="use4337" x="0" y="0" width="227" height="150" xlink:href="#glyph0-11"/>
    <use transform="translate(18.09951,60.762)" id="use4341" x="0" y="0" width="227" height="150" xlink:href="#glyph0-23"/>
    <use transform="translate(21.351461,60.762)" id="use4343" x="0" y="0" width="227" height="150" xlink:href="#glyph0-10"/>
    <use transform="translate(24.28213,60.762)" id="use4345" x="0" y="0" width="227" height="150" xlink:href="#glyph0-14"/>
    <use transform="translate(26.457607,60.762)" id="use4347" x="0" y="0" width="227" height="150" xlink:href="#glyph0-24"/>
    <use transform="translate(29.343226,60.762)" id="use4349" x="0" y="0" width="227" height="150" xlink:href="#glyph0-10"/>
  </g>
</svg>
