<?xml version="1.0" encoding="UTF-8"?>
<svg xmlns="http://www.w3.org/2000/svg" xmlns:xlink="http://www.w3.org/1999/xlink" width="268.46787517317597pt" height="119.51150572225252pt" viewBox="0 0 155 69" version="1.1">
<defs>
<g>
<symbol overflow="visible" id="glyph0-0">
<path style="stroke:none;" d=""/>
</symbol>
<symbol overflow="visible" id="glyph0-1">
<path style="stroke:none;" d="M 1.75 -4.84375 L 0.734375 0 C 1.765625 0 2.875 0.015625 3.875 0 C 3.9375 -0.125 3.9375 -0.265625 3.96875 -0.40625 L 1.359375 -0.40625 L 2.28125 -4.84375 L 1.75 -4.84375 Z M 1.75 -4.84375 "/>
</symbol>
<symbol overflow="visible" id="glyph0-2">
<path style="stroke:none;" d="M 2.25 -4.890625 C 1.8125 -4.84375 1.453125 -4.5 1.1875 -4.15625 C 0.765625 -3.609375 0.515625 -2.953125 0.390625 -2.265625 C 0.296875 -1.828125 0.296875 -1.359375 0.375 -0.921875 C 0.46875 -0.484375 0.734375 0.109375 1.34375 0.0625 C 1.796875 0 2.15625 -0.34375 2.421875 -0.6875 C 2.8125 -1.1875 3.046875 -1.796875 3.1875 -2.421875 C 3.28125 -2.890625 3.34375 -3.515625 3.21875 -3.9375 C 3.125 -4.34375 2.890625 -4.828125 2.4375 -4.890625 C 2.375 -4.890625 2.3125 -4.90625 2.25 -4.890625 Z M 2.71875 -2.609375 L 0.96875 -2.609375 C 1 -2.796875 1.0625 -2.984375 1.109375 -3.15625 C 1.25 -3.546875 1.421875 -3.9375 1.703125 -4.234375 C 1.90625 -4.4375 2.234375 -4.609375 2.5 -4.421875 C 2.671875 -4.3125 2.734375 -4.09375 2.78125 -3.90625 C 2.84375 -3.609375 2.828125 -3.3125 2.78125 -3.03125 C 2.765625 -2.890625 2.734375 -2.75 2.71875 -2.609375 Z M 2.625 -2.21875 C 2.625 -2.171875 2.609375 -2.109375 2.59375 -2.046875 C 2.4375 -1.5 2.296875 -1.015625 1.90625 -0.625 C 1.734375 -0.4375 1.453125 -0.25 1.171875 -0.375 C 0.859375 -0.5 0.78125 -0.953125 0.78125 -1.359375 C 0.78125 -1.65625 0.828125 -1.9375 0.890625 -2.21875 L 2.625 -2.21875 Z M 2.625 -2.21875 "/>
</symbol>
<symbol overflow="visible" id="glyph1-0">
<path style="stroke:none;" d=""/>
</symbol>
<symbol overflow="visible" id="glyph1-1">
<path style="stroke:none;" d="M 0.546875 -3.015625 L 0.546875 -2.734375 C 0.796875 -2.734375 1.046875 -2.78125 1.28125 -2.875 L 1.28125 -0.28125 L 0.578125 -0.28125 L 0.578125 0 L 2.328125 0 L 2.328125 -0.28125 L 1.640625 -0.28125 L 1.640625 -3.34375 C 1.609375 -3.34375 1.5625 -3.359375 1.546875 -3.34375 C 1.5 -3.328125 1.46875 -3.296875 1.4375 -3.265625 C 1.234375 -3.09375 0.875 -3.015625 0.546875 -3.015625 Z M 0.546875 -3.015625 "/>
</symbol>
<symbol overflow="visible" id="glyph1-2">
<path style="stroke:none;" d="M 0.4375 -2.28125 C 0.515625 -2.578125 0.65625 -2.890625 0.953125 -3 C 1.078125 -3.046875 1.203125 -3.0625 1.328125 -3.046875 C 1.578125 -3.03125 1.84375 -2.921875 2 -2.703125 C 2.109375 -2.5625 2.140625 -2.375 2.109375 -2.203125 C 2.046875 -1.71875 1.625 -1.421875 1.28125 -1.15625 C 1 -0.9375 0.421875 -0.421875 0.421875 -0.421875 L 0.328125 -0.34375 C 0.28125 -0.296875 0.28125 -0.296875 0.28125 -0.1875 L 0.28125 0 L 2.5 0 L 2.5 -0.3125 L 0.59375 -0.3125 C 0.796875 -0.484375 1.359375 -0.953125 1.53125 -1.078125 C 1.84375 -1.3125 2.1875 -1.546875 2.390625 -1.890625 C 2.609375 -2.28125 2.46875 -2.8125 2.125 -3.078125 C 1.75 -3.40625 1.046875 -3.453125 0.625 -3.140625 C 0.46875 -3.03125 0.359375 -2.84375 0.28125 -2.671875 C 0.265625 -2.625 0.234375 -2.578125 0.234375 -2.546875 C 0.25 -2.515625 0.28125 -2.484375 0.296875 -2.46875 C 0.34375 -2.40625 0.390625 -2.34375 0.4375 -2.28125 Z M 0.4375 -2.28125 "/>
</symbol>
</g>
<clipPath id="clip1">
  <path d="M -228 666 L 384 666 L 384 -126 L -228 -126 L -228 666 Z M -228 666 "/>
</clipPath>
<clipPath id="clip2">
  <path d="M -0.328125 69.070313 L 155.578125 69.070313 L 155.578125 -1.199219 L -0.328125 -1.199219 L -0.328125 69.070313 Z M -0.328125 69.070313 "/>
</clipPath>
<clipPath id="clip3">
  <path d="M 0.21875 68.519531 L 155.578125 68.519531 L 155.578125 -0.648438 L 0.21875 -0.648438 L 0.21875 68.519531 Z M 0.21875 68.519531 "/>
</clipPath>
<clipPath id="clip4">
  <path d="M -228 666 L 384 666 L 384 -126 L -228 -126 L -228 666 Z M -228 666 "/>
</clipPath>
</defs>
<g id="surface0">
<g clip-path="url(#clip1)" clip-rule="nonzero">
<g clip-path="url(#clip2)" clip-rule="nonzero">
<g clip-path="url(#clip3)" clip-rule="nonzero">
<path style="fill:none;stroke-width:15;stroke-linecap:butt;stroke-linejoin:miter;stroke:rgb(0%,0%,0%);stroke-opacity:1;stroke-miterlimit:4;" d="M 4.988952 82.316568 L 1409.554811 82.316568 " transform="matrix(0.109793,0,0,-0.109793,-0.329,69.069)"/>
<path style="fill:none;stroke-width:3.8;stroke-linecap:butt;stroke-linejoin:miter;stroke:rgb(0%,0%,0%);stroke-opacity:1;stroke-dasharray:30,20;stroke-miterlimit:4;" d="M 1368.497285 180.228449 L 1375.257189 177.488909 L 48.857175 177.488909 L 413.856444 565.009334 L 1368.497285 180.228449 " transform="matrix(0.109793,0,0,-0.109793,-0.329,69.069)"/>
<path style=" stroke:none;fill-rule:nonzero;fill:rgb(0%,0%,0%);fill-opacity:1;" d="M 48.351563 7.371094 C 48.351563 9.0625 46.980469 10.4375 45.289063 10.4375 C 43.59375 10.4375 42.222656 9.0625 42.222656 7.371094 C 42.222656 5.679688 43.59375 4.308594 45.289063 4.308594 C 46.980469 4.308594 48.351563 5.679688 48.351563 7.371094 L 48.351563 7.371094 "/>
<path style="fill-rule:nonzero;fill:rgb(0%,0%,0%);fill-opacity:1;stroke-width:5;stroke-linecap:butt;stroke-linejoin:miter;stroke:rgb(0%,0%,0%);stroke-opacity:1;stroke-miterlimit:4;" d="M 416.738298 622.219473 L 416.738298 499.794043 " transform="matrix(0.109793,0,0,-0.109793,-0.329,69.069)"/>
<path style="fill-rule:nonzero;fill:rgb(0%,0%,0%);fill-opacity:1;stroke-width:5;stroke-linecap:butt;stroke-linejoin:miter;stroke:rgb(0%,0%,0%);stroke-opacity:1;stroke-miterlimit:4;" d="M 416.738298 622.219473 L 416.738298 499.794043 " transform="matrix(0.109793,0,0,-0.109793,-0.329,69.069)"/>
<path style="fill-rule:nonzero;fill:rgb(0%,0%,0%);fill-opacity:1;stroke-width:5;stroke-linecap:butt;stroke-linejoin:miter;stroke:rgb(0%,0%,0%);stroke-opacity:1;stroke-miterlimit:4;" d="M 467.473161 592.440315 L 363.192738 528.292378 " transform="matrix(0.109793,0,0,-0.109793,-0.329,69.069)"/>
<path style="fill-rule:nonzero;fill:rgb(0%,0%,0%);fill-opacity:1;stroke-width:5;stroke-linecap:butt;stroke-linejoin:miter;stroke:rgb(0%,0%,0%);stroke-opacity:1;stroke-miterlimit:4;" d="M 363.584101 592.582629 L 470.283858 532.561792 " transform="matrix(0.109793,0,0,-0.109793,-0.329,69.069)"/>
<path style="fill:none;stroke-width:5;stroke-linecap:butt;stroke-linejoin:miter;stroke:rgb(0%,0%,0%);stroke-opacity:1;stroke-miterlimit:4;" d="M 19.398222 159.628529 L 31.637207 147.389544 L 44.694497 157.458244 " transform="matrix(0.109793,0,0,-0.109793,-0.329,69.069)"/>
<path style="fill:none;stroke-width:5;stroke-linecap:butt;stroke-linejoin:miter;stroke:rgb(0%,0%,0%);stroke-opacity:1;stroke-miterlimit:4;" d="M 23.311851 92.669895 L 21.070409 116.685346 L 44.694497 136.004442 L 44.694497 170.657847 " transform="matrix(0.109793,0,0,-0.109793,-0.329,69.069)"/>
<path style="fill:none;stroke-width:5;stroke-linecap:butt;stroke-linejoin:miter;stroke:rgb(0%,0%,0%);stroke-opacity:1;stroke-miterlimit:4;" d="M 54.22952 93.737249 L 58.57009 118.321954 L 44.694497 136.004442 " transform="matrix(0.109793,0,0,-0.109793,-0.329,69.069)"/>
<path style="fill:none;stroke-width:5;stroke-linecap:butt;stroke-linejoin:miter;stroke:rgb(0%,0%,0%);stroke-opacity:1;stroke-miterlimit:4;" d="M 44.694497 157.458244 C 44.694497 157.458244 60.953846 166.993267 64.404955 170.444376 C 67.820486 173.895486 65.329995 182.007371 55.012246 192.32512 " transform="matrix(0.109793,0,0,-0.109793,-0.329,69.069)"/>
<path style="fill:none;stroke-width:5;stroke-linecap:butt;stroke-linejoin:miter;stroke:rgb(0%,0%,0%);stroke-opacity:1;stroke-miterlimit:4;" d="M 47.434037 186.596991 C 50.066842 179.161096 49.035067 172.009828 45.157017 170.657847 C 41.243388 169.270288 35.977778 174.215692 33.344973 181.651587 C 30.747746 189.087482 31.743943 196.238749 35.657572 197.626309 C 39.535622 198.97829 44.801232 194.068464 47.434037 186.596991 L 47.434037 186.596991 Z M 47.434037 186.596991 " transform="matrix(0.109793,0,0,-0.109793,-0.329,69.069)"/>
<path style="fill:none;stroke-width:3.8;stroke-linecap:butt;stroke-linejoin:miter;stroke:rgb(0%,0%,0%);stroke-opacity:1;stroke-miterlimit:4;" d="M 170.677771 270.384229 C 190.921906 245.016798 200.528087 210.541284 200.528087 175.603251 " transform="matrix(0.109793,0,0,-0.109793,-0.329,69.069)"/>
<path style=" stroke:none;fill-rule:nonzero;fill:rgb(0%,0%,0%);fill-opacity:1;" d="M 19.5 39.308594 L 16.675781 37.222656 L 18.078125 40.441406 L 19.5 39.308594 L 19.5 39.308594 "/>
<path style="fill:none;stroke-width:3.8;stroke-linecap:butt;stroke-linejoin:miter;stroke:rgb(0%,0%,0%);stroke-opacity:1;stroke-miterlimit:4;" d="M 1207.149036 175.603251 C 1207.149036 190.439463 1208.678909 202.464977 1212.450224 216.091522 " transform="matrix(0.109793,0,0,-0.109793,-0.329,69.069)"/>
<path style=" stroke:none;fill-rule:nonzero;fill:rgb(0%,0%,0%);fill-opacity:1;" d="M 133.488281 46.183594 L 133.519531 42.671875 L 131.738281 45.699219 L 133.488281 46.183594 L 133.488281 46.183594 "/>
<path style="fill:none;stroke-width:3.8;stroke-linecap:butt;stroke-linejoin:miter;stroke:rgb(0%,0%,0%);stroke-opacity:1;stroke-miterlimit:4;" d="M 48.857175 113.6256 L 48.857175 5.004606 " transform="matrix(0.109793,0,0,-0.109793,-0.329,69.069)"/>
<path style="fill:none;stroke-width:3.8;stroke-linecap:butt;stroke-linejoin:miter;stroke:rgb(0%,0%,0%);stroke-opacity:1;stroke-miterlimit:4;" d="M 1375.257189 113.6256 L 1375.257189 5.004606 " transform="matrix(0.109793,0,0,-0.109793,-0.329,69.069)"/>
<path style="fill:none;stroke-width:3.8;stroke-linecap:butt;stroke-linejoin:miter;stroke:rgb(0%,0%,0%);stroke-opacity:1;stroke-miterlimit:4;" d="M 73.797665 24.999693 L 1350.316699 24.999693 " transform="matrix(0.109793,0,0,-0.109793,-0.329,69.069)"/>
<path style=" stroke:none;fill-rule:nonzero;fill:rgb(0%,0%,0%);fill-opacity:1;" d="M 147.3125 67.222656 L 150.664063 66.3125 L 147.3125 65.402344 L 147.3125 67.222656 "/>
<path style=" stroke:none;fill-rule:nonzero;fill:rgb(0%,0%,0%);fill-opacity:1;" d="M 8.386719 65.425781 L 5.035156 66.335938 L 8.386719 67.242188 L 8.386719 65.425781 "/>
<path style="fill:none;stroke-width:5;stroke-linecap:butt;stroke-linejoin:miter;stroke:rgb(0%,0%,0%);stroke-opacity:1;stroke-miterlimit:4;" d="M 1407.064319 157.244773 L 1393.402197 146.606818 L 1381.66131 158.205391 " transform="matrix(0.109793,0,0,-0.109793,-0.329,69.069)"/>
<path style="fill:none;stroke-width:5;stroke-linecap:butt;stroke-linejoin:miter;stroke:rgb(0%,0%,0%);stroke-opacity:1;stroke-miterlimit:4;" d="M 1394.896491 91.246758 L 1400.090944 114.799688 L 1379.028505 136.929481 L 1383.297918 171.298259 " transform="matrix(0.109793,0,0,-0.109793,-0.329,69.069)"/>
<path style="fill:none;stroke-width:5;stroke-linecap:butt;stroke-linejoin:miter;stroke:rgb(0%,0%,0%);stroke-opacity:1;stroke-miterlimit:4;" d="M 1364.334607 96.156583 L 1363.089361 121.097073 L 1379.028505 136.929481 " transform="matrix(0.109793,0,0,-0.109793,-0.329,69.069)"/>
<path style="fill:none;stroke-width:5;stroke-linecap:butt;stroke-linejoin:miter;stroke:rgb(0%,0%,0%);stroke-opacity:1;stroke-miterlimit:4;" d="M 1381.66131 158.205391 C 1381.66131 158.205391 1366.718363 169.697229 1363.729773 173.504123 C 1360.741184 177.346595 1364.227871 185.102696 1375.755288 194.068464 " transform="matrix(0.109793,0,0,-0.109793,-0.329,69.069)"/>
<path style="fill:none;stroke-width:5;stroke-linecap:butt;stroke-linejoin:miter;stroke:rgb(13.730068%,12.159915%,12.54902%);stroke-opacity:1;stroke-miterlimit:4;" d="M 1382.586349 187.450873 C 1379.028505 180.406341 1379.170818 173.183917 1382.870977 171.333838 C 1386.535557 169.483758 1392.406 173.717593 1395.928266 180.797704 C 1399.450532 187.842236 1399.308218 195.064661 1395.60806 196.91474 C 1391.94348 198.764819 1386.073037 194.530984 1382.586349 187.450873 L 1382.586349 187.450873 Z M 1382.586349 187.450873 " transform="matrix(0.109793,0,0,-0.109793,-0.329,69.069)"/>
</g>
</g>
</g>
<g clip-path="url(#clip4)" clip-rule="nonzero">
<path style=" stroke:none;fill-rule:nonzero;fill:rgb(100%,100%,100%);fill-opacity:1;" d="M 73.589844 70.847656 L 82.222656 70.847656 L 82.222656 62.019531 L 73.589844 62.019531 L 73.589844 70.847656 Z M 73.589844 70.847656 "/>
<g style="fill:rgb(0%,0%,0%);fill-opacity:1;">
  <use xlink:href="#glyph0-1" x="75.583" y="68.855"/>
</g>
<g style="fill:rgb(0%,0%,0%);fill-opacity:1;">
  <use xlink:href="#glyph0-2" x="23.199" y="47.221"/>
</g>
<g style="fill:rgb(0%,0%,0%);fill-opacity:1;">
  <use xlink:href="#glyph1-1" x="26.597" y="48.093"/>
</g>
<g style="fill:rgb(0%,0%,0%);fill-opacity:1;">
  <use xlink:href="#glyph0-2" x="123.114" y="47.221"/>
</g>
<g style="fill:rgb(0%,0%,0%);fill-opacity:1;">
  <use xlink:href="#glyph1-2" x="126.512" y="48.093"/>
</g>
</g>
</g>
</svg>
