<?xml version="1.0" encoding="UTF-8"?>
<svg xmlns="http://www.w3.org/2000/svg" xmlns:xlink="http://www.w3.org/1999/xlink" width="401pt" height="256pt" viewBox="0 0 232 148" version="1.1">
<defs>
<g>
<symbol overflow="visible" id="glyph0-0">
<path style="stroke:none;" d=""/>
</symbol>
<symbol overflow="visible" id="glyph0-1">
<path style="stroke:none;" d="M 0.453125 -0.71875 L 0.265625 -0.265625 C 0.40625 -0.1875 0.546875 -0.125 0.703125 -0.0625 C 1.1875 0.09375 1.859375 0.109375 2.296875 -0.09375 C 2.625 -0.25 2.875 -0.515625 2.96875 -0.875 C 3.015625 -1.015625 3.015625 -1.171875 2.984375 -1.3125 C 2.9375 -1.4375 2.875 -1.546875 2.78125 -1.625 C 2.546875 -1.875 2.203125 -1.921875 1.875 -1.984375 C 1.671875 -2.015625 1.421875 -2.046875 1.296875 -2.234375 C 1.15625 -2.453125 1.3125 -2.71875 1.5 -2.84375 C 1.671875 -2.96875 1.96875 -3 2.234375 -2.984375 C 2.640625 -2.96875 2.84375 -2.890625 3.15625 -2.703125 L 3.328125 -3.140625 C 2.953125 -3.3125 2.59375 -3.40625 2.0625 -3.359375 C 1.671875 -3.34375 1.34375 -3.21875 1.09375 -3 C 0.8125 -2.734375 0.625 -2.25 0.859375 -1.90625 C 1.09375 -1.5625 1.515625 -1.515625 1.890625 -1.4375 C 2.09375 -1.40625 2.34375 -1.359375 2.46875 -1.15625 C 2.625 -0.9375 2.453125 -0.640625 2.25 -0.515625 C 2.078125 -0.390625 1.859375 -0.34375 1.59375 -0.34375 C 1.328125 -0.34375 1.0625 -0.390625 0.828125 -0.5 C 0.6875 -0.5625 0.453125 -0.71875 0.453125 -0.71875 Z M 0.453125 -0.71875 "/>
</symbol>
<symbol overflow="visible" id="glyph0-2">
<path style="stroke:none;" d="M 1.203125 -2.640625 C 1.46875 -2.78125 1.609375 -2.890625 1.953125 -2.953125 C 2.078125 -2.984375 2.390625 -3.03125 2.53125 -3.015625 C 2.765625 -2.984375 2.953125 -2.84375 3.015625 -2.609375 C 3.09375 -2.359375 2.96875 -2.109375 2.9375 -1.859375 C 2.328125 -1.859375 1.65625 -1.75 1.1875 -1.53125 C 0.9375 -1.390625 0.671875 -1.1875 0.578125 -0.90625 C 0.46875 -0.5 0.640625 0 1.109375 0.0625 C 1.75 0.09375 2.328125 -0.15625 2.65625 -0.46875 L 2.5625 0 L 2.921875 0 C 3 0 3.0625 0.015625 3.0625 -0.078125 C 3.078125 -0.125 3.21875 -0.78125 3.21875 -0.78125 L 3.453125 -1.875 C 3.484375 -2.046875 3.546875 -2.21875 3.546875 -2.390625 C 3.578125 -2.703125 3.4375 -2.984375 3.234375 -3.15625 C 2.984375 -3.359375 2.671875 -3.390625 2.359375 -3.359375 C 2.140625 -3.359375 1.921875 -3.3125 1.703125 -3.25 C 1.640625 -3.234375 1.3125 -3.125 1.265625 -3.078125 C 1.25 -3.046875 1.203125 -2.75 1.203125 -2.640625 Z M 2.890625 -1.625 C 2.875 -1.484375 2.828125 -1.34375 2.796875 -1.203125 C 2.765625 -1.03125 2.734375 -0.84375 2.625 -0.703125 C 2.546875 -0.59375 2.421875 -0.515625 2.296875 -0.453125 C 1.9375 -0.296875 1.375 -0.25 1.125 -0.53125 C 0.984375 -0.6875 1.046875 -0.9375 1.171875 -1.09375 C 1.40625 -1.359375 1.765625 -1.46875 2.09375 -1.546875 C 2.359375 -1.59375 2.625 -1.625 2.890625 -1.625 Z M 2.890625 -1.625 "/>
</symbol>
<symbol overflow="visible" id="glyph0-3">
<path style="stroke:none;" d="M 1.609375 -4.84375 L 0.578125 0 C 0.75 0 0.9375 0 1.09375 -0.015625 C 1.140625 -0.15625 1.15625 -0.3125 1.1875 -0.46875 L 1.203125 -0.46875 C 1.265625 -0.3125 1.421875 -0.15625 1.546875 -0.078125 C 1.921875 0.140625 2.390625 0.0625 2.765625 -0.140625 C 3.453125 -0.515625 3.875 -1.3125 3.890625 -2.09375 C 3.90625 -2.578125 3.703125 -3.171875 3.171875 -3.3125 C 2.578125 -3.46875 1.96875 -3.078125 1.671875 -2.828125 L 2.109375 -4.84375 L 1.609375 -4.84375 Z M 3 -2.84375 C 3.0625 -2.8125 3.125 -2.765625 3.171875 -2.71875 C 3.421875 -2.453125 3.421875 -2.046875 3.34375 -1.703125 C 3.296875 -1.4375 3.203125 -1.1875 3.0625 -0.953125 C 2.8125 -0.578125 2.390625 -0.359375 1.9375 -0.328125 C 1.734375 -0.328125 1.546875 -0.375 1.421875 -0.53125 C 1.375 -0.578125 1.28125 -0.734375 1.28125 -0.8125 C 1.265625 -0.890625 1.296875 -0.96875 1.3125 -1.046875 C 1.359375 -1.296875 1.609375 -2.46875 1.640625 -2.515625 C 1.671875 -2.578125 1.75 -2.640625 1.8125 -2.6875 C 2.109375 -2.9375 2.59375 -3.0625 3 -2.84375 Z M 3 -2.84375 "/>
</symbol>
<symbol overflow="visible" id="glyph0-4">
<path style="stroke:none;" d="M 3.359375 -0.796875 C 3.25 -0.734375 3.15625 -0.671875 3.046875 -0.609375 C 2.765625 -0.46875 2.46875 -0.375 2.15625 -0.359375 C 1.9375 -0.34375 1.703125 -0.359375 1.515625 -0.484375 C 1.125 -0.75 1.09375 -1.265625 1.203125 -1.734375 C 1.34375 -2.265625 1.703125 -2.78125 2.265625 -2.921875 C 2.4375 -2.96875 2.609375 -2.96875 2.78125 -2.96875 C 3.078125 -2.953125 3.296875 -2.890625 3.515625 -2.75 C 3.5625 -2.703125 3.609375 -2.671875 3.671875 -2.65625 L 3.828125 -3.078125 C 3.46875 -3.28125 3.140625 -3.40625 2.5625 -3.375 C 2.046875 -3.328125 1.65625 -3.09375 1.34375 -2.8125 C 0.796875 -2.3125 0.296875 -1.1875 0.921875 -0.40625 C 0.984375 -0.328125 1.046875 -0.265625 1.125 -0.203125 C 1.578125 0.140625 2.203125 0.09375 2.734375 -0.078125 C 2.84375 -0.125 3.21875 -0.28125 3.296875 -0.375 C 3.328125 -0.421875 3.359375 -0.78125 3.359375 -0.796875 Z M 3.359375 -0.796875 "/>
</symbol>
<symbol overflow="visible" id="glyph0-5">
<path style="stroke:none;" d="M 0.75 -3.296875 C 0.828125 -3.140625 0.921875 -3.015625 1.015625 -2.875 C 1.078125 -2.796875 1.6875 -1.875 1.71875 -1.84375 C 1.734375 -1.8125 1.796875 -1.75 1.796875 -1.703125 C 1.796875 -1.65625 1.71875 -1.609375 1.6875 -1.578125 C 1.375 -1.296875 0.046875 -0.046875 0 0 C 0.1875 0 0.375 0 0.53125 0 L 0.6875 -0.140625 L 1.984375 -1.4375 C 2.265625 -0.953125 2.53125 -0.46875 2.84375 -0.015625 C 3.015625 0 3.203125 0 3.390625 0 C 3.296875 -0.140625 2.359375 -1.53125 2.328125 -1.5625 C 2.3125 -1.609375 2.265625 -1.65625 2.265625 -1.6875 C 2.28125 -1.734375 2.34375 -1.78125 2.375 -1.8125 C 2.484375 -1.921875 2.59375 -2.015625 2.703125 -2.125 C 2.8125 -2.21875 3.921875 -3.25 3.953125 -3.296875 C 3.765625 -3.296875 3.59375 -3.296875 3.421875 -3.28125 C 2.96875 -2.875 2.546875 -2.4375 2.09375 -2.03125 C 1.828125 -2.453125 1.578125 -2.890625 1.28125 -3.28125 C 1.109375 -3.296875 0.921875 -3.296875 0.75 -3.296875 Z M 0.75 -3.296875 "/>
</symbol>
<symbol overflow="visible" id="glyph1-0">
<path style="stroke:none;" d=""/>
</symbol>
<symbol overflow="visible" id="glyph1-1">
<path style="stroke:none;" d="M 0.78125 -4.21875 L 0.78125 -3.828125 C 1.125 -3.828125 1.46875 -3.890625 1.78125 -4.03125 L 1.78125 -0.390625 L 0.8125 -0.390625 L 0.8125 0 L 3.25 0 L 3.25 -0.390625 L 2.28125 -0.390625 L 2.28125 -4.6875 C 2.25 -4.6875 2.1875 -4.6875 2.15625 -4.671875 C 2.109375 -4.65625 2.0625 -4.59375 2.015625 -4.5625 C 1.734375 -4.328125 1.21875 -4.21875 0.78125 -4.21875 Z M 0.78125 -4.21875 "/>
</symbol>
<symbol overflow="visible" id="glyph1-2">
<path style="stroke:none;" d="M 0.625 -3.203125 C 0.734375 -3.609375 0.90625 -4.046875 1.34375 -4.203125 C 1.5 -4.265625 1.671875 -4.28125 1.859375 -4.265625 C 2.21875 -4.234375 2.578125 -4.09375 2.796875 -3.78125 C 2.9375 -3.578125 2.984375 -3.328125 2.953125 -3.078125 C 2.875 -2.40625 2.28125 -1.984375 1.796875 -1.609375 C 1.40625 -1.3125 0.59375 -0.59375 0.59375 -0.59375 L 0.453125 -0.484375 C 0.390625 -0.40625 0.390625 -0.421875 0.390625 -0.265625 L 0.390625 0 L 3.484375 0 L 3.484375 -0.4375 L 0.84375 -0.4375 C 1.109375 -0.671875 1.90625 -1.34375 2.140625 -1.515625 C 2.578125 -1.84375 3.0625 -2.15625 3.34375 -2.640625 C 3.640625 -3.203125 3.453125 -3.921875 2.96875 -4.3125 C 2.4375 -4.765625 1.46875 -4.828125 0.875 -4.390625 C 0.65625 -4.234375 0.5 -3.984375 0.390625 -3.734375 C 0.375 -3.671875 0.328125 -3.609375 0.328125 -3.546875 C 0.34375 -3.515625 0.390625 -3.484375 0.40625 -3.4375 C 0.46875 -3.359375 0.546875 -3.265625 0.625 -3.203125 Z M 0.625 -3.203125 "/>
</symbol>
</g>
<clipPath id="clip1">
  <path d="M -189 666 L 423 666 L 423 -126 L -189 -126 L -189 666 Z M -189 666 "/>
</clipPath>
<clipPath id="clip2">
  <path d="M 0.6875 147.246094 L 232.5625 147.246094 L 232.5625 -1.199219 L 0.6875 -1.199219 L 0.6875 147.246094 Z M 0.6875 147.246094 "/>
</clipPath>
<clipPath id="clip3">
  <path d="M -189 666 L 423 666 L 423 -126 L -189 -126 L -189 666 Z M -189 666 "/>
</clipPath>
<clipPath id="clip4">
  <path d="M 0.6875 147.246094 L 232.5625 147.246094 L 232.5625 -1.199219 L 0.6875 -1.199219 L 0.6875 147.246094 Z M 0.6875 147.246094 "/>
</clipPath>
<clipPath id="clip5">
  <path d="M 230.722656 0.246094 L 230.722656 147.246094 L 219.167969 147.246094 L 219.167969 0.246094 "/>
</clipPath>
<clipPath id="clip6">
  <path d="M -189 666 L 423 666 L 423 -126 L -189 -126 L -189 666 Z M -189 666 "/>
</clipPath>
<clipPath id="clip7">
  <path d="M 0.6875 147.246094 L 232.5625 147.246094 L 232.5625 -1.199219 L 0.6875 -1.199219 L 0.6875 147.246094 Z M 0.6875 147.246094 "/>
</clipPath>
<clipPath id="clip8">
  <path d="M 104.597656 0.246094 L 104.597656 56.667969 L 99.695313 56.667969 L 99.695313 0.246094 "/>
</clipPath>
<clipPath id="clip9">
  <path d="M -189 666 L 423 666 L 423 -126 L -189 -126 L -189 666 Z M -189 666 "/>
</clipPath>
<clipPath id="clip10">
  <path d="M 0.6875 147.246094 L 232.5625 147.246094 L 232.5625 -1.199219 L 0.6875 -1.199219 L 0.6875 147.246094 Z M 0.6875 147.246094 "/>
</clipPath>
<clipPath id="clip11">
  <path d="M 99.695313 147.246094 L 99.695313 92.40625 L 104.597656 92.40625 L 104.597656 147.246094 "/>
</clipPath>
<clipPath id="clip12">
  <path d="M -189 666 L 423 666 L 423 -126 L -189 -126 L -189 666 Z M -189 666 "/>
</clipPath>
<clipPath id="clip13">
  <path d="M 0.6875 147.246094 L 232.5625 147.246094 L 232.5625 -1.199219 L 0.6875 -1.199219 L 0.6875 147.246094 Z M 0.6875 147.246094 "/>
</clipPath>
<clipPath id="clip14">
  <path d="M 171.300781 0.246094 L 171.300781 37.4375 L 166.398438 37.4375 L 166.398438 0.246094 "/>
</clipPath>
<clipPath id="clip15">
  <path d="M -189 666 L 423 666 L 423 -126 L -189 -126 L -189 666 Z M -189 666 "/>
</clipPath>
<clipPath id="clip16">
  <path d="M 0.6875 147.246094 L 232.5625 147.246094 L 232.5625 -1.199219 L 0.6875 -1.199219 L 0.6875 147.246094 Z M 0.6875 147.246094 "/>
</clipPath>
<clipPath id="clip17">
  <path d="M 166.398438 147.230469 L 166.398438 110.828125 L 171.300781 110.828125 L 171.300781 147.230469 "/>
</clipPath>
<clipPath id="clip18">
  <path d="M -189 666 L 423 666 L 423 -126 L -189 -126 L -189 666 Z M -189 666 "/>
</clipPath>
<clipPath id="clip19">
  <path d="M 0.6875 147.246094 L 232.5625 147.246094 L 232.5625 -1.199219 L 0.6875 -1.199219 L 0.6875 147.246094 Z M 0.6875 147.246094 "/>
</clipPath>
<clipPath id="clip20">
  <path d="M 171.300781 44.175781 L 166.398438 44.175781 L 166.398438 70.761719 L 171.300781 70.761719 L 171.300781 44.175781 Z M 171.300781 44.175781 "/>
</clipPath>
<clipPath id="clip21">
  <path d="M -189 666 L 423 666 L 423 -126 L -189 -126 L -189 666 Z M -189 666 "/>
</clipPath>
<clipPath id="clip22">
  <path d="M 0.6875 147.246094 L 232.5625 147.246094 L 232.5625 -1.199219 L 0.6875 -1.199219 L 0.6875 147.246094 Z M 0.6875 147.246094 "/>
</clipPath>
<clipPath id="clip23">
  <path d="M 171.300781 77.5 L 166.398438 77.5 L 166.398438 104.089844 L 171.300781 104.089844 L 171.300781 77.5 Z M 171.300781 77.5 "/>
</clipPath>
<clipPath id="clip24">
  <path d="M -189 666 L 423 666 L 423 -126 L -189 -126 L -189 666 Z M -189 666 "/>
</clipPath>
<clipPath id="clip25">
  <path d="M 0.6875 147.246094 L 232.5625 147.246094 L 232.5625 -1.199219 L 0.6875 -1.199219 L 0.6875 147.246094 Z M 0.6875 147.246094 "/>
</clipPath>
<clipPath id="clip26">
  <path d="M 104.597656 62.871094 L 99.695313 62.871094 L 99.695313 86.207031 L 104.597656 86.207031 L 104.597656 62.871094 Z M 104.597656 62.871094 "/>
</clipPath>
<clipPath id="clip27">
  <path d="M -189 666 L 423 666 L 423 -126 L -189 -126 L -189 666 Z M -189 666 "/>
</clipPath>
<clipPath id="clip28">
  <path d="M 0.6875 147.246094 L 232.5625 147.246094 L 232.5625 -1.199219 L 0.6875 -1.199219 L 0.6875 147.246094 Z M 0.6875 147.246094 "/>
</clipPath>
<clipPath id="clip29">
  <path d="M -189 666 L 423 666 L 423 -126 L -189 -126 L -189 666 Z M -189 666 "/>
</clipPath>
</defs>
<g id="surface0">
<g clip-path="url(#clip1)" clip-rule="nonzero">
<g clip-path="url(#clip2)" clip-rule="nonzero">
<path style="fill:none;stroke-width:5;stroke-linecap:butt;stroke-linejoin:miter;stroke:rgb(0%,0%,0%);stroke-opacity:1;stroke-miterlimit:4;" d="M 1574.620763 1356.675458 L 1574.620763 1013.430264 L 1529.37628 1013.430264 L 1529.37628 1356.675458 " transform="matrix(0.108352,0,0,-0.108352,0.687,147.245)"/>
<path style="fill:none;stroke-width:3.8;stroke-linecap:butt;stroke-linejoin:miter;stroke:rgb(0%,0%,0%);stroke-opacity:1;stroke-dasharray:30,20;stroke-miterlimit:4;" d="M 247.208931 674.186773 L 726.9086 674.186773 " transform="matrix(0.108352,0,0,-0.108352,0.687,147.245)"/>
<path style=" stroke:none;fill-rule:nonzero;fill:rgb(0%,0%,0%);fill-opacity:1;" d="M 78.375 75.75 L 84.25 74.175781 L 78.375 72.601563 L 78.375 75.75 "/>
<path style="fill:none;stroke-width:5;stroke-linecap:butt;stroke-linejoin:miter;stroke:rgb(0%,0%,0%);stroke-opacity:1;stroke-dasharray:30,20;stroke-miterlimit:4;" d="M 246.956571 674.439133 L 645.792994 404.161933 " transform="matrix(0.108352,0,0,-0.108352,0.687,147.245)"/>
<path style=" stroke:none;fill-rule:nonzero;fill:rgb(0%,0%,0%);fill-opacity:1;" d="M 68.898438 104.136719 L 74.640625 106.128906 L 70.664063 101.53125 L 68.898438 104.136719 "/>
<path style="fill:none;stroke-width:5;stroke-linecap:butt;stroke-linejoin:miter;stroke:rgb(0%,0%,0%);stroke-opacity:1;stroke-dasharray:30,20;stroke-miterlimit:4;" d="M 247.208931 675.736983 L 654.55348 933.179891 " transform="matrix(0.108352,0,0,-0.108352,0.687,147.245)"/>
<path style=" stroke:none;fill-rule:nonzero;fill:rgb(0%,0%,0%);fill-opacity:1;" d="M 71.53125 48.019531 L 75.65625 43.554688 L 69.847656 45.359375 L 71.53125 48.019531 "/>
<path style="fill:none;stroke-width:5;stroke-linecap:butt;stroke-linejoin:miter;stroke:rgb(0%,0%,0%);stroke-opacity:1;stroke-dasharray:30,20;stroke-miterlimit:4;" d="M 247.208931 675.736983 L 695.003129 846.764732 " transform="matrix(0.108352,0,0,-0.108352,0.687,147.245)"/>
<path style=" stroke:none;fill-rule:nonzero;fill:rgb(0%,0%,0%);fill-opacity:1;" d="M 75.542969 57.328125 L 80.46875 53.765625 L 74.421875 54.390625 L 75.542969 57.328125 "/>
<path style="fill:none;stroke-width:5;stroke-linecap:butt;stroke-linejoin:miter;stroke:rgb(0%,0%,0%);stroke-opacity:1;stroke-dasharray:30,18;stroke-miterlimit:4;" d="M 247.208931 675.736983 L 936.367121 807.072162 L 1552.016547 674.36703 L 1924.715719 978.316219 " transform="matrix(0.108352,0,0,-0.108352,0.687,147.245)"/>
<path style="fill:none;stroke-width:5;stroke-linecap:butt;stroke-linejoin:miter;stroke:rgb(0%,0%,0%);stroke-opacity:1;stroke-dasharray:30,20;stroke-miterlimit:4;" d="M 247.208931 675.736983 L 682.961968 501.392506 " transform="matrix(0.108352,0,0,-0.108352,0.687,147.245)"/>
<path style=" stroke:none;fill-rule:nonzero;fill:rgb(0%,0%,0%);fill-opacity:1;" d="M 73.113281 93.964844 L 79.148438 94.683594 L 74.28125 91.039063 L 73.113281 93.964844 "/>
<path style="fill:none;stroke-width:5;stroke-linecap:butt;stroke-linejoin:miter;stroke:rgb(0%,0%,0%);stroke-opacity:1;stroke-dasharray:30,20;stroke-miterlimit:4;" d="M 247.208931 675.736983 L 705.205669 589.033412 " transform="matrix(0.108352,0,0,-0.108352,0.687,147.245)"/>
<path style=" stroke:none;fill-rule:nonzero;fill:rgb(0%,0%,0%);fill-opacity:1;" d="M 75.753906 84.75 L 81.816406 84.292969 L 76.339844 81.65625 L 75.753906 84.75 "/>
<path style="fill:none;stroke-width:5;stroke-linecap:butt;stroke-linejoin:miter;stroke:rgb(0%,0%,0%);stroke-opacity:1;stroke-miterlimit:4;" d="M 1925.977517 992.484412 L 1925.977517 973.341129 L 1992.744674 973.341129 L 1992.744674 946.98757 L 1925.977517 946.98757 L 1925.977517 927.844287 L 2017.151459 927.844287 L 2017.151459 992.484412 L 1925.977517 992.484412 Z M 1925.977517 992.484412 " transform="matrix(0.108352,0,0,-0.108352,0.687,147.245)"/>
<path style="fill:none;stroke-width:3.8;stroke-linecap:butt;stroke-linejoin:miter;stroke:rgb(0%,0%,0%);stroke-opacity:1;stroke-dasharray:30,19;stroke-miterlimit:4;" d="M 959.007388 674.36703 L 2016.39438 674.36703 " transform="matrix(0.108352,0,0,-0.108352,0.687,147.245)"/>
<path style="fill:none;stroke-width:3.8;stroke-linecap:butt;stroke-linejoin:miter;stroke:rgb(0%,0%,0%);stroke-opacity:1;stroke-dasharray:30,20;stroke-miterlimit:4;" d="M 738.841607 674.36703 L 913.762906 674.36703 " transform="matrix(0.108352,0,0,-0.108352,0.687,147.245)"/>
<path style=" stroke:none;fill-rule:nonzero;fill:rgb(100%,100%,100%);fill-opacity:1;" d="M 25.9375 73.203125 L 29.820313 69.324219 C 29.820313 69.324219 32.246094 73.035156 30.535156 77.09375 C 28.828125 81.148438 25.9375 73.203125 25.9375 73.203125 "/>
<path style="fill:none;stroke-width:5;stroke-linecap:butt;stroke-linejoin:miter;stroke:rgb(0%,0%,0%);stroke-opacity:1;stroke-miterlimit:4;" d="M 245.802927 650.753376 L 245.802927 588.781053 L 54.514302 588.781053 L 54.514302 626.382643 " transform="matrix(0.108352,0,0,-0.108352,0.687,147.245)"/>
<path style="fill:none;stroke-width:5;stroke-linecap:butt;stroke-linejoin:miter;stroke:rgb(0%,0%,0%);stroke-opacity:1;stroke-miterlimit:4;" d="M 54.514302 718.025252 L 54.514302 759.340134 L 245.802927 759.340134 L 245.802927 702.126593 " transform="matrix(0.108352,0,0,-0.108352,0.687,147.245)"/>
<path style="fill:none;stroke-width:5;stroke-linecap:butt;stroke-linejoin:miter;stroke:rgb(0%,0%,0%);stroke-opacity:1;stroke-miterlimit:4;" d="M 0.00461458 645.742234 C 0.00461458 645.742234 132.349233 645.742234 132.745798 645.742234 C 143.056493 645.742234 152.826417 648.950807 155.422116 659.838324 C 157.62125 668.995374 151.023848 680.820227 140.352639 680.712073 C 132.529489 680.63997 131.520051 667.733576 140.821307 667.697525 C 149.978358 667.625422 158.558586 681.180741 155.133705 690.265689 C 151.816978 699.062226 137.901145 702.415004 129.717482 702.415004 C 113.963028 702.415004 98.208575 702.378953 82.490173 702.378953 C 55.487689 702.378953 28.521257 702.378953 1.554824 702.378953 " transform="matrix(0.108352,0,0,-0.108352,0.687,147.245)"/>
</g>
</g>
<g clip-path="url(#clip3)" clip-rule="nonzero">
<g clip-path="url(#clip4)" clip-rule="nonzero">
<g clip-path="url(#clip5)" clip-rule="nonzero">
<path style=" stroke:none;fill-rule:nonzero;fill:rgb(100%,100%,100%);fill-opacity:1;" d="M 247.910156 128.921875 L 227.160156 149.671875 "/>
<path style="fill-rule:nonzero;fill:rgb(100%,100%,100%);fill-opacity:1;stroke-width:4;stroke-linecap:butt;stroke-linejoin:miter;stroke:rgb(0%,0%,0%);stroke-opacity:1;stroke-miterlimit:4;" d="M 2295.792579 154.938739 L 2104.323697 -36.566194 " transform="matrix(0.108352,0,0,-0.108352,0.687,147.245)"/>
<path style=" stroke:none;fill-rule:nonzero;fill:rgb(100%,100%,100%);fill-opacity:1;" d="M 238.71875 119.730469 L 217.96875 140.480469 "/>
<path style="fill-rule:nonzero;fill:rgb(100%,100%,100%);fill-opacity:1;stroke-width:4;stroke-linecap:butt;stroke-linejoin:miter;stroke:rgb(0%,0%,0%);stroke-opacity:1;stroke-miterlimit:4;" d="M 2210.963681 239.803689 L 2019.458747 48.298756 " transform="matrix(0.108352,0,0,-0.108352,0.687,147.245)"/>
<path style="fill-rule:nonzero;fill:rgb(100%,100%,100%);fill-opacity:1;stroke-width:4;stroke-linecap:butt;stroke-linejoin:miter;stroke:rgb(0%,0%,0%);stroke-opacity:1;stroke-miterlimit:4;" d="M 2239.227963 211.539407 L 2047.723029 20.034473 " transform="matrix(0.108352,0,0,-0.108352,0.687,147.245)"/>
<path style="fill-rule:nonzero;fill:rgb(100%,100%,100%);fill-opacity:1;stroke-width:4;stroke-linecap:butt;stroke-linejoin:miter;stroke:rgb(0%,0%,0%);stroke-opacity:1;stroke-miterlimit:4;" d="M 2267.528297 183.239073 L 2076.023363 -8.265861 " transform="matrix(0.108352,0,0,-0.108352,0.687,147.245)"/>
<path style=" stroke:none;fill-rule:nonzero;fill:rgb(100%,100%,100%);fill-opacity:1;" d="M 247.910156 128.921875 L 227.160156 149.671875 "/>
<path style="fill-rule:nonzero;fill:rgb(100%,100%,100%);fill-opacity:1;stroke-width:4;stroke-linecap:butt;stroke-linejoin:miter;stroke:rgb(0%,0%,0%);stroke-opacity:1;stroke-miterlimit:4;" d="M 2019.458747 48.298756 L 1827.953814 -143.206178 " transform="matrix(0.108352,0,0,-0.108352,0.687,147.245)"/>
<path style="fill-rule:nonzero;fill:rgb(100%,100%,100%);fill-opacity:1;stroke-width:4;stroke-linecap:butt;stroke-linejoin:miter;stroke:rgb(0%,0%,0%);stroke-opacity:1;stroke-miterlimit:4;" d="M 2047.723029 20.034473 L 1856.218096 -171.47046 " transform="matrix(0.108352,0,0,-0.108352,0.687,147.245)"/>
<path style=" stroke:none;fill-rule:nonzero;fill:rgb(100%,100%,100%);fill-opacity:1;" d="M 250.273438 89.785156 L 229.523438 110.535156 "/>
<path style="fill:none;stroke-width:4;stroke-linecap:butt;stroke-linejoin:miter;stroke:rgb(0%,0%,0%);stroke-opacity:1;stroke-miterlimit:4;" d="M 2317.603664 516.173572 L 2126.098731 324.668639 " transform="matrix(0.108352,0,0,-0.108352,0.687,147.245)"/>
<path style=" stroke:none;fill-rule:nonzero;fill:rgb(100%,100%,100%);fill-opacity:1;" d="M 229.523438 110.535156 L 208.773438 131.285156 "/>
<path style="fill-rule:nonzero;fill:rgb(100%,100%,100%);fill-opacity:1;stroke-width:4;stroke-linecap:butt;stroke-linejoin:miter;stroke:rgb(0%,0%,0%);stroke-opacity:1;stroke-miterlimit:4;" d="M 2126.098731 324.668639 L 1934.593797 133.163705 " transform="matrix(0.108352,0,0,-0.108352,0.687,147.245)"/>
<path style="fill-rule:nonzero;fill:rgb(100%,100%,100%);fill-opacity:1;stroke-width:4;stroke-linecap:butt;stroke-linejoin:miter;stroke:rgb(0%,0%,0%);stroke-opacity:1;stroke-miterlimit:4;" d="M 2154.399064 296.368305 L 1962.894131 104.863372 " transform="matrix(0.108352,0,0,-0.108352,0.687,147.245)"/>
<path style="fill-rule:nonzero;fill:rgb(100%,100%,100%);fill-opacity:1;stroke-width:4;stroke-linecap:butt;stroke-linejoin:miter;stroke:rgb(0%,0%,0%);stroke-opacity:1;stroke-miterlimit:4;" d="M 2182.663347 268.104023 L 1991.158413 76.599089 " transform="matrix(0.108352,0,0,-0.108352,0.687,147.245)"/>
<path style=" stroke:none;fill-rule:nonzero;fill:rgb(100%,100%,100%);fill-opacity:1;" d="M 238.71875 119.730469 L 217.96875 140.480469 "/>
<path style=" stroke:none;fill-rule:nonzero;fill:rgb(100%,100%,100%);fill-opacity:1;" d="M 241.078125 80.589844 L 220.328125 101.339844 "/>
<path style="fill-rule:nonzero;fill:rgb(100%,100%,100%);fill-opacity:1;stroke-width:4;stroke-linecap:butt;stroke-linejoin:miter;stroke:rgb(0%,0%,0%);stroke-opacity:1;stroke-miterlimit:4;" d="M 2232.738714 601.002471 L 2041.233781 409.497537 " transform="matrix(0.108352,0,0,-0.108352,0.687,147.245)"/>
<path style="fill-rule:nonzero;fill:rgb(100%,100%,100%);fill-opacity:1;stroke-width:4;stroke-linecap:butt;stroke-linejoin:miter;stroke:rgb(0%,0%,0%);stroke-opacity:1;stroke-miterlimit:4;" d="M 2261.039048 572.738188 L 2069.534115 381.233255 " transform="matrix(0.108352,0,0,-0.108352,0.687,147.245)"/>
<path style="fill-rule:nonzero;fill:rgb(100%,100%,100%);fill-opacity:1;stroke-width:4;stroke-linecap:butt;stroke-linejoin:miter;stroke:rgb(0%,0%,0%);stroke-opacity:1;stroke-miterlimit:4;" d="M 2289.339382 544.437855 L 2097.834448 352.932921 " transform="matrix(0.108352,0,0,-0.108352,0.687,147.245)"/>
<path style=" stroke:none;fill-rule:nonzero;fill:rgb(100%,100%,100%);fill-opacity:1;" d="M 250.273438 89.785156 L 229.523438 110.535156 "/>
<path style=" stroke:none;fill-rule:nonzero;fill:rgb(100%,100%,100%);fill-opacity:1;" d="M 220.328125 101.339844 L 199.578125 122.089844 "/>
<path style="fill-rule:nonzero;fill:rgb(100%,100%,100%);fill-opacity:1;stroke-width:4;stroke-linecap:butt;stroke-linejoin:miter;stroke:rgb(0%,0%,0%);stroke-opacity:1;stroke-miterlimit:4;" d="M 2041.233781 409.497537 L 1849.764899 217.992604 " transform="matrix(0.108352,0,0,-0.108352,0.687,147.245)"/>
<path style="fill-rule:nonzero;fill:rgb(100%,100%,100%);fill-opacity:1;stroke-width:4;stroke-linecap:butt;stroke-linejoin:miter;stroke:rgb(0%,0%,0%);stroke-opacity:1;stroke-miterlimit:4;" d="M 2069.534115 381.233255 L 1878.029181 189.728321 " transform="matrix(0.108352,0,0,-0.108352,0.687,147.245)"/>
<path style="fill-rule:nonzero;fill:rgb(100%,100%,100%);fill-opacity:1;stroke-width:4;stroke-linecap:butt;stroke-linejoin:miter;stroke:rgb(0%,0%,0%);stroke-opacity:1;stroke-miterlimit:4;" d="M 2097.834448 352.932921 L 1906.329515 161.427988 " transform="matrix(0.108352,0,0,-0.108352,0.687,147.245)"/>
<path style=" stroke:none;fill-rule:nonzero;fill:rgb(100%,100%,100%);fill-opacity:1;" d="M 229.523438 110.535156 L 208.773438 131.285156 "/>
<path style=" stroke:none;fill-rule:nonzero;fill:rgb(100%,100%,100%);fill-opacity:1;" d="M 231.886719 71.398438 L 211.136719 92.148438 "/>
<path style="fill-rule:nonzero;fill:rgb(100%,100%,100%);fill-opacity:1;stroke-width:4;stroke-linecap:butt;stroke-linejoin:miter;stroke:rgb(0%,0%,0%);stroke-opacity:1;stroke-miterlimit:4;" d="M 2147.909816 685.86742 L 1956.404882 494.362487 " transform="matrix(0.108352,0,0,-0.108352,0.687,147.245)"/>
<path style="fill-rule:nonzero;fill:rgb(100%,100%,100%);fill-opacity:1;stroke-width:4;stroke-linecap:butt;stroke-linejoin:miter;stroke:rgb(0%,0%,0%);stroke-opacity:1;stroke-miterlimit:4;" d="M 2176.174098 657.567087 L 1984.669165 466.098205 " transform="matrix(0.108352,0,0,-0.108352,0.687,147.245)"/>
<path style="fill-rule:nonzero;fill:rgb(100%,100%,100%);fill-opacity:1;stroke-width:4;stroke-linecap:butt;stroke-linejoin:miter;stroke:rgb(0%,0%,0%);stroke-opacity:1;stroke-miterlimit:4;" d="M 2204.474432 629.302804 L 2012.969499 437.797871 " transform="matrix(0.108352,0,0,-0.108352,0.687,147.245)"/>
<path style=" stroke:none;fill-rule:nonzero;fill:rgb(100%,100%,100%);fill-opacity:1;" d="M 241.078125 80.589844 L 220.328125 101.339844 "/>
<path style="fill:none;stroke-width:4;stroke-linecap:butt;stroke-linejoin:miter;stroke:rgb(0%,0%,0%);stroke-opacity:1;stroke-miterlimit:4;" d="M 2012.969499 437.797871 L 1821.464565 246.292937 " transform="matrix(0.108352,0,0,-0.108352,0.687,147.245)"/>
<path style=" stroke:none;fill-rule:nonzero;fill:rgb(100%,100%,100%);fill-opacity:1;" d="M 220.328125 101.339844 L 199.578125 122.089844 "/>
<path style=" stroke:none;fill-rule:nonzero;fill:rgb(100%,100%,100%);fill-opacity:1;" d="M 243.441406 41.453125 L 222.691406 62.203125 "/>
<path style="fill-rule:nonzero;fill:rgb(100%,100%,100%);fill-opacity:1;stroke-width:4;stroke-linecap:butt;stroke-linejoin:miter;stroke:rgb(0%,0%,0%);stroke-opacity:1;stroke-miterlimit:4;" d="M 2254.5498 962.237304 L 2063.044866 770.73237 " transform="matrix(0.108352,0,0,-0.108352,0.687,147.245)"/>
<path style="fill-rule:nonzero;fill:rgb(100%,100%,100%);fill-opacity:1;stroke-width:4;stroke-linecap:butt;stroke-linejoin:miter;stroke:rgb(0%,0%,0%);stroke-opacity:1;stroke-miterlimit:4;" d="M 2282.814082 933.93697 L 2091.3452 742.432037 " transform="matrix(0.108352,0,0,-0.108352,0.687,147.245)"/>
<path style="fill-rule:nonzero;fill:rgb(100%,100%,100%);fill-opacity:1;stroke-width:4;stroke-linecap:butt;stroke-linejoin:miter;stroke:rgb(0%,0%,0%);stroke-opacity:1;stroke-miterlimit:4;" d="M 2311.114416 905.636636 L 2119.609482 714.131703 " transform="matrix(0.108352,0,0,-0.108352,0.687,147.245)"/>
<path style=" stroke:none;fill-rule:nonzero;fill:rgb(100%,100%,100%);fill-opacity:1;" d="M 222.691406 62.203125 L 201.941406 82.953125 "/>
<path style="fill-rule:nonzero;fill:rgb(100%,100%,100%);fill-opacity:1;stroke-width:4;stroke-linecap:butt;stroke-linejoin:miter;stroke:rgb(0%,0%,0%);stroke-opacity:1;stroke-miterlimit:4;" d="M 2063.044866 770.73237 L 1871.539933 579.227437 " transform="matrix(0.108352,0,0,-0.108352,0.687,147.245)"/>
<path style="fill-rule:nonzero;fill:rgb(100%,100%,100%);fill-opacity:1;stroke-width:4;stroke-linecap:butt;stroke-linejoin:miter;stroke:rgb(0%,0%,0%);stroke-opacity:1;stroke-miterlimit:4;" d="M 2091.3452 742.432037 L 1899.804215 550.927103 " transform="matrix(0.108352,0,0,-0.108352,0.687,147.245)"/>
<path style="fill-rule:nonzero;fill:rgb(100%,100%,100%);fill-opacity:1;stroke-width:4;stroke-linecap:butt;stroke-linejoin:miter;stroke:rgb(0%,0%,0%);stroke-opacity:1;stroke-miterlimit:4;" d="M 2119.609482 714.167754 L 1928.104549 522.662821 " transform="matrix(0.108352,0,0,-0.108352,0.687,147.245)"/>
<path style=" stroke:none;fill-rule:nonzero;fill:rgb(100%,100%,100%);fill-opacity:1;" d="M 231.886719 71.398438 L 211.136719 92.148438 "/>
<path style=" stroke:none;fill-rule:nonzero;fill:rgb(100%,100%,100%);fill-opacity:1;" d="M 234.246094 32.257813 L 213.496094 53.011719 "/>
<path style="fill-rule:nonzero;fill:rgb(100%,100%,100%);fill-opacity:1;stroke-width:4;stroke-linecap:butt;stroke-linejoin:miter;stroke:rgb(0%,0%,0%);stroke-opacity:1;stroke-miterlimit:4;" d="M 2169.720901 1047.066202 L 1978.215968 855.561269 " transform="matrix(0.108352,0,0,-0.108352,0.687,147.245)"/>
<path style="fill-rule:nonzero;fill:rgb(100%,100%,100%);fill-opacity:1;stroke-width:4;stroke-linecap:butt;stroke-linejoin:miter;stroke:rgb(0%,0%,0%);stroke-opacity:1;stroke-miterlimit:4;" d="M 2197.985184 1018.80192 L 2006.48025 827.296986 " transform="matrix(0.108352,0,0,-0.108352,0.687,147.245)"/>
<path style="fill-rule:nonzero;fill:rgb(100%,100%,100%);fill-opacity:1;stroke-width:4;stroke-linecap:butt;stroke-linejoin:miter;stroke:rgb(0%,0%,0%);stroke-opacity:1;stroke-miterlimit:4;" d="M 2226.285517 990.501586 L 2034.780584 798.996653 " transform="matrix(0.108352,0,0,-0.108352,0.687,147.245)"/>
<path style=" stroke:none;fill-rule:nonzero;fill:rgb(100%,100%,100%);fill-opacity:1;" d="M 243.441406 41.453125 L 222.691406 62.203125 "/>
<path style="fill-rule:nonzero;fill:rgb(100%,100%,100%);fill-opacity:1;stroke-width:4;stroke-linecap:butt;stroke-linejoin:miter;stroke:rgb(0%,0%,0%);stroke-opacity:1;stroke-miterlimit:4;" d="M 2034.780584 798.996653 L 1843.27565 607.491719 " transform="matrix(0.108352,0,0,-0.108352,0.687,147.245)"/>
<path style=" stroke:none;fill-rule:nonzero;fill:rgb(100%,100%,100%);fill-opacity:1;" d="M 222.691406 62.203125 L 201.941406 82.953125 "/>
<path style=" stroke:none;fill-rule:nonzero;fill:rgb(100%,100%,100%);fill-opacity:1;" d="M 245.804688 2.316406 L 225.054688 23.066406 "/>
<path style="fill-rule:nonzero;fill:rgb(100%,100%,100%);fill-opacity:1;stroke-width:4;stroke-linecap:butt;stroke-linejoin:miter;stroke:rgb(0%,0%,0%);stroke-opacity:1;stroke-miterlimit:4;" d="M 2276.360885 1323.436085 L 2084.855951 1131.931152 " transform="matrix(0.108352,0,0,-0.108352,0.687,147.245)"/>
<path style="fill-rule:nonzero;fill:rgb(100%,100%,100%);fill-opacity:1;stroke-width:4;stroke-linecap:butt;stroke-linejoin:miter;stroke:rgb(0%,0%,0%);stroke-opacity:1;stroke-miterlimit:4;" d="M 2304.625167 1295.135752 L 2113.156285 1103.630818 " transform="matrix(0.108352,0,0,-0.108352,0.687,147.245)"/>
<path style=" stroke:none;fill-rule:nonzero;fill:rgb(100%,100%,100%);fill-opacity:1;" d="M 225.054688 23.066406 L 204.304688 43.816406 "/>
<path style="fill-rule:nonzero;fill:rgb(100%,100%,100%);fill-opacity:1;stroke-width:4;stroke-linecap:butt;stroke-linejoin:miter;stroke:rgb(0%,0%,0%);stroke-opacity:1;stroke-miterlimit:4;" d="M 2084.855951 1131.931152 L 1893.351018 940.426218 " transform="matrix(0.108352,0,0,-0.108352,0.687,147.245)"/>
<path style="fill-rule:nonzero;fill:rgb(100%,100%,100%);fill-opacity:1;stroke-width:4;stroke-linecap:butt;stroke-linejoin:miter;stroke:rgb(0%,0%,0%);stroke-opacity:1;stroke-miterlimit:4;" d="M 2113.156285 1103.630818 L 1921.6153 912.125885 " transform="matrix(0.108352,0,0,-0.108352,0.687,147.245)"/>
<path style="fill-rule:nonzero;fill:rgb(100%,100%,100%);fill-opacity:1;stroke-width:4;stroke-linecap:butt;stroke-linejoin:miter;stroke:rgb(0%,0%,0%);stroke-opacity:1;stroke-miterlimit:4;" d="M 2141.420567 1075.366536 L 1949.915634 883.861602 " transform="matrix(0.108352,0,0,-0.108352,0.687,147.245)"/>
<path style=" stroke:none;fill-rule:nonzero;fill:rgb(100%,100%,100%);fill-opacity:1;" d="M 234.246094 32.257813 L 213.496094 53.011719 "/>
<path style=" stroke:none;fill-rule:nonzero;fill:rgb(100%,100%,100%);fill-opacity:1;" d="M 236.609375 -6.878906 L 215.859375 13.871094 "/>
<path style="fill-rule:nonzero;fill:rgb(100%,100%,100%);fill-opacity:1;stroke-width:4;stroke-linecap:butt;stroke-linejoin:miter;stroke:rgb(0%,0%,0%);stroke-opacity:1;stroke-miterlimit:4;" d="M 2191.495935 1408.264984 L 1999.991002 1216.796102 " transform="matrix(0.108352,0,0,-0.108352,0.687,147.245)"/>
<path style="fill-rule:nonzero;fill:rgb(100%,100%,100%);fill-opacity:1;stroke-width:4;stroke-linecap:butt;stroke-linejoin:miter;stroke:rgb(0%,0%,0%);stroke-opacity:1;stroke-miterlimit:4;" d="M 2219.796269 1380.000701 L 2028.291335 1188.495768 " transform="matrix(0.108352,0,0,-0.108352,0.687,147.245)"/>
<path style="fill-rule:nonzero;fill:rgb(100%,100%,100%);fill-opacity:1;stroke-width:4;stroke-linecap:butt;stroke-linejoin:miter;stroke:rgb(0%,0%,0%);stroke-opacity:1;stroke-miterlimit:4;" d="M 2248.096602 1351.700368 L 2056.555618 1160.195434 " transform="matrix(0.108352,0,0,-0.108352,0.687,147.245)"/>
<path style=" stroke:none;fill-rule:nonzero;fill:rgb(100%,100%,100%);fill-opacity:1;" d="M 245.804688 2.316406 L 225.054688 23.066406 "/>
<path style="fill-rule:nonzero;fill:rgb(100%,100%,100%);fill-opacity:1;stroke-width:4;stroke-linecap:butt;stroke-linejoin:miter;stroke:rgb(0%,0%,0%);stroke-opacity:1;stroke-miterlimit:4;" d="M 2028.291335 1188.495768 L 1836.786402 996.990835 " transform="matrix(0.108352,0,0,-0.108352,0.687,147.245)"/>
<path style="fill-rule:nonzero;fill:rgb(100%,100%,100%);fill-opacity:1;stroke-width:4;stroke-linecap:butt;stroke-linejoin:miter;stroke:rgb(0%,0%,0%);stroke-opacity:1;stroke-miterlimit:4;" d="M 2056.555618 1160.195434 L 1865.086736 968.690501 " transform="matrix(0.108352,0,0,-0.108352,0.687,147.245)"/>
<path style=" stroke:none;fill-rule:nonzero;fill:rgb(100%,100%,100%);fill-opacity:1;" d="M 225.054688 23.066406 L 204.304688 43.816406 "/>
<path style=" stroke:none;fill-rule:nonzero;fill:rgb(100%,100%,100%);fill-opacity:1;" d="M 227.414063 -16.070313 L 206.664063 4.679688 "/>
<path style="fill-rule:nonzero;fill:rgb(100%,100%,100%);fill-opacity:1;stroke-width:4;stroke-linecap:butt;stroke-linejoin:miter;stroke:rgb(0%,0%,0%);stroke-opacity:1;stroke-miterlimit:4;" d="M 2106.667037 1493.129934 L 1915.162103 1301.625 " transform="matrix(0.108352,0,0,-0.108352,0.687,147.245)"/>
<path style="fill-rule:nonzero;fill:rgb(100%,100%,100%);fill-opacity:1;stroke-width:4;stroke-linecap:butt;stroke-linejoin:miter;stroke:rgb(0%,0%,0%);stroke-opacity:1;stroke-miterlimit:4;" d="M 2134.931319 1464.865651 L 1943.426386 1273.324666 " transform="matrix(0.108352,0,0,-0.108352,0.687,147.245)"/>
<path style="fill-rule:nonzero;fill:rgb(100%,100%,100%);fill-opacity:1;stroke-width:4;stroke-linecap:butt;stroke-linejoin:miter;stroke:rgb(0%,0%,0%);stroke-opacity:1;stroke-miterlimit:4;" d="M 2163.231653 1436.565317 L 1971.726719 1245.060384 " transform="matrix(0.108352,0,0,-0.108352,0.687,147.245)"/>
<path style=" stroke:none;fill-rule:nonzero;fill:rgb(100%,100%,100%);fill-opacity:1;" d="M 236.609375 -6.878906 L 215.859375 13.871094 "/>
</g>
</g>
</g>
<g clip-path="url(#clip6)" clip-rule="nonzero">
<g clip-path="url(#clip7)" clip-rule="nonzero">
<g clip-path="url(#clip8)" clip-rule="nonzero">
<path style=" stroke:none;fill-rule:nonzero;fill:rgb(100%,100%,100%);fill-opacity:1;" d="M 116.832031 39.34375 L 96.082031 60.09375 "/>
<path style="fill-rule:nonzero;fill:rgb(100%,100%,100%);fill-opacity:1;stroke-width:4;stroke-linecap:butt;stroke-linejoin:miter;stroke:rgb(0%,0%,0%);stroke-opacity:1;stroke-miterlimit:4;" d="M 1086.052453 981.668998 L 894.583571 790.164064 " transform="matrix(0.108352,0,0,-0.108352,0.687,147.245)"/>
<path style="fill-rule:nonzero;fill:rgb(100%,100%,100%);fill-opacity:1;stroke-width:4;stroke-linecap:butt;stroke-linejoin:miter;stroke:rgb(0%,0%,0%);stroke-opacity:1;stroke-miterlimit:4;" d="M 1114.352787 953.404715 L 922.847854 761.899782 " transform="matrix(0.108352,0,0,-0.108352,0.687,147.245)"/>
<path style="fill-rule:nonzero;fill:rgb(100%,100%,100%);fill-opacity:1;stroke-width:4;stroke-linecap:butt;stroke-linejoin:miter;stroke:rgb(0%,0%,0%);stroke-opacity:1;stroke-miterlimit:4;" d="M 1142.653121 925.104382 L 951.148187 733.599448 " transform="matrix(0.108352,0,0,-0.108352,0.687,147.245)"/>
<path style=" stroke:none;fill-rule:nonzero;fill:rgb(100%,100%,100%);fill-opacity:1;" d="M 107.640625 30.152344 L 86.890625 50.902344 "/>
<path style="fill-rule:nonzero;fill:rgb(100%,100%,100%);fill-opacity:1;stroke-width:4;stroke-linecap:butt;stroke-linejoin:miter;stroke:rgb(0%,0%,0%);stroke-opacity:1;stroke-miterlimit:4;" d="M 1001.223555 1066.533948 L 809.718622 875.029014 " transform="matrix(0.108352,0,0,-0.108352,0.687,147.245)"/>
<path style="fill-rule:nonzero;fill:rgb(100%,100%,100%);fill-opacity:1;stroke-width:4;stroke-linecap:butt;stroke-linejoin:miter;stroke:rgb(0%,0%,0%);stroke-opacity:1;stroke-miterlimit:4;" d="M 1029.523889 1038.233614 L 838.018955 846.72868 " transform="matrix(0.108352,0,0,-0.108352,0.687,147.245)"/>
<path style="fill-rule:nonzero;fill:rgb(100%,100%,100%);fill-opacity:1;stroke-width:4;stroke-linecap:butt;stroke-linejoin:miter;stroke:rgb(0%,0%,0%);stroke-opacity:1;stroke-miterlimit:4;" d="M 1057.788171 1009.969332 L 866.283238 818.464398 " transform="matrix(0.108352,0,0,-0.108352,0.687,147.245)"/>
<path style=" stroke:none;fill-rule:nonzero;fill:rgb(100%,100%,100%);fill-opacity:1;" d="M 116.832031 39.34375 L 96.082031 60.09375 "/>
<path style=" stroke:none;fill-rule:nonzero;fill:rgb(100%,100%,100%);fill-opacity:1;" d="M 119.195313 0.207031 L 98.445313 20.957031 "/>
<path style="fill-rule:nonzero;fill:rgb(100%,100%,100%);fill-opacity:1;stroke-width:4;stroke-linecap:butt;stroke-linejoin:miter;stroke:rgb(0%,0%,0%);stroke-opacity:1;stroke-miterlimit:4;" d="M 1107.863539 1342.903831 L 916.358605 1151.398897 " transform="matrix(0.108352,0,0,-0.108352,0.687,147.245)"/>
<path style="fill-rule:nonzero;fill:rgb(100%,100%,100%);fill-opacity:1;stroke-width:4;stroke-linecap:butt;stroke-linejoin:miter;stroke:rgb(0%,0%,0%);stroke-opacity:1;stroke-miterlimit:4;" d="M 1136.163872 1314.603497 L 944.658939 1123.098564 " transform="matrix(0.108352,0,0,-0.108352,0.687,147.245)"/>
<path style="fill-rule:nonzero;fill:rgb(100%,100%,100%);fill-opacity:1;stroke-width:4;stroke-linecap:butt;stroke-linejoin:miter;stroke:rgb(0%,0%,0%);stroke-opacity:1;stroke-miterlimit:4;" d="M 916.358605 1151.398897 L 724.853672 959.893964 " transform="matrix(0.108352,0,0,-0.108352,0.687,147.245)"/>
<path style="fill-rule:nonzero;fill:rgb(100%,100%,100%);fill-opacity:1;stroke-width:4;stroke-linecap:butt;stroke-linejoin:miter;stroke:rgb(0%,0%,0%);stroke-opacity:1;stroke-miterlimit:4;" d="M 944.658939 1123.098564 L 753.154005 931.59363 " transform="matrix(0.108352,0,0,-0.108352,0.687,147.245)"/>
<path style="fill-rule:nonzero;fill:rgb(100%,100%,100%);fill-opacity:1;stroke-width:4;stroke-linecap:butt;stroke-linejoin:miter;stroke:rgb(0%,0%,0%);stroke-opacity:1;stroke-miterlimit:4;" d="M 972.923221 1094.834281 L 781.418288 903.329348 " transform="matrix(0.108352,0,0,-0.108352,0.687,147.245)"/>
<path style=" stroke:none;fill-rule:nonzero;fill:rgb(100%,100%,100%);fill-opacity:1;" d="M 107.640625 30.152344 L 86.890625 50.902344 "/>
<path style=" stroke:none;fill-rule:nonzero;fill:rgb(100%,100%,100%);fill-opacity:1;" d="M 110 -8.984375 L 89.25 11.761719 "/>
<path style="fill-rule:nonzero;fill:rgb(100%,100%,100%);fill-opacity:1;stroke-width:4;stroke-linecap:butt;stroke-linejoin:miter;stroke:rgb(0%,0%,0%);stroke-opacity:1;stroke-miterlimit:4;" d="M 1023.03464 1427.732729 L 831.529707 1236.227796 " transform="matrix(0.108352,0,0,-0.108352,0.687,147.245)"/>
<path style="fill-rule:nonzero;fill:rgb(100%,100%,100%);fill-opacity:1;stroke-width:4;stroke-linecap:butt;stroke-linejoin:miter;stroke:rgb(0%,0%,0%);stroke-opacity:1;stroke-miterlimit:4;" d="M 1051.298923 1399.432396 L 859.793989 1207.963513 " transform="matrix(0.108352,0,0,-0.108352,0.687,147.245)"/>
<path style="fill-rule:nonzero;fill:rgb(100%,100%,100%);fill-opacity:1;stroke-width:4;stroke-linecap:butt;stroke-linejoin:miter;stroke:rgb(0%,0%,0%);stroke-opacity:1;stroke-miterlimit:4;" d="M 1079.599256 1371.168113 L 888.094323 1179.66318 " transform="matrix(0.108352,0,0,-0.108352,0.687,147.245)"/>
<path style=" stroke:none;fill-rule:nonzero;fill:rgb(100%,100%,100%);fill-opacity:1;" d="M 119.195313 0.207031 L 98.445313 20.957031 "/>
<path style=" stroke:none;fill-rule:nonzero;fill:rgb(100%,100%,100%);fill-opacity:1;" d="M 100.808594 -18.179688 L 80.058594 2.570313 "/>
<path style="fill-rule:nonzero;fill:rgb(100%,100%,100%);fill-opacity:1;stroke-width:4;stroke-linecap:butt;stroke-linejoin:miter;stroke:rgb(0%,0%,0%);stroke-opacity:1;stroke-miterlimit:4;" d="M 938.16969 1512.597679 L 746.664757 1321.092746 " transform="matrix(0.108352,0,0,-0.108352,0.687,147.245)"/>
<path style="fill-rule:nonzero;fill:rgb(100%,100%,100%);fill-opacity:1;stroke-width:4;stroke-linecap:butt;stroke-linejoin:miter;stroke:rgb(0%,0%,0%);stroke-opacity:1;stroke-miterlimit:4;" d="M 966.470024 1484.297345 L 774.965091 1292.792412 " transform="matrix(0.108352,0,0,-0.108352,0.687,147.245)"/>
<path style="fill-rule:nonzero;fill:rgb(100%,100%,100%);fill-opacity:1;stroke-width:4;stroke-linecap:butt;stroke-linejoin:miter;stroke:rgb(0%,0%,0%);stroke-opacity:1;stroke-miterlimit:4;" d="M 994.734307 1456.033063 L 803.229373 1264.52813 " transform="matrix(0.108352,0,0,-0.108352,0.687,147.245)"/>
<path style=" stroke:none;fill-rule:nonzero;fill:rgb(100%,100%,100%);fill-opacity:1;" d="M 110 -8.984375 L 89.25 11.761719 "/>
</g>
</g>
</g>
<g clip-path="url(#clip9)" clip-rule="nonzero">
<g clip-path="url(#clip10)" clip-rule="nonzero">
<g clip-path="url(#clip11)" clip-rule="nonzero">
<path style=" stroke:none;fill-rule:nonzero;fill:rgb(100%,100%,100%);fill-opacity:1;" d="M 121.300781 126.816406 L 100.554688 147.566406 "/>
<path style="fill-rule:nonzero;fill:rgb(100%,100%,100%);fill-opacity:1;stroke-width:4;stroke-linecap:butt;stroke-linejoin:miter;stroke:rgb(0%,0%,0%);stroke-opacity:1;stroke-miterlimit:4;" d="M 1127.331284 174.406485 L 935.826351 -17.098449 " transform="matrix(0.108352,0,0,-0.108352,0.687,147.245)"/>
<path style=" stroke:none;fill-rule:nonzero;fill:rgb(100%,100%,100%);fill-opacity:1;" d="M 112.109375 117.621094 L 91.359375 138.371094 "/>
<path style="fill-rule:nonzero;fill:rgb(100%,100%,100%);fill-opacity:1;stroke-width:4;stroke-linecap:butt;stroke-linejoin:miter;stroke:rgb(0%,0%,0%);stroke-opacity:1;stroke-miterlimit:4;" d="M 1042.466334 259.271434 L 850.961401 67.766501 " transform="matrix(0.108352,0,0,-0.108352,0.687,147.245)"/>
<path style="fill-rule:nonzero;fill:rgb(100%,100%,100%);fill-opacity:1;stroke-width:4;stroke-linecap:butt;stroke-linejoin:miter;stroke:rgb(0%,0%,0%);stroke-opacity:1;stroke-miterlimit:4;" d="M 1070.766668 230.971101 L 879.261735 39.466167 " transform="matrix(0.108352,0,0,-0.108352,0.687,147.245)"/>
<path style="fill-rule:nonzero;fill:rgb(100%,100%,100%);fill-opacity:1;stroke-width:4;stroke-linecap:butt;stroke-linejoin:miter;stroke:rgb(0%,0%,0%);stroke-opacity:1;stroke-miterlimit:4;" d="M 1099.03095 202.670767 L 907.526017 11.165834 " transform="matrix(0.108352,0,0,-0.108352,0.687,147.245)"/>
<path style=" stroke:none;fill-rule:nonzero;fill:rgb(100%,100%,100%);fill-opacity:1;" d="M 121.300781 126.816406 L 100.554688 147.566406 "/>
<path style=" stroke:none;fill-rule:nonzero;fill:rgb(100%,100%,100%);fill-opacity:1;" d="M 123.664063 87.675781 L 102.914063 108.425781 "/>
<path style="fill-rule:nonzero;fill:rgb(100%,100%,100%);fill-opacity:1;stroke-width:4;stroke-linecap:butt;stroke-linejoin:miter;stroke:rgb(0%,0%,0%);stroke-opacity:1;stroke-miterlimit:4;" d="M 1149.142369 535.605266 L 957.637436 344.100333 " transform="matrix(0.108352,0,0,-0.108352,0.687,147.245)"/>
<path style=" stroke:none;fill-rule:nonzero;fill:rgb(100%,100%,100%);fill-opacity:1;" d="M 102.914063 108.425781 L 82.164063 129.175781 "/>
<path style="fill-rule:nonzero;fill:rgb(100%,100%,100%);fill-opacity:1;stroke-width:4;stroke-linecap:butt;stroke-linejoin:miter;stroke:rgb(0%,0%,0%);stroke-opacity:1;stroke-miterlimit:4;" d="M 957.637436 344.100333 L 766.132502 152.595399 " transform="matrix(0.108352,0,0,-0.108352,0.687,147.245)"/>
<path style="fill-rule:nonzero;fill:rgb(100%,100%,100%);fill-opacity:1;stroke-width:4;stroke-linecap:butt;stroke-linejoin:miter;stroke:rgb(0%,0%,0%);stroke-opacity:1;stroke-miterlimit:4;" d="M 985.901718 315.836051 L 794.396785 124.331117 " transform="matrix(0.108352,0,0,-0.108352,0.687,147.245)"/>
<path style="fill-rule:nonzero;fill:rgb(100%,100%,100%);fill-opacity:1;stroke-width:4;stroke-linecap:butt;stroke-linejoin:miter;stroke:rgb(0%,0%,0%);stroke-opacity:1;stroke-miterlimit:4;" d="M 1014.202052 287.535717 L 822.697119 96.030783 " transform="matrix(0.108352,0,0,-0.108352,0.687,147.245)"/>
<path style=" stroke:none;fill-rule:nonzero;fill:rgb(100%,100%,100%);fill-opacity:1;" d="M 112.109375 117.621094 L 91.359375 138.371094 "/>
<path style=" stroke:none;fill-rule:nonzero;fill:rgb(100%,100%,100%);fill-opacity:1;" d="M 114.472656 78.484375 L 93.722656 99.234375 "/>
<path style="fill-rule:nonzero;fill:rgb(100%,100%,100%);fill-opacity:1;stroke-width:4;stroke-linecap:butt;stroke-linejoin:miter;stroke:rgb(0%,0%,0%);stroke-opacity:1;stroke-miterlimit:4;" d="M 1064.27742 620.470216 L 872.772486 428.965283 " transform="matrix(0.108352,0,0,-0.108352,0.687,147.245)"/>
<path style="fill-rule:nonzero;fill:rgb(100%,100%,100%);fill-opacity:1;stroke-width:4;stroke-linecap:butt;stroke-linejoin:miter;stroke:rgb(0%,0%,0%);stroke-opacity:1;stroke-miterlimit:4;" d="M 1092.577753 592.205934 L 901.07282 400.701 " transform="matrix(0.108352,0,0,-0.108352,0.687,147.245)"/>
<path style="fill-rule:nonzero;fill:rgb(100%,100%,100%);fill-opacity:1;stroke-width:4;stroke-linecap:butt;stroke-linejoin:miter;stroke:rgb(0%,0%,0%);stroke-opacity:1;stroke-miterlimit:4;" d="M 1120.842036 563.9056 L 929.337102 372.400667 " transform="matrix(0.108352,0,0,-0.108352,0.687,147.245)"/>
<path style=" stroke:none;fill-rule:nonzero;fill:rgb(100%,100%,100%);fill-opacity:1;" d="M 123.664063 87.675781 L 102.914063 108.425781 "/>
<path style="fill-rule:nonzero;fill:rgb(100%,100%,100%);fill-opacity:1;stroke-width:4;stroke-linecap:butt;stroke-linejoin:miter;stroke:rgb(0%,0%,0%);stroke-opacity:1;stroke-miterlimit:4;" d="M 929.337102 372.400667 L 737.832169 180.895733 " transform="matrix(0.108352,0,0,-0.108352,0.687,147.245)"/>
<path style=" stroke:none;fill-rule:nonzero;fill:rgb(100%,100%,100%);fill-opacity:1;" d="M 102.914063 108.425781 L 82.164063 129.175781 "/>
<path style="fill-rule:nonzero;fill:rgb(100%,100%,100%);fill-opacity:1;stroke-width:4;stroke-linecap:butt;stroke-linejoin:miter;stroke:rgb(0%,0%,0%);stroke-opacity:1;stroke-miterlimit:4;" d="M 1007.712804 677.034832 L 816.20787 485.529899 " transform="matrix(0.108352,0,0,-0.108352,0.687,147.245)"/>
<path style="fill-rule:nonzero;fill:rgb(100%,100%,100%);fill-opacity:1;stroke-width:4;stroke-linecap:butt;stroke-linejoin:miter;stroke:rgb(0%,0%,0%);stroke-opacity:1;stroke-miterlimit:4;" d="M 1035.977086 648.77055 L 844.472152 457.229565 " transform="matrix(0.108352,0,0,-0.108352,0.687,147.245)"/>
<path style=" stroke:none;fill-rule:nonzero;fill:rgb(100%,100%,100%);fill-opacity:1;" d="M 114.472656 78.484375 L 93.722656 99.234375 "/>
</g>
</g>
</g>
<g clip-path="url(#clip12)" clip-rule="nonzero">
<g clip-path="url(#clip13)" clip-rule="nonzero">
<g clip-path="url(#clip14)" clip-rule="nonzero">
<path style=" stroke:none;fill-rule:nonzero;fill:rgb(100%,100%,100%);fill-opacity:1;" d="M 176.722656 16.234375 L 155.972656 36.984375 "/>
<path style="fill-rule:nonzero;fill:rgb(100%,100%,100%);fill-opacity:1;stroke-width:4;stroke-linecap:butt;stroke-linejoin:miter;stroke:rgb(0%,0%,0%);stroke-opacity:1;stroke-miterlimit:4;" d="M 1638.79222 1194.985016 L 1447.287286 1003.480083 " transform="matrix(0.108352,0,0,-0.108352,0.687,147.245)"/>
<path style="fill-rule:nonzero;fill:rgb(100%,100%,100%);fill-opacity:1;stroke-width:4;stroke-linecap:butt;stroke-linejoin:miter;stroke:rgb(0%,0%,0%);stroke-opacity:1;stroke-miterlimit:4;" d="M 1667.056502 1166.684683 L 1475.58762 975.179749 " transform="matrix(0.108352,0,0,-0.108352,0.687,147.245)"/>
<path style="fill-rule:nonzero;fill:rgb(100%,100%,100%);fill-opacity:1;stroke-width:4;stroke-linecap:butt;stroke-linejoin:miter;stroke:rgb(0%,0%,0%);stroke-opacity:1;stroke-miterlimit:4;" d="M 1695.356836 1138.4204 L 1503.851903 946.915467 " transform="matrix(0.108352,0,0,-0.108352,0.687,147.245)"/>
<path style=" stroke:none;fill-rule:nonzero;fill:rgb(100%,100%,100%);fill-opacity:1;" d="M 185.914063 25.429688 L 165.164063 46.175781 "/>
<path style=" stroke:none;fill-rule:nonzero;fill:rgb(100%,100%,100%);fill-opacity:1;" d="M 188.277344 -13.710938 L 167.527344 7.039063 "/>
<path style="fill-rule:nonzero;fill:rgb(100%,100%,100%);fill-opacity:1;stroke-width:4;stroke-linecap:butt;stroke-linejoin:miter;stroke:rgb(0%,0%,0%);stroke-opacity:1;stroke-miterlimit:4;" d="M 1745.432204 1471.3549 L 1553.92727 1279.813915 " transform="matrix(0.108352,0,0,-0.108352,0.687,147.245)"/>
<path style=" stroke:none;fill-rule:nonzero;fill:rgb(100%,100%,100%);fill-opacity:1;" d="M 167.527344 7.039063 L 146.777344 27.789063 "/>
<path style="fill-rule:nonzero;fill:rgb(100%,100%,100%);fill-opacity:1;stroke-width:4;stroke-linecap:butt;stroke-linejoin:miter;stroke:rgb(0%,0%,0%);stroke-opacity:1;stroke-miterlimit:4;" d="M 1553.92727 1279.813915 L 1362.422337 1088.345033 " transform="matrix(0.108352,0,0,-0.108352,0.687,147.245)"/>
<path style="fill-rule:nonzero;fill:rgb(100%,100%,100%);fill-opacity:1;stroke-width:4;stroke-linecap:butt;stroke-linejoin:miter;stroke:rgb(0%,0%,0%);stroke-opacity:1;stroke-miterlimit:4;" d="M 1582.227604 1251.549633 L 1390.72267 1060.044699 " transform="matrix(0.108352,0,0,-0.108352,0.687,147.245)"/>
<path style="fill-rule:nonzero;fill:rgb(100%,100%,100%);fill-opacity:1;stroke-width:4;stroke-linecap:butt;stroke-linejoin:miter;stroke:rgb(0%,0%,0%);stroke-opacity:1;stroke-miterlimit:4;" d="M 1610.527938 1223.28535 L 1418.986953 1031.744365 " transform="matrix(0.108352,0,0,-0.108352,0.687,147.245)"/>
<path style=" stroke:none;fill-rule:nonzero;fill:rgb(100%,100%,100%);fill-opacity:1;" d="M 176.722656 16.234375 L 155.972656 36.984375 "/>
<path style="fill-rule:nonzero;fill:rgb(100%,100%,100%);fill-opacity:1;stroke-width:4;stroke-linecap:butt;stroke-linejoin:miter;stroke:rgb(0%,0%,0%);stroke-opacity:1;stroke-miterlimit:4;" d="M 1688.867587 1527.919516 L 1497.362654 1336.414582 " transform="matrix(0.108352,0,0,-0.108352,0.687,147.245)"/>
<path style="fill-rule:nonzero;fill:rgb(100%,100%,100%);fill-opacity:1;stroke-width:4;stroke-linecap:butt;stroke-linejoin:miter;stroke:rgb(0%,0%,0%);stroke-opacity:1;stroke-miterlimit:4;" d="M 1717.167921 1499.619182 L 1525.662988 1308.114249 " transform="matrix(0.108352,0,0,-0.108352,0.687,147.245)"/>
<path style=" stroke:none;fill-rule:nonzero;fill:rgb(100%,100%,100%);fill-opacity:1;" d="M 188.277344 -13.710938 L 167.527344 7.039063 "/>
<path style="fill:none;stroke-width:4;stroke-linecap:butt;stroke-linejoin:miter;stroke:rgb(0%,0%,0%);stroke-opacity:1;stroke-miterlimit:4;" d="M 1525.662988 1308.114249 L 1334.158054 1116.609315 " transform="matrix(0.108352,0,0,-0.108352,0.687,147.245)"/>
<path style=" stroke:none;fill-rule:nonzero;fill:rgb(100%,100%,100%);fill-opacity:1;" d="M 167.527344 7.039063 L 146.777344 27.789063 "/>
</g>
</g>
</g>
<g clip-path="url(#clip15)" clip-rule="nonzero">
<g clip-path="url(#clip16)" clip-rule="nonzero">
<g clip-path="url(#clip17)" clip-rule="nonzero">
<path style=" stroke:none;fill-rule:nonzero;fill:rgb(100%,100%,100%);fill-opacity:1;" d="M 171.996094 137.398438 L 151.246094 158.148438 "/>
<path style="fill-rule:nonzero;fill:rgb(100%,100%,100%);fill-opacity:1;stroke-width:4;stroke-linecap:butt;stroke-linejoin:miter;stroke:rgb(0%,0%,0%);stroke-opacity:1;stroke-miterlimit:4;" d="M 1595.206101 76.743295 L 1403.665116 -114.761639 " transform="matrix(0.108352,0,0,-0.108352,0.687,147.245)"/>
<path style="fill-rule:nonzero;fill:rgb(100%,100%,100%);fill-opacity:1;stroke-width:4;stroke-linecap:butt;stroke-linejoin:miter;stroke:rgb(0%,0%,0%);stroke-opacity:1;stroke-miterlimit:4;" d="M 1623.470383 48.442961 L 1431.96545 -143.061972 " transform="matrix(0.108352,0,0,-0.108352,0.687,147.245)"/>
<path style="fill-rule:nonzero;fill:rgb(100%,100%,100%);fill-opacity:1;stroke-width:4;stroke-linecap:butt;stroke-linejoin:miter;stroke:rgb(0%,0%,0%);stroke-opacity:1;stroke-miterlimit:4;" d="M 1651.770717 20.142627 L 1460.265783 -171.362306 " transform="matrix(0.108352,0,0,-0.108352,0.687,147.245)"/>
<path style=" stroke:none;fill-rule:nonzero;fill:rgb(100%,100%,100%);fill-opacity:1;" d="M 181.191406 146.59375 L 160.441406 167.34375 "/>
<path style=" stroke:none;fill-rule:nonzero;fill:rgb(100%,100%,100%);fill-opacity:1;" d="M 183.554688 107.457031 L 162.800781 128.203125 "/>
<path style="fill-rule:nonzero;fill:rgb(100%,100%,100%);fill-opacity:1;stroke-width:4;stroke-linecap:butt;stroke-linejoin:miter;stroke:rgb(0%,0%,0%);stroke-opacity:1;stroke-miterlimit:4;" d="M 1701.846084 353.077127 L 1510.341151 161.572193 " transform="matrix(0.108352,0,0,-0.108352,0.687,147.245)"/>
<path style="fill-rule:nonzero;fill:rgb(100%,100%,100%);fill-opacity:1;stroke-width:4;stroke-linecap:butt;stroke-linejoin:miter;stroke:rgb(0%,0%,0%);stroke-opacity:1;stroke-miterlimit:4;" d="M 1730.110367 324.812844 L 1538.605433 133.307911 " transform="matrix(0.108352,0,0,-0.108352,0.687,147.245)"/>
<path style="fill-rule:nonzero;fill:rgb(100%,100%,100%);fill-opacity:1;stroke-width:4;stroke-linecap:butt;stroke-linejoin:miter;stroke:rgb(0%,0%,0%);stroke-opacity:1;stroke-miterlimit:4;" d="M 1758.410701 296.512511 L 1566.905767 105.007577 " transform="matrix(0.108352,0,0,-0.108352,0.687,147.245)"/>
<path style="fill-rule:nonzero;fill:rgb(100%,100%,100%);fill-opacity:1;stroke-width:4;stroke-linecap:butt;stroke-linejoin:miter;stroke:rgb(0%,0%,0%);stroke-opacity:1;stroke-miterlimit:4;" d="M 1538.605433 133.307911 L 1347.1005 -58.197023 " transform="matrix(0.108352,0,0,-0.108352,0.687,147.245)"/>
<path style="fill-rule:nonzero;fill:rgb(100%,100%,100%);fill-opacity:1;stroke-width:4;stroke-linecap:butt;stroke-linejoin:miter;stroke:rgb(0%,0%,0%);stroke-opacity:1;stroke-miterlimit:4;" d="M 1566.905767 105.007577 L 1375.400834 -86.497356 " transform="matrix(0.108352,0,0,-0.108352,0.687,147.245)"/>
<path style=" stroke:none;fill-rule:nonzero;fill:rgb(100%,100%,100%);fill-opacity:1;" d="M 171.996094 137.398438 L 151.246094 158.148438 "/>
<path style=" stroke:none;fill-rule:nonzero;fill:rgb(100%,100%,100%);fill-opacity:1;" d="M 174.359375 98.261719 L 153.609375 119.011719 "/>
<path style="fill-rule:nonzero;fill:rgb(100%,100%,100%);fill-opacity:1;stroke-width:4;stroke-linecap:butt;stroke-linejoin:miter;stroke:rgb(0%,0%,0%);stroke-opacity:1;stroke-miterlimit:4;" d="M 1616.981135 437.942076 L 1425.476201 246.437143 " transform="matrix(0.108352,0,0,-0.108352,0.687,147.245)"/>
<path style="fill-rule:nonzero;fill:rgb(100%,100%,100%);fill-opacity:1;stroke-width:4;stroke-linecap:butt;stroke-linejoin:miter;stroke:rgb(0%,0%,0%);stroke-opacity:1;stroke-miterlimit:4;" d="M 1645.245417 409.641743 L 1453.776535 218.136809 " transform="matrix(0.108352,0,0,-0.108352,0.687,147.245)"/>
<path style="fill-rule:nonzero;fill:rgb(100%,100%,100%);fill-opacity:1;stroke-width:4;stroke-linecap:butt;stroke-linejoin:miter;stroke:rgb(0%,0%,0%);stroke-opacity:1;stroke-miterlimit:4;" d="M 1673.545751 381.37746 L 1482.040817 189.872527 " transform="matrix(0.108352,0,0,-0.108352,0.687,147.245)"/>
<path style=" stroke:none;fill-rule:nonzero;fill:rgb(100%,100%,100%);fill-opacity:1;" d="M 183.554688 107.457031 L 162.800781 128.203125 "/>
</g>
</g>
</g>
<g clip-path="url(#clip18)" clip-rule="nonzero">
<g clip-path="url(#clip19)" clip-rule="nonzero">
<g clip-path="url(#clip20)" clip-rule="nonzero">
<path style=" stroke:none;fill-rule:nonzero;fill:rgb(100%,100%,100%);fill-opacity:1;" d="M 174.359375 58.773438 L 153.609375 82.433594 "/>
<path style="fill-rule:nonzero;fill:rgb(100%,100%,100%);fill-opacity:1;stroke-width:4;stroke-linecap:butt;stroke-linejoin:miter;stroke:rgb(0%,0%,0%);stroke-opacity:1;stroke-miterlimit:4;" d="M 1616.981135 800.366605 L 1425.476201 582.003393 " transform="matrix(0.108352,0,0,-0.108352,0.687,147.245)"/>
<path style="fill-rule:nonzero;fill:rgb(100%,100%,100%);fill-opacity:1;stroke-width:4;stroke-linecap:butt;stroke-linejoin:miter;stroke:rgb(0%,0%,0%);stroke-opacity:1;stroke-miterlimit:4;" d="M 1645.281468 768.136671 L 1453.776535 549.773459 " transform="matrix(0.108352,0,0,-0.108352,0.687,147.245)"/>
<path style="fill-rule:nonzero;fill:rgb(100%,100%,100%);fill-opacity:1;stroke-width:4;stroke-linecap:butt;stroke-linejoin:miter;stroke:rgb(0%,0%,0%);stroke-opacity:1;stroke-miterlimit:4;" d="M 1673.545751 735.870685 L 1482.076869 517.507473 " transform="matrix(0.108352,0,0,-0.108352,0.687,147.245)"/>
<path style=" stroke:none;fill-rule:nonzero;fill:rgb(100%,100%,100%);fill-opacity:1;" d="M 183.554688 69.257813 L 162.804688 92.917969 "/>
<path style=" stroke:none;fill-rule:nonzero;fill:rgb(100%,100%,100%);fill-opacity:1;" d="M 185.914063 24.628906 L 165.164063 48.289063 "/>
<path style="fill-rule:nonzero;fill:rgb(100%,100%,100%);fill-opacity:1;stroke-width:4;stroke-linecap:butt;stroke-linejoin:miter;stroke:rgb(0%,0%,0%);stroke-opacity:1;stroke-miterlimit:4;" d="M 1723.65717 1115.527774 L 1532.152236 897.12851 " transform="matrix(0.108352,0,0,-0.108352,0.687,147.245)"/>
<path style="fill-rule:nonzero;fill:rgb(100%,100%,100%);fill-opacity:1;stroke-width:4;stroke-linecap:butt;stroke-linejoin:miter;stroke:rgb(0%,0%,0%);stroke-opacity:1;stroke-miterlimit:4;" d="M 1751.921452 1083.261788 L 1560.416519 864.898576 " transform="matrix(0.108352,0,0,-0.108352,0.687,147.245)"/>
<path style="fill-rule:nonzero;fill:rgb(100%,100%,100%);fill-opacity:1;stroke-width:4;stroke-linecap:butt;stroke-linejoin:miter;stroke:rgb(0%,0%,0%);stroke-opacity:1;stroke-miterlimit:4;" d="M 1532.152236 897.12851 L 1340.647303 678.765298 " transform="matrix(0.108352,0,0,-0.108352,0.687,147.245)"/>
<path style="fill-rule:nonzero;fill:rgb(100%,100%,100%);fill-opacity:1;stroke-width:4;stroke-linecap:butt;stroke-linejoin:miter;stroke:rgb(0%,0%,0%);stroke-opacity:1;stroke-miterlimit:4;" d="M 1560.416519 864.862525 L 1368.911585 646.499313 " transform="matrix(0.108352,0,0,-0.108352,0.687,147.245)"/>
<path style="fill-rule:nonzero;fill:rgb(100%,100%,100%);fill-opacity:1;stroke-width:4;stroke-linecap:butt;stroke-linejoin:miter;stroke:rgb(0%,0%,0%);stroke-opacity:1;stroke-miterlimit:4;" d="M 1588.716852 832.632591 L 1397.211919 614.269379 " transform="matrix(0.108352,0,0,-0.108352,0.687,147.245)"/>
<path style=" stroke:none;fill-rule:nonzero;fill:rgb(100%,100%,100%);fill-opacity:1;" d="M 174.359375 58.773438 L 153.609375 82.433594 "/>
<path style="fill-rule:nonzero;fill:rgb(100%,100%,100%);fill-opacity:1;stroke-width:4;stroke-linecap:butt;stroke-linejoin:miter;stroke:rgb(0%,0%,0%);stroke-opacity:1;stroke-miterlimit:4;" d="M 1695.356836 1147.757708 L 1503.851903 929.394496 " transform="matrix(0.108352,0,0,-0.108352,0.687,147.245)"/>
<path style=" stroke:none;fill-rule:nonzero;fill:rgb(100%,100%,100%);fill-opacity:1;" d="M 185.914063 24.628906 L 165.164063 48.292969 "/>
</g>
</g>
</g>
<g clip-path="url(#clip21)" clip-rule="nonzero">
<g clip-path="url(#clip22)" clip-rule="nonzero">
<g clip-path="url(#clip23)" clip-rule="nonzero">
<path style=" stroke:none;fill-rule:nonzero;fill:rgb(100%,100%,100%);fill-opacity:1;" d="M 174.359375 92.101563 L 153.609375 115.761719 "/>
<path style="fill-rule:nonzero;fill:rgb(100%,100%,100%);fill-opacity:1;stroke-width:4;stroke-linecap:butt;stroke-linejoin:miter;stroke:rgb(0%,0%,0%);stroke-opacity:1;stroke-miterlimit:4;" d="M 1616.981135 492.776226 L 1425.476201 274.413014 " transform="matrix(0.108352,0,0,-0.108352,0.687,147.245)"/>
<path style="fill-rule:nonzero;fill:rgb(100%,100%,100%);fill-opacity:1;stroke-width:4;stroke-linecap:butt;stroke-linejoin:miter;stroke:rgb(0%,0%,0%);stroke-opacity:1;stroke-miterlimit:4;" d="M 1645.281468 460.546292 L 1453.776535 242.18308 " transform="matrix(0.108352,0,0,-0.108352,0.687,147.245)"/>
<path style="fill-rule:nonzero;fill:rgb(100%,100%,100%);fill-opacity:1;stroke-width:4;stroke-linecap:butt;stroke-linejoin:miter;stroke:rgb(0%,0%,0%);stroke-opacity:1;stroke-miterlimit:4;" d="M 1673.545751 428.280306 L 1482.076869 209.917095 " transform="matrix(0.108352,0,0,-0.108352,0.687,147.245)"/>
<path style=" stroke:none;fill-rule:nonzero;fill:rgb(100%,100%,100%);fill-opacity:1;" d="M 183.554688 102.585938 L 162.804688 126.246094 "/>
<path style=" stroke:none;fill-rule:nonzero;fill:rgb(100%,100%,100%);fill-opacity:1;" d="M 185.914063 57.957031 L 165.164063 81.617188 "/>
<path style="fill-rule:nonzero;fill:rgb(100%,100%,100%);fill-opacity:1;stroke-width:4;stroke-linecap:butt;stroke-linejoin:miter;stroke:rgb(0%,0%,0%);stroke-opacity:1;stroke-miterlimit:4;" d="M 1723.65717 807.937395 L 1532.152236 589.538132 " transform="matrix(0.108352,0,0,-0.108352,0.687,147.245)"/>
<path style="fill-rule:nonzero;fill:rgb(100%,100%,100%);fill-opacity:1;stroke-width:4;stroke-linecap:butt;stroke-linejoin:miter;stroke:rgb(0%,0%,0%);stroke-opacity:1;stroke-miterlimit:4;" d="M 1751.921452 775.671409 L 1560.416519 557.308197 " transform="matrix(0.108352,0,0,-0.108352,0.687,147.245)"/>
<path style="fill-rule:nonzero;fill:rgb(100%,100%,100%);fill-opacity:1;stroke-width:4;stroke-linecap:butt;stroke-linejoin:miter;stroke:rgb(0%,0%,0%);stroke-opacity:1;stroke-miterlimit:4;" d="M 1532.152236 589.538132 L 1340.647303 371.17492 " transform="matrix(0.108352,0,0,-0.108352,0.687,147.245)"/>
<path style="fill-rule:nonzero;fill:rgb(100%,100%,100%);fill-opacity:1;stroke-width:4;stroke-linecap:butt;stroke-linejoin:miter;stroke:rgb(0%,0%,0%);stroke-opacity:1;stroke-miterlimit:4;" d="M 1560.416519 557.308197 L 1368.911585 338.908934 " transform="matrix(0.108352,0,0,-0.108352,0.687,147.245)"/>
<path style="fill-rule:nonzero;fill:rgb(100%,100%,100%);fill-opacity:1;stroke-width:4;stroke-linecap:butt;stroke-linejoin:miter;stroke:rgb(0%,0%,0%);stroke-opacity:1;stroke-miterlimit:4;" d="M 1588.716852 525.042212 L 1397.211919 306.679 " transform="matrix(0.108352,0,0,-0.108352,0.687,147.245)"/>
<path style=" stroke:none;fill-rule:nonzero;fill:rgb(100%,100%,100%);fill-opacity:1;" d="M 174.359375 92.101563 L 153.609375 115.761719 "/>
<path style="fill-rule:nonzero;fill:rgb(100%,100%,100%);fill-opacity:1;stroke-width:4;stroke-linecap:butt;stroke-linejoin:miter;stroke:rgb(0%,0%,0%);stroke-opacity:1;stroke-miterlimit:4;" d="M 1695.356836 840.167329 L 1503.851903 621.804117 " transform="matrix(0.108352,0,0,-0.108352,0.687,147.245)"/>
<path style=" stroke:none;fill-rule:nonzero;fill:rgb(100%,100%,100%);fill-opacity:1;" d="M 185.914063 57.957031 L 165.164063 81.617188 "/>
</g>
</g>
</g>
<g clip-path="url(#clip24)" clip-rule="nonzero">
<g clip-path="url(#clip25)" clip-rule="nonzero">
<g clip-path="url(#clip26)" clip-rule="nonzero">
<path style=" stroke:none;fill-rule:nonzero;fill:rgb(100%,100%,100%);fill-opacity:1;" d="M 107.652344 77.472656 L 86.902344 101.132813 "/>
<path style="fill-rule:nonzero;fill:rgb(100%,100%,100%);fill-opacity:1;stroke-width:4;stroke-linecap:butt;stroke-linejoin:miter;stroke:rgb(0%,0%,0%);stroke-opacity:1;stroke-miterlimit:4;" d="M 1001.367761 627.824698 L 809.862827 409.461486 " transform="matrix(0.108352,0,0,-0.108352,0.687,147.245)"/>
<path style="fill-rule:nonzero;fill:rgb(100%,100%,100%);fill-opacity:1;stroke-width:4;stroke-linecap:butt;stroke-linejoin:miter;stroke:rgb(0%,0%,0%);stroke-opacity:1;stroke-miterlimit:4;" d="M 1029.632043 595.558712 L 838.127109 377.1955 " transform="matrix(0.108352,0,0,-0.108352,0.687,147.245)"/>
<path style="fill-rule:nonzero;fill:rgb(100%,100%,100%);fill-opacity:1;stroke-width:4;stroke-linecap:butt;stroke-linejoin:miter;stroke:rgb(0%,0%,0%);stroke-opacity:1;stroke-miterlimit:4;" d="M 1057.932377 563.328778 L 866.427443 344.965566 " transform="matrix(0.108352,0,0,-0.108352,0.687,147.245)"/>
<path style=" stroke:none;fill-rule:nonzero;fill:rgb(100%,100%,100%);fill-opacity:1;" d="M 119.210938 43.324219 L 98.460938 66.988281 "/>
<path style="fill-rule:nonzero;fill:rgb(100%,100%,100%);fill-opacity:1;stroke-width:4;stroke-linecap:butt;stroke-linejoin:miter;stroke:rgb(0%,0%,0%);stroke-opacity:1;stroke-miterlimit:4;" d="M 1108.007744 942.949815 L 916.502811 724.586603 " transform="matrix(0.108352,0,0,-0.108352,0.687,147.245)"/>
<path style="fill-rule:nonzero;fill:rgb(100%,100%,100%);fill-opacity:1;stroke-width:4;stroke-linecap:butt;stroke-linejoin:miter;stroke:rgb(0%,0%,0%);stroke-opacity:1;stroke-miterlimit:4;" d="M 1136.272027 910.719881 L 944.803144 692.356669 " transform="matrix(0.108352,0,0,-0.108352,0.687,147.245)"/>
<path style="fill-rule:nonzero;fill:rgb(100%,100%,100%);fill-opacity:1;stroke-width:4;stroke-linecap:butt;stroke-linejoin:miter;stroke:rgb(0%,0%,0%);stroke-opacity:1;stroke-miterlimit:4;" d="M 916.502811 724.586603 L 724.997877 506.223391 " transform="matrix(0.108352,0,0,-0.108352,0.687,147.245)"/>
<path style="fill-rule:nonzero;fill:rgb(100%,100%,100%);fill-opacity:1;stroke-width:4;stroke-linecap:butt;stroke-linejoin:miter;stroke:rgb(0%,0%,0%);stroke-opacity:1;stroke-miterlimit:4;" d="M 944.803144 692.320618 L 753.298211 473.957406 " transform="matrix(0.108352,0,0,-0.108352,0.687,147.245)"/>
<path style="fill-rule:nonzero;fill:rgb(100%,100%,100%);fill-opacity:1;stroke-width:4;stroke-linecap:butt;stroke-linejoin:miter;stroke:rgb(0%,0%,0%);stroke-opacity:1;stroke-miterlimit:4;" d="M 973.067427 660.090683 L 781.562493 441.727471 " transform="matrix(0.108352,0,0,-0.108352,0.687,147.245)"/>
<path style=" stroke:none;fill-rule:nonzero;fill:rgb(100%,100%,100%);fill-opacity:1;" d="M 107.65625 77.46875 L 86.90625 101.132813 "/>
<path style="fill-rule:nonzero;fill:rgb(100%,100%,100%);fill-opacity:1;stroke-width:4;stroke-linecap:butt;stroke-linejoin:miter;stroke:rgb(0%,0%,0%);stroke-opacity:1;stroke-miterlimit:4;" d="M 1079.70741 975.215801 L 888.202477 756.852589 " transform="matrix(0.108352,0,0,-0.108352,0.687,147.245)"/>
<path style=" stroke:none;fill-rule:nonzero;fill:rgb(100%,100%,100%);fill-opacity:1;" d="M 119.210938 43.324219 L 98.460938 66.988281 "/>
</g>
</g>
</g>
<g clip-path="url(#clip27)" clip-rule="nonzero">
<g clip-path="url(#clip28)" clip-rule="nonzero">
<path style="fill:none;stroke-width:5;stroke-linecap:butt;stroke-linejoin:miter;stroke:rgb(0%,0%,0%);stroke-opacity:1;stroke-miterlimit:4;" d="M 959.007388 1356.675458 L 959.007388 835.949318 L 913.762906 835.949318 L 913.762906 1356.675458 " transform="matrix(0.108352,0,0,-0.108352,0.687,147.245)"/>
<path style="fill:none;stroke-width:5;stroke-linecap:butt;stroke-linejoin:miter;stroke:rgb(0%,0%,0%);stroke-opacity:1;stroke-miterlimit:4;" d="M 913.762906 -0.0100944 L 913.762906 506.115237 L 959.007388 506.115237 L 959.007388 -0.0100944 " transform="matrix(0.108352,0,0,-0.108352,0.687,147.245)"/>
<path style="fill:none;stroke-width:5;stroke-linecap:butt;stroke-linejoin:miter;stroke:rgb(0%,0%,0%);stroke-opacity:1;stroke-miterlimit:4;" d="M 913.762906 563.328778 L 959.007388 563.328778 L 959.007388 778.699725 L 913.762906 778.699725 L 913.762906 563.328778 Z M 913.762906 563.328778 " transform="matrix(0.108352,0,0,-0.108352,0.687,147.245)"/>
<path style="fill:none;stroke-width:5;stroke-linecap:butt;stroke-linejoin:miter;stroke:rgb(0%,0%,0%);stroke-opacity:1;stroke-miterlimit:4;" d="M 2016.39438 -0.0100944 L 2016.39438 1356.675458 " transform="matrix(0.108352,0,0,-0.108352,0.687,147.245)"/>
<path style="fill:none;stroke-width:5;stroke-linecap:butt;stroke-linejoin:miter;stroke:rgb(0%,0%,0%);stroke-opacity:1;stroke-miterlimit:4;" d="M 2123.034363 1356.675458 L 2123.034363 -0.0100944 " transform="matrix(0.108352,0,0,-0.108352,0.687,147.245)"/>
<path style="fill:none;stroke-width:5;stroke-linecap:butt;stroke-linejoin:miter;stroke:rgb(0%,0%,0%);stroke-opacity:1;stroke-miterlimit:4;" d="M 1529.37628 0.134111 L 1529.37628 336.096926 L 1574.620763 336.096926 L 1574.620763 0.134111 " transform="matrix(0.108352,0,0,-0.108352,0.687,147.245)"/>
<path style="fill:none;stroke-width:5;stroke-linecap:butt;stroke-linejoin:miter;stroke:rgb(0%,0%,0%);stroke-opacity:1;stroke-miterlimit:4;" d="M 1529.37628 705.875937 L 1574.620763 705.875937 L 1574.620763 951.241633 L 1529.37628 951.241633 L 1529.37628 705.875937 Z M 1529.37628 705.875937 " transform="matrix(0.108352,0,0,-0.108352,0.687,147.245)"/>
<path style="fill:none;stroke-width:5;stroke-linecap:butt;stroke-linejoin:miter;stroke:rgb(0%,0%,0%);stroke-opacity:1;stroke-miterlimit:4;" d="M 1529.37628 398.285558 L 1574.620763 398.285558 L 1574.620763 643.687305 L 1529.37628 643.687305 L 1529.37628 398.285558 Z M 1529.37628 398.285558 " transform="matrix(0.108352,0,0,-0.108352,0.687,147.245)"/>
</g>
</g>
<g clip-path="url(#clip29)" clip-rule="nonzero">
<g style="fill:rgb(0%,0%,0%);fill-opacity:1;">
  <use xlink:href="#glyph0-1" x="28.75" y="66.687"/>
</g>
<g style="fill:rgb(0%,0%,0%);fill-opacity:1;">
  <use xlink:href="#glyph1-1" x="105.852" y="56.536"/>
</g>
<g style="fill:rgb(0%,0%,0%);fill-opacity:1;">
  <use xlink:href="#glyph1-2" x="105.852" y="96.829"/>
</g>
<g style="fill:rgb(0%,0%,0%);fill-opacity:1;">
  <use xlink:href="#glyph0-2" x="161.345" y="37.544"/>
</g>
<g style="fill:rgb(0%,0%,0%);fill-opacity:1;">
  <use xlink:href="#glyph0-3" x="161.097" y="70.709"/>
</g>
<g style="fill:rgb(0%,0%,0%);fill-opacity:1;">
  <use xlink:href="#glyph0-4" x="161.034" y="113.971"/>
</g>
<g style="fill:rgb(0%,0%,0%);fill-opacity:1;">
  <use xlink:href="#glyph0-5" x="209.317" y="51.609"/>
</g>
</g>
</g>
</svg>
