<?xml version="1.0" encoding="UTF-8"?>
<svg xmlns="http://www.w3.org/2000/svg" xmlns:xlink="http://www.w3.org/1999/xlink" width="332pt" height="233pt" viewBox="0 0 192 135" version="1.1">
<defs>
<g>
<symbol overflow="visible" id="glyph0-0">
<path style="stroke:none;" d=""/>
</symbol>
<symbol overflow="visible" id="glyph0-1">
<path style="stroke:none;" d="M 0.75 -3.296875 C 0.828125 -3.140625 0.921875 -3.015625 1.015625 -2.875 C 1.078125 -2.796875 1.6875 -1.875 1.71875 -1.84375 C 1.734375 -1.8125 1.796875 -1.75 1.796875 -1.703125 C 1.796875 -1.65625 1.71875 -1.609375 1.6875 -1.578125 C 1.375 -1.296875 0.046875 -0.046875 0 0 C 0.1875 0 0.375 0 0.53125 0 L 0.6875 -0.140625 L 1.984375 -1.4375 C 2.265625 -0.953125 2.53125 -0.46875 2.84375 -0.015625 C 3.015625 0 3.203125 0 3.390625 0 C 3.296875 -0.140625 2.359375 -1.53125 2.328125 -1.5625 C 2.3125 -1.609375 2.265625 -1.65625 2.265625 -1.6875 C 2.28125 -1.734375 2.34375 -1.78125 2.375 -1.8125 C 2.484375 -1.921875 2.59375 -2.015625 2.703125 -2.125 C 2.8125 -2.21875 3.921875 -3.25 3.953125 -3.296875 C 3.765625 -3.296875 3.59375 -3.296875 3.421875 -3.28125 C 2.96875 -2.875 2.546875 -2.4375 2.09375 -2.03125 C 1.828125 -2.453125 1.578125 -2.890625 1.28125 -3.28125 C 1.109375 -3.296875 0.921875 -3.296875 0.75 -3.296875 Z M 0.75 -3.296875 "/>
</symbol>
<symbol overflow="visible" id="glyph0-2">
<path style="stroke:none;" d="M 3.109375 -2.796875 L 3.75 -2.796875 C 3.859375 -2.796875 3.984375 -2.78125 4.09375 -2.828125 C 4.234375 -2.890625 4.359375 -3.125 4.21875 -3.25 C 4.125 -3.3125 3.984375 -3.296875 3.875 -3.296875 L 2.453125 -3.296875 C 2.0625 -3.296875 1.921875 -3.296875 1.59375 -3.15625 C 0.953125 -2.890625 0.46875 -2.25 0.34375 -1.5625 C 0.265625 -1.1875 0.296875 -0.78125 0.515625 -0.453125 C 0.609375 -0.296875 0.78125 -0.125 0.96875 -0.0625 C 1.484375 0.1875 2.09375 0 2.515625 -0.34375 C 3.09375 -0.8125 3.453125 -1.59375 3.296875 -2.328125 C 3.265625 -2.53125 3.21875 -2.640625 3.109375 -2.796875 Z M 2.640625 -2.609375 C 2.84375 -2.390625 2.84375 -2.0625 2.828125 -1.796875 C 2.75 -1.21875 2.484375 -0.59375 1.890625 -0.390625 C 1.625 -0.3125 1.40625 -0.3125 1.15625 -0.421875 C 0.828125 -0.59375 0.78125 -1 0.8125 -1.328125 C 0.859375 -1.796875 1.03125 -2.3125 1.421875 -2.59375 C 1.5 -2.65625 1.59375 -2.703125 1.6875 -2.734375 C 2.015625 -2.859375 2.4375 -2.796875 2.640625 -2.609375 Z M 2.640625 -2.609375 "/>
</symbol>
<symbol overflow="visible" id="glyph0-3">
<path style="stroke:none;" d="M 1.765625 -4.84375 L 0.734375 0 L 1.109375 0 C 1.15625 0 1.21875 0.015625 1.265625 -0.015625 C 1.296875 -0.03125 1.296875 -0.09375 1.296875 -0.125 C 1.3125 -0.203125 1.671875 -1.875 1.671875 -1.875 C 1.671875 -1.90625 1.671875 -1.984375 1.71875 -2 C 1.734375 -2.03125 1.765625 -2.015625 1.796875 -2.015625 L 2.640625 -2.015625 C 2.859375 -2.015625 3.078125 -2 3.296875 -2.03125 C 3.6875 -2.0625 4.078125 -2.203125 4.40625 -2.421875 C 4.890625 -2.734375 5.3125 -3.296875 5.15625 -3.890625 C 5.0625 -4.28125 4.75 -4.546875 4.421875 -4.6875 C 4.0625 -4.84375 3.65625 -4.84375 3.265625 -4.84375 L 1.765625 -4.84375 Z M 1.765625 -2.421875 C 1.796875 -2.625 1.859375 -2.8125 1.890625 -3.015625 C 1.921875 -3.125 2.15625 -4.21875 2.15625 -4.28125 C 2.171875 -4.34375 2.171875 -4.421875 2.265625 -4.421875 L 3.453125 -4.421875 C 3.9375 -4.421875 4.625 -4.296875 4.6875 -3.6875 C 4.734375 -3.1875 4.359375 -2.765625 3.921875 -2.578125 C 3.546875 -2.421875 3.21875 -2.421875 2.75 -2.421875 L 1.765625 -2.421875 Z M 1.765625 -2.421875 "/>
</symbol>
<symbol overflow="visible" id="glyph0-4">
<path style="stroke:none;" d="M 0.78125 -0.578125 L 0.78125 0 L 1.359375 0 L 1.359375 -0.578125 L 0.78125 -0.578125 Z M 0.78125 -0.578125 "/>
</symbol>
<symbol overflow="visible" id="glyph1-0">
<path style="stroke:none;" d=""/>
</symbol>
<symbol overflow="visible" id="glyph1-1">
<path style="stroke:none;" d="M 0.734375 -2 C 0.59375 -1.953125 0.578125 -1.734375 0.71875 -1.6875 C 0.765625 -1.671875 0.8125 -1.671875 0.84375 -1.671875 L 4.78125 -1.671875 C 4.875 -1.671875 5.015625 -1.65625 5.09375 -1.71875 C 5.171875 -1.8125 5.125 -1.96875 5 -2 C 4.921875 -2.015625 4.828125 -2 4.734375 -2 L 0.859375 -2 C 0.828125 -2 0.78125 -2 0.734375 -2 Z M 0.734375 -2 "/>
</symbol>
<symbol overflow="visible" id="glyph2-0">
<path style="stroke:none;" d=""/>
</symbol>
<symbol overflow="visible" id="glyph2-1">
<path style="stroke:none;" d="M 0.6875 -3.546875 L 0.6875 -3.546875 C 0.96875 -4.03125 1.515625 -4.34375 2.078125 -4.28125 C 2.484375 -4.265625 2.875 -4.03125 2.8125 -3.546875 C 2.765625 -3.15625 2.453125 -2.859375 2.078125 -2.75 C 1.875 -2.6875 1.515625 -2.671875 1.296875 -2.65625 L 1.296875 -2.265625 L 1.75 -2.265625 C 1.84375 -2.265625 1.9375 -2.28125 2.046875 -2.265625 C 2.296875 -2.25 2.546875 -2.15625 2.734375 -1.984375 C 3.046875 -1.6875 3.09375 -1.15625 2.90625 -0.78125 C 2.8125 -0.640625 2.703125 -0.515625 2.546875 -0.4375 C 2.1875 -0.21875 1.734375 -0.265625 1.34375 -0.390625 C 1.078125 -0.46875 0.828125 -0.609375 0.625 -0.796875 C 0.53125 -0.875 0.46875 -0.953125 0.390625 -1.03125 C 0.375 -0.953125 0.359375 -0.859375 0.34375 -0.78125 C 0.328125 -0.671875 0.3125 -0.640625 0.390625 -0.5625 L 0.515625 -0.4375 C 0.71875 -0.265625 0.953125 -0.125 1.203125 -0.015625 C 1.75 0.1875 2.390625 0.171875 2.890625 -0.140625 C 3.375 -0.46875 3.734375 -1.09375 3.453125 -1.6875 C 3.265625 -2.09375 2.921875 -2.328125 2.46875 -2.46875 C 2.734375 -2.59375 2.921875 -2.703125 3.09375 -2.953125 C 3.234375 -3.15625 3.390625 -3.46875 3.3125 -3.796875 C 3.25 -4.140625 2.96875 -4.40625 2.65625 -4.546875 C 2.203125 -4.75 1.65625 -4.71875 1.203125 -4.515625 C 0.96875 -4.421875 0.765625 -4.265625 0.59375 -4.078125 C 0.5625 -4.0625 0.453125 -3.921875 0.453125 -3.875 C 0.453125 -3.84375 0.625 -3.609375 0.6875 -3.546875 Z M 0.6875 -3.546875 "/>
</symbol>
<symbol overflow="visible" id="glyph2-2">
<path style="stroke:none;" d="M 0.625 -3.203125 C 0.734375 -3.609375 0.90625 -4.046875 1.34375 -4.203125 C 1.5 -4.265625 1.671875 -4.28125 1.859375 -4.265625 C 2.21875 -4.234375 2.578125 -4.09375 2.796875 -3.78125 C 2.9375 -3.578125 2.984375 -3.328125 2.953125 -3.078125 C 2.875 -2.40625 2.28125 -1.984375 1.796875 -1.609375 C 1.40625 -1.3125 0.59375 -0.59375 0.59375 -0.59375 L 0.453125 -0.484375 C 0.390625 -0.40625 0.390625 -0.421875 0.390625 -0.265625 L 0.390625 0 L 3.484375 0 L 3.484375 -0.4375 L 0.84375 -0.4375 C 1.109375 -0.671875 1.90625 -1.34375 2.140625 -1.515625 C 2.578125 -1.84375 3.0625 -2.15625 3.34375 -2.640625 C 3.640625 -3.203125 3.453125 -3.921875 2.96875 -4.3125 C 2.4375 -4.765625 1.46875 -4.828125 0.875 -4.390625 C 0.65625 -4.234375 0.5 -3.984375 0.390625 -3.734375 C 0.375 -3.671875 0.328125 -3.609375 0.328125 -3.546875 C 0.34375 -3.515625 0.390625 -3.484375 0.40625 -3.4375 C 0.46875 -3.359375 0.546875 -3.265625 0.625 -3.203125 Z M 0.625 -3.203125 "/>
</symbol>
<symbol overflow="visible" id="glyph2-3">
<path style="stroke:none;" d="M 1.828125 -4.6875 C 1.671875 -4.65625 1.5 -4.640625 1.359375 -4.5625 C 0.625 -4.28125 0.375 -3.34375 0.375 -2.40625 C 0.375 -2.265625 0.375 -2.125 0.375 -1.96875 C 0.390625 -1.328125 0.546875 -0.6875 0.90625 -0.296875 C 1.21875 0.015625 1.671875 0.140625 2.09375 0.109375 C 2.359375 0.078125 2.578125 -0.015625 2.765625 -0.140625 C 3.359375 -0.5625 3.5 -1.421875 3.5 -2.359375 C 3.5 -3.125 3.359375 -3.8125 2.984375 -4.234375 C 2.703125 -4.546875 2.265625 -4.71875 1.828125 -4.6875 Z M 2.421875 -4.171875 C 2.5 -4.125 2.5625 -4.078125 2.625 -4.015625 C 2.890625 -3.765625 2.96875 -3.265625 2.984375 -2.796875 C 2.984375 -2.703125 2.984375 -2.609375 2.984375 -2.515625 L 2.984375 -2.15625 C 2.984375 -1.5625 2.9375 -0.984375 2.671875 -0.625 C 2.328125 -0.171875 1.578125 -0.15625 1.21875 -0.609375 C 1.125 -0.703125 1.078125 -0.828125 1.03125 -0.9375 C 0.90625 -1.296875 0.875 -1.734375 0.875 -2.1875 L 0.875 -2.546875 C 0.875 -2.640625 0.890625 -2.71875 0.890625 -2.8125 C 0.890625 -3.359375 1.03125 -3.90625 1.390625 -4.140625 C 1.671875 -4.3125 2.09375 -4.359375 2.421875 -4.171875 Z M 2.421875 -4.171875 "/>
</symbol>
<symbol overflow="visible" id="glyph2-4">
<path style="stroke:none;" d="M 2.578125 1.546875 C 2.546875 1.5 2.5 1.46875 2.453125 1.4375 C 1.6875 0.75 1.21875 -0.3125 1.171875 -1.59375 C 1.140625 -2.46875 1.296875 -3.375 1.703125 -4.15625 C 1.90625 -4.53125 2.140625 -4.84375 2.453125 -5.109375 C 2.5 -5.15625 2.546875 -5.1875 2.578125 -5.21875 L 2.328125 -5.21875 C 2.171875 -5.21875 2.1875 -5.21875 2.078125 -5.140625 C 1.71875 -4.859375 1.421875 -4.484375 1.1875 -4.0625 C 0.53125 -2.828125 0.484375 -1.15625 1.09375 0.1875 C 1.3125 0.6875 1.65625 1.109375 2.078125 1.46875 C 2.171875 1.53125 2.171875 1.546875 2.328125 1.546875 L 2.578125 1.546875 Z M 2.578125 1.546875 "/>
</symbol>
<symbol overflow="visible" id="glyph2-5">
<path style="stroke:none;" d="M 0.4375 -5.21875 C 0.46875 -5.1875 0.515625 -5.15625 0.5625 -5.109375 C 1.421875 -4.34375 1.890625 -3.109375 1.828125 -1.59375 C 1.8125 -0.84375 1.625 -0.09375 1.265625 0.5625 C 1.078125 0.890625 0.84375 1.1875 0.5625 1.4375 C 0.515625 1.46875 0.46875 1.5 0.4375 1.546875 L 0.6875 1.546875 C 0.84375 1.546875 0.828125 1.546875 0.921875 1.46875 C 1.296875 1.171875 1.59375 0.796875 1.8125 0.390625 C 2.484375 -0.859375 2.53125 -2.515625 1.921875 -3.859375 C 1.6875 -4.375 1.359375 -4.796875 0.9375 -5.140625 C 0.84375 -5.21875 0.84375 -5.21875 0.6875 -5.21875 L 0.4375 -5.21875 Z M 0.4375 -5.21875 "/>
</symbol>
<symbol overflow="visible" id="glyph2-6">
<path style="stroke:none;" d="M 0.78125 -4.21875 L 0.78125 -3.828125 C 1.125 -3.828125 1.46875 -3.890625 1.78125 -4.03125 L 1.78125 -0.390625 L 0.8125 -0.390625 L 0.8125 0 L 3.25 0 L 3.25 -0.390625 L 2.28125 -0.390625 L 2.28125 -4.6875 C 2.25 -4.6875 2.1875 -4.6875 2.15625 -4.671875 C 2.109375 -4.65625 2.0625 -4.59375 2.015625 -4.5625 C 1.734375 -4.328125 1.21875 -4.21875 0.78125 -4.21875 Z M 0.78125 -4.21875 "/>
</symbol>
<symbol overflow="visible" id="glyph2-7">
<path style="stroke:none;" d="M 0.21875 -1.21875 L 2.34375 -1.21875 L 2.34375 0 L 2.8125 0 L 2.8125 -1.21875 L 3.65625 -1.21875 L 3.65625 -1.640625 L 2.8125 -1.640625 L 2.8125 -4.640625 L 2.421875 -4.640625 C 2.375 -4.640625 2.296875 -4.65625 2.265625 -4.625 C 2.203125 -4.578125 2.109375 -4.40625 2.078125 -4.390625 L 1.671875 -3.78125 C 1.515625 -3.546875 0.375 -1.875 0.296875 -1.75 C 0.21875 -1.671875 0.21875 -1.640625 0.21875 -1.5 L 0.21875 -1.21875 Z M 2.359375 -4.1875 L 2.359375 -1.640625 L 0.71875 -1.640625 L 1.765625 -3.1875 C 1.953125 -3.515625 2.1875 -3.828125 2.359375 -4.1875 Z M 2.359375 -4.1875 "/>
</symbol>
</g>
<clipPath id="clip1">
  <path d="M -210 666 L 402 666 L 402 -126 L -210 -126 L -210 666 Z M -210 666 "/>
</clipPath>
<clipPath id="clip2">
  <path d="M -0.875 130.800781 L 192.125 130.800781 L 192.125 -1.199219 L -0.875 -1.199219 L -0.875 130.800781 Z M -0.875 130.800781 "/>
</clipPath>
<clipPath id="clip3">
  <path d="M -210 666 L 402 666 L 402 -126 L -210 -126 L -210 666 Z M -210 666 "/>
</clipPath>
</defs>
<g id="surface0">
<g clip-path="url(#clip1)" clip-rule="nonzero">
<g clip-path="url(#clip2)" clip-rule="nonzero">
<path style="fill:none;stroke-width:5;stroke-linecap:round;stroke-linejoin:round;stroke:rgb(0%,0%,0%);stroke-opacity:1;stroke-miterlimit:10;" d="M 17.627188 29.42625 L 1916.845938 29.42625 " transform="matrix(0.1,0,0,-0.1,-0.876,130.802)"/>
<path style=" stroke:none;fill-rule:nonzero;fill:rgb(0%,0%,0%);fill-opacity:1;" d="M 185.273438 129.085938 L 190.808594 127.859375 L 185.273438 126.632813 "/>
<path style="fill:none;stroke-width:5;stroke-linecap:round;stroke-linejoin:round;stroke:rgb(0%,0%,0%);stroke-opacity:1;stroke-miterlimit:10;" d="M 1861.494375 17.160625 L 1916.845938 29.42625 L 1861.494375 41.691875 L 1861.494375 17.160625 Z M 1861.494375 17.160625 " transform="matrix(0.1,0,0,-0.1,-0.876,130.802)"/>
<path style="fill:none;stroke-width:5;stroke-linecap:round;stroke-linejoin:round;stroke:rgb(0%,0%,0%);stroke-opacity:1;stroke-miterlimit:10;" d="M 896.377187 29.42625 L 896.377187 1305.012187 " transform="matrix(0.1,0,0,-0.1,-0.876,130.802)"/>
<path style=" stroke:none;fill-rule:nonzero;fill:rgb(0%,0%,0%);fill-opacity:1;" d="M 89.988281 5.835938 L 88.761719 0.300781 L 87.535156 5.835938 "/>
<path style="fill:none;stroke-width:5;stroke-linecap:round;stroke-linejoin:round;stroke:rgb(0%,0%,0%);stroke-opacity:1;stroke-miterlimit:10;" d="M 908.642812 1249.660625 L 896.377187 1305.012187 L 884.111562 1249.660625 L 908.642812 1249.660625 Z M 908.642812 1249.660625 " transform="matrix(0.1,0,0,-0.1,-0.876,130.802)"/>
<path style="fill:none;stroke-width:5;stroke-linecap:round;stroke-linejoin:round;stroke:rgb(0%,0%,0%);stroke-opacity:1;stroke-miterlimit:10;" d="M 159.385 29.42625 L 159.385 71.965312 " transform="matrix(0.1,0,0,-0.1,-0.876,130.802)"/>
<path style="fill:none;stroke-width:5;stroke-linecap:round;stroke-linejoin:round;stroke:rgb(0%,0%,0%);stroke-opacity:1;stroke-miterlimit:10;" d="M 405.049063 29.42625 L 405.049063 71.965312 " transform="matrix(0.1,0,0,-0.1,-0.876,130.802)"/>
<path style="fill:none;stroke-width:5;stroke-linecap:round;stroke-linejoin:round;stroke:rgb(0%,0%,0%);stroke-opacity:1;stroke-miterlimit:10;" d="M 1387.705313 29.42625 L 1387.705313 71.965312 " transform="matrix(0.1,0,0,-0.1,-0.876,130.802)"/>
<path style="fill:none;stroke-width:5;stroke-linecap:round;stroke-linejoin:round;stroke:rgb(0%,0%,0%);stroke-opacity:1;stroke-miterlimit:10;" d="M 1633.369375 29.42625 L 1633.369375 71.965312 " transform="matrix(0.1,0,0,-0.1,-0.876,130.802)"/>
<path style="fill:none;stroke-width:5;stroke-linecap:round;stroke-linejoin:round;stroke:rgb(0%,0%,0%);stroke-opacity:1;stroke-miterlimit:10;" d="M 868.017812 281.027812 L 924.736562 281.027812 " transform="matrix(0.1,0,0,-0.1,-0.876,130.802)"/>
<path style="fill:none;stroke-width:5;stroke-linecap:round;stroke-linejoin:round;stroke:rgb(0%,0%,0%);stroke-opacity:1;stroke-miterlimit:10;" d="M 868.017812 532.590312 L 924.736562 532.590312 " transform="matrix(0.1,0,0,-0.1,-0.876,130.802)"/>
<path style="fill:none;stroke-width:5;stroke-linecap:round;stroke-linejoin:round;stroke:rgb(0%,0%,0%);stroke-opacity:1;stroke-miterlimit:10;" d="M 868.017812 784.152812 L 924.736562 784.152812 " transform="matrix(0.1,0,0,-0.1,-0.876,130.802)"/>
<path style="fill:none;stroke-width:5;stroke-linecap:round;stroke-linejoin:round;stroke:rgb(0%,0%,0%);stroke-opacity:1;stroke-miterlimit:10;" d="M 868.017812 1035.754375 L 924.736562 1035.754375 " transform="matrix(0.1,0,0,-0.1,-0.876,130.802)"/>
<path style="fill:none;stroke-width:5;stroke-linecap:round;stroke-linejoin:round;stroke:rgb(0%,0%,0%);stroke-opacity:1;stroke-dasharray:31.8,31.8;stroke-miterlimit:10;" d="M 1142.04125 29.42625 L 1142.04125 638.254375 " transform="matrix(0.1,0,0,-0.1,-0.876,130.802)"/>
<path style="fill:none;stroke-width:5;stroke-linecap:round;stroke-linejoin:round;stroke:rgb(0%,0%,0%);stroke-opacity:1;stroke-dasharray:31.8,31.8;stroke-miterlimit:10;" d="M 650.713125 29.42625 L 650.713125 638.254375 " transform="matrix(0.1,0,0,-0.1,-0.876,130.802)"/>
<path style="fill:none;stroke-width:7;stroke-linecap:round;stroke-linejoin:round;stroke:rgb(0%,0%,0%);stroke-opacity:1;stroke-miterlimit:10;" d="M 45.986563 31.965312 C 67.392813 32.7075 88.799063 33.762187 110.244375 35.441875 C 142.97875 37.980937 175.752188 41.92625 208.486563 49.348125 C 241.26 56.809062 274.033438 67.746562 306.767813 85.793437 C 339.580313 103.879375 372.35375 129.11375 405.049063 165.246562 C 437.939688 201.691875 470.713125 249.230937 503.29125 308.48875 C 536.26 368.410625 568.994375 440.246562 601.5725 517.980937 C 634.385 596.184062 667.04125 680.402812 699.85375 758.215312 C 732.35375 835.402812 765.049062 906.262187 798.095937 955.910625 C 830.635 1004.855937 863.486562 1033.098125 896.377187 1033.098125 C 929.267812 1033.098125 962.080312 1004.855937 994.619375 955.910625 C 1027.66625 906.262187 1060.361563 835.402812 1092.900625 758.215312 C 1125.713125 680.402812 1158.369375 596.184062 1191.181875 517.980937 C 1223.76 440.246562 1256.494375 368.410625 1289.463125 308.48875 C 1322.04125 249.230937 1354.814688 201.691875 1387.705313 165.246562 C 1420.361563 129.074687 1453.174063 103.879375 1485.986563 85.793437 C 1518.720938 67.746562 1551.494375 56.809062 1584.267813 49.348125 C 1617.002188 41.92625 1649.775625 37.980937 1682.51 35.441875 C 1703.91625 33.762187 1725.361563 32.7075 1746.767813 31.965312 " transform="matrix(0.1,0,0,-0.1,-0.876,130.802)"/>
</g>
</g>
<g clip-path="url(#clip3)" clip-rule="nonzero">
<g style="fill:rgb(0%,0%,0%);fill-opacity:1;">
  <use xlink:href="#glyph0-1" x="178.169" y="134.245"/>
</g>
<g style="fill:rgb(0%,0%,0%);fill-opacity:1;">
  <use xlink:href="#glyph1-1" x="7.9" y="134.245"/>
</g>
<g style="fill:rgb(0%,0%,0%);fill-opacity:1;">
  <use xlink:href="#glyph2-1" x="13.663" y="134.245"/>
</g>
<g style="fill:rgb(0%,0%,0%);fill-opacity:1;">
  <use xlink:href="#glyph0-2" x="17.542" y="134.245"/>
</g>
<g style="fill:rgb(0%,0%,0%);fill-opacity:1;">
  <use xlink:href="#glyph1-1" x="32.561" y="134.245"/>
</g>
<g style="fill:rgb(0%,0%,0%);fill-opacity:1;">
  <use xlink:href="#glyph2-2" x="38.324" y="134.245"/>
</g>
<g style="fill:rgb(0%,0%,0%);fill-opacity:1;">
  <use xlink:href="#glyph0-2" x="42.203" y="134.245"/>
</g>
<g style="fill:rgb(0%,0%,0%);fill-opacity:1;">
  <use xlink:href="#glyph1-1" x="59.162" y="134.245"/>
</g>
<g style="fill:rgb(0%,0%,0%);fill-opacity:1;">
  <use xlink:href="#glyph0-2" x="64.925" y="134.245"/>
</g>
<g style="fill:rgb(0%,0%,0%);fill-opacity:1;">
  <use xlink:href="#glyph2-3" x="86.759" y="134.245"/>
</g>
<g style="fill:rgb(0%,0%,0%);fill-opacity:1;">
  <use xlink:href="#glyph0-2" x="111.083" y="134.245"/>
</g>
<g style="fill:rgb(0%,0%,0%);fill-opacity:1;">
  <use xlink:href="#glyph2-2" x="133.805" y="134.245"/>
</g>
<g style="fill:rgb(0%,0%,0%);fill-opacity:1;">
  <use xlink:href="#glyph0-2" x="137.684" y="134.245"/>
</g>
<g style="fill:rgb(0%,0%,0%);fill-opacity:1;">
  <use xlink:href="#glyph2-1" x="158.466" y="134.245"/>
</g>
<g style="fill:rgb(0%,0%,0%);fill-opacity:1;">
  <use xlink:href="#glyph0-2" x="162.345" y="134.245"/>
</g>
<g style="fill:rgb(0%,0%,0%);fill-opacity:1;">
  <use xlink:href="#glyph0-2" x="91.25" y="7.918"/>
</g>
<g style="fill:rgb(0%,0%,0%);fill-opacity:1;">
  <use xlink:href="#glyph0-3" x="95.801102" y="7.918"/>
</g>
<g style="fill:rgb(0%,0%,0%);fill-opacity:1;">
  <use xlink:href="#glyph2-4" x="101.243" y="7.918"/>
</g>
<g style="fill:rgb(0%,0%,0%);fill-opacity:1;">
  <use xlink:href="#glyph0-1" x="104.26" y="7.918"/>
</g>
<g style="fill:rgb(0%,0%,0%);fill-opacity:1;">
  <use xlink:href="#glyph2-5" x="108.333" y="7.918"/>
</g>
<g style="fill:rgb(0%,0%,0%);fill-opacity:1;">
  <use xlink:href="#glyph2-3" x="92.951" y="105.027"/>
</g>
<g style="fill:rgb(0%,0%,0%);fill-opacity:1;">
  <use xlink:href="#glyph0-4" x="96.83" y="105.027"/>
</g>
<g style="fill:rgb(0%,0%,0%);fill-opacity:1;">
  <use xlink:href="#glyph2-6" x="98.985" y="105.027"/>
</g>
<g style="fill:rgb(0%,0%,0%);fill-opacity:1;">
  <use xlink:href="#glyph2-3" x="92.951" y="79.799"/>
</g>
<g style="fill:rgb(0%,0%,0%);fill-opacity:1;">
  <use xlink:href="#glyph0-4" x="96.83" y="79.799"/>
</g>
<g style="fill:rgb(0%,0%,0%);fill-opacity:1;">
  <use xlink:href="#glyph2-2" x="98.985" y="79.799"/>
</g>
<g style="fill:rgb(0%,0%,0%);fill-opacity:1;">
  <use xlink:href="#glyph2-3" x="92.951" y="54.571"/>
</g>
<g style="fill:rgb(0%,0%,0%);fill-opacity:1;">
  <use xlink:href="#glyph0-4" x="96.83" y="54.571"/>
</g>
<g style="fill:rgb(0%,0%,0%);fill-opacity:1;">
  <use xlink:href="#glyph2-1" x="98.985" y="54.571"/>
</g>
<g style="fill:rgb(0%,0%,0%);fill-opacity:1;">
  <use xlink:href="#glyph2-3" x="92.951" y="27.054"/>
</g>
<g style="fill:rgb(0%,0%,0%);fill-opacity:1;">
  <use xlink:href="#glyph0-4" x="96.83" y="27.054"/>
</g>
<g style="fill:rgb(0%,0%,0%);fill-opacity:1;">
  <use xlink:href="#glyph2-7" x="98.985" y="27.054"/>
</g>
</g>
</g>
</svg>
