<?xml version="1.0" encoding="UTF-8"?>
<svg xmlns="http://www.w3.org/2000/svg" xmlns:xlink="http://www.w3.org/1999/xlink" width="330pt" height="255pt" viewBox="0 0 238 184" version="1.1">
<defs>
<g>
<symbol overflow="visible" id="glyph0-0">
<path style="stroke:none;" d=""/>
</symbol>
<symbol overflow="visible" id="glyph0-1">
<path style="stroke:none;" d="M 4.515625 -0.796875 C 4.125 -0.578125 3.875 -0.375 3.296875 -0.359375 C 3.09375 -0.359375 2.875 -0.34375 2.671875 -0.390625 C 2.109375 -0.5 1.640625 -0.890625 1.375 -1.390625 C 0.890625 -2.28125 1.125 -3.5 1.953125 -4.125 C 2.09375 -4.21875 2.234375 -4.3125 2.390625 -4.375 C 2.859375 -4.53125 3.421875 -4.515625 3.890625 -4.34375 C 4.0625 -4.265625 4.21875 -4.1875 4.375 -4.109375 C 4.40625 -4.28125 4.453125 -4.46875 4.46875 -4.640625 C 4.328125 -4.703125 4.171875 -4.75 4 -4.78125 C 3.671875 -4.859375 3.171875 -4.921875 2.796875 -4.890625 C 2.078125 -4.828125 1.46875 -4.421875 1.109375 -3.9375 C 0.640625 -3.34375 0.484375 -2.546875 0.65625 -1.8125 C 0.953125 -0.6875 1.90625 0.125 3.28125 0.046875 C 3.734375 0.03125 4.015625 -0.0625 4.375 -0.234375 C 4.40625 -0.265625 4.53125 -0.3125 4.546875 -0.34375 C 4.5625 -0.390625 4.515625 -0.6875 4.515625 -0.796875 Z M 4.515625 -0.796875 "/>
</symbol>
<symbol overflow="visible" id="glyph0-2">
<path style="stroke:none;" d="M 1 -4.03125 C 0.265625 -3.125 0.234375 -1.75 0.96875 -0.84375 C 1.28125 -0.4375 1.703125 -0.140625 2.234375 0.015625 C 3.71875 0.421875 4.921875 -0.546875 5.25 -1.65625 C 5.53125 -2.578125 5.25 -3.640625 4.53125 -4.3125 C 4.171875 -4.640625 3.65625 -4.90625 3.046875 -4.9375 C 2.125 -5.015625 1.421875 -4.53125 1 -4.03125 Z M 3.484375 -4.453125 C 3.96875 -4.296875 4.359375 -3.96875 4.59375 -3.53125 C 4.734375 -3.265625 4.796875 -2.96875 4.828125 -2.671875 C 4.890625 -1.84375 4.546875 -0.9375 3.796875 -0.53125 C 3.421875 -0.328125 2.96875 -0.234375 2.484375 -0.34375 C 2.15625 -0.421875 1.859375 -0.59375 1.640625 -0.796875 C 1.21875 -1.1875 1 -1.765625 0.96875 -2.328125 C 0.90625 -3.34375 1.421875 -4.109375 2.140625 -4.390625 C 2.5625 -4.5625 3.03125 -4.59375 3.484375 -4.453125 Z M 3.484375 -4.453125 "/>
</symbol>
<symbol overflow="visible" id="glyph0-3">
<path style="stroke:none;" d="M 0.75 -4.84375 L 0.75 0 L 1.234375 0 L 1.234375 -4.40625 L 1.234375 -4.40625 L 1.4375 -4.0625 L 3.015625 -1.3125 C 3.265625 -0.875 3.5 -0.4375 3.75 -0.015625 C 3.96875 0.03125 4.25 -0.015625 4.484375 0 L 4.484375 -4.84375 L 4 -4.84375 L 4 -0.421875 L 2.1875 -3.59375 C 1.953125 -4 1.734375 -4.4375 1.484375 -4.828125 C 1.28125 -4.859375 0.984375 -4.828125 0.75 -4.84375 Z M 0.75 -4.84375 "/>
</symbol>
<symbol overflow="visible" id="glyph0-4">
<path style="stroke:none;" d="M 0.734375 -4.84375 L 0.734375 0 L 2.265625 0 C 2.890625 0 3.203125 0.03125 3.71875 -0.21875 C 4.359375 -0.515625 4.875 -1.109375 5.03125 -1.875 C 5.234375 -2.84375 4.828125 -3.90625 4 -4.453125 C 3.703125 -4.640625 3.359375 -4.78125 3 -4.828125 C 2.71875 -4.84375 2.4375 -4.84375 2.15625 -4.84375 L 0.734375 -4.84375 Z M 1.25 -0.40625 L 1.25 -4.421875 L 2.234375 -4.421875 C 2.421875 -4.421875 2.609375 -4.4375 2.796875 -4.421875 C 3.296875 -4.375 3.71875 -4.171875 4.015625 -3.875 C 4.375 -3.5 4.53125 -3 4.5625 -2.5 C 4.59375 -1.90625 4.40625 -1.296875 3.96875 -0.890625 C 3.6875 -0.640625 3.25 -0.453125 2.796875 -0.421875 C 2.609375 -0.40625 2.4375 -0.40625 2.25 -0.40625 L 1.25 -0.40625 Z M 1.25 -0.40625 "/>
</symbol>
<symbol overflow="visible" id="glyph0-5">
<path style="stroke:none;" d="M 0.734375 -4.84375 L 0.734375 -1.78125 C 0.734375 -1.640625 0.734375 -1.5 0.75 -1.359375 C 0.8125 -0.953125 1.015625 -0.625 1.28125 -0.390625 C 1.84375 0.125 2.703125 0.265625 3.390625 -0.0625 C 3.75 -0.234375 4.078125 -0.5625 4.25 -0.921875 C 4.375 -1.21875 4.390625 -1.40625 4.390625 -1.8125 L 4.390625 -4.84375 L 3.890625 -4.84375 L 3.890625 -1.765625 C 3.890625 -1.5 3.875 -1.21875 3.75 -0.96875 C 3.671875 -0.8125 3.5625 -0.65625 3.40625 -0.546875 C 2.8125 -0.109375 1.765625 -0.28125 1.4375 -0.875 C 1.28125 -1.15625 1.265625 -1.46875 1.265625 -1.78125 L 1.265625 -4.84375 L 0.734375 -4.84375 Z M 0.734375 -4.84375 "/>
</symbol>
<symbol overflow="visible" id="glyph0-6">
<path style="stroke:none;" d="M 0.28125 -4.8125 L 0.28125 -4.40625 L 2.421875 -4.40625 L 2.421875 0 L 2.953125 0 L 2.953125 -4.40625 L 5.078125 -4.40625 L 5.078125 -4.8125 L 0.28125 -4.8125 Z M 0.28125 -4.8125 "/>
</symbol>
<symbol overflow="visible" id="glyph0-7">
<path style="stroke:none;" d="M 0.734375 -4.84375 L 0.734375 0 L 1.25 0 L 1.25 -2.21875 L 2.28125 -2.21875 C 2.421875 -2.21875 2.546875 -2.234375 2.65625 -2.203125 C 2.78125 -2.03125 2.90625 -1.859375 3.03125 -1.671875 C 3.421875 -1.125 3.8125 -0.5625 4.21875 -0.015625 C 4.390625 0 4.578125 0 4.75 0 L 4.46875 -0.390625 L 3.125 -2.28125 C 3.25 -2.296875 3.390625 -2.328125 3.515625 -2.390625 C 4.015625 -2.5625 4.578125 -2.96875 4.53125 -3.5625 C 4.515625 -3.796875 4.453125 -3.9375 4.328125 -4.109375 C 4.015625 -4.515625 3.484375 -4.765625 2.875 -4.828125 C 2.625 -4.84375 2.390625 -4.84375 2.125 -4.84375 L 0.734375 -4.84375 Z M 1.25 -2.609375 L 1.25 -4.421875 L 2.296875 -4.421875 C 2.640625 -4.421875 3 -4.421875 3.34375 -4.328125 C 3.671875 -4.203125 4 -3.96875 4.046875 -3.59375 C 4.0625 -3.359375 3.96875 -3.140625 3.8125 -2.984375 C 3.6875 -2.875 3.546875 -2.796875 3.390625 -2.734375 C 3.046875 -2.609375 2.6875 -2.609375 2.328125 -2.609375 L 1.25 -2.609375 Z M 1.25 -2.609375 "/>
</symbol>
<symbol overflow="visible" id="glyph0-8">
<path style="stroke:none;" d="M 2.71875 -2 L 0.6875 -2 C 0.640625 -2 0.578125 -2 0.53125 -2 C 0.453125 -1.96875 0.40625 -1.90625 0.40625 -1.84375 C 0.40625 -1.765625 0.453125 -1.703125 0.53125 -1.6875 C 0.578125 -1.671875 0.640625 -1.671875 0.6875 -1.671875 L 2.71875 -1.671875 L 2.71875 0.359375 C 2.71875 0.40625 2.703125 0.453125 2.71875 0.515625 C 2.75 0.578125 2.8125 0.625 2.875 0.625 C 2.953125 0.625 3.015625 0.578125 3.03125 0.515625 C 3.046875 0.453125 3.03125 0.40625 3.03125 0.359375 L 3.03125 -1.671875 L 5.078125 -1.671875 C 5.125 -1.671875 5.171875 -1.671875 5.21875 -1.6875 C 5.296875 -1.703125 5.34375 -1.765625 5.34375 -1.84375 C 5.34375 -1.90625 5.296875 -1.96875 5.21875 -2 C 5.171875 -2 5.125 -2 5.078125 -2 L 3.03125 -2 L 3.03125 -4.03125 C 3.03125 -4.078125 3.046875 -4.140625 3.03125 -4.1875 C 3.015625 -4.265625 2.953125 -4.3125 2.875 -4.3125 C 2.8125 -4.3125 2.75 -4.265625 2.71875 -4.1875 C 2.703125 -4.140625 2.71875 -4.078125 2.71875 -4.03125 L 2.71875 -2 Z M 2.71875 -2 "/>
</symbol>
<symbol overflow="visible" id="glyph0-9">
<path style="stroke:none;" d="M 3.140625 -0.796875 C 3.09375 -0.765625 3.046875 -0.71875 3 -0.6875 C 2.59375 -0.390625 1.875 -0.140625 1.328125 -0.53125 C 0.984375 -0.78125 0.78125 -1.15625 0.78125 -1.734375 L 3.203125 -1.734375 C 3.203125 -2.25 3.078125 -2.734375 2.78125 -3.03125 C 2.4375 -3.34375 1.90625 -3.4375 1.46875 -3.328125 C 1.28125 -3.28125 1.109375 -3.1875 0.953125 -3.0625 C 0.515625 -2.71875 0.296875 -2.171875 0.296875 -1.609375 C 0.3125 -0.828125 0.890625 -0.109375 1.671875 0.03125 C 2.0625 0.109375 2.484375 0.015625 2.84375 -0.15625 C 2.90625 -0.1875 3.140625 -0.3125 3.15625 -0.375 C 3.1875 -0.40625 3.15625 -0.703125 3.140625 -0.796875 Z M 2.78125 -2.046875 L 0.8125 -2.046875 C 0.90625 -2.359375 1.0625 -2.65625 1.34375 -2.84375 C 1.6875 -3.0625 2.203125 -3.03125 2.5 -2.71875 C 2.671875 -2.53125 2.75 -2.296875 2.78125 -2.046875 Z M 2.78125 -2.046875 "/>
</symbol>
<symbol overflow="visible" id="glyph0-10">
<path style="stroke:none;" d="M 0.84375 -4.234375 L 0.84375 -3.296875 L 0.140625 -3.296875 L 0.140625 -2.90625 L 0.828125 -2.90625 L 0.828125 -0.921875 C 0.828125 -0.625 0.84375 -0.265625 1.09375 -0.0625 C 1.234375 0.0625 1.40625 0.0625 1.578125 0.046875 C 1.96875 0.03125 2.3125 -0.09375 2.578125 -0.25 L 2.484375 -0.625 C 2.40625 -0.578125 2.328125 -0.515625 2.25 -0.46875 C 2.03125 -0.359375 1.640625 -0.265625 1.453125 -0.453125 C 1.28125 -0.640625 1.3125 -0.953125 1.3125 -1.1875 L 1.3125 -2.90625 L 2.453125 -2.90625 L 2.453125 -3.296875 L 1.3125 -3.296875 L 1.3125 -4.234375 L 0.84375 -4.234375 Z M 0.84375 -4.234375 "/>
</symbol>
<symbol overflow="visible" id="glyph0-11">
<path style="stroke:none;" d="M 3.1875 -0.796875 C 3.125 -0.765625 3.078125 -0.71875 3.03125 -0.6875 C 2.9375 -0.625 2.84375 -0.5625 2.734375 -0.515625 C 2.3125 -0.3125 1.671875 -0.265625 1.296875 -0.5625 C 1.03125 -0.75 0.859375 -1.109375 0.84375 -1.5 C 0.8125 -1.953125 0.921875 -2.453125 1.296875 -2.75 C 1.5 -2.90625 1.765625 -3 2.140625 -2.96875 C 2.46875 -2.9375 2.65625 -2.890625 2.921875 -2.75 C 2.984375 -2.71875 3.03125 -2.671875 3.09375 -2.65625 L 3.171875 -3.078125 C 3.015625 -3.15625 2.875 -3.234375 2.703125 -3.28125 C 2.296875 -3.421875 1.671875 -3.40625 1.3125 -3.234375 C 0.96875 -3.078125 0.6875 -2.796875 0.515625 -2.46875 C 0.265625 -1.96875 0.265625 -1.359375 0.515625 -0.84375 C 0.609375 -0.65625 0.734375 -0.484375 0.90625 -0.34375 C 1.375 0.09375 2.09375 0.140625 2.6875 -0.0625 C 2.828125 -0.125 2.953125 -0.1875 3.078125 -0.265625 C 3.125 -0.296875 3.1875 -0.328125 3.203125 -0.359375 C 3.21875 -0.40625 3.1875 -0.796875 3.1875 -0.796875 Z M 3.1875 -0.796875 "/>
</symbol>
<symbol overflow="visible" id="glyph0-12">
<path style="stroke:none;" d="M 0.78125 -0.578125 L 0.78125 0 L 1.359375 0 L 1.359375 -0.578125 L 0.78125 -0.578125 Z M 0.78125 -0.578125 "/>
</symbol>
<symbol overflow="visible" id="glyph1-0">
<path style="stroke:none;" d=""/>
</symbol>
<symbol overflow="visible" id="glyph1-1">
<path style="stroke:none;" d="M 0.734375 -2 C 0.59375 -1.953125 0.578125 -1.734375 0.71875 -1.6875 C 0.765625 -1.671875 0.8125 -1.671875 0.84375 -1.671875 L 4.78125 -1.671875 C 4.875 -1.671875 5.015625 -1.65625 5.09375 -1.71875 C 5.171875 -1.8125 5.125 -1.96875 5 -2 C 4.921875 -2.015625 4.828125 -2 4.734375 -2 L 0.859375 -2 C 0.828125 -2 0.78125 -2 0.734375 -2 Z M 0.734375 -2 "/>
</symbol>
<symbol overflow="visible" id="glyph2-0">
<path style="stroke:none;" d=""/>
</symbol>
<symbol overflow="visible" id="glyph2-1">
<path style="stroke:none;" d="M 0.640625 0 L 3.1875 0 C 3.484375 -0.015625 3.828125 0.03125 4.09375 -0.015625 C 4.171875 -0.203125 4.1875 -0.453125 4.234375 -0.671875 C 3.375 -0.65625 2.484375 -0.65625 1.625 -0.640625 C 1.703125 -1.03125 1.796875 -1.40625 1.875 -1.796875 L 1.9375 -2.09375 C 1.9375 -2.125 1.9375 -2.1875 1.96875 -2.203125 C 2 -2.234375 2.078125 -2.21875 2.125 -2.21875 L 4.265625 -2.21875 L 4.390625 -2.78125 L 2.078125 -2.78125 L 2.375 -4.203125 L 4.890625 -4.1875 L 5.03125 -4.8125 L 2.546875 -4.8125 C 2.265625 -4.796875 1.921875 -4.84375 1.671875 -4.796875 L 1.640625 -4.703125 L 0.640625 0 Z M 0.640625 0 "/>
</symbol>
<symbol overflow="visible" id="glyph3-0">
<path style="stroke:none;" d=""/>
</symbol>
<symbol overflow="visible" id="glyph3-1">
<path style="stroke:none;" d="M 4.15625 -0.796875 C 4.046875 -0.75 3.9375 -0.671875 3.828125 -0.625 C 3.546875 -0.5 3.28125 -0.40625 2.984375 -0.375 C 2.71875 -0.34375 2.453125 -0.328125 2.1875 -0.390625 C 1.921875 -0.46875 1.6875 -0.59375 1.515625 -0.78125 C 1.09375 -1.1875 1 -1.8125 1.109375 -2.375 C 1.28125 -3.28125 1.953125 -4.0625 2.8125 -4.375 C 3.265625 -4.53125 3.84375 -4.5 4.265625 -4.359375 C 4.515625 -4.25 4.453125 -4.265625 4.734375 -4.109375 L 4.9375 -4.640625 C 4.71875 -4.71875 4.515625 -4.78125 4.296875 -4.828125 C 3.953125 -4.90625 3.453125 -4.90625 3.109375 -4.859375 C 2.328125 -4.71875 1.734375 -4.296875 1.28125 -3.796875 C 0.65625 -3.078125 0.296875 -2 0.6875 -1.09375 C 0.75 -0.90625 0.859375 -0.734375 0.984375 -0.59375 C 1.375 -0.125 1.9375 0.09375 2.75 0.046875 C 3.234375 0.03125 3.5 -0.0625 3.890625 -0.234375 C 3.9375 -0.25 3.984375 -0.28125 4.03125 -0.296875 C 4.0625 -0.3125 4.078125 -0.328125 4.09375 -0.34375 C 4.125 -0.390625 4.15625 -0.78125 4.15625 -0.796875 Z M 4.15625 -0.796875 "/>
</symbol>
</g>
<clipPath id="clip1">
  <path d="M -186 668 L 426 668 L 426 -124 L -186 -124 L -186 668 Z M -186 668 "/>
</clipPath>
<clipPath id="clip2">
  <path d="M -0.847656 183.820313 L 240.097656 183.820313 L 240.097656 1.75 L -0.847656 1.75 L -0.847656 183.820313 Z M -0.847656 183.820313 "/>
</clipPath>
<clipPath id="clip3">
  <path d="M -186 668 L 426 668 L 426 -124 L -186 -124 L -186 668 Z M -186 668 "/>
</clipPath>
<clipPath id="clip4">
  <path d="M -0.847656 183.820313 L 240.097656 183.820313 L 240.097656 1.75 L -0.847656 1.75 L -0.847656 183.820313 Z M -0.847656 183.820313 "/>
</clipPath>
<clipPath id="clip5">
  <path d="M 225.632813 18.160156 L 12.871094 18.160156 L 12.871094 12.4375 L 225.632813 12.4375 L 225.632813 18.160156 Z M 225.632813 18.160156 "/>
</clipPath>
<clipPath id="clip6">
  <path d="M -186 668 L 426 668 L 426 -124 L -186 -124 L -186 668 Z M -186 668 "/>
</clipPath>
<clipPath id="clip7">
  <path d="M -0.847656 183.820313 L 240.097656 183.820313 L 240.097656 1.75 L -0.847656 1.75 L -0.847656 183.820313 Z M -0.847656 183.820313 "/>
</clipPath>
<clipPath id="clip8">
  <path d="M -186 668 L 426 668 L 426 -124 L -186 -124 L -186 668 Z M -186 668 "/>
</clipPath>
<clipPath id="clip9">
  <path d="M -0.847656 183.820313 L 240.097656 183.820313 L 240.097656 1.75 L -0.847656 1.75 L -0.847656 183.820313 Z M -0.847656 183.820313 "/>
</clipPath>
<clipPath id="clip10">
  <path d="M 157.210938 144.085938 L 118.527344 182.730469 L 80.496094 144.082031 L 80.496094 144.085938 L 12.871094 144.085938 L 12.871094 138.363281 L 82.003906 138.363281 L 118.855469 174.214844 L 155.851563 138.363281 L 225.632813 138.363281 L 225.632813 144.085938 L 157.210938 144.085938 Z M 157.210938 144.085938 "/>
</clipPath>
<clipPath id="clip11">
  <path d="M -186 668 L 426 668 L 426 -124 L -186 -124 L -186 668 Z M -186 668 "/>
</clipPath>
<clipPath id="clip12">
  <path d="M -0.847656 183.820313 L 240.097656 183.820313 L 240.097656 1.75 L -0.847656 1.75 L -0.847656 183.820313 Z M -0.847656 183.820313 "/>
</clipPath>
<clipPath id="clip13">
  <path d="M -186 668 L 426 668 L 426 -124 L -186 -124 L -186 668 Z M -186 668 "/>
</clipPath>
</defs>
<g id="surface0">
<g clip-path="url(#clip1)" clip-rule="nonzero">
<g clip-path="url(#clip2)" clip-rule="nonzero">
<path style="fill:none;stroke-width:7.5;stroke-linecap:butt;stroke-linejoin:miter;stroke:rgb(0%,0%,0%);stroke-opacity:1;stroke-dasharray:20,20;stroke-miterlimit:4;" d="M 12.516648 1519.487711 L 125.807958 1519.487711 " transform="matrix(0.109025,0,0,-0.109025,-0.849,183.822)"/>
<path style="fill:none;stroke-width:7.5;stroke-linecap:butt;stroke-linejoin:miter;stroke:rgb(0%,0%,0%);stroke-opacity:1;stroke-miterlimit:4;" d="M 2078.345363 1519.487711 L 125.843787 1519.487711 " transform="matrix(0.109025,0,0,-0.109025,-0.849,183.822)"/>
<path style="fill:none;stroke-width:7.5;stroke-linecap:butt;stroke-linejoin:miter;stroke:rgb(0%,0%,0%);stroke-opacity:1;stroke-dasharray:20,20;stroke-miterlimit:4;" d="M 2190.66929 1519.487711 L 2078.345363 1519.487711 " transform="matrix(0.109025,0,0,-0.109025,-0.849,183.822)"/>
<path style="fill:none;stroke-width:7.5;stroke-linecap:butt;stroke-linejoin:miter;stroke:rgb(0%,0%,0%);stroke-opacity:1;stroke-dasharray:20,20;stroke-miterlimit:4;" d="M 2190.66929 1571.977202 L 2076.6614 1571.977202 " transform="matrix(0.109025,0,0,-0.109025,-0.849,183.822)"/>
<path style="fill:none;stroke-width:7.5;stroke-linecap:butt;stroke-linejoin:miter;stroke:rgb(0%,0%,0%);stroke-opacity:1;stroke-miterlimit:4;" d="M 125.843787 1571.977202 L 2076.6614 1571.977202 " transform="matrix(0.109025,0,0,-0.109025,-0.849,183.822)"/>
<path style="fill:none;stroke-width:7.5;stroke-linecap:butt;stroke-linejoin:miter;stroke:rgb(0%,0%,0%);stroke-opacity:1;stroke-dasharray:20,20;stroke-miterlimit:4;" d="M 12.516648 1571.977202 L 125.843787 1571.977202 " transform="matrix(0.109025,0,0,-0.109025,-0.849,183.822)"/>
</g>
</g>
<g clip-path="url(#clip3)" clip-rule="nonzero">
<g clip-path="url(#clip4)" clip-rule="nonzero">
<g clip-path="url(#clip5)" clip-rule="nonzero">
<path style="fill:none;stroke-width:3.8;stroke-linecap:butt;stroke-linejoin:miter;stroke:rgb(0%,0%,0%);stroke-opacity:1;stroke-miterlimit:4;" d="M 33.942392 1393.047155 L 225.448419 1584.553182 " transform="matrix(0.109025,0,0,-0.109025,-0.849,183.822)"/>
<path style="fill:none;stroke-width:3.8;stroke-linecap:butt;stroke-linejoin:miter;stroke:rgb(0%,0%,0%);stroke-opacity:1;stroke-miterlimit:4;" d="M 5.673308 1421.352069 L 197.179334 1612.858095 " transform="matrix(0.109025,0,0,-0.109025,-0.849,183.822)"/>
<path style="fill:none;stroke-width:3.8;stroke-linecap:butt;stroke-linejoin:miter;stroke:rgb(0%,0%,0%);stroke-opacity:1;stroke-miterlimit:4;" d="M -22.595776 1449.621153 L 168.874421 1641.127179 " transform="matrix(0.109025,0,0,-0.109025,-0.849,183.822)"/>
<path style="fill:none;stroke-width:3.8;stroke-linecap:butt;stroke-linejoin:miter;stroke:rgb(0%,0%,0%);stroke-opacity:1;stroke-miterlimit:4;" d="M 90.516389 1336.508987 L 282.022416 1528.015014 " transform="matrix(0.109025,0,0,-0.109025,-0.849,183.822)"/>
<path style="fill:none;stroke-width:3.8;stroke-linecap:butt;stroke-linejoin:miter;stroke:rgb(0%,0%,0%);stroke-opacity:1;stroke-miterlimit:4;" d="M 62.247305 1364.778071 L 253.753332 1556.284098 " transform="matrix(0.109025,0,0,-0.109025,-0.849,183.822)"/>
<path style="fill:none;stroke-width:3.8;stroke-linecap:butt;stroke-linejoin:miter;stroke:rgb(0%,0%,0%);stroke-opacity:1;stroke-miterlimit:4;" d="M 310.2915 1499.7101 L 501.797527 1691.216127 " transform="matrix(0.109025,0,0,-0.109025,-0.849,183.822)"/>
<path style="fill:none;stroke-width:3.8;stroke-linecap:butt;stroke-linejoin:miter;stroke:rgb(0%,0%,0%);stroke-opacity:1;stroke-miterlimit:4;" d="M 282.022416 1528.015014 L 473.528443 1719.52104 " transform="matrix(0.109025,0,0,-0.109025,-0.849,183.822)"/>
<path style="fill:none;stroke-width:3.8;stroke-linecap:butt;stroke-linejoin:miter;stroke:rgb(0%,0%,0%);stroke-opacity:1;stroke-miterlimit:4;" d="M 253.753332 1556.284098 L 445.259358 1747.790124 " transform="matrix(0.109025,0,0,-0.109025,-0.849,183.822)"/>
<path style="fill:none;stroke-width:3.8;stroke-linecap:butt;stroke-linejoin:miter;stroke:rgb(0%,0%,0%);stroke-opacity:1;stroke-miterlimit:4;" d="M 395.170411 1414.867019 L 586.676437 1606.373045 " transform="matrix(0.109025,0,0,-0.109025,-0.849,183.822)"/>
<path style="fill:none;stroke-width:3.8;stroke-linecap:butt;stroke-linejoin:miter;stroke:rgb(0%,0%,0%);stroke-opacity:1;stroke-miterlimit:4;" d="M 366.865498 1443.136103 L 558.371524 1634.64213 " transform="matrix(0.109025,0,0,-0.109025,-0.849,183.822)"/>
<path style="fill:none;stroke-width:3.8;stroke-linecap:butt;stroke-linejoin:miter;stroke:rgb(0%,0%,0%);stroke-opacity:1;stroke-miterlimit:4;" d="M 338.596413 1471.441016 L 530.10244 1662.947043 " transform="matrix(0.109025,0,0,-0.109025,-0.849,183.822)"/>
<path style="fill:none;stroke-width:3.8;stroke-linecap:butt;stroke-linejoin:miter;stroke:rgb(0%,0%,0%);stroke-opacity:1;stroke-miterlimit:4;" d="M 480.013492 1330.023937 L 671.519519 1521.494135 " transform="matrix(0.109025,0,0,-0.109025,-0.849,183.822)"/>
<path style="fill:none;stroke-width:3.8;stroke-linecap:butt;stroke-linejoin:miter;stroke:rgb(0%,0%,0%);stroke-opacity:1;stroke-miterlimit:4;" d="M 451.744408 1358.293021 L 643.214606 1549.799048 " transform="matrix(0.109025,0,0,-0.109025,-0.849,183.822)"/>
<path style="fill:none;stroke-width:3.8;stroke-linecap:butt;stroke-linejoin:miter;stroke:rgb(0%,0%,0%);stroke-opacity:1;stroke-miterlimit:4;" d="M 423.439495 1386.562106 L 614.945522 1578.068132 " transform="matrix(0.109025,0,0,-0.109025,-0.849,183.822)"/>
<path style="fill:none;stroke-width:3.8;stroke-linecap:butt;stroke-linejoin:miter;stroke:rgb(0%,0%,0%);stroke-opacity:1;stroke-miterlimit:4;" d="M 671.519519 1521.494135 L 863.025546 1713.03599 " transform="matrix(0.109025,0,0,-0.109025,-0.849,183.822)"/>
<path style="fill:none;stroke-width:3.8;stroke-linecap:butt;stroke-linejoin:miter;stroke:rgb(0%,0%,0%);stroke-opacity:1;stroke-miterlimit:4;" d="M 643.214606 1549.799048 L 834.720632 1741.305075 " transform="matrix(0.109025,0,0,-0.109025,-0.849,183.822)"/>
<path style="fill:none;stroke-width:3.8;stroke-linecap:butt;stroke-linejoin:miter;stroke:rgb(0%,0%,0%);stroke-opacity:1;stroke-miterlimit:4;" d="M 756.362601 1436.686882 L 947.868627 1628.15708 " transform="matrix(0.109025,0,0,-0.109025,-0.849,183.822)"/>
<path style="fill:none;stroke-width:3.8;stroke-linecap:butt;stroke-linejoin:miter;stroke:rgb(0%,0%,0%);stroke-opacity:1;stroke-miterlimit:4;" d="M 728.093516 1464.955966 L 919.599543 1656.461993 " transform="matrix(0.109025,0,0,-0.109025,-0.849,183.822)"/>
<path style="fill:none;stroke-width:3.8;stroke-linecap:butt;stroke-linejoin:miter;stroke:rgb(0%,0%,0%);stroke-opacity:1;stroke-miterlimit:4;" d="M 699.788603 1493.225051 L 891.29463 1684.731077 " transform="matrix(0.109025,0,0,-0.109025,-0.849,183.822)"/>
<path style="fill:none;stroke-width:3.8;stroke-linecap:butt;stroke-linejoin:miter;stroke:rgb(0%,0%,0%);stroke-opacity:1;stroke-miterlimit:4;" d="M 841.205682 1351.807972 L 1032.711709 1543.313998 " transform="matrix(0.109025,0,0,-0.109025,-0.849,183.822)"/>
<path style="fill:none;stroke-width:3.8;stroke-linecap:butt;stroke-linejoin:miter;stroke:rgb(0%,0%,0%);stroke-opacity:1;stroke-miterlimit:4;" d="M 812.936598 1380.112885 L 1004.442625 1571.583082 " transform="matrix(0.109025,0,0,-0.109025,-0.849,183.822)"/>
<path style="fill:none;stroke-width:3.8;stroke-linecap:butt;stroke-linejoin:miter;stroke:rgb(0%,0%,0%);stroke-opacity:1;stroke-miterlimit:4;" d="M 784.667514 1408.381969 L 976.17354 1599.887996 " transform="matrix(0.109025,0,0,-0.109025,-0.849,183.822)"/>
<path style="fill:none;stroke-width:3.8;stroke-linecap:butt;stroke-linejoin:miter;stroke:rgb(0%,0%,0%);stroke-opacity:1;stroke-miterlimit:4;" d="M 1032.711709 1543.313998 L 1224.217735 1734.820025 " transform="matrix(0.109025,0,0,-0.109025,-0.849,183.822)"/>
<path style="fill:none;stroke-width:3.8;stroke-linecap:butt;stroke-linejoin:miter;stroke:rgb(0%,0%,0%);stroke-opacity:1;stroke-miterlimit:4;" d="M 1004.442625 1571.583082 L 1195.948651 1763.124938 " transform="matrix(0.109025,0,0,-0.109025,-0.849,183.822)"/>
<path style="fill:none;stroke-width:3.8;stroke-linecap:butt;stroke-linejoin:miter;stroke:rgb(0%,0%,0%);stroke-opacity:1;stroke-miterlimit:4;" d="M 1117.590619 1458.470917 L 1309.096646 1649.976943 " transform="matrix(0.109025,0,0,-0.109025,-0.849,183.822)"/>
<path style="fill:none;stroke-width:3.8;stroke-linecap:butt;stroke-linejoin:miter;stroke:rgb(0%,0%,0%);stroke-opacity:1;stroke-miterlimit:4;" d="M 1089.285706 1486.740001 L 1280.791733 1678.246028 " transform="matrix(0.109025,0,0,-0.109025,-0.849,183.822)"/>
<path style="fill:none;stroke-width:3.8;stroke-linecap:butt;stroke-linejoin:miter;stroke:rgb(0%,0%,0%);stroke-opacity:1;stroke-miterlimit:4;" d="M 1061.016622 1515.044914 L 1252.522649 1706.515112 " transform="matrix(0.109025,0,0,-0.109025,-0.849,183.822)"/>
<path style="fill:none;stroke-width:3.8;stroke-linecap:butt;stroke-linejoin:miter;stroke:rgb(0%,0%,0%);stroke-opacity:1;stroke-miterlimit:4;" d="M 1202.433701 1373.627835 L 1393.939727 1565.098033 " transform="matrix(0.109025,0,0,-0.109025,-0.849,183.822)"/>
<path style="fill:none;stroke-width:3.8;stroke-linecap:butt;stroke-linejoin:miter;stroke:rgb(0%,0%,0%);stroke-opacity:1;stroke-miterlimit:4;" d="M 1174.164617 1401.896919 L 1365.634814 1593.402946 " transform="matrix(0.109025,0,0,-0.109025,-0.849,183.822)"/>
<path style="fill:none;stroke-width:3.8;stroke-linecap:butt;stroke-linejoin:miter;stroke:rgb(0%,0%,0%);stroke-opacity:1;stroke-miterlimit:4;" d="M 1145.859703 1430.166004 L 1337.36573 1621.67203 " transform="matrix(0.109025,0,0,-0.109025,-0.849,183.822)"/>
<path style="fill:none;stroke-width:3.8;stroke-linecap:butt;stroke-linejoin:miter;stroke:rgb(0%,0%,0%);stroke-opacity:1;stroke-miterlimit:4;" d="M 1393.939727 1565.098033 L 1585.445754 1756.604059 " transform="matrix(0.109025,0,0,-0.109025,-0.849,183.822)"/>
<path style="fill:none;stroke-width:3.8;stroke-linecap:butt;stroke-linejoin:miter;stroke:rgb(0%,0%,0%);stroke-opacity:1;stroke-miterlimit:4;" d="M 1230.702785 1345.322922 L 1422.208812 1536.828949 " transform="matrix(0.109025,0,0,-0.109025,-0.849,183.822)"/>
<path style="fill:none;stroke-width:3.8;stroke-linecap:butt;stroke-linejoin:miter;stroke:rgb(0%,0%,0%);stroke-opacity:1;stroke-miterlimit:4;" d="M 1478.782809 1480.254951 L 1670.288836 1671.760978 " transform="matrix(0.109025,0,0,-0.109025,-0.849,183.822)"/>
<path style="fill:none;stroke-width:3.8;stroke-linecap:butt;stroke-linejoin:miter;stroke:rgb(0%,0%,0%);stroke-opacity:1;stroke-miterlimit:4;" d="M 1450.513725 1508.559864 L 1642.019751 1700.065891 " transform="matrix(0.109025,0,0,-0.109025,-0.849,183.822)"/>
<path style="fill:none;stroke-width:3.8;stroke-linecap:butt;stroke-linejoin:miter;stroke:rgb(0%,0%,0%);stroke-opacity:1;stroke-miterlimit:4;" d="M 1422.208812 1536.828949 L 1613.714838 1728.334975 " transform="matrix(0.109025,0,0,-0.109025,-0.849,183.822)"/>
<path style="fill:none;stroke-width:3.8;stroke-linecap:butt;stroke-linejoin:miter;stroke:rgb(0%,0%,0%);stroke-opacity:1;stroke-miterlimit:4;" d="M 1563.625891 1395.41187 L 1755.131917 1586.917896 " transform="matrix(0.109025,0,0,-0.109025,-0.849,183.822)"/>
<path style="fill:none;stroke-width:3.8;stroke-linecap:butt;stroke-linejoin:miter;stroke:rgb(0%,0%,0%);stroke-opacity:1;stroke-miterlimit:4;" d="M 1535.356806 1423.716783 L 1726.862833 1615.18698 " transform="matrix(0.109025,0,0,-0.109025,-0.849,183.822)"/>
<path style="fill:none;stroke-width:3.8;stroke-linecap:butt;stroke-linejoin:miter;stroke:rgb(0%,0%,0%);stroke-opacity:1;stroke-miterlimit:4;" d="M 1507.051893 1451.985867 L 1698.55792 1643.491894 " transform="matrix(0.109025,0,0,-0.109025,-0.849,183.822)"/>
<path style="fill:none;stroke-width:3.8;stroke-linecap:butt;stroke-linejoin:miter;stroke:rgb(0%,0%,0%);stroke-opacity:1;stroke-miterlimit:4;" d="M 1620.199888 1338.837872 L 1811.705915 1530.343899 " transform="matrix(0.109025,0,0,-0.109025,-0.849,183.822)"/>
<path style="fill:none;stroke-width:3.8;stroke-linecap:butt;stroke-linejoin:miter;stroke:rgb(0%,0%,0%);stroke-opacity:1;stroke-miterlimit:4;" d="M 1591.894975 1367.106956 L 1783.43683 1558.612983 " transform="matrix(0.109025,0,0,-0.109025,-0.849,183.822)"/>
<path style="fill:none;stroke-width:3.8;stroke-linecap:butt;stroke-linejoin:miter;stroke:rgb(0%,0%,0%);stroke-opacity:1;stroke-miterlimit:4;" d="M 1839.974999 1502.074815 L 2031.481025 1693.545012 " transform="matrix(0.109025,0,0,-0.109025,-0.849,183.822)"/>
<path style="fill:none;stroke-width:3.8;stroke-linecap:butt;stroke-linejoin:miter;stroke:rgb(0%,0%,0%);stroke-opacity:1;stroke-miterlimit:4;" d="M 1811.705915 1530.343899 L 2003.211941 1721.849925 " transform="matrix(0.109025,0,0,-0.109025,-0.849,183.822)"/>
<path style="fill:none;stroke-width:3.8;stroke-linecap:butt;stroke-linejoin:miter;stroke:rgb(0%,0%,0%);stroke-opacity:1;stroke-miterlimit:4;" d="M 1783.43683 1558.612983 L 1974.907028 1750.11901 " transform="matrix(0.109025,0,0,-0.109025,-0.849,183.822)"/>
<path style="fill:none;stroke-width:3.8;stroke-linecap:butt;stroke-linejoin:miter;stroke:rgb(0%,0%,0%);stroke-opacity:1;stroke-miterlimit:4;" d="M 1924.853909 1417.195904 L 2116.359936 1608.73776 " transform="matrix(0.109025,0,0,-0.109025,-0.849,183.822)"/>
<path style="fill:none;stroke-width:3.8;stroke-linecap:butt;stroke-linejoin:miter;stroke:rgb(0%,0%,0%);stroke-opacity:1;stroke-miterlimit:4;" d="M 1896.548996 1445.500817 L 2088.055023 1637.006844 " transform="matrix(0.109025,0,0,-0.109025,-0.849,183.822)"/>
<path style="fill:none;stroke-width:3.8;stroke-linecap:butt;stroke-linejoin:miter;stroke:rgb(0%,0%,0%);stroke-opacity:1;stroke-miterlimit:4;" d="M 1868.279912 1473.769901 L 2059.785939 1665.275928 " transform="matrix(0.109025,0,0,-0.109025,-0.849,183.822)"/>
<path style="fill:none;stroke-width:3.8;stroke-linecap:butt;stroke-linejoin:miter;stroke:rgb(0%,0%,0%);stroke-opacity:1;stroke-miterlimit:4;" d="M 2009.696991 1332.352822 L 2201.203018 1523.858849 " transform="matrix(0.109025,0,0,-0.109025,-0.849,183.822)"/>
<path style="fill:none;stroke-width:3.8;stroke-linecap:butt;stroke-linejoin:miter;stroke:rgb(0%,0%,0%);stroke-opacity:1;stroke-miterlimit:4;" d="M 1981.427907 1360.657736 L 2172.933933 1552.163762 " transform="matrix(0.109025,0,0,-0.109025,-0.849,183.822)"/>
<path style="fill:none;stroke-width:3.8;stroke-linecap:butt;stroke-linejoin:miter;stroke:rgb(0%,0%,0%);stroke-opacity:1;stroke-miterlimit:4;" d="M 1953.122994 1388.92682 L 2144.62902 1580.432846 " transform="matrix(0.109025,0,0,-0.109025,-0.849,183.822)"/>
</g>
</g>
</g>
<g clip-path="url(#clip6)" clip-rule="nonzero">
<g clip-path="url(#clip7)" clip-rule="nonzero">
<path style="fill:none;stroke-width:7.5;stroke-linecap:butt;stroke-linejoin:round;stroke:rgb(0%,0%,0%);stroke-opacity:1;stroke-miterlimit:4;" d="M 125.843787 416.957598 L 759.945501 416.957598 L 1097.956325 88.118999 L 1435.967149 416.957598 L 2077.342151 416.957598 " transform="matrix(0.109025,0,0,-0.109025,-0.849,183.822)"/>
<path style="fill:none;stroke-width:7.5;stroke-linecap:butt;stroke-linejoin:round;stroke:rgb(0%,0%,0%);stroke-opacity:1;stroke-miterlimit:4;" d="M 2077.342151 364.468107 L 1449.761316 364.468107 L 1094.946689 10.01177 L 746.115505 364.503936 L 746.115505 364.468107 L 125.843787 364.468107 " transform="matrix(0.109025,0,0,-0.109025,-0.849,183.822)"/>
<path style="fill:none;stroke-width:7.5;stroke-linecap:butt;stroke-linejoin:miter;stroke:rgb(0%,0%,0%);stroke-opacity:1;stroke-dasharray:20,20;stroke-miterlimit:4;" d="M 2188.985327 417.029256 L 2076.6614 417.029256 " transform="matrix(0.109025,0,0,-0.109025,-0.849,183.822)"/>
<path style="fill:none;stroke-width:7.5;stroke-linecap:butt;stroke-linejoin:round;stroke:rgb(0%,0%,0%);stroke-opacity:1;stroke-miterlimit:4;" d="M 1435.967149 416.957598 L 2078.345363 417.029256 " transform="matrix(0.109025,0,0,-0.109025,-0.849,183.822)"/>
<path style="fill:none;stroke-width:7.5;stroke-linecap:butt;stroke-linejoin:miter;stroke:rgb(0%,0%,0%);stroke-opacity:1;stroke-dasharray:20,20;stroke-miterlimit:4;" d="M 2190.66929 363.536553 L 2076.6614 363.679869 " transform="matrix(0.109025,0,0,-0.109025,-0.849,183.822)"/>
<path style="fill:none;stroke-width:7.5;stroke-linecap:butt;stroke-linejoin:miter;stroke:rgb(0%,0%,0%);stroke-opacity:1;stroke-dasharray:20,20;stroke-miterlimit:4;" d="M 10.008617 417.029256 L 125.843787 417.029256 " transform="matrix(0.109025,0,0,-0.109025,-0.849,183.822)"/>
<path style="fill:none;stroke-width:7.5;stroke-linecap:butt;stroke-linejoin:miter;stroke:rgb(0%,0%,0%);stroke-opacity:1;stroke-dasharray:20,20;stroke-miterlimit:4;" d="M 10.008617 363.679869 L 125.843787 363.536553 " transform="matrix(0.109025,0,0,-0.109025,-0.849,183.822)"/>
<path style="fill:none;stroke-width:7.5;stroke-linecap:butt;stroke-linejoin:round;stroke:rgb(0%,0%,0%);stroke-opacity:1;stroke-miterlimit:4;" d="M 746.115505 364.468107 L 125.843787 363.679869 " transform="matrix(0.109025,0,0,-0.109025,-0.849,183.822)"/>
</g>
</g>
<g clip-path="url(#clip8)" clip-rule="nonzero">
<g clip-path="url(#clip9)" clip-rule="nonzero">
<g clip-path="url(#clip10)" clip-rule="nonzero">
<path style="fill:none;stroke-width:3.8;stroke-linecap:butt;stroke-linejoin:miter;stroke:rgb(0%,0%,0%);stroke-opacity:1;stroke-miterlimit:4;" d="M 2149.788397 202.377693 L 1958.28237 10.871666 " transform="matrix(0.109025,0,0,-0.109025,-0.849,183.822)"/>
<path style="fill:none;stroke-width:3.8;stroke-linecap:butt;stroke-linejoin:miter;stroke:rgb(0%,0%,0%);stroke-opacity:1;stroke-miterlimit:4;" d="M 2178.09331 174.108609 L 1986.587283 -17.397418 " transform="matrix(0.109025,0,0,-0.109025,-0.849,183.822)"/>
<path style="fill:none;stroke-width:3.8;stroke-linecap:butt;stroke-linejoin:miter;stroke:rgb(0%,0%,0%);stroke-opacity:1;stroke-miterlimit:4;" d="M 2206.362394 145.803696 L 2014.856368 -45.702331 " transform="matrix(0.109025,0,0,-0.109025,-0.849,183.822)"/>
<path style="fill:none;stroke-width:3.8;stroke-linecap:butt;stroke-linejoin:miter;stroke:rgb(0%,0%,0%);stroke-opacity:1;stroke-miterlimit:4;" d="M 1958.28237 10.871666 L 1766.776344 -180.63436 " transform="matrix(0.109025,0,0,-0.109025,-0.849,183.822)"/>
<path style="fill:none;stroke-width:3.8;stroke-linecap:butt;stroke-linejoin:miter;stroke:rgb(0%,0%,0%);stroke-opacity:1;stroke-miterlimit:4;" d="M 2256.451342 478.726801 L 2064.945315 287.220775 " transform="matrix(0.109025,0,0,-0.109025,-0.849,183.822)"/>
<path style="fill:none;stroke-width:3.8;stroke-linecap:butt;stroke-linejoin:miter;stroke:rgb(0%,0%,0%);stroke-opacity:1;stroke-miterlimit:4;" d="M 2064.945315 287.220775 L 1873.439289 95.714748 " transform="matrix(0.109025,0,0,-0.109025,-0.849,183.822)"/>
<path style="fill:none;stroke-width:3.8;stroke-linecap:butt;stroke-linejoin:miter;stroke:rgb(0%,0%,0%);stroke-opacity:1;stroke-miterlimit:4;" d="M 2093.214399 258.95169 L 1901.708373 67.445664 " transform="matrix(0.109025,0,0,-0.109025,-0.849,183.822)"/>
<path style="fill:none;stroke-width:3.8;stroke-linecap:butt;stroke-linejoin:miter;stroke:rgb(0%,0%,0%);stroke-opacity:1;stroke-miterlimit:4;" d="M 2121.519313 230.646777 L 1930.013286 39.140751 " transform="matrix(0.109025,0,0,-0.109025,-0.849,183.822)"/>
<path style="fill:none;stroke-width:3.8;stroke-linecap:butt;stroke-linejoin:miter;stroke:rgb(0%,0%,0%);stroke-opacity:1;stroke-miterlimit:4;" d="M 1873.439289 95.714748 L 1681.933262 -95.791279 " transform="matrix(0.109025,0,0,-0.109025,-0.849,183.822)"/>
<path style="fill:none;stroke-width:3.8;stroke-linecap:butt;stroke-linejoin:miter;stroke:rgb(0%,0%,0%);stroke-opacity:1;stroke-miterlimit:4;" d="M 1901.708373 67.445664 L 1710.202346 -124.060363 " transform="matrix(0.109025,0,0,-0.109025,-0.849,183.822)"/>
<path style="fill:none;stroke-width:3.8;stroke-linecap:butt;stroke-linejoin:miter;stroke:rgb(0%,0%,0%);stroke-opacity:1;stroke-miterlimit:4;" d="M 1930.013286 39.140751 L 1738.507259 -152.365276 " transform="matrix(0.109025,0,0,-0.109025,-0.849,183.822)"/>
<path style="fill:none;stroke-width:3.8;stroke-linecap:butt;stroke-linejoin:miter;stroke:rgb(0%,0%,0%);stroke-opacity:1;stroke-miterlimit:4;" d="M 2171.572431 563.569883 L 1980.102234 372.063856 " transform="matrix(0.109025,0,0,-0.109025,-0.849,183.822)"/>
<path style="fill:none;stroke-width:3.8;stroke-linecap:butt;stroke-linejoin:miter;stroke:rgb(0%,0%,0%);stroke-opacity:1;stroke-miterlimit:4;" d="M 2199.877344 535.300799 L 2008.371318 343.794772 " transform="matrix(0.109025,0,0,-0.109025,-0.849,183.822)"/>
<path style="fill:none;stroke-width:3.8;stroke-linecap:butt;stroke-linejoin:miter;stroke:rgb(0%,0%,0%);stroke-opacity:1;stroke-miterlimit:4;" d="M 2228.146429 506.995885 L 2036.676231 315.525688 " transform="matrix(0.109025,0,0,-0.109025,-0.849,183.822)"/>
<path style="fill:none;stroke-width:3.8;stroke-linecap:butt;stroke-linejoin:miter;stroke:rgb(0%,0%,0%);stroke-opacity:1;stroke-miterlimit:4;" d="M 1980.102234 372.063856 L 1788.596207 180.55783 " transform="matrix(0.109025,0,0,-0.109025,-0.849,183.822)"/>
<path style="fill:none;stroke-width:3.8;stroke-linecap:butt;stroke-linejoin:miter;stroke:rgb(0%,0%,0%);stroke-opacity:1;stroke-miterlimit:4;" d="M 2008.371318 343.794772 L 1816.865291 152.288745 " transform="matrix(0.109025,0,0,-0.109025,-0.849,183.822)"/>
<path style="fill:none;stroke-width:3.8;stroke-linecap:butt;stroke-linejoin:miter;stroke:rgb(0%,0%,0%);stroke-opacity:1;stroke-miterlimit:4;" d="M 2036.676231 315.525688 L 1845.170204 124.019661 " transform="matrix(0.109025,0,0,-0.109025,-0.849,183.822)"/>
<path style="fill:none;stroke-width:3.8;stroke-linecap:butt;stroke-linejoin:miter;stroke:rgb(0%,0%,0%);stroke-opacity:1;stroke-miterlimit:4;" d="M 1788.596207 180.55783 L 1597.09018 -10.912368 " transform="matrix(0.109025,0,0,-0.109025,-0.849,183.822)"/>
<path style="fill:none;stroke-width:3.8;stroke-linecap:butt;stroke-linejoin:miter;stroke:rgb(0%,0%,0%);stroke-opacity:1;stroke-miterlimit:4;" d="M 1816.865291 152.288745 L 1625.359265 -39.217281 " transform="matrix(0.109025,0,0,-0.109025,-0.849,183.822)"/>
<path style="fill:none;stroke-width:3.8;stroke-linecap:butt;stroke-linejoin:miter;stroke:rgb(0%,0%,0%);stroke-opacity:1;stroke-miterlimit:4;" d="M 1845.170204 124.019661 L 1653.664178 -67.486365 " transform="matrix(0.109025,0,0,-0.109025,-0.849,183.822)"/>
<path style="fill:none;stroke-width:3.8;stroke-linecap:butt;stroke-linejoin:miter;stroke:rgb(0%,0%,0%);stroke-opacity:1;stroke-miterlimit:4;" d="M 2143.303347 591.874796 L 1951.79732 400.368769 " transform="matrix(0.109025,0,0,-0.109025,-0.849,183.822)"/>
<path style="fill:none;stroke-width:3.8;stroke-linecap:butt;stroke-linejoin:miter;stroke:rgb(0%,0%,0%);stroke-opacity:1;stroke-miterlimit:4;" d="M 1895.223323 456.942767 L 1703.717296 265.43674 " transform="matrix(0.109025,0,0,-0.109025,-0.849,183.822)"/>
<path style="fill:none;stroke-width:3.8;stroke-linecap:butt;stroke-linejoin:miter;stroke:rgb(0%,0%,0%);stroke-opacity:1;stroke-miterlimit:4;" d="M 1923.528236 428.637853 L 1732.02221 237.131827 " transform="matrix(0.109025,0,0,-0.109025,-0.849,183.822)"/>
<path style="fill:none;stroke-width:3.8;stroke-linecap:butt;stroke-linejoin:miter;stroke:rgb(0%,0%,0%);stroke-opacity:1;stroke-miterlimit:4;" d="M 1951.79732 400.368769 L 1760.291294 208.862743 " transform="matrix(0.109025,0,0,-0.109025,-0.849,183.822)"/>
<path style="fill:none;stroke-width:3.8;stroke-linecap:butt;stroke-linejoin:miter;stroke:rgb(0%,0%,0%);stroke-opacity:1;stroke-miterlimit:4;" d="M 1703.717296 265.43674 L 1512.247099 73.930713 " transform="matrix(0.109025,0,0,-0.109025,-0.849,183.822)"/>
<path style="fill:none;stroke-width:3.8;stroke-linecap:butt;stroke-linejoin:miter;stroke:rgb(0%,0%,0%);stroke-opacity:1;stroke-miterlimit:4;" d="M 1732.02221 237.131827 L 1540.516183 45.661629 " transform="matrix(0.109025,0,0,-0.109025,-0.849,183.822)"/>
<path style="fill:none;stroke-width:3.8;stroke-linecap:butt;stroke-linejoin:miter;stroke:rgb(0%,0%,0%);stroke-opacity:1;stroke-miterlimit:4;" d="M 1760.291294 208.862743 L 1568.785267 17.356716 " transform="matrix(0.109025,0,0,-0.109025,-0.849,183.822)"/>
<path style="fill:none;stroke-width:3.8;stroke-linecap:butt;stroke-linejoin:miter;stroke:rgb(0%,0%,0%);stroke-opacity:1;stroke-miterlimit:4;" d="M 1512.247099 73.930713 L 1320.705243 -117.575313 " transform="matrix(0.109025,0,0,-0.109025,-0.849,183.822)"/>
<path style="fill:none;stroke-width:3.8;stroke-linecap:butt;stroke-linejoin:miter;stroke:rgb(0%,0%,0%);stroke-opacity:1;stroke-miterlimit:4;" d="M 1540.516183 45.661629 L 1349.010156 -145.844397 " transform="matrix(0.109025,0,0,-0.109025,-0.849,183.822)"/>
<path style="fill:none;stroke-width:3.8;stroke-linecap:butt;stroke-linejoin:miter;stroke:rgb(0%,0%,0%);stroke-opacity:1;stroke-miterlimit:4;" d="M 1568.785267 17.356716 L 1377.31507 -174.149311 " transform="matrix(0.109025,0,0,-0.109025,-0.849,183.822)"/>
<path style="fill:none;stroke-width:3.8;stroke-linecap:butt;stroke-linejoin:miter;stroke:rgb(0%,0%,0%);stroke-opacity:1;stroke-miterlimit:4;" d="M 1810.380241 541.785848 L 1618.874215 350.279822 " transform="matrix(0.109025,0,0,-0.109025,-0.849,183.822)"/>
<path style="fill:none;stroke-width:3.8;stroke-linecap:butt;stroke-linejoin:miter;stroke:rgb(0%,0%,0%);stroke-opacity:1;stroke-miterlimit:4;" d="M 1838.649326 513.516764 L 1647.143299 322.010737 " transform="matrix(0.109025,0,0,-0.109025,-0.849,183.822)"/>
<path style="fill:none;stroke-width:3.8;stroke-linecap:butt;stroke-linejoin:miter;stroke:rgb(0%,0%,0%);stroke-opacity:1;stroke-miterlimit:4;" d="M 1866.954239 485.211851 L 1675.448212 293.705824 " transform="matrix(0.109025,0,0,-0.109025,-0.849,183.822)"/>
<path style="fill:none;stroke-width:3.8;stroke-linecap:butt;stroke-linejoin:miter;stroke:rgb(0%,0%,0%);stroke-opacity:1;stroke-miterlimit:4;" d="M 1618.874215 350.279822 L 1427.368188 158.773795 " transform="matrix(0.109025,0,0,-0.109025,-0.849,183.822)"/>
<path style="fill:none;stroke-width:3.8;stroke-linecap:butt;stroke-linejoin:miter;stroke:rgb(0%,0%,0%);stroke-opacity:1;stroke-miterlimit:4;" d="M 1647.143299 322.010737 L 1455.637272 130.504711 " transform="matrix(0.109025,0,0,-0.109025,-0.849,183.822)"/>
<path style="fill:none;stroke-width:3.8;stroke-linecap:butt;stroke-linejoin:miter;stroke:rgb(0%,0%,0%);stroke-opacity:1;stroke-miterlimit:4;" d="M 1675.448212 293.705824 L 1483.942186 102.199798 " transform="matrix(0.109025,0,0,-0.109025,-0.849,183.822)"/>
<path style="fill:none;stroke-width:3.8;stroke-linecap:butt;stroke-linejoin:miter;stroke:rgb(0%,0%,0%);stroke-opacity:1;stroke-miterlimit:4;" d="M 1427.368188 158.773795 L 1235.862162 -32.732232 " transform="matrix(0.109025,0,0,-0.109025,-0.849,183.822)"/>
<path style="fill:none;stroke-width:3.8;stroke-linecap:butt;stroke-linejoin:miter;stroke:rgb(0%,0%,0%);stroke-opacity:1;stroke-miterlimit:4;" d="M 1455.637272 130.504711 L 1264.167075 -61.001316 " transform="matrix(0.109025,0,0,-0.109025,-0.849,183.822)"/>
<path style="fill:none;stroke-width:3.8;stroke-linecap:butt;stroke-linejoin:miter;stroke:rgb(0%,0%,0%);stroke-opacity:1;stroke-miterlimit:4;" d="M 1483.942186 102.199798 L 1292.436159 -89.306229 " transform="matrix(0.109025,0,0,-0.109025,-0.849,183.822)"/>
<path style="fill:none;stroke-width:3.8;stroke-linecap:butt;stroke-linejoin:miter;stroke:rgb(0%,0%,0%);stroke-opacity:1;stroke-miterlimit:4;" d="M 1753.806244 598.359846 L 1562.300217 406.853819 " transform="matrix(0.109025,0,0,-0.109025,-0.849,183.822)"/>
<path style="fill:none;stroke-width:3.8;stroke-linecap:butt;stroke-linejoin:miter;stroke:rgb(0%,0%,0%);stroke-opacity:1;stroke-miterlimit:4;" d="M 1782.111157 570.054932 L 1590.605131 378.548906 " transform="matrix(0.109025,0,0,-0.109025,-0.849,183.822)"/>
<path style="fill:none;stroke-width:3.8;stroke-linecap:butt;stroke-linejoin:miter;stroke:rgb(0%,0%,0%);stroke-opacity:1;stroke-miterlimit:4;" d="M 1534.031133 435.122903 L 1342.525107 243.616877 " transform="matrix(0.109025,0,0,-0.109025,-0.849,183.822)"/>
<path style="fill:none;stroke-width:3.8;stroke-linecap:butt;stroke-linejoin:miter;stroke:rgb(0%,0%,0%);stroke-opacity:1;stroke-miterlimit:4;" d="M 1562.300217 406.853819 L 1370.794191 215.347792 " transform="matrix(0.109025,0,0,-0.109025,-0.849,183.822)"/>
<path style="fill:none;stroke-width:3.8;stroke-linecap:butt;stroke-linejoin:miter;stroke:rgb(0%,0%,0%);stroke-opacity:1;stroke-miterlimit:4;" d="M 1590.605131 378.548906 L 1399.099104 187.042879 " transform="matrix(0.109025,0,0,-0.109025,-0.849,183.822)"/>
<path style="fill:none;stroke-width:3.8;stroke-linecap:butt;stroke-linejoin:miter;stroke:rgb(0%,0%,0%);stroke-opacity:1;stroke-miterlimit:4;" d="M 1342.525107 243.616877 L 1151.01908 52.11085 " transform="matrix(0.109025,0,0,-0.109025,-0.849,183.822)"/>
<path style="fill:none;stroke-width:3.8;stroke-linecap:butt;stroke-linejoin:miter;stroke:rgb(0%,0%,0%);stroke-opacity:1;stroke-miterlimit:4;" d="M 1370.794191 215.347792 L 1179.323993 23.841766 " transform="matrix(0.109025,0,0,-0.109025,-0.849,183.822)"/>
<path style="fill:none;stroke-width:3.8;stroke-linecap:butt;stroke-linejoin:miter;stroke:rgb(0%,0%,0%);stroke-opacity:1;stroke-miterlimit:4;" d="M 1399.099104 187.042879 L 1207.593077 -4.463147 " transform="matrix(0.109025,0,0,-0.109025,-0.849,183.822)"/>
<path style="fill:none;stroke-width:3.8;stroke-linecap:butt;stroke-linejoin:miter;stroke:rgb(0%,0%,0%);stroke-opacity:1;stroke-miterlimit:4;" d="M 1151.01908 52.11085 L 959.513053 -139.395177 " transform="matrix(0.109025,0,0,-0.109025,-0.849,183.822)"/>
<path style="fill:none;stroke-width:3.8;stroke-linecap:butt;stroke-linejoin:miter;stroke:rgb(0%,0%,0%);stroke-opacity:1;stroke-miterlimit:4;" d="M 1179.323993 23.841766 L 987.817967 -167.664261 " transform="matrix(0.109025,0,0,-0.109025,-0.849,183.822)"/>
<path style="fill:none;stroke-width:3.8;stroke-linecap:butt;stroke-linejoin:miter;stroke:rgb(0%,0%,0%);stroke-opacity:1;stroke-miterlimit:4;" d="M 1449.188052 519.965985 L 1257.682025 328.459958 " transform="matrix(0.109025,0,0,-0.109025,-0.849,183.822)"/>
<path style="fill:none;stroke-width:3.8;stroke-linecap:butt;stroke-linejoin:miter;stroke:rgb(0%,0%,0%);stroke-opacity:1;stroke-miterlimit:4;" d="M 1477.457136 491.696901 L 1285.951109 300.190874 " transform="matrix(0.109025,0,0,-0.109025,-0.849,183.822)"/>
<path style="fill:none;stroke-width:3.8;stroke-linecap:butt;stroke-linejoin:miter;stroke:rgb(0%,0%,0%);stroke-opacity:1;stroke-miterlimit:4;" d="M 1505.762049 463.391987 L 1314.256022 271.885961 " transform="matrix(0.109025,0,0,-0.109025,-0.849,183.822)"/>
<path style="fill:none;stroke-width:3.8;stroke-linecap:butt;stroke-linejoin:miter;stroke:rgb(0%,0%,0%);stroke-opacity:1;stroke-miterlimit:4;" d="M 1257.682025 328.459958 L 1066.175998 136.989761 " transform="matrix(0.109025,0,0,-0.109025,-0.849,183.822)"/>
<path style="fill:none;stroke-width:3.8;stroke-linecap:butt;stroke-linejoin:miter;stroke:rgb(0%,0%,0%);stroke-opacity:1;stroke-miterlimit:4;" d="M 1285.951109 300.190874 L 1094.445083 108.684847 " transform="matrix(0.109025,0,0,-0.109025,-0.849,183.822)"/>
<path style="fill:none;stroke-width:3.8;stroke-linecap:butt;stroke-linejoin:miter;stroke:rgb(0%,0%,0%);stroke-opacity:1;stroke-miterlimit:4;" d="M 1314.256022 271.885961 L 1122.714167 80.415763 " transform="matrix(0.109025,0,0,-0.109025,-0.849,183.822)"/>
<path style="fill:none;stroke-width:3.8;stroke-linecap:butt;stroke-linejoin:miter;stroke:rgb(0%,0%,0%);stroke-opacity:1;stroke-miterlimit:4;" d="M 1066.175998 136.989761 L 874.669972 -54.516266 " transform="matrix(0.109025,0,0,-0.109025,-0.849,183.822)"/>
<path style="fill:none;stroke-width:3.8;stroke-linecap:butt;stroke-linejoin:miter;stroke:rgb(0%,0%,0%);stroke-opacity:1;stroke-miterlimit:4;" d="M 1094.445083 108.684847 L 902.939056 -82.821179 " transform="matrix(0.109025,0,0,-0.109025,-0.849,183.822)"/>
<path style="fill:none;stroke-width:3.8;stroke-linecap:butt;stroke-linejoin:miter;stroke:rgb(0%,0%,0%);stroke-opacity:1;stroke-miterlimit:4;" d="M 1122.714167 80.415763 L 931.243969 -111.090263 " transform="matrix(0.109025,0,0,-0.109025,-0.849,183.822)"/>
<path style="fill:none;stroke-width:3.8;stroke-linecap:butt;stroke-linejoin:miter;stroke:rgb(0%,0%,0%);stroke-opacity:1;stroke-miterlimit:4;" d="M 1364.34497 604.844895 L 1172.803115 413.338869 " transform="matrix(0.109025,0,0,-0.109025,-0.849,183.822)"/>
<path style="fill:none;stroke-width:3.8;stroke-linecap:butt;stroke-linejoin:miter;stroke:rgb(0%,0%,0%);stroke-opacity:1;stroke-miterlimit:4;" d="M 1392.614054 576.539982 L 1201.108028 385.033956 " transform="matrix(0.109025,0,0,-0.109025,-0.849,183.822)"/>
<path style="fill:none;stroke-width:3.8;stroke-linecap:butt;stroke-linejoin:miter;stroke:rgb(0%,0%,0%);stroke-opacity:1;stroke-miterlimit:4;" d="M 1420.883139 548.270898 L 1229.377112 356.764871 " transform="matrix(0.109025,0,0,-0.109025,-0.849,183.822)"/>
<path style="fill:none;stroke-width:3.8;stroke-linecap:butt;stroke-linejoin:miter;stroke:rgb(0%,0%,0%);stroke-opacity:1;stroke-miterlimit:4;" d="M 1172.803115 413.338869 L 981.332917 221.832842 " transform="matrix(0.109025,0,0,-0.109025,-0.849,183.822)"/>
<path style="fill:none;stroke-width:3.8;stroke-linecap:butt;stroke-linejoin:miter;stroke:rgb(0%,0%,0%);stroke-opacity:1;stroke-miterlimit:4;" d="M 1201.108028 385.033956 L 1009.602001 193.563758 " transform="matrix(0.109025,0,0,-0.109025,-0.849,183.822)"/>
<path style="fill:none;stroke-width:3.8;stroke-linecap:butt;stroke-linejoin:miter;stroke:rgb(0%,0%,0%);stroke-opacity:1;stroke-miterlimit:4;" d="M 1229.377112 356.764871 L 1037.906914 165.258845 " transform="matrix(0.109025,0,0,-0.109025,-0.849,183.822)"/>
<path style="fill:none;stroke-width:3.8;stroke-linecap:butt;stroke-linejoin:miter;stroke:rgb(0%,0%,0%);stroke-opacity:1;stroke-miterlimit:4;" d="M 981.332917 221.832842 L 789.82689 30.326816 " transform="matrix(0.109025,0,0,-0.109025,-0.849,183.822)"/>
<path style="fill:none;stroke-width:3.8;stroke-linecap:butt;stroke-linejoin:miter;stroke:rgb(0%,0%,0%);stroke-opacity:1;stroke-miterlimit:4;" d="M 1009.602001 193.563758 L 818.095974 2.057731 " transform="matrix(0.109025,0,0,-0.109025,-0.849,183.822)"/>
<path style="fill:none;stroke-width:3.8;stroke-linecap:butt;stroke-linejoin:miter;stroke:rgb(0%,0%,0%);stroke-opacity:1;stroke-miterlimit:4;" d="M 1037.906914 165.258845 L 846.400888 -26.247182 " transform="matrix(0.109025,0,0,-0.109025,-0.849,183.822)"/>
<path style="fill:none;stroke-width:3.8;stroke-linecap:butt;stroke-linejoin:miter;stroke:rgb(0%,0%,0%);stroke-opacity:1;stroke-miterlimit:4;" d="M 789.82689 30.326816 L 598.320864 -161.179211 " transform="matrix(0.109025,0,0,-0.109025,-0.849,183.822)"/>
<path style="fill:none;stroke-width:3.8;stroke-linecap:butt;stroke-linejoin:miter;stroke:rgb(0%,0%,0%);stroke-opacity:1;stroke-miterlimit:4;" d="M 1087.960033 498.18195 L 896.454006 306.675924 " transform="matrix(0.109025,0,0,-0.109025,-0.849,183.822)"/>
<path style="fill:none;stroke-width:3.8;stroke-linecap:butt;stroke-linejoin:miter;stroke:rgb(0%,0%,0%);stroke-opacity:1;stroke-miterlimit:4;" d="M 1116.264946 469.912866 L 924.75892 278.40684 " transform="matrix(0.109025,0,0,-0.109025,-0.849,183.822)"/>
<path style="fill:none;stroke-width:3.8;stroke-linecap:butt;stroke-linejoin:miter;stroke:rgb(0%,0%,0%);stroke-opacity:1;stroke-miterlimit:4;" d="M 1144.53403 441.607953 L 953.028004 250.101926 " transform="matrix(0.109025,0,0,-0.109025,-0.849,183.822)"/>
<path style="fill:none;stroke-width:3.8;stroke-linecap:butt;stroke-linejoin:miter;stroke:rgb(0%,0%,0%);stroke-opacity:1;stroke-miterlimit:4;" d="M 896.454006 306.675924 L 704.94798 115.169897 " transform="matrix(0.109025,0,0,-0.109025,-0.849,183.822)"/>
<path style="fill:none;stroke-width:3.8;stroke-linecap:butt;stroke-linejoin:miter;stroke:rgb(0%,0%,0%);stroke-opacity:1;stroke-miterlimit:4;" d="M 924.75892 278.40684 L 733.252893 86.900813 " transform="matrix(0.109025,0,0,-0.109025,-0.849,183.822)"/>
<path style="fill:none;stroke-width:3.8;stroke-linecap:butt;stroke-linejoin:miter;stroke:rgb(0%,0%,0%);stroke-opacity:1;stroke-miterlimit:4;" d="M 953.028004 250.101926 L 761.521977 58.5959 " transform="matrix(0.109025,0,0,-0.109025,-0.849,183.822)"/>
<path style="fill:none;stroke-width:3.8;stroke-linecap:butt;stroke-linejoin:miter;stroke:rgb(0%,0%,0%);stroke-opacity:1;stroke-miterlimit:4;" d="M 704.94798 115.169897 L 513.441953 -76.336129 " transform="matrix(0.109025,0,0,-0.109025,-0.849,183.822)"/>
<path style="fill:none;stroke-width:3.8;stroke-linecap:butt;stroke-linejoin:miter;stroke:rgb(0%,0%,0%);stroke-opacity:1;stroke-miterlimit:4;" d="M 733.252893 86.900813 L 541.746866 -104.605214 " transform="matrix(0.109025,0,0,-0.109025,-0.849,183.822)"/>
<path style="fill:none;stroke-width:3.8;stroke-linecap:butt;stroke-linejoin:miter;stroke:rgb(0%,0%,0%);stroke-opacity:1;stroke-miterlimit:4;" d="M 761.521977 58.5959 L 570.01595 -132.910127 " transform="matrix(0.109025,0,0,-0.109025,-0.849,183.822)"/>
<path style="fill:none;stroke-width:3.8;stroke-linecap:butt;stroke-linejoin:miter;stroke:rgb(0%,0%,0%);stroke-opacity:1;stroke-miterlimit:4;" d="M 1003.116951 583.025032 L 811.610925 391.519005 " transform="matrix(0.109025,0,0,-0.109025,-0.849,183.822)"/>
<path style="fill:none;stroke-width:3.8;stroke-linecap:butt;stroke-linejoin:miter;stroke:rgb(0%,0%,0%);stroke-opacity:1;stroke-miterlimit:4;" d="M 1031.386036 554.755948 L 839.915838 363.249921 " transform="matrix(0.109025,0,0,-0.109025,-0.849,183.822)"/>
<path style="fill:none;stroke-width:3.8;stroke-linecap:butt;stroke-linejoin:miter;stroke:rgb(0%,0%,0%);stroke-opacity:1;stroke-miterlimit:4;" d="M 1059.690949 526.451035 L 868.184922 334.945008 " transform="matrix(0.109025,0,0,-0.109025,-0.849,183.822)"/>
<path style="fill:none;stroke-width:3.8;stroke-linecap:butt;stroke-linejoin:miter;stroke:rgb(0%,0%,0%);stroke-opacity:1;stroke-miterlimit:4;" d="M 811.610925 391.519005 L 620.104898 200.012979 " transform="matrix(0.109025,0,0,-0.109025,-0.849,183.822)"/>
<path style="fill:none;stroke-width:3.8;stroke-linecap:butt;stroke-linejoin:miter;stroke:rgb(0%,0%,0%);stroke-opacity:1;stroke-miterlimit:4;" d="M 839.915838 363.249921 L 648.409811 171.743895 " transform="matrix(0.109025,0,0,-0.109025,-0.849,183.822)"/>
<path style="fill:none;stroke-width:3.8;stroke-linecap:butt;stroke-linejoin:miter;stroke:rgb(0%,0%,0%);stroke-opacity:1;stroke-miterlimit:4;" d="M 868.184922 334.945008 L 676.678896 143.47481 " transform="matrix(0.109025,0,0,-0.109025,-0.849,183.822)"/>
<path style="fill:none;stroke-width:3.8;stroke-linecap:butt;stroke-linejoin:miter;stroke:rgb(0%,0%,0%);stroke-opacity:1;stroke-miterlimit:4;" d="M 620.104898 200.012979 L 428.598872 8.506952 " transform="matrix(0.109025,0,0,-0.109025,-0.849,183.822)"/>
<path style="fill:none;stroke-width:3.8;stroke-linecap:butt;stroke-linejoin:miter;stroke:rgb(0%,0%,0%);stroke-opacity:1;stroke-miterlimit:4;" d="M 648.409811 171.743895 L 456.903785 -19.762132 " transform="matrix(0.109025,0,0,-0.109025,-0.849,183.822)"/>
<path style="fill:none;stroke-width:3.8;stroke-linecap:butt;stroke-linejoin:miter;stroke:rgb(0%,0%,0%);stroke-opacity:1;stroke-miterlimit:4;" d="M 676.678896 143.47481 L 485.172869 -48.031216 " transform="matrix(0.109025,0,0,-0.109025,-0.849,183.822)"/>
<path style="fill:none;stroke-width:3.8;stroke-linecap:butt;stroke-linejoin:miter;stroke:rgb(0%,0%,0%);stroke-opacity:1;stroke-miterlimit:4;" d="M 428.598872 8.506952 L 237.092845 -182.963246 " transform="matrix(0.109025,0,0,-0.109025,-0.849,183.822)"/>
<path style="fill:none;stroke-width:3.8;stroke-linecap:butt;stroke-linejoin:miter;stroke:rgb(0%,0%,0%);stroke-opacity:1;stroke-miterlimit:4;" d="M 974.847867 611.329945 L 783.341841 419.823919 " transform="matrix(0.109025,0,0,-0.109025,-0.849,183.822)"/>
<path style="fill:none;stroke-width:3.8;stroke-linecap:butt;stroke-linejoin:miter;stroke:rgb(0%,0%,0%);stroke-opacity:1;stroke-miterlimit:4;" d="M 726.767843 476.397916 L 535.261817 284.891889 " transform="matrix(0.109025,0,0,-0.109025,-0.849,183.822)"/>
<path style="fill:none;stroke-width:3.8;stroke-linecap:butt;stroke-linejoin:miter;stroke:rgb(0%,0%,0%);stroke-opacity:1;stroke-miterlimit:4;" d="M 755.036927 448.093003 L 563.530901 256.586976 " transform="matrix(0.109025,0,0,-0.109025,-0.849,183.822)"/>
<path style="fill:none;stroke-width:3.8;stroke-linecap:butt;stroke-linejoin:miter;stroke:rgb(0%,0%,0%);stroke-opacity:1;stroke-miterlimit:4;" d="M 783.341841 419.823919 L 591.835814 228.317892 " transform="matrix(0.109025,0,0,-0.109025,-0.849,183.822)"/>
<path style="fill:none;stroke-width:3.8;stroke-linecap:butt;stroke-linejoin:miter;stroke:rgb(0%,0%,0%);stroke-opacity:1;stroke-miterlimit:4;" d="M 535.261817 284.891889 L 343.75579 93.385863 " transform="matrix(0.109025,0,0,-0.109025,-0.849,183.822)"/>
<path style="fill:none;stroke-width:3.8;stroke-linecap:butt;stroke-linejoin:miter;stroke:rgb(0%,0%,0%);stroke-opacity:1;stroke-miterlimit:4;" d="M 563.530901 256.586976 L 372.060703 65.080949 " transform="matrix(0.109025,0,0,-0.109025,-0.849,183.822)"/>
<path style="fill:none;stroke-width:3.8;stroke-linecap:butt;stroke-linejoin:miter;stroke:rgb(0%,0%,0%);stroke-opacity:1;stroke-miterlimit:4;" d="M 591.835814 228.317892 L 400.329787 36.811865 " transform="matrix(0.109025,0,0,-0.109025,-0.849,183.822)"/>
<path style="fill:none;stroke-width:3.8;stroke-linecap:butt;stroke-linejoin:miter;stroke:rgb(0%,0%,0%);stroke-opacity:1;stroke-miterlimit:4;" d="M 343.75579 93.385863 L 152.249763 -98.120164 " transform="matrix(0.109025,0,0,-0.109025,-0.849,183.822)"/>
<path style="fill:none;stroke-width:3.8;stroke-linecap:butt;stroke-linejoin:miter;stroke:rgb(0%,0%,0%);stroke-opacity:1;stroke-miterlimit:4;" d="M 372.060703 65.080949 L 180.518848 -126.389248 " transform="matrix(0.109025,0,0,-0.109025,-0.849,183.822)"/>
<path style="fill:none;stroke-width:3.8;stroke-linecap:butt;stroke-linejoin:miter;stroke:rgb(0%,0%,0%);stroke-opacity:1;stroke-miterlimit:4;" d="M 400.329787 36.811865 L 208.823761 -154.694161 " transform="matrix(0.109025,0,0,-0.109025,-0.849,183.822)"/>
<path style="fill:none;stroke-width:3.8;stroke-linecap:butt;stroke-linejoin:miter;stroke:rgb(0%,0%,0%);stroke-opacity:1;stroke-miterlimit:4;" d="M 641.924762 561.240997 L 450.418735 369.734971 " transform="matrix(0.109025,0,0,-0.109025,-0.849,183.822)"/>
<path style="fill:none;stroke-width:3.8;stroke-linecap:butt;stroke-linejoin:miter;stroke:rgb(0%,0%,0%);stroke-opacity:1;stroke-miterlimit:4;" d="M 670.193846 532.936084 L 478.687819 341.430058 " transform="matrix(0.109025,0,0,-0.109025,-0.849,183.822)"/>
<path style="fill:none;stroke-width:3.8;stroke-linecap:butt;stroke-linejoin:miter;stroke:rgb(0%,0%,0%);stroke-opacity:1;stroke-miterlimit:4;" d="M 698.46293 504.667 L 506.956903 313.160973 " transform="matrix(0.109025,0,0,-0.109025,-0.849,183.822)"/>
<path style="fill:none;stroke-width:3.8;stroke-linecap:butt;stroke-linejoin:miter;stroke:rgb(0%,0%,0%);stroke-opacity:1;stroke-miterlimit:4;" d="M 450.418735 369.734971 L 258.912708 178.228944 " transform="matrix(0.109025,0,0,-0.109025,-0.849,183.822)"/>
<path style="fill:none;stroke-width:3.8;stroke-linecap:butt;stroke-linejoin:miter;stroke:rgb(0%,0%,0%);stroke-opacity:1;stroke-miterlimit:4;" d="M 478.687819 341.430058 L 287.181793 149.924031 " transform="matrix(0.109025,0,0,-0.109025,-0.849,183.822)"/>
<path style="fill:none;stroke-width:3.8;stroke-linecap:butt;stroke-linejoin:miter;stroke:rgb(0%,0%,0%);stroke-opacity:1;stroke-miterlimit:4;" d="M 506.956903 313.160973 L 315.486706 121.654947 " transform="matrix(0.109025,0,0,-0.109025,-0.849,183.822)"/>
<path style="fill:none;stroke-width:3.8;stroke-linecap:butt;stroke-linejoin:miter;stroke:rgb(0%,0%,0%);stroke-opacity:1;stroke-miterlimit:4;" d="M 258.912708 178.228944 L 67.406682 -13.277082 " transform="matrix(0.109025,0,0,-0.109025,-0.849,183.822)"/>
<path style="fill:none;stroke-width:3.8;stroke-linecap:butt;stroke-linejoin:miter;stroke:rgb(0%,0%,0%);stroke-opacity:1;stroke-miterlimit:4;" d="M 287.181793 149.924031 L 95.675766 -41.546167 " transform="matrix(0.109025,0,0,-0.109025,-0.849,183.822)"/>
<path style="fill:none;stroke-width:3.8;stroke-linecap:butt;stroke-linejoin:miter;stroke:rgb(0%,0%,0%);stroke-opacity:1;stroke-miterlimit:4;" d="M 315.486706 121.654947 L 123.980679 -69.85108 " transform="matrix(0.109025,0,0,-0.109025,-0.849,183.822)"/>
<path style="fill:none;stroke-width:3.8;stroke-linecap:butt;stroke-linejoin:miter;stroke:rgb(0%,0%,0%);stroke-opacity:1;stroke-miterlimit:4;" d="M 613.619848 589.510082 L 422.113822 398.004055 " transform="matrix(0.109025,0,0,-0.109025,-0.849,183.822)"/>
<path style="fill:none;stroke-width:3.8;stroke-linecap:butt;stroke-linejoin:miter;stroke:rgb(0%,0%,0%);stroke-opacity:1;stroke-miterlimit:4;" d="M 365.539824 454.578052 L 174.033798 263.072026 " transform="matrix(0.109025,0,0,-0.109025,-0.849,183.822)"/>
<path style="fill:none;stroke-width:3.8;stroke-linecap:butt;stroke-linejoin:miter;stroke:rgb(0%,0%,0%);stroke-opacity:1;stroke-miterlimit:4;" d="M 393.844738 426.308968 L 202.338711 234.802942 " transform="matrix(0.109025,0,0,-0.109025,-0.849,183.822)"/>
<path style="fill:none;stroke-width:3.8;stroke-linecap:butt;stroke-linejoin:miter;stroke:rgb(0%,0%,0%);stroke-opacity:1;stroke-miterlimit:4;" d="M 422.113822 398.004055 L 230.607795 206.498028 " transform="matrix(0.109025,0,0,-0.109025,-0.849,183.822)"/>
<path style="fill:none;stroke-width:3.8;stroke-linecap:butt;stroke-linejoin:miter;stroke:rgb(0%,0%,0%);stroke-opacity:1;stroke-miterlimit:4;" d="M 174.033798 263.072026 L -17.472229 71.565999 " transform="matrix(0.109025,0,0,-0.109025,-0.849,183.822)"/>
<path style="fill:none;stroke-width:3.8;stroke-linecap:butt;stroke-linejoin:miter;stroke:rgb(0%,0%,0%);stroke-opacity:1;stroke-miterlimit:4;" d="M 202.338711 234.802942 L 10.832684 43.296915 " transform="matrix(0.109025,0,0,-0.109025,-0.849,183.822)"/>
<path style="fill:none;stroke-width:3.8;stroke-linecap:butt;stroke-linejoin:miter;stroke:rgb(0%,0%,0%);stroke-opacity:1;stroke-miterlimit:4;" d="M 230.607795 206.498028 L 39.101769 14.992002 " transform="matrix(0.109025,0,0,-0.109025,-0.849,183.822)"/>
<path style="fill:none;stroke-width:3.8;stroke-linecap:butt;stroke-linejoin:miter;stroke:rgb(0%,0%,0%);stroke-opacity:1;stroke-miterlimit:4;" d="M 280.696743 539.421134 L 89.190716 347.915107 " transform="matrix(0.109025,0,0,-0.109025,-0.849,183.822)"/>
<path style="fill:none;stroke-width:3.8;stroke-linecap:butt;stroke-linejoin:miter;stroke:rgb(0%,0%,0%);stroke-opacity:1;stroke-miterlimit:4;" d="M 309.001656 511.15205 L 117.495629 319.646023 " transform="matrix(0.109025,0,0,-0.109025,-0.849,183.822)"/>
<path style="fill:none;stroke-width:3.8;stroke-linecap:butt;stroke-linejoin:miter;stroke:rgb(0%,0%,0%);stroke-opacity:1;stroke-miterlimit:4;" d="M 337.27074 482.847137 L 145.764714 291.34111 " transform="matrix(0.109025,0,0,-0.109025,-0.849,183.822)"/>
<path style="fill:none;stroke-width:3.8;stroke-linecap:butt;stroke-linejoin:miter;stroke:rgb(0%,0%,0%);stroke-opacity:1;stroke-miterlimit:4;" d="M 145.764714 291.34111 L -45.741313 99.870912 " transform="matrix(0.109025,0,0,-0.109025,-0.849,183.822)"/>
<path style="fill:none;stroke-width:3.8;stroke-linecap:butt;stroke-linejoin:miter;stroke:rgb(0%,0%,0%);stroke-opacity:1;stroke-miterlimit:4;" d="M 224.122745 595.995131 L 32.616719 404.489105 " transform="matrix(0.109025,0,0,-0.109025,-0.849,183.822)"/>
<path style="fill:none;stroke-width:3.8;stroke-linecap:butt;stroke-linejoin:miter;stroke:rgb(0%,0%,0%);stroke-opacity:1;stroke-miterlimit:4;" d="M 252.427659 567.726047 L 60.921632 376.220021 " transform="matrix(0.109025,0,0,-0.109025,-0.849,183.822)"/>
</g>
</g>
</g>
<g clip-path="url(#clip11)" clip-rule="nonzero">
<g clip-path="url(#clip12)" clip-rule="nonzero">
<path style="fill:none;stroke-width:5;stroke-linecap:butt;stroke-linejoin:round;stroke:rgb(0%,0%,0%);stroke-opacity:1;stroke-miterlimit:4;" d="M 378.832385 1519.487711 L 378.832385 416.957598 " transform="matrix(0.109025,0,0,-0.109025,-0.849,183.822)"/>
<path style=" stroke:none;fill-rule:nonzero;fill:rgb(0%,0%,0%);fill-opacity:1;" d="M 38.890625 70.128906 L 40.472656 76.035156 L 42.054688 70.128906 L 38.890625 70.128906 "/>
<path style=" stroke:none;fill-rule:nonzero;fill:rgb(0%,0%,0%);fill-opacity:1;" d="M 51 70.128906 L 52.582031 76.035156 L 54.164063 70.128906 L 51 70.128906 "/>
<path style=" stroke:none;fill-rule:nonzero;fill:rgb(0%,0%,0%);fill-opacity:1;" d="M 63.128906 70.128906 L 64.710938 76.035156 L 66.292969 70.128906 L 63.128906 70.128906 "/>
<path style=" stroke:none;fill-rule:nonzero;fill:rgb(0%,0%,0%);fill-opacity:1;" d="M 75.257813 70.128906 L 76.839844 76.035156 L 78.421875 70.128906 L 75.257813 70.128906 "/>
<path style=" stroke:none;fill-rule:nonzero;fill:rgb(0%,0%,0%);fill-opacity:1;" d="M 87.390625 70.128906 L 88.976563 76.035156 L 90.558594 70.128906 L 87.390625 70.128906 "/>
<path style=" stroke:none;fill-rule:nonzero;fill:rgb(0%,0%,0%);fill-opacity:1;" d="M 99.523438 70.128906 L 101.105469 76.035156 L 102.691406 70.128906 L 99.523438 70.128906 "/>
<path style=" stroke:none;fill-rule:nonzero;fill:rgb(0%,0%,0%);fill-opacity:1;" d="M 111.644531 70.128906 L 113.226563 76.035156 L 114.808594 70.128906 L 111.644531 70.128906 "/>
<path style="fill:none;stroke-width:5;stroke-linecap:butt;stroke-linejoin:round;stroke:rgb(0%,0%,0%);stroke-opacity:1;stroke-miterlimit:4;" d="M 1046.32673 1519.487711 C 1046.147585 1409.026891 1046.290901 1298.601901 1046.32673 1188.17691 C 1046.32673 1011.145801 1046.075927 834.150521 1046.398388 657.155241 C 1046.613362 535.802405 1059.404317 321.616618 920.06532 261.173089 " transform="matrix(0.109025,0,0,-0.109025,-0.849,183.822)"/>
<path style="fill:none;stroke-width:5;stroke-linecap:butt;stroke-linejoin:round;stroke:rgb(0%,0%,0%);stroke-opacity:1;stroke-miterlimit:4;" d="M 935.077673 1519.487711 C 935.077673 1368.504288 935.077673 1217.556694 935.077673 1066.609099 C 935.077673 974.349414 935.077673 882.125558 935.077673 789.901701 C 935.077673 662.744566 957.148339 433.582256 828.773018 349.99319 " transform="matrix(0.109025,0,0,-0.109025,-0.849,183.822)"/>
<path style="fill:none;stroke-width:5;stroke-linecap:butt;stroke-linejoin:round;stroke:rgb(0%,0%,0%);stroke-opacity:1;stroke-miterlimit:4;" d="M 823.828615 1519.487711 C 823.828615 1362.234212 823.828615 1204.944884 823.828615 1047.727214 C 823.828615 988.322726 823.828615 928.918237 823.828615 869.513748 C 823.828615 827.163865 823.219522 784.849812 821.356414 742.535758 C 817.881 664.106068 814.477245 581.66353 799.572379 504.523684 C 793.44562 472.886673 783.306012 440.353938 759.945501 416.957598 " transform="matrix(0.109025,0,0,-0.109025,-0.849,183.822)"/>
<path style="fill:none;stroke-width:5;stroke-linecap:butt;stroke-linejoin:round;stroke:rgb(0%,0%,0%);stroke-opacity:1;stroke-miterlimit:4;" d="M 712.579558 1519.487711 L 712.579558 416.957598 " transform="matrix(0.109025,0,0,-0.109025,-0.849,183.822)"/>
<path style="fill:none;stroke-width:5;stroke-linecap:butt;stroke-linejoin:round;stroke:rgb(0%,0%,0%);stroke-opacity:1;stroke-miterlimit:4;" d="M 601.3305 1519.487711 L 601.3305 416.957598 " transform="matrix(0.109025,0,0,-0.109025,-0.849,183.822)"/>
<path style="fill:none;stroke-width:5;stroke-linecap:butt;stroke-linejoin:round;stroke:rgb(0%,0%,0%);stroke-opacity:1;stroke-miterlimit:4;" d="M 490.081442 1519.487711 L 490.081442 416.957598 " transform="matrix(0.109025,0,0,-0.109025,-0.849,183.822)"/>
<path style="fill:none;stroke-width:5;stroke-linecap:butt;stroke-linejoin:round;stroke:rgb(0%,0%,0%);stroke-opacity:1;stroke-miterlimit:4;" d="M 1818.405938 1519.487711 L 1818.405938 416.957598 " transform="matrix(0.109025,0,0,-0.109025,-0.849,183.822)"/>
<path style=" stroke:none;fill-rule:nonzero;fill:rgb(0%,0%,0%);fill-opacity:1;" d="M 198.964844 70.128906 L 197.382813 76.035156 L 195.800781 70.128906 L 198.964844 70.128906 "/>
<path style=" stroke:none;fill-rule:nonzero;fill:rgb(0%,0%,0%);fill-opacity:1;" d="M 186.855469 70.128906 L 185.273438 76.035156 L 183.691406 70.128906 L 186.855469 70.128906 "/>
<path style=" stroke:none;fill-rule:nonzero;fill:rgb(0%,0%,0%);fill-opacity:1;" d="M 174.726563 70.128906 L 173.144531 76.035156 L 171.5625 70.128906 L 174.726563 70.128906 "/>
<path style=" stroke:none;fill-rule:nonzero;fill:rgb(0%,0%,0%);fill-opacity:1;" d="M 162.597656 70.128906 L 161.015625 76.035156 L 159.433594 70.128906 L 162.597656 70.128906 "/>
<path style=" stroke:none;fill-rule:nonzero;fill:rgb(0%,0%,0%);fill-opacity:1;" d="M 150.464844 70.128906 L 148.882813 76.035156 L 147.300781 70.128906 L 150.464844 70.128906 "/>
<path style=" stroke:none;fill-rule:nonzero;fill:rgb(0%,0%,0%);fill-opacity:1;" d="M 138.332031 70.128906 L 136.75 76.035156 L 135.164063 70.128906 L 138.332031 70.128906 "/>
<path style=" stroke:none;fill-rule:nonzero;fill:rgb(0%,0%,0%);fill-opacity:1;" d="M 126.210938 70.128906 L 124.628906 76.035156 L 123.046875 70.128906 L 126.210938 70.128906 "/>
<path style="fill:none;stroke-width:5;stroke-linecap:butt;stroke-linejoin:round;stroke:rgb(0%,0%,0%);stroke-opacity:1;stroke-miterlimit:4;" d="M 1150.911593 1519.487711 C 1151.090738 1409.026891 1150.947422 1298.601901 1150.947422 1188.17691 C 1150.911593 1011.145801 1151.162396 834.150521 1150.839935 657.155241 C 1150.624961 535.802405 1137.834007 321.616618 1277.173003 261.173089 " transform="matrix(0.109025,0,0,-0.109025,-0.849,183.822)"/>
<path style="fill:none;stroke-width:5;stroke-linecap:butt;stroke-linejoin:round;stroke:rgb(0%,0%,0%);stroke-opacity:1;stroke-miterlimit:4;" d="M 1262.160651 1519.487711 C 1262.160651 1368.504288 1262.160651 1217.556694 1262.160651 1066.609099 C 1262.160651 974.349414 1262.160651 882.125558 1262.160651 789.901701 C 1262.160651 662.744566 1240.089984 433.582256 1368.465306 349.99319 " transform="matrix(0.109025,0,0,-0.109025,-0.849,183.822)"/>
<path style="fill:none;stroke-width:5;stroke-linecap:butt;stroke-linejoin:round;stroke:rgb(0%,0%,0%);stroke-opacity:1;stroke-miterlimit:4;" d="M 1373.409708 1519.487711 C 1373.409708 1362.234212 1373.409708 1204.944884 1373.409708 1047.727214 C 1373.409708 988.322726 1373.409708 928.918237 1373.409708 869.513748 C 1373.409708 750.955574 1375.201158 625.769034 1397.594286 509.3606 C 1403.864362 476.899522 1413.215732 441.070518 1437.292822 416.957598 " transform="matrix(0.109025,0,0,-0.109025,-0.849,183.822)"/>
<path style="fill:none;stroke-width:5;stroke-linecap:butt;stroke-linejoin:round;stroke:rgb(0%,0%,0%);stroke-opacity:1;stroke-miterlimit:4;" d="M 1484.658766 1519.487711 L 1484.658766 416.957598 " transform="matrix(0.109025,0,0,-0.109025,-0.849,183.822)"/>
<path style="fill:none;stroke-width:5;stroke-linecap:butt;stroke-linejoin:round;stroke:rgb(0%,0%,0%);stroke-opacity:1;stroke-miterlimit:4;" d="M 1595.907823 1519.487711 L 1595.907823 416.957598 " transform="matrix(0.109025,0,0,-0.109025,-0.849,183.822)"/>
<path style="fill:none;stroke-width:5;stroke-linecap:butt;stroke-linejoin:round;stroke:rgb(0%,0%,0%);stroke-opacity:1;stroke-miterlimit:4;" d="M 1707.156881 1519.487711 L 1707.156881 416.957598 " transform="matrix(0.109025,0,0,-0.109025,-0.849,183.822)"/>
<path style="fill:none;stroke-width:3.8;stroke-linecap:butt;stroke-linejoin:miter;stroke:rgb(0%,0%,0%);stroke-opacity:1;stroke-miterlimit:4;" d="M 867.790803 1599.780509 C 867.790803 1599.780509 875.171578 1625.613221 905.877034 1654.41974 " transform="matrix(0.109025,0,0,-0.109025,-0.849,183.822)"/>
<path style=" stroke:none;fill-rule:nonzero;fill:rgb(0%,0%,0%);fill-opacity:1;" d="M 93.074219 8.566406 L 93.015625 12.054688 L 94.808594 9.0625 L 93.074219 8.566406 "/>
<path style="fill:none;stroke-width:3.8;stroke-linecap:butt;stroke-linejoin:miter;stroke:rgb(0%,0%,0%);stroke-opacity:1;stroke-miterlimit:4;" d="M 1274.844118 154.617631 C 1274.844118 154.617631 1300.67683 147.236856 1329.483349 116.531399 " transform="matrix(0.109025,0,0,-0.109025,-0.849,183.822)"/>
<path style=" stroke:none;fill-rule:nonzero;fill:rgb(0%,0%,0%);fill-opacity:1;" d="M 138.980469 166.277344 L 135.496094 166.21875 L 138.484375 168.011719 L 138.980469 166.277344 "/>
</g>
</g>
<g clip-path="url(#clip13)" clip-rule="nonzero">
<g style="fill:rgb(0%,0%,0%);fill-opacity:1;">
  <use xlink:href="#glyph0-1" x="99.214" y="5.645"/>
  <use xlink:href="#glyph0-2" x="104.170977" y="5.645"/>
  <use xlink:href="#glyph0-3" x="109.973179" y="5.645"/>
  <use xlink:href="#glyph0-4" x="115.227937" y="5.645"/>
  <use xlink:href="#glyph0-5" x="120.756068" y="5.645"/>
  <use xlink:href="#glyph0-1" x="125.894364" y="5.645"/>
  <use xlink:href="#glyph0-6" x="130.851341" y="5.645"/>
  <use xlink:href="#glyph0-2" x="136.221864" y="5.645"/>
  <use xlink:href="#glyph0-7" x="142.024066" y="5.645"/>
</g>
<g style="fill:rgb(0%,0%,0%);fill-opacity:1;">
  <use xlink:href="#glyph0-8" x="149.459532" y="5.645"/>
</g>
<g style="fill:rgb(0%,0%,0%);fill-opacity:1;">
  <use xlink:href="#glyph0-1" x="145.419" y="172.889"/>
  <use xlink:href="#glyph0-2" x="150.375977" y="172.889"/>
  <use xlink:href="#glyph0-3" x="156.178179" y="172.889"/>
  <use xlink:href="#glyph0-4" x="161.432937" y="172.889"/>
  <use xlink:href="#glyph0-5" x="166.961068" y="172.889"/>
  <use xlink:href="#glyph0-1" x="172.099364" y="172.889"/>
  <use xlink:href="#glyph0-6" x="177.056341" y="172.889"/>
  <use xlink:href="#glyph0-2" x="182.426864" y="172.889"/>
  <use xlink:href="#glyph0-7" x="188.229066" y="172.889"/>
</g>
<g style="fill:rgb(0%,0%,0%);fill-opacity:1;">
  <use xlink:href="#glyph1-1" x="195.666" y="172.889"/>
</g>
<path style=" stroke:none;fill-rule:nonzero;fill:rgb(100%,100%,100%);fill-opacity:1;" d="M 155.398438 77.828125 L 166.621094 77.828125 L 166.621094 67.007813 L 155.398438 67.007813 L 155.398438 77.828125 Z M 155.398438 77.828125 "/>
<g style="fill:rgb(0%,0%,0%);fill-opacity:1;">
  <use xlink:href="#glyph2-1" x="158.388" y="74.842"/>
</g>
<g style="fill:rgb(0%,0%,0%);fill-opacity:1;">
  <use xlink:href="#glyph0-9" x="18.479" y="74.537"/>
  <use xlink:href="#glyph0-10" x="21.926847" y="74.537"/>
  <use xlink:href="#glyph0-11" x="24.728222" y="74.537"/>
  <use xlink:href="#glyph0-12" x="28.176069" y="74.537"/>
</g>
<g style="fill:rgb(0%,0%,0%);fill-opacity:1;">
  <use xlink:href="#glyph0-9" x="207.214" y="74.537"/>
  <use xlink:href="#glyph0-10" x="210.661847" y="74.537"/>
  <use xlink:href="#glyph0-11" x="213.463222" y="74.537"/>
  <use xlink:href="#glyph0-12" x="216.911069" y="74.537"/>
</g>
<g style="fill:rgb(0%,0%,0%);fill-opacity:1;">
  <use xlink:href="#glyph3-1" x="115.867" y="169.649"/>
</g>
</g>
</g>
</svg>
