<?xml version="1.0" encoding="UTF-8" standalone="no"?>
<svg xmlns="http://www.w3.org/2000/svg" xmlns:xlink="http://www.w3.org/1999/xlink" version="1.1" width="304.9pt" height="261.1pt" viewBox="0 0 176.25931 150.92266">
 <metadata id="metadata45909"/>
 <defs id="defs45487">
  <g id="g45489">
   <g id="glyph0-0">
   </g>
   <g id="glyph0-1">
    <path d="M 2.578125,1.546875 C 2.546875,1.5 2.5,1.46875 2.453125,1.4375 1.6875,0.75 1.21875,-0.3125 1.171875,-1.59375 c -0.03125,-0.875 0.125,-1.78125 0.53125,-2.5625 0.203125,-0.375 0.4375,-0.6875 0.75,-0.953125 C 2.5,-5.15625 2.546875,-5.1875 2.578125,-5.21875 l -0.25,0 c -0.15625,0 -0.140625,0 -0.25,0.078125 -0.359375,0.28125 -0.65625,0.65625 -0.890625,1.078125 -0.65625,1.234375 -0.703125,2.90625 -0.09375,4.25 0.21875,0.5 0.5625,0.921875 0.984375,1.28125 0.09375,0.0625 0.09375,0.078125 0.25,0.078125 l 0.25,0 z m 0,0" id="path45495"/>
   </g>
   <g id="glyph0-2">
    <path d="m 0.4375,-5.21875 c 0.03125,0.03125 0.078125,0.0625 0.125,0.109375 0.859375,0.765625 1.328125,2 1.265625,3.515625 -0.015625,0.75 -0.203125,1.5 -0.5625,2.15625 C 1.078125,0.890625 0.84375,1.1875 0.5625,1.4375 0.515625,1.46875 0.46875,1.5 0.4375,1.546875 l 0.25,0 c 0.15625,0 0.140625,0 0.234375,-0.078125 0.375,-0.296875 0.671875,-0.671875 0.890625,-1.078125 0.671875,-1.25 0.71875,-2.90625 0.109375,-4.25 C 1.6875,-4.375 1.359375,-4.796875 0.9375,-5.140625 0.84375,-5.21875 0.84375,-5.21875 0.6875,-5.21875 l -0.25,0 z m 0,0" id="path45498"/>
   </g>
   <g id="glyph0-3">
    <path d="m 0.59375,-3.8125 c 0.140625,0 0.265625,0 0.390625,0 0.328125,-0.25 0.625,-0.546875 0.953125,-0.78125 0.328125,0.234375 0.625,0.53125 0.953125,0.78125 0.109375,0 0.25,0 0.375,0 -0.375,-0.34375 -0.75,-0.703125 -1.140625,-1.03125 -0.140625,0 -0.265625,0 -0.390625,0.015625 C 1.34375,-4.5 0.96875,-4.140625 0.59375,-3.8125 z m 0,0" id="path45501"/>
   </g>
   <g id="glyph1-0">
   </g>
   <g id="glyph1-1">
    <path d="m 1.203125,-2.640625 c 0.265625,-0.140625 0.40625,-0.25 0.75,-0.3125 0.125,-0.03125 0.4375,-0.078125 0.578125,-0.0625 0.234375,0.03125 0.421875,0.171875 0.484375,0.40625 0.078125,0.25 -0.046875,0.5 -0.078125,0.75 -0.609375,0 -1.28125,0.109375 -1.75,0.328125 -0.25,0.140625 -0.515625,0.34375 -0.609375,0.625 C 0.46875,-0.5 0.640625,0 1.109375,0.0625 1.75,0.09375 2.328125,-0.15625 2.65625,-0.46875 L 2.5625,0 2.921875,0 C 3,0 3.0625,0.015625 3.0625,-0.078125 3.078125,-0.125 3.21875,-0.78125 3.21875,-0.78125 L 3.453125,-1.875 c 0.03125,-0.171875 0.09375,-0.34375 0.09375,-0.515625 0.03125,-0.3125 -0.109375,-0.59375 -0.3125,-0.765625 -0.25,-0.203125 -0.5625,-0.234375 -0.875,-0.203125 -0.21875,0 -0.4375,0.046875 -0.65625,0.109375 -0.0625,0.015625 -0.390625,0.125 -0.4375,0.171875 -0.015625,0.03125 -0.0625,0.328125 -0.0625,0.4375 z m 1.6875,1.015625 c -0.015625,0.140625 -0.0625,0.28125 -0.09375,0.421875 -0.03125,0.171875 -0.0625,0.359375 -0.171875,0.5 -0.078125,0.109375 -0.203125,0.1875 -0.328125,0.25 C 1.9375,-0.296875 1.375,-0.25 1.125,-0.53125 0.984375,-0.6875 1.046875,-0.9375 1.171875,-1.09375 1.40625,-1.359375 1.765625,-1.46875 2.09375,-1.546875 2.359375,-1.59375 2.625,-1.625 2.890625,-1.625 z m 0,0" id="path45507"/>
   </g>
   <g id="glyph1-2">
    <path d="m 1.671875,-2.8125 0.109375,-0.484375 -0.5,0 -0.9375,4.453125 0.5,0 0.34375,-1.625 c 0.078125,0.125 0.15625,0.234375 0.25,0.3125 0.375,0.328125 0.9375,0.234375 1.328125,0.015625 0.6875,-0.375 1.125,-1.171875 1.125,-1.9375 0.015625,-0.5 -0.1875,-1.125 -0.734375,-1.25 C 2.578125,-3.4375 1.9375,-3.078125 1.671875,-2.8125 z M 2.90625,-2.84375 c 0.390625,0.203125 0.5,0.671875 0.453125,1.078125 C 3.25,-1.0625 2.65625,-0.375 1.921875,-0.328125 c -0.25,0 -0.484375,-0.109375 -0.59375,-0.328125 C 1.296875,-0.703125 1.28125,-0.765625 1.28125,-0.8125 1.265625,-0.890625 1.296875,-0.96875 1.3125,-1.046875 c 0.046875,-0.25 0.296875,-1.40625 0.3125,-1.46875 0.046875,-0.0625 0.125,-0.125 0.1875,-0.15625 0.28125,-0.234375 0.703125,-0.375 1.09375,-0.171875 z m 0,0" id="path45510"/>
   </g>
   <g id="glyph1-3">
    <path d="M 3.3125,-0.796875 C 3.109375,-0.671875 3.015625,-0.578125 2.78125,-0.5 2.34375,-0.3125 1.765625,-0.21875 1.390625,-0.578125 1.3125,-0.640625 1.265625,-0.71875 1.21875,-0.8125 1.109375,-1.015625 1.0625,-1.25 1.09375,-1.546875 l 0.046875,-0.1875 2.34375,0 c 0.078125,0 0.109375,-0.015625 0.109375,-0.125 C 3.609375,-1.9375 3.625,-2.046875 3.625,-2.125 3.671875,-2.515625 3.578125,-2.921875 3.265625,-3.15625 3.125,-3.28125 2.90625,-3.34375 2.6875,-3.359375 1.734375,-3.4375 0.890625,-2.625 0.671875,-1.734375 0.578125,-1.40625 0.578125,-1.03125 0.71875,-0.703125 0.8125,-0.515625 0.9375,-0.328125 1.125,-0.1875 1.71875,0.25 2.546875,0.03125 3.0625,-0.25 3.109375,-0.28125 3.21875,-0.328125 3.25,-0.375 3.28125,-0.421875 3.3125,-0.78125 3.3125,-0.796875 z m -2.0625,-1.25 c 0.046875,-0.125 0.125,-0.25 0.21875,-0.359375 0.28125,-0.375 0.75,-0.671875 1.234375,-0.546875 0.125,0.03125 0.234375,0.09375 0.328125,0.171875 0.140625,0.171875 0.1875,0.375 0.1875,0.640625 0,0.015625 0.015625,0.0625 0,0.078125 -0.03125,0.03125 -0.09375,0.015625 -0.125,0.015625 l -1.84375,0 z m 0,0" id="path45513"/>
   </g>
   <g id="glyph1-4">
    <path d="M 1.609375,-4.84375 0.578125,0 C 0.75,0 0.9375,0 1.09375,-0.015625 1.140625,-0.15625 1.15625,-0.3125 1.1875,-0.46875 l 0.015625,0 c 0.0625,0.15625 0.21875,0.3125 0.34375,0.390625 0.375,0.21875 0.84375,0.140625 1.21875,-0.0625 0.6875,-0.375 1.109375,-1.171875 1.125,-1.953125 0.015625,-0.484375 -0.1875,-1.078125 -0.71875,-1.21875 -0.59375,-0.15625 -1.203125,0.234375 -1.5,0.484375 l 0.4375,-2.015625 -0.5,0 z m 1.390625,2 c 0.0625,0.03125 0.125,0.078125 0.171875,0.125 0.25,0.265625 0.25,0.671875 0.171875,1.015625 -0.046875,0.265625 -0.140625,0.515625 -0.28125,0.75 -0.25,0.375 -0.671875,0.59375 -1.125,0.625 -0.203125,0 -0.390625,-0.046875 -0.515625,-0.203125 C 1.375,-0.578125 1.28125,-0.734375 1.28125,-0.8125 1.265625,-0.890625 1.296875,-0.96875 1.3125,-1.046875 1.359375,-1.296875 1.609375,-2.46875 1.640625,-2.515625 1.671875,-2.578125 1.75,-2.640625 1.8125,-2.6875 2.109375,-2.9375 2.59375,-3.0625 3,-2.84375 z m 0,0" id="path45516"/>
   </g>
   <g id="glyph1-5">
    <path d="M 1.765625,-4.84375 0.734375,0 l 0.375,0 C 1.15625,0 1.21875,0.015625 1.265625,-0.015625 1.296875,-0.03125 1.296875,-0.09375 1.296875,-0.125 c 0.015625,-0.078125 0.375,-1.75 0.375,-1.75 0,-0.03125 0,-0.109375 0.046875,-0.125 0.015625,-0.03125 0.046875,-0.015625 0.078125,-0.015625 l 0.84375,0 c 0.21875,0 0.4375,0.015625 0.65625,-0.015625 0.390625,-0.03125 0.78125,-0.171875 1.109375,-0.390625 0.484375,-0.3125 0.90625,-0.875 0.75,-1.46875 C 5.0625,-4.28125 4.75,-4.546875 4.421875,-4.6875 4.0625,-4.84375 3.65625,-4.84375 3.265625,-4.84375 l -1.5,0 z m 0,2.421875 C 1.796875,-2.625 1.859375,-2.8125 1.890625,-3.015625 1.921875,-3.125 2.15625,-4.21875 2.15625,-4.28125 2.171875,-4.34375 2.171875,-4.421875 2.265625,-4.421875 l 1.1875,0 c 0.484375,0 1.171875,0.125 1.234375,0.734375 0.046875,0.5 -0.328125,0.921875 -0.765625,1.109375 -0.375,0.15625 -0.703125,0.15625 -1.171875,0.15625 l -0.984375,0 z m 0,0" id="path45519"/>
   </g>
   <g id="glyph2-0">
   </g>
   <g id="glyph2-1">
    <path d="m 0.984375,-5.21875 c -0.140625,0.046875 -0.125,0.1875 -0.125,0.3125 l 0,6.15625 c 0,0.109375 -0.015625,0.21875 0.09375,0.28125 0.015625,0 0.03125,0.015625 0.046875,0.015625 0.015625,0 0.03125,0 0.0625,0 C 1.21875,1.5 1.1875,1.3125 1.1875,1.1875 l 0,-6.1875 c 0,-0.03125 0,-0.078125 -0.015625,-0.125 C 1.15625,-5.1875 1.0625,-5.234375 0.984375,-5.21875 z m 0,0" id="path45525"/>
   </g>
   <g id="glyph2-2">
    <path d="m 0.53125,-5.21875 c -0.015625,0 -0.03125,0 -0.046875,0.015625 -0.140625,0.09375 -0.03125,0.265625 0.015625,0.375 l 0.984375,2.4375 0.15625,0.375 c 0.03125,0.046875 0.078125,0.109375 0.078125,0.171875 0,0.03125 -0.21875,0.53125 -0.28125,0.6875 l -0.640625,1.5625 -0.21875,0.5625 c -0.0625,0.125 -0.125,0.234375 -0.15625,0.359375 -0.03125,0.109375 0.03125,0.21875 0.15625,0.21875 0.140625,-0.015625 0.1875,-0.1875 0.21875,-0.296875 0.25,-0.59375 1.0625,-2.53125 1.1875,-2.875 C 2,-1.6875 2.0625,-1.765625 2.0625,-1.84375 c 0,-0.0625 -0.171875,-0.453125 -0.234375,-0.578125 -0.09375,-0.25 -1.046875,-2.546875 -1.046875,-2.546875 -0.046875,-0.109375 -0.09375,-0.296875 -0.25,-0.25 z m 0,0" id="path45528"/>
   </g>
   <g id="glyph3-0">
   </g>
   <g id="glyph3-1">
    <path d="m 1.59375,-3.828125 c 0.421875,0 0.703125,-0.0625 1.046875,-0.203125 L 1.875,-0.390625 l -0.96875,0 L 0.8125,0 3.25,0 l 0.09375,-0.390625 -0.96875,0 0.90625,-4.296875 c -0.125,0 -0.140625,0.015625 -0.25,0.09375 -0.296875,0.203125 -0.734375,0.359375 -1.203125,0.359375 -0.03125,0 -0.109375,0 -0.15625,0.03125 -0.015625,0.015625 -0.0625,0.28125 -0.078125,0.375 z m 0,0" id="path45534"/>
   </g>
   <g id="glyph3-2">
    <path d="M 1.296875,-3.203125 C 1.5,-3.671875 1.875,-4.15625 2.40625,-4.25 2.859375,-4.328125 3.453125,-4.1875 3.625,-3.71875 3.703125,-3.5 3.671875,-3.296875 3.609375,-3.078125 3.359375,-2.34375 2.5,-1.875 1.9375,-1.46875 c -0.421875,0.28125 -1.21875,0.875 -1.21875,0.875 l -0.15625,0.125 C 0.53125,-0.453125 0.5,-0.4375 0.46875,-0.40625 0.453125,-0.375 0.40625,-0.09375 0.390625,0 1.40625,0 2.484375,0.015625 3.46875,0 3.53125,-0.125 3.546875,-0.28125 3.578125,-0.4375 l -2.65625,0 c 0.515625,-0.34375 1,-0.71875 1.515625,-1.0625 0.53125,-0.34375 1.203125,-0.734375 1.546875,-1.265625 0.25,-0.40625 0.328125,-1 0.03125,-1.40625 C 3.84375,-4.421875 3.578125,-4.5625 3.25,-4.640625 2.609375,-4.78125 1.921875,-4.59375 1.46875,-4.109375 c -0.109375,0.125 -0.203125,0.25 -0.296875,0.390625 -0.03125,0.046875 -0.078125,0.109375 -0.078125,0.171875 0,0.03125 0.140625,0.28125 0.203125,0.34375 z m 0,0" id="path45537"/>
   </g>
  </g>
  <clipPath id="clip1">
   <path d="m -217,668 612,0 0,-792 -612,0 0,792 z m 0,0" id="path45540"/>
  </clipPath>
  <clipPath id="clip2">
   <path d="m 31.953125,296.16016 144.999995,0 0,-292.000004 -144.999995,0 0,292.000004 z m 0,0" id="path45543"/>
  </clipPath>
  <clipPath id="clip3">
   <path d="m 90.417969,34.132813 c 0,-7.519532 -2.988281,-14.730469 -8.304688,-20.046875 C 76.796875,8.769531 69.589844,5.785156 62.070313,5.785156 c -7.519532,0 -14.726563,2.984375 -20.042969,8.300782 -5.316406,5.316406 -8.304688,12.527343 -8.304688,20.046875 0,7.515625 2.988282,14.726562 8.304688,20.042968 5.316406,5.3125 12.523437,8.300782 20.042969,8.300782 7.519531,0 14.726562,-2.988282 20.042968,-8.300782 5.316407,-5.316406 8.304688,-12.527343 8.304688,-20.042968 z m 0,0" id="path45546"/>
  </clipPath>
  <clipPath id="clip6">
   <path d="m 175.45703,96.492188 c 0,-7.519532 -2.98828,-14.726563 -8.30469,-20.042969 -5.3125,-5.316406 -12.52343,-8.304688 -20.04297,-8.304688 -7.51562,0 -14.72656,2.988282 -20.04296,8.304688 -5.31641,5.316406 -8.30469,12.523437 -8.30469,20.042969 0,7.519532 2.98828,14.726562 8.30469,20.042972 5.3164,5.3164 12.52734,8.30468 20.04296,8.30468 7.51954,0 14.73047,-2.98828 20.04297,-8.30468 5.31641,-5.31641 8.30469,-12.52344 8.30469,-20.042972 z m 0,0" id="path45555"/>
  </clipPath>
  <clipPath id="clip11">
   <path d="m 175.45703,190.03516 c 0,-7.51563 -2.98828,-14.72657 -8.30469,-20.04297 -5.3125,-5.31641 -12.52343,-8.30078 -20.04297,-8.30078 -7.51562,0 -14.72656,2.98437 -20.04296,8.30078 -5.31641,5.3164 -8.30469,12.52734 -8.30469,20.04297 0,7.51953 2.98828,14.72656 8.30469,20.04296 5.3164,5.31641 12.52734,8.30469 20.04296,8.30469 7.51954,0 14.73047,-2.98828 20.04297,-8.30469 5.31641,-5.3164 8.30469,-12.52343 8.30469,-20.04296 z m 0,0" id="path45570"/>
  </clipPath>
  <clipPath id="clip14">
   <path d="m 90.417969,252.39844 c 0,-7.51953 -2.988281,-14.72657 -8.304688,-20.04297 -5.316406,-5.31641 -12.523437,-8.30469 -20.042968,-8.30469 -7.519532,0 -14.726563,2.98828 -20.042969,8.30469 -5.316406,5.3164 -8.304688,12.52344 -8.304688,20.04297 0,7.51953 2.988282,14.72656 8.304688,20.04297 5.316406,5.3164 12.523437,8.30468 20.042969,8.30468 7.519531,0 14.726562,-2.98828 20.042968,-8.30468 5.316407,-5.31641 8.304688,-12.52344 8.304688,-20.04297 z m 0,0" id="path45579"/>
  </clipPath>
 </defs>
 <g transform="translate(-0.11311664,-145.25208)" id="g46291">
  <g clip-path="url(#clip2)" id="g45669">
   <g clip-path="url(#clip11)" id="g45671">
    <path d="m 1131.5247,680.39906 400.8984,400.89844" transform="matrix(0.1,0,0,-0.1,31.953,296.161)" id="path45673" fill="none" stroke="#000000" stroke-linejoin="round" stroke-linecap="round" stroke-width="5" stroke-miterlimit="10"/>
    <path d="M 1101.4466,710.47719 1502.345,1111.3756" transform="matrix(0.1,0,0,-0.1,31.953,296.161)" id="path45675" fill="none" stroke="#000000" stroke-linejoin="round" stroke-linecap="round" stroke-width="5" stroke-miterlimit="10"/>
    <path d="m 1071.4075,740.55531 400.8594,400.85939" transform="matrix(0.1,0,0,-0.1,31.953,296.161)" id="path45677" fill="none" stroke="#000000" stroke-linejoin="round" stroke-linecap="round" stroke-width="5" stroke-miterlimit="10"/>
    <path d="m 1041.3294,770.59438 400.8984,400.89842" transform="matrix(0.1,0,0,-0.1,31.953,296.161)" id="path45679" fill="none" stroke="#000000" stroke-linejoin="round" stroke-linecap="round" stroke-width="5" stroke-miterlimit="10"/>
    <path d="m 1011.2513,800.6725 400.8984,400.8984" transform="matrix(0.1,0,0,-0.1,31.953,296.161)" id="path45681" fill="none" stroke="#000000" stroke-linejoin="round" stroke-linecap="round" stroke-width="5" stroke-miterlimit="10"/>
    <path d="M 981.21219,830.75063 1382.0716,1231.61" transform="matrix(0.1,0,0,-0.1,31.953,296.161)" id="path45683" fill="none" stroke="#000000" stroke-linejoin="round" stroke-linecap="round" stroke-width="5" stroke-miterlimit="10"/>
    <path d="M 951.13406,860.82875 1351.9934,1261.6881" transform="matrix(0.1,0,0,-0.1,31.953,296.161)" id="path45685" fill="none" stroke="#000000" stroke-linejoin="round" stroke-linecap="round" stroke-width="5" stroke-miterlimit="10"/>
    <path d="M 921.05594,890.86781 1321.9544,1291.7663" transform="matrix(0.1,0,0,-0.1,31.953,296.161)" id="path45687" fill="none" stroke="#000000" stroke-linejoin="round" stroke-linecap="round" stroke-width="5" stroke-miterlimit="10"/>
    <path d="M 890.97781,920.94594 1291.8763,1321.8053" transform="matrix(0.1,0,0,-0.1,31.953,296.161)" id="path45689" fill="none" stroke="#000000" stroke-linejoin="round" stroke-linecap="round" stroke-width="5" stroke-miterlimit="10"/>
    <path d="M 860.93875,951.02406 1261.7981,1351.8834" transform="matrix(0.1,0,0,-0.1,31.953,296.161)" id="path45691" fill="none" stroke="#000000" stroke-linejoin="round" stroke-linecap="round" stroke-width="5" stroke-miterlimit="10"/>
    <path d="M 830.86063,981.06313 1231.7591,1381.9616" transform="matrix(0.1,0,0,-0.1,31.953,296.161)" id="path45693" fill="none" stroke="#000000" stroke-linejoin="round" stroke-linecap="round" stroke-width="5" stroke-miterlimit="10"/>
    <path d="m 800.7825,1011.1413 400.8984,400.8593" transform="matrix(0.1,0,0,-0.1,31.953,296.161)" id="path45695" fill="none" stroke="#000000" stroke-linejoin="round" stroke-linecap="round" stroke-width="5" stroke-miterlimit="10"/>
    <path d="m 770.74344,1041.2194 400.85936,400.8594" transform="matrix(0.1,0,0,-0.1,31.953,296.161)" id="path45697" fill="none" stroke="#000000" stroke-linejoin="round" stroke-linecap="round" stroke-width="5" stroke-miterlimit="10"/>
   </g>
  </g>
  <g clip-path="url(#clip2)" id="g45701">
   <g clip-path="url(#clip14)" id="g45703">
    <path d="M 281.13406,56.805313 681.99344,457.66469" transform="matrix(0.1,0,0,-0.1,31.953,296.161)" id="path45705" fill="none" stroke="#000000" stroke-linejoin="round" stroke-linecap="round" stroke-width="5" stroke-miterlimit="10"/>
    <path d="M 251.05594,86.844375 651.95438,487.74281" transform="matrix(0.1,0,0,-0.1,31.953,296.161)" id="path45707" fill="none" stroke="#000000" stroke-linejoin="round" stroke-linecap="round" stroke-width="5" stroke-miterlimit="10"/>
    <path d="M 221.01687,116.9225 621.87625,517.82094" transform="matrix(0.1,0,0,-0.1,31.953,296.161)" id="path45709" fill="none" stroke="#000000" stroke-linejoin="round" stroke-linecap="round" stroke-width="5" stroke-miterlimit="10"/>
    <path d="M 190.93875,147.00063 591.79813,547.86" transform="matrix(0.1,0,0,-0.1,31.953,296.161)" id="path45711" fill="none" stroke="#000000" stroke-linejoin="round" stroke-linecap="round" stroke-width="5" stroke-miterlimit="10"/>
    <path d="M 160.86062,177.03969 561.75906,577.93813" transform="matrix(0.1,0,0,-0.1,31.953,296.161)" id="path45713" fill="none" stroke="#000000" stroke-linejoin="round" stroke-linecap="round" stroke-width="5" stroke-miterlimit="10"/>
    <path d="M 130.82156,207.11781 531.68094,608.01625" transform="matrix(0.1,0,0,-0.1,31.953,296.161)" id="path45715" fill="none" stroke="#000000" stroke-linejoin="round" stroke-linecap="round" stroke-width="5" stroke-miterlimit="10"/>
    <path d="M 100.74344,237.19594 501.60281,638.05531" transform="matrix(0.1,0,0,-0.1,31.953,296.161)" id="path45717" fill="none" stroke="#000000" stroke-linejoin="round" stroke-linecap="round" stroke-width="5" stroke-miterlimit="10"/>
    <path d="M 70.665312,267.27406 471.56375,668.13344" transform="matrix(0.1,0,0,-0.1,31.953,296.161)" id="path45719" fill="none" stroke="#000000" stroke-linejoin="round" stroke-linecap="round" stroke-width="5" stroke-miterlimit="10"/>
    <path d="M 40.587187,297.31313 441.48563,698.21156" transform="matrix(0.1,0,0,-0.1,31.953,296.161)" id="path45721" fill="none" stroke="#000000" stroke-linejoin="round" stroke-linecap="round" stroke-width="5" stroke-miterlimit="10"/>
    <path d="M 10.548125,327.39125 411.4075,728.25063" transform="matrix(0.1,0,0,-0.1,31.953,296.161)" id="path45723" fill="none" stroke="#000000" stroke-linejoin="round" stroke-linecap="round" stroke-width="5" stroke-miterlimit="10"/>
    <path d="M -19.53,357.46938 381.36844,758.32875" transform="matrix(0.1,0,0,-0.1,31.953,296.161)" id="path45725" fill="none" stroke="#000000" stroke-linejoin="round" stroke-linecap="round" stroke-width="5" stroke-miterlimit="10"/>
    <path d="M -49.608125,387.50844 351.29031,788.40688" transform="matrix(0.1,0,0,-0.1,31.953,296.161)" id="path45727" fill="none" stroke="#000000" stroke-linejoin="round" stroke-linecap="round" stroke-width="5" stroke-miterlimit="10"/>
    <path d="M -79.647188,417.58656 321.21219,818.44594" transform="matrix(0.1,0,0,-0.1,31.953,296.161)" id="path45729" fill="none" stroke="#000000" stroke-linejoin="round" stroke-linecap="round" stroke-width="5" stroke-miterlimit="10"/>
   </g>
  </g>
  <g clip-path="url(#clip2)" id="g45733">
   <path d="m 64.90625,190.03516 c 0,-0.75 -0.300781,-1.47266 -0.832031,-2.00391 -0.53125,-0.53125 -1.25,-0.83203 -2.003906,-0.83203 -0.75,0 -1.472657,0.30078 -2.003907,0.83203 -0.53125,0.53125 -0.832031,1.25391 -0.832031,2.00391 0,0.7539 0.300781,1.47265 0.832031,2.0039 0.53125,0.53125 1.253907,0.83203 2.003907,0.83203 0.753906,0 1.472656,-0.30078 2.003906,-0.83203 0.53125,-0.53125 0.832031,-1.25 0.832031,-2.0039" id="path45735"/>
   <path d="m 149.94531,190.03516 c 0,-0.75 -0.30078,-1.47266 -0.83203,-2.00391 -0.53125,-0.53125 -1.25,-0.83203 -2.00391,-0.83203 -0.75,0 -1.47265,0.30078 -2.0039,0.83203 -0.53125,0.53125 -0.83203,1.25391 -0.83203,2.00391 0,0.7539 0.30078,1.47265 0.83203,2.0039 0.53125,0.53125 1.2539,0.83203 2.0039,0.83203 0.75391,0 1.47266,-0.30078 2.00391,-0.83203 0.53125,-0.53125 0.83203,-1.25 0.83203,-2.0039" id="path45737"/>
   <path d="m 64.90625,252.39844 c 0,-0.75391 -0.300781,-1.47266 -0.832031,-2.00391 -0.53125,-0.53125 -1.25,-0.83203 -2.003906,-0.83203 -0.75,0 -1.472657,0.30078 -2.003907,0.83203 -0.53125,0.53125 -0.832031,1.25 -0.832031,2.00391 0,0.75 0.300781,1.47265 0.832031,2.0039 0.53125,0.53125 1.253907,0.83203 2.003907,0.83203 0.753906,0 1.472656,-0.30078 2.003906,-0.83203 0.53125,-0.53125 0.832031,-1.2539 0.832031,-2.0039" id="path45739"/>
   <path d="m 149.94531,252.39844 c 0,-0.75391 -0.30078,-1.47266 -0.83203,-2.00391 -0.53125,-0.53125 -1.25,-0.83203 -2.00391,-0.83203 -0.75,0 -1.47265,0.30078 -2.0039,0.83203 -0.53125,0.53125 -0.83203,1.25 -0.83203,2.00391 0,0.75 0.30078,1.47265 0.83203,2.0039 0.53125,0.53125 1.2539,0.83203 2.0039,0.83203 0.75391,0 1.47266,-0.30078 2.00391,-0.83203 0.53125,-0.53125 0.83203,-1.2539 0.83203,-2.0039" id="path45741"/>
   <path d="m 726.36844,12.430313 0,1474.023487" transform="matrix(0.1,0,0,-0.1,31.953,296.161)" id="path45743" stroke-dasharray="113.386 56.6928" fill="none" stroke="#000000" stroke-linejoin="round" stroke-linecap="round" stroke-width="5" stroke-miterlimit="10"/>
  </g>
  <g id="g45815">
   <use transform="translate(7.7459998,161.938)" id="use45817" width="176" height="296" xlink:href="#glyph0-1"/>
  </g>
  <g id="g45819">
   <use transform="translate(10.763,161.938)" id="use45821" width="176" height="296" xlink:href="#glyph1-4"/>
  </g>
  <g id="g45823">
   <use transform="translate(14.762,161.938)" id="use45825" width="176" height="296" xlink:href="#glyph0-2"/>
  </g>
  <g id="g45827">
   <use transform="translate(65.968002,191.21001)" id="use45829" width="176" height="296" xlink:href="#glyph1-2"/>
  </g>
  <path d="m 150.15625,193.22266 5.76562,0 0,-6.15625 -5.76562,0 0,6.15625 z m 0,0" id="path45831" fill="#ffffff"/>
  <g id="g45833">
   <use transform="translate(151.008,191.21001)" id="use45835" width="176" height="296" xlink:href="#glyph1-2"/>
  </g>
  <path d="m 144.23047,175.63281 5.61719,0 0,-4.99219 -5.61719,0 0,4.99219 z m 0,0" id="path45837" fill="#ffffff"/>
  <g id="g45839">
   <use transform="translate(145.082,174.784)" id="use45841" width="176" height="296" xlink:href="#glyph1-3"/>
  </g>
  <path d="m 65.117188,255.58594 5.765625,0 0,-6.15625 -5.765625,0 0,6.15625 z m 0,0" id="path45843" fill="#ffffff"/>
  <g id="g45845">
   <use transform="translate(65.968002,253.573)" id="use45847" width="176" height="296" xlink:href="#glyph1-2"/>
  </g>
  <path d="m 59.191406,237.99609 5.617188,0 0,-4.99218 -5.617188,0 0,4.99218 z m 0,0" id="path45849" fill="#ffffff"/>
  <g id="g45851">
   <use transform="translate(60.042999,237.146)" id="use45853" width="176" height="296" xlink:href="#glyph1-3"/>
  </g>
  <g id="g45855">
   <use transform="translate(151.008,253.573)" id="use45857" width="176" height="296" xlink:href="#glyph1-2"/>
  </g>
  <g id="g45859">
   <use transform="translate(1.721,191.017)" id="use45861" width="176" height="296" xlink:href="#glyph0-3"/>
  </g>
  <g id="g45863">
   <use transform="translate(0.29499999,192.56599)" id="use45865" width="176" height="296" xlink:href="#glyph1-5"/>
  </g>
  <g id="g45867">
   <use transform="translate(6.9679999,192.56599)" id="use45869" width="176" height="296" xlink:href="#glyph2-1"/>
  </g>
  <g id="g45871">
   <use transform="translate(10.261,192.56599)" id="use45873" width="176" height="296" xlink:href="#glyph3-1"/>
  </g>
  <g id="g45875">
   <use transform="translate(14.898,192.56599)" id="use45877" width="176" height="296" xlink:href="#glyph2-2"/>
  </g>
  <g id="g45879">
   <use transform="translate(1.721,253.379)" id="use45881" width="176" height="296" xlink:href="#glyph0-3"/>
  </g>
  <g id="g45883">
   <use transform="translate(0.29499999,254.929)" id="use45885" width="176" height="296" xlink:href="#glyph1-5"/>
  </g>
  <g id="g45887">
   <use transform="translate(6.9679999,254.929)" id="use45889" width="176" height="296" xlink:href="#glyph2-1"/>
  </g>
  <g id="g45891">
   <use transform="translate(10.261,254.929)" id="use45893" width="176" height="296" xlink:href="#glyph3-2"/>
  </g>
  <g id="g45895">
   <use transform="translate(14.898,254.929)" id="use45897" width="176" height="296" xlink:href="#glyph2-2"/>
  </g>
  <g id="g45899">
   <use transform="translate(105.937,295.02701)" id="use45901" width="176" height="296" xlink:href="#glyph1-5"/>
  </g>
  <g id="g45903">
   <use transform="translate(105.937,152.468)" id="use45905" width="176" height="296" xlink:href="#glyph1-5"/>
  </g>
 </g>
</svg>
