<?xml version="1.0" encoding="UTF-8"?>
<svg xmlns="http://www.w3.org/2000/svg" xmlns:xlink="http://www.w3.org/1999/xlink" width="363pt" height="134pt" viewBox="0 0 262 97" version="1.1">
<defs>
<g>
<symbol overflow="visible" id="glyph0-0">
<path style="stroke:none;" d=""/>
</symbol>
<symbol overflow="visible" id="glyph0-1">
<path style="stroke:none;" d="M 0.734375 -4.828125 L 0.734375 0 L 1.265625 0 L 1.265625 -2.203125 L 3.78125 -2.203125 L 3.78125 -2.625 L 1.265625 -2.625 L 1.265625 -4.40625 L 4.109375 -4.40625 L 4.109375 -4.828125 L 0.734375 -4.828125 Z M 0.734375 -4.828125 "/>
</symbol>
<symbol overflow="visible" id="glyph0-2">
<path style="stroke:none;" d="M 0.734375 -4.84375 L 0.734375 0 L 1.25 0 L 1.25 -2.21875 L 2.28125 -2.21875 C 2.421875 -2.21875 2.546875 -2.234375 2.65625 -2.203125 C 2.78125 -2.03125 2.90625 -1.859375 3.03125 -1.671875 C 3.421875 -1.125 3.8125 -0.5625 4.21875 -0.015625 C 4.390625 0 4.578125 0 4.75 0 L 4.46875 -0.390625 L 3.125 -2.28125 C 3.25 -2.296875 3.390625 -2.328125 3.515625 -2.390625 C 4.015625 -2.5625 4.578125 -2.96875 4.53125 -3.5625 C 4.515625 -3.796875 4.453125 -3.9375 4.328125 -4.109375 C 4.015625 -4.515625 3.484375 -4.765625 2.875 -4.828125 C 2.625 -4.84375 2.390625 -4.84375 2.125 -4.84375 L 0.734375 -4.84375 Z M 1.25 -2.609375 L 1.25 -4.421875 L 2.296875 -4.421875 C 2.640625 -4.421875 3 -4.421875 3.34375 -4.328125 C 3.671875 -4.203125 4 -3.96875 4.046875 -3.59375 C 4.0625 -3.359375 3.96875 -3.140625 3.8125 -2.984375 C 3.6875 -2.875 3.546875 -2.796875 3.390625 -2.734375 C 3.046875 -2.609375 2.6875 -2.609375 2.328125 -2.609375 L 1.25 -2.609375 Z M 1.25 -2.609375 "/>
</symbol>
<symbol overflow="visible" id="glyph0-3">
<path style="stroke:none;" d="M 1 -4.03125 C 0.265625 -3.125 0.234375 -1.75 0.96875 -0.84375 C 1.28125 -0.4375 1.703125 -0.140625 2.234375 0.015625 C 3.71875 0.421875 4.921875 -0.546875 5.25 -1.65625 C 5.53125 -2.578125 5.25 -3.640625 4.53125 -4.3125 C 4.171875 -4.640625 3.65625 -4.90625 3.046875 -4.9375 C 2.125 -5.015625 1.421875 -4.53125 1 -4.03125 Z M 3.484375 -4.453125 C 3.96875 -4.296875 4.359375 -3.96875 4.59375 -3.53125 C 4.734375 -3.265625 4.796875 -2.96875 4.828125 -2.671875 C 4.890625 -1.84375 4.546875 -0.9375 3.796875 -0.53125 C 3.421875 -0.328125 2.96875 -0.234375 2.484375 -0.34375 C 2.15625 -0.421875 1.859375 -0.59375 1.640625 -0.796875 C 1.21875 -1.1875 1 -1.765625 0.96875 -2.328125 C 0.90625 -3.34375 1.421875 -4.109375 2.140625 -4.390625 C 2.5625 -4.5625 3.03125 -4.59375 3.484375 -4.453125 Z M 3.484375 -4.453125 "/>
</symbol>
<symbol overflow="visible" id="glyph0-4">
<path style="stroke:none;" d="M 0.765625 -4.84375 L 0.765625 0 L 1.234375 0 L 1.234375 -4.328125 L 1.25 -4.328125 C 1.28125 -4.1875 1.359375 -4.0625 1.40625 -3.921875 C 1.5 -3.703125 2.96875 -0.265625 3 -0.1875 C 3.046875 -0.125 3.015625 -0.109375 3.15625 -0.109375 L 3.359375 -0.109375 C 3.390625 -0.109375 3.421875 -0.109375 3.46875 -0.109375 C 3.5 -0.125 3.5 -0.15625 3.515625 -0.1875 C 3.546875 -0.234375 3.5625 -0.296875 3.59375 -0.359375 L 3.921875 -1.125 C 4.015625 -1.359375 5.265625 -4.234375 5.296875 -4.328125 L 5.296875 -4.328125 L 5.296875 0 L 5.78125 0 L 5.78125 -4.84375 C 5.546875 -4.828125 5.265625 -4.859375 5.078125 -4.828125 L 5.03125 -4.734375 L 3.25 -0.625 L 1.9375 -3.671875 C 1.765625 -4.0625 1.625 -4.453125 1.4375 -4.828125 C 1.25 -4.859375 0.96875 -4.828125 0.765625 -4.84375 Z M 0.765625 -4.84375 "/>
</symbol>
<symbol overflow="visible" id="glyph0-5">
<path style="stroke:none;" d="M 0.4375 -0.90625 C 0.421875 -0.84375 0.328125 -0.40625 0.34375 -0.375 C 0.359375 -0.359375 0.390625 -0.34375 0.40625 -0.328125 L 0.578125 -0.25 C 1.234375 0.09375 2.359375 0.296875 3.109375 -0.125 C 3.5 -0.328125 3.875 -0.765625 3.875 -1.296875 C 3.875 -2.015625 3.296875 -2.453125 2.796875 -2.625 C 2.65625 -2.671875 2.140625 -2.78125 2.046875 -2.796875 C 1.6875 -2.875 1.296875 -2.96875 1.046875 -3.265625 C 1.015625 -3.3125 0.984375 -3.359375 0.96875 -3.421875 C 0.765625 -3.875 1.125 -4.265625 1.546875 -4.421875 C 2 -4.59375 2.578125 -4.546875 2.984375 -4.375 C 3.09375 -4.328125 3.21875 -4.265625 3.3125 -4.1875 C 3.375 -4.15625 3.4375 -4.109375 3.5 -4.0625 C 3.53125 -4.1875 3.546875 -4.328125 3.5625 -4.453125 C 3.578125 -4.546875 3.625 -4.609375 3.515625 -4.640625 L 3.34375 -4.71875 C 2.578125 -5.03125 1.546875 -5.078125 0.890625 -4.515625 C 0.796875 -4.453125 0.71875 -4.359375 0.640625 -4.265625 C 0.4375 -3.984375 0.34375 -3.546875 0.546875 -3.15625 C 0.71875 -2.8125 1.015625 -2.578125 1.390625 -2.4375 C 1.546875 -2.390625 1.6875 -2.359375 1.84375 -2.328125 C 2 -2.28125 2.5625 -2.171875 2.65625 -2.125 C 2.921875 -2.03125 3.1875 -1.859375 3.3125 -1.59375 C 3.375 -1.484375 3.390625 -1.375 3.390625 -1.203125 C 3.34375 -0.78125 2.96875 -0.5 2.59375 -0.390625 C 1.984375 -0.21875 1.296875 -0.40625 0.84375 -0.640625 C 0.703125 -0.71875 0.578125 -0.828125 0.4375 -0.90625 Z M 0.4375 -0.90625 "/>
</symbol>
<symbol overflow="visible" id="glyph0-6">
<path style="stroke:none;" d="M 0.734375 -4.84375 L 0.734375 0 L 1.265625 0 L 1.265625 -4.84375 L 0.734375 -4.84375 Z M 0.734375 -4.84375 "/>
</symbol>
<symbol overflow="visible" id="glyph0-7">
<path style="stroke:none;" d="M 4.640625 -2.296875 L 3.015625 -2.296875 L 3.015625 -1.875 L 4.140625 -1.875 L 4.140625 -0.65625 C 4.140625 -0.546875 4.125 -0.515625 4 -0.5 C 3.65625 -0.390625 3.171875 -0.328125 2.78125 -0.375 C 2.3125 -0.4375 1.921875 -0.6875 1.65625 -0.984375 C 0.953125 -1.796875 0.953125 -3.078125 1.671875 -3.875 C 2.03125 -4.25 2.515625 -4.515625 3.1875 -4.46875 C 3.5 -4.453125 3.796875 -4.390625 4.078125 -4.265625 C 4.21875 -4.1875 4.34375 -4.09375 4.484375 -4 C 4.515625 -4.1875 4.5625 -4.375 4.578125 -4.546875 C 4.0625 -4.78125 3.703125 -4.890625 2.96875 -4.890625 C 2.3125 -4.890625 1.75 -4.578125 1.375 -4.25 C 1.234375 -4.125 1.125 -3.96875 1.015625 -3.8125 C 0.46875 -2.984375 0.453125 -1.859375 1.015625 -1.03125 C 1.28125 -0.640625 1.640625 -0.3125 2.109375 -0.125 C 2.734375 0.125 3.421875 0.078125 4.0625 -0.078125 C 4.125 -0.09375 4.625 -0.234375 4.640625 -0.296875 C 4.640625 -0.328125 4.640625 -0.34375 4.640625 -0.375 L 4.640625 -2.296875 Z M 4.640625 -2.296875 "/>
</symbol>
<symbol overflow="visible" id="glyph0-8">
<path style="stroke:none;" d="M 0.75 -4.84375 L 0.75 0 L 1.234375 0 L 1.234375 -4.40625 L 1.234375 -4.40625 L 1.4375 -4.0625 L 3.015625 -1.3125 C 3.265625 -0.875 3.5 -0.4375 3.75 -0.015625 C 3.96875 0.03125 4.25 -0.015625 4.484375 0 L 4.484375 -4.84375 L 4 -4.84375 L 4 -0.421875 L 2.1875 -3.59375 C 1.953125 -4 1.734375 -4.4375 1.484375 -4.828125 C 1.28125 -4.859375 0.984375 -4.828125 0.75 -4.84375 Z M 0.75 -4.84375 "/>
</symbol>
<symbol overflow="visible" id="glyph0-9">
<path style="stroke:none;" d="M 0.21875 0 L 0.578125 0 C 0.625 0 0.6875 0.015625 0.71875 -0.015625 C 0.75 -0.03125 0.75 -0.0625 0.765625 -0.09375 C 0.875 -0.34375 1.21875 -1.203125 1.265625 -1.296875 C 1.28125 -1.359375 1.296875 -1.390625 1.375 -1.390625 L 3.046875 -1.390625 C 3.234375 -1.390625 3.421875 -1.40625 3.609375 -1.390625 C 3.6875 -1.390625 3.703125 -1.296875 3.734375 -1.234375 C 3.8125 -1.03125 4.1875 -0.125 4.203125 -0.0625 C 4.234375 0.015625 4.296875 0 4.40625 0 L 4.796875 0 C 4.625 -0.453125 4.4375 -0.890625 4.25 -1.34375 L 2.8125 -4.828125 C 2.796875 -4.859375 2.796875 -4.90625 2.765625 -4.90625 C 2.71875 -4.90625 2.671875 -4.90625 2.625 -4.90625 L 2.375 -4.90625 C 2.328125 -4.90625 2.265625 -4.921875 2.234375 -4.890625 C 2.203125 -4.875 2.1875 -4.84375 2.1875 -4.8125 L 0.765625 -1.34375 L 0.40625 -0.484375 C 0.34375 -0.328125 0.265625 -0.171875 0.21875 0 Z M 2.484375 -4.328125 C 2.796875 -3.46875 3.15625 -2.640625 3.5 -1.8125 L 1.46875 -1.8125 C 1.796875 -2.640625 2.15625 -3.46875 2.46875 -4.328125 L 2.484375 -4.328125 Z M 2.484375 -4.328125 "/>
</symbol>
<symbol overflow="visible" id="glyph0-10">
<path style="stroke:none;" d="M 0.734375 -4.84375 L 0.734375 0 L 3.890625 0 L 3.890625 -0.40625 L 1.265625 -0.40625 L 1.265625 -4.84375 L 0.734375 -4.84375 Z M 0.734375 -4.84375 "/>
</symbol>
<symbol overflow="visible" id="glyph0-11">
<path style="stroke:none;" d="M 0.734375 -4.828125 L 0.734375 0 L 4.328125 0 L 4.328125 -0.4375 L 1.265625 -0.4375 L 1.265625 -2.296875 L 4 -2.296875 L 4 -2.703125 L 1.265625 -2.703125 L 1.265625 -4.40625 L 4.203125 -4.40625 L 4.203125 -4.828125 L 0.734375 -4.828125 Z M 0.734375 -4.828125 "/>
</symbol>
<symbol overflow="visible" id="glyph0-12">
<path style="stroke:none;" d="M 0.28125 -4.8125 L 0.28125 -4.40625 L 2.421875 -4.40625 L 2.421875 0 L 2.953125 0 L 2.953125 -4.40625 L 5.078125 -4.40625 L 5.078125 -4.8125 L 0.28125 -4.8125 Z M 0.28125 -4.8125 "/>
</symbol>
<symbol overflow="visible" id="glyph0-13">
<path style="stroke:none;" d="M 0.734375 -4.84375 L 0.734375 0 L 2.265625 0 C 2.890625 0 3.203125 0.03125 3.71875 -0.21875 C 4.359375 -0.515625 4.875 -1.109375 5.03125 -1.875 C 5.234375 -2.84375 4.828125 -3.90625 4 -4.453125 C 3.703125 -4.640625 3.359375 -4.78125 3 -4.828125 C 2.71875 -4.84375 2.4375 -4.84375 2.15625 -4.84375 L 0.734375 -4.84375 Z M 1.25 -0.40625 L 1.25 -4.421875 L 2.234375 -4.421875 C 2.421875 -4.421875 2.609375 -4.4375 2.796875 -4.421875 C 3.296875 -4.375 3.71875 -4.171875 4.015625 -3.875 C 4.375 -3.5 4.53125 -3 4.5625 -2.5 C 4.59375 -1.90625 4.40625 -1.296875 3.96875 -0.890625 C 3.6875 -0.640625 3.25 -0.453125 2.796875 -0.421875 C 2.609375 -0.40625 2.4375 -0.40625 2.25 -0.40625 L 1.25 -0.40625 Z M 1.25 -0.40625 "/>
</symbol>
<symbol overflow="visible" id="glyph0-14">
<path style="stroke:none;" d="M 4.515625 -0.796875 C 4.125 -0.578125 3.875 -0.375 3.296875 -0.359375 C 3.09375 -0.359375 2.875 -0.34375 2.671875 -0.390625 C 2.109375 -0.5 1.640625 -0.890625 1.375 -1.390625 C 0.890625 -2.28125 1.125 -3.5 1.953125 -4.125 C 2.09375 -4.21875 2.234375 -4.3125 2.390625 -4.375 C 2.859375 -4.53125 3.421875 -4.515625 3.890625 -4.34375 C 4.0625 -4.265625 4.21875 -4.1875 4.375 -4.109375 C 4.40625 -4.28125 4.453125 -4.46875 4.46875 -4.640625 C 4.328125 -4.703125 4.171875 -4.75 4 -4.78125 C 3.671875 -4.859375 3.171875 -4.921875 2.796875 -4.890625 C 2.078125 -4.828125 1.46875 -4.421875 1.109375 -3.9375 C 0.640625 -3.34375 0.484375 -2.546875 0.65625 -1.8125 C 0.953125 -0.6875 1.90625 0.125 3.28125 0.046875 C 3.734375 0.03125 4.015625 -0.0625 4.375 -0.234375 C 4.40625 -0.265625 4.53125 -0.3125 4.546875 -0.34375 C 4.5625 -0.390625 4.515625 -0.6875 4.515625 -0.796875 Z M 4.515625 -0.796875 "/>
</symbol>
</g>
<clipPath id="clip1">
  <path d="M -174 667 L 438 667 L 438 -125 L -174 -125 L -174 667 Z M -174 667 "/>
</clipPath>
<clipPath id="clip2">
  <path d="M 10.554688 96.847656 L 263.121094 96.847656 L 263.121094 10.527344 L 10.554688 10.527344 L 10.554688 96.847656 Z M 10.554688 96.847656 "/>
</clipPath>
<clipPath id="clip3">
  <path d="M -174 667 L 438 667 L 438 -125 L -174 -125 L -174 667 Z M -174 667 "/>
</clipPath>
<clipPath id="clip4">
  <path d="M 10.554688 96.847656 L 263.121094 96.847656 L 263.121094 10.527344 L 10.554688 10.527344 L 10.554688 96.847656 Z M 10.554688 96.847656 "/>
</clipPath>
<clipPath id="clip5">
  <path d="M 38.097656 84.847656 L 62.328125 71.980469 L 62.328125 51.6875 C 62.328125 51.6875 60.441406 52.019531 59.644531 51.222656 C 58.84375 50.421875 56.578125 52.21875 53.847656 50.753906 C 51.117188 49.289063 44.828125 50.847656 44.191406 53.019531 C 43.914063 53.953125 43.164063 54.433594 42.21875 54.46875 C 41.109375 54.511719 40.445313 54.117188 39.394531 54.671875 C 38.285156 55.257813 37.4375 56.25 36.863281 57.347656 C 36.863281 57.347656 34.425781 58.148438 31.800781 58.148438 C 29.402344 58.148438 31.800781 60.613281 31.800781 60.613281 C 31.800781 60.613281 32.566406 64.242188 31.734375 65.074219 C 30.902344 65.90625 31.734375 68.207031 31.734375 68.207031 C 31.734375 68.207031 30.667969 69.070313 31.136719 70.402344 C 31.601563 71.734375 29.472656 71.867188 29.871094 73.46875 C 30.269531 75.066406 28.070313 72.601563 28.9375 77.132813 C 29.804688 81.660156 30.402344 80.660156 31.601563 81.128906 C 32.800781 81.59375 34.667969 83.058594 35.664063 84.058594 C 36.101563 84.492188 37.351563 84.75 38.097656 84.847656 Z M 38.097656 84.847656 "/>
</clipPath>
<clipPath id="clip6">
  <path d="M 89.328125 46.535156 L 79.53125 36.738281 L 58.371094 57.898438 L 68.167969 67.695313 L 89.328125 46.535156 Z M 89.328125 46.535156 "/>
</clipPath>
<clipPath id="clip7">
  <path d="M -174 667 L 438 667 L 438 -125 L -174 -125 L -174 667 Z M -174 667 "/>
</clipPath>
<clipPath id="clip8">
  <path d="M 10.554688 96.847656 L 263.121094 96.847656 L 263.121094 10.527344 L 10.554688 10.527344 L 10.554688 96.847656 Z M 10.554688 96.847656 "/>
</clipPath>
<clipPath id="clip9">
  <path d="M 38.097656 84.847656 L 62.328125 71.980469 L 62.328125 51.6875 C 62.328125 51.6875 60.441406 52.019531 59.644531 51.222656 C 58.84375 50.421875 56.578125 52.21875 53.847656 50.753906 C 51.117188 49.289063 44.828125 50.847656 44.191406 53.019531 C 43.914063 53.953125 43.164063 54.433594 42.21875 54.46875 C 41.109375 54.511719 40.445313 54.117188 39.394531 54.671875 C 38.285156 55.257813 37.4375 56.25 36.863281 57.347656 C 36.863281 57.347656 34.425781 58.148438 31.800781 58.148438 C 29.402344 58.148438 31.800781 60.613281 31.800781 60.613281 C 31.800781 60.613281 32.566406 64.242188 31.734375 65.074219 C 30.902344 65.90625 31.734375 68.207031 31.734375 68.207031 C 31.734375 68.207031 30.667969 69.070313 31.136719 70.402344 C 31.601563 71.734375 29.472656 71.867188 29.871094 73.46875 C 30.269531 75.066406 28.070313 72.601563 28.9375 77.132813 C 29.804688 81.660156 30.402344 80.660156 31.601563 81.128906 C 32.800781 81.59375 34.667969 83.058594 35.664063 84.058594 C 36.101563 84.492188 37.351563 84.75 38.097656 84.847656 Z M 38.097656 84.847656 "/>
</clipPath>
<clipPath id="clip10">
  <path d="M 80.285156 37.492188 L 70.492188 27.695313 L 49.328125 48.855469 L 59.125 58.652344 L 80.285156 37.492188 Z M 80.285156 37.492188 "/>
</clipPath>
<clipPath id="clip11">
  <path d="M -174 667 L 438 667 L 438 -125 L -174 -125 L -174 667 Z M -174 667 "/>
</clipPath>
<clipPath id="clip12">
  <path d="M 10.554688 96.847656 L 263.121094 96.847656 L 263.121094 10.527344 L 10.554688 10.527344 L 10.554688 96.847656 Z M 10.554688 96.847656 "/>
</clipPath>
<clipPath id="clip13">
  <path d="M 38.097656 84.847656 L 62.328125 71.980469 L 62.328125 51.6875 C 62.328125 51.6875 60.441406 52.019531 59.644531 51.222656 C 58.84375 50.421875 56.578125 52.21875 53.847656 50.753906 C 51.117188 49.289063 44.828125 50.847656 44.191406 53.019531 C 43.914063 53.953125 43.164063 54.433594 42.21875 54.46875 C 41.109375 54.511719 40.445313 54.117188 39.394531 54.671875 C 38.285156 55.257813 37.4375 56.25 36.863281 57.347656 C 36.863281 57.347656 34.425781 58.148438 31.800781 58.148438 C 29.402344 58.148438 31.800781 60.613281 31.800781 60.613281 C 31.800781 60.613281 32.566406 64.242188 31.734375 65.074219 C 30.902344 65.90625 31.734375 68.207031 31.734375 68.207031 C 31.734375 68.207031 30.667969 69.070313 31.136719 70.402344 C 31.601563 71.734375 29.472656 71.867188 29.871094 73.46875 C 30.269531 75.066406 28.070313 72.601563 28.9375 77.132813 C 29.804688 81.660156 30.402344 80.660156 31.601563 81.128906 C 32.800781 81.59375 34.667969 83.058594 35.664063 84.058594 C 36.101563 84.492188 37.351563 84.75 38.097656 84.847656 Z M 38.097656 84.847656 "/>
</clipPath>
<clipPath id="clip14">
  <path d="M 77.964844 75.984375 L 68.167969 66.1875 L 47.003906 87.351563 L 56.800781 97.144531 L 77.964844 75.984375 Z M 77.964844 75.984375 "/>
</clipPath>
<clipPath id="clip15">
  <path d="M -174 667 L 438 667 L 438 -125 L -174 -125 L -174 667 Z M -174 667 "/>
</clipPath>
<clipPath id="clip16">
  <path d="M 10.554688 96.847656 L 263.121094 96.847656 L 263.121094 10.527344 L 10.554688 10.527344 L 10.554688 96.847656 Z M 10.554688 96.847656 "/>
</clipPath>
<clipPath id="clip17">
  <path d="M 38.097656 84.847656 L 62.328125 71.980469 L 62.328125 51.6875 C 62.328125 51.6875 60.441406 52.019531 59.644531 51.222656 C 58.84375 50.421875 56.578125 52.21875 53.847656 50.753906 C 51.117188 49.289063 44.828125 50.847656 44.191406 53.019531 C 43.914063 53.953125 43.164063 54.433594 42.21875 54.46875 C 41.109375 54.511719 40.445313 54.117188 39.394531 54.671875 C 38.285156 55.257813 37.4375 56.25 36.863281 57.347656 C 36.863281 57.347656 34.425781 58.148438 31.800781 58.148438 C 29.402344 58.148438 31.800781 60.613281 31.800781 60.613281 C 31.800781 60.613281 32.566406 64.242188 31.734375 65.074219 C 30.902344 65.90625 31.734375 68.207031 31.734375 68.207031 C 31.734375 68.207031 30.667969 69.070313 31.136719 70.402344 C 31.601563 71.734375 29.472656 71.867188 29.871094 73.46875 C 30.269531 75.066406 28.070313 72.601563 28.9375 77.132813 C 29.804688 81.660156 30.402344 80.660156 31.601563 81.128906 C 32.800781 81.59375 34.667969 83.058594 35.664063 84.058594 C 36.101563 84.492188 37.351563 84.75 38.097656 84.847656 Z M 38.097656 84.847656 "/>
</clipPath>
<clipPath id="clip18">
  <path d="M 68.921875 66.941406 L 59.125 57.144531 L 37.960938 78.308594 L 47.757813 88.105469 L 68.921875 66.941406 Z M 68.921875 66.941406 "/>
</clipPath>
<clipPath id="clip19">
  <path d="M -174 667 L 438 667 L 438 -125 L -174 -125 L -174 667 Z M -174 667 "/>
</clipPath>
<clipPath id="clip20">
  <path d="M 10.554688 96.847656 L 263.121094 96.847656 L 263.121094 10.527344 L 10.554688 10.527344 L 10.554688 96.847656 Z M 10.554688 96.847656 "/>
</clipPath>
<clipPath id="clip21">
  <path d="M 38.097656 84.847656 L 62.328125 71.980469 L 62.328125 51.6875 C 62.328125 51.6875 60.441406 52.019531 59.644531 51.222656 C 58.84375 50.421875 56.578125 52.21875 53.847656 50.753906 C 51.117188 49.289063 44.828125 50.847656 44.191406 53.019531 C 43.914063 53.953125 43.164063 54.433594 42.21875 54.46875 C 41.109375 54.511719 40.445313 54.117188 39.394531 54.671875 C 38.285156 55.257813 37.4375 56.25 36.863281 57.347656 C 36.863281 57.347656 34.425781 58.148438 31.800781 58.148438 C 29.402344 58.148438 31.800781 60.613281 31.800781 60.613281 C 31.800781 60.613281 32.566406 64.242188 31.734375 65.074219 C 30.902344 65.90625 31.734375 68.207031 31.734375 68.207031 C 31.734375 68.207031 30.667969 69.070313 31.136719 70.402344 C 31.601563 71.734375 29.472656 71.867188 29.871094 73.46875 C 30.269531 75.066406 28.070313 72.601563 28.9375 77.132813 C 29.804688 81.660156 30.402344 80.660156 31.601563 81.128906 C 32.800781 81.59375 34.667969 83.058594 35.664063 84.058594 C 36.101563 84.492188 37.351563 84.75 38.097656 84.847656 Z M 38.097656 84.847656 "/>
</clipPath>
<clipPath id="clip22">
  <path d="M 59.878906 57.902344 L 50.082031 48.105469 L 28.921875 69.265625 L 38.71875 79.0625 L 59.878906 57.902344 Z M 59.878906 57.902344 "/>
</clipPath>
<clipPath id="clip23">
  <path d="M -174 667 L 438 667 L 438 -125 L -174 -125 L -174 667 Z M -174 667 "/>
</clipPath>
<clipPath id="clip24">
  <path d="M 10.554688 96.847656 L 263.121094 96.847656 L 263.121094 10.527344 L 10.554688 10.527344 L 10.554688 96.847656 Z M 10.554688 96.847656 "/>
</clipPath>
<clipPath id="clip25">
  <path d="M 38.097656 84.847656 L 62.328125 71.980469 L 62.328125 51.6875 C 62.328125 51.6875 60.441406 52.019531 59.644531 51.222656 C 58.84375 50.421875 56.578125 52.21875 53.847656 50.753906 C 51.117188 49.289063 44.828125 50.847656 44.191406 53.019531 C 43.914063 53.953125 43.164063 54.433594 42.21875 54.46875 C 41.109375 54.511719 40.445313 54.117188 39.394531 54.671875 C 38.285156 55.257813 37.4375 56.25 36.863281 57.347656 C 36.863281 57.347656 34.425781 58.148438 31.800781 58.148438 C 29.402344 58.148438 31.800781 60.613281 31.800781 60.613281 C 31.800781 60.613281 32.566406 64.242188 31.734375 65.074219 C 30.902344 65.90625 31.734375 68.207031 31.734375 68.207031 C 31.734375 68.207031 30.667969 69.070313 31.136719 70.402344 C 31.601563 71.734375 29.472656 71.867188 29.871094 73.46875 C 30.269531 75.066406 28.070313 72.601563 28.9375 77.132813 C 29.804688 81.660156 30.402344 80.660156 31.601563 81.128906 C 32.800781 81.59375 34.667969 83.058594 35.664063 84.058594 C 36.101563 84.492188 37.351563 84.75 38.097656 84.847656 Z M 38.097656 84.847656 "/>
</clipPath>
<clipPath id="clip26">
  <path d="M 50.835938 48.855469 L 41.039063 39.0625 L 19.878906 60.222656 L 29.675781 70.019531 L 50.835938 48.855469 Z M 50.835938 48.855469 "/>
</clipPath>
<clipPath id="clip27">
  <path d="M -174 667 L 438 667 L 438 -125 L -174 -125 L -174 667 Z M -174 667 "/>
</clipPath>
<clipPath id="clip28">
  <path d="M 10.554688 96.847656 L 263.121094 96.847656 L 263.121094 10.527344 L 10.554688 10.527344 L 10.554688 96.847656 Z M 10.554688 96.847656 "/>
</clipPath>
<clipPath id="clip29">
  <path d="M 38.097656 84.847656 L 62.328125 71.980469 L 62.328125 51.6875 C 62.328125 51.6875 60.441406 52.019531 59.644531 51.222656 C 58.84375 50.421875 56.578125 52.21875 53.847656 50.753906 C 51.117188 49.289063 44.828125 50.847656 44.191406 53.019531 C 43.914063 53.953125 43.164063 54.433594 42.21875 54.46875 C 41.109375 54.511719 40.445313 54.117188 39.394531 54.671875 C 38.285156 55.257813 37.4375 56.25 36.863281 57.347656 C 36.863281 57.347656 34.425781 58.148438 31.800781 58.148438 C 29.402344 58.148438 31.800781 60.613281 31.800781 60.613281 C 31.800781 60.613281 32.566406 64.242188 31.734375 65.074219 C 30.902344 65.90625 31.734375 68.207031 31.734375 68.207031 C 31.734375 68.207031 30.667969 69.070313 31.136719 70.402344 C 31.601563 71.734375 29.472656 71.867188 29.871094 73.46875 C 30.269531 75.066406 28.070313 72.601563 28.9375 77.132813 C 29.804688 81.660156 30.402344 80.660156 31.601563 81.128906 C 32.800781 81.59375 34.667969 83.058594 35.664063 84.058594 C 36.101563 84.492188 37.351563 84.75 38.097656 84.847656 Z M 38.097656 84.847656 "/>
</clipPath>
<clipPath id="clip30">
  <path d="M 48.511719 87.351563 L 38.714844 77.554688 L 17.554688 98.714844 L 27.351563 108.511719 L 48.511719 87.351563 Z M 48.511719 87.351563 "/>
</clipPath>
<clipPath id="clip31">
  <path d="M -174 667 L 438 667 L 438 -125 L -174 -125 L -174 667 Z M -174 667 "/>
</clipPath>
<clipPath id="clip32">
  <path d="M 10.554688 96.847656 L 263.121094 96.847656 L 263.121094 10.527344 L 10.554688 10.527344 L 10.554688 96.847656 Z M 10.554688 96.847656 "/>
</clipPath>
<clipPath id="clip33">
  <path d="M 38.097656 84.847656 L 62.328125 71.980469 L 62.328125 51.6875 C 62.328125 51.6875 60.441406 52.019531 59.644531 51.222656 C 58.84375 50.421875 56.578125 52.21875 53.847656 50.753906 C 51.117188 49.289063 44.828125 50.847656 44.191406 53.019531 C 43.914063 53.953125 43.164063 54.433594 42.21875 54.46875 C 41.109375 54.511719 40.445313 54.117188 39.394531 54.671875 C 38.285156 55.257813 37.4375 56.25 36.863281 57.347656 C 36.863281 57.347656 34.425781 58.148438 31.800781 58.148438 C 29.402344 58.148438 31.800781 60.613281 31.800781 60.613281 C 31.800781 60.613281 32.566406 64.242188 31.734375 65.074219 C 30.902344 65.90625 31.734375 68.207031 31.734375 68.207031 C 31.734375 68.207031 30.667969 69.070313 31.136719 70.402344 C 31.601563 71.734375 29.472656 71.867188 29.871094 73.46875 C 30.269531 75.066406 28.070313 72.601563 28.9375 77.132813 C 29.804688 81.660156 30.402344 80.660156 31.601563 81.128906 C 32.800781 81.59375 34.667969 83.058594 35.664063 84.058594 C 36.101563 84.492188 37.351563 84.75 38.097656 84.847656 Z M 38.097656 84.847656 "/>
</clipPath>
<clipPath id="clip34">
  <path d="M 39.46875 78.308594 L 29.675781 68.511719 L 8.511719 89.675781 L 18.308594 99.46875 L 39.46875 78.308594 Z M 39.46875 78.308594 "/>
</clipPath>
<clipPath id="clip35">
  <path d="M -174 667 L 438 667 L 438 -125 L -174 -125 L -174 667 Z M -174 667 "/>
</clipPath>
<clipPath id="clip36">
  <path d="M 10.554688 96.847656 L 263.121094 96.847656 L 263.121094 10.527344 L 10.554688 10.527344 L 10.554688 96.847656 Z M 10.554688 96.847656 "/>
</clipPath>
<clipPath id="clip37">
  <path d="M 10.554688 96.847656 L 10.554688 96.847656 L 10.554688 96.847656 L 10.554688 96.847656 Z M 10.554688 96.847656 "/>
</clipPath>
<clipPath id="clip38">
  <path d="M -174 667 L 438 667 L 438 -125 L -174 -125 L -174 667 Z M -174 667 "/>
</clipPath>
<clipPath id="clip39">
  <path d="M 10.554688 96.847656 L 263.121094 96.847656 L 263.121094 10.527344 L 10.554688 10.527344 L 10.554688 96.847656 Z M 10.554688 96.847656 "/>
</clipPath>
<clipPath id="clip40">
  <path d="M -174 667 L 438 667 L 438 -125 L -174 -125 L -174 667 Z M -174 667 "/>
</clipPath>
</defs>
<g id="surface0">
<g clip-path="url(#clip1)" clip-rule="nonzero">
<g clip-path="url(#clip2)" clip-rule="nonzero">
<path style="fill:none;stroke-width:5;stroke-linecap:butt;stroke-linejoin:round;stroke:rgb(13.730068%,12.159915%,12.54902%);stroke-opacity:1;stroke-miterlimit:4;" d="M 1169.398229 350.002064 L 1892.489371 350.002064 " transform="matrix(0.106568,0,0,-0.106568,10.555,96.846)"/>
<path style="fill:none;stroke-width:5;stroke-linecap:butt;stroke-linejoin:round;stroke:rgb(13.730068%,12.159915%,12.54902%);stroke-opacity:1;stroke-miterlimit:4;" d="M 568.331237 350.002064 L 882.24377 350.002064 " transform="matrix(0.106568,0,0,-0.106568,10.555,96.846)"/>
<path style="fill:none;stroke-width:5;stroke-linecap:butt;stroke-linejoin:round;stroke:rgb(13.730068%,12.159915%,12.54902%);stroke-opacity:1;stroke-miterlimit:4;" d="M 1777.502961 9.991245 L 39.98756 9.991245 L 39.98756 350.002064 L 191.775486 350.002064 " transform="matrix(0.106568,0,0,-0.106568,10.555,96.846)"/>
<path style="fill:none;stroke-width:5;stroke-linecap:butt;stroke-linejoin:miter;stroke:rgb(13.730068%,12.159915%,12.54902%);stroke-opacity:1;stroke-miterlimit:4;" d="M 1071.236416 570.004753 L 2352.508321 570.004753 " transform="matrix(0.106568,0,0,-0.106568,10.555,96.846)"/>
<path style="fill:none;stroke-width:5;stroke-linecap:butt;stroke-linejoin:miter;stroke:rgb(13.730068%,12.159915%,12.54902%);stroke-opacity:1;stroke-miterlimit:4;" d="M 39.98756 350.002064 L 500.00651 570.004753 L 1017.536993 570.004753 " transform="matrix(0.106568,0,0,-0.106568,10.555,96.846)"/>
<path style="fill:none;stroke-width:5;stroke-linecap:butt;stroke-linejoin:miter;stroke:rgb(13.730068%,12.159915%,12.54902%);stroke-opacity:1;stroke-dasharray:50,20;stroke-miterlimit:4;" d="M 2132.505633 231.863333 L 610.007854 231.863333 " transform="matrix(0.106568,0,0,-0.106568,10.555,96.846)"/>
<path style="fill:none;stroke-width:5.026;stroke-linecap:butt;stroke-linejoin:miter;stroke:rgb(13.730068%,12.159915%,12.54902%);stroke-opacity:1;stroke-miterlimit:4;" d="M 1057.2709 468.32407 L 1500.685183 468.32407 C 1508.126127 468.32407 1514.174185 462.349322 1514.174185 454.981688 L 1514.174185 454.981688 C 1514.174185 447.650709 1508.126127 441.67596 1500.685183 441.67596 L 547.62122 441.67596 C 540.216931 441.67596 534.168873 447.650709 534.168873 454.981688 L 534.168873 454.981688 C 534.168873 462.349322 540.216931 468.32407 547.62122 468.32407 L 1005.001018 468.32407 " transform="matrix(0.106568,0,0,-0.106568,10.555,96.846)"/>
<path style="fill:none;stroke-width:5.026;stroke-linecap:butt;stroke-linejoin:miter;stroke:rgb(13.730068%,12.159915%,12.54902%);stroke-opacity:1;stroke-miterlimit:4;" d="M 1056.281218 468.32407 L 1057.2709 468.32407 " transform="matrix(0.106568,0,0,-0.106568,10.555,96.846)"/>
<path style="fill:none;stroke-width:5.026;stroke-linecap:butt;stroke-linejoin:round;stroke:rgb(13.730068%,12.159915%,12.54902%);stroke-opacity:1;stroke-dasharray:50,10;stroke-miterlimit:4;" d="M 1724.170086 29.088446 L 1692.500256 9.991245 " transform="matrix(0.106568,0,0,-0.106568,10.555,96.846)"/>
<path style="fill:none;stroke-width:5;stroke-linecap:butt;stroke-linejoin:miter;stroke:rgb(13.730068%,12.159915%,12.54902%);stroke-opacity:1;stroke-dasharray:50,20;stroke-miterlimit:4;" d="M 2112.492059 570.004753 L 2112.492059 232.486466 L 1740.994684 37.885621 " transform="matrix(0.106568,0,0,-0.106568,10.555,96.846)"/>
<path style="fill:none;stroke-width:5;stroke-linecap:butt;stroke-linejoin:miter;stroke:rgb(13.730068%,12.159915%,12.54902%);stroke-opacity:1;stroke-dasharray:50,20;stroke-miterlimit:4;" d="M 2088.116553 556.8823 L 2112.492059 570.004753 " transform="matrix(0.106568,0,0,-0.106568,10.555,96.846)"/>
<path style="fill:none;stroke-width:5;stroke-linecap:butt;stroke-linejoin:miter;stroke:rgb(13.730068%,12.159915%,12.54902%);stroke-opacity:1;stroke-dasharray:50,20;stroke-miterlimit:4;" d="M 1692.500256 339.372144 L 1692.500256 350.002064 L 2079.319378 552.630332 " transform="matrix(0.106568,0,0,-0.106568,10.555,96.846)"/>
<path style="fill:none;stroke-width:5;stroke-linecap:butt;stroke-linejoin:miter;stroke:rgb(13.730068%,12.159915%,12.54902%);stroke-opacity:1;stroke-dasharray:50,20;stroke-miterlimit:4;" d="M 1692.500256 9.991245 L 1692.500256 339.372144 " transform="matrix(0.106568,0,0,-0.106568,10.555,96.846)"/>
<path style="fill:none;stroke-width:5.026;stroke-linecap:butt;stroke-linejoin:round;stroke:rgb(13.730068%,12.159915%,12.54902%);stroke-opacity:1;stroke-miterlimit:4;" d="M 10.003854 599.988458 C 36.908548 595.150012 50.764099 566.595847 56.152369 542.550235 C 68.834963 485.955075 60.221062 424.594779 112.637564 384.750906 " transform="matrix(0.106568,0,0,-0.106568,10.555,96.846)"/>
<path style="fill:none;stroke-width:5.026;stroke-linecap:butt;stroke-linejoin:round;stroke:rgb(13.730068%,12.159915%,12.54902%);stroke-opacity:1;stroke-miterlimit:4;" d="M 44.166218 640.015605 C 74.956331 621.468227 95.006559 586.90266 104.976691 553.36343 C 118.025834 509.340899 100.871343 425.144602 154.97397 404.984409 " transform="matrix(0.106568,0,0,-0.106568,10.555,96.846)"/>
<path style="fill:none;stroke-width:5.026;stroke-linecap:butt;stroke-linejoin:round;stroke:rgb(13.730068%,12.159915%,12.54902%);stroke-opacity:1;stroke-dasharray:30,20;stroke-miterlimit:4;" d="M 36.24876 622.091361 C 102.887362 567.915424 65.206128 462.312667 124.147202 403.334939 " transform="matrix(0.106568,0,0,-0.106568,10.555,96.846)"/>
<path style="fill:none;stroke-width:3.8;stroke-linecap:butt;stroke-linejoin:round;stroke:rgb(13.730068%,12.159915%,12.54902%);stroke-opacity:1;stroke-miterlimit:4;" d="M 40.830622 694.99795 L 84.15671 653.321332 " transform="matrix(0.106568,0,0,-0.106568,10.555,96.846)"/>
<path style=" stroke:none;fill-rule:nonzero;fill:rgb(13.730068%,12.159915%,12.54902%);fill-opacity:1;" d="M 18.488281 27.433594 L 21.472656 29.078125 L 19.710938 26.160156 L 18.488281 27.433594 "/>
<path style="fill:none;stroke-width:5;stroke-linecap:butt;stroke-linejoin:round;stroke:rgb(13.730068%,12.159915%,12.54902%);stroke-opacity:1;stroke-miterlimit:4;" d="M 1055.841359 441.67596 C 1056.354528 499.260803 1061.779453 559.631417 1087.291261 612.157884 C 1107.854658 654.420979 1152.683596 706.214348 1195.826409 726.66778 " transform="matrix(0.106568,0,0,-0.106568,10.555,96.846)"/>
<path style="fill:none;stroke-width:5.505;stroke-linecap:butt;stroke-linejoin:round;stroke:rgb(13.730068%,12.159915%,12.54902%);stroke-opacity:1;stroke-miterlimit:4;" d="M 1005.624151 441.67596 C 1006.21063 503.109567 1012.368652 576.27274 1041.362675 632.318077 C 1064.711844 677.403599 1115.66215 732.679183 1164.669747 754.488847 " transform="matrix(0.106568,0,0,-0.106568,10.555,96.846)"/>
<path style="fill:none;stroke-width:5;stroke-linecap:butt;stroke-linejoin:round;stroke:rgb(13.730068%,12.159915%,12.54902%);stroke-opacity:1;stroke-dasharray:30,20;stroke-miterlimit:4;" d="M 1029.19325 450.436481 C 1029.743073 508.021323 1035.167998 568.391937 1060.679806 620.918404 C 1081.206548 663.1815 1126.072141 714.974868 1169.214954 735.4283 " transform="matrix(0.106568,0,0,-0.106568,10.555,96.846)"/>
<path style="fill:none;stroke-width:3.8;stroke-linecap:butt;stroke-linejoin:round;stroke:rgb(13.730068%,12.159915%,12.54902%);stroke-opacity:1;stroke-miterlimit:4;" d="M 1090.846786 750.016949 L 1145.82913 784.98572 " transform="matrix(0.106568,0,0,-0.106568,10.555,96.846)"/>
<path style=" stroke:none;fill-rule:nonzero;fill:rgb(13.730068%,12.159915%,12.54902%);fill-opacity:1;" d="M 132.625 14.25 L 134.929688 11.734375 L 131.675781 12.757813 L 132.625 14.25 "/>
<path style="fill:none;stroke-width:3.8;stroke-linecap:butt;stroke-linejoin:round;stroke:rgb(13.730068%,12.159915%,12.54902%);stroke-opacity:1;stroke-miterlimit:4;" d="M 1092.496256 523.26976 L 1134.172873 523.26976 " transform="matrix(0.106568,0,0,-0.106568,10.555,96.846)"/>
<path style=" stroke:none;fill-rule:nonzero;fill:rgb(13.730068%,12.159915%,12.54902%);fill-opacity:1;" d="M 130.820313 41.953125 L 134.113281 41.070313 L 130.820313 40.1875 L 130.820313 41.953125 "/>
<path style="fill:none;stroke-width:3.8;stroke-linecap:butt;stroke-linejoin:round;stroke:rgb(13.730068%,12.159915%,12.54902%);stroke-opacity:1;stroke-miterlimit:4;" d="M 972.488125 523.489689 L 929.162037 523.489689 " transform="matrix(0.106568,0,0,-0.106568,10.555,96.846)"/>
<path style=" stroke:none;fill-rule:nonzero;fill:rgb(13.730068%,12.159915%,12.54902%);fill-opacity:1;" d="M 110.175781 40.1875 L 106.882813 41.070313 L 110.175781 41.953125 L 110.175781 40.1875 "/>
<path style="fill:none;stroke-width:3.8;stroke-linecap:butt;stroke-linejoin:round;stroke:rgb(13.730068%,12.159915%,12.54902%);stroke-opacity:1;stroke-miterlimit:4;" d="M 569.357574 350.002064 C 569.357574 350.002064 574.379295 356.893185 566.865041 370.015638 C 559.387442 383.138091 572.509895 392.485089 531.236482 411.252396 C 489.999723 429.983048 508.363826 420.63605 485.821065 423.751716 " transform="matrix(0.106568,0,0,-0.106568,10.555,96.846)"/>
<path style="fill:none;stroke-width:3.8;stroke-linecap:butt;stroke-linejoin:round;stroke:rgb(13.730068%,12.159915%,12.54902%);stroke-opacity:1;stroke-miterlimit:4;" d="M 253.355712 113.064814 C 262.409471 111.891857 271.939744 112.51499 276.888155 112.51499 C 285.612021 112.51499 279.747237 107.49327 310.61066 110.608936 C 332.200394 112.80823 334.546307 87.369731 391.251432 100.015671 C 451.548737 113.431363 468.739883 112.51499 489.999723 162.512269 C 511.259563 212.509548 529.990215 185.861438 540.620135 222.516335 C 543.552527 232.559776 553.669278 227.098197 560.926948 228.894287 C 566.131943 230.140553 568.404547 233.476149 569.870743 238.497869 C 571.996727 245.792194 568.367892 253.416412 569.210954 260.784046 C 569.870743 266.795449 574.709189 268.701504 575.662216 274.566288 C 577.751545 287.212227 566.131943 301.251052 558.764309 310.011572 C 558.764309 310.011572 548.427628 329.072119 569.357574 350.002064 " transform="matrix(0.106568,0,0,-0.106568,10.555,96.846)"/>
<path style="fill:none;stroke-width:3.8;stroke-linecap:butt;stroke-linejoin:round;stroke:rgb(13.730068%,12.159915%,12.54902%);stroke-opacity:1;stroke-miterlimit:4;" d="M 258.450742 112.5883 L 485.821065 233.329529 L 485.821065 423.751716 C 485.821065 423.751716 468.11675 420.63605 460.639151 428.113649 C 453.124897 435.627902 431.865057 418.76665 406.243285 432.512236 C 380.621512 446.257822 321.607129 431.632519 315.632381 411.252396 C 313.029883 402.491876 305.992143 397.983324 297.121658 397.65343 C 286.711668 397.250226 280.480335 400.95237 270.620168 395.747375 C 260.210177 390.249141 252.256065 380.938797 246.867795 370.638771 C 246.867795 370.638771 223.99514 363.124517 199.363049 363.124517 C 176.856943 363.124517 199.363049 339.995278 199.363049 339.995278 C 199.363049 339.995278 206.547409 305.942879 198.739916 298.135386 C 190.932423 290.327893 198.739916 268.738159 198.739916 268.738159 C 198.739916 268.738159 188.733129 260.637427 193.131717 248.138107 C 197.49365 235.638788 177.516731 234.392521 181.25553 219.364014 C 184.99433 204.372161 164.357623 227.501401 172.49501 184.981721 C 180.632397 142.498696 186.240596 151.882349 197.49365 147.483762 C 208.746703 143.121829 226.267743 129.376243 235.614742 119.992589 C 239.72009 115.923896 251.449657 113.504673 258.450742 112.5883 Z M 258.450742 112.5883 " transform="matrix(0.106568,0,0,-0.106568,10.555,96.846)"/>
</g>
</g>
<g clip-path="url(#clip3)" clip-rule="nonzero">
<g clip-path="url(#clip4)" clip-rule="nonzero">
<g clip-path="url(#clip5)" clip-rule="nonzero">
<g clip-path="url(#clip6)" clip-rule="nonzero">
<path style="fill:none;stroke-width:5.99694;stroke-linecap:butt;stroke-linejoin:miter;stroke:rgb(0%,0%,0%);stroke-opacity:1;stroke-miterlimit:4;" d="M -111.423872 -832.379202 L -111.423872 -1238.385005 " transform="matrix(-0.0544504,-0.0544504,-0.0521179,0.0521179,10.555,96.846)"/>
</g>
</g>
</g>
</g>
<g clip-path="url(#clip7)" clip-rule="nonzero">
<g clip-path="url(#clip8)" clip-rule="nonzero">
<g clip-path="url(#clip9)" clip-rule="nonzero">
<g clip-path="url(#clip10)" clip-rule="nonzero">
<path style="fill:none;stroke-width:5.99694;stroke-linecap:butt;stroke-linejoin:miter;stroke:rgb(0%,0%,0%);stroke-opacity:1;stroke-miterlimit:4;" d="M -65.295336 -832.379202 L -65.295336 -1238.385005 " transform="matrix(-0.0544504,-0.0544504,-0.0521179,0.0521179,10.555,96.846)"/>
<path style="fill:none;stroke-width:5.99694;stroke-linecap:butt;stroke-linejoin:miter;stroke:rgb(0%,0%,0%);stroke-opacity:1;stroke-miterlimit:4;" d="M -5.356936 -832.341726 L -5.356936 -1238.42248 " transform="matrix(-0.0544504,-0.0544504,-0.0521179,0.0521179,10.555,96.846)"/>
<path style="fill:none;stroke-width:5.99694;stroke-linecap:butt;stroke-linejoin:miter;stroke:rgb(0%,0%,0%);stroke-opacity:1;stroke-miterlimit:4;" d="M 54.617334 -832.341726 L 54.617334 -1238.42248 " transform="matrix(-0.0544504,-0.0544504,-0.0521179,0.0521179,10.555,96.846)"/>
</g>
</g>
</g>
</g>
<g clip-path="url(#clip11)" clip-rule="nonzero">
<g clip-path="url(#clip12)" clip-rule="nonzero">
<g clip-path="url(#clip13)" clip-rule="nonzero">
<g clip-path="url(#clip14)" clip-rule="nonzero">
<path style="fill:none;stroke-width:5.99694;stroke-linecap:butt;stroke-linejoin:miter;stroke:rgb(0%,0%,0%);stroke-opacity:1;stroke-miterlimit:4;" d="M -337.475217 -440.763857 L -337.475217 -846.84461 " transform="matrix(-0.0544504,-0.0544504,-0.0521179,0.0521179,10.555,96.846)"/>
<path style="fill:none;stroke-width:5.99694;stroke-linecap:butt;stroke-linejoin:miter;stroke:rgb(0%,0%,0%);stroke-opacity:1;stroke-miterlimit:4;" d="M -277.500947 -440.763857 L -277.500947 -846.84461 " transform="matrix(-0.0544504,-0.0544504,-0.0521179,0.0521179,10.555,96.846)"/>
</g>
</g>
</g>
</g>
<g clip-path="url(#clip15)" clip-rule="nonzero">
<g clip-path="url(#clip16)" clip-rule="nonzero">
<g clip-path="url(#clip17)" clip-rule="nonzero">
<g clip-path="url(#clip18)" clip-rule="nonzero">
<path style="fill:none;stroke-width:5.99694;stroke-linecap:butt;stroke-linejoin:miter;stroke:rgb(0%,0%,0%);stroke-opacity:1;stroke-miterlimit:4;" d="M -231.336542 -440.801332 L -231.372412 -846.84461 " transform="matrix(-0.0544504,-0.0544504,-0.0521179,0.0521179,10.555,96.846)"/>
<path style="fill:none;stroke-width:5.99694;stroke-linecap:butt;stroke-linejoin:miter;stroke:rgb(0%,0%,0%);stroke-opacity:1;stroke-miterlimit:4;" d="M -171.398142 -440.763857 L -171.398142 -846.84461 " transform="matrix(-0.0544504,-0.0544504,-0.0521179,0.0521179,10.555,96.846)"/>
<path style="fill:none;stroke-width:5.99694;stroke-linecap:butt;stroke-linejoin:miter;stroke:rgb(0%,0%,0%);stroke-opacity:1;stroke-miterlimit:4;" d="M -111.423872 -440.763857 L -111.423872 -846.84461 " transform="matrix(-0.0544504,-0.0544504,-0.0521179,0.0521179,10.555,96.846)"/>
</g>
</g>
</g>
</g>
<g clip-path="url(#clip19)" clip-rule="nonzero">
<g clip-path="url(#clip20)" clip-rule="nonzero">
<g clip-path="url(#clip21)" clip-rule="nonzero">
<g clip-path="url(#clip22)" clip-rule="nonzero">
<path style="fill:none;stroke-width:5.99694;stroke-linecap:butt;stroke-linejoin:miter;stroke:rgb(0%,0%,0%);stroke-opacity:1;stroke-miterlimit:4;" d="M -65.331206 -440.801332 L -65.331206 -846.807135 " transform="matrix(-0.0544504,-0.0544504,-0.0521179,0.0521179,10.555,96.846)"/>
<path style="fill:none;stroke-width:5.99694;stroke-linecap:butt;stroke-linejoin:miter;stroke:rgb(0%,0%,0%);stroke-opacity:1;stroke-miterlimit:4;" d="M -5.356936 -440.801332 L -5.356936 -846.807135 " transform="matrix(-0.0544504,-0.0544504,-0.0521179,0.0521179,10.555,96.846)"/>
<path style="fill:none;stroke-width:5.99694;stroke-linecap:butt;stroke-linejoin:miter;stroke:rgb(0%,0%,0%);stroke-opacity:1;stroke-miterlimit:4;" d="M 54.617334 -440.801332 L 54.617334 -846.807135 " transform="matrix(-0.0544504,-0.0544504,-0.0521179,0.0521179,10.555,96.846)"/>
</g>
</g>
</g>
</g>
<g clip-path="url(#clip23)" clip-rule="nonzero">
<g clip-path="url(#clip24)" clip-rule="nonzero">
<g clip-path="url(#clip25)" clip-rule="nonzero">
<g clip-path="url(#clip26)" clip-rule="nonzero">
<path style="fill:none;stroke-width:5.99694;stroke-linecap:butt;stroke-linejoin:miter;stroke:rgb(0%,0%,0%);stroke-opacity:1;stroke-miterlimit:4;" d="M 100.745869 -440.801332 L 100.745869 -846.807135 " transform="matrix(-0.0544504,-0.0544504,-0.0521179,0.0521179,10.555,96.846)"/>
<path style="fill:none;stroke-width:5.99694;stroke-linecap:butt;stroke-linejoin:miter;stroke:rgb(0%,0%,0%);stroke-opacity:1;stroke-miterlimit:4;" d="M 160.720139 -440.801332 L 160.720139 -846.807135 " transform="matrix(-0.0544504,-0.0544504,-0.0521179,0.0521179,10.555,96.846)"/>
<path style="fill:none;stroke-width:5.99694;stroke-linecap:butt;stroke-linejoin:miter;stroke:rgb(0%,0%,0%);stroke-opacity:1;stroke-miterlimit:4;" d="M 220.694409 -440.801332 L 220.694409 -846.807135 " transform="matrix(-0.0544504,-0.0544504,-0.0521179,0.0521179,10.555,96.846)"/>
</g>
</g>
</g>
</g>
<g clip-path="url(#clip27)" clip-rule="nonzero">
<g clip-path="url(#clip28)" clip-rule="nonzero">
<g clip-path="url(#clip29)" clip-rule="nonzero">
<g clip-path="url(#clip30)" clip-rule="nonzero">
<path style="fill:none;stroke-width:5.99694;stroke-linecap:butt;stroke-linejoin:miter;stroke:rgb(0%,0%,0%);stroke-opacity:1;stroke-miterlimit:4;" d="M -171.398142 -49.223463 L -171.398142 -455.229266 " transform="matrix(-0.0544504,-0.0544504,-0.0521179,0.0521179,10.555,96.846)"/>
<path style="fill:none;stroke-width:5.99694;stroke-linecap:butt;stroke-linejoin:miter;stroke:rgb(0%,0%,0%);stroke-opacity:1;stroke-miterlimit:4;" d="M -111.423872 -49.223463 L -111.423872 -455.229266 " transform="matrix(-0.0544504,-0.0544504,-0.0521179,0.0521179,10.555,96.846)"/>
</g>
</g>
</g>
</g>
<g clip-path="url(#clip31)" clip-rule="nonzero">
<g clip-path="url(#clip32)" clip-rule="nonzero">
<g clip-path="url(#clip33)" clip-rule="nonzero">
<g clip-path="url(#clip34)" clip-rule="nonzero">
<path style="fill:none;stroke-width:5.99694;stroke-linecap:butt;stroke-linejoin:miter;stroke:rgb(0%,0%,0%);stroke-opacity:1;stroke-miterlimit:4;" d="M -65.295336 -49.223463 L -65.295336 -455.229266 " transform="matrix(-0.0544504,-0.0544504,-0.0521179,0.0521179,10.555,96.846)"/>
<path style="fill:none;stroke-width:5.99694;stroke-linecap:butt;stroke-linejoin:miter;stroke:rgb(0%,0%,0%);stroke-opacity:1;stroke-miterlimit:4;" d="M -5.321066 -49.223463 L -5.356936 -455.266741 " transform="matrix(-0.0544504,-0.0544504,-0.0521179,0.0521179,10.555,96.846)"/>
<path style="fill:none;stroke-width:5.99694;stroke-linecap:butt;stroke-linejoin:miter;stroke:rgb(0%,0%,0%);stroke-opacity:1;stroke-miterlimit:4;" d="M 54.653204 -49.223463 L 54.617334 -455.266741 " transform="matrix(-0.0544504,-0.0544504,-0.0521179,0.0521179,10.555,96.846)"/>
</g>
</g>
</g>
</g>
<g clip-path="url(#clip35)" clip-rule="nonzero">
<g clip-path="url(#clip36)" clip-rule="nonzero">
<g clip-path="url(#clip37)" clip-rule="nonzero">
<path style="fill:none;stroke-width:5.99694;stroke-linecap:butt;stroke-linejoin:miter;stroke:rgb(0%,0%,0%);stroke-opacity:1;stroke-miterlimit:4;" d="M -5.356936 342.354406 L -5.356936 -63.651397 " transform="matrix(-0.0544504,-0.0544504,-0.0521179,0.0521179,10.555,96.846)"/>
<path style="fill:none;stroke-width:5.99694;stroke-linecap:butt;stroke-linejoin:miter;stroke:rgb(0%,0%,0%);stroke-opacity:1;stroke-miterlimit:4;" d="M 54.617334 342.354406 L 54.617334 -63.651397 " transform="matrix(-0.0544504,-0.0544504,-0.0521179,0.0521179,10.555,96.846)"/>
</g>
</g>
</g>
<g clip-path="url(#clip38)" clip-rule="nonzero">
<g clip-path="url(#clip39)" clip-rule="nonzero">
<path style=" stroke:none;fill-rule:nonzero;fill:rgb(13.730068%,12.159915%,12.54902%);fill-opacity:1;" d="M 119.167969 64.164063 L 120.851563 64.164063 L 120.851563 52.933594 L 119.167969 52.933594 L 119.167969 64.164063 Z M 119.167969 64.164063 "/>
<path style="fill:none;stroke-width:5;stroke-linecap:butt;stroke-linejoin:miter;stroke:rgb(13.730068%,12.159915%,12.54902%);stroke-opacity:1;stroke-miterlimit:4;" d="M 916.662718 366.680042 C 916.662718 366.680042 915.013247 375.000704 935.833229 385.850553 C 956.65321 396.663748 955.846802 420.012917 975.823721 409.163067 C 975.823721 409.163067 1003.754752 401.24561 1011.672209 409.163067 C 1019.589667 417.080525 1020.835933 411.6556 1025.014592 411.6556 C 1029.156595 411.6556 1033.335253 419.023234 1047.484043 409.163067 C 1055.987979 403.298284 1056.794387 409.85951 1062.952409 413.964859 C 1068.084095 417.410419 1077.724333 417.813623 1083.772391 418.69334 C 1096.088436 420.526085 1124.459326 425.254567 1130.837278 410.00613 C 1139.157939 389.992556 1185.013215 375.000704 1169.178299 350.002064 C 1153.343384 325.003425 1169.178299 327.495958 1169.178299 310.81798 C 1169.178299 294.176657 1160.820983 298.31866 1160.820983 285.819341 C 1160.820983 273.320021 1159.171513 269.178018 1143.336597 273.320021 C 1127.501682 277.498679 1118.337958 268.334955 1109.174234 259.171231 C 1109.174234 259.171231 1091.653193 248.321382 1080.839999 259.171231 C 1069.99015 269.984425 1056.244563 261.26056 1050.819639 255.835635 C 1045.431369 250.410711 1039.163382 256.642043 1033.738457 262.066968 C 1028.313532 267.491893 1012.515272 261.663764 1012.515272 251.656977 C 1012.515272 241.686845 1005.844081 247.514974 992.501698 247.514974 C 979.159316 247.514974 979.159316 229.150871 960.831868 247.514974 C 942.50442 265.842422 941.661357 261.663764 915.819655 253.343102 C 890.014608 244.985786 865.822376 259.171231 870.844097 285.012933 C 875.829163 310.81798 863.733047 350.405268 899.98474 360.815259 C 899.98474 360.815259 913.98691 359.862232 916.662718 366.680042 Z M 916.662718 366.680042 " transform="matrix(0.106568,0,0,-0.106568,10.555,96.846)"/>
<path style="fill:none;stroke-width:5;stroke-linecap:butt;stroke-linejoin:miter;stroke:rgb(13.730068%,12.159915%,12.54902%);stroke-opacity:1;stroke-miterlimit:4;" d="M 485.821065 233.329529 L 567.561484 233.329529 " transform="matrix(0.106568,0,0,-0.106568,10.555,96.846)"/>
<path style="fill:none;stroke-width:5;stroke-linecap:butt;stroke-linejoin:miter;stroke:rgb(13.730068%,12.159915%,12.54902%);stroke-opacity:1;stroke-miterlimit:4;" d="M 265.011969 251.253773 C 265.011969 237.434877 257.46106 226.255134 248.114062 226.255134 C 238.803718 226.255134 231.252809 237.434877 231.252809 251.253773 C 231.252809 265.072669 238.803718 276.252413 248.114062 276.252413 C 257.46106 276.252413 265.011969 265.072669 265.011969 251.253773 Z M 265.011969 251.253773 " transform="matrix(0.106568,0,0,-0.106568,10.555,96.846)"/>
<path style="fill:none;stroke-width:7.5;stroke-linecap:butt;stroke-linejoin:miter;stroke:rgb(13.730068%,12.159915%,12.54902%);stroke-opacity:1;stroke-miterlimit:4;" d="M 312.516715 340.98496 L 312.516715 283.363463 C 312.516715 265.255944 299.064368 250.923879 282.496354 250.923879 L 248.114062 250.923879 C 245.145015 250.923879 250.826524 250.374056 248.114062 251.253773 " transform="matrix(0.106568,0,0,-0.106568,10.555,96.846)"/>
</g>
</g>
<g clip-path="url(#clip40)" clip-rule="nonzero">
<g style="fill:rgb(0%,0%,0%);fill-opacity:1;">
  <use xlink:href="#glyph0-1" x="11.862" y="5.381"/>
  <use xlink:href="#glyph0-2" x="16.295942" y="5.381"/>
  <use xlink:href="#glyph0-3" x="21.27663" y="5.381"/>
  <use xlink:href="#glyph0-4" x="27.078832" y="5.381"/>
</g>
<g style="fill:rgb(0%,0%,0%);fill-opacity:1;">
  <use xlink:href="#glyph0-5" x="9.753" y="13.351"/>
  <use xlink:href="#glyph0-6" x="14.063506" y="13.351"/>
  <use xlink:href="#glyph0-7" x="16.068473" y="13.351"/>
  <use xlink:href="#glyph0-8" x="21.240941" y="13.351"/>
  <use xlink:href="#glyph0-9" x="26.495699" y="13.351"/>
  <use xlink:href="#glyph0-10" x="31.517532" y="13.351"/>
</g>
<g style="fill:rgb(0%,0%,0%);fill-opacity:1;">
  <use xlink:href="#glyph0-7" x="0.126" y="21.321"/>
  <use xlink:href="#glyph0-11" x="5.298467" y="21.321"/>
  <use xlink:href="#glyph0-8" x="9.9479" y="21.321"/>
  <use xlink:href="#glyph0-11" x="15.202658" y="21.321"/>
  <use xlink:href="#glyph0-2" x="19.852091" y="21.321"/>
  <use xlink:href="#glyph0-9" x="24.832779" y="21.321"/>
</g>
<g style="fill:rgb(0%,0%,0%);fill-opacity:1;">
  <use xlink:href="#glyph0-12" x="29.206049" y="21.321"/>
  <use xlink:href="#glyph0-3" x="34.576572" y="21.321"/>
  <use xlink:href="#glyph0-2" x="40.378774" y="21.321"/>
</g>
<g style="fill:rgb(0%,0%,0%);fill-opacity:1;">
  <use xlink:href="#glyph0-12" x="136.13" y="11.523"/>
  <use xlink:href="#glyph0-3" x="141.500523" y="11.523"/>
</g>
<g style="fill:rgb(0%,0%,0%);fill-opacity:1;">
  <use xlink:href="#glyph0-13" x="149.757503" y="11.523"/>
  <use xlink:href="#glyph0-11" x="155.285634" y="11.523"/>
  <use xlink:href="#glyph0-12" x="159.935066" y="11.523"/>
  <use xlink:href="#glyph0-11" x="165.30559" y="11.523"/>
  <use xlink:href="#glyph0-14" x="169.955022" y="11.523"/>
  <use xlink:href="#glyph0-12" x="174.911999" y="11.523"/>
  <use xlink:href="#glyph0-3" x="180.282523" y="11.523"/>
  <use xlink:href="#glyph0-2" x="186.084724" y="11.523"/>
</g>
</g>
</g>
</svg>
