<?xml version="1.0" encoding="UTF-8"?>
<svg xmlns="http://www.w3.org/2000/svg" xmlns:xlink="http://www.w3.org/1999/xlink" width="287.5204340564336pt" height="148.95636945092343pt" viewBox="0 0 166 86" version="1.1">
<defs>
<g>
<symbol overflow="visible" id="glyph0-0">
<path style="stroke:none;" d=""/>
</symbol>
<symbol overflow="visible" id="glyph0-1">
<path style="stroke:none;" d="M 3.296875 -4.953125 C 3.046875 -4.921875 2.8125 -4.890625 2.578125 -4.8125 C 1.578125 -4.46875 0.765625 -3.609375 0.46875 -2.59375 C 0.265625 -1.890625 0.34375 -1.078125 0.84375 -0.515625 C 1.234375 -0.109375 1.78125 0.15625 2.5625 0.109375 C 4.015625 -0.03125 5.109375 -1.25 5.359375 -2.453125 C 5.5 -3.15625 5.34375 -3.953125 4.78125 -4.453125 C 4.453125 -4.765625 3.90625 -4.984375 3.296875 -4.953125 Z M 3.21875 -4.546875 C 3.828125 -4.59375 4.453125 -4.3125 4.734375 -3.75 C 4.90625 -3.390625 4.921875 -2.96875 4.859375 -2.578125 C 4.671875 -1.625 4.015625 -0.703125 3.0625 -0.390625 C 2.890625 -0.34375 2.703125 -0.3125 2.53125 -0.296875 C 2.03125 -0.28125 1.640625 -0.453125 1.375 -0.703125 C 0.90625 -1.15625 0.84375 -1.84375 0.96875 -2.453125 C 1.109375 -3.234375 1.609375 -3.953125 2.34375 -4.3125 C 2.625 -4.4375 2.921875 -4.515625 3.21875 -4.546875 Z M 3.21875 -4.546875 "/>
</symbol>
<symbol overflow="visible" id="glyph0-2">
<path style="stroke:none;" d="M 1.765625 -4.84375 L 0.734375 0 L 1.109375 0 C 1.15625 0 1.21875 0.015625 1.265625 -0.015625 C 1.296875 -0.03125 1.296875 -0.09375 1.296875 -0.125 C 1.3125 -0.203125 1.671875 -1.875 1.671875 -1.875 C 1.671875 -1.90625 1.671875 -1.984375 1.71875 -2 C 1.734375 -2.03125 1.765625 -2.015625 1.796875 -2.015625 L 2.640625 -2.015625 C 2.859375 -2.015625 3.078125 -2 3.296875 -2.03125 C 3.6875 -2.0625 4.078125 -2.203125 4.40625 -2.421875 C 4.890625 -2.734375 5.3125 -3.296875 5.15625 -3.890625 C 5.0625 -4.28125 4.75 -4.546875 4.421875 -4.6875 C 4.0625 -4.84375 3.65625 -4.84375 3.265625 -4.84375 L 1.765625 -4.84375 Z M 1.765625 -2.421875 C 1.796875 -2.625 1.859375 -2.8125 1.890625 -3.015625 C 1.921875 -3.125 2.15625 -4.21875 2.15625 -4.28125 C 2.171875 -4.34375 2.171875 -4.421875 2.265625 -4.421875 L 3.453125 -4.421875 C 3.9375 -4.421875 4.625 -4.296875 4.6875 -3.6875 C 4.734375 -3.1875 4.359375 -2.765625 3.921875 -2.578125 C 3.546875 -2.421875 3.21875 -2.421875 2.75 -2.421875 L 1.765625 -2.421875 Z M 1.765625 -2.421875 "/>
</symbol>
<symbol overflow="visible" id="glyph0-3">
<path style="stroke:none;" d="M 4.453125 0.78125 L 4.265625 0.515625 L 3.71875 -0.265625 C 3.90625 -0.34375 4.265625 -0.640625 4.359375 -0.71875 C 5.125 -1.421875 5.78125 -2.78125 5.1875 -3.921875 C 4.8125 -4.65625 3.953125 -5.109375 2.875 -4.890625 C 1.71875 -4.640625 0.78125 -3.65625 0.484375 -2.640625 C 0.265625 -1.953125 0.328125 -1.171875 0.78125 -0.59375 C 1.21875 -0.0625 1.90625 0.15625 2.5625 0.109375 C 2.71875 0.09375 2.890625 0.0625 3.046875 0.015625 C 3.078125 0 3.234375 -0.046875 3.265625 -0.046875 C 3.296875 -0.03125 3.421875 0.171875 3.421875 0.171875 L 3.6875 0.578125 L 3.78125 0.6875 C 3.796875 0.703125 3.8125 0.734375 3.828125 0.765625 C 3.875 0.78125 3.953125 0.78125 4 0.78125 L 4.453125 0.78125 Z M 3.484375 -0.578125 L 3.09375 -1.125 L 2.984375 -1.28125 L 2.921875 -1.34375 C 2.75 -1.359375 2.5625 -1.359375 2.390625 -1.359375 L 3.046875 -0.390625 C 2.875 -0.328125 2.703125 -0.296875 2.515625 -0.296875 C 2.078125 -0.28125 1.640625 -0.40625 1.328125 -0.703125 C 1.015625 -1 0.84375 -1.5 0.890625 -2.0625 C 0.96875 -3.09375 1.625 -4.046875 2.59375 -4.40625 C 3.203125 -4.640625 3.984375 -4.59375 4.453125 -4.109375 C 4.671875 -3.890625 4.84375 -3.546875 4.875 -3.1875 C 4.96875 -2.4375 4.671875 -1.671875 4.171875 -1.109375 C 3.984375 -0.90625 3.75 -0.703125 3.484375 -0.578125 Z M 3.484375 -0.578125 "/>
</symbol>
<symbol overflow="visible" id="glyph0-4">
<path style="stroke:none;" d="M 0.4375 -4.40625 L 2.578125 -4.40625 L 1.640625 0 L 2.03125 0 C 2.0625 0 2.140625 0.015625 2.171875 -0.015625 C 2.1875 -0.03125 2.1875 -0.078125 2.203125 -0.109375 L 2.25 -0.328125 C 2.390625 -1.03125 3.09375 -4.375 3.109375 -4.40625 C 3.8125 -4.421875 4.578125 -4.375 5.234375 -4.421875 C 5.28125 -4.53125 5.296875 -4.6875 5.328125 -4.8125 L 1.71875 -4.8125 C 1.328125 -4.796875 0.890625 -4.84375 0.53125 -4.796875 C 0.5 -4.671875 0.46875 -4.53125 0.4375 -4.40625 Z M 0.4375 -4.40625 "/>
</symbol>
<symbol overflow="visible" id="glyph0-5">
<path style="stroke:none;" d="M 1.609375 -4.84375 L 0.578125 0 L 0.9375 0 C 1.015625 0 1.09375 0.015625 1.09375 -0.0625 C 1.109375 -0.125 1.21875 -0.578125 1.25 -0.78125 C 1.296875 -1 1.484375 -1.875 1.53125 -2.046875 C 1.609375 -2.3125 1.75 -2.5625 1.953125 -2.734375 C 2.09375 -2.84375 2.265625 -2.9375 2.4375 -2.953125 C 2.765625 -2.96875 3.0625 -2.90625 3.1875 -2.6875 C 3.296875 -2.484375 3.203125 -2.25 3.15625 -2.046875 L 2.734375 0 L 3.09375 0 C 3.171875 0 3.25 0.015625 3.25 -0.078125 C 3.296875 -0.21875 3.390625 -0.734375 3.390625 -0.734375 L 3.703125 -2.1875 C 3.765625 -2.453125 3.8125 -2.765625 3.671875 -3.015625 C 3.5 -3.328125 3.09375 -3.375 2.671875 -3.328125 C 2.390625 -3.28125 2.125 -3.140625 1.921875 -2.953125 C 1.8125 -2.859375 1.71875 -2.765625 1.640625 -2.640625 L 1.640625 -2.640625 L 2.09375 -4.84375 L 1.609375 -4.84375 Z M 1.625 -2.640625 C 1.625 -2.640625 1.640625 -2.640625 1.640625 -2.640625 C 1.640625 -2.640625 1.625 -2.625 1.625 -2.640625 Z M 1.625 -2.640625 "/>
</symbol>
<symbol overflow="visible" id="glyph0-6">
<path style="stroke:none;" d="M 1.625 -2.625 L 1.625 -2.625 C 1.671875 -2.84375 1.71875 -3.0625 1.765625 -3.296875 L 1.28125 -3.296875 L 0.578125 0 L 0.9375 0 C 1.015625 0 1.09375 0.015625 1.09375 -0.0625 C 1.109375 -0.125 1.21875 -0.578125 1.25 -0.78125 C 1.296875 -1 1.484375 -1.875 1.53125 -2.046875 C 1.609375 -2.3125 1.75 -2.5625 1.953125 -2.734375 C 2.09375 -2.84375 2.265625 -2.9375 2.4375 -2.953125 C 2.765625 -2.96875 3.0625 -2.90625 3.1875 -2.6875 C 3.296875 -2.484375 3.203125 -2.25 3.15625 -2.046875 L 2.734375 0 L 3.09375 0 C 3.171875 0 3.25 0.015625 3.25 -0.078125 C 3.296875 -0.21875 3.390625 -0.734375 3.390625 -0.734375 L 3.703125 -2.1875 C 3.765625 -2.453125 3.8125 -2.765625 3.671875 -3.03125 C 3.484375 -3.328125 3.078125 -3.375 2.671875 -3.328125 C 2.390625 -3.28125 2.125 -3.140625 1.921875 -2.953125 C 1.8125 -2.859375 1.703125 -2.75 1.625 -2.625 Z M 1.625 -2.625 "/>
</symbol>
<symbol overflow="visible" id="glyph1-0">
<path style="stroke:none;" d=""/>
</symbol>
<symbol overflow="visible" id="glyph1-1">
<path style="stroke:none;" d="M 1.03125 -2.78125 C 1.015625 -2.78125 0.984375 -2.765625 0.96875 -2.765625 C 0.84375 -2.71875 0.828125 -2.59375 0.78125 -2.484375 L 0.734375 -2.28125 L 0.28125 -0.75 C 0.265625 -0.703125 0.140625 -0.34375 0.15625 -0.296875 C 0.15625 -0.25 0.234375 -0.234375 0.28125 -0.21875 C 0.296875 -0.21875 0.328125 -0.203125 0.34375 -0.203125 C 0.40625 -0.21875 0.421875 -0.296875 0.4375 -0.34375 L 0.640625 -0.78125 L 1.09375 -1.859375 C 1.140625 -1.953125 1.328125 -2.328125 1.34375 -2.421875 C 1.4375 -2.65625 1.203125 -2.8125 1.03125 -2.78125 Z M 1.03125 -2.78125 "/>
</symbol>
<symbol overflow="visible" id="glyph2-0">
<path style="stroke:none;" d=""/>
</symbol>
<symbol overflow="visible" id="glyph2-1">
<path style="stroke:none;" d="M 0.546875 -3.015625 L 0.546875 -2.734375 C 0.796875 -2.734375 1.046875 -2.78125 1.28125 -2.875 L 1.28125 -0.28125 L 0.578125 -0.28125 L 0.578125 0 L 2.328125 0 L 2.328125 -0.28125 L 1.640625 -0.28125 L 1.640625 -3.34375 C 1.609375 -3.34375 1.5625 -3.359375 1.546875 -3.34375 C 1.5 -3.328125 1.46875 -3.296875 1.4375 -3.265625 C 1.234375 -3.09375 0.875 -3.015625 0.546875 -3.015625 Z M 0.546875 -3.015625 "/>
</symbol>
<symbol overflow="visible" id="glyph2-2">
<path style="stroke:none;" d="M 0.4375 -2.28125 C 0.515625 -2.578125 0.65625 -2.890625 0.953125 -3 C 1.078125 -3.046875 1.203125 -3.0625 1.328125 -3.046875 C 1.578125 -3.03125 1.84375 -2.921875 2 -2.703125 C 2.109375 -2.5625 2.140625 -2.375 2.109375 -2.203125 C 2.046875 -1.71875 1.625 -1.421875 1.28125 -1.15625 C 1 -0.9375 0.421875 -0.421875 0.421875 -0.421875 L 0.328125 -0.34375 C 0.28125 -0.296875 0.28125 -0.296875 0.28125 -0.1875 L 0.28125 0 L 2.5 0 L 2.5 -0.3125 L 0.59375 -0.3125 C 0.796875 -0.484375 1.359375 -0.953125 1.53125 -1.078125 C 1.84375 -1.3125 2.1875 -1.546875 2.390625 -1.890625 C 2.609375 -2.28125 2.46875 -2.8125 2.125 -3.078125 C 1.75 -3.40625 1.046875 -3.453125 0.625 -3.140625 C 0.46875 -3.03125 0.359375 -2.84375 0.28125 -2.671875 C 0.265625 -2.625 0.234375 -2.578125 0.234375 -2.546875 C 0.25 -2.515625 0.28125 -2.484375 0.296875 -2.46875 C 0.34375 -2.40625 0.390625 -2.34375 0.4375 -2.28125 Z M 0.4375 -2.28125 "/>
</symbol>
</g>
<clipPath id="clip1">
  <path d="M -222 667 L 390 667 L 390 -125 L -222 -125 L -222 667 Z M -222 667 "/>
</clipPath>
<clipPath id="clip2">
  <path d="M 0.0585938 86.085938 L 167.304688 86.085938 L 167.304688 -0.199219 L 0.0585938 -0.199219 L 0.0585938 86.085938 Z M 0.0585938 86.085938 "/>
</clipPath>
<clipPath id="clip3">
  <path d="M -222 667 L 390 667 L 390 -125 L -222 -125 L -222 667 Z M -222 667 "/>
</clipPath>
</defs>
<g id="surface0">
<g clip-path="url(#clip1)" clip-rule="nonzero">
<g clip-path="url(#clip2)" clip-rule="nonzero">
<path style="fill:none;stroke-width:5;stroke-linecap:butt;stroke-linejoin:miter;stroke:rgb(13.730068%,12.159915%,12.54902%);stroke-opacity:1;stroke-miterlimit:4;" d="M 62.518247 402.79139 L 1470.016341 402.79139 " transform="matrix(0.106525,0,0,-0.106525,0.059,86.087)"/>
<path style="fill:none;stroke-width:5;stroke-linecap:butt;stroke-linejoin:miter;stroke:rgb(13.730068%,12.159915%,12.54902%);stroke-opacity:1;stroke-miterlimit:4;" d="M 10.00705 690.282859 L 629.98387 744.00416 L 1512.516675 527.798841 " transform="matrix(0.106525,0,0,-0.106525,0.059,86.087)"/>
<path style=" stroke:none;fill-rule:nonzero;fill:rgb(13.730068%,12.159915%,12.54902%);fill-opacity:1;" d="M 159.78125 31.089844 L 165.757813 30.996094 L 160.535156 28.085938 L 159.78125 31.089844 "/>
<path style=" stroke:none;fill-rule:nonzero;fill:rgb(13.730068%,12.159915%,12.54902%);fill-opacity:1;" d="M 32.546875 11.472656 L 38.132813 9.339844 L 32.230469 8.394531 L 32.546875 11.472656 "/>
<path style="fill:none;stroke-width:5;stroke-linecap:butt;stroke-linejoin:miter;stroke:rgb(13.730068%,12.159915%,12.54902%);stroke-opacity:1;stroke-miterlimit:4;" d="M 629.98387 402.79139 L 629.98387 744.00416 " transform="matrix(0.106525,0,0,-0.106525,0.059,86.087)"/>
<path style="fill:none;stroke-width:5;stroke-linecap:butt;stroke-linejoin:miter;stroke:rgb(13.730068%,12.159915%,12.54902%);stroke-opacity:1;stroke-miterlimit:4;" d="M 681.321632 9.984168 C 553.380595 87.870887 467.573192 231.286594 467.573192 395.310744 C 467.573192 571.472609 566.545064 723.835753 710.474147 796.808716 " transform="matrix(0.106525,0,0,-0.106525,0.059,86.087)"/>
<path style="fill:none;stroke-width:5;stroke-linecap:butt;stroke-linejoin:miter;stroke:rgb(13.730068%,12.159915%,12.54902%);stroke-opacity:1;stroke-miterlimit:4;" d="M 629.98387 744.00416 C 629.98387 744.00416 487.48491 367.808372 635.007637 42.803666 " transform="matrix(0.106525,0,0,-0.106525,0.059,86.087)"/>
<path style="fill:none;stroke-width:3.8;stroke-linecap:butt;stroke-linejoin:miter;stroke:rgb(13.730068%,12.159915%,12.54902%);stroke-opacity:1;stroke-miterlimit:4;" d="M 417.482204 427.800214 L 443.297764 427.800214 " transform="matrix(0.106525,0,0,-0.106525,0.059,86.087)"/>
<path style=" stroke:none;fill-rule:nonzero;fill:rgb(13.730068%,12.159915%,12.54902%);fill-opacity:1;" d="M 46.679688 41.386719 L 49.972656 40.507813 L 46.679688 39.625 L 46.679688 41.386719 "/>
<path style="fill:none;stroke-width:3.8;stroke-linecap:butt;stroke-linejoin:miter;stroke:rgb(0%,0%,0%);stroke-opacity:1;stroke-miterlimit:4;" d="M 620.229695 427.800214 L 594.414135 427.800214 " transform="matrix(0.106525,0,0,-0.106525,0.059,86.087)"/>
<path style=" stroke:none;fill-rule:nonzero;fill:rgb(0%,0%,0%);fill-opacity:1;" d="M 63.980469 39.644531 L 60.6875 40.527344 L 63.980469 41.410156 L 63.980469 39.644531 "/>
</g>
</g>
<g clip-path="url(#clip3)" clip-rule="nonzero">
<g style="fill:rgb(0%,0%,0%);fill-opacity:1;">
  <use xlink:href="#glyph0-1" x="-0.055" y="45.422"/>
</g>
<g style="fill:rgb(0%,0%,0%);fill-opacity:1;">
  <use xlink:href="#glyph0-1" x="157.948" y="45.615"/>
</g>
<g style="fill:rgb(0%,0%,0%);fill-opacity:1;">
  <use xlink:href="#glyph1-1" x="163.731" y="43.154"/>
</g>
<g style="fill:rgb(0%,0%,0%);fill-opacity:1;">
  <use xlink:href="#glyph0-2" x="64.52" y="5.3"/>
</g>
<g style="fill:rgb(0%,0%,0%);fill-opacity:1;">
  <use xlink:href="#glyph0-3" x="64.349" y="49.261"/>
</g>
<g style="fill:rgb(0%,0%,0%);fill-opacity:1;">
  <use xlink:href="#glyph0-4" x="52.717" y="42.02"/>
</g>
<g style="fill:rgb(0%,0%,0%);fill-opacity:1;">
  <use xlink:href="#glyph0-5" x="68.657" y="27.28"/>
</g>
<g style="fill:rgb(0%,0%,0%);fill-opacity:1;">
  <use xlink:href="#glyph0-6" x="44.271" y="61.786"/>
</g>
<g style="fill:rgb(0%,0%,0%);fill-opacity:1;">
  <use xlink:href="#glyph2-1" x="48.097" y="62.658"/>
</g>
<g style="fill:rgb(0%,0%,0%);fill-opacity:1;">
  <use xlink:href="#glyph0-6" x="53.629" y="61.786"/>
</g>
<g style="fill:rgb(0%,0%,0%);fill-opacity:1;">
  <use xlink:href="#glyph2-2" x="57.455" y="62.658"/>
</g>
<g style="fill:rgb(0%,0%,0%);fill-opacity:1;">
  <use xlink:href="#glyph0-6" x="62.988" y="61.786"/>
</g>
<g style="fill:rgb(0%,0%,0%);fill-opacity:1;">
  <use xlink:href="#glyph2-1" x="66.814" y="62.658"/>
</g>
</g>
</g>
</svg>
