<?xml version="1.0" encoding="UTF-8"?>
<svg xmlns="http://www.w3.org/2000/svg" xmlns:xlink="http://www.w3.org/1999/xlink" width="258.0755703277627pt" height="157.61662348876783pt" viewBox="0 0 149 91" version="1.1">
<defs>
<g>
<symbol overflow="visible" id="glyph0-0">
<path style="stroke:none;" d=""/>
</symbol>
<symbol overflow="visible" id="glyph0-1">
<path style="stroke:none;" d="M 0.4375 -0.90625 C 0.421875 -0.84375 0.328125 -0.40625 0.34375 -0.375 C 0.359375 -0.359375 0.390625 -0.34375 0.40625 -0.328125 L 0.578125 -0.25 C 1.234375 0.09375 2.359375 0.296875 3.109375 -0.125 C 3.5 -0.328125 3.875 -0.765625 3.875 -1.296875 C 3.875 -2.015625 3.296875 -2.453125 2.796875 -2.625 C 2.65625 -2.671875 2.140625 -2.78125 2.046875 -2.796875 C 1.6875 -2.875 1.296875 -2.96875 1.046875 -3.265625 C 1.015625 -3.3125 0.984375 -3.359375 0.96875 -3.421875 C 0.765625 -3.875 1.125 -4.265625 1.546875 -4.421875 C 2 -4.59375 2.578125 -4.546875 2.984375 -4.375 C 3.09375 -4.328125 3.21875 -4.265625 3.3125 -4.1875 C 3.375 -4.15625 3.4375 -4.109375 3.5 -4.0625 C 3.53125 -4.1875 3.546875 -4.328125 3.5625 -4.453125 C 3.578125 -4.546875 3.625 -4.609375 3.515625 -4.640625 L 3.34375 -4.71875 C 2.578125 -5.03125 1.546875 -5.078125 0.890625 -4.515625 C 0.796875 -4.453125 0.71875 -4.359375 0.640625 -4.265625 C 0.4375 -3.984375 0.34375 -3.546875 0.546875 -3.15625 C 0.71875 -2.8125 1.015625 -2.578125 1.390625 -2.4375 C 1.546875 -2.390625 1.6875 -2.359375 1.84375 -2.328125 C 2 -2.28125 2.5625 -2.171875 2.65625 -2.125 C 2.921875 -2.03125 3.1875 -1.859375 3.3125 -1.59375 C 3.375 -1.484375 3.390625 -1.375 3.390625 -1.203125 C 3.34375 -0.78125 2.96875 -0.5 2.59375 -0.390625 C 1.984375 -0.21875 1.296875 -0.40625 0.84375 -0.640625 C 0.703125 -0.71875 0.578125 -0.828125 0.4375 -0.90625 Z M 0.4375 -0.90625 "/>
</symbol>
<symbol overflow="visible" id="glyph0-2">
<path style="stroke:none;" d="M 0.734375 -4.84375 L 0.734375 -1.78125 C 0.734375 -1.640625 0.734375 -1.5 0.75 -1.359375 C 0.8125 -0.953125 1.015625 -0.625 1.28125 -0.390625 C 1.84375 0.125 2.703125 0.265625 3.390625 -0.0625 C 3.75 -0.234375 4.078125 -0.5625 4.25 -0.921875 C 4.375 -1.21875 4.390625 -1.40625 4.390625 -1.8125 L 4.390625 -4.84375 L 3.890625 -4.84375 L 3.890625 -1.765625 C 3.890625 -1.5 3.875 -1.21875 3.75 -0.96875 C 3.671875 -0.8125 3.5625 -0.65625 3.40625 -0.546875 C 2.8125 -0.109375 1.765625 -0.28125 1.4375 -0.875 C 1.28125 -1.15625 1.265625 -1.46875 1.265625 -1.78125 L 1.265625 -4.84375 L 0.734375 -4.84375 Z M 0.734375 -4.84375 "/>
</symbol>
<symbol overflow="visible" id="glyph0-3">
<path style="stroke:none;" d="M 0.75 -4.84375 L 0.75 0 L 1.234375 0 L 1.234375 -4.40625 L 1.234375 -4.40625 L 1.4375 -4.0625 L 3.015625 -1.3125 C 3.265625 -0.875 3.5 -0.4375 3.75 -0.015625 C 3.96875 0.03125 4.25 -0.015625 4.484375 0 L 4.484375 -4.84375 L 4 -4.84375 L 4 -0.421875 L 2.1875 -3.59375 C 1.953125 -4 1.734375 -4.4375 1.484375 -4.828125 C 1.28125 -4.859375 0.984375 -4.828125 0.75 -4.84375 Z M 0.75 -4.84375 "/>
</symbol>
<symbol overflow="visible" id="glyph0-4">
<path style="stroke:none;" d="M 0.734375 -4.84375 L 0.734375 0 L 1.265625 0 L 1.265625 -2.015625 L 2.296875 -2.015625 C 2.453125 -2.015625 2.625 -2.015625 2.78125 -2.015625 C 3.546875 -2.078125 4.296875 -2.515625 4.421875 -3.21875 C 4.5 -3.625 4.328125 -3.953125 4.140625 -4.1875 C 3.859375 -4.53125 3.421875 -4.765625 2.90625 -4.828125 C 2.65625 -4.84375 2.40625 -4.84375 2.171875 -4.84375 L 0.734375 -4.84375 Z M 1.25 -2.421875 L 1.25 -4.421875 L 2.296875 -4.421875 C 2.90625 -4.421875 3.46875 -4.359375 3.765625 -3.953125 C 4 -3.640625 4 -3.203125 3.765625 -2.890625 C 3.6875 -2.78125 3.578125 -2.703125 3.46875 -2.625 C 3.109375 -2.421875 2.703125 -2.421875 2.328125 -2.421875 L 1.25 -2.421875 Z M 1.25 -2.421875 "/>
</symbol>
<symbol overflow="visible" id="glyph0-5">
<path style="stroke:none;" d="M 0.734375 -4.84375 L 0.734375 0 L 3.890625 0 L 3.890625 -0.40625 L 1.265625 -0.40625 L 1.265625 -4.84375 L 0.734375 -4.84375 Z M 0.734375 -4.84375 "/>
</symbol>
<symbol overflow="visible" id="glyph0-6">
<path style="stroke:none;" d="M 0.21875 0 L 0.578125 0 C 0.625 0 0.6875 0.015625 0.71875 -0.015625 C 0.75 -0.03125 0.75 -0.0625 0.765625 -0.09375 C 0.875 -0.34375 1.21875 -1.203125 1.265625 -1.296875 C 1.28125 -1.359375 1.296875 -1.390625 1.375 -1.390625 L 3.046875 -1.390625 C 3.234375 -1.390625 3.421875 -1.40625 3.609375 -1.390625 C 3.6875 -1.390625 3.703125 -1.296875 3.734375 -1.234375 C 3.8125 -1.03125 4.1875 -0.125 4.203125 -0.0625 C 4.234375 0.015625 4.296875 0 4.40625 0 L 4.796875 0 C 4.625 -0.453125 4.4375 -0.890625 4.25 -1.34375 L 2.8125 -4.828125 C 2.796875 -4.859375 2.796875 -4.90625 2.765625 -4.90625 C 2.71875 -4.90625 2.671875 -4.90625 2.625 -4.90625 L 2.375 -4.90625 C 2.328125 -4.90625 2.265625 -4.921875 2.234375 -4.890625 C 2.203125 -4.875 2.1875 -4.84375 2.1875 -4.8125 L 0.765625 -1.34375 L 0.40625 -0.484375 C 0.34375 -0.328125 0.265625 -0.171875 0.21875 0 Z M 2.484375 -4.328125 C 2.796875 -3.46875 3.15625 -2.640625 3.5 -1.8125 L 1.46875 -1.8125 C 1.796875 -2.640625 2.15625 -3.46875 2.46875 -4.328125 L 2.484375 -4.328125 Z M 2.484375 -4.328125 "/>
</symbol>
<symbol overflow="visible" id="glyph0-7">
<path style="stroke:none;" d="M 0.734375 -4.828125 L 0.734375 0 L 4.328125 0 L 4.328125 -0.4375 L 1.265625 -0.4375 L 1.265625 -2.296875 L 4 -2.296875 L 4 -2.703125 L 1.265625 -2.703125 L 1.265625 -4.40625 L 4.203125 -4.40625 L 4.203125 -4.828125 L 0.734375 -4.828125 Z M 0.734375 -4.828125 "/>
</symbol>
<symbol overflow="visible" id="glyph0-8">
<path style="stroke:none;" d="M 0.28125 -4.8125 L 0.28125 -4.40625 L 2.421875 -4.40625 L 2.421875 0 L 2.953125 0 L 2.953125 -4.40625 L 5.078125 -4.40625 L 5.078125 -4.8125 L 0.28125 -4.8125 Z M 0.28125 -4.8125 "/>
</symbol>
<symbol overflow="visible" id="glyph0-9">
<path style="stroke:none;" d="M 2.578125 1.546875 C 2.546875 1.5 2.5 1.46875 2.453125 1.4375 C 1.6875 0.75 1.21875 -0.3125 1.171875 -1.59375 C 1.140625 -2.46875 1.296875 -3.375 1.703125 -4.15625 C 1.90625 -4.53125 2.140625 -4.84375 2.453125 -5.109375 C 2.5 -5.15625 2.546875 -5.1875 2.578125 -5.21875 L 2.328125 -5.21875 C 2.171875 -5.21875 2.1875 -5.21875 2.078125 -5.140625 C 1.71875 -4.859375 1.421875 -4.484375 1.1875 -4.0625 C 0.53125 -2.828125 0.484375 -1.15625 1.09375 0.1875 C 1.3125 0.6875 1.65625 1.109375 2.078125 1.46875 C 2.171875 1.53125 2.171875 1.546875 2.328125 1.546875 L 2.578125 1.546875 Z M 2.578125 1.546875 "/>
</symbol>
<symbol overflow="visible" id="glyph0-10">
<path style="stroke:none;" d="M 0.4375 -5.21875 C 0.46875 -5.1875 0.515625 -5.15625 0.5625 -5.109375 C 1.421875 -4.34375 1.890625 -3.109375 1.828125 -1.59375 C 1.8125 -0.84375 1.625 -0.09375 1.265625 0.5625 C 1.078125 0.890625 0.84375 1.1875 0.5625 1.4375 C 0.515625 1.46875 0.46875 1.5 0.4375 1.546875 L 0.6875 1.546875 C 0.84375 1.546875 0.828125 1.546875 0.921875 1.46875 C 1.296875 1.171875 1.59375 0.796875 1.8125 0.390625 C 2.484375 -0.859375 2.53125 -2.515625 1.921875 -3.859375 C 1.6875 -4.375 1.359375 -4.796875 0.9375 -5.140625 C 0.84375 -5.21875 0.84375 -5.21875 0.6875 -5.21875 L 0.4375 -5.21875 Z M 0.4375 -5.21875 "/>
</symbol>
<symbol overflow="visible" id="glyph1-0">
<path style="stroke:none;" d=""/>
</symbol>
<symbol overflow="visible" id="glyph1-1">
<path style="stroke:none;" d="M 0.75 -3.296875 C 0.828125 -3.140625 0.921875 -3.015625 1.015625 -2.875 C 1.078125 -2.796875 1.6875 -1.875 1.71875 -1.84375 C 1.734375 -1.8125 1.796875 -1.75 1.796875 -1.703125 C 1.796875 -1.65625 1.71875 -1.609375 1.6875 -1.578125 C 1.375 -1.296875 0.046875 -0.046875 0 0 C 0.1875 0 0.375 0 0.53125 0 L 0.6875 -0.140625 L 1.984375 -1.4375 C 2.265625 -0.953125 2.53125 -0.46875 2.84375 -0.015625 C 3.015625 0 3.203125 0 3.390625 0 C 3.296875 -0.140625 2.359375 -1.53125 2.328125 -1.5625 C 2.3125 -1.609375 2.265625 -1.65625 2.265625 -1.6875 C 2.28125 -1.734375 2.34375 -1.78125 2.375 -1.8125 C 2.484375 -1.921875 2.59375 -2.015625 2.703125 -2.125 C 2.8125 -2.21875 3.921875 -3.25 3.953125 -3.296875 C 3.765625 -3.296875 3.59375 -3.296875 3.421875 -3.28125 C 2.96875 -2.875 2.546875 -2.4375 2.09375 -2.03125 C 1.828125 -2.453125 1.578125 -2.890625 1.28125 -3.28125 C 1.109375 -3.296875 0.921875 -3.296875 0.75 -3.296875 Z M 0.75 -3.296875 "/>
</symbol>
<symbol overflow="visible" id="glyph1-2">
<path style="stroke:none;" d="M 0.8125 -3.296875 C 0.828125 -3.1875 0.84375 -3.09375 0.875 -3 C 1.015625 -2.3125 1.515625 -0.078125 1.515625 0 C 1.5 0.03125 1.328125 0.296875 1.328125 0.296875 C 1.15625 0.578125 0.9375 0.875 0.515625 0.828125 C 0.421875 0.828125 0.328125 0.8125 0.234375 0.796875 C 0.171875 0.78125 0.09375 0.75 0.03125 0.734375 L -0.015625 1.171875 C 0.203125 1.203125 0.578125 1.25 0.796875 1.1875 C 1.234375 1.0625 1.546875 0.59375 1.75 0.265625 L 2.09375 -0.28125 C 2.28125 -0.59375 3.875 -3.125 3.984375 -3.296875 C 3.8125 -3.296875 3.640625 -3.296875 3.5 -3.28125 C 3.328125 -3.03125 3.1875 -2.78125 3.03125 -2.53125 C 2.625 -1.859375 2.1875 -1.234375 1.828125 -0.515625 L 1.828125 -0.515625 C 1.734375 -1.515625 1.484375 -2.359375 1.296875 -3.296875 L 0.8125 -3.296875 Z M 0.8125 -3.296875 "/>
</symbol>
<symbol overflow="visible" id="glyph1-3">
<path style="stroke:none;" d="M 1.75 -4.828125 L 0.734375 0 C 0.90625 0 1.09375 0 1.25 -0.015625 L 1.28125 -0.0625 L 1.734375 -2.203125 L 3.578125 -2.203125 C 3.796875 -2.21875 4.0625 -2.1875 4.234375 -2.21875 C 4.28125 -2.34375 4.3125 -2.484375 4.328125 -2.625 L 1.8125 -2.625 C 1.9375 -3.21875 2.078125 -3.8125 2.1875 -4.40625 L 5.046875 -4.40625 L 5.125 -4.828125 L 1.75 -4.828125 Z M 1.75 -4.828125 "/>
</symbol>
<symbol overflow="visible" id="glyph1-4">
<path style="stroke:none;" d="M 0.78125 -0.578125 L 0.78125 0 L 0.96875 0 L 0.78125 0.78125 L 1.078125 0.78125 C 1.171875 0.515625 1.265625 0.265625 1.359375 0 C 1.359375 -0.1875 1.359375 -0.390625 1.359375 -0.578125 L 0.78125 -0.578125 Z M 0.78125 -0.578125 "/>
</symbol>
<symbol overflow="visible" id="glyph2-0">
<path style="stroke:none;" d=""/>
</symbol>
<symbol overflow="visible" id="glyph2-1">
<path style="stroke:none;" d="M 0.53125 -2.359375 C 0.59375 -2.25 0.65625 -2.15625 0.734375 -2.0625 C 0.765625 -2 1.203125 -1.34375 1.21875 -1.3125 C 1.25 -1.296875 1.28125 -1.25 1.28125 -1.21875 C 1.28125 -1.1875 1.234375 -1.15625 1.203125 -1.125 C 0.984375 -0.921875 0.03125 -0.03125 0 0 C 0.140625 0 0.265625 0 0.390625 0 L 0.484375 -0.09375 L 1.421875 -1.03125 C 1.609375 -0.6875 1.8125 -0.34375 2.03125 -0.015625 C 2.15625 0 2.296875 0 2.421875 0 C 2.359375 -0.09375 1.6875 -1.09375 1.671875 -1.125 C 1.65625 -1.140625 1.625 -1.1875 1.625 -1.21875 C 1.625 -1.25 1.6875 -1.28125 1.703125 -1.296875 C 1.78125 -1.375 1.859375 -1.4375 1.9375 -1.515625 C 2.015625 -1.578125 2.796875 -2.328125 2.828125 -2.359375 C 2.703125 -2.359375 2.5625 -2.359375 2.4375 -2.34375 C 2.125 -2.0625 1.8125 -1.75 1.5 -1.453125 C 1.3125 -1.75 1.125 -2.0625 0.921875 -2.34375 C 0.796875 -2.359375 0.65625 -2.359375 0.53125 -2.359375 Z M 0.53125 -2.359375 "/>
</symbol>
<symbol overflow="visible" id="glyph2-2">
<path style="stroke:none;" d="M 0.578125 -2.359375 C 0.59375 -2.28125 0.609375 -2.21875 0.625 -2.140625 C 0.71875 -1.65625 1.078125 -0.0625 1.078125 0 C 1.078125 0.015625 0.953125 0.21875 0.953125 0.21875 C 0.828125 0.40625 0.671875 0.625 0.375 0.59375 C 0.296875 0.59375 0.234375 0.578125 0.171875 0.5625 C 0.125 0.5625 0.0625 0.53125 0.015625 0.53125 L -0.015625 0.84375 C 0.15625 0.859375 0.421875 0.890625 0.5625 0.84375 C 0.875 0.765625 1.109375 0.421875 1.25 0.1875 L 1.5 -0.203125 C 1.640625 -0.421875 2.78125 -2.234375 2.84375 -2.359375 C 2.71875 -2.359375 2.609375 -2.359375 2.5 -2.34375 C 2.375 -2.171875 2.28125 -1.984375 2.15625 -1.8125 C 1.875 -1.328125 1.5625 -0.875 1.3125 -0.359375 L 1.3125 -0.359375 C 1.234375 -1.078125 1.0625 -1.6875 0.9375 -2.359375 L 0.578125 -2.359375 Z M 0.578125 -2.359375 "/>
</symbol>
<symbol overflow="visible" id="glyph3-0">
<path style="stroke:none;" d=""/>
</symbol>
<symbol overflow="visible" id="glyph3-1">
<path style="stroke:none;" d="M 0.640625 0 L 1.40625 0 C 1.5 0 1.484375 -0.03125 1.515625 -0.140625 C 1.546875 -0.25 1.5625 -0.359375 1.59375 -0.46875 L 1.84375 -1.671875 C 1.875 -1.78125 1.890625 -1.890625 1.90625 -2 C 1.921875 -2.03125 1.921875 -2.078125 1.9375 -2.109375 C 1.984375 -2.140625 2.046875 -2.125 2.09375 -2.125 L 4.046875 -2.125 L 4.171875 -2.6875 L 2.0625 -2.6875 L 2.375 -4.203125 L 4.78125 -4.1875 L 4.921875 -4.8125 L 2.515625 -4.8125 C 2.234375 -4.796875 1.90625 -4.84375 1.671875 -4.796875 L 1.640625 -4.703125 L 0.640625 0 Z M 0.640625 0 "/>
</symbol>
</g>
<clipPath id="clip1">
  <path d="M -231 666 L 381 666 L 381 -126 L -231 -126 L -231 666 Z M -231 666 "/>
</clipPath>
<clipPath id="clip2">
  <path d="M 0.355469 90.800781 L 144.921875 90.800781 L 144.921875 -1.199219 L 0.355469 -1.199219 L 0.355469 90.800781 Z M 0.355469 90.800781 "/>
</clipPath>
<clipPath id="clip3">
  <path d="M -231 666 L 381 666 L 381 -126 L -231 -126 L -231 666 Z M -231 666 "/>
</clipPath>
</defs>
<g id="surface0">
<g clip-path="url(#clip1)" clip-rule="nonzero">
<g clip-path="url(#clip2)" clip-rule="nonzero">
<path style="fill:none;stroke-width:5;stroke-linecap:butt;stroke-linejoin:miter;stroke:rgb(0%,0%,0%);stroke-opacity:1;stroke-miterlimit:4;" d="M 158.819727 2.516084 L 158.819727 823.674459 " transform="matrix(0.10952,0,0,-0.10952,0.356,90.799)"/>
<path style="fill:none;stroke-width:5;stroke-linecap:butt;stroke-linejoin:miter;stroke:rgb(0%,0%,0%);stroke-opacity:1;stroke-miterlimit:4;" d="M 1305.473969 142.009217 L 2.49183 142.009217 " transform="matrix(0.10952,0,0,-0.10952,0.356,90.799)"/>
<path style="fill:none;stroke-width:5;stroke-linecap:butt;stroke-linejoin:miter;stroke:rgb(0%,0%,0%);stroke-opacity:1;stroke-miterlimit:4;" d="M 158.819727 745.635345 L 1145.472385 745.635345 L 1145.472385 142.009217 " transform="matrix(0.10952,0,0,-0.10952,0.356,90.799)"/>
<path style="fill:none;stroke-width:7.5;stroke-linecap:butt;stroke-linejoin:miter;stroke:rgb(0%,0%,0%);stroke-opacity:1;stroke-miterlimit:4;" d="M 788.482671 745.635345 L 1145.472385 745.635345 L 1145.472385 528.566767 " transform="matrix(0.10952,0,0,-0.10952,0.356,90.799)"/>
<path style=" stroke:none;fill-rule:nonzero;fill:rgb(0%,0%,0%);fill-opacity:1;" d="M 124.007813 28.445313 L 125.796875 35.125 L 127.585938 28.445313 L 124.007813 28.445313 "/>
<path style=" stroke:none;fill-rule:nonzero;fill:rgb(0%,0%,0%);fill-opacity:1;" d="M 89.800781 7.347656 L 83.121094 9.136719 L 89.800781 10.925781 L 89.800781 7.347656 "/>
<path style="fill:none;stroke-width:5;stroke-linecap:butt;stroke-linejoin:miter;stroke:rgb(0%,0%,0%);stroke-opacity:1;stroke-miterlimit:4;" d="M 1145.472385 508.486319 L 755.633482 508.486319 L 755.633482 745.635345 " transform="matrix(0.10952,0,0,-0.10952,0.356,90.799)"/>
<path style="fill:none;stroke-width:15;stroke-linecap:butt;stroke-linejoin:miter;stroke:rgb(0%,0%,0%);stroke-opacity:1;stroke-miterlimit:4;" d="M 1145.472385 745.635345 L 812.379475 543.083184 " transform="matrix(0.10952,0,0,-0.10952,0.356,90.799)"/>
<path style=" stroke:none;fill-rule:nonzero;fill:rgb(0%,0%,0%);fill-opacity:1;" d="M 89.492188 28.460938 L 83.125 35.125 L 91.972656 32.535156 L 89.492188 28.460938 "/>
<path style="fill:none;stroke-width:5;stroke-linecap:butt;stroke-linejoin:miter;stroke:rgb(0%,0%,0%);stroke-opacity:1;stroke-miterlimit:4;" d="M 158.819727 142.009217 L 757.844828 509.306657 " transform="matrix(0.10952,0,0,-0.10952,0.356,90.799)"/>
<path style=" stroke:none;fill-rule:nonzero;fill:rgb(0%,0%,0%);fill-opacity:1;" d="M 19.273438 75.371094 C 19.273438 76.277344 18.539063 77.011719 17.628906 77.011719 C 16.722656 77.011719 15.988281 76.277344 15.988281 75.371094 C 15.988281 74.460938 16.722656 73.726563 17.628906 73.726563 C 18.539063 73.726563 19.273438 74.460938 19.273438 75.371094 "/>
<path style=" stroke:none;fill-rule:nonzero;fill:rgb(0%,0%,0%);fill-opacity:1;" d="M 127.253906 9.378906 C 127.253906 10.289063 126.519531 11.023438 125.613281 11.023438 C 124.703125 11.023438 123.96875 10.289063 123.96875 9.378906 C 123.96875 8.472656 124.703125 7.738281 125.613281 7.738281 C 126.519531 7.738281 127.253906 8.472656 127.253906 9.378906 "/>
</g>
</g>
<g clip-path="url(#clip3)" clip-rule="nonzero">
<g style="fill:rgb(0%,0%,0%);fill-opacity:1;">
  <use xlink:href="#glyph0-1" x="19.065" y="81.752"/>
  <use xlink:href="#glyph0-2" x="23.375506" y="81.752"/>
  <use xlink:href="#glyph0-3" x="28.513802" y="81.752"/>
</g>
<g style="fill:rgb(0%,0%,0%);fill-opacity:1;">
  <use xlink:href="#glyph1-1" x="123.838" y="80.203"/>
</g>
<g style="fill:rgb(0%,0%,0%);fill-opacity:1;">
  <use xlink:href="#glyph1-2" x="11.999" y="10.255"/>
</g>
<g style="fill:rgb(0%,0%,0%);fill-opacity:1;">
  <use xlink:href="#glyph1-3" x="79.313" y="6.072"/>
</g>
<g style="fill:rgb(0%,0%,0%);fill-opacity:1;">
  <use xlink:href="#glyph2-1" x="83.591" y="6.943"/>
</g>
<g style="fill:rgb(0%,0%,0%);fill-opacity:1;">
  <use xlink:href="#glyph0-4" x="99.338" y="6.072"/>
  <use xlink:href="#glyph0-5" x="104.21966" y="6.072"/>
  <use xlink:href="#glyph0-6" x="108.438112" y="6.072"/>
  <use xlink:href="#glyph0-3" x="113.459945" y="6.072"/>
  <use xlink:href="#glyph0-7" x="118.714703" y="6.072"/>
  <use xlink:href="#glyph0-8" x="123.364136" y="6.072"/>
</g>
<g style="fill:rgb(0%,0%,0%);fill-opacity:1;">
  <use xlink:href="#glyph0-9" x="131.189437" y="6.072"/>
</g>
<g style="fill:rgb(0%,0%,0%);fill-opacity:1;">
  <use xlink:href="#glyph1-1" x="134.208" y="6.072"/>
</g>
<g style="fill:rgb(0%,0%,0%);fill-opacity:1;">
  <use xlink:href="#glyph1-4" x="138.279304" y="6.072"/>
</g>
<g style="fill:rgb(0%,0%,0%);fill-opacity:1;">
  <use xlink:href="#glyph1-2" x="141.668571" y="6.072"/>
</g>
<g style="fill:rgb(0%,0%,0%);fill-opacity:1;">
  <use xlink:href="#glyph0-10" x="145.874" y="6.072"/>
</g>
<g style="fill:rgb(0%,0%,0%);fill-opacity:1;">
  <use xlink:href="#glyph1-3" x="127.292" y="37.633"/>
</g>
<g style="fill:rgb(0%,0%,0%);fill-opacity:1;">
  <use xlink:href="#glyph2-2" x="131.569" y="38.504"/>
</g>
<g style="fill:rgb(0%,0%,0%);fill-opacity:1;">
  <use xlink:href="#glyph3-1" x="81.711" y="41.5"/>
</g>
</g>
</g>
</svg>
