<?xml version="1.0" encoding="UTF-8"?>
<svg xmlns="http://www.w3.org/2000/svg" xmlns:xlink="http://www.w3.org/1999/xlink" width="330pt" height="165pt" viewBox="0 0 238 119" version="1.1">
<defs>
<g>
<symbol overflow="visible" id="glyph0-0">
<path style="stroke:none;" d=""/>
</symbol>
<symbol overflow="visible" id="glyph0-1">
<path style="stroke:none;" d="M 1.75 -4.84375 L 0.734375 0 C 1.765625 0 2.875 0.015625 3.875 0 C 3.9375 -0.125 3.9375 -0.265625 3.96875 -0.40625 L 1.359375 -0.40625 L 2.28125 -4.84375 L 1.75 -4.84375 Z M 1.75 -4.84375 "/>
</symbol>
<symbol overflow="visible" id="glyph0-2">
<path style="stroke:none;" d="M 1.765625 -4.84375 L 1.65625 -4.3125 L 0.734375 0 L 1.125 0 C 1.15625 0 1.25 0.015625 1.265625 -0.015625 C 1.296875 -0.0625 1.296875 -0.109375 1.296875 -0.15625 C 1.328125 -0.25 2.28125 -4.78125 2.296875 -4.84375 L 1.765625 -4.84375 Z M 1.765625 -4.84375 "/>
</symbol>
<symbol overflow="visible" id="glyph1-0">
<path style="stroke:none;" d=""/>
</symbol>
<symbol overflow="visible" id="glyph1-1">
<path style="stroke:none;" d="M 1.671875 -4.84375 L 0.640625 0 L 2.328125 0 C 2.53125 0 2.75 0 2.953125 0 C 3.609375 -0.0625 4.1875 -0.296875 4.515625 -0.75 C 4.78125 -1.125 4.953125 -1.734375 4.609375 -2.125 C 4.40625 -2.375 4.109375 -2.46875 3.765625 -2.53125 C 3.875 -2.5625 3.96875 -2.578125 4.0625 -2.609375 C 4.328125 -2.703125 4.578125 -2.828125 4.765625 -3.03125 C 5.09375 -3.390625 5.21875 -3.984375 4.90625 -4.375 C 4.8125 -4.5 4.671875 -4.59375 4.53125 -4.65625 C 4.15625 -4.84375 3.71875 -4.84375 3.296875 -4.84375 L 1.671875 -4.84375 Z M 2.03125 -2.734375 L 2.359375 -4.3125 L 3.03125 -4.3125 C 3.484375 -4.3125 3.9375 -4.3125 4.15625 -4.046875 C 4.453125 -3.75 4.21875 -3.265625 3.9375 -3.046875 C 3.59375 -2.75 3.109375 -2.734375 2.6875 -2.734375 L 2.03125 -2.734375 Z M 1.5625 -0.515625 C 1.578125 -0.65625 1.90625 -2.15625 1.90625 -2.15625 C 1.921875 -2.21875 1.921875 -2.296875 2 -2.296875 L 2.953125 -2.296875 C 3.328125 -2.28125 3.8125 -2.203125 3.953125 -1.8125 C 4.109375 -1.46875 3.9375 -1.0625 3.703125 -0.84375 C 3.578125 -0.75 3.4375 -0.671875 3.28125 -0.625 C 3 -0.515625 2.703125 -0.515625 2.40625 -0.515625 L 1.5625 -0.515625 Z M 1.5625 -0.515625 "/>
</symbol>
<symbol overflow="visible" id="glyph2-0">
<path style="stroke:none;" d=""/>
</symbol>
<symbol overflow="visible" id="glyph2-1">
<path style="stroke:none;" d="M 1.3125 -3.34375 C 1.1875 -3.328125 1.078125 -3.3125 0.96875 -3.265625 C 0.453125 -3.0625 0.265625 -2.390625 0.265625 -1.71875 C 0.265625 -1.609375 0.265625 -1.515625 0.265625 -1.40625 C 0.28125 -0.953125 0.390625 -0.5 0.65625 -0.21875 C 0.875 0.015625 1.203125 0.109375 1.5 0.078125 C 1.6875 0.0625 1.84375 -0.015625 1.984375 -0.09375 C 2.40625 -0.40625 2.5 -1.015625 2.5 -1.6875 C 2.5 -2.234375 2.40625 -2.71875 2.140625 -3.03125 C 1.9375 -3.25 1.609375 -3.375 1.3125 -3.34375 Z M 1.734375 -2.984375 C 1.78125 -2.953125 1.828125 -2.921875 1.875 -2.875 C 2.0625 -2.6875 2.125 -2.328125 2.140625 -2 C 2.140625 -1.9375 2.140625 -1.875 2.140625 -1.796875 L 2.140625 -1.546875 C 2.140625 -1.109375 2.09375 -0.703125 1.90625 -0.453125 C 1.65625 -0.125 1.125 -0.109375 0.875 -0.4375 C 0.8125 -0.515625 0.765625 -0.59375 0.734375 -0.671875 C 0.640625 -0.921875 0.625 -1.25 0.625 -1.5625 L 0.625 -1.8125 C 0.625 -1.890625 0.640625 -1.9375 0.640625 -2.015625 C 0.640625 -2.40625 0.734375 -2.796875 1 -2.953125 C 1.1875 -3.078125 1.5 -3.109375 1.734375 -2.984375 Z M 1.734375 -2.984375 "/>
</symbol>
<symbol overflow="visible" id="glyph3-0">
<path style="stroke:none;" d=""/>
</symbol>
<symbol overflow="visible" id="glyph3-1">
<path style="stroke:none;" d="M 0.734375 -4.828125 L 0.734375 0 L 1.265625 0 L 1.265625 -4.40625 L 3.890625 -4.40625 L 3.890625 -4.828125 L 0.734375 -4.828125 Z M 0.734375 -4.828125 "/>
</symbol>
<symbol overflow="visible" id="glyph3-2">
<path style="stroke:none;" d="M 0.734375 -4.84375 L 0.734375 0 L 3.890625 0 L 3.890625 -0.40625 L 1.265625 -0.40625 L 1.265625 -4.84375 L 0.734375 -4.84375 Z M 0.734375 -4.84375 "/>
</symbol>
<symbol overflow="visible" id="glyph3-3">
<path style="stroke:none;" d="M 0.734375 -4.84375 L 0.734375 0 L 1.265625 0 L 1.265625 -4.84375 L 0.734375 -4.84375 Z M 0.734375 -4.84375 "/>
</symbol>
<symbol overflow="visible" id="glyph3-4">
<path style="stroke:none;" d="M 0.75 -4.84375 L 0.75 0 L 1.234375 0 L 1.234375 -4.40625 L 1.234375 -4.40625 L 1.4375 -4.0625 L 3.015625 -1.3125 C 3.265625 -0.875 3.5 -0.4375 3.75 -0.015625 C 3.96875 0.03125 4.25 -0.015625 4.484375 0 L 4.484375 -4.84375 L 4 -4.84375 L 4 -0.421875 L 2.1875 -3.59375 C 1.953125 -4 1.734375 -4.4375 1.484375 -4.828125 C 1.28125 -4.859375 0.984375 -4.828125 0.75 -4.84375 Z M 0.75 -4.84375 "/>
</symbol>
<symbol overflow="visible" id="glyph3-5">
<path style="stroke:none;" d="M 0.734375 -4.828125 L 0.734375 0 L 4.328125 0 L 4.328125 -0.4375 L 1.265625 -0.4375 L 1.265625 -2.296875 L 4 -2.296875 L 4 -2.703125 L 1.265625 -2.703125 L 1.265625 -4.40625 L 4.203125 -4.40625 L 4.203125 -4.828125 L 0.734375 -4.828125 Z M 0.734375 -4.828125 "/>
</symbol>
<symbol overflow="visible" id="glyph3-6">
<path style="stroke:none;" d="M 0.4375 -0.90625 C 0.421875 -0.84375 0.328125 -0.40625 0.34375 -0.375 C 0.359375 -0.359375 0.390625 -0.34375 0.40625 -0.328125 L 0.578125 -0.25 C 1.234375 0.09375 2.359375 0.296875 3.109375 -0.125 C 3.5 -0.328125 3.875 -0.765625 3.875 -1.296875 C 3.875 -2.015625 3.296875 -2.453125 2.796875 -2.625 C 2.65625 -2.671875 2.140625 -2.78125 2.046875 -2.796875 C 1.6875 -2.875 1.296875 -2.96875 1.046875 -3.265625 C 1.015625 -3.3125 0.984375 -3.359375 0.96875 -3.421875 C 0.765625 -3.875 1.125 -4.265625 1.546875 -4.421875 C 2 -4.59375 2.578125 -4.546875 2.984375 -4.375 C 3.09375 -4.328125 3.21875 -4.265625 3.3125 -4.1875 C 3.375 -4.15625 3.4375 -4.109375 3.5 -4.0625 C 3.53125 -4.1875 3.546875 -4.328125 3.5625 -4.453125 C 3.578125 -4.546875 3.625 -4.609375 3.515625 -4.640625 L 3.34375 -4.71875 C 2.578125 -5.03125 1.546875 -5.078125 0.890625 -4.515625 C 0.796875 -4.453125 0.71875 -4.359375 0.640625 -4.265625 C 0.4375 -3.984375 0.34375 -3.546875 0.546875 -3.15625 C 0.71875 -2.8125 1.015625 -2.578125 1.390625 -2.4375 C 1.546875 -2.390625 1.6875 -2.359375 1.84375 -2.328125 C 2 -2.28125 2.5625 -2.171875 2.65625 -2.125 C 2.921875 -2.03125 3.1875 -1.859375 3.3125 -1.59375 C 3.375 -1.484375 3.390625 -1.375 3.390625 -1.203125 C 3.34375 -0.78125 2.96875 -0.5 2.59375 -0.390625 C 1.984375 -0.21875 1.296875 -0.40625 0.84375 -0.640625 C 0.703125 -0.71875 0.578125 -0.828125 0.4375 -0.90625 Z M 0.4375 -0.90625 "/>
</symbol>
<symbol overflow="visible" id="glyph3-7">
<path style="stroke:none;" d="M 1 -4.03125 C 0.265625 -3.125 0.234375 -1.75 0.96875 -0.84375 C 1.28125 -0.4375 1.703125 -0.140625 2.234375 0.015625 C 3.71875 0.421875 4.921875 -0.546875 5.25 -1.65625 C 5.53125 -2.578125 5.25 -3.640625 4.53125 -4.3125 C 4.171875 -4.640625 3.65625 -4.90625 3.046875 -4.9375 C 2.125 -5.015625 1.421875 -4.53125 1 -4.03125 Z M 3.484375 -4.453125 C 3.96875 -4.296875 4.359375 -3.96875 4.59375 -3.53125 C 4.734375 -3.265625 4.796875 -2.96875 4.828125 -2.671875 C 4.890625 -1.84375 4.546875 -0.9375 3.796875 -0.53125 C 3.421875 -0.328125 2.96875 -0.234375 2.484375 -0.34375 C 2.15625 -0.421875 1.859375 -0.59375 1.640625 -0.796875 C 1.21875 -1.1875 1 -1.765625 0.96875 -2.328125 C 0.90625 -3.34375 1.421875 -4.109375 2.140625 -4.390625 C 2.5625 -4.5625 3.03125 -4.59375 3.484375 -4.453125 Z M 3.484375 -4.453125 "/>
</symbol>
<symbol overflow="visible" id="glyph3-8">
<path style="stroke:none;" d="M 0.734375 -4.828125 L 0.734375 0 L 1.265625 0 L 1.265625 -2.203125 L 3.78125 -2.203125 L 3.78125 -2.625 L 1.265625 -2.625 L 1.265625 -4.40625 L 4.109375 -4.40625 L 4.109375 -4.828125 L 0.734375 -4.828125 Z M 0.734375 -4.828125 "/>
</symbol>
</g>
<clipPath id="clip1">
  <path d="M -187 666 L 425 666 L 425 -126 L -187 -126 L -187 666 Z M -187 666 "/>
</clipPath>
<clipPath id="clip2">
  <path d="M -0.375 103.425781 L 237.625 103.425781 L 237.625 -0.574219 L -0.375 -0.574219 L -0.375 103.425781 Z M -0.375 103.425781 "/>
</clipPath>
<clipPath id="clip3">
  <path d="M -0.375 103.425781 L 237.625 103.425781 L 237.625 -0.574219 L -0.375 -0.574219 L -0.375 103.425781 Z M -0.375 103.425781 "/>
</clipPath>
<clipPath id="clip4">
  <path d="M -187 666 L 425 666 L 425 -126 L -187 -126 L -187 666 Z M -187 666 "/>
</clipPath>
<clipPath id="clip5">
  <path d="M -0.375 103.425781 L 237.625 103.425781 L 237.625 -0.574219 L -0.375 -0.574219 L -0.375 103.425781 Z M -0.375 103.425781 "/>
</clipPath>
<clipPath id="clip6">
  <path d="M 236.804688 65.480469 C 236.804688 57.585938 233.667969 50.015625 228.085938 44.433594 C 222.503906 38.855469 214.933594 35.71875 207.039063 35.71875 C 199.148438 35.71875 191.578125 38.855469 185.996094 44.433594 C 180.414063 50.015625 177.277344 57.585938 177.277344 65.480469 C 177.277344 73.375 180.414063 80.945313 185.996094 86.527344 C 191.578125 92.109375 199.148438 95.246094 207.039063 95.246094 C 214.933594 95.246094 222.503906 92.109375 228.085938 86.527344 C 233.667969 80.945313 236.804688 73.375 236.804688 65.480469 "/>
</clipPath>
<clipPath id="clip7">
  <path d="M -0.375 103.425781 L 237.625 103.425781 L 237.625 -0.574219 L -0.375 -0.574219 L -0.375 103.425781 Z M -0.375 103.425781 "/>
</clipPath>
<clipPath id="clip8">
  <path d="M -187 666 L 425 666 L 425 -126 L -187 -126 L -187 666 Z M -187 666 "/>
</clipPath>
<clipPath id="clip9">
  <path d="M -0.375 103.425781 L 237.625 103.425781 L 237.625 -0.574219 L -0.375 -0.574219 L -0.375 103.425781 Z M -0.375 103.425781 "/>
</clipPath>
<clipPath id="clip10">
  <path d="M -0.375 103.425781 L 237.625 103.425781 L 237.625 -0.574219 L -0.375 -0.574219 L -0.375 103.425781 Z M -0.375 103.425781 "/>
</clipPath>
<clipPath id="clip11">
  <path d="M -187 666 L 425 666 L 425 -126 L -187 -126 L -187 666 Z M -187 666 "/>
</clipPath>
</defs>
<g id="surface0">
<g clip-path="url(#clip1)" clip-rule="nonzero">
<g clip-path="url(#clip2)" clip-rule="nonzero">
<g clip-path="url(#clip3)" clip-rule="nonzero">
<path style="fill:none;stroke-width:0.48;stroke-linecap:round;stroke-linejoin:round;stroke:rgb(0%,0%,0%);stroke-opacity:1;stroke-dasharray:3,3;stroke-miterlimit:10;" d="M 6.15725 64.874219 L 11.825219 11.014844 " transform="matrix(1,0,0,-1,-0.376,103.425)"/>
<path style="fill:none;stroke-width:0.48;stroke-linecap:round;stroke-linejoin:round;stroke:rgb(0%,0%,0%);stroke-opacity:1;stroke-dasharray:1.5,1.5;stroke-miterlimit:10;" d="M 11.825219 64.874219 C 11.825219 65.624219 11.528344 66.346875 10.997094 66.878125 C 10.465844 67.409375 9.743188 67.70625 8.993188 67.70625 C 8.239281 67.70625 7.520531 67.409375 6.985375 66.878125 C 6.454125 66.346875 6.15725 65.624219 6.15725 64.874219 C 6.15725 64.120312 6.454125 63.401562 6.985375 62.870312 C 7.520531 62.335156 8.239281 62.038281 8.993188 62.038281 C 9.743188 62.038281 10.465844 62.335156 10.997094 62.870312 C 11.528344 63.401562 11.825219 64.120312 11.825219 64.874219 Z M 17.497094 11.014844 C 17.497094 11.76875 17.196313 12.4875 16.665063 13.01875 C 16.133813 13.55 15.411156 13.850781 14.661156 13.850781 C 13.90725 13.850781 13.1885 13.55 12.65725 13.01875 C 12.126 12.4875 11.825219 11.76875 11.825219 11.014844 C 11.825219 10.264844 12.126 9.542187 12.65725 9.010937 C 13.1885 8.479687 13.90725 8.178906 14.661156 8.178906 C 15.411156 8.178906 16.133813 8.479687 16.665063 9.010937 C 17.196313 9.542187 17.497094 10.264844 17.497094 11.014844 Z M 17.497094 11.014844 " transform="matrix(1,0,0,-1,-0.376,103.425)"/>
<path style=" stroke:none;fill-rule:nonzero;fill:rgb(0%,0%,0%);fill-opacity:1;" d="M 9.039063 38.550781 C 9.039063 38.4375 8.996094 38.332031 8.914063 38.25 C 8.835938 38.171875 8.730469 38.128906 8.617188 38.128906 C 8.503906 38.128906 8.394531 38.171875 8.316406 38.25 C 8.234375 38.332031 8.191406 38.4375 8.191406 38.550781 C 8.191406 38.664063 8.234375 38.773438 8.316406 38.851563 C 8.394531 38.933594 8.503906 38.976563 8.617188 38.976563 C 8.730469 38.976563 8.835938 38.933594 8.914063 38.851563 C 8.996094 38.773438 9.039063 38.664063 9.039063 38.550781 "/>
<path style="fill:none;stroke-width:0.48;stroke-linecap:round;stroke-linejoin:round;stroke:rgb(0%,0%,0%);stroke-opacity:1;stroke-miterlimit:10;" d="M 12.65725 13.01875 L 16.665063 9.010937 M 16.665063 13.01875 L 12.65725 9.010937 " transform="matrix(1,0,0,-1,-0.376,103.425)"/>
<path style="fill:none;stroke-width:0.48;stroke-linecap:round;stroke-linejoin:round;stroke:rgb(0%,0%,0%);stroke-opacity:1;stroke-dasharray:3,3;stroke-miterlimit:10;" d="M 11.825219 64.874219 L 17.497094 11.014844 " transform="matrix(1,0,0,-1,-0.376,103.425)"/>
<path style="fill:none;stroke-width:0.48;stroke-linecap:round;stroke-linejoin:round;stroke:rgb(0%,0%,0%);stroke-opacity:1;stroke-dasharray:1.5,1.5;stroke-miterlimit:10;" d="M 17.497094 64.874219 C 17.497094 65.624219 17.196313 66.346875 16.665063 66.878125 C 16.133813 67.409375 15.411156 67.70625 14.661156 67.70625 C 13.90725 67.70625 13.1885 67.409375 12.65725 66.878125 C 12.126 66.346875 11.825219 65.624219 11.825219 64.874219 C 11.825219 64.120312 12.126 63.401562 12.65725 62.870312 C 13.1885 62.335156 13.90725 62.038281 14.661156 62.038281 C 15.411156 62.038281 16.133813 62.335156 16.665063 62.870312 C 17.196313 63.401562 17.497094 64.120312 17.497094 64.874219 Z M 23.165063 11.014844 C 23.165063 11.76875 22.864281 12.4875 22.336938 13.01875 C 21.801781 13.55 21.083031 13.850781 20.329125 13.850781 C 19.579125 13.850781 18.856469 13.55 18.325219 13.01875 C 17.793969 12.4875 17.497094 11.76875 17.497094 11.014844 C 17.497094 10.264844 17.793969 9.542187 18.325219 9.010937 C 18.856469 8.479687 19.579125 8.178906 20.329125 8.178906 C 21.083031 8.178906 21.801781 8.479687 22.336938 9.010937 C 22.864281 9.542187 23.165063 10.264844 23.165063 11.014844 Z M 23.165063 11.014844 " transform="matrix(1,0,0,-1,-0.376,103.425)"/>
<path style=" stroke:none;fill-rule:nonzero;fill:rgb(0%,0%,0%);fill-opacity:1;" d="M 14.710938 38.550781 C 14.710938 38.4375 14.664063 38.332031 14.585938 38.25 C 14.507813 38.171875 14.398438 38.128906 14.285156 38.128906 C 14.171875 38.128906 14.0625 38.171875 13.984375 38.25 C 13.90625 38.332031 13.859375 38.4375 13.859375 38.550781 C 13.859375 38.664063 13.90625 38.773438 13.984375 38.851563 C 14.0625 38.933594 14.171875 38.976563 14.285156 38.976563 C 14.398438 38.976563 14.507813 38.933594 14.585938 38.851563 C 14.664063 38.773438 14.710938 38.664063 14.710938 38.550781 "/>
<path style="fill:none;stroke-width:0.48;stroke-linecap:round;stroke-linejoin:round;stroke:rgb(0%,0%,0%);stroke-opacity:1;stroke-miterlimit:10;" d="M 18.325219 13.01875 L 22.336938 9.010937 M 22.336938 13.01875 L 18.325219 9.010937 M 17.497094 64.874219 L 23.165063 11.014844 M 23.165063 64.874219 C 23.165063 65.624219 22.864281 66.346875 22.336938 66.878125 C 21.801781 67.409375 21.083031 67.70625 20.329125 67.70625 C 19.579125 67.70625 18.856469 67.409375 18.325219 66.878125 C 17.793969 66.346875 17.497094 65.624219 17.497094 64.874219 C 17.497094 64.120312 17.793969 63.401562 18.325219 62.870312 C 18.856469 62.335156 19.579125 62.038281 20.329125 62.038281 C 21.083031 62.038281 21.801781 62.335156 22.336938 62.870312 C 22.864281 63.401562 23.165063 64.120312 23.165063 64.874219 Z M 28.833031 11.014844 C 28.833031 11.76875 28.536156 12.4875 28.004906 13.01875 C 27.473656 13.55 26.751 13.850781 26.001 13.850781 C 25.247094 13.850781 24.528344 13.55 23.993188 13.01875 C 23.465844 12.4875 23.165063 11.76875 23.165063 11.014844 C 23.165063 10.264844 23.465844 9.542187 23.993188 9.010937 C 24.528344 8.479687 25.247094 8.178906 26.001 8.178906 C 26.751 8.178906 27.473656 8.479687 28.004906 9.010937 C 28.536156 9.542187 28.833031 10.264844 28.833031 11.014844 Z M 28.833031 11.014844 " transform="matrix(1,0,0,-1,-0.376,103.425)"/>
<path style=" stroke:none;fill-rule:nonzero;fill:rgb(0%,0%,0%);fill-opacity:1;" d="M 20.378906 38.550781 C 20.378906 38.4375 20.335938 38.332031 20.253906 38.25 C 20.175781 38.171875 20.066406 38.128906 19.953125 38.128906 C 19.84375 38.128906 19.734375 38.171875 19.652344 38.25 C 19.574219 38.332031 19.527344 38.4375 19.527344 38.550781 C 19.527344 38.664063 19.574219 38.773438 19.652344 38.851563 C 19.734375 38.933594 19.84375 38.976563 19.953125 38.976563 C 20.066406 38.976563 20.175781 38.933594 20.253906 38.851563 C 20.335938 38.773438 20.378906 38.664063 20.378906 38.550781 "/>
<path style="fill:none;stroke-width:0.48;stroke-linecap:round;stroke-linejoin:round;stroke:rgb(0%,0%,0%);stroke-opacity:1;stroke-miterlimit:10;" d="M 23.993188 13.01875 L 28.004906 9.010937 M 28.004906 13.01875 L 23.993188 9.010937 M 23.165063 64.874219 L 28.833031 11.014844 M 28.833031 64.874219 C 28.833031 65.624219 28.536156 66.346875 28.004906 66.878125 C 27.473656 67.409375 26.751 67.70625 26.001 67.70625 C 25.247094 67.70625 24.528344 67.409375 23.993188 66.878125 C 23.465844 66.346875 23.165063 65.624219 23.165063 64.874219 C 23.165063 64.120312 23.465844 63.401562 23.993188 62.870312 C 24.528344 62.335156 25.247094 62.038281 26.001 62.038281 C 26.751 62.038281 27.473656 62.335156 28.004906 62.870312 C 28.536156 63.401562 28.833031 64.120312 28.833031 64.874219 Z M 34.504906 11.014844 C 34.504906 11.76875 34.204125 12.4875 33.672875 13.01875 C 33.141625 13.55 32.422875 13.850781 31.668969 13.850781 C 30.915063 13.850781 30.196313 13.55 29.665063 13.01875 C 29.133813 12.4875 28.833031 11.76875 28.833031 11.014844 C 28.833031 10.264844 29.133813 9.542187 29.665063 9.010937 C 30.196313 8.479687 30.915063 8.178906 31.668969 8.178906 C 32.422875 8.178906 33.141625 8.479687 33.672875 9.010937 C 34.204125 9.542187 34.504906 10.264844 34.504906 11.014844 Z M 34.504906 11.014844 " transform="matrix(1,0,0,-1,-0.376,103.425)"/>
<path style=" stroke:none;fill-rule:nonzero;fill:rgb(0%,0%,0%);fill-opacity:1;" d="M 26.050781 38.550781 C 26.050781 38.4375 26.003906 38.332031 25.925781 38.25 C 25.84375 38.171875 25.734375 38.128906 25.625 38.128906 C 25.511719 38.128906 25.402344 38.171875 25.324219 38.25 C 25.242188 38.332031 25.199219 38.4375 25.199219 38.550781 C 25.199219 38.664063 25.242188 38.773438 25.324219 38.851563 C 25.402344 38.933594 25.511719 38.976563 25.625 38.976563 C 25.734375 38.976563 25.84375 38.933594 25.925781 38.851563 C 26.003906 38.773438 26.050781 38.664063 26.050781 38.550781 "/>
<path style="fill:none;stroke-width:0.48;stroke-linecap:round;stroke-linejoin:round;stroke:rgb(0%,0%,0%);stroke-opacity:1;stroke-miterlimit:10;" d="M 29.665063 13.01875 L 33.672875 9.010937 M 33.672875 13.01875 L 29.665063 9.010937 M 28.833031 64.874219 L 34.504906 11.014844 M 34.504906 64.874219 C 34.504906 65.624219 34.204125 66.346875 33.672875 66.878125 C 33.141625 67.409375 32.422875 67.70625 31.668969 67.70625 C 30.915063 67.70625 30.196313 67.409375 29.665063 66.878125 C 29.133813 66.346875 28.833031 65.624219 28.833031 64.874219 C 28.833031 64.120312 29.133813 63.401562 29.665063 62.870312 C 30.196313 62.335156 30.915063 62.038281 31.668969 62.038281 C 32.422875 62.038281 33.141625 62.335156 33.672875 62.870312 C 34.204125 63.401562 34.504906 64.120312 34.504906 64.874219 Z M 40.172875 11.014844 C 40.172875 11.76875 39.872094 12.4875 39.34475 13.01875 C 38.809594 13.55 38.090844 13.850781 37.336938 13.850781 C 36.586938 13.850781 35.864281 13.55 35.333031 13.01875 C 34.801781 12.4875 34.504906 11.76875 34.504906 11.014844 C 34.504906 10.264844 34.801781 9.542187 35.333031 9.010937 C 35.864281 8.479687 36.586938 8.178906 37.336938 8.178906 C 38.090844 8.178906 38.809594 8.479687 39.34475 9.010937 C 39.872094 9.542187 40.172875 10.264844 40.172875 11.014844 Z M 40.172875 11.014844 " transform="matrix(1,0,0,-1,-0.376,103.425)"/>
<path style=" stroke:none;fill-rule:nonzero;fill:rgb(0%,0%,0%);fill-opacity:1;" d="M 31.71875 38.550781 C 31.71875 38.4375 31.671875 38.332031 31.59375 38.25 C 31.515625 38.171875 31.40625 38.128906 31.292969 38.128906 C 31.179688 38.128906 31.070313 38.171875 30.992188 38.25 C 30.914063 38.332031 30.867188 38.4375 30.867188 38.550781 C 30.867188 38.664063 30.914063 38.773438 30.992188 38.851563 C 31.070313 38.933594 31.179688 38.976563 31.292969 38.976563 C 31.40625 38.976563 31.515625 38.933594 31.59375 38.851563 C 31.671875 38.773438 31.71875 38.664063 31.71875 38.550781 "/>
<path style="fill:none;stroke-width:0.48;stroke-linecap:round;stroke-linejoin:round;stroke:rgb(0%,0%,0%);stroke-opacity:1;stroke-miterlimit:10;" d="M 35.333031 13.01875 L 39.34475 9.010937 M 39.34475 13.01875 L 35.333031 9.010937 M 34.504906 64.874219 L 40.172875 11.014844 M 40.172875 64.874219 C 40.172875 65.624219 39.872094 66.346875 39.34475 66.878125 C 38.809594 67.409375 38.090844 67.70625 37.336938 67.70625 C 36.586938 67.70625 35.864281 67.409375 35.333031 66.878125 C 34.801781 66.346875 34.504906 65.624219 34.504906 64.874219 C 34.504906 64.120312 34.801781 63.401562 35.333031 62.870312 C 35.864281 62.335156 36.586938 62.038281 37.336938 62.038281 C 38.090844 62.038281 38.809594 62.335156 39.34475 62.870312 C 39.872094 63.401562 40.172875 64.120312 40.172875 64.874219 Z M 45.840844 11.014844 C 45.840844 11.76875 45.543969 12.4875 45.012719 13.01875 C 44.481469 13.55 43.758813 13.850781 43.008813 13.850781 C 42.254906 13.850781 41.536156 13.55 41.004906 13.01875 C 40.473656 12.4875 40.172875 11.76875 40.172875 11.014844 C 40.172875 10.264844 40.473656 9.542187 41.004906 9.010937 C 41.536156 8.479687 42.254906 8.178906 43.008813 8.178906 C 43.758813 8.178906 44.481469 8.479687 45.012719 9.010937 C 45.543969 9.542187 45.840844 10.264844 45.840844 11.014844 Z M 45.840844 11.014844 " transform="matrix(1,0,0,-1,-0.376,103.425)"/>
<path style=" stroke:none;fill-rule:nonzero;fill:rgb(0%,0%,0%);fill-opacity:1;" d="M 37.386719 38.550781 C 37.386719 38.4375 37.34375 38.332031 37.261719 38.25 C 37.183594 38.171875 37.074219 38.128906 36.960938 38.128906 C 36.847656 38.128906 36.742188 38.171875 36.660156 38.25 C 36.582031 38.332031 36.535156 38.4375 36.535156 38.550781 C 36.535156 38.664063 36.582031 38.773438 36.660156 38.851563 C 36.742188 38.933594 36.847656 38.976563 36.960938 38.976563 C 37.074219 38.976563 37.183594 38.933594 37.261719 38.851563 C 37.34375 38.773438 37.386719 38.664063 37.386719 38.550781 "/>
<path style="fill:none;stroke-width:0.48;stroke-linecap:round;stroke-linejoin:round;stroke:rgb(0%,0%,0%);stroke-opacity:1;stroke-miterlimit:10;" d="M 41.004906 13.01875 L 45.012719 9.010937 M 45.012719 13.01875 L 41.004906 9.010937 M 40.172875 64.874219 L 45.840844 11.014844 M 45.840844 64.874219 C 45.840844 65.624219 45.543969 66.346875 45.012719 66.878125 C 44.481469 67.409375 43.758813 67.70625 43.008813 67.70625 C 42.254906 67.70625 41.536156 67.409375 41.004906 66.878125 C 40.473656 66.346875 40.172875 65.624219 40.172875 64.874219 C 40.172875 64.120312 40.473656 63.401562 41.004906 62.870312 C 41.536156 62.335156 42.254906 62.038281 43.008813 62.038281 C 43.758813 62.038281 44.481469 62.335156 45.012719 62.870312 C 45.543969 63.401562 45.840844 64.120312 45.840844 64.874219 Z M 51.512719 11.014844 C 51.512719 11.76875 51.211938 12.4875 50.680688 13.01875 C 50.149438 13.55 49.430688 13.850781 48.676781 13.850781 C 47.926781 13.850781 47.204125 13.55 46.672875 13.01875 C 46.141625 12.4875 45.840844 11.76875 45.840844 11.014844 C 45.840844 10.264844 46.141625 9.542187 46.672875 9.010937 C 47.204125 8.479687 47.926781 8.178906 48.676781 8.178906 C 49.430688 8.178906 50.149438 8.479687 50.680688 9.010937 C 51.211938 9.542187 51.512719 10.264844 51.512719 11.014844 Z M 51.512719 11.014844 " transform="matrix(1,0,0,-1,-0.376,103.425)"/>
<path style=" stroke:none;fill-rule:nonzero;fill:rgb(0%,0%,0%);fill-opacity:1;" d="M 43.058594 38.550781 C 43.058594 38.4375 43.011719 38.332031 42.933594 38.25 C 42.851563 38.171875 42.742188 38.128906 42.632813 38.128906 C 42.519531 38.128906 42.410156 38.171875 42.332031 38.25 C 42.25 38.332031 42.207031 38.4375 42.207031 38.550781 C 42.207031 38.664063 42.25 38.773438 42.332031 38.851563 C 42.410156 38.933594 42.519531 38.976563 42.632813 38.976563 C 42.742188 38.976563 42.851563 38.933594 42.933594 38.851563 C 43.011719 38.773438 43.058594 38.664063 43.058594 38.550781 "/>
<path style="fill:none;stroke-width:0.48;stroke-linecap:round;stroke-linejoin:round;stroke:rgb(0%,0%,0%);stroke-opacity:1;stroke-miterlimit:10;" d="M 46.672875 13.01875 L 50.680688 9.010937 M 50.680688 13.01875 L 46.672875 9.010937 M 45.840844 64.874219 L 51.512719 11.014844 M 51.512719 64.874219 C 51.512719 65.624219 51.211938 66.346875 50.680688 66.878125 C 50.149438 67.409375 49.430688 67.70625 48.676781 67.70625 C 47.926781 67.70625 47.204125 67.409375 46.672875 66.878125 C 46.141625 66.346875 45.840844 65.624219 45.840844 64.874219 C 45.840844 64.120312 46.141625 63.401562 46.672875 62.870312 C 47.204125 62.335156 47.926781 62.038281 48.676781 62.038281 C 49.430688 62.038281 50.149438 62.335156 50.680688 62.870312 C 51.211938 63.401562 51.512719 64.120312 51.512719 64.874219 Z M 57.180688 11.014844 C 57.180688 11.76875 56.883813 12.4875 56.348656 13.01875 C 55.817406 13.55 55.098656 13.850781 54.34475 13.850781 C 53.59475 13.850781 52.872094 13.55 52.340844 13.01875 C 51.809594 12.4875 51.512719 11.76875 51.512719 11.014844 C 51.512719 10.264844 51.809594 9.542187 52.340844 9.010937 C 52.872094 8.479687 53.59475 8.178906 54.34475 8.178906 C 55.098656 8.178906 55.817406 8.479687 56.348656 9.010937 C 56.883813 9.542187 57.180688 10.264844 57.180688 11.014844 Z M 57.180688 11.014844 " transform="matrix(1,0,0,-1,-0.376,103.425)"/>
<path style=" stroke:none;fill-rule:nonzero;fill:rgb(0%,0%,0%);fill-opacity:1;" d="M 48.726563 38.550781 C 48.726563 38.4375 48.679688 38.332031 48.601563 38.25 C 48.523438 38.171875 48.414063 38.128906 48.300781 38.128906 C 48.1875 38.128906 48.078125 38.171875 48 38.25 C 47.921875 38.332031 47.875 38.4375 47.875 38.550781 C 47.875 38.664063 47.921875 38.773438 48 38.851563 C 48.078125 38.933594 48.1875 38.976563 48.300781 38.976563 C 48.414063 38.976563 48.523438 38.933594 48.601563 38.851563 C 48.679688 38.773438 48.726563 38.664063 48.726563 38.550781 "/>
<path style="fill:none;stroke-width:0.48;stroke-linecap:round;stroke-linejoin:round;stroke:rgb(0%,0%,0%);stroke-opacity:1;stroke-miterlimit:10;" d="M 52.340844 13.01875 L 56.348656 9.010937 M 56.348656 13.01875 L 52.340844 9.010937 M 51.512719 64.874219 L 57.180688 11.014844 M 57.180688 64.874219 C 57.180688 65.624219 56.883813 66.346875 56.348656 66.878125 C 55.817406 67.409375 55.098656 67.70625 54.34475 67.70625 C 53.59475 67.70625 52.872094 67.409375 52.340844 66.878125 C 51.809594 66.346875 51.512719 65.624219 51.512719 64.874219 C 51.512719 64.120312 51.809594 63.401562 52.340844 62.870312 C 52.872094 62.335156 53.59475 62.038281 54.34475 62.038281 C 55.098656 62.038281 55.817406 62.335156 56.348656 62.870312 C 56.883813 63.401562 57.180688 64.120312 57.180688 64.874219 Z M 62.848656 11.014844 C 62.848656 11.76875 62.551781 12.4875 62.020531 13.01875 C 61.489281 13.55 60.766625 13.850781 60.016625 13.850781 C 59.262719 13.850781 58.543969 13.55 58.012719 13.01875 C 57.477563 12.4875 57.180688 11.76875 57.180688 11.014844 C 57.180688 10.264844 57.477563 9.542187 58.012719 9.010937 C 58.543969 8.479687 59.262719 8.178906 60.016625 8.178906 C 60.766625 8.178906 61.489281 8.479687 62.020531 9.010937 C 62.551781 9.542187 62.848656 10.264844 62.848656 11.014844 Z M 62.848656 11.014844 " transform="matrix(1,0,0,-1,-0.376,103.425)"/>
<path style=" stroke:none;fill-rule:nonzero;fill:rgb(0%,0%,0%);fill-opacity:1;" d="M 54.394531 38.550781 C 54.394531 38.4375 54.351563 38.332031 54.269531 38.25 C 54.191406 38.171875 54.082031 38.128906 53.96875 38.128906 C 53.855469 38.128906 53.75 38.171875 53.667969 38.25 C 53.589844 38.332031 53.546875 38.4375 53.546875 38.550781 C 53.546875 38.664063 53.589844 38.773438 53.667969 38.851563 C 53.75 38.933594 53.855469 38.976563 53.96875 38.976563 C 54.082031 38.976563 54.191406 38.933594 54.269531 38.851563 C 54.351563 38.773438 54.394531 38.664063 54.394531 38.550781 "/>
<path style="fill:none;stroke-width:0.48;stroke-linecap:round;stroke-linejoin:round;stroke:rgb(0%,0%,0%);stroke-opacity:1;stroke-miterlimit:10;" d="M 58.012719 13.01875 L 62.020531 9.010937 M 62.020531 13.01875 L 58.012719 9.010937 M 57.180688 64.874219 L 62.848656 11.014844 M 62.848656 64.874219 C 62.848656 65.624219 62.551781 66.346875 62.020531 66.878125 C 61.489281 67.409375 60.766625 67.70625 60.016625 67.70625 C 59.262719 67.70625 58.543969 67.409375 58.012719 66.878125 C 57.477563 66.346875 57.180688 65.624219 57.180688 64.874219 C 57.180688 64.120312 57.477563 63.401562 58.012719 62.870312 C 58.543969 62.335156 59.262719 62.038281 60.016625 62.038281 C 60.766625 62.038281 61.489281 62.335156 62.020531 62.870312 C 62.551781 63.401562 62.848656 64.120312 62.848656 64.874219 Z M 68.520531 11.014844 C 68.520531 11.76875 68.21975 12.4875 67.6885 13.01875 C 67.15725 13.55 66.434594 13.850781 65.684594 13.850781 C 64.934594 13.850781 64.211938 13.55 63.680688 13.01875 C 63.149438 12.4875 62.848656 11.76875 62.848656 11.014844 C 62.848656 10.264844 63.149438 9.542187 63.680688 9.010937 C 64.211938 8.479687 64.934594 8.178906 65.684594 8.178906 C 66.434594 8.178906 67.15725 8.479687 67.6885 9.010937 C 68.21975 9.542187 68.520531 10.264844 68.520531 11.014844 Z M 68.520531 11.014844 " transform="matrix(1,0,0,-1,-0.376,103.425)"/>
<path style=" stroke:none;fill-rule:nonzero;fill:rgb(0%,0%,0%);fill-opacity:1;" d="M 60.066406 38.550781 C 60.066406 38.4375 60.019531 38.332031 59.941406 38.25 C 59.859375 38.171875 59.753906 38.128906 59.640625 38.128906 C 59.527344 38.128906 59.417969 38.171875 59.339844 38.25 C 59.257813 38.332031 59.214844 38.4375 59.214844 38.550781 C 59.214844 38.664063 59.257813 38.773438 59.339844 38.851563 C 59.417969 38.933594 59.527344 38.976563 59.640625 38.976563 C 59.753906 38.976563 59.859375 38.933594 59.941406 38.851563 C 60.019531 38.773438 60.066406 38.664063 60.066406 38.550781 "/>
<path style="fill:none;stroke-width:0.48;stroke-linecap:round;stroke-linejoin:round;stroke:rgb(0%,0%,0%);stroke-opacity:1;stroke-miterlimit:10;" d="M 63.680688 13.01875 L 67.6885 9.010937 M 67.6885 13.01875 L 63.680688 9.010937 M 62.848656 64.874219 L 68.520531 11.014844 M 68.520531 64.874219 C 68.520531 65.624219 68.21975 66.346875 67.6885 66.878125 C 67.15725 67.409375 66.434594 67.70625 65.684594 67.70625 C 64.934594 67.70625 64.211938 67.409375 63.680688 66.878125 C 63.149438 66.346875 62.848656 65.624219 62.848656 64.874219 C 62.848656 64.120312 63.149438 63.401562 63.680688 62.870312 C 64.211938 62.335156 64.934594 62.038281 65.684594 62.038281 C 66.434594 62.038281 67.15725 62.335156 67.6885 62.870312 C 68.21975 63.401562 68.520531 64.120312 68.520531 64.874219 Z M 74.1885 11.014844 C 74.1885 11.76875 73.891625 12.4875 73.356469 13.01875 C 72.825219 13.55 72.106469 13.850781 71.352563 13.850781 C 70.602563 13.850781 69.879906 13.55 69.348656 13.01875 C 68.817406 12.4875 68.520531 11.76875 68.520531 11.014844 C 68.520531 10.264844 68.817406 9.542187 69.348656 9.010937 C 69.879906 8.479687 70.602563 8.178906 71.352563 8.178906 C 72.106469 8.178906 72.825219 8.479687 73.356469 9.010937 C 73.891625 9.542187 74.1885 10.264844 74.1885 11.014844 Z M 74.1885 11.014844 " transform="matrix(1,0,0,-1,-0.376,103.425)"/>
<path style=" stroke:none;fill-rule:nonzero;fill:rgb(0%,0%,0%);fill-opacity:1;" d="M 65.734375 38.550781 C 65.734375 38.4375 65.6875 38.332031 65.609375 38.25 C 65.53125 38.171875 65.421875 38.128906 65.308594 38.128906 C 65.195313 38.128906 65.089844 38.171875 65.007813 38.25 C 64.929688 38.332031 64.882813 38.4375 64.882813 38.550781 C 64.882813 38.664063 64.929688 38.773438 65.007813 38.851563 C 65.089844 38.933594 65.195313 38.976563 65.308594 38.976563 C 65.421875 38.976563 65.53125 38.933594 65.609375 38.851563 C 65.6875 38.773438 65.734375 38.664063 65.734375 38.550781 "/>
<path style="fill:none;stroke-width:0.48;stroke-linecap:round;stroke-linejoin:round;stroke:rgb(0%,0%,0%);stroke-opacity:1;stroke-miterlimit:10;" d="M 69.348656 13.01875 L 73.356469 9.010937 M 73.356469 13.01875 L 69.348656 9.010937 M 68.520531 64.874219 L 74.1885 11.014844 M 74.1885 64.874219 C 74.1885 65.624219 73.891625 66.346875 73.356469 66.878125 C 72.825219 67.409375 72.106469 67.70625 71.352563 67.70625 C 70.602563 67.70625 69.879906 67.409375 69.348656 66.878125 C 68.817406 66.346875 68.520531 65.624219 68.520531 64.874219 C 68.520531 64.120312 68.817406 63.401562 69.348656 62.870312 C 69.879906 62.335156 70.602563 62.038281 71.352563 62.038281 C 72.106469 62.038281 72.825219 62.335156 73.356469 62.870312 C 73.891625 63.401562 74.1885 64.120312 74.1885 64.874219 Z M 79.856469 11.014844 C 79.856469 11.76875 79.559594 12.4875 79.028344 13.01875 C 78.497094 13.55 77.774438 13.850781 77.024438 13.850781 C 76.270531 13.850781 75.551781 13.55 75.020531 13.01875 C 74.485375 12.4875 74.1885 11.76875 74.1885 11.014844 C 74.1885 10.264844 74.485375 9.542187 75.020531 9.010937 C 75.551781 8.479687 76.270531 8.178906 77.024438 8.178906 C 77.774438 8.178906 78.497094 8.479687 79.028344 9.010937 C 79.559594 9.542187 79.856469 10.264844 79.856469 11.014844 Z M 79.856469 11.014844 " transform="matrix(1,0,0,-1,-0.376,103.425)"/>
<path style=" stroke:none;fill-rule:nonzero;fill:rgb(0%,0%,0%);fill-opacity:1;" d="M 71.402344 38.550781 C 71.402344 38.4375 71.359375 38.332031 71.277344 38.25 C 71.199219 38.171875 71.089844 38.128906 70.976563 38.128906 C 70.863281 38.128906 70.757813 38.171875 70.675781 38.25 C 70.597656 38.332031 70.554688 38.4375 70.554688 38.550781 C 70.554688 38.664063 70.597656 38.773438 70.675781 38.851563 C 70.757813 38.933594 70.863281 38.976563 70.976563 38.976563 C 71.089844 38.976563 71.199219 38.933594 71.277344 38.851563 C 71.359375 38.773438 71.402344 38.664063 71.402344 38.550781 "/>
<path style="fill:none;stroke-width:0.48;stroke-linecap:round;stroke-linejoin:round;stroke:rgb(0%,0%,0%);stroke-opacity:1;stroke-miterlimit:10;" d="M 75.020531 13.01875 L 79.028344 9.010937 M 79.028344 13.01875 L 75.020531 9.010937 M 74.1885 64.874219 L 79.856469 11.014844 M 79.856469 64.874219 C 79.856469 65.624219 79.559594 66.346875 79.028344 66.878125 C 78.497094 67.409375 77.774438 67.70625 77.024438 67.70625 C 76.270531 67.70625 75.551781 67.409375 75.020531 66.878125 C 74.485375 66.346875 74.1885 65.624219 74.1885 64.874219 C 74.1885 64.120312 74.485375 63.401562 75.020531 62.870312 C 75.551781 62.335156 76.270531 62.038281 77.024438 62.038281 C 77.774438 62.038281 78.497094 62.335156 79.028344 62.870312 C 79.559594 63.401562 79.856469 64.120312 79.856469 64.874219 Z M 85.528344 11.014844 C 85.528344 11.76875 85.227563 12.4875 84.696313 13.01875 C 84.165063 13.55 83.442406 13.850781 82.692406 13.850781 C 81.942406 13.850781 81.21975 13.55 80.6885 13.01875 C 80.15725 12.4875 79.856469 11.76875 79.856469 11.014844 C 79.856469 10.264844 80.15725 9.542187 80.6885 9.010937 C 81.21975 8.479687 81.942406 8.178906 82.692406 8.178906 C 83.442406 8.178906 84.165063 8.479687 84.696313 9.010937 C 85.227563 9.542187 85.528344 10.264844 85.528344 11.014844 Z M 85.528344 11.014844 " transform="matrix(1,0,0,-1,-0.376,103.425)"/>
<path style=" stroke:none;fill-rule:nonzero;fill:rgb(0%,0%,0%);fill-opacity:1;" d="M 77.070313 38.550781 C 77.070313 38.4375 77.027344 38.332031 76.949219 38.25 C 76.867188 38.171875 76.761719 38.128906 76.648438 38.128906 C 76.535156 38.128906 76.425781 38.171875 76.347656 38.25 C 76.265625 38.332031 76.222656 38.4375 76.222656 38.550781 C 76.222656 38.664063 76.265625 38.773438 76.347656 38.851563 C 76.425781 38.933594 76.535156 38.976563 76.648438 38.976563 C 76.761719 38.976563 76.867188 38.933594 76.949219 38.851563 C 77.027344 38.773438 77.070313 38.664063 77.070313 38.550781 "/>
<path style="fill:none;stroke-width:0.48;stroke-linecap:round;stroke-linejoin:round;stroke:rgb(0%,0%,0%);stroke-opacity:1;stroke-miterlimit:10;" d="M 80.6885 13.01875 L 84.696313 9.010937 M 84.696313 13.01875 L 80.6885 9.010937 M 79.856469 64.874219 L 85.528344 11.014844 M 85.528344 64.874219 C 85.528344 65.624219 85.227563 66.346875 84.696313 66.878125 C 84.165063 67.409375 83.442406 67.70625 82.692406 67.70625 C 81.942406 67.70625 81.21975 67.409375 80.6885 66.878125 C 80.15725 66.346875 79.856469 65.624219 79.856469 64.874219 C 79.856469 64.120312 80.15725 63.401562 80.6885 62.870312 C 81.21975 62.335156 81.942406 62.038281 82.692406 62.038281 C 83.442406 62.038281 84.165063 62.335156 84.696313 62.870312 C 85.227563 63.401562 85.528344 64.120312 85.528344 64.874219 Z M 91.196313 11.014844 C 91.196313 11.76875 90.899438 12.4875 90.364281 13.01875 C 89.836938 13.55 89.114281 13.850781 88.360375 13.850781 C 87.610375 13.850781 86.887719 13.55 86.356469 13.01875 C 85.825219 12.4875 85.528344 11.76875 85.528344 11.014844 C 85.528344 10.264844 85.825219 9.542187 86.356469 9.010937 C 86.887719 8.479687 87.610375 8.178906 88.360375 8.178906 C 89.114281 8.178906 89.836938 8.479687 90.364281 9.010937 C 90.899438 9.542187 91.196313 10.264844 91.196313 11.014844 Z M 91.196313 11.014844 " transform="matrix(1,0,0,-1,-0.376,103.425)"/>
<path style=" stroke:none;fill-rule:nonzero;fill:rgb(0%,0%,0%);fill-opacity:1;" d="M 82.742188 38.550781 C 82.742188 38.4375 82.695313 38.332031 82.617188 38.25 C 82.535156 38.171875 82.429688 38.128906 82.316406 38.128906 C 82.203125 38.128906 82.097656 38.171875 82.015625 38.25 C 81.9375 38.332031 81.890625 38.4375 81.890625 38.550781 C 81.890625 38.664063 81.9375 38.773438 82.015625 38.851563 C 82.097656 38.933594 82.203125 38.976563 82.316406 38.976563 C 82.429688 38.976563 82.535156 38.933594 82.617188 38.851563 C 82.695313 38.773438 82.742188 38.664063 82.742188 38.550781 "/>
<path style="fill:none;stroke-width:0.48;stroke-linecap:round;stroke-linejoin:round;stroke:rgb(0%,0%,0%);stroke-opacity:1;stroke-miterlimit:10;" d="M 86.356469 13.01875 L 90.364281 9.010937 M 90.364281 13.01875 L 86.356469 9.010937 M 85.528344 64.874219 L 91.196313 11.014844 M 91.196313 64.874219 C 91.196313 65.624219 90.899438 66.346875 90.364281 66.878125 C 89.836938 67.409375 89.114281 67.70625 88.360375 67.70625 C 87.610375 67.70625 86.887719 67.409375 86.356469 66.878125 C 85.825219 66.346875 85.528344 65.624219 85.528344 64.874219 C 85.528344 64.120312 85.825219 63.401562 86.356469 62.870312 C 86.887719 62.335156 87.610375 62.038281 88.360375 62.038281 C 89.114281 62.038281 89.836938 62.335156 90.364281 62.870312 C 90.899438 63.401562 91.196313 64.120312 91.196313 64.874219 Z M 96.864281 11.014844 C 96.864281 11.76875 96.567406 12.4875 96.036156 13.01875 C 95.504906 13.55 94.78225 13.850781 94.03225 13.850781 C 93.278344 13.850781 92.559594 13.55 92.028344 13.01875 C 91.493188 12.4875 91.196313 11.76875 91.196313 11.014844 C 91.196313 10.264844 91.493188 9.542187 92.028344 9.010937 C 92.559594 8.479687 93.278344 8.178906 94.03225 8.178906 C 94.78225 8.178906 95.504906 8.479687 96.036156 9.010937 C 96.567406 9.542187 96.864281 10.264844 96.864281 11.014844 Z M 96.864281 11.014844 " transform="matrix(1,0,0,-1,-0.376,103.425)"/>
<path style=" stroke:none;fill-rule:nonzero;fill:rgb(0%,0%,0%);fill-opacity:1;" d="M 88.410156 38.550781 C 88.410156 38.4375 88.367188 38.332031 88.285156 38.25 C 88.207031 38.171875 88.097656 38.128906 87.984375 38.128906 C 87.871094 38.128906 87.765625 38.171875 87.683594 38.25 C 87.605469 38.332031 87.5625 38.4375 87.5625 38.550781 C 87.5625 38.664063 87.605469 38.773438 87.683594 38.851563 C 87.765625 38.933594 87.871094 38.976563 87.984375 38.976563 C 88.097656 38.976563 88.207031 38.933594 88.285156 38.851563 C 88.367188 38.773438 88.410156 38.664063 88.410156 38.550781 "/>
<path style="fill:none;stroke-width:0.48;stroke-linecap:round;stroke-linejoin:round;stroke:rgb(0%,0%,0%);stroke-opacity:1;stroke-miterlimit:10;" d="M 92.028344 13.01875 L 96.036156 9.010937 M 96.036156 13.01875 L 92.028344 9.010937 M 91.196313 64.874219 L 96.864281 11.014844 M 96.864281 64.874219 C 96.864281 65.624219 96.567406 66.346875 96.036156 66.878125 C 95.504906 67.409375 94.78225 67.70625 94.03225 67.70625 C 93.278344 67.70625 92.559594 67.409375 92.028344 66.878125 C 91.493188 66.346875 91.196313 65.624219 91.196313 64.874219 C 91.196313 64.120312 91.493188 63.401562 92.028344 62.870312 C 92.559594 62.335156 93.278344 62.038281 94.03225 62.038281 C 94.78225 62.038281 95.504906 62.335156 96.036156 62.870312 C 96.567406 63.401562 96.864281 64.120312 96.864281 64.874219 Z M 102.536156 11.014844 C 102.536156 11.76875 102.235375 12.4875 101.704125 13.01875 C 101.172875 13.55 100.450219 13.850781 99.700219 13.850781 C 98.950219 13.850781 98.227563 13.55 97.696313 13.01875 C 97.165063 12.4875 96.864281 11.76875 96.864281 11.014844 C 96.864281 10.264844 97.165063 9.542187 97.696313 9.010937 C 98.227563 8.479687 98.950219 8.178906 99.700219 8.178906 C 100.450219 8.178906 101.172875 8.479687 101.704125 9.010937 C 102.235375 9.542187 102.536156 10.264844 102.536156 11.014844 Z M 102.536156 11.014844 " transform="matrix(1,0,0,-1,-0.376,103.425)"/>
<path style=" stroke:none;fill-rule:nonzero;fill:rgb(0%,0%,0%);fill-opacity:1;" d="M 94.078125 38.550781 C 94.078125 38.4375 94.035156 38.332031 93.957031 38.25 C 93.875 38.171875 93.769531 38.128906 93.65625 38.128906 C 93.542969 38.128906 93.433594 38.171875 93.355469 38.25 C 93.273438 38.332031 93.230469 38.4375 93.230469 38.550781 C 93.230469 38.664063 93.273438 38.773438 93.355469 38.851563 C 93.433594 38.933594 93.542969 38.976563 93.65625 38.976563 C 93.769531 38.976563 93.875 38.933594 93.957031 38.851563 C 94.035156 38.773438 94.078125 38.664063 94.078125 38.550781 "/>
<path style="fill:none;stroke-width:0.48;stroke-linecap:round;stroke-linejoin:round;stroke:rgb(0%,0%,0%);stroke-opacity:1;stroke-miterlimit:10;" d="M 97.696313 13.01875 L 101.704125 9.010937 M 101.704125 13.01875 L 97.696313 9.010937 M 96.864281 64.874219 L 102.536156 11.014844 M 102.536156 64.874219 C 102.536156 65.624219 102.235375 66.346875 101.704125 66.878125 C 101.172875 67.409375 100.450219 67.70625 99.700219 67.70625 C 98.950219 67.70625 98.227563 67.409375 97.696313 66.878125 C 97.165063 66.346875 96.864281 65.624219 96.864281 64.874219 C 96.864281 64.120312 97.165063 63.401562 97.696313 62.870312 C 98.227563 62.335156 98.950219 62.038281 99.700219 62.038281 C 100.450219 62.038281 101.172875 62.335156 101.704125 62.870312 C 102.235375 63.401562 102.536156 64.120312 102.536156 64.874219 Z M 108.204125 11.014844 C 108.204125 11.76875 107.90725 12.4875 107.372094 13.01875 C 106.840844 13.55 106.122094 13.850781 105.368188 13.850781 C 104.618188 13.850781 103.895531 13.55 103.364281 13.01875 C 102.833031 12.4875 102.536156 11.76875 102.536156 11.014844 C 102.536156 10.264844 102.833031 9.542187 103.364281 9.010937 C 103.895531 8.479687 104.618188 8.178906 105.368188 8.178906 C 106.122094 8.178906 106.840844 8.479687 107.372094 9.010937 C 107.90725 9.542187 108.204125 10.264844 108.204125 11.014844 Z M 108.204125 11.014844 " transform="matrix(1,0,0,-1,-0.376,103.425)"/>
<path style=" stroke:none;fill-rule:nonzero;fill:rgb(0%,0%,0%);fill-opacity:1;" d="M 99.75 38.550781 C 99.75 38.4375 99.703125 38.332031 99.625 38.25 C 99.546875 38.171875 99.4375 38.128906 99.324219 38.128906 C 99.210938 38.128906 99.101563 38.171875 99.023438 38.25 C 98.945313 38.332031 98.898438 38.4375 98.898438 38.550781 C 98.898438 38.664063 98.945313 38.773438 99.023438 38.851563 C 99.101563 38.933594 99.210938 38.976563 99.324219 38.976563 C 99.4375 38.976563 99.546875 38.933594 99.625 38.851563 C 99.703125 38.773438 99.75 38.664063 99.75 38.550781 "/>
<path style="fill:none;stroke-width:0.48;stroke-linecap:round;stroke-linejoin:round;stroke:rgb(0%,0%,0%);stroke-opacity:1;stroke-miterlimit:10;" d="M 103.364281 13.01875 L 107.372094 9.010937 M 107.372094 13.01875 L 103.364281 9.010937 M 102.536156 64.874219 L 108.204125 11.014844 M 108.204125 64.874219 C 108.204125 65.624219 107.90725 66.346875 107.372094 66.878125 C 106.840844 67.409375 106.122094 67.70625 105.368188 67.70625 C 104.618188 67.70625 103.895531 67.409375 103.364281 66.878125 C 102.833031 66.346875 102.536156 65.624219 102.536156 64.874219 C 102.536156 64.120312 102.833031 63.401562 103.364281 62.870312 C 103.895531 62.335156 104.618188 62.038281 105.368188 62.038281 C 106.122094 62.038281 106.840844 62.335156 107.372094 62.870312 C 107.90725 63.401562 108.204125 64.120312 108.204125 64.874219 Z M 113.872094 11.014844 C 113.872094 11.76875 113.575219 12.4875 113.043969 13.01875 C 112.512719 13.55 111.790063 13.850781 111.040063 13.850781 C 110.286156 13.850781 109.567406 13.55 109.036156 13.01875 C 108.504906 12.4875 108.204125 11.76875 108.204125 11.014844 C 108.204125 10.264844 108.504906 9.542187 109.036156 9.010937 C 109.567406 8.479687 110.286156 8.178906 111.040063 8.178906 C 111.790063 8.178906 112.512719 8.479687 113.043969 9.010937 C 113.575219 9.542187 113.872094 10.264844 113.872094 11.014844 Z M 113.872094 11.014844 " transform="matrix(1,0,0,-1,-0.376,103.425)"/>
<path style=" stroke:none;fill-rule:nonzero;fill:rgb(0%,0%,0%);fill-opacity:1;" d="M 105.417969 38.550781 C 105.417969 38.4375 105.375 38.332031 105.292969 38.25 C 105.214844 38.171875 105.105469 38.128906 104.992188 38.128906 C 104.882813 38.128906 104.773438 38.171875 104.691406 38.25 C 104.613281 38.332031 104.566406 38.4375 104.566406 38.550781 C 104.566406 38.664063 104.613281 38.773438 104.691406 38.851563 C 104.773438 38.933594 104.882813 38.976563 104.992188 38.976563 C 105.105469 38.976563 105.214844 38.933594 105.292969 38.851563 C 105.375 38.773438 105.417969 38.664063 105.417969 38.550781 "/>
<path style="fill:none;stroke-width:0.48;stroke-linecap:round;stroke-linejoin:round;stroke:rgb(0%,0%,0%);stroke-opacity:1;stroke-miterlimit:10;" d="M 109.03225 13.01875 L 113.043969 9.010937 M 113.043969 13.01875 L 109.03225 9.010937 M 108.204125 64.874219 L 113.872094 11.014844 M 113.872094 64.874219 C 113.872094 65.624219 113.575219 66.346875 113.043969 66.878125 C 112.512719 67.409375 111.790063 67.70625 111.040063 67.70625 C 110.286156 67.70625 109.567406 67.409375 109.036156 66.878125 C 108.504906 66.346875 108.204125 65.624219 108.204125 64.874219 C 108.204125 64.120312 108.504906 63.401562 109.036156 62.870312 C 109.567406 62.335156 110.286156 62.038281 111.040063 62.038281 C 111.790063 62.038281 112.512719 62.335156 113.043969 62.870312 C 113.575219 63.401562 113.872094 64.120312 113.872094 64.874219 Z M 119.543969 11.014844 C 119.543969 11.76875 119.243188 12.4875 118.711938 13.01875 C 118.180688 13.55 117.461938 13.850781 116.708031 13.850781 C 115.954125 13.850781 115.235375 13.55 114.704125 13.01875 C 114.172875 12.4875 113.872094 11.76875 113.872094 11.014844 C 113.872094 10.264844 114.172875 9.542187 114.704125 9.010937 C 115.235375 8.479687 115.954125 8.178906 116.708031 8.178906 C 117.461938 8.178906 118.180688 8.479687 118.711938 9.010937 C 119.243188 9.542187 119.543969 10.264844 119.543969 11.014844 Z M 119.543969 11.014844 " transform="matrix(1,0,0,-1,-0.376,103.425)"/>
<path style=" stroke:none;fill-rule:nonzero;fill:rgb(0%,0%,0%);fill-opacity:1;" d="M 111.089844 38.550781 C 111.089844 38.4375 111.042969 38.332031 110.964844 38.25 C 110.882813 38.171875 110.777344 38.128906 110.664063 38.128906 C 110.550781 38.128906 110.441406 38.171875 110.363281 38.25 C 110.28125 38.332031 110.238281 38.4375 110.238281 38.550781 C 110.238281 38.664063 110.28125 38.773438 110.363281 38.851563 C 110.441406 38.933594 110.550781 38.976563 110.664063 38.976563 C 110.777344 38.976563 110.882813 38.933594 110.964844 38.851563 C 111.042969 38.773438 111.089844 38.664063 111.089844 38.550781 "/>
<path style="fill:none;stroke-width:0.48;stroke-linecap:round;stroke-linejoin:round;stroke:rgb(0%,0%,0%);stroke-opacity:1;stroke-miterlimit:10;" d="M 114.704125 13.01875 L 118.711938 9.010937 M 118.711938 13.01875 L 114.704125 9.010937 M 113.872094 64.874219 L 119.543969 11.014844 M 119.543969 64.874219 C 119.543969 65.624219 119.243188 66.346875 118.711938 66.878125 C 118.180688 67.409375 117.461938 67.70625 116.708031 67.70625 C 115.954125 67.70625 115.235375 67.409375 114.704125 66.878125 C 114.172875 66.346875 113.872094 65.624219 113.872094 64.874219 C 113.872094 64.120312 114.172875 63.401562 114.704125 62.870312 C 115.235375 62.335156 115.954125 62.038281 116.708031 62.038281 C 117.461938 62.038281 118.180688 62.335156 118.711938 62.870312 C 119.243188 63.401562 119.543969 64.120312 119.543969 64.874219 Z M 125.211938 11.014844 C 125.211938 11.76875 124.911156 12.4875 124.383813 13.01875 C 123.848656 13.55 123.129906 13.850781 122.376 13.850781 C 121.626 13.850781 120.903344 13.55 120.372094 13.01875 C 119.840844 12.4875 119.543969 11.76875 119.543969 11.014844 C 119.543969 10.264844 119.840844 9.542187 120.372094 9.010937 C 120.903344 8.479687 121.626 8.178906 122.376 8.178906 C 123.129906 8.178906 123.848656 8.479687 124.383813 9.010937 C 124.911156 9.542187 125.211938 10.264844 125.211938 11.014844 Z M 125.211938 11.014844 " transform="matrix(1,0,0,-1,-0.376,103.425)"/>
<path style=" stroke:none;fill-rule:nonzero;fill:rgb(0%,0%,0%);fill-opacity:1;" d="M 116.757813 38.550781 C 116.757813 38.4375 116.714844 38.332031 116.632813 38.25 C 116.554688 38.171875 116.445313 38.128906 116.332031 38.128906 C 116.21875 38.128906 116.109375 38.171875 116.03125 38.25 C 115.953125 38.332031 115.90625 38.4375 115.90625 38.550781 C 115.90625 38.664063 115.953125 38.773438 116.03125 38.851563 C 116.109375 38.933594 116.21875 38.976563 116.332031 38.976563 C 116.445313 38.976563 116.554688 38.933594 116.632813 38.851563 C 116.714844 38.773438 116.757813 38.664063 116.757813 38.550781 "/>
<path style="fill:none;stroke-width:0.48;stroke-linecap:round;stroke-linejoin:round;stroke:rgb(0%,0%,0%);stroke-opacity:1;stroke-miterlimit:10;" d="M 120.372094 13.01875 L 124.383813 9.010937 M 124.383813 13.01875 L 120.372094 9.010937 M 119.543969 64.874219 L 125.211938 11.014844 M 125.211938 64.874219 C 125.211938 65.624219 124.911156 66.346875 124.383813 66.878125 C 123.848656 67.409375 123.129906 67.70625 122.376 67.70625 C 121.626 67.70625 120.903344 67.409375 120.372094 66.878125 C 119.840844 66.346875 119.543969 65.624219 119.543969 64.874219 C 119.543969 64.120312 119.840844 63.401562 120.372094 62.870312 C 120.903344 62.335156 121.626 62.038281 122.376 62.038281 C 123.129906 62.038281 123.848656 62.335156 124.383813 62.870312 C 124.911156 63.401562 125.211938 64.120312 125.211938 64.874219 Z M 130.879906 11.014844 C 130.879906 11.76875 130.583031 12.4875 130.051781 13.01875 C 129.520531 13.55 128.797875 13.850781 128.047875 13.850781 C 127.293969 13.850781 126.575219 13.55 126.040063 13.01875 C 125.512719 12.4875 125.211938 11.76875 125.211938 11.014844 C 125.211938 10.264844 125.512719 9.542187 126.040063 9.010937 C 126.575219 8.479687 127.293969 8.178906 128.047875 8.178906 C 128.797875 8.178906 129.520531 8.479687 130.051781 9.010937 C 130.583031 9.542187 130.879906 10.264844 130.879906 11.014844 Z M 130.879906 11.014844 " transform="matrix(1,0,0,-1,-0.376,103.425)"/>
<path style=" stroke:none;fill-rule:nonzero;fill:rgb(0%,0%,0%);fill-opacity:1;" d="M 122.425781 38.550781 C 122.425781 38.4375 122.382813 38.332031 122.300781 38.25 C 122.222656 38.171875 122.113281 38.128906 122 38.128906 C 121.890625 38.128906 121.78125 38.171875 121.699219 38.25 C 121.621094 38.332031 121.574219 38.4375 121.574219 38.550781 C 121.574219 38.664063 121.621094 38.773438 121.699219 38.851563 C 121.78125 38.933594 121.890625 38.976563 122 38.976563 C 122.113281 38.976563 122.222656 38.933594 122.300781 38.851563 C 122.382813 38.773438 122.425781 38.664063 122.425781 38.550781 "/>
<path style="fill:none;stroke-width:0.48;stroke-linecap:round;stroke-linejoin:round;stroke:rgb(0%,0%,0%);stroke-opacity:1;stroke-miterlimit:10;" d="M 126.040063 13.01875 L 130.051781 9.010937 M 130.051781 13.01875 L 126.040063 9.010937 M 125.211938 64.874219 L 130.879906 11.014844 M 130.879906 64.874219 C 130.879906 65.624219 130.583031 66.346875 130.051781 66.878125 C 129.520531 67.409375 128.797875 67.70625 128.047875 67.70625 C 127.293969 67.70625 126.575219 67.409375 126.040063 66.878125 C 125.512719 66.346875 125.211938 65.624219 125.211938 64.874219 C 125.211938 64.120312 125.512719 63.401562 126.040063 62.870312 C 126.575219 62.335156 127.293969 62.038281 128.047875 62.038281 C 128.797875 62.038281 129.520531 62.335156 130.051781 62.870312 C 130.583031 63.401562 130.879906 64.120312 130.879906 64.874219 Z M 136.551781 11.014844 C 136.551781 11.76875 136.251 12.4875 135.71975 13.01875 C 135.1885 13.55 134.46975 13.850781 133.715844 13.850781 C 132.965844 13.850781 132.243188 13.55 131.711938 13.01875 C 131.180688 12.4875 130.879906 11.76875 130.879906 11.014844 C 130.879906 10.264844 131.180688 9.542187 131.711938 9.010937 C 132.243188 8.479687 132.965844 8.178906 133.715844 8.178906 C 134.46975 8.178906 135.1885 8.479687 135.71975 9.010937 C 136.251 9.542187 136.551781 10.264844 136.551781 11.014844 Z M 136.551781 11.014844 " transform="matrix(1,0,0,-1,-0.376,103.425)"/>
<path style=" stroke:none;fill-rule:nonzero;fill:rgb(0%,0%,0%);fill-opacity:1;" d="M 128.097656 38.550781 C 128.097656 38.4375 128.050781 38.332031 127.972656 38.25 C 127.890625 38.171875 127.78125 38.128906 127.671875 38.128906 C 127.558594 38.128906 127.449219 38.171875 127.371094 38.25 C 127.289063 38.332031 127.246094 38.4375 127.246094 38.550781 C 127.246094 38.664063 127.289063 38.773438 127.371094 38.851563 C 127.449219 38.933594 127.558594 38.976563 127.671875 38.976563 C 127.78125 38.976563 127.890625 38.933594 127.972656 38.851563 C 128.050781 38.773438 128.097656 38.664063 128.097656 38.550781 "/>
<path style="fill:none;stroke-width:0.48;stroke-linecap:round;stroke-linejoin:round;stroke:rgb(0%,0%,0%);stroke-opacity:1;stroke-miterlimit:10;" d="M 131.711938 13.01875 L 135.71975 9.010937 M 135.71975 13.01875 L 131.711938 9.010937 M 130.879906 64.874219 L 136.551781 11.014844 M 136.551781 64.874219 C 136.551781 65.624219 136.251 66.346875 135.71975 66.878125 C 135.1885 67.409375 134.46975 67.70625 133.715844 67.70625 C 132.965844 67.70625 132.243188 67.409375 131.711938 66.878125 C 131.180688 66.346875 130.879906 65.624219 130.879906 64.874219 C 130.879906 64.120312 131.180688 63.401562 131.711938 62.870312 C 132.243188 62.335156 132.965844 62.038281 133.715844 62.038281 C 134.46975 62.038281 135.1885 62.335156 135.71975 62.870312 C 136.251 63.401562 136.551781 64.120312 136.551781 64.874219 Z M 142.21975 11.014844 C 142.21975 11.76875 141.922875 12.4875 141.391625 13.01875 C 140.856469 13.55 140.137719 13.850781 139.383813 13.850781 C 138.633813 13.850781 137.911156 13.55 137.379906 13.01875 C 136.848656 12.4875 136.551781 11.76875 136.551781 11.014844 C 136.551781 10.264844 136.848656 9.542187 137.379906 9.010937 C 137.911156 8.479687 138.633813 8.178906 139.383813 8.178906 C 140.137719 8.178906 140.856469 8.479687 141.391625 9.010937 C 141.922875 9.542187 142.21975 10.264844 142.21975 11.014844 Z M 142.21975 11.014844 " transform="matrix(1,0,0,-1,-0.376,103.425)"/>
<path style=" stroke:none;fill-rule:nonzero;fill:rgb(0%,0%,0%);fill-opacity:1;" d="M 133.765625 38.550781 C 133.765625 38.4375 133.71875 38.332031 133.640625 38.25 C 133.5625 38.171875 133.453125 38.128906 133.339844 38.128906 C 133.226563 38.128906 133.117188 38.171875 133.039063 38.25 C 132.960938 38.332031 132.914063 38.4375 132.914063 38.550781 C 132.914063 38.664063 132.960938 38.773438 133.039063 38.851563 C 133.117188 38.933594 133.226563 38.976563 133.339844 38.976563 C 133.453125 38.976563 133.5625 38.933594 133.640625 38.851563 C 133.71875 38.773438 133.765625 38.664063 133.765625 38.550781 "/>
<path style="fill:none;stroke-width:0.48;stroke-linecap:round;stroke-linejoin:round;stroke:rgb(0%,0%,0%);stroke-opacity:1;stroke-miterlimit:10;" d="M 137.379906 13.01875 L 141.391625 9.010937 M 141.391625 13.01875 L 137.379906 9.010937 M 136.551781 64.874219 L 142.21975 11.014844 M 142.21975 64.874219 C 142.21975 65.624219 141.922875 66.346875 141.391625 66.878125 C 140.856469 67.409375 140.137719 67.70625 139.383813 67.70625 C 138.633813 67.70625 137.911156 67.409375 137.379906 66.878125 C 136.848656 66.346875 136.551781 65.624219 136.551781 64.874219 C 136.551781 64.120312 136.848656 63.401562 137.379906 62.870312 C 137.911156 62.335156 138.633813 62.038281 139.383813 62.038281 C 140.137719 62.038281 140.856469 62.335156 141.391625 62.870312 C 141.922875 63.401562 142.21975 64.120312 142.21975 64.874219 Z M 147.887719 11.014844 C 147.887719 11.76875 147.590844 12.4875 147.059594 13.01875 C 146.528344 13.55 145.805688 13.850781 145.055688 13.850781 C 144.301781 13.850781 143.583031 13.55 143.051781 13.01875 C 142.520531 12.4875 142.21975 11.76875 142.21975 11.014844 C 142.21975 10.264844 142.520531 9.542187 143.051781 9.010937 C 143.583031 8.479687 144.301781 8.178906 145.055688 8.178906 C 145.805688 8.178906 146.528344 8.479687 147.059594 9.010937 C 147.590844 9.542187 147.887719 10.264844 147.887719 11.014844 Z M 147.887719 11.014844 " transform="matrix(1,0,0,-1,-0.376,103.425)"/>
<path style=" stroke:none;fill-rule:nonzero;fill:rgb(0%,0%,0%);fill-opacity:1;" d="M 139.433594 38.550781 C 139.433594 38.4375 139.390625 38.332031 139.308594 38.25 C 139.230469 38.171875 139.121094 38.128906 139.007813 38.128906 C 138.894531 38.128906 138.789063 38.171875 138.710938 38.25 C 138.628906 38.332031 138.585938 38.4375 138.585938 38.550781 C 138.585938 38.664063 138.628906 38.773438 138.710938 38.851563 C 138.789063 38.933594 138.894531 38.976563 139.007813 38.976563 C 139.121094 38.976563 139.230469 38.933594 139.308594 38.851563 C 139.390625 38.773438 139.433594 38.664063 139.433594 38.550781 "/>
<path style="fill:none;stroke-width:0.48;stroke-linecap:round;stroke-linejoin:round;stroke:rgb(0%,0%,0%);stroke-opacity:1;stroke-miterlimit:10;" d="M 143.051781 13.01875 L 147.059594 9.010937 M 147.059594 13.01875 L 143.051781 9.010937 M 142.21975 64.874219 L 147.887719 11.014844 M 147.887719 64.874219 C 147.887719 65.624219 147.590844 66.346875 147.059594 66.878125 C 146.528344 67.409375 145.805688 67.70625 145.055688 67.70625 C 144.301781 67.70625 143.583031 67.409375 143.051781 66.878125 C 142.520531 66.346875 142.21975 65.624219 142.21975 64.874219 C 142.21975 64.120312 142.520531 63.401562 143.051781 62.870312 C 143.583031 62.335156 144.301781 62.038281 145.055688 62.038281 C 145.805688 62.038281 146.528344 62.335156 147.059594 62.870312 C 147.590844 63.401562 147.887719 64.120312 147.887719 64.874219 Z M 153.559594 11.014844 C 153.559594 11.76875 153.258813 12.4875 152.727563 13.01875 C 152.196313 13.55 151.477563 13.850781 150.723656 13.850781 C 149.973656 13.850781 149.251 13.55 148.71975 13.01875 C 148.1885 12.4875 147.887719 11.76875 147.887719 11.014844 C 147.887719 10.264844 148.1885 9.542187 148.71975 9.010937 C 149.251 8.479687 149.973656 8.178906 150.723656 8.178906 C 151.477563 8.178906 152.196313 8.479687 152.727563 9.010937 C 153.258813 9.542187 153.559594 10.264844 153.559594 11.014844 Z M 153.559594 11.014844 " transform="matrix(1,0,0,-1,-0.376,103.425)"/>
<path style=" stroke:none;fill-rule:nonzero;fill:rgb(0%,0%,0%);fill-opacity:1;" d="M 145.105469 38.550781 C 145.105469 38.4375 145.058594 38.332031 144.980469 38.25 C 144.898438 38.171875 144.789063 38.128906 144.679688 38.128906 C 144.566406 38.128906 144.457031 38.171875 144.378906 38.25 C 144.296875 38.332031 144.253906 38.4375 144.253906 38.550781 C 144.253906 38.664063 144.296875 38.773438 144.378906 38.851563 C 144.457031 38.933594 144.566406 38.976563 144.679688 38.976563 C 144.789063 38.976563 144.898438 38.933594 144.980469 38.851563 C 145.058594 38.773438 145.105469 38.664063 145.105469 38.550781 "/>
<path style="fill:none;stroke-width:0.48;stroke-linecap:round;stroke-linejoin:round;stroke:rgb(0%,0%,0%);stroke-opacity:1;stroke-miterlimit:10;" d="M 148.71975 13.01875 L 152.727563 9.010937 M 152.727563 13.01875 L 148.71975 9.010937 " transform="matrix(1,0,0,-1,-0.376,103.425)"/>
<path style="fill:none;stroke-width:0.48;stroke-linecap:round;stroke-linejoin:round;stroke:rgb(0%,0%,0%);stroke-opacity:1;stroke-dasharray:3,3;stroke-miterlimit:10;" d="M 147.887719 64.874219 L 153.559594 11.014844 " transform="matrix(1,0,0,-1,-0.376,103.425)"/>
<path style="fill:none;stroke-width:0.48;stroke-linecap:round;stroke-linejoin:round;stroke:rgb(0%,0%,0%);stroke-opacity:1;stroke-dasharray:1.5,1.5;stroke-miterlimit:10;" d="M 153.559594 64.874219 C 153.559594 65.624219 153.258813 66.346875 152.727563 66.878125 C 152.196313 67.409375 151.477563 67.70625 150.723656 67.70625 C 149.973656 67.70625 149.251 67.409375 148.71975 66.878125 C 148.1885 66.346875 147.887719 65.624219 147.887719 64.874219 C 147.887719 64.120312 148.1885 63.401562 148.71975 62.870312 C 149.251 62.335156 149.973656 62.038281 150.723656 62.038281 C 151.477563 62.038281 152.196313 62.335156 152.727563 62.870312 C 153.258813 63.401562 153.559594 64.120312 153.559594 64.874219 Z M 159.227563 11.014844 C 159.227563 11.76875 158.930688 12.4875 158.395531 13.01875 C 157.864281 13.55 157.145531 13.850781 156.391625 13.850781 C 155.641625 13.850781 154.918969 13.55 154.387719 13.01875 C 153.856469 12.4875 153.559594 11.76875 153.559594 11.014844 C 153.559594 10.264844 153.856469 9.542187 154.387719 9.010937 C 154.918969 8.479687 155.641625 8.178906 156.391625 8.178906 C 157.145531 8.178906 157.864281 8.479687 158.395531 9.010937 C 158.930688 9.542187 159.227563 10.264844 159.227563 11.014844 Z M 159.227563 11.014844 " transform="matrix(1,0,0,-1,-0.376,103.425)"/>
<path style=" stroke:none;fill-rule:nonzero;fill:rgb(0%,0%,0%);fill-opacity:1;" d="M 150.773438 38.550781 C 150.773438 38.4375 150.726563 38.332031 150.648438 38.25 C 150.570313 38.171875 150.460938 38.128906 150.347656 38.128906 C 150.234375 38.128906 150.128906 38.171875 150.046875 38.25 C 149.96875 38.332031 149.921875 38.4375 149.921875 38.550781 C 149.921875 38.664063 149.96875 38.773438 150.046875 38.851563 C 150.128906 38.933594 150.234375 38.976563 150.347656 38.976563 C 150.460938 38.976563 150.570313 38.933594 150.648438 38.851563 C 150.726563 38.773438 150.773438 38.664063 150.773438 38.550781 "/>
<path style="fill:none;stroke-width:0.48;stroke-linecap:round;stroke-linejoin:round;stroke:rgb(0%,0%,0%);stroke-opacity:1;stroke-miterlimit:10;" d="M 154.387719 13.01875 L 158.399438 9.010937 M 158.399438 13.01875 L 154.387719 9.010937 " transform="matrix(1,0,0,-1,-0.376,103.425)"/>
<path style="fill:none;stroke-width:0.48;stroke-linecap:round;stroke-linejoin:round;stroke:rgb(0%,0%,0%);stroke-opacity:1;stroke-dasharray:3,3;stroke-miterlimit:10;" d="M 153.559594 64.874219 L 159.227563 11.014844 " transform="matrix(1,0,0,-1,-0.376,103.425)"/>
<path style="fill:none;stroke-width:0.48;stroke-linecap:round;stroke-linejoin:round;stroke:rgb(0%,0%,0%);stroke-opacity:1;stroke-dasharray:1.5,1.5;stroke-miterlimit:10;" d="M 159.227563 64.874219 C 159.227563 65.624219 158.930688 66.346875 158.395531 66.878125 C 157.864281 67.409375 157.145531 67.70625 156.391625 67.70625 C 155.641625 67.70625 154.918969 67.409375 154.387719 66.878125 C 153.856469 66.346875 153.559594 65.624219 153.559594 64.874219 C 153.559594 64.120312 153.856469 63.401562 154.387719 62.870312 C 154.918969 62.335156 155.641625 62.038281 156.391625 62.038281 C 157.145531 62.038281 157.864281 62.335156 158.395531 62.870312 C 158.930688 63.401562 159.227563 64.120312 159.227563 64.874219 Z M 164.895531 11.014844 C 164.895531 11.76875 164.598656 12.4875 164.067406 13.01875 C 163.536156 13.55 162.8135 13.850781 162.0635 13.850781 C 161.309594 13.850781 160.590844 13.55 160.059594 13.01875 C 159.524438 12.4875 159.227563 11.76875 159.227563 11.014844 C 159.227563 10.264844 159.524438 9.542187 160.059594 9.010937 C 160.590844 8.479687 161.309594 8.178906 162.0635 8.178906 C 162.8135 8.178906 163.536156 8.479687 164.067406 9.010937 C 164.598656 9.542187 164.895531 10.264844 164.895531 11.014844 Z M 164.895531 11.014844 " transform="matrix(1,0,0,-1,-0.376,103.425)"/>
<path style=" stroke:none;fill-rule:nonzero;fill:rgb(0%,0%,0%);fill-opacity:1;" d="M 156.441406 38.550781 C 156.441406 38.4375 156.398438 38.332031 156.316406 38.25 C 156.238281 38.171875 156.128906 38.128906 156.015625 38.128906 C 155.902344 38.128906 155.796875 38.171875 155.714844 38.25 C 155.636719 38.332031 155.59375 38.4375 155.59375 38.550781 C 155.59375 38.664063 155.636719 38.773438 155.714844 38.851563 C 155.796875 38.933594 155.902344 38.976563 156.015625 38.976563 C 156.128906 38.976563 156.238281 38.933594 156.316406 38.851563 C 156.398438 38.773438 156.441406 38.664063 156.441406 38.550781 "/>
<path style="fill:none;stroke-width:0.48;stroke-linecap:round;stroke-linejoin:round;stroke:rgb(0%,0%,0%);stroke-opacity:1;stroke-miterlimit:10;" d="M 160.059594 13.01875 L 164.067406 9.010937 M 164.067406 13.01875 L 160.059594 9.010937 " transform="matrix(1,0,0,-1,-0.376,103.425)"/>
<path style="fill:none;stroke-width:0.48;stroke-linecap:round;stroke-linejoin:round;stroke:rgb(0%,0%,0%);stroke-opacity:1;stroke-dasharray:3,3;stroke-miterlimit:10;" d="M 159.227563 64.874219 L 164.895531 11.014844 " transform="matrix(1,0,0,-1,-0.376,103.425)"/>
<path style="fill:none;stroke-width:0.48;stroke-linecap:round;stroke-linejoin:round;stroke:rgb(0%,0%,0%);stroke-opacity:1;stroke-miterlimit:10;" d="M 5.262719 19.51875 L 90.301781 19.51875 " transform="matrix(1,0,0,-1,-0.376,103.425)"/>
<path style="fill-rule:nonzero;fill:rgb(0%,0%,0%);fill-opacity:1;stroke-width:0.48;stroke-linecap:round;stroke-linejoin:round;stroke:rgb(0%,0%,0%);stroke-opacity:1;stroke-miterlimit:10;" d="M 84.766625 18.292187 L 90.301781 19.51875 L 84.766625 20.745312 L 84.766625 18.292187 Z M 84.766625 18.292187 " transform="matrix(1,0,0,-1,-0.376,103.425)"/>
<path style="fill:none;stroke-width:0.48;stroke-linecap:round;stroke-linejoin:round;stroke:rgb(0%,0%,0%);stroke-opacity:1;stroke-miterlimit:10;" d="M 90.301781 19.51875 L 169.672875 19.51875 M 3.96975 31.803906 L 89.008813 31.803906 " transform="matrix(1,0,0,-1,-0.376,103.425)"/>
<path style="fill-rule:nonzero;fill:rgb(0%,0%,0%);fill-opacity:1;stroke-width:0.48;stroke-linecap:round;stroke-linejoin:round;stroke:rgb(0%,0%,0%);stroke-opacity:1;stroke-miterlimit:10;" d="M 83.473656 30.577344 L 89.008813 31.803906 L 83.473656 33.030469 L 83.473656 30.577344 Z M 83.473656 30.577344 " transform="matrix(1,0,0,-1,-0.376,103.425)"/>
<path style="fill:none;stroke-width:0.48;stroke-linecap:round;stroke-linejoin:round;stroke:rgb(0%,0%,0%);stroke-opacity:1;stroke-miterlimit:10;" d="M 89.008813 31.803906 L 168.379906 31.803906 M 2.676781 44.085156 L 87.715844 44.085156 " transform="matrix(1,0,0,-1,-0.376,103.425)"/>
<path style="fill-rule:nonzero;fill:rgb(0%,0%,0%);fill-opacity:1;stroke-width:0.48;stroke-linecap:round;stroke-linejoin:round;stroke:rgb(0%,0%,0%);stroke-opacity:1;stroke-miterlimit:10;" d="M 82.180688 42.858594 L 87.715844 44.085156 L 82.180688 45.311719 L 82.180688 42.858594 Z M 82.180688 42.858594 " transform="matrix(1,0,0,-1,-0.376,103.425)"/>
<path style="fill:none;stroke-width:0.48;stroke-linecap:round;stroke-linejoin:round;stroke:rgb(0%,0%,0%);stroke-opacity:1;stroke-miterlimit:10;" d="M 87.715844 44.085156 L 167.086938 44.085156 M 1.383813 56.370312 L 86.422875 56.370312 " transform="matrix(1,0,0,-1,-0.376,103.425)"/>
<path style="fill-rule:nonzero;fill:rgb(0%,0%,0%);fill-opacity:1;stroke-width:0.48;stroke-linecap:round;stroke-linejoin:round;stroke:rgb(0%,0%,0%);stroke-opacity:1;stroke-miterlimit:10;" d="M 80.887719 55.14375 L 86.422875 56.370312 L 80.887719 57.596875 L 80.887719 55.14375 Z M 80.887719 55.14375 " transform="matrix(1,0,0,-1,-0.376,103.425)"/>
<path style="fill:none;stroke-width:0.48;stroke-linecap:round;stroke-linejoin:round;stroke:rgb(0%,0%,0%);stroke-opacity:1;stroke-miterlimit:10;" d="M 86.422875 56.370312 L 165.793969 56.370312 " transform="matrix(1,0,0,-1,-0.376,103.425)"/>
<path style="fill:none;stroke-width:0.48;stroke-linecap:round;stroke-linejoin:round;stroke:rgb(0%,0%,0%);stroke-opacity:1;stroke-dasharray:2.1,2.1;stroke-miterlimit:10;" d="M 113.872094 80.464062 L 85.528344 80.464062 " transform="matrix(1,0,0,-1,-0.376,103.425)"/>
<path style="fill-rule:nonzero;fill:rgb(0%,0%,0%);fill-opacity:1;stroke-width:0.48;stroke-linecap:round;stroke-linejoin:round;stroke:rgb(0%,0%,0%);stroke-opacity:1;stroke-miterlimit:10;" d="M 89.676781 81.385937 L 85.528344 80.464062 L 89.676781 79.542187 L 89.676781 81.385937 Z M 89.676781 81.385937 " transform="matrix(1,0,0,-1,-0.376,103.425)"/>
<path style="fill:none;stroke-width:0.48;stroke-linecap:round;stroke-linejoin:round;stroke:rgb(0%,0%,0%);stroke-opacity:1;stroke-dasharray:2.1,2.1;stroke-miterlimit:10;" d="M 85.528344 80.464062 L 57.180688 80.464062 L 57.180688 69.124219 " transform="matrix(1,0,0,-1,-0.376,103.425)"/>
<path style="fill-rule:nonzero;fill:rgb(0%,0%,0%);fill-opacity:1;stroke-width:0.48;stroke-linecap:round;stroke-linejoin:round;stroke:rgb(0%,0%,0%);stroke-opacity:1;stroke-miterlimit:10;" d="M 56.258813 73.276562 L 57.180688 69.124219 L 58.102563 73.276562 L 56.258813 73.276562 Z M 56.258813 73.276562 " transform="matrix(1,0,0,-1,-0.376,103.425)"/>
<path style="fill:none;stroke-width:0.48;stroke-linecap:round;stroke-linejoin:round;stroke:rgb(0%,0%,0%);stroke-opacity:1;stroke-dasharray:2.1,2.1;stroke-miterlimit:10;" d="M 57.180688 69.124219 L 57.180688 52.116406 L 85.528344 52.116406 " transform="matrix(1,0,0,-1,-0.376,103.425)"/>
<path style="fill-rule:nonzero;fill:rgb(0%,0%,0%);fill-opacity:1;stroke-width:0.48;stroke-linecap:round;stroke-linejoin:round;stroke:rgb(0%,0%,0%);stroke-opacity:1;stroke-miterlimit:10;" d="M 81.376 51.198437 L 85.528344 52.116406 L 81.376 53.038281 L 81.376 51.198437 Z M 81.376 51.198437 " transform="matrix(1,0,0,-1,-0.376,103.425)"/>
<path style="fill:none;stroke-width:0.48;stroke-linecap:round;stroke-linejoin:round;stroke:rgb(0%,0%,0%);stroke-opacity:1;stroke-dasharray:2.1,2.1;stroke-miterlimit:10;" d="M 85.528344 52.116406 L 113.872094 52.116406 L 113.872094 74.796094 " transform="matrix(1,0,0,-1,-0.376,103.425)"/>
<path style="fill-rule:nonzero;fill:rgb(0%,0%,0%);fill-opacity:1;stroke-width:0.48;stroke-linecap:round;stroke-linejoin:round;stroke:rgb(0%,0%,0%);stroke-opacity:1;stroke-miterlimit:10;" d="M 114.793969 70.64375 L 113.872094 74.796094 L 112.954125 70.64375 L 114.793969 70.64375 Z M 114.793969 70.64375 " transform="matrix(1,0,0,-1,-0.376,103.425)"/>
<path style="fill:none;stroke-width:0.48;stroke-linecap:round;stroke-linejoin:round;stroke:rgb(0%,0%,0%);stroke-opacity:1;stroke-dasharray:2.1,2.1;stroke-miterlimit:10;" d="M 113.872094 74.796094 L 113.872094 80.464062 " transform="matrix(1,0,0,-1,-0.376,103.425)"/>
<path style="fill:none;stroke-width:0.36;stroke-linecap:round;stroke-linejoin:round;stroke:rgb(0%,0%,0%);stroke-opacity:1;stroke-miterlimit:10;" d="M 57.180688 83.296094 L 57.180688 103.139844 M 113.872094 83.296094 L 113.872094 103.139844 M 57.180688 98.889844 L 113.872094 98.889844 " transform="matrix(1,0,0,-1,-0.376,103.425)"/>
<path style="fill-rule:nonzero;fill:rgb(0%,0%,0%);fill-opacity:1;stroke-width:0.36;stroke-linecap:round;stroke-linejoin:round;stroke:rgb(0%,0%,0%);stroke-opacity:1;stroke-miterlimit:10;" d="M 109.723656 97.967969 L 113.872094 98.889844 L 109.723656 99.807812 L 109.723656 97.967969 Z M 109.723656 97.967969 " transform="matrix(1,0,0,-1,-0.376,103.425)"/>
<path style="fill-rule:nonzero;fill:rgb(0%,0%,0%);fill-opacity:1;stroke-width:0.36;stroke-linecap:round;stroke-linejoin:round;stroke:rgb(0%,0%,0%);stroke-opacity:1;stroke-miterlimit:10;" d="M 61.333031 99.807812 L 57.180688 98.889844 L 61.333031 97.967969 L 61.333031 99.807812 Z M 61.333031 99.807812 " transform="matrix(1,0,0,-1,-0.376,103.425)"/>
<path style="fill:none;stroke-width:0.48;stroke-linecap:round;stroke-linejoin:round;stroke:rgb(0%,0%,0%);stroke-opacity:1;stroke-miterlimit:10;" d="M 237.180688 37.944531 C 237.180688 45.839062 234.043969 53.409375 228.461938 58.991406 C 222.879906 64.569531 215.309594 67.70625 207.415063 67.70625 C 199.524438 67.70625 191.954125 64.569531 186.372094 58.991406 C 180.790063 53.409375 177.653344 45.839062 177.653344 37.944531 C 177.653344 30.05 180.790063 22.479687 186.372094 16.897656 C 191.954125 11.315625 199.524438 8.178906 207.415063 8.178906 C 215.309594 8.178906 222.879906 11.315625 228.461938 16.897656 C 234.043969 22.479687 237.180688 30.05 237.180688 37.944531 Z M 237.180688 37.944531 " transform="matrix(1,0,0,-1,-0.376,103.425)"/>
</g>
</g>
</g>
<g clip-path="url(#clip4)" clip-rule="nonzero">
<g clip-path="url(#clip5)" clip-rule="nonzero">
<g clip-path="url(#clip6)" clip-rule="nonzero">
<g clip-path="url(#clip7)" clip-rule="nonzero">
<path style="fill:none;stroke-width:0.36;stroke-linecap:round;stroke-linejoin:round;stroke:rgb(0%,0%,0%);stroke-opacity:1;stroke-miterlimit:10;" d="M 228.461938 58.991406 L 186.372094 16.897656 M 225.65725 61.796094 L 183.5635 19.702344 M 231.270531 56.182812 L 189.176781 14.092969 M 222.852563 64.604687 L 180.758813 22.510937 M 234.075219 53.378125 L 191.981469 11.284375 M 220.043969 67.409375 L 177.950219 25.315625 M 236.879906 50.573437 L 194.790063 8.479687 M 217.239281 70.214062 L 175.145531 28.124219 M 239.6885 47.764844 L 197.59475 5.671094 M 214.430688 73.022656 L 172.340844 30.928906 M 242.493188 44.960156 L 200.399438 2.866406 M 211.626 75.827344 L 169.53225 33.733594 M 245.301781 42.151562 L 203.208031 0.0617187 M 208.821313 78.632031 L 166.727563 36.542187 M 248.106469 39.346875 L 206.012719 -2.746875 " transform="matrix(1,0,0,-1,-0.376,103.425)"/>
</g>
</g>
</g>
</g>
<g clip-path="url(#clip8)" clip-rule="nonzero">
<g clip-path="url(#clip9)" clip-rule="nonzero">
<g clip-path="url(#clip10)" clip-rule="nonzero">
<path style=" stroke:none;fill-rule:nonzero;fill:rgb(100%,100%,100%);fill-opacity:1;" d="M 231.136719 65.480469 C 231.136719 59.089844 228.597656 52.960938 224.078125 48.445313 C 219.558594 43.925781 213.429688 41.386719 207.039063 41.386719 C 200.648438 41.386719 194.523438 43.925781 190.003906 48.445313 C 185.484375 52.960938 182.945313 59.089844 182.945313 65.480469 C 182.945313 71.871094 185.484375 78 190.003906 82.519531 C 194.523438 87.035156 200.648438 89.574219 207.039063 89.574219 C 213.429688 89.574219 219.558594 87.035156 224.078125 82.519531 C 228.597656 78 231.136719 71.871094 231.136719 65.480469 "/>
<path style="fill:none;stroke-width:0.48;stroke-linecap:round;stroke-linejoin:round;stroke:rgb(0%,0%,0%);stroke-opacity:1;stroke-miterlimit:10;" d="M 231.512719 37.944531 C 231.512719 44.335156 228.973656 50.464062 224.454125 54.979687 C 219.934594 59.499219 213.805688 62.038281 207.415063 62.038281 C 201.024438 62.038281 194.899438 59.499219 190.379906 54.979687 C 185.860375 50.464062 183.321313 44.335156 183.321313 37.944531 C 183.321313 31.553906 185.860375 25.425 190.379906 20.905469 C 194.899438 16.389844 201.024438 13.850781 207.415063 13.850781 C 213.805688 13.850781 219.934594 16.389844 224.454125 20.905469 C 228.973656 25.425 231.512719 31.553906 231.512719 37.944531 Z M 215.751 63.553906 C 213.083031 64.421094 210.274438 64.874219 207.415063 64.874219 C 204.559594 64.874219 201.747094 64.421094 199.083031 63.553906 " transform="matrix(1,0,0,-1,-0.376,103.425)"/>
<path style="fill-rule:nonzero;fill:rgb(0%,0%,0%);fill-opacity:1;stroke-width:0.48;stroke-linecap:round;stroke-linejoin:round;stroke:rgb(0%,0%,0%);stroke-opacity:1;stroke-miterlimit:10;" d="M 204.243188 65.901562 C 202.434594 65.3 200.708031 64.510937 199.083031 63.553906 C 200.961938 63.733594 202.860375 63.717969 204.751 63.499219 L 204.243188 65.901562 Z M 204.243188 65.901562 " transform="matrix(1,0,0,-1,-0.376,103.425)"/>
<path style=" stroke:none;fill-rule:nonzero;fill:rgb(0%,0%,0%);fill-opacity:1;" d="M 208.457031 83.90625 C 208.457031 83.53125 208.308594 83.171875 208.042969 82.902344 C 207.777344 82.636719 207.417969 82.488281 207.039063 82.488281 C 206.664063 82.488281 206.304688 82.636719 206.039063 82.902344 C 205.773438 83.171875 205.621094 83.53125 205.621094 83.90625 C 205.621094 84.28125 205.773438 84.640625 206.039063 84.90625 C 206.304688 85.175781 206.664063 85.324219 207.039063 85.324219 C 207.417969 85.324219 207.777344 85.175781 208.042969 84.90625 C 208.308594 84.640625 208.457031 84.28125 208.457031 83.90625 "/>
<path style=" stroke:none;fill-rule:nonzero;fill:rgb(0%,0%,0%);fill-opacity:1;" d="M 208.457031 71.621094 C 208.457031 71.246094 208.308594 70.886719 208.042969 70.621094 C 207.777344 70.355469 207.417969 70.203125 207.039063 70.203125 C 206.664063 70.203125 206.304688 70.355469 206.039063 70.621094 C 205.773438 70.886719 205.621094 71.246094 205.621094 71.621094 C 205.621094 72 205.773438 72.359375 206.039063 72.625 C 206.304688 72.890625 206.664063 73.039063 207.039063 73.039063 C 207.417969 73.039063 207.777344 72.890625 208.042969 72.625 C 208.308594 72.359375 208.457031 72 208.457031 71.621094 "/>
<path style=" stroke:none;fill-rule:nonzero;fill:rgb(0%,0%,0%);fill-opacity:1;" d="M 208.457031 59.339844 C 208.457031 58.964844 208.308594 58.601563 208.042969 58.335938 C 207.777344 58.070313 207.417969 57.921875 207.039063 57.921875 C 206.664063 57.921875 206.304688 58.070313 206.039063 58.335938 C 205.773438 58.601563 205.621094 58.964844 205.621094 59.339844 C 205.621094 59.714844 205.773438 60.074219 206.039063 60.339844 C 206.304688 60.605469 206.664063 60.757813 207.039063 60.757813 C 207.417969 60.757813 207.777344 60.605469 208.042969 60.339844 C 208.308594 60.074219 208.457031 59.714844 208.457031 59.339844 "/>
<path style=" stroke:none;fill-rule:nonzero;fill:rgb(0%,0%,0%);fill-opacity:1;" d="M 208.457031 47.054688 C 208.457031 46.679688 208.308594 46.320313 208.042969 46.054688 C 207.777344 45.789063 207.417969 45.636719 207.039063 45.636719 C 206.664063 45.636719 206.304688 45.789063 206.039063 46.054688 C 205.773438 46.320313 205.621094 46.679688 205.621094 47.054688 C 205.621094 47.433594 205.773438 47.792969 206.039063 48.058594 C 206.304688 48.324219 206.664063 48.472656 207.039063 48.472656 C 207.417969 48.472656 207.777344 48.324219 208.042969 48.058594 C 208.308594 47.792969 208.457031 47.433594 208.457031 47.054688 "/>
<path style=" stroke:none;fill-rule:nonzero;fill:rgb(0%,0%,0%);fill-opacity:1;" d="M 219.097656 77.765625 C 219.097656 77.386719 218.945313 77.027344 218.679688 76.761719 C 218.414063 76.496094 218.054688 76.347656 217.679688 76.347656 C 217.304688 76.347656 216.941406 76.496094 216.675781 76.761719 C 216.410156 77.027344 216.261719 77.386719 216.261719 77.765625 C 216.261719 78.140625 216.410156 78.5 216.675781 78.765625 C 216.941406 79.03125 217.304688 79.183594 217.679688 79.183594 C 218.054688 79.183594 218.414063 79.03125 218.679688 78.765625 C 218.945313 78.5 219.097656 78.140625 219.097656 77.765625 "/>
<path style=" stroke:none;fill-rule:nonzero;fill:rgb(0%,0%,0%);fill-opacity:1;" d="M 197.820313 77.765625 C 197.820313 77.386719 197.671875 77.027344 197.40625 76.761719 C 197.140625 76.496094 196.777344 76.347656 196.402344 76.347656 C 196.027344 76.347656 195.664063 76.496094 195.402344 76.761719 C 195.136719 77.027344 194.984375 77.386719 194.984375 77.765625 C 194.984375 78.140625 195.136719 78.5 195.402344 78.765625 C 195.664063 79.03125 196.027344 79.183594 196.402344 79.183594 C 196.777344 79.183594 197.140625 79.03125 197.40625 78.765625 C 197.671875 78.5 197.820313 78.140625 197.820313 77.765625 "/>
<path style=" stroke:none;fill-rule:nonzero;fill:rgb(0%,0%,0%);fill-opacity:1;" d="M 219.097656 65.480469 C 219.097656 65.105469 218.945313 64.742188 218.679688 64.480469 C 218.414063 64.214844 218.054688 64.0625 217.679688 64.0625 C 217.304688 64.0625 216.941406 64.214844 216.675781 64.480469 C 216.410156 64.742188 216.261719 65.105469 216.261719 65.480469 C 216.261719 65.855469 216.410156 66.21875 216.675781 66.484375 C 216.941406 66.75 217.304688 66.898438 217.679688 66.898438 C 218.054688 66.898438 218.414063 66.75 218.679688 66.484375 C 218.945313 66.21875 219.097656 65.855469 219.097656 65.480469 "/>
<path style=" stroke:none;fill-rule:nonzero;fill:rgb(0%,0%,0%);fill-opacity:1;" d="M 197.820313 65.480469 C 197.820313 65.105469 197.671875 64.742188 197.40625 64.480469 C 197.140625 64.214844 196.777344 64.0625 196.402344 64.0625 C 196.027344 64.0625 195.664063 64.214844 195.402344 64.480469 C 195.136719 64.742188 194.984375 65.105469 194.984375 65.480469 C 194.984375 65.855469 195.136719 66.21875 195.402344 66.484375 C 195.664063 66.75 196.027344 66.898438 196.402344 66.898438 C 196.777344 66.898438 197.140625 66.75 197.40625 66.484375 C 197.671875 66.21875 197.820313 65.855469 197.820313 65.480469 "/>
<path style=" stroke:none;fill-rule:nonzero;fill:rgb(0%,0%,0%);fill-opacity:1;" d="M 219.097656 53.195313 C 219.097656 52.820313 218.945313 52.460938 218.679688 52.195313 C 218.414063 51.929688 218.054688 51.78125 217.679688 51.78125 C 217.304688 51.78125 216.941406 51.929688 216.675781 52.195313 C 216.410156 52.460938 216.261719 52.820313 216.261719 53.195313 C 216.261719 53.574219 216.410156 53.933594 216.675781 54.199219 C 216.941406 54.464844 217.304688 54.613281 217.679688 54.613281 C 218.054688 54.613281 218.414063 54.464844 218.679688 54.199219 C 218.945313 53.933594 219.097656 53.574219 219.097656 53.195313 "/>
<path style=" stroke:none;fill-rule:nonzero;fill:rgb(0%,0%,0%);fill-opacity:1;" d="M 197.820313 53.195313 C 197.820313 52.820313 197.671875 52.460938 197.40625 52.195313 C 197.140625 51.929688 196.777344 51.78125 196.402344 51.78125 C 196.027344 51.78125 195.664063 51.929688 195.402344 52.195313 C 195.136719 52.460938 194.984375 52.820313 194.984375 53.195313 C 194.984375 53.574219 195.136719 53.933594 195.402344 54.199219 C 195.664063 54.464844 196.027344 54.613281 196.402344 54.613281 C 196.777344 54.613281 197.140625 54.464844 197.40625 54.199219 C 197.671875 53.933594 197.820313 53.574219 197.820313 53.195313 "/>
<path style=" stroke:none;fill-rule:nonzero;fill:rgb(0%,0%,0%);fill-opacity:1;" d="M 229.734375 71.621094 C 229.734375 71.246094 229.585938 70.886719 229.316406 70.621094 C 229.054688 70.355469 228.691406 70.203125 228.316406 70.203125 C 227.941406 70.203125 227.578125 70.355469 227.3125 70.621094 C 227.046875 70.886719 226.898438 71.246094 226.898438 71.621094 C 226.898438 72 227.046875 72.359375 227.3125 72.625 C 227.578125 72.890625 227.941406 73.039063 228.316406 73.039063 C 228.691406 73.039063 229.054688 72.890625 229.316406 72.625 C 229.585938 72.359375 229.734375 72 229.734375 71.621094 "/>
<path style=" stroke:none;fill-rule:nonzero;fill:rgb(0%,0%,0%);fill-opacity:1;" d="M 187.183594 71.621094 C 187.183594 71.246094 187.03125 70.886719 186.765625 70.621094 C 186.5 70.355469 186.140625 70.203125 185.765625 70.203125 C 185.390625 70.203125 185.027344 70.355469 184.761719 70.621094 C 184.496094 70.886719 184.347656 71.246094 184.347656 71.621094 C 184.347656 72 184.496094 72.359375 184.761719 72.625 C 185.027344 72.890625 185.390625 73.039063 185.765625 73.039063 C 186.140625 73.039063 186.5 72.890625 186.765625 72.625 C 187.03125 72.359375 187.183594 72 187.183594 71.621094 "/>
<path style=" stroke:none;fill-rule:nonzero;fill:rgb(0%,0%,0%);fill-opacity:1;" d="M 229.734375 59.339844 C 229.734375 58.964844 229.585938 58.601563 229.316406 58.335938 C 229.054688 58.070313 228.691406 57.921875 228.316406 57.921875 C 227.941406 57.921875 227.578125 58.070313 227.3125 58.335938 C 227.046875 58.601563 226.898438 58.964844 226.898438 59.339844 C 226.898438 59.714844 227.046875 60.074219 227.3125 60.339844 C 227.578125 60.605469 227.941406 60.757813 228.316406 60.757813 C 228.691406 60.757813 229.054688 60.605469 229.316406 60.339844 C 229.585938 60.074219 229.734375 59.714844 229.734375 59.339844 "/>
<path style=" stroke:none;fill-rule:nonzero;fill:rgb(0%,0%,0%);fill-opacity:1;" d="M 187.183594 59.339844 C 187.183594 58.964844 187.03125 58.601563 186.765625 58.335938 C 186.5 58.070313 186.140625 57.921875 185.765625 57.921875 C 185.390625 57.921875 185.027344 58.070313 184.761719 58.335938 C 184.496094 58.601563 184.347656 58.964844 184.347656 59.339844 C 184.347656 59.714844 184.496094 60.074219 184.761719 60.339844 C 185.027344 60.605469 185.390625 60.757813 185.765625 60.757813 C 186.140625 60.757813 186.5 60.605469 186.765625 60.339844 C 187.03125 60.074219 187.183594 59.714844 187.183594 59.339844 "/>
<path style="fill:none;stroke-width:0.36;stroke-linecap:round;stroke-linejoin:round;stroke:rgb(0%,0%,0%);stroke-opacity:1;stroke-miterlimit:10;" d="M 218.754906 1.092969 C 213.903344 5.944531 213.270531 13.667187 208.418969 18.51875 " transform="matrix(1,0,0,-1,-0.376,103.425)"/>
<path style="fill-rule:nonzero;fill:rgb(0%,0%,0%);fill-opacity:1;stroke-width:0.36;stroke-linecap:round;stroke-linejoin:round;stroke:rgb(0%,0%,0%);stroke-opacity:1;stroke-miterlimit:10;" d="M 211.665063 15.772656 C 210.696313 16.803906 209.633813 17.741406 208.418969 18.51875 C 209.192406 17.303906 209.758813 16.003125 210.200219 14.655469 L 211.665063 15.772656 Z M 211.665063 15.772656 " transform="matrix(1,0,0,-1,-0.376,103.425)"/>
</g>
</g>
</g>
<g clip-path="url(#clip11)" clip-rule="nonzero">
<path style=" stroke:none;fill-rule:nonzero;fill:rgb(100%,100%,100%);fill-opacity:1;" d="M 79.917969 9.621094 L 90.542969 9.621094 L 90.542969 -1.199219 L 79.917969 -1.199219 L 79.917969 9.621094 Z M 79.917969 9.621094 "/>
<g style="fill:rgb(0%,0%,0%);fill-opacity:1;">
  <use xlink:href="#glyph0-1" x="82.906" y="6.634"/>
</g>
<path style=" stroke:none;fill-rule:nonzero;fill:rgb(100%,100%,100%);fill-opacity:1;" d="M 87.496094 81.902344 L 98.796875 81.902344 L 98.796875 73.355469 L 87.496094 73.355469 L 87.496094 81.902344 Z M 87.496094 81.902344 "/>
<g style="fill:rgb(0%,0%,0%);fill-opacity:1;">
  <use xlink:href="#glyph1-1" x="88.915" y="79.615"/>
</g>
<g style="fill:rgb(0%,0%,0%);fill-opacity:1;">
  <use xlink:href="#glyph2-1" x="94.11" y="80.487"/>
</g>
<g style="fill:rgb(0%,0%,0%);fill-opacity:1;">
  <use xlink:href="#glyph3-1" x="99.562" y="21.22"/>
</g>
<g style="fill:rgb(0%,0%,0%);fill-opacity:1;">
  <use xlink:href="#glyph0-2" x="205.657" y="33.976"/>
</g>
<g style="fill:rgb(0%,0%,0%);fill-opacity:1;">
  <use xlink:href="#glyph3-2" x="208.24" y="109.571"/>
  <use xlink:href="#glyph3-3" x="212.458452" y="109.571"/>
  <use xlink:href="#glyph3-4" x="214.463419" y="109.571"/>
  <use xlink:href="#glyph3-5" x="219.718177" y="109.571"/>
  <use xlink:href="#glyph3-6" x="224.36761" y="109.571"/>
</g>
<g style="fill:rgb(0%,0%,0%);fill-opacity:1;">
  <use xlink:href="#glyph3-7" x="207.88" y="117.541"/>
  <use xlink:href="#glyph3-8" x="213.681504" y="117.541"/>
</g>
<g style="fill:rgb(0%,0%,0%);fill-opacity:1;">
  <use xlink:href="#glyph1-1" x="220.573" y="117.541"/>
</g>
<g style="fill:rgb(0%,0%,0%);fill-opacity:1;">
  <use xlink:href="#glyph2-1" x="225.768" y="118.413"/>
</g>
</g>
</g>
</svg>
