<?xml version="1.0" encoding="UTF-8"?>
<svg xmlns="http://www.w3.org/2000/svg" xmlns:xlink="http://www.w3.org/1999/xlink" width="177pt" height="190pt" viewBox="0 0 128 137" version="1.1">
<defs>
<g>
<symbol overflow="visible" id="glyph0-0">
<path style="stroke:none;" d=""/>
</symbol>
<symbol overflow="visible" id="glyph0-1">
<path style="stroke:none;" d="M 0.734375 -4.84375 L 0.734375 0 L 1.25 0 L 1.25 -2.21875 L 2.28125 -2.21875 C 2.421875 -2.21875 2.546875 -2.234375 2.65625 -2.203125 C 2.78125 -2.03125 2.90625 -1.859375 3.03125 -1.671875 C 3.421875 -1.125 3.8125 -0.5625 4.21875 -0.015625 C 4.390625 0 4.578125 0 4.75 0 L 4.46875 -0.390625 L 3.125 -2.28125 C 3.25 -2.296875 3.390625 -2.328125 3.515625 -2.390625 C 4.015625 -2.5625 4.578125 -2.96875 4.53125 -3.5625 C 4.515625 -3.796875 4.453125 -3.9375 4.328125 -4.109375 C 4.015625 -4.515625 3.484375 -4.765625 2.875 -4.828125 C 2.625 -4.84375 2.390625 -4.84375 2.125 -4.84375 L 0.734375 -4.84375 Z M 1.25 -2.609375 L 1.25 -4.421875 L 2.296875 -4.421875 C 2.640625 -4.421875 3 -4.421875 3.34375 -4.328125 C 3.671875 -4.203125 4 -3.96875 4.046875 -3.59375 C 4.0625 -3.359375 3.96875 -3.140625 3.8125 -2.984375 C 3.6875 -2.875 3.546875 -2.796875 3.390625 -2.734375 C 3.046875 -2.609375 2.6875 -2.609375 2.328125 -2.609375 L 1.25 -2.609375 Z M 1.25 -2.609375 "/>
</symbol>
<symbol overflow="visible" id="glyph0-2">
<path style="stroke:none;" d="M 1 -4.03125 C 0.265625 -3.125 0.234375 -1.75 0.96875 -0.84375 C 1.28125 -0.4375 1.703125 -0.140625 2.234375 0.015625 C 3.71875 0.421875 4.921875 -0.546875 5.25 -1.65625 C 5.53125 -2.578125 5.25 -3.640625 4.53125 -4.3125 C 4.171875 -4.640625 3.65625 -4.90625 3.046875 -4.9375 C 2.125 -5.015625 1.421875 -4.53125 1 -4.03125 Z M 3.484375 -4.453125 C 3.96875 -4.296875 4.359375 -3.96875 4.59375 -3.53125 C 4.734375 -3.265625 4.796875 -2.96875 4.828125 -2.671875 C 4.890625 -1.84375 4.546875 -0.9375 3.796875 -0.53125 C 3.421875 -0.328125 2.96875 -0.234375 2.484375 -0.34375 C 2.15625 -0.421875 1.859375 -0.59375 1.640625 -0.796875 C 1.21875 -1.1875 1 -1.765625 0.96875 -2.328125 C 0.90625 -3.34375 1.421875 -4.109375 2.140625 -4.390625 C 2.5625 -4.5625 3.03125 -4.59375 3.484375 -4.453125 Z M 3.484375 -4.453125 "/>
</symbol>
<symbol overflow="visible" id="glyph0-3">
<path style="stroke:none;" d="M 0.28125 -4.8125 L 0.28125 -4.40625 L 2.421875 -4.40625 L 2.421875 0 L 2.953125 0 L 2.953125 -4.40625 L 5.078125 -4.40625 L 5.078125 -4.8125 L 0.28125 -4.8125 Z M 0.28125 -4.8125 "/>
</symbol>
<symbol overflow="visible" id="glyph0-4">
<path style="stroke:none;" d="M 0.21875 0 L 0.578125 0 C 0.625 0 0.6875 0.015625 0.71875 -0.015625 C 0.75 -0.03125 0.75 -0.0625 0.765625 -0.09375 C 0.875 -0.34375 1.21875 -1.203125 1.265625 -1.296875 C 1.28125 -1.359375 1.296875 -1.390625 1.375 -1.390625 L 3.046875 -1.390625 C 3.234375 -1.390625 3.421875 -1.40625 3.609375 -1.390625 C 3.6875 -1.390625 3.703125 -1.296875 3.734375 -1.234375 C 3.8125 -1.03125 4.1875 -0.125 4.203125 -0.0625 C 4.234375 0.015625 4.296875 0 4.40625 0 L 4.796875 0 C 4.625 -0.453125 4.4375 -0.890625 4.25 -1.34375 L 2.8125 -4.828125 C 2.796875 -4.859375 2.796875 -4.90625 2.765625 -4.90625 C 2.71875 -4.90625 2.671875 -4.90625 2.625 -4.90625 L 2.375 -4.90625 C 2.328125 -4.90625 2.265625 -4.921875 2.234375 -4.890625 C 2.203125 -4.875 2.1875 -4.84375 2.1875 -4.8125 L 0.765625 -1.34375 L 0.40625 -0.484375 C 0.34375 -0.328125 0.265625 -0.171875 0.21875 0 Z M 2.484375 -4.328125 C 2.796875 -3.46875 3.15625 -2.640625 3.5 -1.8125 L 1.46875 -1.8125 C 1.796875 -2.640625 2.15625 -3.46875 2.46875 -4.328125 L 2.484375 -4.328125 Z M 2.484375 -4.328125 "/>
</symbol>
<symbol overflow="visible" id="glyph0-5">
<path style="stroke:none;" d="M 0.734375 -4.84375 L 0.734375 0 L 1.265625 0 L 1.265625 -4.84375 L 0.734375 -4.84375 Z M 0.734375 -4.84375 "/>
</symbol>
<symbol overflow="visible" id="glyph0-6">
<path style="stroke:none;" d="M 0.75 -4.84375 L 0.75 0 L 1.234375 0 L 1.234375 -4.40625 L 1.234375 -4.40625 L 1.4375 -4.0625 L 3.015625 -1.3125 C 3.265625 -0.875 3.5 -0.4375 3.75 -0.015625 C 3.96875 0.03125 4.25 -0.015625 4.484375 0 L 4.484375 -4.84375 L 4 -4.84375 L 4 -0.421875 L 2.1875 -3.59375 C 1.953125 -4 1.734375 -4.4375 1.484375 -4.828125 C 1.28125 -4.859375 0.984375 -4.828125 0.75 -4.84375 Z M 0.75 -4.84375 "/>
</symbol>
</g>
<clipPath id="clip1">
  <path d="M -242 665 L 370 665 L 370 -127 L -242 -127 L -242 665 Z M -242 665 "/>
</clipPath>
<clipPath id="clip2">
  <path d="M -0.605469 136.722656 L 124.121094 136.722656 L 124.121094 -2.199219 L -0.605469 -2.199219 L -0.605469 136.722656 Z M -0.605469 136.722656 "/>
</clipPath>
<clipPath id="clip3">
  <path d="M -242 665 L 370 665 L 370 -127 L -242 -127 L -242 665 Z M -242 665 "/>
</clipPath>
</defs>
<g id="surface0">
<g clip-path="url(#clip1)" clip-rule="nonzero">
<g clip-path="url(#clip2)" clip-rule="nonzero">
<path style="fill:none;stroke-width:7.5;stroke-linecap:butt;stroke-linejoin:miter;stroke:rgb(0%,0%,0%);stroke-opacity:1;stroke-miterlimit:4;" d="M 666.163513 1058.714942 C 973.72648 1045.232096 1214.876802 917.029496 1214.876802 760.821101 C 1214.876802 595.675504 945.142847 461.771587 612.424743 461.771587 C 279.706638 461.771587 10.011205 595.675504 10.011205 760.821101 C 10.011205 915.719734 247.232241 1043.151886 551.174102 1058.36824 " transform="matrix(0.101402,0,0,-0.101402,-0.605,136.723)"/>
<path style="fill:none;stroke-width:7.5;stroke-linecap:butt;stroke-linejoin:miter;stroke:rgb(0%,0%,0%);stroke-opacity:1;stroke-miterlimit:4;" d="M 1214.876802 760.821101 L 1214.876802 638.435386 C 1214.876802 497.481867 945.142847 356.451303 612.424743 356.451303 C 279.706638 356.451303 10.011205 490.316697 10.011205 655.500816 L 10.011205 760.821101 " transform="matrix(0.101402,0,0,-0.101402,-0.605,136.723)"/>
<path style="fill:none;stroke-width:7.5;stroke-linecap:butt;stroke-linejoin:miter;stroke:rgb(0%,0%,0%);stroke-opacity:1;stroke-miterlimit:4;" d="M 551.174102 0.00338997 L 551.174102 356.798004 " transform="matrix(0.101402,0,0,-0.101402,-0.605,136.723)"/>
<path style="fill:none;stroke-width:7.5;stroke-linecap:butt;stroke-linejoin:miter;stroke:rgb(0%,0%,0%);stroke-opacity:1;stroke-miterlimit:4;" d="M 666.163513 0.00338997 L 666.163513 356.451303 " transform="matrix(0.101402,0,0,-0.101402,-0.605,136.723)"/>
<path style="fill:none;stroke-width:7.5;stroke-linecap:butt;stroke-linejoin:miter;stroke:rgb(0%,0%,0%);stroke-opacity:1;stroke-miterlimit:4;" d="M 666.163513 1347.132268 L 666.163513 755.004216 L 666.202035 755.273873 C 666.202035 743.023745 640.430539 733.046439 608.688068 733.046439 C 576.907075 733.046439 551.135579 743.023745 551.135579 755.273873 L 551.174102 755.004216 L 551.174102 1347.517492 " transform="matrix(0.101402,0,0,-0.101402,-0.605,136.723)"/>
<path style="fill:none;stroke-width:5;stroke-linecap:butt;stroke-linejoin:miter;stroke:rgb(0%,0%,0%);stroke-opacity:1;stroke-miterlimit:4;" d="M 105.932021 528.492411 L 185.750466 482.149945 " transform="matrix(0.101402,0,0,-0.101402,-0.605,136.723)"/>
<path style=" stroke:none;fill-rule:nonzero;fill:rgb(0%,0%,0%);fill-opacity:1;" d="M 16.597656 88.507813 L 22.011719 90.253906 L 18.191406 86.035156 L 16.597656 88.507813 "/>
<path style="fill:none;stroke-width:5;stroke-linecap:butt;stroke-linejoin:miter;stroke:rgb(0%,0%,0%);stroke-opacity:1;stroke-miterlimit:4;" d="M 337.721396 420.937827 L 429.327701 409.689281 " transform="matrix(0.101402,0,0,-0.101402,-0.605,136.723)"/>
<path style=" stroke:none;fill-rule:nonzero;fill:rgb(0%,0%,0%);fill-opacity:1;" d="M 41.695313 96.445313 L 47.359375 95.921875 L 42.191406 93.542969 L 41.695313 96.445313 "/>
<path style="fill:none;stroke-width:5;stroke-linecap:butt;stroke-linejoin:miter;stroke:rgb(0%,0%,0%);stroke-opacity:1;stroke-miterlimit:4;" d="M 660.38515 393.663956 L 752.145544 403.564217 " transform="matrix(0.101402,0,0,-0.101402,-0.605,136.723)"/>
<path style=" stroke:none;fill-rule:nonzero;fill:rgb(0%,0%,0%);fill-opacity:1;" d="M 74.75 97.316406 L 80.148438 95.515625 L 74.570313 94.375 L 74.75 97.316406 "/>
<path style=" stroke:none;fill-rule:nonzero;fill:rgb(0%,0%,0%);fill-opacity:1;" d="M 96.976563 105.980469 L 101.378906 102.378906 L 95.761719 103.296875 L 96.976563 105.980469 "/>
<path style="fill:none;stroke-width:5;stroke-linecap:butt;stroke-linejoin:miter;stroke:rgb(0%,0%,0%);stroke-opacity:1;stroke-miterlimit:4;" d="M 946.414087 439.390064 L 1029.892162 478.72145 " transform="matrix(0.101402,0,0,-0.101402,-0.605,136.723)"/>
<path style=" stroke:none;fill-rule:nonzero;fill:rgb(0%,0%,0%);fill-opacity:1;" d="M 103.460938 89.910156 L 107.972656 86.445313 L 102.332031 87.191406 L 103.460938 89.910156 "/>
<path style="fill:none;stroke-width:5;stroke-linecap:butt;stroke-linejoin:miter;stroke:rgb(0%,0%,0%);stroke-opacity:1;stroke-miterlimit:4;" d="M 513.961448 897.652721 L 440.576246 864.754578 " transform="matrix(0.101402,0,0,-0.101402,-0.605,136.723)"/>
<path style=" stroke:none;fill-rule:nonzero;fill:rgb(0%,0%,0%);fill-opacity:1;" d="M 44.484375 47.316406 L 39.882813 50.660156 L 45.539063 50.066406 L 44.484375 47.316406 "/>
<path style="fill:none;stroke-width:5;stroke-linecap:butt;stroke-linejoin:miter;stroke:rgb(0%,0%,0%);stroke-opacity:1;stroke-miterlimit:4;" d="M 314.145678 791.600511 L 357.868619 724.109238 " transform="matrix(0.101402,0,0,-0.101402,-0.605,136.723)"/>
<path style=" stroke:none;fill-rule:nonzero;fill:rgb(0%,0%,0%);fill-opacity:1;" d="M 33.917969 63.148438 L 37.925781 67.1875 L 36.476563 61.6875 L 33.917969 63.148438 "/>
<path style="fill:none;stroke-width:5;stroke-linecap:butt;stroke-linejoin:miter;stroke:rgb(0%,0%,0%);stroke-opacity:1;stroke-miterlimit:4;" d="M 454.713973 646.987362 L 534.686508 638.473908 " transform="matrix(0.101402,0,0,-0.101402,-0.605,136.723)"/>
<path style=" stroke:none;fill-rule:nonzero;fill:rgb(0%,0%,0%);fill-opacity:1;" d="M 52.390625 73.257813 L 58.050781 72.683594 L 52.863281 70.347656 L 52.390625 73.257813 "/>
<path style="fill:none;stroke-width:5;stroke-linecap:butt;stroke-linejoin:miter;stroke:rgb(0%,0%,0%);stroke-opacity:1;stroke-miterlimit:4;" d="M 643.781989 626.570482 L 722.367717 643.558867 " transform="matrix(0.101402,0,0,-0.101402,-0.605,136.723)"/>
<path style=" stroke:none;fill-rule:nonzero;fill:rgb(0%,0%,0%);fill-opacity:1;" d="M 71.882813 73.058594 L 77.078125 70.738281 L 71.417969 70.148438 L 71.882813 73.058594 "/>
<path style="fill:none;stroke-width:5;stroke-linecap:butt;stroke-linejoin:miter;stroke:rgb(0%,0%,0%);stroke-opacity:1;stroke-miterlimit:4;" d="M 804.613075 665.208465 L 867.751314 714.979426 " transform="matrix(0.101402,0,0,-0.101402,-0.605,136.723)"/>
<path style=" stroke:none;fill-rule:nonzero;fill:rgb(0%,0%,0%);fill-opacity:1;" d="M 87.402344 65.992188 L 91.054688 61.625 L 85.710938 63.582031 L 87.402344 65.992188 "/>
<path style="fill:none;stroke-width:5;stroke-linecap:butt;stroke-linejoin:miter;stroke:rgb(0%,0%,0%);stroke-opacity:1;stroke-miterlimit:4;" d="M 862.858967 816.216334 L 789.936034 850.154583 " transform="matrix(0.101402,0,0,-0.101402,-0.605,136.723)"/>
<path style=" stroke:none;fill-rule:nonzero;fill:rgb(0%,0%,0%);fill-opacity:1;" d="M 81.066406 49.707031 L 75.523438 48.417969 L 79.679688 52.304688 L 81.066406 49.707031 "/>
<path style="fill:none;stroke-width:5;stroke-linecap:butt;stroke-linejoin:miter;stroke:rgb(0%,0%,0%);stroke-opacity:1;stroke-miterlimit:4;" d="M 822.834177 287.919925 C 822.834177 287.919925 908.276895 288.767418 963.248383 320.432844 " transform="matrix(0.101402,0,0,-0.101402,-0.605,136.723)"/>
<path style=" stroke:none;fill-rule:nonzero;fill:rgb(0%,0%,0%);fill-opacity:1;" d="M 15.273438 54.660156 C 14.691406 54.4375 14.101563 53.796875 15.09375 53.652344 C 16.148438 53.496094 15.859375 54.660156 15.210938 54.660156 "/>
<path style=" stroke:none;fill-rule:nonzero;fill:rgb(0%,0%,0%);fill-opacity:1;" d="M 22.425781 53.039063 C 22.101563 52.183594 22.824219 52.058594 23.5 52.265625 C 23.71875 52.636719 22.792969 53.609375 22.425781 53.039063 "/>
<path style=" stroke:none;fill-rule:nonzero;fill:rgb(0%,0%,0%);fill-opacity:1;" d="M 82.652344 41.878906 C 82.324219 41.023438 83.050781 40.902344 83.722656 41.109375 C 83.941406 41.480469 83.015625 42.449219 82.652344 41.878906 "/>
<path style=" stroke:none;fill-rule:nonzero;fill:rgb(0%,0%,0%);fill-opacity:1;" d="M 9.980469 58.808594 C 9.535156 58.070313 9.988281 57.941406 10.691406 57.976563 C 11.042969 58.660156 10.414063 59.355469 9.921875 58.808594 "/>
<path style=" stroke:none;fill-rule:nonzero;fill:rgb(0%,0%,0%);fill-opacity:1;" d="M 6.074219 66.804688 C 5.632813 66.71875 4.933594 66.617188 5 66.035156 C 5.542969 65.898438 5.683594 65.570313 6.238281 65.964844 C 6.679688 66.277344 6.695313 66.6875 6.074219 66.867188 "/>
<path style=" stroke:none;fill-rule:nonzero;fill:rgb(0%,0%,0%);fill-opacity:1;" d="M 14.730469 66.203125 C 14.308594 66.285156 13.894531 65.777344 14.1875 65.421875 C 14.496094 65.039063 14.953125 65.550781 15.324219 65.492188 C 15.445313 65.921875 15.117188 66.320313 14.671875 66.265625 "/>
<path style=" stroke:none;fill-rule:nonzero;fill:rgb(0%,0%,0%);fill-opacity:1;" d="M 18.519531 58.386719 C 18.425781 57.710938 18.363281 57.15625 19 56.640625 C 19.273438 56.90625 18.902344 57.230469 18.832031 57.53125 C 18.773438 57.789063 18.980469 58.472656 18.519531 58.386719 "/>
<path style=" stroke:none;fill-rule:nonzero;fill:rgb(0%,0%,0%);fill-opacity:1;" d="M 9.863281 50.511719 C 9.296875 50.5625 8.742188 50.289063 8.242188 50.066406 C 8.382813 49.84375 9.152344 49.722656 9.425781 49.789063 C 9.703125 49.855469 10.3125 50.382813 9.800781 50.574219 "/>
<path style=" stroke:none;fill-rule:nonzero;fill:rgb(0%,0%,0%);fill-opacity:1;" d="M 24.351563 43.660156 C 24.15625 43.085938 24.507813 42.652344 25.121094 42.644531 C 25.367188 43.203125 24.9375 43.707031 24.351563 43.660156 "/>
<path style=" stroke:none;fill-rule:nonzero;fill:rgb(0%,0%,0%);fill-opacity:1;" d="M 29.484375 63.035156 C 28.445313 62.476563 30.234375 61.980469 30.023438 63.175781 C 29.824219 63.25 29.570313 63.285156 29.484375 63.085938 "/>
<path style=" stroke:none;fill-rule:nonzero;fill:rgb(0%,0%,0%);fill-opacity:1;" d="M 22.644531 71.710938 C 22.152344 71.679688 22.640625 70.554688 23.324219 71.179688 C 23.882813 71.6875 22.875 71.957031 22.644531 71.710938 "/>
<path style=" stroke:none;fill-rule:nonzero;fill:rgb(0%,0%,0%);fill-opacity:1;" d="M 4.5 74.734375 C 4.265625 74.503906 2.742188 73.535156 3.894531 73.398438 C 4.773438 73.289063 5.285156 74.199219 4.546875 74.785156 "/>
<path style=" stroke:none;fill-rule:nonzero;fill:rgb(0%,0%,0%);fill-opacity:1;" d="M 7.820313 81.476563 C 7.644531 81.273438 7.296875 81.09375 7.1875 80.824219 C 7.050781 80.484375 7.25 80 7.234375 79.652344 C 7.425781 79.664063 8.015625 80.21875 8.105469 80.410156 C 8.234375 80.679688 8.277344 81.679688 7.820313 81.476563 "/>
<path style=" stroke:none;fill-rule:nonzero;fill:rgb(0%,0%,0%);fill-opacity:1;" d="M 17.4375 84.351563 C 17.222656 84.148438 16.945313 83.875 17.039063 83.507813 C 17.113281 83.230469 17.464844 82.953125 17.722656 83.136719 C 17.796875 83.191406 18.078125 83.90625 18.082031 84.003906 C 18.101563 84.375 17.726563 84.65625 17.4375 84.351563 "/>
<path style=" stroke:none;fill-rule:nonzero;fill:rgb(0%,0%,0%);fill-opacity:1;" d="M 25.765625 91.09375 C 25.5 90.546875 25.730469 90.613281 26.21875 90.363281 C 26.464844 90.238281 26.667969 89.863281 26.910156 90.300781 C 27.332031 91.070313 26.25 91.144531 25.816406 91.144531 "/>
<path style=" stroke:none;fill-rule:nonzero;fill:rgb(0%,0%,0%);fill-opacity:1;" d="M 30.871094 88.515625 C 30.621094 88.5 30.429688 88.183594 30.523438 87.921875 C 30.597656 87.722656 31.113281 87.492188 31.320313 87.625 C 31.773438 87.910156 31.175781 88.882813 30.871094 88.566406 "/>
<path style=" stroke:none;fill-rule:nonzero;fill:rgb(0%,0%,0%);fill-opacity:1;" d="M 39.152344 82.46875 C 38.863281 82.167969 37.671875 81.300781 38.902344 81.328125 C 39.132813 81.335938 39.652344 81.601563 39.761719 81.8125 C 40.007813 82.304688 39.554688 82.417969 39.203125 82.566406 "/>
<path style=" stroke:none;fill-rule:nonzero;fill:rgb(0%,0%,0%);fill-opacity:1;" d="M 43.367188 77.5625 C 42.640625 77.492188 42.253906 76.449219 43.167969 76.519531 C 43.835938 76.570313 44.175781 77.71875 43.265625 77.609375 "/>
<path style=" stroke:none;fill-rule:nonzero;fill:rgb(0%,0%,0%);fill-opacity:1;" d="M 56.75 98.34375 C 56.023438 98.277344 55.640625 97.230469 56.554688 97.304688 C 57.21875 97.355469 57.5625 98.5 56.652344 98.394531 "/>
<path style=" stroke:none;fill-rule:nonzero;fill:rgb(0%,0%,0%);fill-opacity:1;" d="M 72.46875 93.527344 C 71.742188 93.460938 71.359375 92.414063 72.269531 92.488281 C 72.9375 92.539063 73.28125 93.683594 72.367188 93.578125 "/>
<path style=" stroke:none;fill-rule:nonzero;fill:rgb(0%,0%,0%);fill-opacity:1;" d="M 87.296875 96.191406 C 86.570313 96.121094 86.1875 95.074219 87.101563 95.148438 C 87.765625 95.199219 88.109375 96.347656 87.199219 96.238281 "/>
<path style=" stroke:none;fill-rule:nonzero;fill:rgb(0%,0%,0%);fill-opacity:1;" d="M 45.050781 62.6875 C 45.164063 62.03125 44.019531 62.054688 44.007813 61.550781 C 44 61.292969 44.777344 61.054688 45.011719 61.101563 C 45.644531 61.230469 46.074219 62.679688 45.101563 62.6875 "/>
<path style=" stroke:none;fill-rule:nonzero;fill:rgb(0%,0%,0%);fill-opacity:1;" d="M 51.097656 78.253906 C 50.558594 78.109375 50.375 77.582031 51 77.460938 C 51.511719 77.363281 51.859375 77.679688 51.835938 78.195313 C 51.582031 78.292969 51.234375 78.496094 51.050781 78.207031 "/>
<path style=" stroke:none;fill-rule:nonzero;fill:rgb(0%,0%,0%);fill-opacity:1;" d="M 55.609375 83.113281 C 55.074219 83.171875 54.847656 82.316406 55.460938 82.183594 C 56.230469 82.015625 56.050781 82.671875 55.851563 83.105469 C 55.789063 83.117188 55.726563 83.117188 55.660156 83.113281 "/>
<path style=" stroke:none;fill-rule:nonzero;fill:rgb(0%,0%,0%);fill-opacity:1;" d="M 63.292969 83.3125 C 63.164063 83.160156 62.679688 83.011719 62.660156 82.804688 C 62.652344 82.71875 63.1875 82.375 63.355469 82.367188 C 64.425781 82.328125 63.613281 83.832031 63.292969 83.3125 "/>
<path style=" stroke:none;fill-rule:nonzero;fill:rgb(0%,0%,0%);fill-opacity:1;" d="M 86.085938 91.21875 C 85.957031 91.066406 85.472656 90.921875 85.453125 90.714844 C 85.445313 90.628906 85.976563 90.28125 86.148438 90.273438 C 87.21875 90.238281 86.40625 91.738281 86.085938 91.21875 "/>
<path style=" stroke:none;fill-rule:nonzero;fill:rgb(0%,0%,0%);fill-opacity:1;" d="M 112.957031 79.175781 C 112.828125 79.027344 112.34375 78.878906 112.324219 78.671875 C 112.316406 78.585938 112.851563 78.238281 113.019531 78.234375 C 114.089844 78.195313 113.28125 79.695313 112.957031 79.175781 "/>
<path style=" stroke:none;fill-rule:nonzero;fill:rgb(0%,0%,0%);fill-opacity:1;" d="M 105.859375 90.332031 C 105.730469 90.179688 105.246094 90.035156 105.226563 89.824219 C 105.21875 89.742188 105.753906 89.394531 105.921875 89.386719 C 106.992188 89.347656 106.179688 90.851563 105.859375 90.332031 "/>
<path style=" stroke:none;fill-rule:nonzero;fill:rgb(0%,0%,0%);fill-opacity:1;" d="M 57.058594 93.246094 C 56.929688 93.09375 56.445313 92.949219 56.425781 92.742188 C 56.417969 92.65625 56.953125 92.308594 57.121094 92.304688 C 58.191406 92.265625 57.382813 93.765625 57.058594 93.246094 "/>
<path style=" stroke:none;fill-rule:nonzero;fill:rgb(0%,0%,0%);fill-opacity:1;" d="M 75.984375 57.535156 C 75.855469 57.382813 75.371094 57.234375 75.351563 57.027344 C 75.34375 56.941406 75.878906 56.597656 76.046875 56.589844 C 77.117188 56.550781 76.304688 58.050781 75.984375 57.535156 "/>
<path style=" stroke:none;fill-rule:nonzero;fill:rgb(0%,0%,0%);fill-opacity:1;" d="M 67.308594 66.851563 C 66.726563 66.789063 66.417969 65.792969 67.308594 65.863281 C 68.003906 65.917969 67.855469 66.984375 67.261719 66.902344 "/>
<path style=" stroke:none;fill-rule:nonzero;fill:rgb(0%,0%,0%);fill-opacity:1;" d="M 70.433594 60.210938 C 70.433594 59.65625 70.394531 58.246094 71.027344 59.257813 C 71.15625 59.464844 71.464844 59.738281 71.375 60.0625 C 71.292969 60.363281 70.71875 60.535156 70.53125 60.257813 "/>
<path style=" stroke:none;fill-rule:nonzero;fill:rgb(0%,0%,0%);fill-opacity:1;" d="M 75.886719 57.535156 C 75.578125 57.113281 76.105469 56.5 76.480469 56.839844 C 76.933594 57.25 76.15625 58.09375 75.984375 57.535156 "/>
<path style=" stroke:none;fill-rule:nonzero;fill:rgb(0%,0%,0%);fill-opacity:1;" d="M 74.707031 39.757813 C 74.398438 39.335938 74.925781 38.722656 75.300781 39.0625 C 75.753906 39.472656 74.976563 40.316406 74.804688 39.757813 "/>
<path style=" stroke:none;fill-rule:nonzero;fill:rgb(0%,0%,0%);fill-opacity:1;" d="M 91.4375 42.164063 C 91.128906 41.746094 91.65625 41.132813 92.03125 41.472656 C 92.484375 41.882813 91.707031 42.726563 91.535156 42.164063 "/>
<path style=" stroke:none;fill-rule:nonzero;fill:rgb(0%,0%,0%);fill-opacity:1;" d="M 109.058594 49.515625 C 108.746094 49.097656 109.277344 48.484375 109.652344 48.824219 C 110.101563 49.234375 109.324219 50.078125 109.15625 49.515625 "/>
<path style=" stroke:none;fill-rule:nonzero;fill:rgb(0%,0%,0%);fill-opacity:1;" d="M 91.566406 75.5 C 91.253906 75.082031 91.785156 74.46875 92.160156 74.808594 C 92.609375 75.214844 91.832031 76.0625 91.664063 75.5 "/>
<path style=" stroke:none;fill-rule:nonzero;fill:rgb(0%,0%,0%);fill-opacity:1;" d="M 50.878906 51.921875 C 50.6875 51.609375 50.359375 51.132813 50.519531 50.738281 C 50.65625 50.394531 51.085938 50.144531 51.402344 50.421875 C 51.832031 50.796875 51.292969 51.761719 50.804688 51.773438 "/>
<path style=" stroke:none;fill-rule:nonzero;fill:rgb(0%,0%,0%);fill-opacity:1;" d="M 41.707031 36.535156 C 41.488281 36.492188 40.941406 36.164063 41.050781 35.886719 C 41.140625 35.65625 42.140625 35.792969 42.359375 35.808594 C 42.515625 36.339844 42.023438 36.550781 41.558594 36.535156 "/>
<path style=" stroke:none;fill-rule:nonzero;fill:rgb(0%,0%,0%);fill-opacity:1;" d="M 35.742188 42.5 C 35.523438 42.457031 34.976563 42.128906 35.085938 41.851563 C 35.175781 41.621094 36.175781 41.757813 36.394531 41.773438 C 36.550781 42.304688 36.058594 42.515625 35.59375 42.5 "/>
<path style=" stroke:none;fill-rule:nonzero;fill:rgb(0%,0%,0%);fill-opacity:1;" d="M 28.921875 38.742188 C 28.703125 38.699219 28.15625 38.375 28.265625 38.09375 C 28.355469 37.863281 29.355469 38 29.574219 38.015625 C 29.730469 38.546875 29.238281 38.761719 28.773438 38.742188 "/>
<path style=" stroke:none;fill-rule:nonzero;fill:rgb(0%,0%,0%);fill-opacity:1;" d="M 35.894531 49.265625 C 35.675781 49.21875 35.125 48.894531 35.238281 48.613281 C 35.328125 48.386719 36.328125 48.523438 36.546875 48.535156 C 36.703125 49.066406 36.210938 49.28125 35.746094 49.265625 "/>
<path style=" stroke:none;fill-rule:nonzero;fill:rgb(0%,0%,0%);fill-opacity:1;" d="M 53.382813 56.742188 C 53.167969 56.695313 52.617188 56.371094 52.726563 56.089844 C 52.816406 55.863281 53.820313 56 54.039063 56.015625 C 54.195313 56.546875 53.703125 56.757813 53.234375 56.742188 "/>
<path style=" stroke:none;fill-rule:nonzero;fill:rgb(0%,0%,0%);fill-opacity:1;" d="M 81.015625 83.234375 C 80.796875 83.1875 80.25 82.863281 80.359375 82.582031 C 80.449219 82.355469 81.453125 82.492188 81.671875 82.503906 C 81.828125 83.039063 81.335938 83.25 80.867188 83.234375 "/>
<path style=" stroke:none;fill-rule:nonzero;fill:rgb(0%,0%,0%);fill-opacity:1;" d="M 99.648438 78.796875 C 99.429688 78.753906 98.882813 78.425781 98.992188 78.148438 C 99.082031 77.917969 100.085938 78.054688 100.304688 78.066406 C 100.460938 78.601563 99.96875 78.8125 99.5 78.796875 "/>
<path style=" stroke:none;fill-rule:nonzero;fill:rgb(0%,0%,0%);fill-opacity:1;" d="M 111.714844 62.699219 C 111.496094 62.65625 110.945313 62.328125 111.058594 62.050781 C 111.144531 61.820313 112.148438 61.957031 112.367188 61.96875 C 112.523438 62.503906 112.03125 62.714844 111.5625 62.699219 "/>
<path style=" stroke:none;fill-rule:nonzero;fill:rgb(0%,0%,0%);fill-opacity:1;" d="M 97.746094 57.121094 C 97.53125 57.078125 96.980469 56.753906 97.09375 56.472656 C 97.179688 56.242188 98.183594 56.382813 98.402344 56.394531 C 98.558594 56.925781 98.066406 57.140625 97.597656 57.121094 "/>
<path style=" stroke:none;fill-rule:nonzero;fill:rgb(0%,0%,0%);fill-opacity:1;" d="M 97.113281 48.628906 C 96.894531 48.585938 96.347656 48.261719 96.457031 47.980469 C 96.546875 47.75 97.550781 47.886719 97.769531 47.902344 C 97.925781 48.433594 97.433594 48.648438 96.964844 48.628906 "/>
<path style=" stroke:none;fill-rule:nonzero;fill:rgb(0%,0%,0%);fill-opacity:1;" d="M 102.816406 45.121094 C 102.410156 45.007813 101.382813 44.195313 101.589844 43.496094 C 101.757813 42.921875 103.632813 43.265625 104.046875 43.300781 C 104.335938 44.628906 103.417969 45.164063 102.539063 45.121094 "/>
<path style=" stroke:none;fill-rule:nonzero;fill:rgb(0%,0%,0%);fill-opacity:1;" d="M 74.804688 34.308594 C 74.585938 34.261719 74.039063 33.9375 74.148438 33.65625 C 74.238281 33.429688 75.242188 33.566406 75.460938 33.578125 C 75.617188 34.109375 75.125 34.324219 74.65625 34.308594 "/>
<path style=" stroke:none;fill-rule:nonzero;fill:rgb(0%,0%,0%);fill-opacity:1;" d="M 106.367188 70.429688 C 106.148438 70.386719 105.601563 70.0625 105.710938 69.78125 C 105.800781 69.550781 106.800781 69.691406 107.023438 69.703125 C 107.175781 70.234375 106.6875 70.449219 106.21875 70.429688 "/>
<path style=" stroke:none;fill-rule:nonzero;fill:rgb(0%,0%,0%);fill-opacity:1;" d="M 27.992188 53.125 C 27.890625 53 27.722656 53.011719 27.625 52.84375 C 27.433594 52.519531 27.800781 52.542969 28.058594 52.5 C 28.742188 52.382813 29.128906 52.683594 29.710938 53.015625 C 30.136719 53.257813 30.640625 53.226563 31.058594 53.011719 C 31.523438 52.773438 31.109375 52.429688 31.058594 52.109375 C 30.988281 51.652344 31.664063 51.511719 31.960938 51.738281 C 32.152344 51.882813 32.234375 52.191406 32.265625 52.425781 C 32.304688 52.699219 32.359375 53.109375 32.167969 53.316406 C 31.949219 53.554688 31.714844 53.585938 31.398438 53.605469 C 31.128906 53.621094 30.871094 53.660156 30.597656 53.660156 C 29.917969 53.660156 29.363281 53.292969 28.703125 53.257813 C 28.472656 53.246094 28.175781 53.246094 27.992188 53.105469 "/>
</g>
</g>
<g clip-path="url(#clip3)" clip-rule="nonzero">
<g style="fill:rgb(0%,0%,0%);fill-opacity:1;">
  <use xlink:href="#glyph0-1" x="89.537" y="112.936"/>
  <use xlink:href="#glyph0-2" x="94.517688" y="112.936"/>
  <use xlink:href="#glyph0-3" x="100.31989" y="112.936"/>
</g>
<g style="fill:rgb(0%,0%,0%);fill-opacity:1;">
  <use xlink:href="#glyph0-4" x="105.04185" y="112.936"/>
</g>
<g style="fill:rgb(0%,0%,0%);fill-opacity:1;">
  <use xlink:href="#glyph0-3" x="109.422093" y="112.936"/>
  <use xlink:href="#glyph0-5" x="114.792617" y="112.936"/>
  <use xlink:href="#glyph0-2" x="116.797584" y="112.936"/>
  <use xlink:href="#glyph0-6" x="122.599786" y="112.936"/>
</g>
</g>
</g>
</svg>
