<?xml version="1.0" encoding="UTF-8" standalone="no"?>
<svg xmlns="http://www.w3.org/2000/svg" xmlns:xlink="http://www.w3.org/1999/xlink" version="1.1" width="235.4pt" height="246.3pt" viewBox="-1.0 0.0 136.54492 142.82219">
 <metadata id="metadata31626"/>
 <defs id="defs31220">
  <g id="g31222">
   <g id="glyph0-0">
   </g>
   <g id="glyph0-1">
    <path d="M 2.59375,1.546875 C 2.5625,1.515625 2.5,1.484375 2.46875,1.4375 1.703125,0.75 1.234375,-0.3125 1.1875,-1.609375 c -0.046875,-0.875 0.109375,-1.78125 0.53125,-2.5625 0.1875,-0.375 0.4375,-0.6875 0.75,-0.96875 C 2.5,-5.171875 2.5625,-5.203125 2.59375,-5.25 l -0.265625,0 c -0.140625,0 -0.125,0 -0.234375,0.078125 C 1.734375,-4.875 1.421875,-4.5 1.203125,-4.09375 0.53125,-2.828125 0.484375,-1.171875 1.09375,0.1875 c 0.234375,0.5 0.5625,0.9375 1,1.28125 0.078125,0.078125 0.078125,0.078125 0.234375,0.078125 l 0.265625,0 z m 0,0" id="path31228"/>
   </g>
   <g id="glyph0-2">
    <path d="m 0.640625,-2.65625 c 0.125,-0.0625 0.234375,-0.140625 0.34375,-0.1875 C 1.21875,-2.953125 1.453125,-3 1.6875,-3.015625 1.765625,-3.03125 1.84375,-3.03125 1.90625,-3.03125 c 0.28125,0.046875 0.515625,0.234375 0.609375,0.515625 0.0625,0.203125 0.046875,0.4375 0.046875,0.640625 -0.375,0 -0.75,0.03125 -1.09375,0.125 -0.515625,0.125 -1.140625,0.390625 -1.0625,1.015625 0.03125,0.296875 0.1875,0.578125 0.453125,0.71875 C 1.046875,0.0625 1.25,0.0625 1.4375,0.046875 1.75,0.015625 2.0625,-0.0625 2.328125,-0.25 2.421875,-0.3125 2.484375,-0.390625 2.5625,-0.46875 l 0,0.46875 0.5,0 0,-1.828125 c 0,-0.203125 0.03125,-0.40625 -0.015625,-0.59375 -0.0625,-0.5 -0.5,-0.859375 -0.953125,-0.9375 -0.296875,-0.0625 -0.734375,0 -0.953125,0.0625 C 1.046875,-3.28125 0.671875,-3.15625 0.625,-3.09375 0.609375,-3.0625 0.609375,-3 0.609375,-2.96875 c 0.015625,0.109375 0.03125,0.203125 0.03125,0.3125 z M 2.5625,-1.625 l 0,0.515625 c 0,0.125 0,0.265625 -0.0625,0.375 -0.078125,0.15625 -0.234375,0.265625 -0.390625,0.3125 -0.328125,0.125 -0.765625,0.140625 -1.0625,-0.09375 C 0.984375,-0.5625 0.90625,-0.640625 0.890625,-0.75 0.8125,-1.046875 1.078125,-1.28125 1.328125,-1.40625 1.65625,-1.546875 2.109375,-1.625 2.5625,-1.625 z m 0,0" id="path31231"/>
   </g>
   <g id="glyph0-3">
    <path d="m 0.4375,-5.25 c 0.03125,0.046875 0.078125,0.078125 0.125,0.109375 C 1.421875,-4.375 1.90625,-3.125 1.84375,-1.609375 1.8125,-0.859375 1.640625,-0.09375 1.265625,0.5625 1.078125,0.890625 0.84375,1.1875 0.5625,1.4375 0.515625,1.484375 0.46875,1.515625 0.4375,1.546875 l 0.25,0 c 0.15625,0 0.140625,0 0.25,-0.078125 C 1.296875,1.1875 1.59375,0.8125 1.828125,0.390625 2.484375,-0.859375 2.546875,-2.53125 1.9375,-3.875 1.703125,-4.390625 1.359375,-4.8125 0.9375,-5.171875 0.84375,-5.234375 0.84375,-5.25 0.6875,-5.25 l -0.25,0 z m 0,0" id="path31234"/>
   </g>
   <g id="glyph0-4">
    <path d="m 2.96875,-2.265625 0.015625,0 c 0,0.59375 -0.09375,1.296875 -0.59375,1.703125 -0.0625,0.046875 -0.125,0.09375 -0.203125,0.140625 -0.359375,0.171875 -0.8125,0.1875 -1.203125,0 C 0.90625,-0.46875 0.84375,-0.53125 0.75,-0.5625 L 0.5625,-0.203125 C 0.71875,-0.09375 0.890625,0 1.078125,0.046875 c 0.5,0.140625 1.03125,0.0625 1.453125,-0.234375 0.515625,-0.375 0.875,-1.03125 0.953125,-1.78125 C 3.5,-2.171875 3.5,-2.359375 3.5,-2.5625 3.46875,-3.25 3.328125,-3.859375 2.96875,-4.25 2.859375,-4.375 2.71875,-4.484375 2.578125,-4.5625 2.171875,-4.78125 1.640625,-4.75 1.25,-4.53125 0.984375,-4.390625 0.734375,-4.140625 0.59375,-3.890625 0.4375,-3.625 0.390625,-3.328125 0.390625,-3.03125 c 0,0.3125 0.046875,0.609375 0.1875,0.890625 0.140625,0.25 0.34375,0.53125 0.609375,0.65625 0.140625,0.0625 0.296875,0.0625 0.4375,0.0625 0.40625,0 0.796875,-0.171875 1.0625,-0.453125 0.125,-0.109375 0.234375,-0.234375 0.28125,-0.390625 z M 1.875,-4.3125 c 0.328125,-0.015625 0.65625,0.109375 0.84375,0.390625 0.109375,0.15625 0.171875,0.359375 0.203125,0.5625 0.046875,0.203125 0.0625,0.4375 0.015625,0.65625 C 2.84375,-2.25 2.484375,-1.84375 2,-1.8125 1.75,-1.796875 1.46875,-1.828125 1.25,-2 0.984375,-2.21875 0.90625,-2.515625 0.90625,-2.96875 c 0,-0.4375 0.015625,-0.71875 0.234375,-1 C 1.296875,-4.171875 1.53125,-4.265625 1.875,-4.3125 z m 0,0" id="path31237"/>
   </g>
   <g id="glyph0-5">
    <path d="M 1.84375,-4.703125 C 1.671875,-4.6875 1.515625,-4.65625 1.359375,-4.578125 0.625,-4.3125 0.375,-3.359375 0.375,-2.421875 c 0,0.15625 0,0.296875 0,0.4375 0.03125,0.65625 0.171875,1.296875 0.546875,1.6875 0.296875,0.3125 0.765625,0.4375 1.1875,0.40625 0.25,-0.03125 0.484375,-0.125 0.671875,-0.25 C 3.375,-0.5625 3.515625,-1.421875 3.515625,-2.359375 3.515625,-3.140625 3.375,-3.828125 3,-4.25 2.71875,-4.5625 2.265625,-4.75 1.84375,-4.703125 z M 2.4375,-4.1875 c 0.0625,0.03125 0.140625,0.09375 0.203125,0.15625 0.25,0.25 0.34375,0.75 0.359375,1.21875 0,0.09375 0,0.1875 0,0.28125 l 0,0.359375 C 3,-1.5625 2.953125,-0.984375 2.6875,-0.625 2.328125,-0.171875 1.59375,-0.15625 1.21875,-0.609375 1.140625,-0.71875 1.078125,-0.828125 1.03125,-0.9375 0.90625,-1.296875 0.875,-1.75 0.875,-2.203125 l 0,-0.359375 c 0,-0.078125 0.015625,-0.171875 0.015625,-0.265625 0,-0.546875 0.140625,-1.09375 0.515625,-1.328125 C 1.671875,-4.328125 2.09375,-4.375 2.4375,-4.1875 z m 0,0" id="path31240"/>
   </g>
   <g id="glyph0-6">
    <path d="m 0.59375,-4.859375 0,4.859375 0.5,0 0,-0.46875 0.015625,0 c 0.046875,0.109375 0.15625,0.203125 0.25,0.28125 0.3125,0.25 0.828125,0.328125 1.28125,0.109375 0.21875,-0.125 0.390625,-0.28125 0.515625,-0.46875 0.703125,-0.96875 0.28125,-2.546875 -0.6875,-2.78125 -0.140625,-0.03125 -0.28125,-0.03125 -0.4375,-0.015625 -0.40625,0.046875 -0.71875,0.25 -0.953125,0.515625 l 0,-2.03125 -0.484375,0 z M 1.8125,-2.96875 C 2.15625,-3 2.53125,-2.859375 2.75,-2.578125 c 0.15625,0.21875 0.21875,0.484375 0.234375,0.75 0.03125,0.375 -0.015625,0.78125 -0.25,1.09375 -0.203125,0.265625 -0.53125,0.375 -0.84375,0.390625 C 1.609375,-0.328125 1.375,-0.421875 1.21875,-0.640625 1.171875,-0.6875 1.125,-0.75 1.109375,-0.8125 1.09375,-0.859375 1.09375,-0.90625 1.09375,-0.9375 l 0,-1.390625 c 0,-0.078125 -0.015625,-0.15625 0.015625,-0.21875 0.03125,-0.078125 0.109375,-0.125 0.15625,-0.1875 0.15625,-0.125 0.34375,-0.21875 0.546875,-0.234375 z m 0,0" id="path31243"/>
   </g>
   <g id="glyph0-7">
    <path d="M 3.203125,-0.8125 C 3.140625,-0.765625 3.09375,-0.734375 3.03125,-0.6875 2.953125,-0.625 2.84375,-0.5625 2.75,-0.515625 2.3125,-0.3125 1.6875,-0.265625 1.3125,-0.5625 1.046875,-0.75 0.875,-1.109375 0.84375,-1.515625 0.8125,-1.953125 0.921875,-2.46875 1.296875,-2.765625 1.5,-2.921875 1.78125,-3.015625 2.15625,-2.96875 2.484375,-2.953125 2.671875,-2.890625 2.9375,-2.765625 3,-2.734375 3.046875,-2.6875 3.109375,-2.671875 L 3.1875,-3.09375 C 3.03125,-3.15625 2.890625,-3.25 2.71875,-3.296875 2.296875,-3.4375 1.6875,-3.421875 1.3125,-3.25 c -0.34375,0.15625 -0.625,0.4375 -0.796875,0.765625 -0.25,0.515625 -0.25,1.125 0,1.625 0.09375,0.203125 0.21875,0.375 0.390625,0.515625 0.484375,0.4375 1.1875,0.484375 1.78125,0.28125 0.140625,-0.0625 0.28125,-0.125 0.40625,-0.203125 0.046875,-0.03125 0.109375,-0.0625 0.125,-0.09375 C 3.234375,-0.40625 3.203125,-0.8125 3.203125,-0.8125 z m 0,0" id="path31246"/>
   </g>
   <g id="glyph1-0">
   </g>
   <g id="glyph1-1">
    <path d="m 0.75,-3.296875 c 0.078125,0.140625 0.1875,0.265625 0.265625,0.40625 0.0625,0.078125 0.671875,1 0.703125,1.046875 0.03125,0.03125 0.078125,0.09375 0.078125,0.125 0,0.046875 -0.0625,0.109375 -0.109375,0.125 C 1.375,-1.296875 0.046875,-0.046875 0,0 0.1875,0 0.375,0 0.53125,0 L 0.6875,-0.140625 1.984375,-1.4375 c 0.28125,0.484375 0.5625,0.96875 0.875,1.421875 C 3.03125,0 3.21875,0 3.40625,0 3.3125,-0.140625 2.359375,-1.546875 2.34375,-1.578125 c -0.015625,-0.03125 -0.0625,-0.078125 -0.0625,-0.125 0,-0.046875 0.078125,-0.09375 0.109375,-0.109375 0.09375,-0.109375 0.21875,-0.203125 0.328125,-0.3125 0.109375,-0.09375 1.21875,-1.140625 1.25,-1.171875 -0.1875,0 -0.359375,0 -0.53125,0 -0.46875,0.40625 -0.875,0.84375 -1.328125,1.265625 -0.28125,-0.421875 -0.53125,-0.859375 -0.828125,-1.265625 -0.171875,0 -0.34375,0 -0.53125,0 z m 0,0" id="path31252"/>
   </g>
   <g id="glyph1-2">
    <path d="m 0.78125,-0.59375 0,0.59375 0.1875,0 -0.1875,0.78125 0.296875,0 C 1.171875,0.515625 1.28125,0.265625 1.359375,0 1.375,-0.1875 1.375,-0.390625 1.375,-0.59375 l -0.59375,0 z m 0,0" id="path31255"/>
   </g>
   <g id="glyph1-3">
    <path d="m 1.015625,-3.296875 -0.078125,0.375 2.140625,0 L 1.046875,-1 C 0.796875,-0.75 0.53125,-0.515625 0.28125,-0.265625 0.265625,-0.171875 0.234375,-0.09375 0.21875,0 1.171875,0 2.203125,0.015625 3.109375,0 3.15625,-0.125 3.1875,-0.265625 3.21875,-0.390625 l -2.265625,0 L 3.75,-3.046875 c 0.03125,-0.078125 0.046875,-0.171875 0.0625,-0.25 l -2.796875,0 z m 0,0" id="path31258"/>
   </g>
   <g id="glyph1-4">
    <path d="m 0.8125,-3.296875 c 0.015625,0.09375 0.046875,0.1875 0.0625,0.28125 0.140625,0.6875 0.640625,2.9375 0.640625,3.015625 0,0.03125 -0.1875,0.296875 -0.1875,0.296875 -0.15625,0.28125 -0.390625,0.578125 -0.8125,0.53125 -0.09375,0 -0.1875,-0.015625 -0.28125,-0.03125 C 0.171875,0.78125 0.09375,0.75 0.03125,0.734375 l -0.046875,0.4375 C 0.203125,1.21875 0.59375,1.25 0.796875,1.1875 c 0.4375,-0.109375 0.75,-0.59375 0.96875,-0.921875 L 2.109375,-0.28125 C 2.296875,-0.59375 3.90625,-3.140625 4,-3.296875 c -0.171875,0 -0.34375,-0.015625 -0.484375,0 -0.171875,0.25 -0.3125,0.515625 -0.484375,0.75 -0.390625,0.6875 -0.84375,1.3125 -1.1875,2.03125 l -0.015625,0 c -0.09375,-1 -0.34375,-1.859375 -0.515625,-2.78125 l -0.5,0 z m 0,0" id="path31261"/>
   </g>
   <g id="glyph1-5">
    <path d="M 3.234375,-0.625 C 3.28125,-0.375 3.421875,-0.09375 3.671875,0 4.0625,0.171875 4.65625,-0.0625 4.71875,-0.4375 l -0.515625,0 c -0.03125,0.09375 -0.15625,0.125 -0.25,0.09375 -0.1875,-0.0625 -0.234375,-0.40625 -0.25,-0.578125 0,-0.046875 -0.015625,-0.125 -0.015625,-0.171875 0.015625,-0.0625 0.125,-0.1875 0.140625,-0.203125 C 4.15625,-1.75 4.453125,-2.390625 4.578125,-3 4.40625,-3 4.21875,-3 4.0625,-2.984375 l -0.03125,0.09375 C 3.9375,-2.484375 3.796875,-2.140625 3.640625,-1.8125 3.609375,-1.921875 3.609375,-2.03125 3.59375,-2.15625 3.5,-2.609375 3.234375,-3.046875 2.84375,-3.234375 c -0.4375,-0.21875 -0.953125,-0.125 -1.375,0.09375 -0.59375,0.3125 -1.03125,0.9375 -1.125,1.59375 -0.078125,0.5 0.046875,1.03125 0.453125,1.34375 0.078125,0.0625 0.15625,0.125 0.25,0.15625 0.671875,0.265625 1.4375,-0.046875 1.90625,-0.359375 0.09375,-0.078125 0.1875,-0.15625 0.28125,-0.21875 z M 2.5625,-2.890625 C 3.0625,-2.625 3.09375,-1.9375 3.140625,-1.296875 3.15625,-1.140625 3.15625,-1.125 3.0625,-1.015625 2.75,-0.671875 2.25,-0.375 1.71875,-0.34375 1.4375,-0.3125 1.203125,-0.40625 1.0625,-0.53125 0.8125,-0.75 0.796875,-1.125 0.828125,-1.421875 0.890625,-1.953125 1.09375,-2.5 1.5625,-2.796875 c 0.25,-0.140625 0.671875,-0.25 1,-0.09375 z m 0,0" id="path31264"/>
   </g>
   <g id="glyph2-0">
   </g>
   <g id="glyph2-1">
    <path d="m 1.015625,-2.734375 c -0.015625,0 -0.046875,0 -0.0625,0.015625 -0.125,0.046875 -0.140625,0.15625 -0.171875,0.265625 L 0.71875,-2.25 0.265625,-0.734375 c -0.015625,0.046875 -0.125,0.40625 -0.125,0.4375 0.015625,0.046875 0.09375,0.0625 0.140625,0.078125 0.015625,0 0.03125,0.015625 0.0625,0.015625 0.046875,-0.015625 0.078125,-0.09375 0.09375,-0.140625 l 0.1875,-0.421875 0.453125,-1.0625 c 0.046875,-0.09375 0.21875,-0.46875 0.25,-0.5625 0.078125,-0.21875 -0.15625,-0.375 -0.3125,-0.34375 z m 0,0" id="path31270"/>
   </g>
   <g id="glyph2-2">
    <path d="M 0.46875,-1.890625 C 0.21875,-1.53125 0.234375,-1.046875 0.484375,-0.6875 0.671875,-0.4375 1,-0.25 1.40625,-0.296875 1.71875,-0.3125 1.953125,-0.484375 2.109375,-0.6875 2.34375,-1 2.375,-1.421875 2.1875,-1.765625 2.078125,-2 1.859375,-2.1875 1.59375,-2.265625 c -0.484375,-0.140625 -0.90625,0.09375 -1.125,0.375 z m 1.3125,-0.03125 C 2.109375,-1.65625 2.1875,-1.15625 1.921875,-0.828125 1.875,-0.734375 1.78125,-0.671875 1.703125,-0.625 c -0.28125,0.171875 -0.640625,0.140625 -0.875,-0.046875 -0.34375,-0.25 -0.40625,-0.765625 -0.15625,-1.09375 0.0625,-0.09375 0.140625,-0.15625 0.234375,-0.21875 0.28125,-0.15625 0.625,-0.109375 0.875,0.0625 z m 0,0" id="path31273"/>
   </g>
   <g id="glyph3-0">
   </g>
   <g id="glyph3-1">
    <path d="m 0.734375,-2 c -0.140625,0.046875 -0.15625,0.25 0,0.3125 0.03125,0 0.078125,0 0.125,0 l 3.953125,0 c 0.09375,0 0.21875,0.03125 0.296875,-0.046875 C 5.203125,-1.8125 5.15625,-1.984375 5.03125,-2 4.9375,-2.015625 4.84375,-2.015625 4.75,-2.015625 l -3.875,0 c -0.046875,0 -0.09375,0 -0.140625,0.015625 z m 0,0" id="path31279"/>
   </g>
  </g>
 </defs>
 <g transform="translate(-166.28774,0.00192096)" id="g31891">
  <path d="m 226.96094,71.11719 0,42.52343" id="path31312" fill="none" stroke="#000000" stroke-linejoin="round" stroke-linecap="round" stroke-width="0.369" stroke-miterlimit="10"/>
  <path d="m 263.42188,65.74219 c 0.2539,1.7539 0.38671,3.55078 0.38671,5.375" id="path31314" fill="none" stroke="#000000" stroke-linejoin="round" stroke-linecap="round" stroke-width="0.369" stroke-miterlimit="10"/>
  <path d="M 262.5625,61.578125 C 262.625,63 262.60156,64.433594 262.49609,65.875 l 1.84766,-0.269531 c -0.51563,-1.390625 -1.11328,-2.734375 -1.78125,-4.027344" id="path31316"/>
  <path d="M 262.5625,61.57812 C 262.625,63 262.6016,64.43359 262.4961,65.875 l 1.84766,-0.26953 c -0.51562,-1.39063 -1.11328,-2.73438 -1.78125,-4.02735 z m 0,0" id="path31318" fill="none" stroke="#000000" stroke-linejoin="round" stroke-linecap="round" stroke-width="0.369" stroke-miterlimit="10"/>
  <path d="m 232.33594,107.57812 c -1.75391,0.25782 -3.55078,0.39063 -5.375,0.39063 l 0,0" id="path31320" fill="none" stroke="#000000" stroke-linejoin="round" stroke-linecap="round" stroke-width="0.369" stroke-miterlimit="10"/>
  <path d="m 236.49609,106.72266 c -1.41797,0.0625 -2.85156,0.0391 -4.29687,-0.0664 l 0.27344,1.84766 c 1.38671,-0.51563 2.73046,-1.11328 4.02343,-1.78125" id="path31322"/>
  <path d="m 236.49609,106.72266 c -1.41796,0.0625 -2.85156,0.0391 -4.29687,-0.0664 l 0.27344,1.84766 c 1.38672,-0.51563 2.73047,-1.11329 4.02343,-1.78125 z m 0,0" id="path31324" fill="none" stroke="#000000" stroke-linejoin="round" stroke-linecap="round" stroke-width="0.369" stroke-miterlimit="10"/>
  <path d="M 193.33203,100.35937 226.96094,71.11719" id="path31326" fill="none" stroke="#000000" stroke-linejoin="round" stroke-linecap="round" stroke-width="0.51" stroke-miterlimit="10"/>
  <path d="m 189.05469,104.08203 5.10156,-2.77344 -1.64844,-1.898434 -3.45312,4.671874" id="path31328"/>
  <path d="m 189.05469,104.08203 5.10156,-2.77344 -1.64844,-1.89843 -3.45312,4.67187 z m 0,0" id="path31330" fill="none" stroke="#000000" stroke-linejoin="round" stroke-linecap="round" stroke-width="0.51" stroke-miterlimit="10"/>
  <path d="m 292.15625,71.11719 -65.19531,0" id="path31332" fill="none" stroke="#000000" stroke-linejoin="round" stroke-linecap="round" stroke-width="0.51" stroke-miterlimit="10"/>
  <path d="m 297.82422,71.117188 -5.66797,-1.253907 0,2.511719 5.66797,-1.257812" id="path31334"/>
  <path d="m 297.82422,71.11719 -5.66797,-1.25391 0,2.51172 5.66797,-1.25781 z m 0,0" id="path31336" fill="none" stroke="#000000" stroke-linejoin="round" stroke-linecap="round" stroke-width="0.51" stroke-miterlimit="10"/>
  <path d="m 226.96094,5.92188 0,65.19531" id="path31338" fill="none" stroke="#000000" stroke-linejoin="round" stroke-linecap="round" stroke-width="0.51" stroke-miterlimit="10"/>
  <path d="m 226.96094,0.253906 -1.25782,5.667969 2.51172,0 -1.2539,-5.667969" id="path31340"/>
  <path d="m 226.96094,0.25391 -1.25781,5.66797 2.51171,0 -1.2539,-5.66797 z m 0,0" id="path31342" fill="none" stroke="#000000" stroke-linejoin="round" stroke-linecap="round" stroke-width="0.51" stroke-miterlimit="10"/>
  <path d="M 243.83203,134.09375 226.96094,71.11719" id="path31344" stroke-dasharray="4.3465 4.3465" fill="none" stroke="#000000" stroke-linejoin="round" stroke-linecap="round" stroke-width="0.51" stroke-miterlimit="10"/>
  <path d="m 245.30078,139.57031 -0.25391,-5.80078 -2.42968,0.65234 2.68359,5.14844" id="path31346"/>
  <path d="m 245.30078,139.57031 -0.2539,-5.80078 -2.42969,0.65234 2.68359,5.14844 z m 0,0" id="path31348" fill="none" stroke="#000000" stroke-linejoin="round" stroke-linecap="round" stroke-width="0.51" stroke-miterlimit="10"/>
  <path d="m 289.93359,54.24609 -62.97265,16.8711" id="path31350" stroke-dasharray="4.3465 4.3465" fill="none" stroke="#000000" stroke-linejoin="round" stroke-linecap="round" stroke-width="0.51" stroke-miterlimit="10"/>
  <path d="m 295.41016,52.777344 -5.80079,0.253906 0.65235,2.429688 5.14844,-2.683594" id="path31352"/>
  <path d="m 295.41016,52.77734 -5.80078,0.25391 0.65234,2.42969 5.14844,-2.6836 z m 0,0" id="path31354" fill="none" stroke="#000000" stroke-linejoin="round" stroke-linecap="round" stroke-width="0.51" stroke-miterlimit="10"/>
  <use id="use31462" width="298.1" height="259.82" xlink:href="#glyph0-1" transform="translate(165.36021,36.140141)"/>
  <use id="use31466" width="298.1" height="259.82" xlink:href="#glyph0-6" transform="translate(168.36023,36.140141)"/>
  <use id="use31470" width="298.1" height="259.82" xlink:href="#glyph0-3" transform="translate(172.20023,36.140141)"/>
  <use id="use31474" width="298.1" height="259.82" xlink:href="#glyph1-1" transform="translate(195.48012,105.02024)"/>
  <use id="use31478" width="298.1" height="259.82" xlink:href="#glyph1-2" transform="translate(199.5602,105.02024)"/>
  <use id="use31482" width="298.1" height="259.82" xlink:href="#glyph1-3" transform="translate(203.04027,105.02024)"/>
  <use id="use31486" width="298.1" height="259.82" xlink:href="#glyph2-1" transform="translate(207.11992,102.50032)"/>
  <use id="use31490" width="298.1" height="259.82" xlink:href="#glyph2-1" transform="translate(208.55991,102.50032)"/>
  <use id="use31494" width="298.1" height="259.82" xlink:href="#glyph1-4" transform="translate(292.91992,77.420219)"/>
  <use id="use31498" width="298.1" height="259.82" xlink:href="#glyph1-3" transform="translate(229.68011,4.7003198)"/>
  <use id="use31502" width="298.1" height="259.82" xlink:href="#glyph1-1" transform="translate(247.20001,139.46033)"/>
  <use id="use31506" width="298.1" height="259.82" xlink:href="#glyph2-1" transform="translate(251.28009,136.9404)"/>
  <use id="use31510" width="298.1" height="259.82" xlink:href="#glyph2-1" transform="translate(252.72009,136.9404)"/>
  <use id="use31514" width="298.1" height="259.82" xlink:href="#glyph1-4" transform="translate(288.96021,49.7006)"/>
  <use id="use31518" width="298.1" height="259.82" xlink:href="#glyph2-1" transform="translate(293.16019,47.18029)"/>
  <use id="use31522" width="298.1" height="259.82" xlink:href="#glyph2-1" transform="translate(294.60019,47.18029)"/>
  <use id="use31526" width="298.1" height="259.82" xlink:href="#glyph1-5" transform="translate(265.91998,67.340492)"/>
  <use id="use31530" width="298.1" height="259.82" xlink:href="#glyph1-5" transform="translate(229.92,114.26039)"/>
 </g>
</svg>
