<?xml version="1.0" encoding="UTF-8"?>
<svg xmlns="http://www.w3.org/2000/svg" xmlns:xlink="http://www.w3.org/1999/xlink" width="280pt" height="162pt" viewBox="0 0 202 117" version="1.1">
<defs>
<g>
<symbol overflow="visible" id="glyph0-0">
<path style="stroke:none;" d=""/>
</symbol>
<symbol overflow="visible" id="glyph0-1">
<path style="stroke:none;" d="M 0.734375 -4.84375 L 0.734375 0 L 3.890625 0 L 3.890625 -0.40625 L 1.265625 -0.40625 L 1.265625 -4.84375 L 0.734375 -4.84375 Z M 0.734375 -4.84375 "/>
</symbol>
<symbol overflow="visible" id="glyph0-2">
<path style="stroke:none;" d="M 0.21875 0 L 0.578125 0 C 0.625 0 0.6875 0.015625 0.71875 -0.015625 C 0.75 -0.03125 0.75 -0.0625 0.765625 -0.09375 C 0.875 -0.34375 1.21875 -1.203125 1.265625 -1.296875 C 1.28125 -1.359375 1.296875 -1.390625 1.375 -1.390625 L 3.046875 -1.390625 C 3.234375 -1.390625 3.421875 -1.40625 3.609375 -1.390625 C 3.6875 -1.390625 3.703125 -1.296875 3.734375 -1.234375 C 3.8125 -1.03125 4.1875 -0.125 4.203125 -0.0625 C 4.234375 0.015625 4.296875 0 4.40625 0 L 4.796875 0 C 4.625 -0.453125 4.4375 -0.890625 4.25 -1.34375 L 2.8125 -4.828125 C 2.796875 -4.859375 2.796875 -4.90625 2.765625 -4.90625 C 2.71875 -4.90625 2.671875 -4.90625 2.625 -4.90625 L 2.375 -4.90625 C 2.328125 -4.90625 2.265625 -4.921875 2.234375 -4.890625 C 2.203125 -4.875 2.1875 -4.84375 2.1875 -4.8125 L 0.765625 -1.34375 L 0.40625 -0.484375 C 0.34375 -0.328125 0.265625 -0.171875 0.21875 0 Z M 2.484375 -4.328125 C 2.796875 -3.46875 3.15625 -2.640625 3.5 -1.8125 L 1.46875 -1.8125 C 1.796875 -2.640625 2.15625 -3.46875 2.46875 -4.328125 L 2.484375 -4.328125 Z M 2.484375 -4.328125 "/>
</symbol>
<symbol overflow="visible" id="glyph0-3">
<path style="stroke:none;" d="M 0.765625 -4.84375 L 0.765625 0 L 1.234375 0 L 1.234375 -4.328125 L 1.25 -4.328125 C 1.28125 -4.1875 1.359375 -4.0625 1.40625 -3.921875 C 1.5 -3.703125 2.96875 -0.265625 3 -0.1875 C 3.046875 -0.125 3.015625 -0.109375 3.15625 -0.109375 L 3.359375 -0.109375 C 3.390625 -0.109375 3.421875 -0.109375 3.46875 -0.109375 C 3.5 -0.125 3.5 -0.15625 3.515625 -0.1875 C 3.546875 -0.234375 3.5625 -0.296875 3.59375 -0.359375 L 3.921875 -1.125 C 4.015625 -1.359375 5.265625 -4.234375 5.296875 -4.328125 L 5.296875 -4.328125 L 5.296875 0 L 5.78125 0 L 5.78125 -4.84375 C 5.546875 -4.828125 5.265625 -4.859375 5.078125 -4.828125 L 5.03125 -4.734375 L 3.25 -0.625 L 1.9375 -3.671875 C 1.765625 -4.0625 1.625 -4.453125 1.4375 -4.828125 C 1.25 -4.859375 0.96875 -4.828125 0.765625 -4.84375 Z M 0.765625 -4.84375 "/>
</symbol>
<symbol overflow="visible" id="glyph0-4">
<path style="stroke:none;" d="M 0.734375 -4.84375 L 0.734375 0 L 1.265625 0 L 1.265625 -2.015625 L 2.296875 -2.015625 C 2.453125 -2.015625 2.625 -2.015625 2.78125 -2.015625 C 3.546875 -2.078125 4.296875 -2.515625 4.421875 -3.21875 C 4.5 -3.625 4.328125 -3.953125 4.140625 -4.1875 C 3.859375 -4.53125 3.421875 -4.765625 2.90625 -4.828125 C 2.65625 -4.84375 2.40625 -4.84375 2.171875 -4.84375 L 0.734375 -4.84375 Z M 1.25 -2.421875 L 1.25 -4.421875 L 2.296875 -4.421875 C 2.90625 -4.421875 3.46875 -4.359375 3.765625 -3.953125 C 4 -3.640625 4 -3.203125 3.765625 -2.890625 C 3.6875 -2.78125 3.578125 -2.703125 3.46875 -2.625 C 3.109375 -2.421875 2.703125 -2.421875 2.328125 -2.421875 L 1.25 -2.421875 Z M 1.25 -2.421875 "/>
</symbol>
<symbol overflow="visible" id="glyph0-5">
<path style="stroke:none;" d="M 2.71875 -2 L 0.6875 -2 C 0.640625 -2 0.578125 -2 0.53125 -2 C 0.453125 -1.96875 0.40625 -1.90625 0.40625 -1.84375 C 0.40625 -1.765625 0.453125 -1.703125 0.53125 -1.6875 C 0.578125 -1.671875 0.640625 -1.671875 0.6875 -1.671875 L 2.71875 -1.671875 L 2.71875 0.359375 C 2.71875 0.40625 2.703125 0.453125 2.71875 0.515625 C 2.75 0.578125 2.8125 0.625 2.875 0.625 C 2.953125 0.625 3.015625 0.578125 3.03125 0.515625 C 3.046875 0.453125 3.03125 0.40625 3.03125 0.359375 L 3.03125 -1.671875 L 5.078125 -1.671875 C 5.125 -1.671875 5.171875 -1.671875 5.21875 -1.6875 C 5.296875 -1.703125 5.34375 -1.765625 5.34375 -1.84375 C 5.34375 -1.90625 5.296875 -1.96875 5.21875 -2 C 5.171875 -2 5.125 -2 5.078125 -2 L 3.03125 -2 L 3.03125 -4.03125 C 3.03125 -4.078125 3.046875 -4.140625 3.03125 -4.1875 C 3.015625 -4.265625 2.953125 -4.3125 2.875 -4.3125 C 2.8125 -4.3125 2.75 -4.265625 2.71875 -4.1875 C 2.703125 -4.140625 2.71875 -4.078125 2.71875 -4.03125 L 2.71875 -2 Z M 2.71875 -2 "/>
</symbol>
<symbol overflow="visible" id="glyph0-6">
<path style="stroke:none;" d="M 0.75 -4.84375 L 0.75 0 L 2.28125 0 C 2.53125 0 2.78125 0 3.03125 -0.015625 C 3.703125 -0.078125 4.359375 -0.421875 4.578125 -0.96875 C 4.75 -1.375 4.609375 -1.75 4.328125 -2.015625 C 4 -2.3125 3.5625 -2.46875 3.140625 -2.53125 C 3.265625 -2.5625 3.375 -2.578125 3.5 -2.625 C 3.90625 -2.78125 4.390625 -3.078125 4.4375 -3.546875 C 4.453125 -3.71875 4.390625 -3.921875 4.328125 -4.015625 C 4.03125 -4.53125 3.34375 -4.796875 2.625 -4.84375 C 2.453125 -4.84375 2.296875 -4.84375 2.125 -4.84375 L 0.75 -4.84375 Z M 1.25 -2.703125 L 1.25 -4.421875 L 2.0625 -4.421875 C 2.5 -4.421875 2.921875 -4.40625 3.328125 -4.25 C 3.59375 -4.140625 3.921875 -3.96875 3.953125 -3.671875 C 4 -3.3125 3.65625 -3.046875 3.375 -2.921875 C 3.078125 -2.796875 2.765625 -2.734375 2.4375 -2.703125 C 2.296875 -2.703125 2.15625 -2.703125 2.015625 -2.703125 L 1.25 -2.703125 Z M 1.25 -0.40625 L 1.25 -2.328125 L 2.125 -2.328125 C 2.265625 -2.328125 2.375 -2.328125 2.5 -2.328125 C 2.859375 -2.3125 3.21875 -2.25 3.546875 -2.078125 C 3.875 -1.921875 4.203125 -1.640625 4.15625 -1.25 C 4.109375 -0.90625 3.765625 -0.703125 3.484375 -0.578125 C 3.21875 -0.46875 2.921875 -0.421875 2.625 -0.40625 C 2.5 -0.40625 2.390625 -0.40625 2.265625 -0.40625 L 1.25 -0.40625 Z M 1.25 -0.40625 "/>
</symbol>
<symbol overflow="visible" id="glyph0-7">
<path style="stroke:none;" d="M 0.28125 -4.8125 L 0.28125 -4.40625 L 2.421875 -4.40625 L 2.421875 0 L 2.953125 0 L 2.953125 -4.40625 L 5.078125 -4.40625 L 5.078125 -4.8125 L 0.28125 -4.8125 Z M 0.28125 -4.8125 "/>
</symbol>
<symbol overflow="visible" id="glyph0-8">
<path style="stroke:none;" d="M 0.734375 -4.828125 L 0.734375 0 L 4.328125 0 L 4.328125 -0.4375 L 1.265625 -0.4375 L 1.265625 -2.296875 L 4 -2.296875 L 4 -2.703125 L 1.265625 -2.703125 L 1.265625 -4.40625 L 4.203125 -4.40625 L 4.203125 -4.828125 L 0.734375 -4.828125 Z M 0.734375 -4.828125 "/>
</symbol>
<symbol overflow="visible" id="glyph0-9">
<path style="stroke:none;" d="M 0.734375 -4.84375 L 0.734375 0 L 1.25 0 L 1.25 -2.21875 L 2.28125 -2.21875 C 2.421875 -2.21875 2.546875 -2.234375 2.65625 -2.203125 C 2.78125 -2.03125 2.90625 -1.859375 3.03125 -1.671875 C 3.421875 -1.125 3.8125 -0.5625 4.21875 -0.015625 C 4.390625 0 4.578125 0 4.75 0 L 4.46875 -0.390625 L 3.125 -2.28125 C 3.25 -2.296875 3.390625 -2.328125 3.515625 -2.390625 C 4.015625 -2.5625 4.578125 -2.96875 4.53125 -3.5625 C 4.515625 -3.796875 4.453125 -3.9375 4.328125 -4.109375 C 4.015625 -4.515625 3.484375 -4.765625 2.875 -4.828125 C 2.625 -4.84375 2.390625 -4.84375 2.125 -4.84375 L 0.734375 -4.84375 Z M 1.25 -2.609375 L 1.25 -4.421875 L 2.296875 -4.421875 C 2.640625 -4.421875 3 -4.421875 3.34375 -4.328125 C 3.671875 -4.203125 4 -3.96875 4.046875 -3.59375 C 4.0625 -3.359375 3.96875 -3.140625 3.8125 -2.984375 C 3.6875 -2.875 3.546875 -2.796875 3.390625 -2.734375 C 3.046875 -2.609375 2.6875 -2.609375 2.328125 -2.609375 L 1.25 -2.609375 Z M 1.25 -2.609375 "/>
</symbol>
<symbol overflow="visible" id="glyph0-10">
<path style="stroke:none;" d="M 0.015625 -4.84375 L 2.234375 -1.9375 C 2.265625 -1.3125 2.234375 -0.640625 2.25 0 L 2.765625 0 C 2.765625 -0.640625 2.75 -1.296875 2.765625 -1.921875 L 2.828125 -2.015625 L 4.984375 -4.84375 C 4.78125 -4.84375 4.578125 -4.84375 4.390625 -4.828125 L 4.328125 -4.765625 L 2.984375 -3.03125 C 2.828125 -2.828125 2.671875 -2.625 2.515625 -2.421875 L 2.34375 -2.65625 L 2.078125 -3.015625 C 1.609375 -3.609375 1.15625 -4.234375 0.671875 -4.828125 C 0.484375 -4.859375 0.234375 -4.828125 0.015625 -4.84375 Z M 0.015625 -4.84375 "/>
</symbol>
<symbol overflow="visible" id="glyph0-11">
<path style="stroke:none;" d="M 0.4375 -0.90625 C 0.421875 -0.84375 0.328125 -0.40625 0.34375 -0.375 C 0.359375 -0.359375 0.390625 -0.34375 0.40625 -0.328125 L 0.578125 -0.25 C 1.234375 0.09375 2.359375 0.296875 3.109375 -0.125 C 3.5 -0.328125 3.875 -0.765625 3.875 -1.296875 C 3.875 -2.015625 3.296875 -2.453125 2.796875 -2.625 C 2.65625 -2.671875 2.140625 -2.78125 2.046875 -2.796875 C 1.6875 -2.875 1.296875 -2.96875 1.046875 -3.265625 C 1.015625 -3.3125 0.984375 -3.359375 0.96875 -3.421875 C 0.765625 -3.875 1.125 -4.265625 1.546875 -4.421875 C 2 -4.59375 2.578125 -4.546875 2.984375 -4.375 C 3.09375 -4.328125 3.21875 -4.265625 3.3125 -4.1875 C 3.375 -4.15625 3.4375 -4.109375 3.5 -4.0625 C 3.53125 -4.1875 3.546875 -4.328125 3.5625 -4.453125 C 3.578125 -4.546875 3.625 -4.609375 3.515625 -4.640625 L 3.34375 -4.71875 C 2.578125 -5.03125 1.546875 -5.078125 0.890625 -4.515625 C 0.796875 -4.453125 0.71875 -4.359375 0.640625 -4.265625 C 0.4375 -3.984375 0.34375 -3.546875 0.546875 -3.15625 C 0.71875 -2.8125 1.015625 -2.578125 1.390625 -2.4375 C 1.546875 -2.390625 1.6875 -2.359375 1.84375 -2.328125 C 2 -2.28125 2.5625 -2.171875 2.65625 -2.125 C 2.921875 -2.03125 3.1875 -1.859375 3.3125 -1.59375 C 3.375 -1.484375 3.390625 -1.375 3.390625 -1.203125 C 3.34375 -0.78125 2.96875 -0.5 2.59375 -0.390625 C 1.984375 -0.21875 1.296875 -0.40625 0.84375 -0.640625 C 0.703125 -0.71875 0.578125 -0.828125 0.4375 -0.90625 Z M 0.4375 -0.90625 "/>
</symbol>
<symbol overflow="visible" id="glyph0-12">
<path style="stroke:none;" d="M 0.109375 -4.84375 C 0.140625 -4.703125 1.609375 -0.25 1.609375 -0.25 C 1.609375 -0.203125 1.671875 0.015625 1.703125 0.03125 C 1.734375 0.0625 1.796875 0.046875 1.828125 0.046875 L 2.046875 0.046875 C 2.078125 0.046875 2.125 0.0625 2.15625 0.046875 C 2.1875 0.046875 2.203125 0 2.21875 -0.015625 C 2.234375 -0.078125 2.515625 -0.984375 2.515625 -0.984375 L 3.203125 -3.109375 C 3.296875 -3.390625 3.515625 -4.0625 3.5625 -4.328125 L 3.578125 -4.328125 C 3.671875 -3.890625 3.8125 -3.53125 3.921875 -3.125 C 4.265625 -2.0625 4.59375 -1 4.953125 0.03125 C 5.09375 0.0625 5.296875 0.046875 5.453125 0.046875 L 5.484375 -0.03125 L 6.625 -3.515625 L 7.046875 -4.84375 C 6.90625 -4.84375 6.734375 -4.84375 6.59375 -4.828125 L 6.5625 -4.75 C 6.109375 -3.328125 5.625 -1.953125 5.21875 -0.515625 L 5.203125 -0.515625 C 5.1875 -0.640625 5.140625 -0.765625 5.09375 -0.890625 L 4.890625 -1.5625 C 4.8125 -1.8125 3.875 -4.78125 3.828125 -4.8125 C 3.8125 -4.84375 3.734375 -4.84375 3.703125 -4.84375 L 3.34375 -4.84375 L 2.390625 -1.875 C 2.25 -1.421875 2.078125 -0.984375 1.984375 -0.515625 C 1.671875 -1.609375 1.3125 -2.640625 0.96875 -3.703125 C 0.84375 -4.0625 0.75 -4.484375 0.59375 -4.828125 C 0.453125 -4.84375 0.28125 -4.84375 0.109375 -4.84375 Z M 0.109375 -4.84375 "/>
</symbol>
<symbol overflow="visible" id="glyph0-13">
<path style="stroke:none;" d="M 0.734375 -4.84375 L 0.734375 0 L 1.265625 0 L 1.265625 -4.84375 L 0.734375 -4.84375 Z M 0.734375 -4.84375 "/>
</symbol>
<symbol overflow="visible" id="glyph0-14">
<path style="stroke:none;" d="M 4.515625 -0.796875 C 4.125 -0.578125 3.875 -0.375 3.296875 -0.359375 C 3.09375 -0.359375 2.875 -0.34375 2.671875 -0.390625 C 2.109375 -0.5 1.640625 -0.890625 1.375 -1.390625 C 0.890625 -2.28125 1.125 -3.5 1.953125 -4.125 C 2.09375 -4.21875 2.234375 -4.3125 2.390625 -4.375 C 2.859375 -4.53125 3.421875 -4.515625 3.890625 -4.34375 C 4.0625 -4.265625 4.21875 -4.1875 4.375 -4.109375 C 4.40625 -4.28125 4.453125 -4.46875 4.46875 -4.640625 C 4.328125 -4.703125 4.171875 -4.75 4 -4.78125 C 3.671875 -4.859375 3.171875 -4.921875 2.796875 -4.890625 C 2.078125 -4.828125 1.46875 -4.421875 1.109375 -3.9375 C 0.640625 -3.34375 0.484375 -2.546875 0.65625 -1.8125 C 0.953125 -0.6875 1.90625 0.125 3.28125 0.046875 C 3.734375 0.03125 4.015625 -0.0625 4.375 -0.234375 C 4.40625 -0.265625 4.53125 -0.3125 4.546875 -0.34375 C 4.5625 -0.390625 4.515625 -0.6875 4.515625 -0.796875 Z M 4.515625 -0.796875 "/>
</symbol>
<symbol overflow="visible" id="glyph0-15">
<path style="stroke:none;" d="M 0.734375 -4.84375 L 0.734375 0 L 1.265625 0 L 1.265625 -2.3125 L 3.984375 -2.3125 L 3.984375 0 L 4.515625 0 L 4.515625 -4.84375 L 3.984375 -4.84375 L 3.984375 -2.71875 L 1.265625 -2.71875 L 1.265625 -4.84375 L 0.734375 -4.84375 Z M 0.734375 -4.84375 "/>
</symbol>
<symbol overflow="visible" id="glyph1-0">
<path style="stroke:none;" d=""/>
</symbol>
<symbol overflow="visible" id="glyph1-1">
<path style="stroke:none;" d="M 0.734375 -2 C 0.59375 -1.953125 0.578125 -1.734375 0.71875 -1.6875 C 0.765625 -1.671875 0.8125 -1.671875 0.84375 -1.671875 L 4.78125 -1.671875 C 4.875 -1.671875 5.015625 -1.65625 5.09375 -1.71875 C 5.171875 -1.8125 5.125 -1.96875 5 -2 C 4.921875 -2.015625 4.828125 -2 4.734375 -2 L 0.859375 -2 C 0.828125 -2 0.78125 -2 0.734375 -2 Z M 0.734375 -2 "/>
</symbol>
</g>
<clipPath id="clip1">
  <path d="M -205 667 L 407 667 L 407 -125 L -205 -125 L -205 667 Z M -205 667 "/>
</clipPath>
<clipPath id="clip2">
  <path d="M -0.714844 117.3125 L 201.960938 117.3125 L 201.960938 -0.199219 L -0.714844 -0.199219 L -0.714844 117.3125 Z M -0.714844 117.3125 "/>
</clipPath>
<clipPath id="clip3">
  <path d="M -205 667 L 407 667 L 407 -125 L -205 -125 L -205 667 Z M -205 667 "/>
</clipPath>
</defs>
<g id="surface0">
<g clip-path="url(#clip1)" clip-rule="nonzero">
<g clip-path="url(#clip2)" clip-rule="nonzero">
<path style=" stroke:none;fill-rule:nonzero;fill:rgb(100%,100%,100%);fill-opacity:1;" d="M -0.714844 117.3125 L 201.960938 117.3125 L 201.960938 -0.199219 L -0.714844 -0.199219 L -0.714844 117.3125 Z M -0.714844 117.3125 "/>
<path style="fill-rule:nonzero;fill:rgb(0%,0%,0%);fill-opacity:1;stroke-width:0.3985;stroke-linecap:butt;stroke-linejoin:miter;stroke:rgb(0%,0%,0%);stroke-opacity:1;stroke-miterlimit:10;" d="M 1485.36708 729.452865 L 1344.055523 793.224234 " transform="matrix(0.107807,0,0,-0.107807,-0.715,117.312)"/>
<path style="fill:none;stroke-width:7.49992;stroke-linecap:butt;stroke-linejoin:miter;stroke:rgb(0%,0%,0%);stroke-opacity:1;stroke-miterlimit:10;" d="M 1485.36708 729.452865 L 1344.055523 793.224234 " transform="matrix(0.107807,0,0,-0.107807,-0.715,117.312)"/>
<path style="fill:none;stroke-width:7.49995;stroke-linecap:butt;stroke-linejoin:round;stroke:rgb(0%,0%,0%);stroke-opacity:1;stroke-miterlimit:10;" d="M 690.362755 15.720802 L 837.834046 100.725138 L 837.834046 1078.20254 L 690.362755 993.198204 L 690.362755 15.720802 Z M 690.362755 15.720802 " transform="matrix(0.107807,0,0,-0.107807,-0.715,117.312)"/>
<path style="fill:none;stroke-width:7.49995;stroke-linecap:butt;stroke-linejoin:round;stroke:rgb(0%,0%,0%);stroke-opacity:1;stroke-miterlimit:10;" d="M 247.876413 569.879507 L 22.864935 569.879507 L 22.864935 993.198204 L 690.362755 993.198204 L 690.362755 15.720802 L 22.864935 15.720802 L 22.864935 439.039499 L 247.876413 439.039499 L 247.876413 229.028785 L 465.351276 229.028785 L 465.351276 779.89022 L 247.876413 779.89022 L 247.876413 569.915741 L 247.876413 569.879507 Z M 247.876413 569.879507 " transform="matrix(0.107807,0,0,-0.107807,-0.715,117.312)"/>
<path style="fill:none;stroke-width:7.49995;stroke-linecap:butt;stroke-linejoin:miter;stroke:rgb(0%,0%,0%);stroke-opacity:1;stroke-miterlimit:10;" d="M 170.37246 1078.20254 L 837.87028 1078.20254 L 690.362755 993.198204 L 22.864935 993.198204 L 170.37246 1078.20254 Z M 170.37246 1078.20254 " transform="matrix(0.107807,0,0,-0.107807,-0.715,117.312)"/>
<path style="fill:none;stroke-width:7.49995;stroke-linecap:butt;stroke-linejoin:miter;stroke:rgb(0%,0%,0%);stroke-opacity:1;stroke-miterlimit:10;" d="M 247.876413 569.879507 L 337.047629 626.730233 L 337.047629 779.89022 " transform="matrix(0.107807,0,0,-0.107807,-0.715,117.312)"/>
<path style="fill:none;stroke-width:7.49995;stroke-linecap:butt;stroke-linejoin:round;stroke:rgb(0%,0%,0%);stroke-opacity:1;stroke-miterlimit:10;" d="M 247.876413 439.039499 L 337.047629 492.375553 L 337.047629 283.379384 L 247.876413 230.007096 " transform="matrix(0.107807,0,0,-0.107807,-0.715,117.312)"/>
<path style="fill:none;stroke-width:7.49995;stroke-linecap:butt;stroke-linejoin:miter;stroke:rgb(0%,0%,0%);stroke-opacity:1;stroke-miterlimit:10;" d="M 23.227272 439.039499 L 112.398488 492.375553 L 337.047629 492.375553 " transform="matrix(0.107807,0,0,-0.107807,-0.715,117.312)"/>
<path style="fill:none;stroke-width:7.49992;stroke-linecap:butt;stroke-linejoin:miter;stroke:rgb(0%,0%,0%);stroke-opacity:1;stroke-miterlimit:10;" d="M 451.075185 283.451851 L 337.047629 283.451851 " transform="matrix(0.107807,0,0,-0.107807,-0.715,117.312)"/>
<path style="fill:none;stroke-width:7.49995;stroke-linecap:butt;stroke-linejoin:round;stroke:rgb(0%,0%,0%);stroke-opacity:1;stroke-miterlimit:10;" d="M 1485.36708 729.452865 L 1769.040971 729.452865 L 1769.040971 538.211225 " transform="matrix(0.107807,0,0,-0.107807,-0.715,117.312)"/>
<path style="fill:none;stroke-width:7.49995;stroke-linecap:butt;stroke-linejoin:round;stroke:rgb(0%,0%,0%);stroke-opacity:1;stroke-miterlimit:10;" d="M 1769.040971 394.472008 L 1769.040971 203.194134 L 837.834046 203.194134 L 837.834046 729.452865 L 1357.860575 729.452865 " transform="matrix(0.107807,0,0,-0.107807,-0.715,117.312)"/>
<path style="fill:none;stroke-width:7.49995;stroke-linecap:butt;stroke-linejoin:round;stroke:rgb(0%,0%,0%);stroke-opacity:1;stroke-miterlimit:10;" d="M 1669.03587 356.970095 L 1869.046073 356.970095 L 1869.046073 575.713138 L 1669.03587 575.713138 L 1669.03587 356.970095 Z M 1669.03587 356.970095 " transform="matrix(0.107807,0,0,-0.107807,-0.715,117.312)"/>
<path style="fill:none;stroke-width:7.49992;stroke-linecap:butt;stroke-linejoin:round;stroke:rgb(0%,0%,0%);stroke-opacity:1;stroke-miterlimit:10;" d="M 1111.652363 729.452865 L 1111.652363 489.476854 L 1194.04787 489.476854 C 1194.04787 489.476854 1214.954734 491.143606 1214.954734 476.142841 C 1214.954734 461.142076 1195.134882 454.656238 1186.257618 463.642203 C 1177.235418 472.591935 1218.650575 483.643224 1215.353305 453.641693 C 1215.353305 453.641693 1215.353305 443.206378 1194.04787 443.206378 L 1111.652363 443.206378 L 1111.652363 203.194134 " transform="matrix(0.107807,0,0,-0.107807,-0.715,117.312)"/>
<path style="fill:none;stroke-width:7.49992;stroke-linecap:butt;stroke-linejoin:round;stroke:rgb(0%,0%,0%);stroke-opacity:1;stroke-miterlimit:10;" d="M 1252.855218 465.707526 L 1252.746517 462.700126 L 1252.565348 459.692726 L 1252.166777 456.757794 L 1251.659505 453.859095 L 1251.043531 451.032864 L 1250.246389 448.242867 L 1249.268079 445.489103 L 1248.253534 442.844041 L 1247.057821 440.235212 L 1245.753407 437.698851 L 1244.340291 435.234957 L 1242.854708 432.843531 L 1241.151723 430.560805 L 1239.448737 428.314314 L 1237.564583 426.212758 L 1235.644195 424.147435 L 1233.65134 422.227047 L 1231.441082 420.379127 L 1229.267058 418.639907 L 1226.948099 416.973156 L 1224.556673 415.451339 L 1222.165247 414.038223 L 1219.556418 412.733809 L 1216.947589 411.57433 L 1214.33876 410.523551 L 1211.548763 409.617708 L 1208.758766 408.820566 L 1205.932535 408.132125 L 1203.033836 407.624853 L 1200.135137 407.262515 L 1197.163971 407.045113 L 1194.04787 406.972646 C 1161.654913 406.972646 1135.349224 433.242102 1135.349224 465.707526 C 1135.349224 498.17295 1161.654913 524.47864 1194.04787 524.47864 C 1226.549528 524.47864 1252.855218 498.17295 1252.855218 465.707526 Z M 1252.855218 465.707526 " transform="matrix(0.107807,0,0,-0.107807,-0.715,117.312)"/>
<path style=" stroke:none;fill-rule:nonzero;fill:rgb(0%,0%,0%);fill-opacity:1;" d="M 191.695313 59.222656 L 191.695313 59.304688 L 191.683594 59.386719 L 191.671875 59.46875 L 191.660156 59.546875 L 191.640625 59.625 L 191.617188 59.703125 L 191.597656 59.777344 L 191.5625 59.851563 L 191.53125 59.921875 L 191.5 59.992188 L 191.457031 60.058594 L 191.414063 60.125 L 191.371094 60.191406 L 191.328125 60.25 L 191.273438 60.308594 L 191.21875 60.363281 L 191.164063 60.417969 L 191.101563 60.46875 L 191.046875 60.515625 L 190.980469 60.5625 L 190.917969 60.605469 L 190.84375 60.644531 L 190.777344 60.679688 L 190.703125 60.710938 L 190.625 60.742188 L 190.550781 60.765625 L 190.476563 60.789063 L 190.398438 60.804688 L 190.324219 60.820313 L 190.238281 60.832031 L 190.164063 60.835938 L 190.078125 60.839844 C 189.171875 60.839844 188.460938 60.113281 188.460938 59.222656 C 188.460938 58.328125 189.171875 57.605469 190.078125 57.605469 C 190.972656 57.605469 191.695313 58.328125 191.695313 59.222656 "/>
<path style="fill:none;stroke-width:9.275836;stroke-linecap:butt;stroke-linejoin:round;stroke:rgb(0%,0%,0%);stroke-opacity:1;stroke-miterlimit:10;" d="M 1784.766411 538.827198 L 1784.766411 538.06629 L 1784.65771 537.305381 L 1784.549009 536.544473 L 1784.440308 535.819798 L 1784.259139 535.095124 L 1784.041737 534.370449 L 1783.860568 533.682008 L 1783.534464 532.993567 L 1783.244595 532.34136 L 1782.954725 531.689153 L 1782.556154 531.073179 L 1782.157583 530.457206 L 1781.759011 529.841232 L 1781.36044 529.297726 L 1780.853168 528.754221 L 1780.345896 528.246948 L 1779.838624 527.739676 L 1779.258884 527.268637 L 1778.751612 526.833833 L 1778.135638 526.399028 L 1777.555899 526.000457 L 1776.867458 525.63812 L 1776.251484 525.312016 L 1775.563043 525.022146 L 1774.838369 524.732276 L 1774.149928 524.514874 L 1773.461487 524.297471 L 1772.736812 524.152536 L 1772.048371 524.007602 L 1771.251229 523.8989 L 1770.562788 523.862667 L 1769.765646 523.826433 C 1761.35942 523.826433 1754.764881 530.565907 1754.764881 538.827198 C 1754.764881 547.124723 1761.35942 553.827963 1769.765646 553.827963 C 1778.063171 553.827963 1784.766411 547.124723 1784.766411 538.827198 Z M 1784.766411 538.827198 " transform="matrix(0.107807,0,0,-0.107807,-0.715,117.312)"/>
<path style="fill:none;stroke-width:7.49992;stroke-linecap:butt;stroke-linejoin:round;stroke:rgb(0%,0%,0%);stroke-opacity:1;stroke-miterlimit:10;" d="M 1784.766411 538.827198 L 1784.766411 538.06629 L 1784.65771 537.305381 L 1784.549009 536.544473 L 1784.440308 535.819798 L 1784.259139 535.095124 L 1784.041737 534.370449 L 1783.860568 533.682008 L 1783.534464 532.993567 L 1783.244595 532.34136 L 1782.954725 531.689153 L 1782.556154 531.073179 L 1782.157583 530.457206 L 1781.759011 529.841232 L 1781.36044 529.297726 L 1780.853168 528.754221 L 1780.345896 528.246948 L 1779.838624 527.739676 L 1779.258884 527.268637 L 1778.751612 526.833833 L 1778.135638 526.399028 L 1777.555899 526.000457 L 1776.867458 525.63812 L 1776.251484 525.312016 L 1775.563043 525.022146 L 1774.838369 524.732276 L 1774.149928 524.514874 L 1773.461487 524.297471 L 1772.736812 524.152536 L 1772.048371 524.007602 L 1771.251229 523.8989 L 1770.562788 523.862667 L 1769.765646 523.826433 C 1761.35942 523.826433 1754.764881 530.565907 1754.764881 538.827198 C 1754.764881 547.124723 1761.35942 553.827963 1769.765646 553.827963 C 1778.063171 553.827963 1784.766411 547.124723 1784.766411 538.827198 Z M 1784.766411 538.827198 " transform="matrix(0.107807,0,0,-0.107807,-0.715,117.312)"/>
<path style=" stroke:none;fill-rule:nonzero;fill:rgb(0%,0%,0%);fill-opacity:1;" d="M 147.289063 38.671875 L 147.289063 38.753906 L 147.277344 38.835938 L 147.265625 38.917969 L 147.253906 38.996094 L 147.234375 39.074219 L 147.210938 39.152344 L 147.191406 39.226563 L 147.160156 39.300781 L 147.125 39.371094 L 147.09375 39.441406 L 147.050781 39.511719 L 147.007813 39.574219 L 146.964844 39.636719 L 146.921875 39.699219 L 146.867188 39.757813 L 146.8125 39.816406 L 146.757813 39.867188 L 146.695313 39.917969 L 146.640625 39.96875 L 146.578125 40.011719 L 146.511719 40.054688 L 146.4375 40.09375 L 146.371094 40.128906 L 146.296875 40.160156 L 146.230469 40.191406 L 146.15625 40.214844 L 146.070313 40.238281 L 145.996094 40.253906 L 145.917969 40.269531 L 145.832031 40.28125 L 145.757813 40.285156 L 145.671875 40.289063 C 144.777344 40.289063 144.054688 39.5625 144.054688 38.671875 C 144.054688 37.777344 144.777344 37.054688 145.671875 37.054688 C 146.566406 37.054688 147.289063 37.777344 147.289063 38.671875 "/>
<path style="fill:none;stroke-width:9.275836;stroke-linecap:butt;stroke-linejoin:round;stroke:rgb(0%,0%,0%);stroke-opacity:1;stroke-miterlimit:10;" d="M 1372.86134 729.452865 L 1372.86134 728.691956 L 1372.752639 727.931048 L 1372.643938 727.17014 L 1372.535237 726.445465 L 1372.354068 725.72079 L 1372.136666 724.996116 L 1371.955497 724.307675 L 1371.665627 723.619234 L 1371.339523 722.967027 L 1371.049654 722.31482 L 1370.651082 721.662612 L 1370.252511 721.082873 L 1369.85394 720.503133 L 1369.455369 719.923393 L 1368.948097 719.379887 L 1368.440825 718.836381 L 1367.933553 718.365343 L 1367.353813 717.894304 L 1366.846541 717.423266 L 1366.266801 717.024695 L 1365.650827 716.626124 L 1364.962386 716.263786 L 1364.346413 715.937683 L 1363.657972 715.647813 L 1363.041999 715.357943 L 1362.353558 715.140541 L 1361.556416 714.923138 L 1360.867975 714.778203 L 1360.1433 714.633268 L 1359.346158 714.524567 L 1358.657717 714.488333 L 1357.860575 714.4521 C 1349.56305 714.4521 1342.85981 721.191574 1342.85981 729.452865 C 1342.85981 737.75039 1349.56305 744.45363 1357.860575 744.45363 C 1366.1581 744.45363 1372.86134 737.75039 1372.86134 729.452865 Z M 1372.86134 729.452865 " transform="matrix(0.107807,0,0,-0.107807,-0.715,117.312)"/>
<path style="fill:none;stroke-width:7.49992;stroke-linecap:butt;stroke-linejoin:round;stroke:rgb(0%,0%,0%);stroke-opacity:1;stroke-miterlimit:10;" d="M 1372.86134 729.452865 L 1372.86134 728.691956 L 1372.752639 727.931048 L 1372.643938 727.17014 L 1372.535237 726.445465 L 1372.354068 725.72079 L 1372.136666 724.996116 L 1371.955497 724.307675 L 1371.665627 723.619234 L 1371.339523 722.967027 L 1371.049654 722.31482 L 1370.651082 721.662612 L 1370.252511 721.082873 L 1369.85394 720.503133 L 1369.455369 719.923393 L 1368.948097 719.379887 L 1368.440825 718.836381 L 1367.933553 718.365343 L 1367.353813 717.894304 L 1366.846541 717.423266 L 1366.266801 717.024695 L 1365.650827 716.626124 L 1364.962386 716.263786 L 1364.346413 715.937683 L 1363.657972 715.647813 L 1363.041999 715.357943 L 1362.353558 715.140541 L 1361.556416 714.923138 L 1360.867975 714.778203 L 1360.1433 714.633268 L 1359.346158 714.524567 L 1358.657717 714.488333 L 1357.860575 714.4521 C 1349.56305 714.4521 1342.85981 721.191574 1342.85981 729.452865 C 1342.85981 737.75039 1349.56305 744.45363 1357.860575 744.45363 C 1366.1581 744.45363 1372.86134 737.75039 1372.86134 729.452865 Z M 1372.86134 729.452865 " transform="matrix(0.107807,0,0,-0.107807,-0.715,117.312)"/>
<path style=" stroke:none;fill-rule:nonzero;fill:rgb(0%,0%,0%);fill-opacity:1;" d="M 161.035156 38.671875 L 161.035156 38.753906 L 161.023438 38.835938 L 161.011719 38.917969 L 161 38.996094 L 160.980469 39.074219 L 160.957031 39.152344 L 160.9375 39.226563 L 160.902344 39.300781 L 160.871094 39.371094 L 160.839844 39.441406 L 160.796875 39.511719 L 160.753906 39.574219 L 160.710938 39.636719 L 160.667969 39.699219 L 160.613281 39.757813 L 160.558594 39.816406 L 160.503906 39.867188 L 160.441406 39.917969 L 160.386719 39.96875 L 160.320313 40.011719 L 160.257813 40.054688 L 160.179688 40.09375 L 160.117188 40.128906 L 160.042969 40.160156 L 159.976563 40.191406 L 159.902344 40.214844 L 159.816406 40.238281 L 159.738281 40.253906 L 159.664063 40.269531 L 159.578125 40.28125 L 159.503906 40.285156 L 159.417969 40.289063 C 158.519531 40.289063 157.800781 39.5625 157.800781 38.671875 C 157.800781 37.777344 158.519531 37.054688 159.417969 37.054688 C 160.3125 37.054688 161.035156 37.777344 161.035156 38.671875 "/>
<path style="fill:none;stroke-width:9.275836;stroke-linecap:butt;stroke-linejoin:round;stroke:rgb(0%,0%,0%);stroke-opacity:1;stroke-miterlimit:10;" d="M 1500.367845 729.452865 L 1500.367845 728.691956 L 1500.259144 727.931048 L 1500.150442 727.17014 L 1500.041741 726.445465 L 1499.860573 725.72079 L 1499.64317 724.996116 L 1499.462002 724.307675 L 1499.135898 723.619234 L 1498.846028 722.967027 L 1498.556158 722.31482 L 1498.157587 721.662612 L 1497.759016 721.082873 L 1497.360445 720.503133 L 1496.961874 719.923393 L 1496.454602 719.379887 L 1495.947329 718.836381 L 1495.440057 718.365343 L 1494.860318 717.894304 L 1494.353045 717.423266 L 1493.737072 717.024695 L 1493.157332 716.626124 L 1492.432657 716.263786 L 1491.852918 715.937683 L 1491.164477 715.647813 L 1490.548503 715.357943 L 1489.860062 715.140541 L 1489.06292 714.923138 L 1488.338246 714.778203 L 1487.649805 714.633268 L 1486.852663 714.524567 L 1486.164222 714.488333 L 1485.36708 714.4521 C 1477.033321 714.4521 1470.366314 721.191574 1470.366314 729.452865 C 1470.366314 737.75039 1477.033321 744.45363 1485.36708 744.45363 C 1493.664604 744.45363 1500.367845 737.75039 1500.367845 729.452865 Z M 1500.367845 729.452865 " transform="matrix(0.107807,0,0,-0.107807,-0.715,117.312)"/>
<path style="fill:none;stroke-width:7.49992;stroke-linecap:butt;stroke-linejoin:round;stroke:rgb(0%,0%,0%);stroke-opacity:1;stroke-miterlimit:10;" d="M 1500.367845 729.452865 L 1500.367845 728.691956 L 1500.259144 727.931048 L 1500.150442 727.17014 L 1500.041741 726.445465 L 1499.860573 725.72079 L 1499.64317 724.996116 L 1499.462002 724.307675 L 1499.135898 723.619234 L 1498.846028 722.967027 L 1498.556158 722.31482 L 1498.157587 721.662612 L 1497.759016 721.082873 L 1497.360445 720.503133 L 1496.961874 719.923393 L 1496.454602 719.379887 L 1495.947329 718.836381 L 1495.440057 718.365343 L 1494.860318 717.894304 L 1494.353045 717.423266 L 1493.737072 717.024695 L 1493.157332 716.626124 L 1492.432657 716.263786 L 1491.852918 715.937683 L 1491.164477 715.647813 L 1490.548503 715.357943 L 1489.860062 715.140541 L 1489.06292 714.923138 L 1488.338246 714.778203 L 1487.649805 714.633268 L 1486.852663 714.524567 L 1486.164222 714.488333 L 1485.36708 714.4521 C 1477.033321 714.4521 1470.366314 721.191574 1470.366314 729.452865 C 1470.366314 737.75039 1477.033321 744.45363 1485.36708 744.45363 C 1493.664604 744.45363 1500.367845 737.75039 1500.367845 729.452865 Z M 1500.367845 729.452865 " transform="matrix(0.107807,0,0,-0.107807,-0.715,117.312)"/>
<path style=" stroke:none;fill-rule:nonzero;fill:rgb(0%,0%,0%);fill-opacity:1;" d="M 191.617188 74.785156 L 191.617188 74.953125 L 191.605469 75.03125 L 191.585938 75.113281 L 191.574219 75.191406 L 191.554688 75.265625 L 191.519531 75.34375 L 191.5 75.414063 L 191.46875 75.488281 L 191.425781 75.558594 L 191.390625 75.625 L 191.347656 75.691406 L 191.304688 75.753906 L 191.25 75.816406 L 191.207031 75.875 L 191.15625 75.929688 L 191.089844 75.984375 L 191.035156 76.035156 L 190.972656 76.082031 L 190.90625 76.128906 L 190.84375 76.167969 L 190.777344 76.207031 L 190.710938 76.242188 L 190.636719 76.277344 L 190.5625 76.304688 L 190.484375 76.332031 L 190.410156 76.351563 L 190.335938 76.371094 L 190.25 76.386719 L 190.171875 76.394531 L 190.085938 76.402344 L 190 76.402344 C 189.117188 76.402344 188.382813 75.679688 188.382813 74.785156 C 188.382813 73.894531 189.117188 73.167969 190 73.167969 C 190.894531 73.167969 191.617188 73.894531 191.617188 74.785156 "/>
<path style="fill:none;stroke-width:9.275836;stroke-linecap:butt;stroke-linejoin:round;stroke:rgb(0%,0%,0%);stroke-opacity:1;stroke-miterlimit:10;" d="M 1784.041737 394.472008 L 1784.041737 392.913957 L 1783.933035 392.189283 L 1783.751867 391.428374 L 1783.643166 390.7037 L 1783.461997 390.015259 L 1783.135893 389.290584 L 1782.954725 388.638377 L 1782.664855 387.949936 L 1782.266284 387.297729 L 1781.94018 386.681755 L 1781.541609 386.065782 L 1781.143038 385.486042 L 1780.635766 384.906302 L 1780.237195 384.362796 L 1779.766156 383.855524 L 1779.150183 383.348252 L 1778.64291 382.877213 L 1778.063171 382.442409 L 1777.447197 382.007604 L 1776.867458 381.645267 L 1776.251484 381.282929 L 1775.635511 380.956826 L 1774.94707 380.630722 L 1774.258629 380.377086 L 1773.533954 380.12345 L 1772.845513 379.942281 L 1772.157072 379.761112 L 1771.35993 379.616178 L 1770.635256 379.54371 L 1769.838113 379.471243 L 1769.040971 379.471243 C 1760.852148 379.471243 1754.040206 386.174483 1754.040206 394.472008 C 1754.040206 402.733299 1760.852148 409.472773 1769.040971 409.472773 C 1777.338496 409.472773 1784.041737 402.733299 1784.041737 394.472008 Z M 1784.041737 394.472008 " transform="matrix(0.107807,0,0,-0.107807,-0.715,117.312)"/>
<path style="fill:none;stroke-width:7.49992;stroke-linecap:butt;stroke-linejoin:round;stroke:rgb(0%,0%,0%);stroke-opacity:1;stroke-miterlimit:10;" d="M 1784.041737 394.472008 L 1784.041737 392.913957 L 1783.933035 392.189283 L 1783.751867 391.428374 L 1783.643166 390.7037 L 1783.461997 390.015259 L 1783.135893 389.290584 L 1782.954725 388.638377 L 1782.664855 387.949936 L 1782.266284 387.297729 L 1781.94018 386.681755 L 1781.541609 386.065782 L 1781.143038 385.486042 L 1780.635766 384.906302 L 1780.237195 384.362796 L 1779.766156 383.855524 L 1779.150183 383.348252 L 1778.64291 382.877213 L 1778.063171 382.442409 L 1777.447197 382.007604 L 1776.867458 381.645267 L 1776.251484 381.282929 L 1775.635511 380.956826 L 1774.94707 380.630722 L 1774.258629 380.377086 L 1773.533954 380.12345 L 1772.845513 379.942281 L 1772.157072 379.761112 L 1771.35993 379.616178 L 1770.635256 379.54371 L 1769.838113 379.471243 L 1769.040971 379.471243 C 1760.852148 379.471243 1754.040206 386.174483 1754.040206 394.472008 C 1754.040206 402.733299 1760.852148 409.472773 1769.040971 409.472773 C 1777.338496 409.472773 1784.041737 402.733299 1784.041737 394.472008 Z M 1784.041737 394.472008 " transform="matrix(0.107807,0,0,-0.107807,-0.715,117.312)"/>
<path style="fill:none;stroke-width:7.49992;stroke-linecap:butt;stroke-linejoin:round;stroke:rgb(0%,0%,0%);stroke-opacity:1;stroke-miterlimit:10;" d="M 837.834046 701.44419 L 839.247162 700.755749 L 840.58781 700.031074 L 841.85599 699.306399 L 843.124171 698.581725 L 844.356118 697.85705 L 845.515597 697.132375 L 846.675077 696.407701 L 847.762089 695.683026 L 848.812867 694.958351 L 849.791178 694.197443 L 850.769489 693.472768 L 851.711566 692.748094 L 852.581175 691.987185 L 853.414551 691.262511 L 854.211693 690.501602 L 854.936368 689.776928 L 855.624809 689.016019 L 856.31325 688.291345 L 856.892989 687.530436 L 857.472729 686.805762 L 857.980001 686.044853 L 858.45104 685.320179 L 858.885845 684.55927 L 859.248182 683.834596 L 859.574286 683.073687 L 859.864155 682.312779 L 860.081558 681.588104 L 860.262726 680.827196 L 860.371428 680.102521 L 860.443895 679.341613 L 860.480129 678.616938 L 860.480129 677.85603 C 858.704676 651.622807 762.105545 636.622042 644.635784 644.412295 C 595.720245 647.673331 546.224967 653.796831 498.97618 667.239546 C 479.6636 672.747073 419.008332 684.812906 436.255589 719.234952 C 441.364545 729.525332 455.133363 734.851691 465.351276 738.004026 " transform="matrix(0.107807,0,0,-0.107807,-0.715,117.312)"/>
<path style="fill:none;stroke-width:7.49992;stroke-linecap:butt;stroke-linejoin:round;stroke:rgb(0%,0%,0%);stroke-opacity:1;stroke-miterlimit:10;" d="M 837.834046 616.729723 L 839.247162 616.005048 L 840.58781 615.316607 L 841.85599 614.591933 L 843.124171 613.867258 L 844.356118 613.142584 L 845.515597 612.417909 L 846.675077 611.693234 L 847.762089 610.96856 L 848.812867 610.243885 L 849.791178 609.482977 L 850.769489 608.758302 L 851.711566 608.033627 L 852.581175 607.308953 L 853.414551 606.548044 L 854.211693 605.82337 L 854.936368 605.062461 L 855.624809 604.337787 L 856.31325 603.613112 L 856.892989 602.852203 L 857.472729 602.091295 L 857.980001 601.36662 L 858.45104 600.605712 L 858.885845 599.881037 L 859.248182 599.120129 L 859.574286 598.395454 L 859.864155 597.634546 L 860.081558 596.873638 L 860.262726 596.148963 L 860.371428 595.388055 L 860.443895 594.66338 L 860.480129 593.902472 L 860.480129 593.177797 C 858.704676 566.908341 762.105545 551.907576 644.635784 559.734062 C 595.720245 562.995098 546.224967 569.118599 498.97618 582.561313 C 479.6636 588.068841 419.008332 600.134674 436.255589 634.556719 C 441.364545 644.847099 455.133363 650.173458 465.351276 653.325793 " transform="matrix(0.107807,0,0,-0.107807,-0.715,117.312)"/>
<path style="fill:none;stroke-width:7.49992;stroke-linecap:butt;stroke-linejoin:round;stroke:rgb(0%,0%,0%);stroke-opacity:1;stroke-miterlimit:10;" d="M 837.834046 532.087724 L 839.247162 531.363049 L 840.58781 530.638375 L 841.85599 529.9137 L 843.124171 529.189025 L 844.356118 528.464351 L 845.515597 527.739676 L 846.675077 527.015001 L 847.762089 526.290327 L 848.812867 525.565652 L 849.791178 524.840977 L 850.769489 524.080069 L 851.711566 523.355394 L 852.581175 522.63072 L 853.414551 521.869811 L 854.211693 521.145137 L 854.936368 520.384228 L 855.624809 519.659554 L 856.31325 518.898645 L 856.892989 518.173971 L 857.472729 517.413062 L 857.980001 516.688388 L 858.45104 515.927479 L 858.885845 515.202805 L 859.248182 514.441896 L 859.574286 513.680988 L 859.864155 512.956313 L 860.081558 512.195405 L 860.262726 511.47073 L 860.371428 510.709822 L 860.443895 509.985147 L 860.480129 509.224239 L 860.480129 508.46333 C 858.704676 482.230108 762.105545 467.265576 644.635784 475.055829 C 595.720245 478.316865 546.224967 484.404132 498.97618 497.88308 C 479.6636 503.354374 419.008332 515.456441 436.255589 549.842253 C 441.364545 560.168867 455.133363 565.495225 465.351276 568.64756 " transform="matrix(0.107807,0,0,-0.107807,-0.715,117.312)"/>
<path style="fill:none;stroke-width:7.49992;stroke-linecap:butt;stroke-linejoin:round;stroke:rgb(0%,0%,0%);stroke-opacity:1;stroke-miterlimit:10;" d="M 837.834046 447.373257 L 839.247162 446.684816 L 840.58781 445.960142 L 841.85599 445.235467 L 843.124171 444.510792 L 844.356118 443.786118 L 845.515597 443.061443 L 846.675077 442.336768 L 847.762089 441.612094 L 848.812867 440.887419 L 849.791178 440.126511 L 850.769489 439.401836 L 851.711566 438.677162 L 852.581175 437.916253 L 853.414551 437.191578 L 854.211693 436.466904 L 854.936368 435.705995 L 855.624809 434.981321 L 856.31325 434.220412 L 856.892989 433.495738 L 857.472729 432.734829 L 857.980001 431.973921 L 858.45104 431.249246 L 858.885845 430.488338 L 859.248182 429.763663 L 859.574286 429.002755 L 859.864155 428.27808 L 860.081558 427.517172 L 860.262726 426.756264 L 860.371428 426.031589 L 860.443895 425.27068 L 860.480129 424.546006 L 860.480129 423.785097 C 858.704676 397.551875 762.105545 382.587344 644.635784 390.341362 C 595.720245 393.602398 546.224967 399.762133 498.97618 413.204848 C 479.6636 418.676141 419.008332 430.741974 436.255589 465.200254 C 441.364545 475.490634 455.133363 480.780759 465.351276 483.933093 " transform="matrix(0.107807,0,0,-0.107807,-0.715,117.312)"/>
<path style="fill:none;stroke-width:7.49992;stroke-linecap:butt;stroke-linejoin:round;stroke:rgb(0%,0%,0%);stroke-opacity:1;stroke-miterlimit:10;" d="M 837.834046 362.695024 L 839.247162 361.97035 L 840.58781 361.281909 L 841.85599 360.557234 L 843.124171 359.83256 L 844.356118 359.107885 L 845.515597 358.38321 L 846.675077 357.658536 L 847.762089 356.933861 L 848.812867 356.209186 L 849.791178 355.484512 L 850.769489 354.723603 L 851.711566 353.998929 L 852.581175 353.274254 L 853.414551 352.513346 L 854.211693 351.788671 L 854.936368 351.027763 L 855.624809 350.303088 L 856.31325 349.54218 L 856.892989 348.817505 L 857.472729 348.056597 L 857.980001 347.295688 L 858.45104 346.571013 L 858.885845 345.810105 L 859.248182 345.08543 L 859.574286 344.324522 L 859.864155 343.563614 L 860.081558 342.838939 L 860.262726 342.078031 L 860.371428 341.353356 L 860.443895 340.592448 L 860.480129 339.867773 L 860.480129 339.106865 C 858.704676 312.873642 762.105545 297.909111 644.635784 305.699363 C 595.720245 308.960399 546.224967 315.0839 498.97618 328.526615 C 479.6636 333.997908 419.008332 346.063741 436.255589 380.522021 C 441.364545 390.776167 455.133363 396.102526 465.351276 399.291094 " transform="matrix(0.107807,0,0,-0.107807,-0.715,117.312)"/>
<path style="fill:none;stroke-width:7.49992;stroke-linecap:butt;stroke-linejoin:round;stroke:rgb(0%,0%,0%);stroke-opacity:1;stroke-miterlimit:10;" d="M 465.351276 320.700128 L 464.083095 319.975454 L 462.851148 319.250779 L 461.655435 318.489871 L 460.568423 317.728962 L 459.481411 316.93182 L 458.466867 316.134678 L 457.488556 315.337536 L 456.582713 314.50416 L 455.713103 313.634551 L 454.915961 312.801175 L 454.155053 311.895331 L 453.430378 311.025722 L 452.778171 310.119879 L 452.125964 309.214035 L 451.582458 308.308192 L 451.038952 307.366115 L 450.567913 306.424038 L 450.133108 305.481961 L 449.734537 304.539884 L 449.408434 303.561573 L 449.118564 302.619496 L 448.864928 301.641185 L 448.466357 299.64833 L 448.248954 297.655475 L 448.21272 295.662619 L 448.321422 293.63353 L 448.575058 291.604441 L 448.973629 289.575352 L 449.553369 287.546263 L 450.241809 285.517174 L 451.075185 283.488085 L 452.017262 281.49523 L 453.104274 279.502375 L 454.299987 277.509519 L 455.604402 275.589132 L 457.053751 273.668744 L 458.611802 271.78459 L 460.24232 269.972903 L 461.981539 268.161216 L 463.829459 266.421997 L 465.749847 264.755245 L 467.778936 263.088494 L 469.844259 261.530443 C 484.047882 251.312531 500.425529 242.942539 517.093046 237.507479 C 561.588069 223.013986 609.380363 218.3036 655.75954 214.02802 C 716.306107 208.484259 777.10631 205.58556 837.87028 203.194134 " transform="matrix(0.107807,0,0,-0.107807,-0.715,117.312)"/>
</g>
</g>
<g clip-path="url(#clip3)" clip-rule="nonzero">
<g style="fill:rgb(0%,0%,0%);fill-opacity:1;">
  <use xlink:href="#glyph0-1" x="135.632" y="69.843"/>
  <use xlink:href="#glyph0-2" x="139.850452" y="69.843"/>
  <use xlink:href="#glyph0-3" x="144.872285" y="69.843"/>
  <use xlink:href="#glyph0-4" x="151.419986" y="69.843"/>
</g>
<g style="fill:rgb(0%,0%,0%);fill-opacity:1;">
  <use xlink:href="#glyph0-5" x="181.459" y="61.042"/>
</g>
<g style="fill:rgb(0%,0%,0%);fill-opacity:1;">
  <use xlink:href="#glyph1-1" x="181.459" y="76.916"/>
</g>
<g style="fill:rgb(0%,0%,0%);fill-opacity:1;">
  <use xlink:href="#glyph0-6" x="146.686" y="85.304"/>
  <use xlink:href="#glyph0-2" x="151.78315" y="85.304"/>
</g>
<g style="fill:rgb(0%,0%,0%);fill-opacity:1;">
  <use xlink:href="#glyph0-7" x="156.15642" y="85.304"/>
  <use xlink:href="#glyph0-7" x="161.526944" y="85.304"/>
  <use xlink:href="#glyph0-8" x="166.897467" y="85.304"/>
  <use xlink:href="#glyph0-9" x="171.5469" y="85.304"/>
  <use xlink:href="#glyph0-10" x="176.527588" y="85.304"/>
</g>
<g style="fill:rgb(0%,0%,0%);fill-opacity:1;">
  <use xlink:href="#glyph0-11" x="138.102" y="30.288"/>
  <use xlink:href="#glyph0-12" x="142.412506" y="30.288"/>
  <use xlink:href="#glyph0-13" x="149.589941" y="30.288"/>
  <use xlink:href="#glyph0-7" x="151.594908" y="30.288"/>
  <use xlink:href="#glyph0-14" x="156.965432" y="30.288"/>
  <use xlink:href="#glyph0-15" x="161.922409" y="30.288"/>
</g>
</g>
</g>
</svg>
