<?xml version="1.0" encoding="UTF-8" standalone="no"?>
<svg
   xmlns:dc="http://purl.org/dc/elements/1.1/"
   xmlns:cc="http://creativecommons.org/ns#"
   xmlns:rdf="http://www.w3.org/1999/02/22-rdf-syntax-ns#"
   xmlns:svg="http://www.w3.org/2000/svg"
   xmlns="http://www.w3.org/2000/svg"
   xmlns:xlink="http://www.w3.org/1999/xlink"
   xmlns:sodipodi="http://sodipodi.sourceforge.net/DTD/sodipodi-0.dtd"
   xmlns:inkscape="http://www.inkscape.org/namespaces/inkscape"
   version="1.1"
   width="244.8pt"
   height="75.8pt"
   viewBox="0.0 0.0 141.4833 43.840311"
   id="svg2"
   inkscape:version="0.48.5 r10040"
   sodipodi:docname="f05-05_tc_big_a.svg">
  <sodipodi:namedview
     pagecolor="#ffffff"
     bordercolor="#666666"
     borderopacity="1"
     objecttolerance="10"
     gridtolerance="10"
     guidetolerance="10"
     inkscape:pageopacity="0"
     inkscape:pageshadow="2"
     inkscape:window-width="1145"
     inkscape:window-height="885"
     id="namedview97"
     showgrid="false"
     inkscape:zoom="2"
     inkscape:cx="153"
     inkscape:cy="47.375"
     inkscape:window-x="0"
     inkscape:window-y="0"
     inkscape:window-maximized="0"
     inkscape:current-layer="svg2" />
  <metadata
     id="metadata20500">
    <rdf:RDF>
      <cc:Work
         rdf:about="">
        <dc:format>image/svg+xml</dc:format>
        <dc:type
           rdf:resource="http://purl.org/dc/dcmitype/StillImage" />
      </cc:Work>
    </rdf:RDF>
  </metadata>
  <defs
     id="defs19870">
    <g
       id="g19872">
      <g
         id="glyph0-0" />
      <g
         id="glyph0-1">
        <path
           d="M 2.578125,1.546875 C 2.546875,1.5 2.5,1.46875 2.453125,1.4375 1.6875,0.75 1.21875,-0.3125 1.171875,-1.59375 c -0.03125,-0.875 0.125,-1.78125 0.53125,-2.5625 0.203125,-0.375 0.4375,-0.6875 0.75,-0.953125 C 2.5,-5.15625 2.546875,-5.1875 2.578125,-5.21875 l -0.25,0 c -0.15625,0 -0.140625,0 -0.25,0.078125 -0.359375,0.28125 -0.65625,0.65625 -0.890625,1.078125 -0.65625,1.234375 -0.703125,2.90625 -0.09375,4.25 0.21875,0.5 0.5625,0.921875 0.984375,1.28125 0.09375,0.0625 0.09375,0.078125 0.25,0.078125 l 0.25,0 z m 0,0"
           id="path19878" />
      </g>
      <g
         id="glyph0-2">
        <path
           d="m 0.640625,-2.640625 c 0.125,-0.0625 0.21875,-0.140625 0.34375,-0.203125 C 1.203125,-2.9375 1.4375,-2.984375 1.6875,-3 1.75,-3.015625 1.828125,-3.015625 1.90625,-3.015625 c 0.28125,0.046875 0.515625,0.234375 0.59375,0.5 0.078125,0.203125 0.046875,0.453125 0.046875,0.65625 -0.359375,0 -0.734375,0.03125 -1.09375,0.125 -0.5,0.125 -1.125,0.375 -1.0625,1.015625 0.046875,0.28125 0.203125,0.5625 0.46875,0.703125 C 1.03125,0.0625 1.234375,0.0625 1.4375,0.046875 1.734375,0.015625 2.0625,-0.0625 2.3125,-0.25 c 0.09375,-0.0625 0.171875,-0.140625 0.25,-0.21875 l 0,0.46875 0.484375,0 0,-1.828125 c 0,-0.1875 0.03125,-0.390625 -0.015625,-0.59375 -0.0625,-0.484375 -0.5,-0.84375 -0.953125,-0.9375 -0.28125,-0.046875 -0.71875,0.015625 -0.953125,0.0625 -0.078125,0.03125 -0.46875,0.15625 -0.5,0.21875 -0.03125,0.03125 -0.015625,0.09375 -0.015625,0.125 0.015625,0.109375 0.03125,0.203125 0.03125,0.3125 z m 1.90625,1.015625 0,0.515625 c 0,0.140625 0,0.265625 -0.0625,0.390625 -0.078125,0.140625 -0.21875,0.25 -0.375,0.296875 -0.328125,0.125 -0.78125,0.140625 -1.0625,-0.09375 C 0.96875,-0.5625 0.90625,-0.640625 0.890625,-0.75 0.8125,-1.046875 1.078125,-1.28125 1.3125,-1.390625 1.640625,-1.546875 2.109375,-1.625 2.546875,-1.625 z m 0,0"
           id="path19881" />
      </g>
      <g
         id="glyph0-3">
        <path
           d="m 0.4375,-5.21875 c 0.03125,0.03125 0.078125,0.0625 0.125,0.109375 0.859375,0.765625 1.328125,2 1.265625,3.515625 -0.015625,0.75 -0.203125,1.5 -0.5625,2.15625 C 1.078125,0.890625 0.84375,1.1875 0.5625,1.4375 0.515625,1.46875 0.46875,1.5 0.4375,1.546875 l 0.25,0 c 0.15625,0 0.140625,0 0.234375,-0.078125 0.375,-0.296875 0.671875,-0.671875 0.890625,-1.078125 0.671875,-1.25 0.71875,-2.90625 0.109375,-4.25 C 1.6875,-4.375 1.359375,-4.796875 0.9375,-5.140625 0.84375,-5.21875 0.84375,-5.21875 0.6875,-5.21875 l -0.25,0 z m 0,0"
           id="path19884" />
      </g>
      <g
         id="glyph0-4">
        <path
           d="M 2.71875,-2 0.6875,-2 c -0.046875,0 -0.109375,0 -0.15625,0 -0.078125,0.03125 -0.125,0.09375 -0.125,0.15625 0,0.078125 0.046875,0.140625 0.125,0.15625 0.046875,0.015625 0.109375,0.015625 0.15625,0.015625 l 2.03125,0 0,2.03125 c 0,0.046875 -0.015625,0.09375 0,0.15625 C 2.75,0.578125 2.8125,0.625 2.875,0.625 c 0.078125,0 0.140625,-0.046875 0.15625,-0.109375 0.015625,-0.0625 0,-0.109375 0,-0.15625 l 0,-2.03125 2.046875,0 c 0.046875,0 0.09375,0 0.140625,-0.015625 0.078125,-0.015625 0.125,-0.078125 0.125,-0.15625 0,-0.0625 -0.046875,-0.125 -0.125,-0.15625 -0.046875,0 -0.09375,0 -0.140625,0 l -2.046875,0 0,-2.03125 c 0,-0.046875 0.015625,-0.109375 0,-0.15625 -0.015625,-0.078125 -0.078125,-0.125 -0.15625,-0.125 -0.0625,0 -0.125,0.046875 -0.15625,0.125 -0.015625,0.046875 0,0.109375 0,0.15625 l 0,2.03125 z m 0,0"
           id="path19887" />
      </g>
      <g
         id="glyph0-5">
        <path
           d="M 1.828125,-4.6875 C 1.671875,-4.65625 1.5,-4.640625 1.359375,-4.5625 0.625,-4.28125 0.375,-3.34375 0.375,-2.40625 c 0,0.140625 0,0.28125 0,0.4375 0.015625,0.640625 0.171875,1.28125 0.53125,1.671875 0.3125,0.3125 0.765625,0.4375 1.1875,0.40625 0.265625,-0.03125 0.484375,-0.125 0.671875,-0.25 C 3.359375,-0.5625 3.5,-1.421875 3.5,-2.359375 3.5,-3.125 3.359375,-3.8125 2.984375,-4.234375 2.703125,-4.546875 2.265625,-4.71875 1.828125,-4.6875 z m 0.59375,0.515625 C 2.5,-4.125 2.5625,-4.078125 2.625,-4.015625 c 0.265625,0.25 0.34375,0.75 0.359375,1.21875 0,0.09375 0,0.1875 0,0.28125 l 0,0.359375 c 0,0.59375 -0.046875,1.171875 -0.3125,1.53125 -0.34375,0.453125 -1.09375,0.46875 -1.453125,0.015625 C 1.125,-0.703125 1.078125,-0.828125 1.03125,-0.9375 0.90625,-1.296875 0.875,-1.734375 0.875,-2.1875 l 0,-0.359375 c 0,-0.09375 0.015625,-0.171875 0.015625,-0.265625 0,-0.546875 0.140625,-1.09375 0.5,-1.328125 0.28125,-0.171875 0.703125,-0.21875 1.03125,-0.03125 z m 0,0"
           id="path19890" />
      </g>
      <g
         id="glyph0-6">
        <path
           d="m 0.4375,-2.671875 c -0.0625,0.09375 0,0.21875 0.09375,0.25 0.046875,0.015625 0.09375,0 0.140625,0 l 4.453125,0 c 0.0625,0 0.109375,0 0.171875,-0.03125 0.078125,-0.09375 0.03125,-0.265625 -0.09375,-0.28125 -0.109375,-0.015625 -0.21875,0 -0.3125,0 l -4.21875,0 C 0.5625,-2.734375 0.5,-2.75 0.4375,-2.671875 z m 0,1.484375 c -0.0625,0.09375 0,0.21875 0.09375,0.234375 C 0.578125,-0.9375 0.625,-0.9375 0.671875,-0.9375 l 4.453125,0 c 0.0625,0 0.109375,0 0.171875,-0.046875 0.078125,-0.09375 0.03125,-0.25 -0.09375,-0.28125 -0.109375,-0.015625 -0.21875,0 -0.3125,0 l -4.234375,0 c -0.09375,0 -0.171875,0 -0.21875,0.078125 z m 0,0"
           id="path19893" />
      </g>
      <g
         id="glyph0-7">
        <path
           d="m 0.578125,-4.84375 0,4.84375 0.515625,0 0,-0.46875 0,0 c 0.0625,0.109375 0.171875,0.203125 0.265625,0.28125 0.3125,0.25 0.828125,0.328125 1.28125,0.109375 0.203125,-0.109375 0.375,-0.28125 0.515625,-0.46875 C 3.84375,-1.5 3.421875,-3.09375 2.453125,-3.3125 c -0.125,-0.046875 -0.28125,-0.046875 -0.421875,-0.015625 -0.40625,0.046875 -0.71875,0.25 -0.953125,0.5 l 0,-2.015625 -0.5,0 z M 1.8125,-2.953125 c 0.328125,-0.03125 0.703125,0.109375 0.921875,0.375 0.171875,0.21875 0.234375,0.5 0.234375,0.765625 0.03125,0.375 -0.015625,0.78125 -0.25,1.078125 -0.203125,0.265625 -0.53125,0.375 -0.84375,0.40625 -0.265625,0 -0.5,-0.09375 -0.671875,-0.3125 C 1.171875,-0.6875 1.125,-0.75 1.09375,-0.8125 c 0,-0.046875 0,-0.09375 0,-0.125 l 0,-1.390625 c 0,-0.0625 -0.015625,-0.140625 0.015625,-0.203125 0.03125,-0.078125 0.09375,-0.125 0.15625,-0.1875 0.15625,-0.125 0.34375,-0.21875 0.546875,-0.234375 z m 0,0"
           id="path19896" />
      </g>
      <g
         id="glyph0-8">
        <path
           d="M 3.1875,-0.796875 C 3.125,-0.765625 3.078125,-0.71875 3.03125,-0.6875 2.9375,-0.625 2.84375,-0.5625 2.734375,-0.515625 2.3125,-0.3125 1.671875,-0.265625 1.296875,-0.5625 1.03125,-0.75 0.859375,-1.109375 0.84375,-1.5 0.8125,-1.953125 0.921875,-2.453125 1.296875,-2.75 1.5,-2.90625 1.765625,-3 2.140625,-2.96875 2.46875,-2.9375 2.65625,-2.890625 2.921875,-2.75 c 0.0625,0.03125 0.109375,0.078125 0.171875,0.09375 L 3.171875,-3.078125 C 3.015625,-3.15625 2.875,-3.234375 2.703125,-3.28125 c -0.40625,-0.140625 -1.03125,-0.125 -1.390625,0.046875 -0.34375,0.15625 -0.625,0.4375 -0.796875,0.765625 -0.25,0.5 -0.25,1.109375 0,1.625 0.09375,0.1875 0.21875,0.359375 0.390625,0.5 0.46875,0.4375 1.1875,0.484375 1.78125,0.28125 0.140625,-0.0625 0.265625,-0.125 0.390625,-0.203125 0.046875,-0.03125 0.109375,-0.0625 0.125,-0.09375 C 3.21875,-0.40625 3.1875,-0.796875 3.1875,-0.796875 z m 0,0"
           id="path19899" />
      </g>
      <g
         id="glyph0-9">
        <path
           d="m 2.734375,-4.84375 0,2 0,0 C 2.703125,-2.90625 2.65625,-2.9375 2.609375,-2.984375 2.328125,-3.28125 1.734375,-3.46875 1.25,-3.25 1.078125,-3.171875 0.9375,-3.078125 0.8125,-2.9375 0.28125,-2.390625 0.1875,-1.484375 0.5,-0.8125 0.6875,-0.375 1.09375,0.03125 1.59375,0.0625 1.984375,0.078125 2.3125,-0.09375 2.515625,-0.28125 2.59375,-0.359375 2.65625,-0.4375 2.71875,-0.515625 l 0,0.515625 0.515625,0 0,-4.84375 -0.5,0 z M 1.9375,-2.953125 C 2.171875,-2.96875 2.40625,-2.90625 2.578125,-2.71875 2.625,-2.6875 2.671875,-2.625 2.703125,-2.5625 2.734375,-2.5 2.71875,-2.421875 2.71875,-2.34375 l 0,1.375 c 0,0.171875 -0.015625,0.171875 -0.125,0.296875 C 2.453125,-0.484375 2.25,-0.359375 2,-0.328125 1.640625,-0.3125 1.25,-0.46875 1.046875,-0.78125 0.90625,-0.984375 0.859375,-1.234375 0.84375,-1.484375 0.8125,-1.8125 0.84375,-2.1875 1.03125,-2.46875 1.234375,-2.78125 1.578125,-2.921875 1.9375,-2.953125 z m 0,0"
           id="path19902" />
      </g>
      <g
         id="glyph1-0" />
      <g
         id="glyph1-1">
        <path
           d="m 4.046875,3.171875 c 0,-0.75 0.28125,-1.953125 1.5,-2.734375 C 5.65625,0.359375 5.65625,0.34375 5.65625,0.203125 5.65625,0.015625 5.65625,0 5.46875,0 5.359375,0 5.34375,0 5.34375,0.015625 5.125,0.0625 3.03125,1.09375 3.03125,3.171875 l 0,2.984375 c 0,0.1875 0,0.203125 0.203125,0.203125 l 0.609375,0 c 0.203125,0 0.203125,-0.015625 0.203125,-0.203125 l 0,-2.984375 z m 0,0"
           id="path19908" />
      </g>
      <g
         id="glyph1-2">
        <path
           d="m 4.046875,9.5 c 0,-1.125 -0.640625,-2.421875 -2.140625,-3.234375 1.5,-0.796875 2.140625,-2.109375 2.140625,-3.21875 l 0,-2.921875 c 0,-0.203125 0,-0.203125 -0.203125,-0.203125 l -0.609375,0 c -0.203125,0 -0.203125,0 -0.203125,0.203125 l 0,2.921875 C 3.03125,3.6875 2.84375,5.109375 1.5,6.0625 1.421875,6.125 1.421875,6.125 1.421875,6.265625 c 0,0.15625 0,0.15625 0.046875,0.1875 0.203125,0.15625 0.75,0.53125 1.125,1.25 0.375,0.734375 0.4375,1.375 0.4375,1.796875 l 0,2.921875 c 0,0.203125 0,0.203125 0.203125,0.203125 l 0.609375,0 c 0.203125,0 0.203125,0 0.203125,-0.203125 l 0,-2.921875 z m 0,0"
           id="path19911" />
      </g>
      <g
         id="glyph1-3">
        <path
           d="m 4.046875,0.125 c 0,-0.203125 0,-0.203125 -0.203125,-0.203125 l -0.609375,0 c -0.203125,0 -0.203125,0 -0.203125,0.203125 l 0,2.96875 c 0,1.34375 0.921875,2.53125 2.265625,3.15625 0.03125,0.015625 0.046875,0.015625 0.171875,0.015625 0.1875,0 0.1875,0 0.1875,-0.203125 0,-0.140625 0,-0.140625 -0.046875,-0.171875 C 5.359375,5.71875 4.90625,5.421875 4.53125,4.8125 4.21875,4.28125 4.046875,3.703125 4.046875,3.09375 l 0,-2.96875 z m 0,0"
           id="path19914" />
      </g>
      <g
         id="glyph1-4">
        <path
           d="M 4.046875,3.171875 C 4.046875,2.09375 3.4375,0.96875 2.125,0.203125 1.859375,0.046875 1.78125,0 1.609375,0 c -0.1875,0 -0.1875,0.015625 -0.1875,0.203125 0,0.140625 0,0.15625 0.046875,0.1875 0.296875,0.1875 0.75,0.484375 1.15625,1.203125 0.265625,0.453125 0.40625,1.046875 0.40625,1.578125 l 0,2.984375 c 0,0.1875 0,0.203125 0.203125,0.203125 l 0.609375,0 c 0.203125,0 0.203125,-0.015625 0.203125,-0.203125 l 0,-2.984375 z m 0,0"
           id="path19917" />
      </g>
      <g
         id="glyph1-5">
        <path
           d="m 4.046875,9.5 c 0,-0.734375 0.21875,-1.421875 0.46875,-1.859375 0.3125,-0.53125 0.625,-0.859375 1.078125,-1.171875 0.0625,-0.046875 0.0625,-0.046875 0.0625,-0.203125 0,-0.140625 0,-0.140625 -0.046875,-0.1875 C 5.375,5.921875 4.921875,5.609375 4.546875,4.9375 4.125,4.203125 4.046875,3.453125 4.046875,3.046875 l 0,-2.921875 c 0,-0.203125 0,-0.203125 -0.203125,-0.203125 l -0.609375,0 c -0.203125,0 -0.203125,0 -0.203125,0.203125 l 0,2.921875 C 3.03125,4.125 3.625,5.4375 5.15625,6.265625 3.609375,7.125 3.03125,8.453125 3.03125,9.5 l 0,2.921875 c 0,0.203125 0,0.203125 0.203125,0.203125 l 0.609375,0 c 0.203125,0 0.203125,0 0.203125,-0.203125 l 0,-2.921875 z m 0,0"
           id="path19920" />
      </g>
      <g
         id="glyph1-6">
        <path
           d="m 3.03125,3.09375 c 0,0.578125 -0.15625,1.140625 -0.390625,1.5625 -0.390625,0.703125 -0.828125,1 -1.15625,1.21875 -0.0625,0.046875 -0.0625,0.046875 -0.0625,0.1875 0,0.203125 0,0.203125 0.1875,0.203125 0.109375,0 0.125,0 0.125,0 0.203125,-0.0625 2.3125,-1.09375 2.3125,-3.171875 l 0,-2.96875 c 0,-0.203125 0,-0.203125 -0.203125,-0.203125 l -0.609375,0 c -0.203125,0 -0.203125,0 -0.203125,0.203125 l 0,2.96875 z m 0,0"
           id="path19923" />
      </g>
      <g
         id="glyph2-0" />
      <g
         id="glyph2-1">
        <path
           d="m 0.734375,-2 c -0.140625,0.046875 -0.15625,0.265625 -0.015625,0.3125 0.046875,0.015625 0.09375,0.015625 0.125,0.015625 l 3.9375,0 c 0.09375,0 0.234375,0.015625 0.3125,-0.046875 C 5.171875,-1.8125 5.125,-1.96875 5,-2 4.921875,-2.015625 4.828125,-2 4.734375,-2 l -3.875,0 c -0.03125,0 -0.078125,0 -0.125,0 z m 0,0"
           id="path19929" />
      </g>
      <g
         id="glyph3-0" />
      <g
         id="glyph3-1">
        <path
           d="m 2.3125,-1.703125 -1.734375,0 c -0.046875,0 -0.09375,0 -0.125,0.015625 -0.0625,0.015625 -0.109375,0.0625 -0.109375,0.125 0,0.0625 0.046875,0.109375 0.109375,0.125 0.03125,0.015625 0.078125,0.015625 0.125,0.015625 l 1.734375,0 0,1.71875 c 0,0.046875 -0.015625,0.09375 0,0.140625 0.015625,0.046875 0.078125,0.09375 0.140625,0.09375 0.046875,0 0.109375,-0.046875 0.125,-0.09375 0.015625,-0.046875 0,-0.09375 0,-0.140625 l 0,-1.71875 1.734375,0 c 0.046875,0 0.078125,0 0.125,-0.015625 C 4.5,-1.453125 4.53125,-1.5 4.53125,-1.5625 4.53125,-1.625 4.5,-1.671875 4.4375,-1.6875 4.390625,-1.703125 4.359375,-1.703125 4.3125,-1.703125 l -1.734375,0 0,-1.71875 c 0,-0.046875 0.015625,-0.09375 0,-0.140625 C 2.5625,-3.625 2.5,-3.65625 2.453125,-3.65625 c -0.0625,0 -0.125,0.03125 -0.140625,0.09375 -0.015625,0.046875 0,0.09375 0,0.140625 l 0,1.71875 z m 0,0"
           id="path19935" />
      </g>
      <g
         id="glyph3-2">
        <path
           d="M 1.5625,-3.984375 C 1.421875,-3.96875 1.28125,-3.9375 1.15625,-3.875 c -0.625,0.234375 -0.84375,1.03125 -0.84375,1.828125 0,0.125 0,0.25 0,0.375 C 0.34375,-1.125 0.46875,-0.59375 0.78125,-0.25 c 0.25,0.265625 0.640625,0.375 1,0.34375 C 2,0.0625 2.1875,-0.015625 2.34375,-0.125 c 0.515625,-0.34375 0.625,-1.078125 0.625,-1.875 0,-0.65625 -0.109375,-1.234375 -0.421875,-1.59375 -0.25,-0.265625 -0.625,-0.421875 -0.984375,-0.390625 z m 0.5,0.4375 c 0.0625,0.03125 0.109375,0.078125 0.171875,0.125 0.21875,0.21875 0.28125,0.65625 0.296875,1.046875 0,0.078125 0.015625,0.15625 0.015625,0.234375 l 0,0.3125 c 0,0.5 -0.046875,1 -0.28125,1.296875 C 1.96875,-0.140625 1.34375,-0.140625 1.03125,-0.515625 0.953125,-0.609375 0.90625,-0.703125 0.875,-0.796875 0.765625,-1.09375 0.75,-1.484375 0.75,-1.859375 l 0,-0.296875 c 0,-0.078125 0,-0.15625 0,-0.234375 0,-0.46875 0.125,-0.921875 0.4375,-1.125 0.234375,-0.140625 0.59375,-0.1875 0.875,-0.03125 z m 0,0"
           id="path19938" />
      </g>
      <g
         id="glyph4-0" />
      <g
         id="glyph4-1">
        <path
           d="M 0.625,-1.6875 C 0.5,-1.65625 0.484375,-1.46875 0.609375,-1.4375 0.65625,-1.421875 0.6875,-1.421875 0.71875,-1.421875 l 3.34375,0 c 0.078125,0 0.1875,0.015625 0.265625,-0.046875 C 4.40625,-1.546875 4.359375,-1.671875 4.25,-1.6875 4.1875,-1.71875 4.09375,-1.703125 4.015625,-1.703125 l -3.28125,0 c -0.03125,0 -0.078125,0 -0.109375,0.015625 z m 0,0"
           id="path19944" />
      </g>
    </g>
    <clipPath
       id="clip1">
      <path
         d="m -236,667 612,0 0,-792 -612,0 0,792 z m 0,0"
         id="path19947" />
    </clipPath>
    <clipPath
       id="clip2">
      <path
         d="m 52.6875,219.80078 89,0 0,-219.999999 -89,0 0,219.999999 z m 0,0"
         id="path19950" />
    </clipPath>
    <clipPath
       id="clip5">
      <path
         d="m 95.199219,97.527344 0,-22.253906 4.25,0 0,22.253906 -4.25,0 z m 0,0"
         id="path19959" />
    </clipPath>
    <clipPath
       id="clip10">
      <path
         d="m 95.199219,122.1875 0,12.33203 4.25,0 0,-12.33203 -4.25,0 z m 0,0"
         id="path19974" />
    </clipPath>
    <clipPath
       id="clip15">
      <path
         d="m 95.199219,158.1875 0,-12.32813 4.25,0 0,12.32813 -4.25,0 z m 0,0"
         id="path19989" />
    </clipPath>
    <clipPath
       id="clip20">
      <path
         d="m 95.199219,182.85156 0,22.25 4.25,0 0,-22.25 -4.25,0 z m 0,0"
         id="path20004" />
    </clipPath>
  </defs>
  <g
     id="g3108">
    <path
       d="m 61.12872,36.246623 72,0 0,-35.9999996 -72,0 0,35.9999996 z m 0,0"
       id="path20020"
       stroke-miterlimit="10"
       inkscape:connector-curvature="0"
       style="fill:none;stroke:#000000;stroke-width:0.5;stroke-linejoin:round;stroke-miterlimit:10" />
    <path
       d="m 67.363095,10.449743 0,-7.0859396"
       id="path20022"
       stroke-miterlimit="10"
       inkscape:connector-curvature="0"
       style="fill:none;stroke:#000000;stroke-width:0.5;stroke-linecap:round;stroke-linejoin:round;stroke-miterlimit:10" />
    <path
       d="M 68.132626,6.8208394 67.363095,3.3638084 66.59747,6.8208394"
       id="path20024"
       inkscape:connector-curvature="0" />
    <path
       d="m 68.132626,6.8208434 -0.769531,-3.45704 -0.765625,3.45704 1.535156,0 z m 0,0"
       id="path20026"
       stroke-miterlimit="10"
       inkscape:connector-curvature="0"
       style="fill:none;stroke:#000000;stroke-width:0.5;stroke-linecap:round;stroke-linejoin:round;stroke-miterlimit:10" />
    <path
       d="m 54.609188,18.246623 c 0,0 6.519532,0 6.519532,0 7.886718,0 14.660156,-4.75 21.828125,-7.9375"
       id="path20028"
       stroke-miterlimit="10"
       inkscape:connector-curvature="0"
       style="fill:none;stroke:#000000;stroke-width:0.69999999;stroke-linecap:round;stroke-linejoin:round;stroke-miterlimit:10" />
    <path
       d="m 79.609189,12.930214 c 1.101562,-0.898437 2.210937,-1.78125 3.347656,-2.621093 -1.382813,0.28125 -2.761719,0.613281 -4.144531,0.960937"
       id="path20030"
       inkscape:connector-curvature="0" />
    <path
       d="m 79.609188,12.930213 c 1.101563,-0.89844 2.210938,-1.78125 3.347657,-2.62109 -1.382813,0.28125 -2.761719,0.61328 -4.144532,0.96093 l 0.796875,1.66016 z m 0,0"
       id="path20032"
       stroke-miterlimit="10"
       inkscape:connector-curvature="0"
       style="fill:none;stroke:#000000;stroke-width:0.69999999;stroke-linecap:round;stroke-linejoin:round;stroke-miterlimit:10" />
    <path
       d="M 82.956845,10.309123 C 87.44122,8.3130234 92.214657,6.9067734 97.12872,6.9067734 c 4.91406,0 9.6875,1.40625 14.17187,3.4023496 7.16797,3.1875 13.94141,7.9375 21.82813,7.9375 0,0 6.51953,0 6.51953,0"
       id="path20034"
       stroke-miterlimit="10"
       inkscape:connector-curvature="0"
       style="fill:none;stroke:#000000;stroke-width:0.69999999;stroke-linecap:round;stroke-linejoin:round;stroke-miterlimit:10" />
    <path
       d="m 54.609188,18.246623 28.347657,0"
       id="path20036"
       stroke-miterlimit="10"
       inkscape:connector-curvature="0"
       style="fill:none;stroke:#000000;stroke-width:0.69999999;stroke-linecap:round;stroke-linejoin:round;stroke-miterlimit:10" />
    <path
       d="m 78.804501,19.164589 4.152344,-0.917968 -4.152344,-0.921875"
       id="path20038"
       inkscape:connector-curvature="0" />
    <path
       d="m 78.804501,19.164593 4.152344,-0.91797 -4.152344,-0.92188 0,1.83985 z m 0,0"
       id="path20040"
       stroke-miterlimit="10"
       inkscape:connector-curvature="0"
       style="fill:none;stroke:#000000;stroke-width:0.69999999;stroke-linecap:round;stroke-linejoin:round;stroke-miterlimit:10" />
    <path
       d="m 82.956845,18.246623 56.691405,0"
       id="path20042"
       stroke-miterlimit="10"
       inkscape:connector-curvature="0"
       style="fill:none;stroke:#000000;stroke-width:0.69999999;stroke-linecap:round;stroke-linejoin:round;stroke-miterlimit:10" />
    <path
       d="m 54.609188,18.246623 c 0,0 6.519532,0 6.519532,0 7.886718,0 14.660156,4.74609 21.828125,7.9375"
       id="path20044"
       stroke-miterlimit="10"
       inkscape:connector-curvature="0"
       style="fill:none;stroke:#000000;stroke-width:0.69999999;stroke-linecap:round;stroke-linejoin:round;stroke-miterlimit:10" />
    <path
       d="m 78.812314,25.223183 c 1.382812,0.34375 2.761718,0.679688 4.144531,0.960938 -1.136719,-0.839844 -2.246094,-1.726563 -3.347656,-2.625"
       id="path20046"
       inkscape:connector-curvature="0" />
    <path
       d="m 78.812313,25.223183 c 1.382813,0.34375 2.761719,0.67969 4.144532,0.96094 -1.136719,-0.83985 -2.246094,-1.72657 -3.347657,-2.625 l -0.796875,1.66406 z m 0,0"
       id="path20048"
       stroke-miterlimit="10"
       inkscape:connector-curvature="0"
       style="fill:none;stroke:#000000;stroke-width:0.69999999;stroke-linecap:round;stroke-linejoin:round;stroke-miterlimit:10" />
    <path
       d="m 82.956845,26.184123 c 4.484375,1.99609 9.257812,3.39843 14.171875,3.39843 4.91406,0 9.6875,-1.40234 14.17187,-3.39843 7.16797,-3.19141 13.94141,-7.9375 21.82813,-7.9375 0,0 6.51953,0 6.51953,0"
       id="path20050"
       stroke-miterlimit="10"
       inkscape:connector-curvature="0"
       style="fill:none;stroke:#000000;stroke-width:0.69999999;stroke-linecap:round;stroke-linejoin:round;stroke-miterlimit:10" />
    <path
       d="m 140.49981,18.246621 c 0,-0.226563 -0.0898,-0.441407 -0.25,-0.601563 -0.16015,-0.160156 -0.375,-0.25 -0.60156,-0.25 -0.22656,0 -0.44141,0.08984 -0.60156,0.25 -0.16016,0.160156 -0.25,0.375 -0.25,0.601563 0,0.222656 0.0898,0.441406 0.25,0.601562 0.16015,0.160156 0.375,0.246094 0.60156,0.246094 0.22656,0 0.44141,-0.08594 0.60156,-0.246094 0.16016,-0.160156 0.25,-0.378906 0.25,-0.601562"
       id="path20052"
       inkscape:connector-curvature="0" />
    <path
       d="m 55.460751,18.246621 c 0,-0.226563 -0.08984,-0.441407 -0.25,-0.601563 -0.160156,-0.160156 -0.375,-0.25 -0.601562,-0.25 -0.226563,0 -0.441407,0.08984 -0.601563,0.25 -0.160156,0.160156 -0.25,0.375 -0.25,0.601563 0,0.222656 0.08984,0.441406 0.25,0.601562 0.160156,0.160156 0.375,0.246094 0.601563,0.246094 0.226562,0 0.441406,-0.08594 0.601562,-0.246094 0.160156,-0.160156 0.25,-0.378906 0.25,-0.601562"
       id="path20054"
       inkscape:connector-curvature="0" />
    <use
       id="use20284"
       width="141"
       height="226"
       xlink:href="#glyph0-1"
       transform="translate(37.150502,41.293434)"
       x="0"
       y="0" />
    <use
       id="use20286"
       width="141"
       height="226"
       xlink:href="#glyph0-2"
       transform="translate(40.167366,41.293434)"
       x="0"
       y="0" />
    <use
       id="use20288"
       width="141"
       height="226"
       xlink:href="#glyph0-3"
       transform="translate(43.804203,41.293434)"
       x="0"
       y="0" />
    <use
       id="use20292"
       width="141"
       height="226"
       xlink:href="#glyph1-1"
       transform="translate(-1.438499,6.2494333)"
       x="0"
       y="0" />
    <use
       id="use20296"
       width="141"
       height="226"
       xlink:href="#glyph1-2"
       transform="translate(-1.438499,12.526433)"
       x="0"
       y="0" />
    <use
       id="use20300"
       width="141"
       height="226"
       xlink:href="#glyph1-3"
       transform="translate(-1.438499,25.079434)"
       x="0"
       y="0" />
    <use
       id="use20304"
       width="141"
       height="226"
       xlink:href="#glyph0-4"
       transform="translate(3.5405011,11.829433)"
       x="0"
       y="0" />
    <use
       id="use20308"
       width="141"
       height="226"
       xlink:href="#glyph1-4"
       transform="translate(8.2539446,6.2494333)"
       x="0"
       y="0" />
    <use
       id="use20312"
       width="141"
       height="226"
       xlink:href="#glyph1-5"
       transform="translate(8.2539446,12.526433)"
       x="0"
       y="0" />
    <use
       id="use20316"
       width="141"
       height="226"
       xlink:href="#glyph1-6"
       transform="translate(8.2539446,25.079434)"
       x="0"
       y="0" />
    <use
       id="use20320"
       width="141"
       height="226"
       xlink:href="#glyph0-5"
       transform="translate(4.482501,19.799433)"
       x="0"
       y="0" />
    <use
       id="use20324"
       width="141"
       height="226"
       xlink:href="#glyph2-1"
       transform="translate(3.5405011,27.769432)"
       x="0"
       y="0" />
    <use
       id="use20328"
       width="141"
       height="226"
       xlink:href="#glyph0-6"
       transform="translate(30.334502,19.571432)"
       x="0"
       y="0" />
    <use
       id="use20332"
       width="141"
       height="226"
       xlink:href="#glyph3-1"
       transform="translate(94.545498,5.1654332)"
       x="0"
       y="0" />
    <use
       id="use20336"
       width="141"
       height="226"
       xlink:href="#glyph3-2"
       transform="translate(95.346501,16.787434)"
       x="0"
       y="0" />
    <use
       id="use20340"
       width="141"
       height="226"
       xlink:href="#glyph4-1"
       transform="translate(94.545498,27.842432)"
       x="0"
       y="0" />
  </g>
</svg>
