<?xml version="1.0" encoding="UTF-8"?>
<svg xmlns="http://www.w3.org/2000/svg" xmlns:xlink="http://www.w3.org/1999/xlink" width="229pt" height="165pt" viewBox="0 0 165 119" version="1.1">
<defs>
<g>
<symbol overflow="visible" id="glyph0-0">
<path style="stroke:none;" d=""/>
</symbol>
<symbol overflow="visible" id="glyph0-1">
<path style="stroke:none;" d="M 0.75 -3.296875 C 0.828125 -3.140625 0.921875 -3.015625 1.015625 -2.875 C 1.078125 -2.796875 1.6875 -1.875 1.71875 -1.84375 C 1.734375 -1.8125 1.796875 -1.75 1.796875 -1.703125 C 1.796875 -1.65625 1.71875 -1.609375 1.6875 -1.578125 C 1.375 -1.296875 0.046875 -0.046875 0 0 C 0.1875 0 0.375 0 0.53125 0 L 0.6875 -0.140625 L 1.984375 -1.4375 C 2.265625 -0.953125 2.53125 -0.46875 2.84375 -0.015625 C 3.015625 0 3.203125 0 3.390625 0 C 3.296875 -0.140625 2.359375 -1.53125 2.328125 -1.5625 C 2.3125 -1.609375 2.265625 -1.65625 2.265625 -1.6875 C 2.28125 -1.734375 2.34375 -1.78125 2.375 -1.8125 C 2.484375 -1.921875 2.59375 -2.015625 2.703125 -2.125 C 2.8125 -2.21875 3.921875 -3.25 3.953125 -3.296875 C 3.765625 -3.296875 3.59375 -3.296875 3.421875 -3.28125 C 2.96875 -2.875 2.546875 -2.4375 2.09375 -2.03125 C 1.828125 -2.453125 1.578125 -2.890625 1.28125 -3.28125 C 1.109375 -3.296875 0.921875 -3.296875 0.75 -3.296875 Z M 0.75 -3.296875 "/>
</symbol>
<symbol overflow="visible" id="glyph0-2">
<path style="stroke:none;" d="M 3.515625 -4.84375 C 3.5 -4.734375 3.484375 -4.625 3.453125 -4.515625 C 3.21875 -3.453125 2.765625 -1.296875 2.765625 -1.296875 C 2.734375 -1.109375 2.703125 -0.90625 2.59375 -0.734375 C 2.46875 -0.546875 2.265625 -0.421875 2.046875 -0.359375 C 1.484375 -0.203125 0.84375 -0.3125 0.5625 -0.671875 L 0.546875 -0.671875 L 0.40625 -0.328125 C 0.390625 -0.28125 0.359375 -0.21875 0.375 -0.1875 C 0.390625 -0.140625 0.484375 -0.125 0.515625 -0.109375 C 0.65625 -0.046875 0.796875 0 0.9375 0.03125 C 1.59375 0.1875 2.359375 0.125 2.8125 -0.28125 C 2.953125 -0.40625 3.0625 -0.5625 3.140625 -0.734375 C 3.203125 -0.875 3.21875 -1.03125 3.265625 -1.171875 C 3.390625 -1.8125 4.03125 -4.796875 4.03125 -4.84375 L 3.515625 -4.84375 Z M 3.515625 -4.84375 "/>
</symbol>
<symbol overflow="visible" id="glyph0-3">
<path style="stroke:none;" d="M 0.78125 -0.578125 L 0.78125 0 L 1.359375 0 L 1.359375 -0.578125 L 0.78125 -0.578125 Z M 0.78125 -0.578125 "/>
</symbol>
<symbol overflow="visible" id="glyph1-0">
<path style="stroke:none;" d=""/>
</symbol>
<symbol overflow="visible" id="glyph1-1">
<path style="stroke:none;" d="M 0.625 -3.203125 C 0.734375 -3.609375 0.90625 -4.046875 1.34375 -4.203125 C 1.5 -4.265625 1.671875 -4.28125 1.859375 -4.265625 C 2.21875 -4.234375 2.578125 -4.09375 2.796875 -3.78125 C 2.9375 -3.578125 2.984375 -3.328125 2.953125 -3.078125 C 2.875 -2.40625 2.28125 -1.984375 1.796875 -1.609375 C 1.40625 -1.3125 0.59375 -0.59375 0.59375 -0.59375 L 0.453125 -0.484375 C 0.390625 -0.40625 0.390625 -0.421875 0.390625 -0.265625 L 0.390625 0 L 3.484375 0 L 3.484375 -0.4375 L 0.84375 -0.4375 C 1.109375 -0.671875 1.90625 -1.34375 2.140625 -1.515625 C 2.578125 -1.84375 3.0625 -2.15625 3.34375 -2.640625 C 3.640625 -3.203125 3.453125 -3.921875 2.96875 -4.3125 C 2.4375 -4.765625 1.46875 -4.828125 0.875 -4.390625 C 0.65625 -4.234375 0.5 -3.984375 0.390625 -3.734375 C 0.375 -3.671875 0.328125 -3.609375 0.328125 -3.546875 C 0.34375 -3.515625 0.390625 -3.484375 0.40625 -3.4375 C 0.46875 -3.359375 0.546875 -3.265625 0.625 -3.203125 Z M 0.625 -3.203125 "/>
</symbol>
<symbol overflow="visible" id="glyph1-2">
<path style="stroke:none;" d="M 0.21875 -1.21875 L 2.34375 -1.21875 L 2.34375 0 L 2.8125 0 L 2.8125 -1.21875 L 3.65625 -1.21875 L 3.65625 -1.640625 L 2.8125 -1.640625 L 2.8125 -4.640625 L 2.421875 -4.640625 C 2.375 -4.640625 2.296875 -4.65625 2.265625 -4.625 C 2.203125 -4.578125 2.109375 -4.40625 2.078125 -4.390625 L 1.671875 -3.78125 C 1.515625 -3.546875 0.375 -1.875 0.296875 -1.75 C 0.21875 -1.671875 0.21875 -1.640625 0.21875 -1.5 L 0.21875 -1.21875 Z M 2.359375 -4.1875 L 2.359375 -1.640625 L 0.71875 -1.640625 L 1.765625 -3.1875 C 1.953125 -3.515625 2.1875 -3.828125 2.359375 -4.1875 Z M 2.359375 -4.1875 "/>
</symbol>
<symbol overflow="visible" id="glyph1-3">
<path style="stroke:none;" d="M 0.90625 -2.328125 L 0.90625 -2.328125 C 0.90625 -2.921875 1.03125 -3.609375 1.53125 -4 C 1.859375 -4.265625 2.328125 -4.390625 2.90625 -4.234375 C 3.015625 -4.21875 3.109375 -4.171875 3.21875 -4.140625 L 3.21875 -4.421875 C 3.21875 -4.453125 3.21875 -4.515625 3.203125 -4.53125 C 3.15625 -4.59375 2.734375 -4.65625 2.734375 -4.65625 C 2.109375 -4.75 1.640625 -4.578125 1.28125 -4.28125 C 0.828125 -3.9375 0.546875 -3.40625 0.4375 -2.84375 C 0.390625 -2.578125 0.375 -2.296875 0.390625 -2.015625 C 0.421875 -1.375 0.515625 -0.859375 0.84375 -0.4375 C 1.234375 0.09375 1.984375 0.265625 2.578125 -0.015625 C 2.84375 -0.140625 3.0625 -0.375 3.21875 -0.609375 C 3.453125 -0.9375 3.5 -1.328125 3.484375 -1.71875 C 3.46875 -1.921875 3.421875 -2.125 3.359375 -2.3125 C 3.21875 -2.609375 2.96875 -2.953125 2.6875 -3.09375 C 2.546875 -3.140625 2.40625 -3.15625 2.25 -3.15625 C 1.875 -3.15625 1.515625 -3 1.21875 -2.75 C 1.125 -2.65625 0.953125 -2.453125 0.90625 -2.328125 Z M 1.984375 -2.765625 C 2.21875 -2.765625 2.453125 -2.734375 2.640625 -2.5625 C 2.703125 -2.515625 2.734375 -2.453125 2.78125 -2.40625 C 2.96875 -2.15625 2.96875 -1.84375 2.96875 -1.546875 C 2.96875 -1.078125 2.921875 -0.796875 2.65625 -0.53125 C 2.453125 -0.328125 2.1875 -0.28125 1.90625 -0.28125 C 1.609375 -0.296875 1.328125 -0.4375 1.15625 -0.671875 C 1.0625 -0.828125 1.015625 -1 0.96875 -1.171875 C 0.921875 -1.40625 0.890625 -1.65625 0.9375 -1.875 C 1.03125 -2.375 1.46875 -2.78125 1.984375 -2.765625 Z M 1.984375 -2.765625 "/>
</symbol>
<symbol overflow="visible" id="glyph1-4">
<path style="stroke:none;" d="M 1.421875 -2.46875 L 1.421875 -2.46875 C 0.953125 -2.34375 0.515625 -2.03125 0.375 -1.59375 C 0.21875 -1.140625 0.40625 -0.65625 0.734375 -0.34375 C 1.078125 -0.015625 1.546875 0.125 2 0.109375 C 2.625 0.09375 3.28125 -0.28125 3.484375 -0.890625 C 3.546875 -1.09375 3.578125 -1.3125 3.515625 -1.546875 C 3.375 -2.03125 2.9375 -2.34375 2.453125 -2.46875 C 2.515625 -2.5 2.59375 -2.515625 2.65625 -2.53125 C 2.921875 -2.640625 3.171875 -2.8125 3.3125 -3.046875 C 3.59375 -3.484375 3.359375 -4.046875 2.984375 -4.34375 C 2.578125 -4.65625 2.015625 -4.75 1.515625 -4.640625 C 1.09375 -4.546875 0.6875 -4.265625 0.515625 -3.859375 C 0.453125 -3.734375 0.421875 -3.5625 0.4375 -3.40625 C 0.46875 -3.03125 0.75 -2.765625 1.078125 -2.59375 C 1.171875 -2.546875 1.296875 -2.484375 1.421875 -2.46875 Z M 2.09375 -4.28125 C 2.328125 -4.265625 2.59375 -4.203125 2.765625 -4.015625 C 3.03125 -3.734375 3.03125 -3.21875 2.75 -2.9375 C 2.578125 -2.765625 2.328125 -2.6875 2.109375 -2.671875 C 1.765625 -2.640625 1.359375 -2.6875 1.109375 -2.9375 C 0.828125 -3.21875 0.84375 -3.78125 1.140625 -4.0625 C 1.375 -4.265625 1.71875 -4.3125 2.09375 -4.28125 Z M 1.8125 -2.265625 C 2.1875 -2.296875 2.609375 -2.203125 2.859375 -1.890625 C 3.109375 -1.546875 3.109375 -0.921875 2.78125 -0.578125 C 2.609375 -0.40625 2.359375 -0.3125 2.109375 -0.296875 C 1.75 -0.265625 1.34375 -0.3125 1.078125 -0.578125 C 0.765625 -0.90625 0.703125 -1.59375 1.078125 -1.96875 C 1.265625 -2.15625 1.546875 -2.25 1.8125 -2.265625 Z M 1.8125 -2.265625 "/>
</symbol>
<symbol overflow="visible" id="glyph1-5">
<path style="stroke:none;" d="M 0.78125 -4.21875 L 0.78125 -3.828125 C 1.125 -3.828125 1.46875 -3.890625 1.78125 -4.03125 L 1.78125 -0.390625 L 0.8125 -0.390625 L 0.8125 0 L 3.25 0 L 3.25 -0.390625 L 2.28125 -0.390625 L 2.28125 -4.6875 C 2.25 -4.6875 2.1875 -4.6875 2.15625 -4.671875 C 2.109375 -4.65625 2.0625 -4.59375 2.015625 -4.5625 C 1.734375 -4.328125 1.21875 -4.21875 0.78125 -4.21875 Z M 0.78125 -4.21875 "/>
</symbol>
<symbol overflow="visible" id="glyph1-6">
<path style="stroke:none;" d="M 1.828125 -4.6875 C 1.671875 -4.65625 1.5 -4.640625 1.359375 -4.5625 C 0.625 -4.28125 0.375 -3.34375 0.375 -2.40625 C 0.375 -2.265625 0.375 -2.125 0.375 -1.96875 C 0.390625 -1.328125 0.546875 -0.6875 0.90625 -0.296875 C 1.21875 0.015625 1.671875 0.140625 2.09375 0.109375 C 2.359375 0.078125 2.578125 -0.015625 2.765625 -0.140625 C 3.359375 -0.5625 3.5 -1.421875 3.5 -2.359375 C 3.5 -3.125 3.359375 -3.8125 2.984375 -4.234375 C 2.703125 -4.546875 2.265625 -4.71875 1.828125 -4.6875 Z M 2.421875 -4.171875 C 2.5 -4.125 2.5625 -4.078125 2.625 -4.015625 C 2.890625 -3.765625 2.96875 -3.265625 2.984375 -2.796875 C 2.984375 -2.703125 2.984375 -2.609375 2.984375 -2.515625 L 2.984375 -2.15625 C 2.984375 -1.5625 2.9375 -0.984375 2.671875 -0.625 C 2.328125 -0.171875 1.578125 -0.15625 1.21875 -0.609375 C 1.125 -0.703125 1.078125 -0.828125 1.03125 -0.9375 C 0.90625 -1.296875 0.875 -1.734375 0.875 -2.1875 L 0.875 -2.546875 C 0.875 -2.640625 0.890625 -2.71875 0.890625 -2.8125 C 0.890625 -3.359375 1.03125 -3.90625 1.390625 -4.140625 C 1.671875 -4.3125 2.09375 -4.359375 2.421875 -4.171875 Z M 2.421875 -4.171875 "/>
</symbol>
<symbol overflow="visible" id="glyph1-7">
<path style="stroke:none;" d="M 2.578125 1.546875 C 2.546875 1.5 2.5 1.46875 2.453125 1.4375 C 1.6875 0.75 1.21875 -0.3125 1.171875 -1.59375 C 1.140625 -2.46875 1.296875 -3.375 1.703125 -4.15625 C 1.90625 -4.53125 2.140625 -4.84375 2.453125 -5.109375 C 2.5 -5.15625 2.546875 -5.1875 2.578125 -5.21875 L 2.328125 -5.21875 C 2.171875 -5.21875 2.1875 -5.21875 2.078125 -5.140625 C 1.71875 -4.859375 1.421875 -4.484375 1.1875 -4.0625 C 0.53125 -2.828125 0.484375 -1.15625 1.09375 0.1875 C 1.3125 0.6875 1.65625 1.109375 2.078125 1.46875 C 2.171875 1.53125 2.171875 1.546875 2.328125 1.546875 L 2.578125 1.546875 Z M 2.578125 1.546875 "/>
</symbol>
<symbol overflow="visible" id="glyph1-8">
<path style="stroke:none;" d="M 0.4375 -5.21875 C 0.46875 -5.1875 0.515625 -5.15625 0.5625 -5.109375 C 1.421875 -4.34375 1.890625 -3.109375 1.828125 -1.59375 C 1.8125 -0.84375 1.625 -0.09375 1.265625 0.5625 C 1.078125 0.890625 0.84375 1.1875 0.5625 1.4375 C 0.515625 1.46875 0.46875 1.5 0.4375 1.546875 L 0.6875 1.546875 C 0.84375 1.546875 0.828125 1.546875 0.921875 1.46875 C 1.296875 1.171875 1.59375 0.796875 1.8125 0.390625 C 2.484375 -0.859375 2.53125 -2.515625 1.921875 -3.859375 C 1.6875 -4.375 1.359375 -4.796875 0.9375 -5.140625 C 0.84375 -5.21875 0.84375 -5.21875 0.6875 -5.21875 L 0.4375 -5.21875 Z M 0.4375 -5.21875 "/>
</symbol>
<symbol overflow="visible" id="glyph1-9">
<path style="stroke:none;" d="M 0.65625 -4.578125 L 0.65625 -2.03125 L 0.953125 -2.03125 C 1 -2.03125 1.046875 -2.015625 1.09375 -2.046875 C 1.125 -2.0625 1.15625 -2.109375 1.171875 -2.140625 C 1.21875 -2.203125 1.265625 -2.265625 1.328125 -2.3125 C 1.625 -2.546875 2.09375 -2.625 2.453125 -2.453125 C 2.84375 -2.28125 2.953125 -1.828125 2.953125 -1.4375 C 2.953125 -1.1875 2.90625 -0.9375 2.78125 -0.734375 C 2.5 -0.3125 1.921875 -0.21875 1.453125 -0.328125 C 1.0625 -0.421875 0.78125 -0.640625 0.578125 -0.921875 L 0.5625 -0.921875 C 0.546875 -0.890625 0.34375 -0.609375 0.34375 -0.578125 C 0.34375 -0.546875 0.375 -0.53125 0.390625 -0.515625 C 0.625 -0.28125 0.84375 -0.109375 1.1875 0 C 1.828125 0.21875 2.578125 0.109375 3.0625 -0.390625 C 3.28125 -0.625 3.421875 -0.90625 3.46875 -1.21875 C 3.59375 -2.09375 2.953125 -3.015625 1.875 -2.921875 C 1.5625 -2.890625 1.359375 -2.765625 1.140625 -2.59375 L 1.140625 -4.15625 L 3.21875 -4.15625 L 3.21875 -4.578125 L 0.65625 -4.578125 Z M 0.65625 -4.578125 "/>
</symbol>
<symbol overflow="visible" id="glyph2-0">
<path style="stroke:none;" d=""/>
</symbol>
<symbol overflow="visible" id="glyph2-1">
<path style="stroke:none;" d="M 1.3125 -3.34375 C 1.1875 -3.328125 1.078125 -3.3125 0.96875 -3.265625 C 0.453125 -3.0625 0.265625 -2.390625 0.265625 -1.71875 C 0.265625 -1.609375 0.265625 -1.515625 0.265625 -1.40625 C 0.28125 -0.953125 0.390625 -0.5 0.65625 -0.21875 C 0.875 0.015625 1.203125 0.109375 1.5 0.078125 C 1.6875 0.0625 1.84375 -0.015625 1.984375 -0.09375 C 2.40625 -0.40625 2.5 -1.015625 2.5 -1.6875 C 2.5 -2.234375 2.40625 -2.71875 2.140625 -3.03125 C 1.9375 -3.25 1.609375 -3.375 1.3125 -3.34375 Z M 1.734375 -2.984375 C 1.78125 -2.953125 1.828125 -2.921875 1.875 -2.875 C 2.0625 -2.6875 2.125 -2.328125 2.140625 -2 C 2.140625 -1.9375 2.140625 -1.875 2.140625 -1.796875 L 2.140625 -1.546875 C 2.140625 -1.109375 2.09375 -0.703125 1.90625 -0.453125 C 1.65625 -0.125 1.125 -0.109375 0.875 -0.4375 C 0.8125 -0.515625 0.765625 -0.59375 0.734375 -0.671875 C 0.640625 -0.921875 0.625 -1.25 0.625 -1.5625 L 0.625 -1.8125 C 0.625 -1.890625 0.640625 -1.9375 0.640625 -2.015625 C 0.640625 -2.40625 0.734375 -2.796875 1 -2.953125 C 1.1875 -3.078125 1.5 -3.109375 1.734375 -2.984375 Z M 1.734375 -2.984375 "/>
</symbol>
<symbol overflow="visible" id="glyph3-0">
<path style="stroke:none;" d=""/>
</symbol>
<symbol overflow="visible" id="glyph3-1">
<path style="stroke:none;" d="M 0.734375 -2 C 0.59375 -1.953125 0.578125 -1.734375 0.71875 -1.6875 C 0.765625 -1.671875 0.8125 -1.671875 0.84375 -1.671875 L 4.78125 -1.671875 C 4.875 -1.671875 5.015625 -1.65625 5.09375 -1.71875 C 5.171875 -1.8125 5.125 -1.96875 5 -2 C 4.921875 -2.015625 4.828125 -2 4.734375 -2 L 0.859375 -2 C 0.828125 -2 0.78125 -2 0.734375 -2 Z M 0.734375 -2 "/>
</symbol>
</g>
<clipPath id="clip1">
  <path d="M -223 667 L 389 667 L 389 -125 L -223 -125 L -223 667 Z M -223 667 "/>
</clipPath>
<clipPath id="clip2">
  <path d="M 16.574219 119.15625 L 165.394531 119.15625 L 165.394531 -0.199219 L 16.574219 -0.199219 L 16.574219 119.15625 Z M 16.574219 119.15625 "/>
</clipPath>
<clipPath id="clip3">
  <path d="M -223 667 L 389 667 L 389 -125 L -223 -125 L -223 667 Z M -223 667 "/>
</clipPath>
</defs>
<g id="surface0">
<g clip-path="url(#clip1)" clip-rule="nonzero">
<g clip-path="url(#clip2)" clip-rule="nonzero">
<path style=" stroke:none;fill-rule:nonzero;fill:rgb(0%,0%,0%);fill-opacity:1;" d="M 160.898438 77.40625 L 160.898438 78.207031 L 163.917969 77.40625 L 160.898438 76.609375 L 160.898438 77.40625 "/>
<path style="fill:none;stroke-width:7.5;stroke-linecap:butt;stroke-linejoin:miter;stroke:rgb(0%,0%,0%);stroke-opacity:1;stroke-miterlimit:10;" d="M 2890.002994 836.031614 L 2890.002994 819.996491 L 2950.467143 836.031614 L 2890.002994 851.988518 L 2890.002994 836.031614 M 31.527087 836.031614 L 2890.002994 836.031614 " transform="matrix(0.0499392,0,0,-0.0499392,16.574,119.157)"/>
<path style="fill-rule:nonzero;fill:rgb(0%,0%,0%);fill-opacity:1;stroke-width:7.5;stroke-linecap:butt;stroke-linejoin:miter;stroke:rgb(0%,0%,0%);stroke-opacity:1;stroke-miterlimit:10;" d="M 2890.002994 836.031614 L 2890.002994 819.996491 L 2950.467143 836.031614 L 2890.002994 851.988518 L 2890.002994 836.031614 " transform="matrix(0.0499392,0,0,-0.0499392,16.574,119.157)"/>
<path style=" stroke:none;fill-rule:nonzero;fill:rgb(0%,0%,0%);fill-opacity:1;" d="M 18.148438 4.023438 L 18.945313 4.023438 L 18.148438 1 L 17.347656 4.023438 L 18.148438 4.023438 "/>
<path style="fill:none;stroke-width:7.5;stroke-linecap:butt;stroke-linejoin:miter;stroke:rgb(0%,0%,0%);stroke-opacity:1;stroke-miterlimit:10;" d="M 31.527087 2305.474707 L 47.483991 2305.474707 L 31.527087 2366.017077 L 15.491963 2305.474707 L 31.527087 2305.474707 M 31.527087 14.016419 L 31.527087 2305.474707 " transform="matrix(0.0499392,0,0,-0.0499392,16.574,119.157)"/>
<path style="fill-rule:nonzero;fill:rgb(0%,0%,0%);fill-opacity:1;stroke-width:7.5;stroke-linecap:butt;stroke-linejoin:miter;stroke:rgb(0%,0%,0%);stroke-opacity:1;stroke-miterlimit:10;" d="M 31.527087 2305.474707 L 47.483991 2305.474707 L 31.527087 2366.017077 L 15.491963 2305.474707 L 31.527087 2305.474707 " transform="matrix(0.0499392,0,0,-0.0499392,16.574,119.157)"/>
<path style="fill:none;stroke-width:7.5;stroke-linecap:butt;stroke-linejoin:miter;stroke:rgb(0%,0%,0%);stroke-opacity:1;stroke-miterlimit:10;" d="M 31.527087 1912.496846 L 88.00201 1912.496846 M 31.527087 1374.02957 L 88.00201 1374.02957 M 31.527087 297.486118 L 88.00201 297.486118 M 465.961609 807.481272 L 465.961609 864.034416 M 900.474352 807.481272 L 900.474352 864.034416 M 1334.987094 807.481272 L 1334.987094 864.034416 M 1769.499837 807.481272 L 1769.499837 864.034416 M 2204.012579 807.481272 L 2204.012579 864.034416 M 2638.994642 807.481272 L 2638.994642 864.034416 " transform="matrix(0.0499392,0,0,-0.0499392,16.574,119.157)"/>
<path style=" stroke:none;fill-rule:nonzero;fill:rgb(0%,0%,0%);fill-opacity:1;" d="M 46.636719 74.386719 L 46.039063 73.9375 L 44.988281 76.609375 L 47.238281 74.835938 L 46.636719 74.386719 "/>
<path style="fill:none;stroke-width:7.5;stroke-linecap:butt;stroke-linejoin:miter;stroke:rgb(0%,0%,0%);stroke-opacity:1;stroke-miterlimit:10;" d="M 601.98639 896.495764 L 590.018713 905.491077 L 568.977502 851.988518 L 614.032288 887.500451 L 601.98639 896.495764 M 683.491751 1006.003926 L 601.98639 896.495764 " transform="matrix(0.0499392,0,0,-0.0499392,16.574,119.157)"/>
<path style="fill-rule:nonzero;fill:rgb(0%,0%,0%);fill-opacity:1;stroke-width:7.5;stroke-linecap:butt;stroke-linejoin:miter;stroke:rgb(0%,0%,0%);stroke-opacity:1;stroke-miterlimit:10;" d="M 601.98639 896.495764 L 590.018713 905.491077 L 568.977502 851.988518 L 614.032288 887.500451 L 601.98639 896.495764 " transform="matrix(0.0499392,0,0,-0.0499392,16.574,119.157)"/>
<path style=" stroke:none;fill-rule:nonzero;fill:rgb(0%,0%,0%);fill-opacity:1;" d="M 78.996094 81.226563 L 79.796875 81.128906 L 78.574219 78.230469 L 78.199219 81.351563 L 78.996094 81.226563 "/>
<path style="fill:none;stroke-width:7.5;stroke-linecap:butt;stroke-linejoin:miter;stroke:rgb(0%,0%,0%);stroke-opacity:1;stroke-miterlimit:10;" d="M 1249.961829 759.532341 L 1265.996952 761.487844 L 1241.514056 819.52717 L 1234.004925 757.029298 L 1249.961829 759.532341 M 1278.512171 552.483695 L 1249.961829 759.532341 " transform="matrix(0.0499392,0,0,-0.0499392,16.574,119.157)"/>
<path style="fill-rule:nonzero;fill:rgb(0%,0%,0%);fill-opacity:1;stroke-width:7.5;stroke-linecap:butt;stroke-linejoin:miter;stroke:rgb(0%,0%,0%);stroke-opacity:1;stroke-miterlimit:10;" d="M 1249.961829 759.532341 L 1265.996952 761.487844 L 1241.514056 819.52717 L 1234.004925 757.029298 L 1249.961829 759.532341 " transform="matrix(0.0499392,0,0,-0.0499392,16.574,119.157)"/>
<path style="fill:none;stroke-width:10;stroke-linecap:butt;stroke-linejoin:miter;stroke:rgb(0%,0%,0%);stroke-opacity:1;stroke-miterlimit:10;" d="M 31.527087 1912.496846 L 61.016071 1907.490759 L 90.505054 1893.020037 L 119.994038 1868.537141 L 149.483021 1834.511391 L 178.972005 1792.037868 L 208.460989 1741.507673 L 238.028192 1682.999027 L 267.517176 1617.998111 L 297.006159 1546.974246 L 326.495143 1471.022513 L 355.984127 1391.472656 L 385.47311 1308.481113 L 414.962094 1224.472709 L 444.529298 1139.525663 L 474.018281 1054.969718 L 503.507265 971.978175 L 532.526928 891.489676 L 562.015911 814.990403 L 591.504895 742.480356 L 620.993879 675.523937 L 650.482862 614.981568 L 679.971846 561.009688 L 709.539049 514.468719 L 739.028033 475.515101 L 768.517017 445.009256 L 798.006 422.481863 L 827.494984 408.480462 L 856.983968 402.535733 L 886.472951 404.491236 L 915.961935 414.03409 L 945.529138 431.477176 L 975.018122 455.021431 L 1004.507106 485.527276 L 1033.996089 520.960989 L 1063.485073 561.009688 L 1092.974056 604.969393 L 1122.46304 651.979682 L 1152.030244 701.023695 L 1181.519227 751.475669 L 1211.008211 802.005864 L 1240.497195 851.988518 L 1269.986178 900.015669 L 1299.475162 946.478418 L 1328.964145 989.499481 L 1358.531349 1028.531319 L 1388.020333 1063.495711 L 1417.509316 1093.532235 L 1446.9983 1118.015131 L 1476.487284 1137.02262 L 1505.506946 1150.476479 L 1534.99593 1157.51629 L 1564.484914 1158.533151 L 1593.973897 1153.996385 L 1623.462881 1143.514889 L 1653.030085 1127.479765 L 1682.519068 1106.986095 L 1712.008052 1081.486337 L 1741.497035 1051.997354 L 1770.986019 1018.988465 L 1800.475003 983.007212 L 1829.963986 945.461556 L 1859.53119 906.507939 L 1889.020174 866.53746 L 1918.509157 826.48876 L 1947.998141 787.535143 L 1977.487124 749.989487 L 2006.976108 714.477555 L 2036.465092 682.016207 L 2066.032295 652.527223 L 2095.521279 627.027465 L 2125.010262 605.516934 L 2154.499246 588.464948 L 2183.98823 576.497271 L 2213.477213 568.98814 L 2242.966197 567.032637 L 2272.533401 569.53568 L 2302.022384 576.966591 L 2331.511368 589.012489 L 2361.000351 605.516934 L 2390.489335 626.010604 L 2419.978319 650.024179 L 2449.467302 677.010119 L 2478.486965 706.968424 L 2507.975949 738.49113 L 2537.464932 771.500019 L 2567.032136 805.525769 L 2596.52112 839.4733 L 2626.010103 873.029729 L 2655.499087 905.491077 L 2684.98807 936.466243 " transform="matrix(0.0499392,0,0,-0.0499392,16.574,119.157)"/>
</g>
</g>
<g clip-path="url(#clip3)" clip-rule="nonzero">
<g style="fill:rgb(0%,0%,0%);fill-opacity:1;">
  <use xlink:href="#glyph0-1" x="160.522" y="83.332"/>
</g>
<g style="fill:rgb(0%,0%,0%);fill-opacity:1;">
  <use xlink:href="#glyph1-1" x="37.879" y="84.899"/>
</g>
<g style="fill:rgb(0%,0%,0%);fill-opacity:1;">
  <use xlink:href="#glyph1-2" x="59.705" y="84.899"/>
</g>
<g style="fill:rgb(0%,0%,0%);fill-opacity:1;">
  <use xlink:href="#glyph1-3" x="81.249" y="84.899"/>
</g>
<g style="fill:rgb(0%,0%,0%);fill-opacity:1;">
  <use xlink:href="#glyph1-4" x="103.075" y="84.899"/>
</g>
<g style="fill:rgb(0%,0%,0%);fill-opacity:1;">
  <use xlink:href="#glyph1-5" x="122.963" y="84.899"/>
  <use xlink:href="#glyph1-6" x="126.842525" y="84.899"/>
</g>
<g style="fill:rgb(0%,0%,0%);fill-opacity:1;">
  <use xlink:href="#glyph1-5" x="144.789" y="84.899"/>
  <use xlink:href="#glyph1-1" x="148.668525" y="84.899"/>
</g>
<g style="fill:rgb(0%,0%,0%);fill-opacity:1;">
  <use xlink:href="#glyph0-2" x="-0.145" y="13.281"/>
</g>
<g style="fill:rgb(0%,0%,0%);fill-opacity:1;">
  <use xlink:href="#glyph2-1" x="3.481" y="14.152"/>
</g>
<g style="fill:rgb(0%,0%,0%);fill-opacity:1;">
  <use xlink:href="#glyph1-7" x="6.75" y="13.281"/>
</g>
<g style="fill:rgb(0%,0%,0%);fill-opacity:1;">
  <use xlink:href="#glyph0-1" x="9.767" y="13.281"/>
</g>
<g style="fill:rgb(0%,0%,0%);fill-opacity:1;">
  <use xlink:href="#glyph1-8" x="13.84" y="13.281"/>
</g>
<g style="fill:rgb(0%,0%,0%);fill-opacity:1;">
  <use xlink:href="#glyph1-5" x="6.944" y="25.918"/>
</g>
<g style="fill:rgb(0%,0%,0%);fill-opacity:1;">
  <use xlink:href="#glyph0-3" x="10.823" y="25.918"/>
</g>
<g style="fill:rgb(0%,0%,0%);fill-opacity:1;">
  <use xlink:href="#glyph1-6" x="12.978" y="25.918"/>
</g>
<g style="fill:rgb(0%,0%,0%);fill-opacity:1;">
  <use xlink:href="#glyph1-6" x="6.944" y="52.847"/>
</g>
<g style="fill:rgb(0%,0%,0%);fill-opacity:1;">
  <use xlink:href="#glyph0-3" x="10.823" y="52.847"/>
</g>
<g style="fill:rgb(0%,0%,0%);fill-opacity:1;">
  <use xlink:href="#glyph1-9" x="12.978" y="52.847"/>
</g>
<g style="fill:rgb(0%,0%,0%);fill-opacity:1;">
  <use xlink:href="#glyph1-6" x="12.978" y="79.776"/>
</g>
<g style="fill:rgb(0%,0%,0%);fill-opacity:1;">
  <use xlink:href="#glyph3-1" x="1.181" y="106.39"/>
</g>
<g style="fill:rgb(0%,0%,0%);fill-opacity:1;">
  <use xlink:href="#glyph1-6" x="6.944" y="106.39"/>
</g>
<g style="fill:rgb(0%,0%,0%);fill-opacity:1;">
  <use xlink:href="#glyph0-3" x="10.823" y="106.39"/>
</g>
<g style="fill:rgb(0%,0%,0%);fill-opacity:1;">
  <use xlink:href="#glyph1-9" x="12.978" y="106.39"/>
</g>
<g style="fill:rgb(0%,0%,0%);fill-opacity:1;">
  <use xlink:href="#glyph1-1" x="51.44" y="68.984"/>
</g>
<g style="fill:rgb(0%,0%,0%);fill-opacity:1;">
  <use xlink:href="#glyph0-3" x="55.319" y="68.984"/>
</g>
<g style="fill:rgb(0%,0%,0%);fill-opacity:1;">
  <use xlink:href="#glyph1-2" x="57.474" y="68.984"/>
  <use xlink:href="#glyph1-6" x="61.353525" y="68.984"/>
  <use xlink:href="#glyph1-9" x="65.23305" y="68.984"/>
</g>
<g style="fill:rgb(0%,0%,0%);fill-opacity:1;">
  <use xlink:href="#glyph1-9" x="80.07" y="97.371"/>
</g>
<g style="fill:rgb(0%,0%,0%);fill-opacity:1;">
  <use xlink:href="#glyph0-3" x="83.949" y="97.371"/>
</g>
<g style="fill:rgb(0%,0%,0%);fill-opacity:1;">
  <use xlink:href="#glyph1-9" x="86.104" y="97.371"/>
  <use xlink:href="#glyph1-1" x="89.983525" y="97.371"/>
</g>
</g>
</g>
</svg>
