<?xml version="1.0" encoding="UTF-8"?>
<svg xmlns="http://www.w3.org/2000/svg" xmlns:xlink="http://www.w3.org/1999/xlink" width="349pt" height="316pt" viewBox="0 0 202 183" version="1.1">
<defs>
<g>
<symbol overflow="visible" id="glyph0-0">
<path style="stroke:none;" d=""/>
</symbol>
<symbol overflow="visible" id="glyph0-1">
<path style="stroke:none;" d="M 0.75 -3.296875 C 0.828125 -3.140625 0.921875 -3.015625 1.015625 -2.875 C 1.078125 -2.796875 1.6875 -1.875 1.71875 -1.84375 C 1.734375 -1.8125 1.796875 -1.75 1.796875 -1.703125 C 1.796875 -1.65625 1.71875 -1.609375 1.6875 -1.578125 C 1.375 -1.296875 0.046875 -0.046875 0 0 C 0.1875 0 0.375 0 0.53125 0 L 0.6875 -0.140625 L 1.984375 -1.4375 C 2.265625 -0.953125 2.53125 -0.46875 2.84375 -0.015625 C 3.015625 0 3.203125 0 3.390625 0 C 3.296875 -0.140625 2.359375 -1.53125 2.328125 -1.5625 C 2.3125 -1.609375 2.265625 -1.65625 2.265625 -1.6875 C 2.28125 -1.734375 2.34375 -1.78125 2.375 -1.8125 C 2.484375 -1.921875 2.59375 -2.015625 2.703125 -2.125 C 2.8125 -2.21875 3.921875 -3.25 3.953125 -3.296875 C 3.765625 -3.296875 3.59375 -3.296875 3.421875 -3.28125 C 2.96875 -2.875 2.546875 -2.4375 2.09375 -2.03125 C 1.828125 -2.453125 1.578125 -2.890625 1.28125 -3.28125 C 1.109375 -3.296875 0.921875 -3.296875 0.75 -3.296875 Z M 0.75 -3.296875 "/>
</symbol>
<symbol overflow="visible" id="glyph0-2">
<path style="stroke:none;" d="M 0.8125 -3.296875 C 0.828125 -3.1875 0.84375 -3.09375 0.875 -3 C 1.015625 -2.3125 1.515625 -0.078125 1.515625 0 C 1.5 0.03125 1.328125 0.296875 1.328125 0.296875 C 1.15625 0.578125 0.9375 0.875 0.515625 0.828125 C 0.421875 0.828125 0.328125 0.8125 0.234375 0.796875 C 0.171875 0.78125 0.09375 0.75 0.03125 0.734375 L -0.015625 1.171875 C 0.203125 1.203125 0.578125 1.25 0.796875 1.1875 C 1.234375 1.0625 1.546875 0.59375 1.75 0.265625 L 2.09375 -0.28125 C 2.28125 -0.59375 3.875 -3.125 3.984375 -3.296875 C 3.8125 -3.296875 3.640625 -3.296875 3.5 -3.28125 C 3.328125 -3.03125 3.1875 -2.78125 3.03125 -2.53125 C 2.625 -1.859375 2.1875 -1.234375 1.828125 -0.515625 L 1.828125 -0.515625 C 1.734375 -1.515625 1.484375 -2.359375 1.296875 -3.296875 L 0.8125 -3.296875 Z M 0.8125 -3.296875 "/>
</symbol>
<symbol overflow="visible" id="glyph0-3">
<path style="stroke:none;" d="M 1.015625 -3.296875 L 0.9375 -2.90625 L 3.0625 -2.90625 L 1.046875 -1 C 0.796875 -0.75 0.515625 -0.515625 0.28125 -0.265625 C 0.265625 -0.171875 0.234375 -0.09375 0.21875 0 C 1.171875 0 2.1875 0.015625 3.09375 0 C 3.15625 -0.125 3.171875 -0.265625 3.203125 -0.390625 L 0.953125 -0.390625 L 3.734375 -3.03125 C 3.765625 -3.109375 3.78125 -3.203125 3.796875 -3.296875 L 1.015625 -3.296875 Z M 1.015625 -3.296875 "/>
</symbol>
<symbol overflow="visible" id="glyph0-4">
<path style="stroke:none;" d="M -0.28125 1.15625 L 0.21875 1.15625 L 0.3125 0.765625 C 0.390625 0.421875 0.453125 0.078125 0.515625 -0.28125 L 0.671875 -0.15625 C 0.96875 0.09375 1.40625 0.234375 1.890625 0.25 C 2.015625 0.25 2.140625 0.25 2.28125 0.21875 C 3 0.09375 3.671875 -0.421875 3.9375 -1.125 C 4.03125 -1.359375 4.0625 -1.640625 4.0625 -1.890625 C 4.046875 -2.296875 3.90625 -2.625 3.6875 -2.859375 C 3.640625 -2.921875 3.578125 -2.96875 3.515625 -3.03125 C 3.609375 -3.0625 3.671875 -3.125 3.75 -3.171875 C 4.140625 -3.46875 4.40625 -4.015625 4.078125 -4.46875 C 3.78125 -4.84375 3.15625 -4.96875 2.515625 -4.84375 C 1.875 -4.71875 1.21875 -4.375 0.875 -3.8125 C 0.65625 -3.46875 0.609375 -3.0625 0.53125 -2.671875 C 0.453125 -2.296875 -0.28125 1.09375 -0.28125 1.15625 Z M 2.84375 -4.5 C 2.9375 -4.515625 3.03125 -4.5 3.125 -4.5 C 3.296875 -4.484375 3.484375 -4.453125 3.609375 -4.328125 C 3.8125 -4.125 3.71875 -3.75 3.59375 -3.53125 C 3.5625 -3.484375 3.53125 -3.421875 3.484375 -3.390625 C 3.453125 -3.328125 3.3125 -3.203125 3.234375 -3.1875 C 3.203125 -3.1875 3.171875 -3.21875 3.140625 -3.21875 C 2.875 -3.3125 2.578125 -3.296875 2.234375 -3.28125 C 2.09375 -3.265625 1.921875 -3.25 1.8125 -3.15625 C 1.75 -3.125 1.703125 -3.0625 1.71875 -3 C 1.734375 -2.875 1.890625 -2.84375 2 -2.828125 C 2.140625 -2.796875 2.3125 -2.796875 2.453125 -2.796875 C 2.6875 -2.796875 2.890625 -2.8125 3.078125 -2.859375 C 3.125 -2.875 3.15625 -2.890625 3.203125 -2.859375 C 3.28125 -2.8125 3.328125 -2.734375 3.375 -2.671875 C 3.53125 -2.453125 3.5625 -2.1875 3.5625 -1.921875 C 3.5625 -1.4375 3.4375 -0.890625 3.078125 -0.546875 C 2.8125 -0.296875 2.484375 -0.140625 2 -0.140625 C 1.53125 -0.15625 1 -0.328125 0.796875 -0.78125 C 0.703125 -1.046875 0.734375 -1.25 0.796875 -1.5625 L 1.109375 -3 C 1.15625 -3.203125 1.171875 -3.40625 1.265625 -3.578125 C 1.5625 -4.171875 2.234375 -4.453125 2.84375 -4.5 Z M 2.84375 -4.5 "/>
</symbol>
<symbol overflow="visible" id="glyph0-5">
<path style="stroke:none;" d="M 3.21875 -0.625 C 3.265625 -0.375 3.40625 -0.09375 3.65625 0 C 4.046875 0.171875 4.640625 -0.0625 4.6875 -0.4375 L 4.1875 -0.4375 C 4.140625 -0.34375 4.03125 -0.3125 3.9375 -0.34375 C 3.75 -0.40625 3.703125 -0.75 3.6875 -0.90625 C 3.671875 -0.96875 3.671875 -1.03125 3.671875 -1.09375 C 3.6875 -1.15625 3.796875 -1.28125 3.8125 -1.296875 C 4.140625 -1.75 4.4375 -2.390625 4.546875 -2.984375 C 4.390625 -2.984375 4.203125 -2.984375 4.046875 -2.96875 L 4.015625 -2.875 C 3.921875 -2.46875 3.78125 -2.125 3.609375 -1.8125 C 3.59375 -1.921875 3.59375 -2.03125 3.578125 -2.140625 C 3.484375 -2.59375 3.21875 -3.03125 2.84375 -3.21875 C 2.390625 -3.4375 1.875 -3.359375 1.46875 -3.125 C 0.875 -2.8125 0.4375 -2.1875 0.328125 -1.53125 C 0.265625 -1.046875 0.390625 -0.515625 0.78125 -0.1875 C 0.859375 -0.125 0.953125 -0.078125 1.03125 -0.046875 C 1.703125 0.21875 2.484375 -0.09375 2.9375 -0.40625 C 3.03125 -0.484375 3.125 -0.5625 3.21875 -0.625 Z M 2.546875 -2.875 C 3.046875 -2.609375 3.078125 -1.921875 3.125 -1.296875 C 3.140625 -1.140625 3.15625 -1.109375 3.046875 -1.015625 C 2.734375 -0.671875 2.25 -0.375 1.703125 -0.328125 C 1.4375 -0.3125 1.1875 -0.390625 1.046875 -0.53125 C 0.8125 -0.75 0.78125 -1.109375 0.828125 -1.421875 C 0.890625 -1.9375 1.09375 -2.484375 1.5625 -2.78125 C 1.8125 -2.921875 2.21875 -3.03125 2.546875 -2.875 Z M 2.546875 -2.875 "/>
</symbol>
<symbol overflow="visible" id="glyph0-6">
<path style="stroke:none;" d="M -0.046875 -1.890625 L 0.46875 -1.890625 C 0.546875 -2.25 0.78125 -2.59375 1.109375 -2.765625 C 1.296875 -2.84375 1.53125 -2.890625 1.734375 -2.8125 C 2.15625 -2.65625 2.328125 -2.171875 2.453125 -1.734375 C 2.515625 -1.546875 2.5625 -1.359375 2.609375 -1.171875 C 2.625 -1.078125 2.703125 -0.71875 2.703125 -0.625 C 2.703125 -0.578125 2.671875 -0.53125 2.671875 -0.5 C 2.5625 -0.109375 2.34375 0.734375 2.34375 1.046875 C 2.34375 1.15625 2.390625 1.28125 2.515625 1.28125 C 2.75 1.265625 2.84375 0.9375 2.875 0.734375 C 2.96875 0.390625 3.03125 -0.0625 3.0625 -0.4375 C 3.078125 -0.515625 3.078125 -0.59375 3.078125 -0.671875 C 3.078125 -0.71875 3.078125 -0.765625 3.09375 -0.8125 C 3.15625 -1.015625 3.234375 -1.203125 3.328125 -1.390625 C 3.5 -1.8125 3.703125 -2.234375 3.890625 -2.65625 L 4.0625 -3.046875 C 4.09375 -3.125 4.125 -3.203125 4.15625 -3.296875 C 4 -3.296875 3.8125 -3.296875 3.65625 -3.28125 L 3.59375 -3.15625 C 3.390625 -2.65625 3.203125 -2.171875 3.03125 -1.65625 C 2.984375 -1.796875 2.96875 -1.9375 2.921875 -2.09375 C 2.8125 -2.5 2.59375 -2.90625 2.234375 -3.15625 C 1.875 -3.40625 1.40625 -3.390625 1.015625 -3.21875 C 0.625 -3.03125 0.296875 -2.703125 0.109375 -2.328125 C 0.046875 -2.1875 -0.015625 -2.046875 -0.046875 -1.890625 Z M -0.046875 -1.890625 "/>
</symbol>
<symbol overflow="visible" id="glyph1-0">
<path style="stroke:none;" d=""/>
</symbol>
<symbol overflow="visible" id="glyph1-1">
<path style="stroke:none;" d="M 0.546875 -3.015625 L 0.546875 -2.734375 C 0.796875 -2.734375 1.046875 -2.78125 1.28125 -2.875 L 1.28125 -0.28125 L 0.578125 -0.28125 L 0.578125 0 L 2.328125 0 L 2.328125 -0.28125 L 1.640625 -0.28125 L 1.640625 -3.34375 C 1.609375 -3.34375 1.5625 -3.359375 1.546875 -3.34375 C 1.5 -3.328125 1.46875 -3.296875 1.4375 -3.265625 C 1.234375 -3.09375 0.875 -3.015625 0.546875 -3.015625 Z M 0.546875 -3.015625 "/>
</symbol>
<symbol overflow="visible" id="glyph2-0">
<path style="stroke:none;" d=""/>
</symbol>
<symbol overflow="visible" id="glyph2-1">
<path style="stroke:none;" d="M 1.03125 -2.78125 C 1.015625 -2.78125 0.984375 -2.765625 0.96875 -2.765625 C 0.84375 -2.71875 0.828125 -2.59375 0.78125 -2.484375 L 0.734375 -2.28125 L 0.28125 -0.75 C 0.265625 -0.703125 0.140625 -0.34375 0.15625 -0.296875 C 0.15625 -0.25 0.234375 -0.234375 0.28125 -0.21875 C 0.296875 -0.21875 0.328125 -0.203125 0.34375 -0.203125 C 0.40625 -0.21875 0.421875 -0.296875 0.4375 -0.34375 L 0.640625 -0.78125 L 1.09375 -1.859375 C 1.140625 -1.953125 1.328125 -2.328125 1.34375 -2.421875 C 1.4375 -2.65625 1.203125 -2.8125 1.03125 -2.78125 Z M 1.03125 -2.78125 "/>
</symbol>
</g>
<clipPath id="clip1">
  <path d="M -205 666 L 407 666 L 407 -126 L -205 -126 L -205 666 Z M -205 666 "/>
</clipPath>
<clipPath id="clip2">
  <path d="M -0.875 182.800781 L 202.125 182.800781 L 202.125 -1.199219 L -0.875 -1.199219 L -0.875 182.800781 Z M -0.875 182.800781 "/>
</clipPath>
<clipPath id="clip3">
  <path d="M -205 666 L 407 666 L 407 -126 L -205 -126 L -205 666 Z M -205 666 "/>
</clipPath>
</defs>
<g id="surface0">
<g clip-path="url(#clip1)" clip-rule="nonzero">
<g clip-path="url(#clip2)" clip-rule="nonzero">
<path style="fill:none;stroke-width:5;stroke-linecap:round;stroke-linejoin:round;stroke:rgb(0%,0%,0%);stroke-opacity:1;stroke-miterlimit:10;" d="M 1016.377188 859.42625 L 1980.16625 859.42625 " transform="matrix(0.1,0,0,-0.1,-0.876,182.802)"/>
<path style=" stroke:none;fill-rule:nonzero;fill:rgb(0%,0%,0%);fill-opacity:1;" d="M 188.835938 98.699219 L 197.140625 96.859375 L 188.835938 95.015625 "/>
<path style="fill:none;stroke-width:5;stroke-linecap:round;stroke-linejoin:round;stroke:rgb(0%,0%,0%);stroke-opacity:1;stroke-miterlimit:10;" d="M 1897.119375 841.027813 L 1980.16625 859.42625 L 1897.119375 877.86375 L 1897.119375 841.027813 Z M 1897.119375 841.027813 " transform="matrix(0.1,0,0,-0.1,-0.876,182.802)"/>
<path style="fill-rule:nonzero;fill:rgb(90.040436%,90.040436%,90.040436%);fill-opacity:1;stroke-width:5;stroke-linecap:round;stroke-linejoin:round;stroke:rgb(0%,0%,0%);stroke-opacity:1;stroke-miterlimit:10;" d="M 1261.5725 577.355938 C 1325.049063 650.98875 1385.635 728.527813 1441.377188 807.86375 C 1598.564688 1031.61375 1704.502188 1251.574688 1735.9475 1419.465313 C 1767.392813 1587.316875 1721.72875 1689.309063 1608.994375 1702.980938 C 1496.299063 1716.652813 1325.752188 1640.871563 1134.892813 1492.355938 C 1011.767813 1396.535625 886.650625 1275.441875 771.181875 1141.535625 " transform="matrix(0.1,0,0,-0.1,-0.876,182.802)"/>
<path style=" stroke:none;fill-rule:nonzero;fill:rgb(90.040436%,90.040436%,90.040436%);fill-opacity:1;" d="M 37.671875 126.792969 C 33.285156 136.273438 30.253906 145.121094 28.804688 152.859375 C 25.660156 169.644531 30.222656 179.84375 41.496094 181.210938 C 52.769531 182.578125 69.824219 175 88.910156 160.148438 C 101.222656 150.566406 113.734375 138.460938 125.28125 125.066406 L 125.277344 125.066406 C 108.375 127.898438 90.496094 129.429688 73.429688 129.429688 C 60.25 129.429688 48.113281 128.515625 37.671875 126.792969 "/>
<path style="fill:none;stroke-width:5;stroke-linecap:round;stroke-linejoin:round;stroke:rgb(0%,0%,0%);stroke-opacity:1;stroke-miterlimit:10;" d="M 385.47875 560.090313 C 341.611563 465.285625 311.299063 376.809063 296.806875 299.42625 C 265.361563 131.574688 310.986563 29.5825 423.720938 15.910625 C 536.455312 2.23875 707.002187 78.02 897.861562 226.535625 C 1020.986563 322.355938 1146.10375 443.410625 1261.5725 577.355938 " transform="matrix(0.1,0,0,-0.1,-0.876,182.802)"/>
<path style="fill:none;stroke-width:5;stroke-linecap:round;stroke-linejoin:round;stroke:rgb(0%,0%,0%);stroke-opacity:1;stroke-miterlimit:10;" d="M 1980.16625 859.42625 C 2052.627188 945.8325 2020.595938 1028.684063 1891.10375 1089.73875 C 1828.408438 1119.348125 1745.3225 1142.629375 1647.236563 1158.80125 " transform="matrix(0.1,0,0,-0.1,-0.876,182.802)"/>
<path style="fill:none;stroke-width:5;stroke-linecap:round;stroke-linejoin:round;stroke:rgb(0%,0%,0%);stroke-opacity:1;stroke-miterlimit:10;" d="M 771.181875 1141.496563 C 687.002187 1127.395 605.283437 1110.05125 528.135 1089.73875 C 296.142813 1028.684063 125.088125 945.8325 52.588125 859.42625 C -19.911875 773.059063 12.158438 690.2075 141.650625 629.11375 C 271.10375 568.059063 487.431875 533.723125 743.056875 533.723125 C 998.681875 533.723125 1272.588125 568.059063 1504.580313 629.11375 C 1736.5725 690.2075 1907.66625 773.059063 1980.16625 859.42625 " transform="matrix(0.1,0,0,-0.1,-0.876,182.802)"/>
<path style="fill:none;stroke-width:5;stroke-linecap:round;stroke-linejoin:round;stroke:rgb(0%,0%,0%);stroke-opacity:1;stroke-miterlimit:10;" d="M 1016.377188 859.42625 L 743.056875 533.723125 " transform="matrix(0.1,0,0,-0.1,-0.876,182.802)"/>
<path style=" stroke:none;fill-rule:nonzero;fill:rgb(0%,0%,0%);fill-opacity:1;" d="M 77.355469 121.886719 L 73.429688 129.429688 L 80.175781 124.253906 "/>
<path style="fill:none;stroke-width:5;stroke-linecap:round;stroke-linejoin:round;stroke:rgb(0%,0%,0%);stroke-opacity:1;stroke-miterlimit:10;" d="M 782.314687 609.152813 L 743.056875 533.723125 L 810.517812 585.480938 L 782.314687 609.152813 Z M 782.314687 609.152813 " transform="matrix(0.1,0,0,-0.1,-0.876,182.802)"/>
<path style="fill:none;stroke-width:5;stroke-linecap:round;stroke-linejoin:round;stroke:rgb(0%,0%,0%);stroke-opacity:1;stroke-miterlimit:10;" d="M 52.588125 859.42625 L 1016.377188 859.42625 " transform="matrix(0.1,0,0,-0.1,-0.876,182.802)"/>
<path style="fill:none;stroke-width:5;stroke-linecap:round;stroke-linejoin:round;stroke:rgb(0%,0%,0%);stroke-opacity:1;stroke-miterlimit:10;" d="M 1016.377188 859.42625 L 1016.377188 1823.215313 " transform="matrix(0.1,0,0,-0.1,-0.876,182.802)"/>
<path style=" stroke:none;fill-rule:nonzero;fill:rgb(0%,0%,0%);fill-opacity:1;" d="M 102.601563 8.78125 L 100.761719 0.480469 L 98.921875 8.78125 "/>
<path style="fill:none;stroke-width:5;stroke-linecap:round;stroke-linejoin:round;stroke:rgb(0%,0%,0%);stroke-opacity:1;stroke-miterlimit:10;" d="M 1034.775625 1740.2075 L 1016.377188 1823.215313 L 997.97875 1740.2075 L 1034.775625 1740.2075 Z M 1034.775625 1740.2075 " transform="matrix(0.1,0,0,-0.1,-0.876,182.802)"/>
<path style="fill:none;stroke-width:5;stroke-linecap:round;stroke-linejoin:round;stroke:rgb(0%,0%,0%);stroke-opacity:1;stroke-miterlimit:10;" d="M 771.181875 1141.535625 L 1261.5725 577.355938 " transform="matrix(0.1,0,0,-0.1,-0.876,182.802)"/>
<path style="fill:none;stroke-width:5;stroke-linecap:round;stroke-linejoin:round;stroke:rgb(0%,0%,0%);stroke-opacity:1;stroke-dasharray:56.6928,14.1733,14.1733,14.1733;stroke-miterlimit:10;" d="M 1016.377188 859.42625 L 1441.377188 807.86375 " transform="matrix(0.1,0,0,-0.1,-0.876,182.802)"/>
<path style=" stroke:none;fill-rule:nonzero;fill:rgb(0%,0%,0%);fill-opacity:1;" d="M 134.800781 102.839844 L 143.261719 102.015625 L 135.242188 99.1875 "/>
<path style="fill:none;stroke-width:5;stroke-linecap:round;stroke-linejoin:round;stroke:rgb(0%,0%,0%);stroke-opacity:1;stroke-miterlimit:10;" d="M 1356.767813 799.621563 L 1441.377188 807.86375 L 1361.181875 836.145 L 1356.767813 799.621563 Z M 1356.767813 799.621563 " transform="matrix(0.1,0,0,-0.1,-0.876,182.802)"/>
<path style="fill:none;stroke-width:5;stroke-linecap:round;stroke-linejoin:round;stroke:rgb(0%,0%,0%);stroke-opacity:1;stroke-dasharray:56.6928,14.1733,14.1733,14.1733;stroke-miterlimit:10;" d="M 1016.377188 859.42625 L 1608.994375 1702.980938 " transform="matrix(0.1,0,0,-0.1,-0.876,182.802)"/>
<path style=" stroke:none;fill-rule:nonzero;fill:rgb(0%,0%,0%);fill-opacity:1;" d="M 156.757813 20.355469 L 160.023438 12.503906 L 153.746094 18.238281 "/>
<path style="fill:none;stroke-width:5;stroke-linecap:round;stroke-linejoin:round;stroke:rgb(0%,0%,0%);stroke-opacity:1;stroke-miterlimit:10;" d="M 1576.338125 1624.465313 L 1608.994375 1702.980938 L 1546.220938 1645.637188 L 1576.338125 1624.465313 Z M 1576.338125 1624.465313 " transform="matrix(0.1,0,0,-0.1,-0.876,182.802)"/>
<path style="fill:none;stroke-width:5;stroke-linecap:round;stroke-linejoin:round;stroke:rgb(0%,0%,0%);stroke-opacity:1;stroke-dasharray:56.6928,14.1733,14.1733,14.1733;stroke-miterlimit:10;" d="M 1016.377188 859.42625 L 329.54125 1425.793438 " transform="matrix(0.1,0,0,-0.1,-0.876,182.802)"/>
<path style=" stroke:none;fill-rule:nonzero;fill:rgb(0%,0%,0%);fill-opacity:1;" d="M 39.65625 44.085938 L 32.078125 40.222656 L 37.3125 46.925781 "/>
<path style="fill:none;stroke-width:5;stroke-linecap:round;stroke-linejoin:round;stroke:rgb(0%,0%,0%);stroke-opacity:1;stroke-miterlimit:10;" d="M 405.3225 1387.160625 L 329.54125 1425.793438 L 381.885 1358.762188 L 405.3225 1387.160625 Z M 405.3225 1387.160625 " transform="matrix(0.1,0,0,-0.1,-0.876,182.802)"/>
<path style="fill:none;stroke-width:3;stroke-linecap:round;stroke-linejoin:round;stroke:rgb(0%,0%,0%);stroke-opacity:1;stroke-dasharray:30,30;stroke-miterlimit:10;" d="M 1647.236563 1158.80125 C 1542.861563 1176.027813 1421.494375 1185.168438 1289.6975 1185.168438 C 1119.033438 1185.168438 940.244375 1169.855938 771.181875 1141.496563 " transform="matrix(0.1,0,0,-0.1,-0.876,182.802)"/>
<path style="fill:none;stroke-width:3;stroke-linecap:round;stroke-linejoin:round;stroke:rgb(0%,0%,0%);stroke-opacity:1;stroke-dasharray:30,30;stroke-miterlimit:10;" d="M 1016.377188 859.42625 L 45.088125 696.574688 " transform="matrix(0.1,0,0,-0.1,-0.876,182.802)"/>
<path style="fill:none;stroke-width:3;stroke-linecap:round;stroke-linejoin:round;stroke:rgb(0%,0%,0%);stroke-opacity:1;stroke-dasharray:30,30;stroke-miterlimit:10;" d="M 45.088125 696.574688 L 45.088125 1660.324688 " transform="matrix(0.1,0,0,-0.1,-0.876,182.802)"/>
<path style="fill:none;stroke-width:3;stroke-linecap:round;stroke-linejoin:round;stroke:rgb(0%,0%,0%);stroke-opacity:1;stroke-dasharray:30,30;stroke-miterlimit:10;" d="M 329.54125 1425.793438 L 45.088125 1660.324688 " transform="matrix(0.1,0,0,-0.1,-0.876,182.802)"/>
<path style="fill:none;stroke-width:3;stroke-linecap:round;stroke-linejoin:round;stroke:rgb(0%,0%,0%);stroke-opacity:1;stroke-miterlimit:10;" d="M 852.392812 663.996563 C 954.775625 663.996563 1062.04125 673.17625 1163.486563 690.2075 " transform="matrix(0.1,0,0,-0.1,-0.876,182.802)"/>
<path style=" stroke:none;fill-rule:nonzero;fill:rgb(0%,0%,0%);fill-opacity:1;" d="M 111.511719 115.332031 C 112.84375 114.828125 114.164063 114.3125 115.472656 113.78125 C 114.0625 113.707031 112.648438 113.617188 111.230469 113.511719 "/>
<path style="fill:none;stroke-width:3;stroke-linecap:round;stroke-linejoin:round;stroke:rgb(0%,0%,0%);stroke-opacity:1;stroke-miterlimit:10;" d="M 1123.877188 674.699688 C 1137.1975 679.73875 1150.400625 684.895 1163.486563 690.2075 C 1149.385 690.949688 1135.244375 691.848125 1121.064688 692.902813 L 1123.877188 674.699688 Z M 1123.877188 674.699688 " transform="matrix(0.1,0,0,-0.1,-0.876,182.802)"/>
<path style="fill:none;stroke-width:3;stroke-linecap:round;stroke-linejoin:round;stroke:rgb(0%,0%,0%);stroke-opacity:1;stroke-miterlimit:10;" d="M 1163.486563 690.2075 C 1201.5725 734.387188 1237.939688 780.871563 1271.377188 828.48875 " transform="matrix(0.1,0,0,-0.1,-0.876,182.802)"/>
<path style=" stroke:none;fill-rule:nonzero;fill:rgb(0%,0%,0%);fill-opacity:1;" d="M 124.582031 103.855469 C 125.15625 102.558594 125.71875 101.257813 126.261719 99.953125 C 125.21875 100.90625 124.160156 101.847656 123.089844 102.78125 "/>
<path style="fill:none;stroke-width:3;stroke-linecap:round;stroke-linejoin:round;stroke:rgb(0%,0%,0%);stroke-opacity:1;stroke-miterlimit:10;" d="M 1254.580313 789.465313 C 1260.3225 802.434063 1265.9475 815.441875 1271.377188 828.48875 C 1260.9475 818.9575 1250.361563 809.543438 1239.658438 800.2075 L 1254.580313 789.465313 Z M 1254.580313 789.465313 " transform="matrix(0.1,0,0,-0.1,-0.876,182.802)"/>
<path style="fill:none;stroke-width:3;stroke-linecap:round;stroke-linejoin:round;stroke:rgb(0%,0%,0%);stroke-opacity:1;stroke-miterlimit:10;" d="M 1016.377188 1552.512188 C 842.470937 1523.215313 675.088125 1425.715313 549.580312 1280.129375 C 543.564687 1273.137188 537.66625 1266.066875 531.885 1258.918438 " transform="matrix(0.1,0,0,-0.1,-0.876,182.802)"/>
<path style=" stroke:none;fill-rule:nonzero;fill:rgb(0%,0%,0%);fill-opacity:1;" d="M 54.296875 53.148438 C 54.054688 53.582031 53.816406 54.019531 53.582031 54.457031 C 53.144531 55.269531 52.722656 56.085938 52.3125 56.910156 C 53.03125 56.335938 53.757813 55.773438 54.496094 55.222656 C 54.898438 54.925781 55.296875 54.632813 55.699219 54.339844 "/>
<path style="fill:none;stroke-width:3;stroke-linecap:round;stroke-linejoin:round;stroke:rgb(0%,0%,0%);stroke-opacity:1;stroke-miterlimit:10;" d="M 551.72875 1296.535625 C 549.306875 1292.199688 546.924062 1287.824688 544.580312 1283.449688 C 540.205312 1275.324688 535.986562 1267.160625 531.885 1258.918438 C 539.0725 1264.660625 546.338125 1270.285625 553.720937 1275.793438 C 557.744375 1278.762188 561.72875 1281.691875 565.752187 1284.621563 L 551.72875 1296.535625 Z M 551.72875 1296.535625 " transform="matrix(0.1,0,0,-0.1,-0.876,182.802)"/>
<path style="fill:none;stroke-width:3;stroke-linecap:round;stroke-linejoin:round;stroke:rgb(0%,0%,0%);stroke-opacity:1;stroke-miterlimit:10;" d="M 1261.5725 577.355938 L 1335.9475 491.77 " transform="matrix(0.1,0,0,-0.1,-0.876,182.802)"/>
</g>
</g>
<g clip-path="url(#clip3)" clip-rule="nonzero">
<g style="fill:rgb(0%,0%,0%);fill-opacity:1;">
  <use xlink:href="#glyph0-1" x="70.221" y="126.338"/>
</g>
<g style="fill:rgb(0%,0%,0%);fill-opacity:1;">
  <use xlink:href="#glyph0-2" x="183.542" y="101.946"/>
</g>
<g style="fill:rgb(0%,0%,0%);fill-opacity:1;">
  <use xlink:href="#glyph0-3" x="103.697" y="6.149"/>
</g>
<g style="fill:rgb(0%,0%,0%);fill-opacity:1;">
  <use xlink:href="#glyph0-4" x="97.454" y="121.881"/>
</g>
<g style="fill:rgb(0%,0%,0%);fill-opacity:1;">
  <use xlink:href="#glyph0-5" x="71.713" y="34.834"/>
</g>
<g style="fill:rgb(0%,0%,0%);fill-opacity:1;">
  <use xlink:href="#glyph0-6" x="121.37" y="111.017"/>
</g>
<g style="fill:rgb(0%,0%,0%);fill-opacity:1;">
  <use xlink:href="#glyph0-1" x="129.304" y="138.757"/>
</g>
<g style="fill:rgb(0%,0%,0%);fill-opacity:1;">
  <use xlink:href="#glyph1-1" x="132.699" y="139.628"/>
</g>
<g style="fill:rgb(0%,0%,0%);fill-opacity:1;">
  <use xlink:href="#glyph0-1" x="137.853" y="98.676"/>
</g>
<g style="fill:rgb(0%,0%,0%);fill-opacity:1;">
  <use xlink:href="#glyph2-1" x="141.926" y="96.215"/>
</g>
<g style="fill:rgb(0%,0%,0%);fill-opacity:1;">
  <use xlink:href="#glyph0-2" x="159.048" y="20.993"/>
</g>
<g style="fill:rgb(0%,0%,0%);fill-opacity:1;">
  <use xlink:href="#glyph2-1" x="163.251" y="18.531"/>
</g>
<g style="fill:rgb(0%,0%,0%);fill-opacity:1;">
  <use xlink:href="#glyph0-3" x="35.549" y="40.849"/>
</g>
<g style="fill:rgb(0%,0%,0%);fill-opacity:1;">
  <use xlink:href="#glyph2-1" x="39.568" y="38.388"/>
</g>
</g>
</g>
</svg>
