<?xml version="1.0" encoding="UTF-8" standalone="no"?>
<!-- Created with Inkscape (http://www.inkscape.org/) -->
<svg xmlns:dc="http://purl.org/dc/elements/1.1/" xmlns:cc="http://creativecommons.org/ns#" xmlns:rdf="http://www.w3.org/1999/02/22-rdf-syntax-ns#" xmlns:svg="http://www.w3.org/2000/svg" xmlns="http://www.w3.org/2000/svg" xmlns:xlink="http://www.w3.org/1999/xlink" version="1.1" width="241.4pt" height="80.6pt" viewBox="0 0 174.19061 58.128909" id="svg6519">
  <metadata id="metadata6707">
    <rdf:RDF>
      <cc:Work rdf:about="">
        <dc:format>image/svg+xml</dc:format>
        <dc:type rdf:resource="http://purl.org/dc/dcmitype/StillImage"/>
        <dc:title/>
      </cc:Work>
    </rdf:RDF>
  </metadata>
  <defs id="defs6521">
    <g id="g6523">
      <g id="glyph0-0"/>
      <g id="glyph0-1">
        <path d="m 0.640625,-2.640625 c 0.125,-0.0625 0.21875,-0.140625 0.34375,-0.203125 C 1.203125,-2.9375 1.4375,-2.984375 1.6875,-3 1.75,-3.015625 1.828125,-3.015625 1.90625,-3.015625 c 0.28125,0.046875 0.515625,0.234375 0.59375,0.5 0.078125,0.203125 0.046875,0.453125 0.046875,0.65625 -0.359375,0 -0.734375,0.03125 -1.09375,0.125 -0.5,0.125 -1.125,0.375 -1.0625,1.015625 0.046875,0.28125 0.203125,0.5625 0.46875,0.703125 C 1.03125,0.0625 1.234375,0.0625 1.4375,0.046875 1.734375,0.015625 2.0625,-0.0625 2.3125,-0.25 c 0.09375,-0.0625 0.171875,-0.140625 0.25,-0.21875 l 0,0.46875 0.484375,0 0,-1.828125 c 0,-0.1875 0.03125,-0.390625 -0.015625,-0.59375 -0.0625,-0.484375 -0.5,-0.84375 -0.953125,-0.9375 -0.28125,-0.046875 -0.71875,0.015625 -0.953125,0.0625 -0.078125,0.03125 -0.46875,0.15625 -0.5,0.21875 -0.03125,0.03125 -0.015625,0.09375 -0.015625,0.125 0.015625,0.109375 0.03125,0.203125 0.03125,0.3125 z m 1.90625,1.015625 0,0.515625 c 0,0.140625 0,0.265625 -0.0625,0.390625 -0.078125,0.140625 -0.21875,0.25 -0.375,0.296875 -0.328125,0.125 -0.78125,0.140625 -1.0625,-0.09375 C 0.96875,-0.5625 0.90625,-0.640625 0.890625,-0.75 0.8125,-1.046875 1.078125,-1.28125 1.3125,-1.390625 1.640625,-1.546875 2.109375,-1.625 2.546875,-1.625 z m 0,0" id="path6527"/>
      </g>
      <g id="glyph0-2">
        <path d="m 0.578125,-4.84375 0,4.84375 0.515625,0 0,-0.46875 0,0 c 0.0625,0.109375 0.171875,0.203125 0.265625,0.28125 0.3125,0.25 0.828125,0.328125 1.28125,0.109375 0.203125,-0.109375 0.375,-0.28125 0.515625,-0.46875 C 3.84375,-1.5 3.421875,-3.09375 2.453125,-3.3125 c -0.125,-0.046875 -0.28125,-0.046875 -0.421875,-0.015625 -0.40625,0.046875 -0.71875,0.25 -0.953125,0.5 l 0,-2.015625 -0.5,0 z M 1.8125,-2.953125 c 0.328125,-0.03125 0.703125,0.109375 0.921875,0.375 0.171875,0.21875 0.234375,0.5 0.234375,0.765625 0.03125,0.375 -0.015625,0.78125 -0.25,1.078125 -0.203125,0.265625 -0.53125,0.375 -0.84375,0.40625 -0.265625,0 -0.5,-0.09375 -0.671875,-0.3125 C 1.171875,-0.6875 1.125,-0.75 1.09375,-0.8125 c 0,-0.046875 0,-0.09375 0,-0.125 l 0,-1.390625 c 0,-0.0625 -0.015625,-0.140625 0.015625,-0.203125 0.03125,-0.078125 0.09375,-0.125 0.15625,-0.1875 0.15625,-0.125 0.34375,-0.21875 0.546875,-0.234375 z m 0,0" id="path6530"/>
      </g>
      <g id="glyph0-3">
        <path d="M 3.1875,-0.796875 C 3.125,-0.765625 3.078125,-0.71875 3.03125,-0.6875 2.9375,-0.625 2.84375,-0.5625 2.734375,-0.515625 2.3125,-0.3125 1.671875,-0.265625 1.296875,-0.5625 1.03125,-0.75 0.859375,-1.109375 0.84375,-1.5 0.8125,-1.953125 0.921875,-2.453125 1.296875,-2.75 1.5,-2.90625 1.765625,-3 2.140625,-2.96875 2.46875,-2.9375 2.65625,-2.890625 2.921875,-2.75 c 0.0625,0.03125 0.109375,0.078125 0.171875,0.09375 L 3.171875,-3.078125 C 3.015625,-3.15625 2.875,-3.234375 2.703125,-3.28125 c -0.40625,-0.140625 -1.03125,-0.125 -1.390625,0.046875 -0.34375,0.15625 -0.625,0.4375 -0.796875,0.765625 -0.25,0.5 -0.25,1.109375 0,1.625 0.09375,0.1875 0.21875,0.359375 0.390625,0.5 0.46875,0.4375 1.1875,0.484375 1.78125,0.28125 0.140625,-0.0625 0.265625,-0.125 0.390625,-0.203125 0.046875,-0.03125 0.109375,-0.0625 0.125,-0.09375 C 3.21875,-0.40625 3.1875,-0.796875 3.1875,-0.796875 z m 0,0" id="path6533"/>
      </g>
      <g id="glyph0-4">
        <path d="m 2.734375,-4.84375 0,2 0,0 C 2.703125,-2.90625 2.65625,-2.9375 2.609375,-2.984375 2.328125,-3.28125 1.734375,-3.46875 1.25,-3.25 1.078125,-3.171875 0.9375,-3.078125 0.8125,-2.9375 0.28125,-2.390625 0.1875,-1.484375 0.5,-0.8125 0.6875,-0.375 1.09375,0.03125 1.59375,0.0625 1.984375,0.078125 2.3125,-0.09375 2.515625,-0.28125 2.59375,-0.359375 2.65625,-0.4375 2.71875,-0.515625 l 0,0.515625 0.515625,0 0,-4.84375 -0.5,0 z M 1.9375,-2.953125 C 2.171875,-2.96875 2.40625,-2.90625 2.578125,-2.71875 2.625,-2.6875 2.671875,-2.625 2.703125,-2.5625 2.734375,-2.5 2.71875,-2.421875 2.71875,-2.34375 l 0,1.375 c 0,0.171875 -0.015625,0.171875 -0.125,0.296875 C 2.453125,-0.484375 2.25,-0.359375 2,-0.328125 1.640625,-0.3125 1.25,-0.46875 1.046875,-0.78125 0.90625,-0.984375 0.859375,-1.234375 0.84375,-1.484375 0.8125,-1.8125 0.84375,-2.1875 1.03125,-2.46875 1.234375,-2.78125 1.578125,-2.921875 1.9375,-2.953125 z m 0,0" id="path6536"/>
      </g>
      <g id="glyph0-5">
        <path d="M 3.140625,-0.796875 C 3.09375,-0.765625 3.046875,-0.71875 3,-0.6875 2.59375,-0.390625 1.875,-0.140625 1.328125,-0.53125 0.984375,-0.78125 0.78125,-1.15625 0.78125,-1.734375 l 2.421875,0 c 0,-0.515625 -0.125,-1 -0.421875,-1.296875 C 2.4375,-3.34375 1.90625,-3.4375 1.46875,-3.328125 1.28125,-3.28125 1.109375,-3.1875 0.953125,-3.0625 c -0.4375,0.34375 -0.65625,0.890625 -0.65625,1.453125 0.015625,0.78125 0.59375,1.5 1.375,1.640625 0.390625,0.078125 0.8125,-0.015625 1.171875,-0.1875 0.0625,-0.03125 0.296875,-0.15625 0.3125,-0.21875 0.03125,-0.03125 0,-0.328125 -0.015625,-0.421875 z m -0.359375,-1.25 -1.96875,0 c 0.09375,-0.3125 0.25,-0.609375 0.53125,-0.796875 0.34375,-0.21875 0.859375,-0.1875 1.15625,0.125 0.171875,0.1875 0.25,0.421875 0.28125,0.671875 z m 0,0" id="path6539"/>
      </g>
      <g id="glyph0-6">
        <path d="m 0.828125,-3.296875 -0.625,0 0,0.390625 0.625,0 0,2.90625 0.5,0 0,-2.90625 0.890625,0 0,-0.390625 -0.90625,0 0,-0.578125 c 0,-0.109375 -0.015625,-0.21875 0.015625,-0.3125 0.15625,-0.328125 0.703125,-0.359375 1.125,-0.265625 0.078125,0 0.15625,0.03125 0.234375,0.0625 l 0,-0.453125 C 2.1875,-4.921875 1.625,-4.953125 1.21875,-4.625 1.140625,-4.5625 1.078125,-4.5 1.03125,-4.4375 0.875,-4.25 0.828125,-4.0625 0.828125,-3.734375 l 0,0.4375 z m 0,0" id="path6542"/>
      </g>
    </g>
    <clipPath id="clip1">
      <path d="m -218,668 612,0 0,-792 -612,0 0,792 z m 0,0" id="path6545"/>
    </clipPath>
    <clipPath id="clip2">
      <path d="m -0.25,184.22656 175.74609,0 0,-177.972654 -175.74609,0 0,177.972654 z m 0,0" id="path6548"/>
    </clipPath>
  </defs>
  <g transform="translate(0.52096582,-58.84375)" id="g6929">
    <path d="m 28.648464,13.128754 0,19.527365" id="path6579" style="fill:none;stroke:#000000;stroke-width:0.55616498"/>
    <path d="m 30.246094,14.230469 -1.617188,-6.027344 -1.613281,6.027344 3.230469,0" id="path6581"/>
    <path d="m 33.65625,21.933594 c 0,2.765625 -2.242187,5.007812 -5.007812,5.007812 -2.761719,0 -5.003907,-2.242187 -5.003907,-5.007812 0,-2.765625 2.242188,-5.003906 5.003907,-5.003906 2.765625,0 5.007812,2.238281 5.007812,5.003906" id="path6583" style="fill:#ffffff"/>
    <path d="m 33.65628,21.933447 c 0,2.76563 -2.242189,5.007821 -5.007816,5.007821 -2.761722,0 -5.003912,-2.242191 -5.003912,-5.007821 0,-2.765631 2.24219,-5.003906 5.003912,-5.003906 2.765627,0 5.007816,2.238275 5.007816,5.003906 z m 0,0" id="path6585" style="fill:none;stroke:#000000;stroke-width:1.11232996"/>
    <path d="m 30.38284,23.929545 c -0.386719,0.41015 -0.898438,0.710935 -1.492189,0.828119 -1.507813,0.296881 -2.968753,-0.683594 -3.269534,-2.191401" id="path6587" style="fill:#ffffff;stroke:#000000;stroke-width:0.42268538"/>
    <path d="m 30.570313,24.792969 1.339843,-2.511719 -2.417968,1.503906 1.078125,1.007813" id="path6589"/>
    <path d="m 58.312553,13.128754 0,19.527365" id="path6591" style="fill:none;stroke:#000000;stroke-width:0.55616498"/>
    <path d="m 59.90625,14.230469 -1.613281,-6.027344 -1.617188,6.027344 3.230469,0" id="path6593"/>
    <path d="m 63.316406,21.933594 c 0,2.765625 -2.242187,5.007812 -5.003906,5.007812 -2.765625,0 -5.007812,-2.242187 -5.007812,-5.007812 0,-2.765625 2.242187,-5.003906 5.007812,-5.003906 2.761719,0 5.003906,2.238281 5.003906,5.003906" id="path6595" style="fill:#ffffff"/>
    <path d="m 63.316464,21.933447 c 0,2.76563 -2.242191,5.007821 -5.003911,5.007821 -2.765628,0 -5.007818,-2.242191 -5.007818,-5.007821 0,-2.765631 2.24219,-5.003906 5.007818,-5.003906 2.76172,0 5.003911,2.238275 5.003911,5.003906 z m 0,0" id="path6597" style="fill:none;stroke:#000000;stroke-width:1.11232996"/>
    <path d="m 60.043023,23.929545 c -0.382812,0.41015 -0.894532,0.710935 -1.492189,0.828119 -1.503907,0.296881 -2.968752,-0.683594 -3.265628,-2.191401" id="path6599" style="fill:#ffffff;stroke:#000000;stroke-width:0.42268538"/>
    <path d="m 60.234375,24.792969 1.335938,-2.511719 -2.414063,1.503906 1.078125,1.007813" id="path6601"/>
    <path d="m 137.97669,12.972505 0,19.527354" id="path6619" style="fill:none;stroke:#000000;stroke-width:0.55616498"/>
    <path d="m 139.57031,14.074219 -1.61719,-6.027344 -1.61328,6.027344 3.23047,0" id="path6621"/>
    <path d="m 142.98047,21.777344 c 0,2.765625 -2.24219,5.007812 -5.00391,5.007812 -2.76562,0 -5.00781,-2.242187 -5.00781,-5.007812 0,-2.761719 2.24219,-5.003906 5.00781,-5.003906 2.76172,0 5.00391,2.242187 5.00391,5.003906" id="path6623" style="fill:#ffffff"/>
    <path d="m 142.9806,21.777198 c 0,2.76563 -2.24219,5.007821 -5.00391,5.007821 -2.76563,0 -5.00782,-2.242191 -5.00782,-5.007821 0,-2.761726 2.24219,-5.003906 5.00782,-5.003906 2.76172,0 5.00391,2.24218 5.00391,5.003906 z m 0,0" id="path6625" style="fill:none;stroke:#000000;stroke-width:1.11232996"/>
    <path d="m 139.70715,23.773296 c -0.3828,0.41015 -0.89452,0.710935 -1.49219,0.828119 -1.5078,0.296881 -2.96874,-0.683594 -3.26562,-2.187497" id="path6627" style="fill:#ffffff;stroke:#000000;stroke-width:0.42268538"/>
    <path d="m 139.89453,24.636719 1.33984,-2.511719 -2.41406,1.507813 1.07422,1.003906" id="path6629"/>
    <path d="m 168.19156,30.449078 0,-19.527353" id="path6639" style="fill:none;stroke:#000000;stroke-width:0.55616498"/>
    <path d="m 166.59375,29.347656 1.61328,6.03125 1.61719,-6.03125 -3.23047,0" id="path6641"/>
    <path d="m 163.18359,21.644531 c 0,-2.765625 2.23828,-5.003906 5.00782,-5.003906 2.76171,0 5.0039,2.238281 5.0039,5.003906 0,2.765625 -2.24219,5.003907 -5.0039,5.003907 -2.76954,0 -5.00782,-2.238282 -5.00782,-5.003907" id="path6643" style="fill:#ffffff"/>
    <path d="m 163.18375,21.644386 c 0,-2.765631 2.23827,-5.003917 5.00781,-5.003917 2.76172,0 5.00391,2.238286 5.00391,5.003917 0,2.76563 -2.24219,5.003905 -5.00391,5.003905 -2.76954,0 -5.00781,-2.238275 -5.00781,-5.003905 z m 0,0" id="path6645" style="fill:none;stroke:#000000;stroke-width:1.11232996"/>
    <path d="m 166.45718,23.538917 c 0.38282,0.410161 0.89453,0.710935 1.49219,0.82813 1.50782,0.29687 2.96875,-0.683594 3.26563,-2.187508" id="path6647" style="fill:#ffffff;stroke:#000000;stroke-width:0.42268538"/>
    <path d="m 166.26953,24.402344 -1.33984,-2.511719 2.41406,1.503906 -1.07422,1.007813" id="path6649"/>
    <use transform="translate(4.852,5.645)" id="use6683" x="0" y="0" width="174" height="185" xlink:href="#glyph0-1"/>
    <use transform="translate(100.947,5.645)" id="use6687" x="0" y="0" width="174" height="185" xlink:href="#glyph0-2"/>
  </g>
  <g transform="translate(0.52096582,-58.84375)" id="g6957">
    <path d="m 28.648464,63.773328 0,19.523456" id="path6555" style="fill:none;stroke:#000000;stroke-width:0.55616498"/>
    <path d="m 30.246094,64.875 -1.617188,-6.03125 -1.613281,6.03125 3.230469,0" id="path6557"/>
    <path d="m 33.65625,72.578125 c 0,2.765625 -2.242187,5.003906 -5.007812,5.003906 -2.761719,0 -5.003907,-2.238281 -5.003907,-5.003906 0,-2.765625 2.242188,-5.003906 5.003907,-5.003906 2.765625,0 5.007812,2.238281 5.007812,5.003906" id="path6559" style="fill:#ffffff"/>
    <path d="m 33.65628,72.578021 c 0,2.765632 -2.242189,5.003914 -5.007816,5.003914 -2.761722,0 -5.003912,-2.238282 -5.003912,-5.003914 0,-2.76562 2.24219,-5.003906 5.003912,-5.003906 2.765627,0 5.007816,2.238286 5.007816,5.003906 z m 0,0" id="path6561" style="fill:none;stroke:#000000;stroke-width:1.11232996"/>
    <path d="m 28.648464,94.339763 0,19.527357" id="path6563" style="fill:none;stroke:#000000;stroke-width:0.55616498"/>
    <path d="m 30.246094,95.441406 -1.617188,-6.027343 -1.613281,6.027343 3.230469,0" id="path6565"/>
    <path d="m 33.65625,103.14453 c 0,2.76563 -2.242187,5.00781 -5.007812,5.00781 -2.761719,0 -5.003907,-2.24218 -5.003907,-5.00781 0,-2.76562 2.242188,-5.003905 5.003907,-5.003905 2.765625,0 5.007812,2.238285 5.007812,5.003905" id="path6567" style="fill:#ffffff"/>
    <path d="m 33.65628,103.14446 c 0,2.76563 -2.242189,5.00782 -5.007816,5.00782 -2.761722,0 -5.003912,-2.24219 -5.003912,-5.00782 0,-2.76563 2.24219,-5.003912 5.003912,-5.003912 2.765627,0 5.007816,2.238282 5.007816,5.003912 z m 0,0" id="path6569" style="fill:none;stroke:#000000;stroke-width:1.11232996"/>
    <path d="m 125.42199,63.773328 0,19.523456" id="path6571" style="fill:none;stroke:#000000;stroke-width:0.55616498"/>
    <path d="m 127.01953,64.875 -1.61719,-6.03125 -1.61328,6.03125 3.23047,0" id="path6573"/>
    <path d="m 130.42578,72.578125 c 0,2.765625 -2.23828,5.003906 -5.0039,5.003906 -2.76563,0 -5.00782,-2.238281 -5.00782,-5.003906 0,-2.765625 2.24219,-5.003906 5.00782,-5.003906 2.76562,0 5.0039,2.238281 5.0039,5.003906" id="path6575" style="fill:#ffffff"/>
    <path d="m 130.42589,72.578021 c 0,2.765632 -2.23827,5.003914 -5.0039,5.003914 -2.76563,0 -5.00782,-2.238282 -5.00782,-5.003914 0,-2.76562 2.24219,-5.003906 5.00782,-5.003906 2.76563,0 5.0039,2.238286 5.0039,5.003906 z m 0,0" id="path6577" style="fill:none;stroke:#000000;stroke-width:1.11232996"/>
    <path d="m 125.42199,112.04681 0,-19.527361" id="path6631" style="fill:none;stroke:#000000;stroke-width:0.55616498"/>
    <path d="m 123.82422,110.94531 1.61719,6.02735 1.61718,-6.02735 -3.23437,0" id="path6633"/>
    <path d="m 120.41406,103.24219 c 0,-2.76563 2.24219,-5.007815 5.00782,-5.007815 2.76171,0 5.0039,2.242185 5.0039,5.007815 0,2.76172 -2.24219,5.0039 -5.0039,5.0039 -2.76563,0 -5.00782,-2.24218 -5.00782,-5.0039" id="path6635" style="fill:#ffffff"/>
    <path d="m 120.41417,103.24211 c 0,-2.76562 2.24219,-5.007812 5.00782,-5.007812 2.76171,0 5.0039,2.242192 5.0039,5.007812 0,2.76173 -2.24219,5.00392 -5.0039,5.00392 -2.76563,0 -5.00782,-2.24219 -5.00782,-5.00392 z m 0,0" id="path6637" style="fill:none;stroke:#000000;stroke-width:1.11232996"/>
    <use transform="translate(4.852,66.59)" id="use6691" x="0" y="0" width="174" height="185" xlink:href="#glyph0-3"/>
    <use transform="translate(100.947,66.59)" id="use6695" x="0" y="0" width="174" height="185" xlink:href="#glyph0-4"/>
  </g>
  <g transform="translate(0.52096582,-58.84375)" id="g6977">
    <path d="m 30.347683,155.58201 0,19.52736" id="path6603" style="fill:none;stroke:#000000;stroke-width:0.55616498"/>
    <path d="m 31.941406,156.68359 -1.613281,-6.02734 -1.617187,6.02734 3.230468,0" id="path6605"/>
    <path d="m 35.351563,164.38672 c 0,2.76562 -2.242188,5.00781 -5.003907,5.00781 -2.765625,0 -5.007812,-2.24219 -5.007812,-5.00781 0,-2.76172 2.242187,-5.00391 5.007812,-5.00391 2.761719,0 5.003907,2.24219 5.003907,5.00391" id="path6607" style="fill:#ffffff"/>
    <path d="m 35.351594,164.3867 c 0,2.76563 -2.242189,5.00782 -5.003911,5.00782 -2.765627,0 -5.007816,-2.24219 -5.007816,-5.00782 0,-2.76172 2.242189,-5.00391 5.007816,-5.00391 2.761722,0 5.003911,2.24219 5.003911,5.00391 z m 0,0" id="path6609" style="fill:none;stroke:#000000;stroke-width:1.11232996"/>
    <path d="m 60.007867,155.58201 0,19.52736" id="path6611" style="fill:none;stroke:#000000;stroke-width:0.55616498"/>
    <path d="m 61.605469,156.68359 -1.617188,-6.02734 -1.617187,6.02734 3.234375,0" id="path6613"/>
    <path d="m 65.015625,164.38672 c 0,2.76562 -2.242187,5.00781 -5.007812,5.00781 -2.765625,0 -5.003907,-2.24219 -5.003907,-5.00781 0,-2.76172 2.238282,-5.00391 5.003907,-5.00391 2.765625,0 5.007812,2.24219 5.007812,5.00391" id="path6615" style="fill:#ffffff"/>
    <path d="m 65.015684,164.3867 c 0,2.76563 -2.24219,5.00782 -5.007817,5.00782 -2.765628,0 -5.003911,-2.24219 -5.003911,-5.00782 0,-2.76172 2.238283,-5.00391 5.003911,-5.00391 2.765627,0 5.007817,2.24219 5.007817,5.00391 z m 0,0" id="path6617" style="fill:none;stroke:#000000;stroke-width:1.11232996"/>
    <path d="m 59.832086,164.38279 c 0,10.1172 -13.203137,18.31252 -29.484403,18.31252 -16.28517,0 -29.48440073,-8.19532 -29.48440073,-18.31252" id="path6651" style="fill:none;stroke:#000000;stroke-width:0.83424753"/>
    <path d="m 0.86328227,164.38279 c 0,-10.10547 13.19923073,-18.3047 29.48440073,-18.3047 16.281266,0 29.484403,8.19923 29.484403,18.3047" id="path6653" style="fill:none;stroke:#000000;stroke-width:0.83424753;stroke-dasharray:5.56165, 3.33699"/>
    <path d="m 27.453125,184.22656 6.03125,-1.61328 -6.03125,-1.61719 0,3.23047" id="path6655"/>
    <path d="m 126.16026,155.58201 0,19.52736" id="path6657" style="fill:none;stroke:#000000;stroke-width:0.55616498"/>
    <path d="m 127.75781,156.68359 -1.61328,-6.02734 -1.61719,6.02734 3.23047,0" id="path6659"/>
    <path d="m 131.16797,164.38672 c 0,2.76562 -2.23828,5.00781 -5.00781,5.00781 -2.76172,0 -5.00391,-2.24219 -5.00391,-5.00781 0,-2.76172 2.24219,-5.00391 5.00391,-5.00391 2.76953,0 5.00781,2.24219 5.00781,5.00391" id="path6661" style="fill:#ffffff"/>
    <path d="m 131.16809,164.3867 c 0,2.76563 -2.23829,5.00782 -5.00783,5.00782 -2.76171,0 -5.0039,-2.24219 -5.0039,-5.00782 0,-2.76172 2.24219,-5.00391 5.0039,-5.00391 2.76954,0 5.00783,2.24219 5.00783,5.00391 z m 0,0" id="path6663" style="fill:none;stroke:#000000;stroke-width:1.11232996"/>
    <path d="m 155.82436,155.58201 0,19.52736" id="path6665" style="fill:none;stroke:#000000;stroke-width:0.55616498"/>
    <path d="m 157.42187,156.68359 -1.61718,-6.02734 -1.61328,6.02734 3.23046,0" id="path6667"/>
    <path d="m 160.83203,164.38672 c 0,2.76562 -2.24219,5.00781 -5.00781,5.00781 -2.76563,0 -5.00391,-2.24219 -5.00391,-5.00781 0,-2.76172 2.23828,-5.00391 5.00391,-5.00391 2.76562,0 5.00781,2.24219 5.00781,5.00391" id="path6669" style="fill:#ffffff"/>
    <path d="m 160.83218,164.3867 c 0,2.76563 -2.24219,5.00782 -5.00782,5.00782 -2.76563,0 -5.00391,-2.24219 -5.00391,-5.00782 0,-2.76172 2.23828,-5.00391 5.00391,-5.00391 2.76563,0 5.00782,2.24219 5.00782,5.00391 z m 0,0" id="path6671" style="fill:none;stroke:#000000;stroke-width:1.11232996"/>
    <path d="m 155.64858,164.38279 c 0,10.1172 -13.19923,18.31252 -29.4844,18.31252 -16.28518,0 -29.484406,-8.19532 -29.484406,-18.31252" id="path6673" style="fill:none;stroke:#000000;stroke-width:0.83424753"/>
    <path d="m 96.679774,164.38279 c 0,-10.10547 13.199226,-18.3047 29.484406,-18.3047 16.28517,0 29.4844,8.19923 29.4844,18.3047" id="path6675" style="fill:none;stroke:#000000;stroke-width:0.83424753;stroke-dasharray:5.56165, 3.33699"/>
    <path d="m 129.30078,180.99609 -6.03125,1.61328 6.03125,1.61719 0,-3.23047" id="path6677"/>
    <use transform="translate(4.852,143.409)" id="use6699" x="0" y="0" width="174" height="185" xlink:href="#glyph0-5"/>
    <use transform="translate(100.947,143.409)" id="use6703" x="0" y="0" width="174" height="185" xlink:href="#glyph0-6"/>
  </g>
</svg>
