<?xml version="1.0" encoding="UTF-8"?>
<svg xmlns="http://www.w3.org/2000/svg" xmlns:xlink="http://www.w3.org/1999/xlink" width="310pt" height="258pt" viewBox="0 0 179 149" version="1.1">
<defs>
<g>
<symbol overflow="visible" id="glyph0-0">
<path style="stroke:none;" d=""/>
</symbol>
<symbol overflow="visible" id="glyph0-1">
<path style="stroke:none;" d="M 2.578125 1.546875 C 2.546875 1.5 2.5 1.46875 2.453125 1.4375 C 1.6875 0.75 1.21875 -0.3125 1.171875 -1.59375 C 1.140625 -2.46875 1.296875 -3.375 1.703125 -4.15625 C 1.90625 -4.53125 2.140625 -4.84375 2.453125 -5.109375 C 2.5 -5.15625 2.546875 -5.1875 2.578125 -5.21875 L 2.328125 -5.21875 C 2.171875 -5.21875 2.1875 -5.21875 2.078125 -5.140625 C 1.71875 -4.859375 1.421875 -4.484375 1.1875 -4.0625 C 0.53125 -2.828125 0.484375 -1.15625 1.09375 0.1875 C 1.3125 0.6875 1.65625 1.109375 2.078125 1.46875 C 2.171875 1.53125 2.171875 1.546875 2.328125 1.546875 L 2.578125 1.546875 Z M 2.578125 1.546875 "/>
</symbol>
<symbol overflow="visible" id="glyph0-2">
<path style="stroke:none;" d="M 0.640625 -2.640625 C 0.765625 -2.703125 0.859375 -2.78125 0.984375 -2.84375 C 1.203125 -2.9375 1.4375 -2.984375 1.6875 -3 C 1.75 -3.015625 1.828125 -3.015625 1.90625 -3.015625 C 2.1875 -2.96875 2.421875 -2.78125 2.5 -2.515625 C 2.578125 -2.3125 2.546875 -2.0625 2.546875 -1.859375 C 2.1875 -1.859375 1.8125 -1.828125 1.453125 -1.734375 C 0.953125 -1.609375 0.328125 -1.359375 0.390625 -0.71875 C 0.4375 -0.4375 0.59375 -0.15625 0.859375 -0.015625 C 1.03125 0.0625 1.234375 0.0625 1.4375 0.046875 C 1.734375 0.015625 2.0625 -0.0625 2.3125 -0.25 C 2.40625 -0.3125 2.484375 -0.390625 2.5625 -0.46875 L 2.5625 0 L 3.046875 0 L 3.046875 -1.828125 C 3.046875 -2.015625 3.078125 -2.21875 3.03125 -2.421875 C 2.96875 -2.90625 2.53125 -3.265625 2.078125 -3.359375 C 1.796875 -3.40625 1.359375 -3.34375 1.125 -3.296875 C 1.046875 -3.265625 0.65625 -3.140625 0.625 -3.078125 C 0.59375 -3.046875 0.609375 -2.984375 0.609375 -2.953125 C 0.625 -2.84375 0.640625 -2.75 0.640625 -2.640625 Z M 2.546875 -1.625 L 2.546875 -1.109375 C 2.546875 -0.96875 2.546875 -0.84375 2.484375 -0.71875 C 2.40625 -0.578125 2.265625 -0.46875 2.109375 -0.421875 C 1.78125 -0.296875 1.328125 -0.28125 1.046875 -0.515625 C 0.96875 -0.5625 0.90625 -0.640625 0.890625 -0.75 C 0.8125 -1.046875 1.078125 -1.28125 1.3125 -1.390625 C 1.640625 -1.546875 2.109375 -1.625 2.546875 -1.625 Z M 2.546875 -1.625 "/>
</symbol>
<symbol overflow="visible" id="glyph0-3">
<path style="stroke:none;" d="M 0.4375 -5.21875 C 0.46875 -5.1875 0.515625 -5.15625 0.5625 -5.109375 C 1.421875 -4.34375 1.890625 -3.109375 1.828125 -1.59375 C 1.8125 -0.84375 1.625 -0.09375 1.265625 0.5625 C 1.078125 0.890625 0.84375 1.1875 0.5625 1.4375 C 0.515625 1.46875 0.46875 1.5 0.4375 1.546875 L 0.6875 1.546875 C 0.84375 1.546875 0.828125 1.546875 0.921875 1.46875 C 1.296875 1.171875 1.59375 0.796875 1.8125 0.390625 C 2.484375 -0.859375 2.53125 -2.515625 1.921875 -3.859375 C 1.6875 -4.375 1.359375 -4.796875 0.9375 -5.140625 C 0.84375 -5.21875 0.84375 -5.21875 0.6875 -5.21875 L 0.4375 -5.21875 Z M 0.4375 -5.21875 "/>
</symbol>
<symbol overflow="visible" id="glyph0-4">
<path style="stroke:none;" d="M 0.4375 -2.671875 C 0.375 -2.578125 0.4375 -2.453125 0.53125 -2.421875 C 0.578125 -2.40625 0.625 -2.421875 0.671875 -2.421875 L 5.125 -2.421875 C 5.1875 -2.421875 5.234375 -2.421875 5.296875 -2.453125 C 5.375 -2.546875 5.328125 -2.71875 5.203125 -2.734375 C 5.09375 -2.75 4.984375 -2.734375 4.890625 -2.734375 L 0.671875 -2.734375 C 0.5625 -2.734375 0.5 -2.75 0.4375 -2.671875 Z M 0.4375 -1.1875 C 0.375 -1.09375 0.4375 -0.96875 0.53125 -0.953125 C 0.578125 -0.9375 0.625 -0.9375 0.671875 -0.9375 L 5.125 -0.9375 C 5.1875 -0.9375 5.234375 -0.9375 5.296875 -0.984375 C 5.375 -1.078125 5.328125 -1.234375 5.203125 -1.265625 C 5.09375 -1.28125 4.984375 -1.265625 4.890625 -1.265625 L 0.65625 -1.265625 C 0.5625 -1.265625 0.484375 -1.265625 0.4375 -1.1875 Z M 0.4375 -1.1875 "/>
</symbol>
<symbol overflow="visible" id="glyph0-5">
<path style="stroke:none;" d="M 1.828125 -4.6875 C 1.671875 -4.65625 1.5 -4.640625 1.359375 -4.5625 C 0.625 -4.28125 0.375 -3.34375 0.375 -2.40625 C 0.375 -2.265625 0.375 -2.125 0.375 -1.96875 C 0.390625 -1.328125 0.546875 -0.6875 0.90625 -0.296875 C 1.21875 0.015625 1.671875 0.140625 2.09375 0.109375 C 2.359375 0.078125 2.578125 -0.015625 2.765625 -0.140625 C 3.359375 -0.5625 3.5 -1.421875 3.5 -2.359375 C 3.5 -3.125 3.359375 -3.8125 2.984375 -4.234375 C 2.703125 -4.546875 2.265625 -4.71875 1.828125 -4.6875 Z M 2.421875 -4.171875 C 2.5 -4.125 2.5625 -4.078125 2.625 -4.015625 C 2.890625 -3.765625 2.96875 -3.265625 2.984375 -2.796875 C 2.984375 -2.703125 2.984375 -2.609375 2.984375 -2.515625 L 2.984375 -2.15625 C 2.984375 -1.5625 2.9375 -0.984375 2.671875 -0.625 C 2.328125 -0.171875 1.578125 -0.15625 1.21875 -0.609375 C 1.125 -0.703125 1.078125 -0.828125 1.03125 -0.9375 C 0.90625 -1.296875 0.875 -1.734375 0.875 -2.1875 L 0.875 -2.546875 C 0.875 -2.640625 0.890625 -2.71875 0.890625 -2.8125 C 0.890625 -3.359375 1.03125 -3.90625 1.390625 -4.140625 C 1.671875 -4.3125 2.09375 -4.359375 2.421875 -4.171875 Z M 2.421875 -4.171875 "/>
</symbol>
<symbol overflow="visible" id="glyph0-6">
<path style="stroke:none;" d="M 0.578125 -4.84375 L 0.578125 0 L 1.09375 0 L 1.09375 -0.46875 L 1.09375 -0.46875 C 1.15625 -0.359375 1.265625 -0.265625 1.359375 -0.1875 C 1.671875 0.0625 2.1875 0.140625 2.640625 -0.078125 C 2.84375 -0.1875 3.015625 -0.359375 3.15625 -0.546875 C 3.84375 -1.5 3.421875 -3.09375 2.453125 -3.3125 C 2.328125 -3.359375 2.171875 -3.359375 2.03125 -3.328125 C 1.625 -3.28125 1.3125 -3.078125 1.078125 -2.828125 L 1.078125 -4.84375 L 0.578125 -4.84375 Z M 1.8125 -2.953125 C 2.140625 -2.984375 2.515625 -2.84375 2.734375 -2.578125 C 2.90625 -2.359375 2.96875 -2.078125 2.96875 -1.8125 C 3 -1.4375 2.953125 -1.03125 2.71875 -0.734375 C 2.515625 -0.46875 2.1875 -0.359375 1.875 -0.328125 C 1.609375 -0.328125 1.375 -0.421875 1.203125 -0.640625 C 1.171875 -0.6875 1.125 -0.75 1.09375 -0.8125 C 1.09375 -0.859375 1.09375 -0.90625 1.09375 -0.9375 L 1.09375 -2.328125 C 1.09375 -2.390625 1.078125 -2.46875 1.109375 -2.53125 C 1.140625 -2.609375 1.203125 -2.65625 1.265625 -2.71875 C 1.421875 -2.84375 1.609375 -2.9375 1.8125 -2.953125 Z M 1.8125 -2.953125 "/>
</symbol>
<symbol overflow="visible" id="glyph0-7">
<path style="stroke:none;" d="M 0.78125 -4.21875 L 0.78125 -3.828125 C 1.125 -3.828125 1.46875 -3.890625 1.78125 -4.03125 L 1.78125 -0.390625 L 0.8125 -0.390625 L 0.8125 0 L 3.25 0 L 3.25 -0.390625 L 2.28125 -0.390625 L 2.28125 -4.6875 C 2.25 -4.6875 2.1875 -4.6875 2.15625 -4.671875 C 2.109375 -4.65625 2.0625 -4.59375 2.015625 -4.5625 C 1.734375 -4.328125 1.21875 -4.21875 0.78125 -4.21875 Z M 0.78125 -4.21875 "/>
</symbol>
<symbol overflow="visible" id="glyph0-8">
<path style="stroke:none;" d="M 3.1875 -0.796875 C 3.125 -0.765625 3.078125 -0.71875 3.03125 -0.6875 C 2.9375 -0.625 2.84375 -0.5625 2.734375 -0.515625 C 2.3125 -0.3125 1.671875 -0.265625 1.296875 -0.5625 C 1.03125 -0.75 0.859375 -1.109375 0.84375 -1.5 C 0.8125 -1.953125 0.921875 -2.453125 1.296875 -2.75 C 1.5 -2.90625 1.765625 -3 2.140625 -2.96875 C 2.46875 -2.9375 2.65625 -2.890625 2.921875 -2.75 C 2.984375 -2.71875 3.03125 -2.671875 3.09375 -2.65625 L 3.171875 -3.078125 C 3.015625 -3.15625 2.875 -3.234375 2.703125 -3.28125 C 2.296875 -3.421875 1.671875 -3.40625 1.3125 -3.234375 C 0.96875 -3.078125 0.6875 -2.796875 0.515625 -2.46875 C 0.265625 -1.96875 0.265625 -1.359375 0.515625 -0.84375 C 0.609375 -0.65625 0.734375 -0.484375 0.90625 -0.34375 C 1.375 0.09375 2.09375 0.140625 2.6875 -0.0625 C 2.828125 -0.125 2.953125 -0.1875 3.078125 -0.265625 C 3.125 -0.296875 3.1875 -0.328125 3.203125 -0.359375 C 3.21875 -0.40625 3.1875 -0.796875 3.1875 -0.796875 Z M 3.1875 -0.796875 "/>
</symbol>
<symbol overflow="visible" id="glyph1-0">
<path style="stroke:none;" d=""/>
</symbol>
<symbol overflow="visible" id="glyph1-1">
<path style="stroke:none;" d="M 1.015625 -3.296875 L 0.9375 -2.90625 L 3.0625 -2.90625 L 1.046875 -1 C 0.796875 -0.75 0.515625 -0.515625 0.28125 -0.265625 C 0.265625 -0.171875 0.234375 -0.09375 0.21875 0 C 1.171875 0 2.1875 0.015625 3.09375 0 C 3.15625 -0.125 3.171875 -0.265625 3.203125 -0.390625 L 0.953125 -0.390625 L 3.734375 -3.03125 C 3.765625 -3.109375 3.78125 -3.203125 3.796875 -3.296875 L 1.015625 -3.296875 Z M 1.015625 -3.296875 "/>
</symbol>
<symbol overflow="visible" id="glyph1-2">
<path style="stroke:none;" d="M 1.8125 -4.84375 L 1.71875 -4.34375 L 2.21875 -4.34375 L 2.3125 -4.84375 L 1.8125 -4.84375 Z M 1.484375 -3.296875 C 1.484375 -3.171875 1.4375 -3.0625 1.421875 -2.953125 C 1.265625 -2.28125 1.015625 -1.03125 0.90625 -0.515625 L 0.75 0.234375 C 0.71875 0.34375 0.703125 0.484375 0.625 0.578125 C 0.4375 0.78125 0.03125 0.875 -0.328125 0.765625 C -0.421875 0.71875 -0.5 0.671875 -0.59375 0.625 L -0.78125 1.015625 C -0.40625 1.1875 0.109375 1.34375 0.59375 1.109375 C 0.859375 1 1.09375 0.75 1.171875 0.484375 C 1.21875 0.375 1.984375 -3.28125 1.984375 -3.296875 L 1.484375 -3.296875 Z M 1.484375 -3.296875 "/>
</symbol>
<symbol overflow="visible" id="glyph1-3">
<path style="stroke:none;" d="M 1.625 -2.625 L 1.625 -2.625 C 1.671875 -2.84375 1.71875 -3.0625 1.765625 -3.296875 L 1.28125 -3.296875 L 0.578125 0 L 0.9375 0 C 1.015625 0 1.09375 0.015625 1.09375 -0.0625 C 1.109375 -0.125 1.21875 -0.578125 1.25 -0.78125 C 1.296875 -1 1.484375 -1.875 1.53125 -2.046875 C 1.609375 -2.3125 1.75 -2.5625 1.953125 -2.734375 C 2.09375 -2.84375 2.265625 -2.9375 2.4375 -2.953125 C 2.765625 -2.96875 3.0625 -2.90625 3.1875 -2.6875 C 3.296875 -2.484375 3.203125 -2.25 3.15625 -2.046875 L 2.734375 0 L 3.09375 0 C 3.15625 0 3.25 0.015625 3.25 -0.0625 C 3.265625 -0.125 3.359375 -0.578125 3.40625 -0.78125 C 3.453125 -1 3.625 -1.875 3.671875 -2.046875 C 3.765625 -2.3125 3.90625 -2.5625 4.109375 -2.734375 C 4.25 -2.84375 4.40625 -2.9375 4.578125 -2.953125 C 4.90625 -2.96875 5.21875 -2.90625 5.34375 -2.6875 C 5.4375 -2.484375 5.359375 -2.25 5.3125 -2.046875 L 4.890625 0 L 5.25 0 C 5.328125 0 5.40625 0.015625 5.40625 -0.078125 C 5.453125 -0.21875 5.546875 -0.734375 5.546875 -0.734375 L 5.859375 -2.1875 C 5.921875 -2.453125 5.96875 -2.78125 5.8125 -3.03125 C 5.6875 -3.25 5.421875 -3.3125 5.1875 -3.34375 C 4.6875 -3.390625 4.3125 -3.171875 4.0625 -2.9375 C 3.953125 -2.84375 3.828125 -2.734375 3.765625 -2.59375 C 3.75 -2.65625 3.765625 -2.703125 3.75 -2.765625 C 3.75 -2.890625 3.6875 -3.03125 3.609375 -3.125 C 3.453125 -3.28125 3.234375 -3.328125 3.03125 -3.34375 C 2.53125 -3.390625 2.171875 -3.171875 1.921875 -2.953125 C 1.8125 -2.859375 1.703125 -2.75 1.625 -2.625 Z M 1.625 -2.625 "/>
</symbol>
<symbol overflow="visible" id="glyph1-4">
<path style="stroke:none;" d="M 2.25 -4.890625 C 1.8125 -4.84375 1.453125 -4.5 1.1875 -4.15625 C 0.765625 -3.609375 0.515625 -2.953125 0.390625 -2.265625 C 0.296875 -1.828125 0.296875 -1.359375 0.375 -0.921875 C 0.46875 -0.484375 0.734375 0.109375 1.34375 0.0625 C 1.796875 0 2.15625 -0.34375 2.421875 -0.6875 C 2.8125 -1.1875 3.046875 -1.796875 3.1875 -2.421875 C 3.28125 -2.890625 3.34375 -3.515625 3.21875 -3.9375 C 3.125 -4.34375 2.890625 -4.828125 2.4375 -4.890625 C 2.375 -4.890625 2.3125 -4.90625 2.25 -4.890625 Z M 2.71875 -2.609375 L 0.96875 -2.609375 C 1 -2.796875 1.0625 -2.984375 1.109375 -3.15625 C 1.25 -3.546875 1.421875 -3.9375 1.703125 -4.234375 C 1.90625 -4.4375 2.234375 -4.609375 2.5 -4.421875 C 2.671875 -4.3125 2.734375 -4.09375 2.78125 -3.90625 C 2.84375 -3.609375 2.828125 -3.3125 2.78125 -3.03125 C 2.765625 -2.890625 2.734375 -2.75 2.71875 -2.609375 Z M 2.625 -2.21875 C 2.625 -2.171875 2.609375 -2.109375 2.59375 -2.046875 C 2.4375 -1.5 2.296875 -1.015625 1.90625 -0.625 C 1.734375 -0.4375 1.453125 -0.25 1.171875 -0.375 C 0.859375 -0.5 0.78125 -0.953125 0.78125 -1.359375 C 0.78125 -1.65625 0.828125 -1.9375 0.890625 -2.21875 L 2.625 -2.21875 Z M 2.625 -2.21875 "/>
</symbol>
</g>
<clipPath id="clip1">
  <path d="M -216 667 L 396 667 L 396 -125 L -216 -125 L -216 667 Z M -216 667 "/>
</clipPath>
<clipPath id="clip2">
  <path d="M 19.578125 140.800781 L 179.578125 140.800781 L 179.578125 -0.199219 L 19.578125 -0.199219 L 19.578125 140.800781 Z M 19.578125 140.800781 "/>
</clipPath>
<clipPath id="clip3">
  <path d="M 37.863281 73.859375 C 37.863281 71.601563 36.964844 69.441406 35.371094 67.84375 C 33.777344 66.25 31.613281 65.355469 29.359375 65.355469 C 27.101563 65.355469 24.941406 66.25 23.34375 67.84375 C 21.75 69.441406 20.855469 71.601563 20.855469 73.859375 C 20.855469 76.113281 21.75 78.277344 23.34375 79.871094 C 24.941406 81.464844 27.101563 82.363281 29.359375 82.363281 C 31.613281 82.363281 33.777344 81.464844 35.371094 79.871094 C 36.964844 78.277344 37.863281 76.113281 37.863281 73.859375 Z M 37.863281 73.859375 "/>
</clipPath>
<clipPath id="clip4">
  <path d="M -216 667 L 396 667 L 396 -125 L -216 -125 L -216 667 Z M -216 667 "/>
</clipPath>
<clipPath id="clip5">
  <path d="M 19.578125 140.800781 L 179.578125 140.800781 L 179.578125 -0.199219 L 19.578125 -0.199219 L 19.578125 140.800781 Z M 19.578125 140.800781 "/>
</clipPath>
<clipPath id="clip6">
  <path d="M -216 667 L 396 667 L 396 -125 L -216 -125 L -216 667 Z M -216 667 "/>
</clipPath>
<clipPath id="clip7">
  <path d="M 19.578125 140.800781 L 179.578125 140.800781 L 179.578125 -0.199219 L 19.578125 -0.199219 L 19.578125 140.800781 Z M 19.578125 140.800781 "/>
</clipPath>
<clipPath id="clip8">
  <path d="M 91.71875 73.859375 C 91.71875 71.601563 90.824219 69.441406 89.230469 67.84375 C 87.632813 66.25 85.472656 65.355469 83.214844 65.355469 C 80.960938 65.355469 78.796875 66.25 77.203125 67.84375 C 75.609375 69.441406 74.710938 71.601563 74.710938 73.859375 C 74.710938 76.113281 75.609375 78.277344 77.203125 79.871094 C 78.796875 81.464844 80.960938 82.363281 83.214844 82.363281 C 85.472656 82.363281 87.632813 81.464844 89.230469 79.871094 C 90.824219 78.277344 91.71875 76.113281 91.71875 73.859375 Z M 91.71875 73.859375 "/>
</clipPath>
<clipPath id="clip9">
  <path d="M -216 667 L 396 667 L 396 -125 L -216 -125 L -216 667 Z M -216 667 "/>
</clipPath>
<clipPath id="clip10">
  <path d="M 19.578125 140.800781 L 179.578125 140.800781 L 179.578125 -0.199219 L 19.578125 -0.199219 L 19.578125 140.800781 Z M 19.578125 140.800781 "/>
</clipPath>
<clipPath id="clip11">
  <path d="M -216 667 L 396 667 L 396 -125 L -216 -125 L -216 667 Z M -216 667 "/>
</clipPath>
<clipPath id="clip12">
  <path d="M 19.578125 140.800781 L 179.578125 140.800781 L 179.578125 -0.199219 L 19.578125 -0.199219 L 19.578125 140.800781 Z M 19.578125 140.800781 "/>
</clipPath>
<clipPath id="clip13">
  <path d="M 145.578125 73.859375 C 145.578125 71.601563 144.683594 69.441406 143.089844 67.84375 C 141.492188 66.25 139.328125 65.355469 137.074219 65.355469 C 134.820313 65.355469 132.65625 66.25 131.0625 67.84375 C 129.46875 69.441406 128.570313 71.601563 128.570313 73.859375 C 128.570313 76.113281 129.46875 78.277344 131.0625 79.871094 C 132.65625 81.464844 134.820313 82.363281 137.074219 82.363281 C 139.328125 82.363281 141.492188 81.464844 143.089844 79.871094 C 144.683594 78.277344 145.578125 76.113281 145.578125 73.859375 Z M 145.578125 73.859375 "/>
</clipPath>
<clipPath id="clip14">
  <path d="M -216 667 L 396 667 L 396 -125 L -216 -125 L -216 667 Z M -216 667 "/>
</clipPath>
<clipPath id="clip15">
  <path d="M 19.578125 140.800781 L 179.578125 140.800781 L 179.578125 -0.199219 L 19.578125 -0.199219 L 19.578125 140.800781 Z M 19.578125 140.800781 "/>
</clipPath>
<clipPath id="clip16">
  <path d="M -216 667 L 396 667 L 396 -125 L -216 -125 L -216 667 Z M -216 667 "/>
</clipPath>
</defs>
<g id="surface0">
<g clip-path="url(#clip1)" clip-rule="nonzero">
<g clip-path="url(#clip2)" clip-rule="nonzero">
<g clip-path="url(#clip3)" clip-rule="nonzero">
<path style="fill:none;stroke-width:3;stroke-linecap:round;stroke-linejoin:round;stroke:rgb(0%,0%,0%);stroke-opacity:1;stroke-miterlimit:10;" d="M 85.7725 561.184062 L 206.045938 681.4575 " transform="matrix(0.1,0,0,-0.1,19.579,140.802)"/>
<path style="fill:none;stroke-width:3;stroke-linecap:round;stroke-linejoin:round;stroke:rgb(0%,0%,0%);stroke-opacity:1;stroke-miterlimit:10;" d="M 61.71 585.246562 L 181.983438 705.52 " transform="matrix(0.1,0,0,-0.1,19.579,140.802)"/>
<path style="fill:none;stroke-width:3;stroke-linecap:round;stroke-linejoin:round;stroke:rgb(0%,0%,0%);stroke-opacity:1;stroke-miterlimit:10;" d="M 37.6475 609.309062 L 157.920938 729.5825 " transform="matrix(0.1,0,0,-0.1,19.579,140.802)"/>
<path style="fill:none;stroke-width:3;stroke-linecap:round;stroke-linejoin:round;stroke:rgb(0%,0%,0%);stroke-opacity:1;stroke-miterlimit:10;" d="M 13.624063 633.371562 L 133.858438 753.605937 " transform="matrix(0.1,0,0,-0.1,19.579,140.802)"/>
<path style="fill:none;stroke-width:3;stroke-linecap:round;stroke-linejoin:round;stroke:rgb(0%,0%,0%);stroke-opacity:1;stroke-miterlimit:10;" d="M -10.438437 657.395 L 109.835 777.668437 " transform="matrix(0.1,0,0,-0.1,19.579,140.802)"/>
</g>
</g>
</g>
<g clip-path="url(#clip4)" clip-rule="nonzero">
<g clip-path="url(#clip5)" clip-rule="nonzero">
<path style="fill:none;stroke-width:5;stroke-linecap:butt;stroke-linejoin:round;stroke:rgb(0%,0%,0%);stroke-opacity:1;stroke-miterlimit:10;" d="M 182.842813 669.42625 C 182.842813 692.004375 173.858438 713.605937 157.920938 729.5825 C 141.983438 745.52 120.342813 754.465312 97.80375 754.465312 C 75.225625 754.465312 53.624063 745.52 37.6475 729.5825 C 21.71 713.605937 12.764688 692.004375 12.764688 669.42625 C 12.764688 646.887187 21.71 625.246562 37.6475 609.309062 C 53.624063 593.371562 75.225625 584.387187 97.80375 584.387187 C 120.342813 584.387187 141.983438 593.371562 157.920938 609.309062 C 173.858438 625.246562 182.842813 646.887187 182.842813 669.42625 Z M 182.842813 669.42625 " transform="matrix(0.1,0,0,-0.1,19.579,140.802)"/>
<path style="fill:none;stroke-width:5;stroke-linecap:round;stroke-linejoin:round;stroke:rgb(0%,0%,0%);stroke-opacity:1;stroke-dasharray:113.386,28.3464,28.3464,28.3464;stroke-miterlimit:10;" d="M 97.80375 17.473125 L 97.80375 584.387187 " transform="matrix(0.1,0,0,-0.1,19.579,140.802)"/>
<path style="fill:none;stroke-width:5;stroke-linecap:round;stroke-linejoin:round;stroke:rgb(0%,0%,0%);stroke-opacity:1;stroke-dasharray:113.386,28.3464,28.3464,28.3464;stroke-miterlimit:10;" d="M 97.80375 749.348125 L 97.80375 1392.277812 " transform="matrix(0.1,0,0,-0.1,19.579,140.802)"/>
<path style=" stroke:none;fill-rule:nonzero;fill:rgb(0%,0%,0%);fill-opacity:1;" d="M 30.585938 7.109375 L 29.359375 1.574219 L 28.132813 7.109375 "/>
<path style="fill:none;stroke-width:5;stroke-linecap:round;stroke-linejoin:round;stroke:rgb(0%,0%,0%);stroke-opacity:1;stroke-miterlimit:10;" d="M 110.069375 1336.92625 L 97.80375 1392.277812 L 85.538125 1336.92625 L 110.069375 1336.92625 Z M 110.069375 1336.92625 " transform="matrix(0.1,0,0,-0.1,19.579,140.802)"/>
<path style=" stroke:none;fill-rule:nonzero;fill:rgb(100%,100%,100%);fill-opacity:1;" d="M 27.941406 139.054688 L 30.777344 139.054688 L 30.777344 97.242188 L 27.941406 97.242188 L 27.941406 139.054688 Z M 27.941406 139.054688 "/>
<path style="fill:none;stroke-width:5;stroke-linecap:round;stroke-linejoin:round;stroke:rgb(0%,0%,0%);stroke-opacity:1;stroke-miterlimit:10;" d="M 97.80375 17.473125 C 103.624063 22.434062 111.983438 29.504375 111.983438 36.379375 C 111.983438 43.254375 103.624063 50.324687 97.80375 55.285625 C 91.944375 60.2075 83.624063 67.316875 83.624063 74.152812 C 83.624063 81.027812 91.944375 88.098125 97.80375 93.059062 C 103.624063 98.02 111.983438 105.090312 111.983438 111.965312 C 111.983438 118.840312 103.624063 125.910625 97.80375 130.871562 C 91.944375 135.8325 83.624063 142.902812 83.624063 149.73875 C 83.624063 156.61375 91.944375 163.684062 97.80375 168.645 C 103.624063 173.605937 111.983438 180.67625 111.983438 187.55125 C 111.983438 194.42625 103.624063 201.496562 97.80375 206.4575 C 91.944375 211.418437 83.624063 218.48875 83.624063 225.36375 C 83.624063 232.199687 91.944375 239.27 97.80375 244.230937 C 103.624063 249.191875 111.983438 256.262187 111.983438 263.137187 C 111.983438 270.012187 103.624063 277.0825 97.80375 282.043437 C 91.944375 287.004375 83.624063 294.074687 83.624063 300.949687 C 83.624063 307.785625 91.944375 314.895 97.80375 319.816875 C 103.624063 324.777812 111.983438 331.848125 111.983438 338.723125 C 111.983438 345.598125 103.624063 352.668437 97.80375 357.629375 L 97.80375 421.418437 " transform="matrix(0.1,0,0,-0.1,19.579,140.802)"/>
<path style=" stroke:none;fill-rule:nonzero;fill:rgb(0%,0%,0%);fill-opacity:1;" d="M 30.585938 104.195313 L 29.359375 98.660156 L 28.132813 104.195313 "/>
<path style="fill:none;stroke-width:5;stroke-linecap:round;stroke-linejoin:round;stroke:rgb(0%,0%,0%);stroke-opacity:1;stroke-miterlimit:10;" d="M 110.069375 366.066875 L 97.80375 421.418437 L 85.538125 366.066875 L 110.069375 366.066875 Z M 110.069375 366.066875 " transform="matrix(0.1,0,0,-0.1,19.579,140.802)"/>
<path style="fill:none;stroke-width:25;stroke-linecap:round;stroke-linejoin:round;stroke:rgb(100%,100%,100%);stroke-opacity:1;stroke-miterlimit:10;" d="M 26.944375 219.42625 C 26.944375 213.02 34.405313 206.848125 47.686563 202.316875 C 60.967813 197.746562 79.014688 195.2075 97.80375 195.2075 C 116.592813 195.2075 134.600625 197.746562 147.881875 202.316875 C 161.202188 206.848125 168.663125 213.02 168.663125 219.42625 " transform="matrix(0.1,0,0,-0.1,19.579,140.802)"/>
<path style="fill:none;stroke-width:25;stroke-linecap:round;stroke-linejoin:round;stroke:rgb(100%,100%,100%);stroke-opacity:1;stroke-miterlimit:10;" d="M 68.155313 197.434062 C 77.335 195.98875 87.452188 195.2075 97.80375 195.2075 C 108.11625 195.2075 118.233438 195.98875 127.452188 197.434062 " transform="matrix(0.1,0,0,-0.1,19.579,140.802)"/>
<path style=" stroke:none;fill-rule:nonzero;fill:rgb(100%,100%,100%);fill-opacity:1;" d="M 26.796875 122.324219 C 27.652344 122.257813 28.5625 122.121094 29.476563 121.917969 C 30.484375 121.695313 31.457031 121.402344 32.324219 121.058594 C 31.394531 121 30.390625 120.859375 29.378906 120.632813 C 28.464844 120.433594 27.582031 120.171875 26.78125 119.871094 "/>
<path style="fill:none;stroke-width:25;stroke-linecap:round;stroke-linejoin:round;stroke:rgb(100%,100%,100%);stroke-opacity:1;stroke-miterlimit:10;" d="M 72.17875 184.777812 C 80.733438 185.441875 89.835 186.809062 98.975625 188.840312 C 109.05375 191.066875 118.780313 193.996562 127.452188 197.434062 C 118.155313 198.02 108.11625 199.42625 97.999063 201.691875 C 88.858438 203.684062 80.030313 206.30125 72.0225 209.309062 L 72.17875 184.777812 Z M 72.17875 184.777812 " transform="matrix(0.1,0,0,-0.1,19.579,140.802)"/>
<path style="fill:none;stroke-width:5;stroke-linecap:round;stroke-linejoin:round;stroke:rgb(0%,0%,0%);stroke-opacity:1;stroke-miterlimit:10;" d="M 78.506875 242.746562 C 66.944375 241.652812 56.319375 239.543437 47.686563 236.574687 C 34.405313 232.043437 26.944375 225.871562 26.944375 219.42625 C 26.944375 213.02 34.405313 206.848125 47.686563 202.316875 C 60.967813 197.746562 79.014688 195.2075 97.80375 195.2075 C 116.592813 195.2075 134.600625 197.746562 147.881875 202.316875 C 161.202188 206.848125 168.663125 213.02 168.663125 219.42625 C 168.663125 225.871562 161.202188 232.043437 147.881875 236.574687 C 139.249063 239.543437 128.624063 241.652812 117.061563 242.746562 " transform="matrix(0.1,0,0,-0.1,19.579,140.802)"/>
<path style="fill:none;stroke-width:5;stroke-linecap:round;stroke-linejoin:round;stroke:rgb(0%,0%,0%);stroke-opacity:1;stroke-miterlimit:10;" d="M 68.155313 197.434062 C 77.335 195.98875 87.452188 195.2075 97.80375 195.2075 C 108.11625 195.2075 118.233438 195.98875 127.452188 197.434062 " transform="matrix(0.1,0,0,-0.1,19.579,140.802)"/>
<path style=" stroke:none;fill-rule:nonzero;fill:rgb(0%,0%,0%);fill-opacity:1;" d="M 26.796875 122.324219 C 27.652344 122.257813 28.5625 122.121094 29.476563 121.917969 C 30.484375 121.695313 31.457031 121.402344 32.324219 121.058594 C 31.394531 121 30.390625 120.859375 29.378906 120.632813 C 28.464844 120.433594 27.582031 120.171875 26.78125 119.871094 "/>
<path style="fill:none;stroke-width:5;stroke-linecap:round;stroke-linejoin:round;stroke:rgb(0%,0%,0%);stroke-opacity:1;stroke-miterlimit:10;" d="M 72.17875 184.777812 C 80.733438 185.441875 89.835 186.809062 98.975625 188.840312 C 109.05375 191.066875 118.780313 193.996562 127.452188 197.434062 C 118.155313 198.02 108.11625 199.42625 97.999063 201.691875 C 88.858438 203.684062 80.030313 206.30125 72.0225 209.309062 L 72.17875 184.777812 Z M 72.17875 184.777812 " transform="matrix(0.1,0,0,-0.1,19.579,140.802)"/>
<path style="fill:none;stroke-width:5;stroke-linecap:round;stroke-linejoin:round;stroke:rgb(0%,0%,0%);stroke-opacity:1;stroke-dasharray:113.386,28.3464,28.3464,28.3464;stroke-miterlimit:10;" d="M 636.358438 17.473125 L 636.358438 584.387187 " transform="matrix(0.1,0,0,-0.1,19.579,140.802)"/>
<path style="fill:none;stroke-width:5;stroke-linecap:round;stroke-linejoin:round;stroke:rgb(0%,0%,0%);stroke-opacity:1;stroke-dasharray:113.386,28.3464,28.3464,28.3464;stroke-miterlimit:10;" d="M 636.358438 749.348125 L 636.358438 1392.277812 " transform="matrix(0.1,0,0,-0.1,19.579,140.802)"/>
<path style=" stroke:none;fill-rule:nonzero;fill:rgb(0%,0%,0%);fill-opacity:1;" d="M 84.445313 7.109375 L 83.214844 1.574219 L 81.988281 7.109375 "/>
<path style="fill:none;stroke-width:5;stroke-linecap:round;stroke-linejoin:round;stroke:rgb(0%,0%,0%);stroke-opacity:1;stroke-miterlimit:10;" d="M 648.663125 1336.92625 L 636.358438 1392.277812 L 624.092813 1336.92625 L 648.663125 1336.92625 Z M 648.663125 1336.92625 " transform="matrix(0.1,0,0,-0.1,19.579,140.802)"/>
<path style="fill:none;stroke-width:29;stroke-linecap:round;stroke-linejoin:round;stroke:rgb(100%,100%,100%);stroke-opacity:1;stroke-miterlimit:10;" d="M 636.358438 499.348125 L 636.358438 584.387187 " transform="matrix(0.1,0,0,-0.1,19.579,140.802)"/>
<path style="fill:none;stroke-width:9;stroke-linecap:round;stroke-linejoin:round;stroke:rgb(0%,0%,0%);stroke-opacity:1;stroke-miterlimit:10;" d="M 636.358438 499.348125 L 636.358438 584.387187 " transform="matrix(0.1,0,0,-0.1,19.579,140.802)"/>
</g>
</g>
<g clip-path="url(#clip6)" clip-rule="nonzero">
<g clip-path="url(#clip7)" clip-rule="nonzero">
<g clip-path="url(#clip8)" clip-rule="nonzero">
<path style="fill:none;stroke-width:3;stroke-linecap:round;stroke-linejoin:round;stroke:rgb(0%,0%,0%);stroke-opacity:1;stroke-miterlimit:10;" d="M 624.36625 561.184062 L 744.600625 681.4575 " transform="matrix(0.1,0,0,-0.1,19.579,140.802)"/>
<path style="fill:none;stroke-width:3;stroke-linecap:round;stroke-linejoin:round;stroke:rgb(0%,0%,0%);stroke-opacity:1;stroke-miterlimit:10;" d="M 600.30375 585.246562 L 720.577188 705.52 " transform="matrix(0.1,0,0,-0.1,19.579,140.802)"/>
<path style="fill:none;stroke-width:3;stroke-linecap:round;stroke-linejoin:round;stroke:rgb(0%,0%,0%);stroke-opacity:1;stroke-miterlimit:10;" d="M 576.24125 609.309062 L 696.514688 729.5825 " transform="matrix(0.1,0,0,-0.1,19.579,140.802)"/>
<path style="fill:none;stroke-width:3;stroke-linecap:round;stroke-linejoin:round;stroke:rgb(0%,0%,0%);stroke-opacity:1;stroke-miterlimit:10;" d="M 552.17875 633.371562 L 672.452188 753.605937 " transform="matrix(0.1,0,0,-0.1,19.579,140.802)"/>
<path style="fill:none;stroke-width:3;stroke-linecap:round;stroke-linejoin:round;stroke:rgb(0%,0%,0%);stroke-opacity:1;stroke-miterlimit:10;" d="M 528.155313 657.395 L 648.389688 777.668437 " transform="matrix(0.1,0,0,-0.1,19.579,140.802)"/>
</g>
</g>
</g>
<g clip-path="url(#clip9)" clip-rule="nonzero">
<g clip-path="url(#clip10)" clip-rule="nonzero">
<path style="fill:none;stroke-width:5;stroke-linecap:round;stroke-linejoin:round;stroke:rgb(0%,0%,0%);stroke-opacity:1;stroke-miterlimit:10;" d="M 721.3975 669.42625 C 721.3975 692.004375 712.452188 713.605937 696.514688 729.5825 C 680.538125 745.52 658.936563 754.465312 636.358438 754.465312 C 613.819375 754.465312 592.17875 745.52 576.24125 729.5825 C 560.30375 713.605937 551.319375 692.004375 551.319375 669.42625 C 551.319375 646.887187 560.30375 625.246562 576.24125 609.309062 C 592.17875 593.371562 613.819375 584.387187 636.358438 584.387187 C 658.936563 584.387187 680.538125 593.371562 696.514688 609.309062 C 712.452188 625.246562 721.3975 646.887187 721.3975 669.42625 Z M 721.3975 669.42625 " transform="matrix(0.1,0,0,-0.1,19.579,140.802)"/>
<path style="fill:none;stroke-width:29;stroke-linecap:round;stroke-linejoin:round;stroke:rgb(100%,100%,100%);stroke-opacity:1;stroke-miterlimit:10;" d="M 636.358438 749.348125 L 636.358438 853.684062 " transform="matrix(0.1,0,0,-0.1,19.579,140.802)"/>
<path style=" stroke:none;fill-rule:nonzero;fill:rgb(100%,100%,100%);fill-opacity:1;" d="M 84.445313 60.96875 L 83.214844 55.433594 L 81.988281 60.96875 "/>
<path style="fill:none;stroke-width:29;stroke-linecap:round;stroke-linejoin:round;stroke:rgb(100%,100%,100%);stroke-opacity:1;stroke-miterlimit:10;" d="M 648.663125 798.3325 L 636.358438 853.684062 L 624.092813 798.3325 L 648.663125 798.3325 Z M 648.663125 798.3325 " transform="matrix(0.1,0,0,-0.1,19.579,140.802)"/>
<path style="fill:none;stroke-width:9;stroke-linecap:round;stroke-linejoin:round;stroke:rgb(0%,0%,0%);stroke-opacity:1;stroke-miterlimit:10;" d="M 636.358438 749.348125 L 636.358438 853.684062 " transform="matrix(0.1,0,0,-0.1,19.579,140.802)"/>
<path style=" stroke:none;fill-rule:nonzero;fill:rgb(0%,0%,0%);fill-opacity:1;" d="M 84.445313 60.96875 L 83.214844 55.433594 L 81.988281 60.96875 "/>
<path style="fill:none;stroke-width:9;stroke-linecap:round;stroke-linejoin:round;stroke:rgb(0%,0%,0%);stroke-opacity:1;stroke-miterlimit:10;" d="M 648.663125 798.3325 L 636.358438 853.684062 L 624.092813 798.3325 L 648.663125 798.3325 Z M 648.663125 798.3325 " transform="matrix(0.1,0,0,-0.1,19.579,140.802)"/>
<path style="fill:none;stroke-width:25;stroke-linecap:round;stroke-linejoin:round;stroke:rgb(100%,100%,100%);stroke-opacity:1;stroke-miterlimit:10;" d="M 522.999063 669.42625 C 522.999063 659.152812 534.952188 649.309062 556.202188 642.004375 C 577.452188 634.73875 606.319375 630.67625 636.358438 630.67625 C 666.436563 630.67625 695.30375 634.73875 716.55375 642.004375 C 737.80375 649.309062 749.756875 659.152812 749.756875 669.42625 " transform="matrix(0.1,0,0,-0.1,19.579,140.802)"/>
<path style="fill:none;stroke-width:25;stroke-linecap:round;stroke-linejoin:round;stroke:rgb(100%,100%,100%);stroke-opacity:1;stroke-miterlimit:10;" d="M 606.631875 632.004375 C 616.24125 631.105937 626.24125 630.67625 636.358438 630.67625 C 646.514688 630.67625 656.475625 631.105937 666.085 632.004375 " transform="matrix(0.1,0,0,-0.1,19.579,140.802)"/>
<path style=" stroke:none;fill-rule:nonzero;fill:rgb(100%,100%,100%);fill-opacity:1;" d="M 80.660156 78.851563 C 81.53125 78.734375 82.421875 78.574219 83.316406 78.375 C 84.304688 78.15625 85.269531 77.894531 86.1875 77.601563 C 85.230469 77.480469 84.246094 77.308594 83.257813 77.089844 C 82.363281 76.890625 81.488281 76.65625 80.648438 76.398438 "/>
<path style="fill:none;stroke-width:25;stroke-linecap:round;stroke-linejoin:round;stroke:rgb(100%,100%,100%);stroke-opacity:1;stroke-miterlimit:10;" d="M 610.811563 619.504375 C 619.5225 620.67625 628.42875 622.277812 637.374063 624.27 C 647.256875 626.4575 656.905313 629.074687 666.085 632.004375 C 656.514688 633.215312 646.670938 634.934062 636.788125 637.121562 C 627.842813 639.11375 619.092813 641.4575 610.694375 644.035625 L 610.811563 619.504375 Z M 610.811563 619.504375 " transform="matrix(0.1,0,0,-0.1,19.579,140.802)"/>
<path style="fill:none;stroke-width:5;stroke-linecap:round;stroke-linejoin:round;stroke:rgb(0%,0%,0%);stroke-opacity:1;stroke-miterlimit:10;" d="M 550.108438 694.621562 C 532.6475 687.629375 522.999063 678.684062 522.999063 669.42625 C 522.999063 659.152812 534.952188 649.309062 556.202188 642.004375 C 577.452188 634.73875 606.319375 630.67625 636.358438 630.67625 C 666.436563 630.67625 695.30375 634.73875 716.55375 642.004375 C 737.80375 649.309062 749.756875 659.152812 749.756875 669.42625 C 749.756875 678.684062 740.069375 687.629375 722.6475 694.621562 " transform="matrix(0.1,0,0,-0.1,19.579,140.802)"/>
<path style="fill:none;stroke-width:5;stroke-linecap:round;stroke-linejoin:round;stroke:rgb(0%,0%,0%);stroke-opacity:1;stroke-miterlimit:10;" d="M 606.631875 632.004375 C 616.24125 631.105937 626.24125 630.67625 636.358438 630.67625 C 646.514688 630.67625 656.475625 631.105937 666.085 632.004375 " transform="matrix(0.1,0,0,-0.1,19.579,140.802)"/>
<path style=" stroke:none;fill-rule:nonzero;fill:rgb(0%,0%,0%);fill-opacity:1;" d="M 80.660156 78.851563 C 81.53125 78.734375 82.421875 78.574219 83.316406 78.375 C 84.304688 78.15625 85.269531 77.894531 86.1875 77.601563 C 85.230469 77.480469 84.246094 77.308594 83.257813 77.089844 C 82.363281 76.890625 81.488281 76.65625 80.648438 76.398438 "/>
<path style="fill:none;stroke-width:5;stroke-linecap:round;stroke-linejoin:round;stroke:rgb(0%,0%,0%);stroke-opacity:1;stroke-miterlimit:10;" d="M 610.811563 619.504375 C 619.5225 620.67625 628.42875 622.277812 637.374063 624.27 C 647.256875 626.4575 656.905313 629.074687 666.085 632.004375 C 656.514688 633.215312 646.670938 634.934062 636.788125 637.121562 C 627.842813 639.11375 619.092813 641.4575 610.694375 644.035625 L 610.811563 619.504375 Z M 610.811563 619.504375 " transform="matrix(0.1,0,0,-0.1,19.579,140.802)"/>
</g>
</g>
<g clip-path="url(#clip11)" clip-rule="nonzero">
<g clip-path="url(#clip12)" clip-rule="nonzero">
<g clip-path="url(#clip13)" clip-rule="nonzero">
<path style="fill:none;stroke-width:3;stroke-linecap:round;stroke-linejoin:round;stroke:rgb(0%,0%,0%);stroke-opacity:1;stroke-miterlimit:10;" d="M 1162.920938 561.184062 L 1283.194375 681.4575 " transform="matrix(0.1,0,0,-0.1,19.579,140.802)"/>
<path style="fill:none;stroke-width:3;stroke-linecap:round;stroke-linejoin:round;stroke:rgb(0%,0%,0%);stroke-opacity:1;stroke-miterlimit:10;" d="M 1138.8975 585.246562 L 1259.131875 705.52 " transform="matrix(0.1,0,0,-0.1,19.579,140.802)"/>
<path style="fill:none;stroke-width:3;stroke-linecap:round;stroke-linejoin:round;stroke:rgb(0%,0%,0%);stroke-opacity:1;stroke-miterlimit:10;" d="M 1114.835 609.309062 L 1235.108438 729.5825 " transform="matrix(0.1,0,0,-0.1,19.579,140.802)"/>
<path style="fill:none;stroke-width:3;stroke-linecap:round;stroke-linejoin:round;stroke:rgb(0%,0%,0%);stroke-opacity:1;stroke-miterlimit:10;" d="M 1090.7725 633.371562 L 1211.045938 753.605937 " transform="matrix(0.1,0,0,-0.1,19.579,140.802)"/>
<path style="fill:none;stroke-width:3;stroke-linecap:round;stroke-linejoin:round;stroke:rgb(0%,0%,0%);stroke-opacity:1;stroke-miterlimit:10;" d="M 1066.71 657.395 L 1186.983438 777.668437 " transform="matrix(0.1,0,0,-0.1,19.579,140.802)"/>
</g>
</g>
</g>
<g clip-path="url(#clip14)" clip-rule="nonzero">
<g clip-path="url(#clip15)" clip-rule="nonzero">
<path style="fill:none;stroke-width:5;stroke-linecap:round;stroke-linejoin:round;stroke:rgb(0%,0%,0%);stroke-opacity:1;stroke-miterlimit:10;" d="M 1259.99125 669.42625 C 1259.99125 692.004375 1251.045938 713.605937 1235.108438 729.5825 C 1219.131875 745.52 1197.49125 754.465312 1174.952188 754.465312 C 1152.413125 754.465312 1130.7725 745.52 1114.835 729.5825 C 1098.8975 713.605937 1089.913125 692.004375 1089.913125 669.42625 C 1089.913125 646.887187 1098.8975 625.246562 1114.835 609.309062 C 1130.7725 593.371562 1152.413125 584.387187 1174.952188 584.387187 C 1197.49125 584.387187 1219.131875 593.371562 1235.108438 609.309062 C 1251.045938 625.246562 1259.99125 646.887187 1259.99125 669.42625 Z M 1259.99125 669.42625 " transform="matrix(0.1,0,0,-0.1,19.579,140.802)"/>
<path style="fill:none;stroke-width:5;stroke-linecap:round;stroke-linejoin:round;stroke:rgb(0%,0%,0%);stroke-opacity:1;stroke-dasharray:113.386,28.3464,28.3464,28.3464;stroke-miterlimit:10;" d="M 1174.952188 17.473125 L 1174.952188 584.387187 " transform="matrix(0.1,0,0,-0.1,19.579,140.802)"/>
<path style="fill:none;stroke-width:5;stroke-linecap:round;stroke-linejoin:round;stroke:rgb(0%,0%,0%);stroke-opacity:1;stroke-dasharray:113.386,28.3464,28.3464,28.3464;stroke-miterlimit:10;" d="M 1174.952188 749.348125 L 1174.952188 1392.277812 " transform="matrix(0.1,0,0,-0.1,19.579,140.802)"/>
<path style=" stroke:none;fill-rule:nonzero;fill:rgb(0%,0%,0%);fill-opacity:1;" d="M 138.300781 7.109375 L 137.074219 1.574219 L 135.847656 7.109375 "/>
<path style="fill:none;stroke-width:5;stroke-linecap:round;stroke-linejoin:round;stroke:rgb(0%,0%,0%);stroke-opacity:1;stroke-miterlimit:10;" d="M 1187.217813 1336.92625 L 1174.952188 1392.277812 L 1162.686563 1336.92625 L 1187.217813 1336.92625 Z M 1187.217813 1336.92625 " transform="matrix(0.1,0,0,-0.1,19.579,140.802)"/>
<path style="fill:none;stroke-width:5;stroke-linecap:round;stroke-linejoin:round;stroke:rgb(0%,0%,0%);stroke-opacity:1;stroke-miterlimit:10;" d="M 1214.874063 740.012187 L 1587.49125 1398.527812 " transform="matrix(0.1,0,0,-0.1,19.579,140.802)"/>
<path style=" stroke:none;fill-rule:nonzero;fill:rgb(0%,0%,0%);fill-opacity:1;" d="M 176.671875 6.367188 L 178.328125 0.949219 L 174.535156 5.160156 "/>
<path style="fill:none;stroke-width:5;stroke-linecap:round;stroke-linejoin:round;stroke:rgb(0%,0%,0%);stroke-opacity:1;stroke-miterlimit:10;" d="M 1570.92875 1344.348125 L 1587.49125 1398.527812 L 1549.561563 1356.418437 L 1570.92875 1344.348125 Z M 1570.92875 1344.348125 " transform="matrix(0.1,0,0,-0.1,19.579,140.802)"/>
<path style=" stroke:none;fill-rule:nonzero;fill:rgb(100%,100%,100%);fill-opacity:1;" d="M 152.242188 44.171875 L 154.710938 45.566406 L 175.300781 9.179688 L 172.832031 7.78125 "/>
<path style="fill:none;stroke-width:5;stroke-linecap:round;stroke-linejoin:round;stroke:rgb(0%,0%,0%);stroke-opacity:1;stroke-miterlimit:10;" d="M 1342.452188 965.480937 C 1339.835 972.668437 1336.045938 982.941875 1339.444375 988.918437 C 1342.80375 994.895 1353.545938 996.92625 1361.085 998.371562 C 1368.585 999.816875 1379.327188 1001.887187 1382.725625 1007.86375 C 1386.085 1013.840312 1382.335 1024.074687 1379.67875 1031.262187 C 1377.061563 1038.48875 1373.2725 1048.723125 1376.670938 1054.699687 C 1380.030313 1060.67625 1390.7725 1062.746562 1398.311563 1064.152812 C 1405.811563 1065.598125 1416.55375 1067.668437 1419.952188 1073.645 C 1423.311563 1079.621562 1419.561563 1089.895 1416.905313 1097.0825 C 1414.288125 1104.27 1410.499063 1114.504375 1413.8975 1120.480937 C 1417.256875 1126.4575 1427.999063 1128.527812 1435.538125 1129.973125 C 1443.038125 1131.418437 1453.780313 1133.449687 1457.17875 1139.42625 C 1460.538125 1145.402812 1456.788125 1155.67625 1454.131875 1162.86375 C 1451.514688 1170.05125 1447.725625 1180.324687 1451.124063 1186.30125 C 1454.483438 1192.277812 1465.225625 1194.309062 1472.764688 1195.754375 C 1480.264688 1197.199687 1491.006875 1199.230937 1494.405313 1205.2075 C 1497.764688 1211.184062 1494.014688 1221.4575 1491.358438 1228.645 C 1488.702188 1235.8325 1484.952188 1246.105937 1488.311563 1252.0825 C 1491.71 1258.059062 1502.452188 1260.090312 1509.952188 1261.535625 L 1541.3975 1317.043437 " transform="matrix(0.1,0,0,-0.1,19.579,140.802)"/>
<path style=" stroke:none;fill-rule:nonzero;fill:rgb(0%,0%,0%);fill-opacity:1;" d="M 172.058594 14.519531 L 173.71875 9.097656 L 169.925781 13.308594 "/>
<path style="fill:none;stroke-width:5;stroke-linecap:round;stroke-linejoin:round;stroke:rgb(0%,0%,0%);stroke-opacity:1;stroke-miterlimit:10;" d="M 1524.795938 1262.824687 L 1541.3975 1317.043437 L 1503.467813 1274.934062 L 1524.795938 1262.824687 Z M 1524.795938 1262.824687 " transform="matrix(0.1,0,0,-0.1,19.579,140.802)"/>
<path style="fill:none;stroke-width:25;stroke-linecap:round;stroke-linejoin:round;stroke:rgb(100%,100%,100%);stroke-opacity:1;stroke-miterlimit:10;" d="M 1380.30375 1176.262187 C 1377.413125 1171.379375 1381.163125 1162.980937 1390.655313 1152.980937 C 1400.186563 1142.941875 1414.717813 1132.121562 1431.045938 1122.824687 C 1447.413125 1113.566875 1464.21 1106.574687 1477.80375 1103.48875 C 1491.3975 1100.36375 1500.655313 1101.379375 1503.545938 1106.262187 " transform="matrix(0.1,0,0,-0.1,19.579,140.802)"/>
<path style="fill:none;stroke-width:25;stroke-linecap:round;stroke-linejoin:round;stroke:rgb(100%,100%,100%);stroke-opacity:1;stroke-miterlimit:10;" d="M 1406.280313 1139.152812 C 1413.624063 1133.527812 1422.061563 1127.941875 1431.045938 1122.824687 C 1440.069375 1117.7075 1449.170938 1113.3325 1457.842813 1109.895 " transform="matrix(0.1,0,0,-0.1,19.579,140.802)"/>
<path style=" stroke:none;fill-rule:nonzero;fill:rgb(100%,100%,100%);fill-opacity:1;" d="M 159.933594 28.179688 C 160.714844 28.53125 161.570313 28.855469 162.46875 29.128906 C 163.457031 29.433594 164.441406 29.664063 165.363281 29.8125 C 164.59375 29.289063 163.796875 28.664063 163.027344 27.96875 C 162.332031 27.34375 161.691406 26.6875 161.132813 26.039063 "/>
<path style="fill:none;stroke-width:25;stroke-linecap:round;stroke-linejoin:round;stroke:rgb(100%,100%,100%);stroke-opacity:1;stroke-miterlimit:10;" d="M 1403.545938 1126.223125 C 1411.358438 1122.7075 1419.913125 1119.465312 1428.8975 1116.730937 C 1438.780313 1113.684062 1448.624063 1111.379375 1457.842813 1109.895 C 1450.1475 1115.129375 1442.17875 1121.379375 1434.483438 1128.3325 C 1427.530313 1134.5825 1421.124063 1141.145 1415.538125 1147.629375 L 1403.545938 1126.223125 Z M 1403.545938 1126.223125 " transform="matrix(0.1,0,0,-0.1,19.579,140.802)"/>
<path style="fill:none;stroke-width:5;stroke-linecap:round;stroke-linejoin:round;stroke:rgb(0%,0%,0%);stroke-opacity:1;stroke-miterlimit:10;" d="M 1435.61625 1168.527812 C 1425.069375 1173.371562 1414.874063 1177.043437 1406.045938 1179.035625 C 1392.452188 1182.160625 1383.194375 1181.145 1380.30375 1176.262187 C 1377.413125 1171.379375 1381.163125 1162.980937 1390.655313 1152.980937 C 1400.186563 1142.941875 1414.717813 1132.121562 1431.045938 1122.824687 C 1447.413125 1113.566875 1464.21 1106.574687 1477.80375 1103.48875 C 1491.3975 1100.36375 1500.655313 1101.379375 1503.545938 1106.262187 C 1506.436563 1111.145 1502.686563 1119.543437 1493.194375 1129.543437 C 1486.983438 1136.066875 1478.702188 1142.941875 1469.131875 1149.504375 " transform="matrix(0.1,0,0,-0.1,19.579,140.802)"/>
<path style="fill:none;stroke-width:5;stroke-linecap:round;stroke-linejoin:round;stroke:rgb(0%,0%,0%);stroke-opacity:1;stroke-miterlimit:10;" d="M 1406.280313 1139.152812 C 1413.624063 1133.527812 1422.061563 1127.941875 1431.045938 1122.824687 C 1440.069375 1117.7075 1449.170938 1113.3325 1457.842813 1109.895 " transform="matrix(0.1,0,0,-0.1,19.579,140.802)"/>
<path style=" stroke:none;fill-rule:nonzero;fill:rgb(0%,0%,0%);fill-opacity:1;" d="M 159.933594 28.179688 C 160.714844 28.53125 161.570313 28.855469 162.46875 29.128906 C 163.457031 29.433594 164.441406 29.664063 165.363281 29.8125 C 164.59375 29.289063 163.796875 28.664063 163.027344 27.96875 C 162.332031 27.34375 161.691406 26.6875 161.132813 26.039063 "/>
<path style="fill:none;stroke-width:5;stroke-linecap:round;stroke-linejoin:round;stroke:rgb(0%,0%,0%);stroke-opacity:1;stroke-miterlimit:10;" d="M 1403.545938 1126.223125 C 1411.358438 1122.7075 1419.913125 1119.465312 1428.8975 1116.730937 C 1438.780313 1113.684062 1448.624063 1111.379375 1457.842813 1109.895 C 1450.1475 1115.129375 1442.17875 1121.379375 1434.483438 1128.3325 C 1427.530313 1134.5825 1421.124063 1141.145 1415.538125 1147.629375 L 1403.545938 1126.223125 Z M 1403.545938 1126.223125 " transform="matrix(0.1,0,0,-0.1,19.579,140.802)"/>
<path style="fill:none;stroke-width:3;stroke-linecap:round;stroke-linejoin:round;stroke:rgb(0%,0%,0%);stroke-opacity:1;stroke-miterlimit:10;" d="M 1174.952188 952.902812 C 1224.795938 952.902812 1273.350625 941.30125 1316.55375 919.73875 " transform="matrix(0.1,0,0,-0.1,19.579,140.802)"/>
<path style=" stroke:none;fill-rule:nonzero;fill:rgb(0%,0%,0%);fill-opacity:1;" d="M 147.050781 48.082031 C 148.464844 48.238281 149.863281 48.484375 151.234375 48.828125 C 150.136719 47.9375 148.976563 47.121094 147.757813 46.382813 "/>
<path style="fill:none;stroke-width:3;stroke-linecap:round;stroke-linejoin:round;stroke:rgb(0%,0%,0%);stroke-opacity:1;stroke-miterlimit:10;" d="M 1274.717813 927.199687 C 1288.858438 925.637187 1302.842813 923.17625 1316.55375 919.73875 C 1305.577188 928.645 1293.975625 936.809062 1281.788125 944.191875 L 1274.717813 927.199687 Z M 1274.717813 927.199687 " transform="matrix(0.1,0,0,-0.1,19.579,140.802)"/>
</g>
</g>
<g clip-path="url(#clip16)" clip-rule="nonzero">
<g style="fill:rgb(0%,0%,0%);fill-opacity:1;">
  <use xlink:href="#glyph0-1" x="24.381" y="147.166"/>
  <use xlink:href="#glyph0-2" x="27.397866" y="147.166"/>
  <use xlink:href="#glyph0-3" x="31.034703" y="147.166"/>
</g>
<g style="fill:rgb(0%,0%,0%);fill-opacity:1;">
  <use xlink:href="#glyph1-1" x="31.768" y="6.386"/>
</g>
<g style="fill:rgb(0%,0%,0%);fill-opacity:1;">
  <use xlink:href="#glyph1-2" x="3.27" y="71.23"/>
</g>
<g style="fill:rgb(0%,0%,0%);fill-opacity:1;">
  <use xlink:href="#glyph0-4" x="7.878" y="71.23"/>
</g>
<g style="fill:rgb(0%,0%,0%);fill-opacity:1;">
  <use xlink:href="#glyph0-5" x="15.698419" y="71.23"/>
</g>
<g style="fill:rgb(0%,0%,0%);fill-opacity:1;">
  <use xlink:href="#glyph1-3" x="-0.331" y="79.2"/>
</g>
<g style="fill:rgb(0%,0%,0%);fill-opacity:1;">
  <use xlink:href="#glyph0-4" x="7.878" y="79.2"/>
</g>
<g style="fill:rgb(0%,0%,0%);fill-opacity:1;">
  <use xlink:href="#glyph0-5" x="15.698419" y="79.2"/>
</g>
<g style="fill:rgb(0%,0%,0%);fill-opacity:1;">
  <use xlink:href="#glyph0-1" x="78.145" y="147.166"/>
  <use xlink:href="#glyph0-6" x="81.161866" y="147.166"/>
  <use xlink:href="#glyph0-3" x="84.987693" y="147.166"/>
</g>
<g style="fill:rgb(0%,0%,0%);fill-opacity:1;">
  <use xlink:href="#glyph1-1" x="85.626" y="6.386"/>
</g>
<g style="fill:rgb(0%,0%,0%);fill-opacity:1;">
  <use xlink:href="#glyph1-2" x="54.01" y="71.23"/>
</g>
<g style="fill:rgb(0%,0%,0%);fill-opacity:1;">
  <use xlink:href="#glyph0-4" x="58.618" y="71.23"/>
</g>
<g style="fill:rgb(0%,0%,0%);fill-opacity:1;">
  <use xlink:href="#glyph0-7" x="66.438419" y="71.23"/>
</g>
<g style="fill:rgb(0%,0%,0%);fill-opacity:1;">
  <use xlink:href="#glyph1-3" x="50.409" y="79.2"/>
</g>
<g style="fill:rgb(0%,0%,0%);fill-opacity:1;">
  <use xlink:href="#glyph0-4" x="58.618" y="79.2"/>
</g>
<g style="fill:rgb(0%,0%,0%);fill-opacity:1;">
  <use xlink:href="#glyph0-7" x="66.438419" y="79.2"/>
</g>
<g style="fill:rgb(0%,0%,0%);fill-opacity:1;">
  <use xlink:href="#glyph0-1" x="132.192" y="147.166"/>
  <use xlink:href="#glyph0-8" x="135.208866" y="147.166"/>
  <use xlink:href="#glyph0-3" x="138.656713" y="147.166"/>
</g>
<g style="fill:rgb(0%,0%,0%);fill-opacity:1;">
  <use xlink:href="#glyph1-1" x="139.484" y="6.386"/>
</g>
<g style="fill:rgb(0%,0%,0%);fill-opacity:1;">
  <use xlink:href="#glyph1-2" x="110.986" y="71.23"/>
</g>
<g style="fill:rgb(0%,0%,0%);fill-opacity:1;">
  <use xlink:href="#glyph0-4" x="115.595" y="71.23"/>
</g>
<g style="fill:rgb(0%,0%,0%);fill-opacity:1;">
  <use xlink:href="#glyph0-5" x="123.415419" y="71.23"/>
</g>
<g style="fill:rgb(0%,0%,0%);fill-opacity:1;">
  <use xlink:href="#glyph1-3" x="107.386" y="79.2"/>
</g>
<g style="fill:rgb(0%,0%,0%);fill-opacity:1;">
  <use xlink:href="#glyph0-4" x="115.595" y="79.2"/>
</g>
<g style="fill:rgb(0%,0%,0%);fill-opacity:1;">
  <use xlink:href="#glyph0-5" x="123.415419" y="79.2"/>
</g>
<g style="fill:rgb(0%,0%,0%);fill-opacity:1;">
  <use xlink:href="#glyph1-4" x="141.362" y="44.708"/>
</g>
</g>
</g>
</svg>
