<?xml version="1.0" encoding="UTF-8"?>
<svg xmlns="http://www.w3.org/2000/svg" xmlns:xlink="http://www.w3.org/1999/xlink" width="265pt" height="134pt" viewBox="0 0 191 97" version="1.1">
<defs>
<g>
<symbol overflow="visible" id="glyph0-0">
<path style="stroke:none;" d=""/>
</symbol>
<symbol overflow="visible" id="glyph0-1">
<path style="stroke:none;" d="M 0.78125 -4.21875 L 0.78125 -3.828125 C 1.125 -3.828125 1.46875 -3.890625 1.78125 -4.03125 L 1.78125 -0.390625 L 0.8125 -0.390625 L 0.8125 0 L 3.25 0 L 3.25 -0.390625 L 2.28125 -0.390625 L 2.28125 -4.6875 C 2.25 -4.6875 2.1875 -4.6875 2.15625 -4.671875 C 2.109375 -4.65625 2.0625 -4.59375 2.015625 -4.5625 C 1.734375 -4.328125 1.21875 -4.21875 0.78125 -4.21875 Z M 0.78125 -4.21875 "/>
</symbol>
<symbol overflow="visible" id="glyph0-2">
<path style="stroke:none;" d="M 0.625 -3.203125 C 0.734375 -3.609375 0.90625 -4.046875 1.34375 -4.203125 C 1.5 -4.265625 1.671875 -4.28125 1.859375 -4.265625 C 2.21875 -4.234375 2.578125 -4.09375 2.796875 -3.78125 C 2.9375 -3.578125 2.984375 -3.328125 2.953125 -3.078125 C 2.875 -2.40625 2.28125 -1.984375 1.796875 -1.609375 C 1.40625 -1.3125 0.59375 -0.59375 0.59375 -0.59375 L 0.453125 -0.484375 C 0.390625 -0.40625 0.390625 -0.421875 0.390625 -0.265625 L 0.390625 0 L 3.484375 0 L 3.484375 -0.4375 L 0.84375 -0.4375 C 1.109375 -0.671875 1.90625 -1.34375 2.140625 -1.515625 C 2.578125 -1.84375 3.0625 -2.15625 3.34375 -2.640625 C 3.640625 -3.203125 3.453125 -3.921875 2.96875 -4.3125 C 2.4375 -4.765625 1.46875 -4.828125 0.875 -4.390625 C 0.65625 -4.234375 0.5 -3.984375 0.390625 -3.734375 C 0.375 -3.671875 0.328125 -3.609375 0.328125 -3.546875 C 0.34375 -3.515625 0.390625 -3.484375 0.40625 -3.4375 C 0.46875 -3.359375 0.546875 -3.265625 0.625 -3.203125 Z M 0.625 -3.203125 "/>
</symbol>
<symbol overflow="visible" id="glyph1-0">
<path style="stroke:none;" d=""/>
</symbol>
<symbol overflow="visible" id="glyph1-1">
<path style="stroke:none;" d="M 1.765625 -4.84375 L 1.65625 -4.3125 L 0.734375 0 L 1.125 0 C 1.15625 0 1.25 0.015625 1.265625 -0.015625 C 1.296875 -0.0625 1.296875 -0.109375 1.296875 -0.15625 C 1.328125 -0.25 2.28125 -4.78125 2.296875 -4.84375 L 1.765625 -4.84375 Z M 1.765625 -4.84375 "/>
</symbol>
<symbol overflow="visible" id="glyph1-2">
<path style="stroke:none;" d="M 3.765625 -4.84375 L 3.65625 -4.296875 L 3.34375 -2.84375 L 3.34375 -2.84375 C 3.296875 -2.96875 3.171875 -3.078125 3.0625 -3.15625 C 2.828125 -3.3125 2.515625 -3.375 2.234375 -3.328125 C 1.828125 -3.28125 1.484375 -3.015625 1.265625 -2.78125 C 0.84375 -2.328125 0.609375 -1.71875 0.625 -1.109375 C 0.640625 -0.578125 0.9375 0 1.578125 0.0625 C 2.125 0.078125 2.546875 -0.234375 2.828125 -0.515625 L 2.71875 0 L 3.09375 0 C 3.140625 0 3.21875 0.015625 3.234375 -0.015625 C 3.25 -0.0625 3.265625 -0.109375 3.265625 -0.15625 C 3.296875 -0.25 4.25 -4.78125 4.265625 -4.84375 L 3.765625 -4.84375 Z M 3.15625 -2.734375 C 3.1875 -2.6875 3.234375 -2.625 3.25 -2.546875 C 3.265625 -2.484375 3.234375 -2.390625 3.21875 -2.328125 C 3.171875 -2.125 2.9375 -0.984375 2.9375 -0.96875 C 2.90625 -0.8125 2.84375 -0.75 2.71875 -0.640625 C 2.53125 -0.46875 2.3125 -0.359375 2.0625 -0.328125 C 1.765625 -0.3125 1.515625 -0.421875 1.359375 -0.5625 C 1.09375 -0.828125 1.109375 -1.25 1.171875 -1.59375 C 1.25 -1.96875 1.40625 -2.359375 1.703125 -2.609375 C 1.828125 -2.71875 1.96875 -2.796875 2.125 -2.859375 C 2.484375 -2.984375 2.90625 -3.015625 3.15625 -2.734375 Z M 2.828125 -0.515625 C 2.828125 -0.515625 2.84375 -0.515625 2.84375 -0.515625 C 2.84375 -0.515625 2.828125 -0.5 2.828125 -0.515625 Z M 2.828125 -0.515625 "/>
</symbol>
<symbol overflow="visible" id="glyph2-0">
<path style="stroke:none;" d=""/>
</symbol>
<symbol overflow="visible" id="glyph2-1">
<path style="stroke:none;" d="M 0.546875 -3.015625 L 0.546875 -2.734375 C 0.796875 -2.734375 1.046875 -2.78125 1.28125 -2.875 L 1.28125 -0.28125 L 0.578125 -0.28125 L 0.578125 0 L 2.328125 0 L 2.328125 -0.28125 L 1.640625 -0.28125 L 1.640625 -3.34375 C 1.609375 -3.34375 1.5625 -3.359375 1.546875 -3.34375 C 1.5 -3.328125 1.46875 -3.296875 1.4375 -3.265625 C 1.234375 -3.09375 0.875 -3.015625 0.546875 -3.015625 Z M 0.546875 -3.015625 "/>
</symbol>
<symbol overflow="visible" id="glyph2-2">
<path style="stroke:none;" d="M 0.4375 -2.28125 C 0.515625 -2.578125 0.65625 -2.890625 0.953125 -3 C 1.078125 -3.046875 1.203125 -3.0625 1.328125 -3.046875 C 1.578125 -3.03125 1.84375 -2.921875 2 -2.703125 C 2.109375 -2.5625 2.140625 -2.375 2.109375 -2.203125 C 2.046875 -1.71875 1.625 -1.421875 1.28125 -1.15625 C 1 -0.9375 0.421875 -0.421875 0.421875 -0.421875 L 0.328125 -0.34375 C 0.28125 -0.296875 0.28125 -0.296875 0.28125 -0.1875 L 0.28125 0 L 2.5 0 L 2.5 -0.3125 L 0.59375 -0.3125 C 0.796875 -0.484375 1.359375 -0.953125 1.53125 -1.078125 C 1.84375 -1.3125 2.1875 -1.546875 2.390625 -1.890625 C 2.609375 -2.28125 2.46875 -2.8125 2.125 -3.078125 C 1.75 -3.40625 1.046875 -3.453125 0.625 -3.140625 C 0.46875 -3.03125 0.359375 -2.84375 0.28125 -2.671875 C 0.265625 -2.625 0.234375 -2.578125 0.234375 -2.546875 C 0.25 -2.515625 0.28125 -2.484375 0.296875 -2.46875 C 0.34375 -2.40625 0.390625 -2.34375 0.4375 -2.28125 Z M 0.4375 -2.28125 "/>
</symbol>
<symbol overflow="visible" id="glyph3-0">
<path style="stroke:none;" d=""/>
</symbol>
<symbol overflow="visible" id="glyph3-1">
<path style="stroke:none;" d="M 0.484375 -0.84375 L 0.265625 -0.265625 C 0.65625 0 1.140625 0.09375 1.609375 0.0625 C 1.9375 0.046875 2.25 -0.046875 2.484375 -0.28125 C 2.640625 -0.4375 2.734375 -0.640625 2.8125 -0.84375 C 2.984375 -1.375 2.734375 -1.8125 2.328125 -1.984375 C 2.203125 -2.03125 1.890625 -2.09375 1.78125 -2.109375 C 1.65625 -2.140625 1.53125 -2.171875 1.4375 -2.28125 C 1.3125 -2.4375 1.390625 -2.6875 1.53125 -2.8125 C 1.609375 -2.875 1.6875 -2.921875 1.765625 -2.9375 C 2.046875 -3 2.453125 -2.921875 2.640625 -2.84375 C 2.703125 -2.8125 2.78125 -2.765625 2.84375 -2.71875 C 2.90625 -2.6875 2.9375 -2.65625 2.984375 -2.625 C 3.03125 -2.765625 3.09375 -2.890625 3.140625 -3.015625 C 3.15625 -3.046875 3.203125 -3.125 3.171875 -3.15625 C 3.15625 -3.203125 3.078125 -3.21875 3.046875 -3.234375 C 2.796875 -3.34375 2.5 -3.390625 2.171875 -3.390625 C 1.78125 -3.390625 1.390625 -3.328125 1.09375 -3.0625 C 0.8125 -2.78125 0.578125 -2.203125 0.859375 -1.796875 C 0.96875 -1.640625 1.125 -1.53125 1.296875 -1.46875 C 1.671875 -1.328125 2.328125 -1.375 2.203125 -0.84375 C 2.0625 -0.28125 1.25 -0.328125 0.78125 -0.609375 C 0.71875 -0.640625 0.65625 -0.6875 0.609375 -0.734375 C 0.5625 -0.78125 0.53125 -0.8125 0.484375 -0.84375 Z M 0.484375 -0.84375 "/>
</symbol>
<symbol overflow="visible" id="glyph4-0">
<path style="stroke:none;" d=""/>
</symbol>
<symbol overflow="visible" id="glyph4-1">
<path style="stroke:none;" d="M 2.359375 -1.71875 L 2.34375 -1.734375 C 2.5 -1.9375 2.671875 -2.1875 2.828125 -2.453125 L 2.390625 -2.625 L 0.546875 0.203125 L 0.875 0.34375 C 0.90625 0.34375 0.984375 0.390625 1 0.375 C 1.03125 0.359375 1.0625 0.28125 1.078125 0.265625 C 1.34375 -0.109375 1.78125 -0.8125 2.015625 -1.125 C 2.421875 -1.71875 3.28125 -1.859375 3.90625 -1.625 L 4.15625 -2 C 3.71875 -2.15625 3.234375 -2.125 2.8125 -1.953125 C 2.6875 -1.90625 2.453125 -1.796875 2.359375 -1.71875 Z M 2.359375 -1.71875 "/>
</symbol>
<symbol overflow="visible" id="glyph5-0">
<path style="stroke:none;" d=""/>
</symbol>
<symbol overflow="visible" id="glyph5-1">
<path style="stroke:none;" d="M 1.59375 -2.609375 L 1.5 -2.34375 C 1.734375 -2.265625 1.984375 -2.21875 2.234375 -2.234375 L 1.296875 0.1875 L 0.640625 -0.0625 L 0.546875 0.203125 L 2.171875 0.828125 L 2.265625 0.5625 L 1.625 0.328125 L 2.734375 -2.53125 C 2.703125 -2.546875 2.65625 -2.578125 2.640625 -2.578125 C 2.59375 -2.578125 2.5625 -2.546875 2.515625 -2.53125 C 2.265625 -2.453125 1.890625 -2.5 1.59375 -2.609375 Z M 1.59375 -2.609375 "/>
</symbol>
<symbol overflow="visible" id="glyph5-2">
<path style="stroke:none;" d="M 1.21875 -1.96875 C 1.40625 -2.21875 1.640625 -2.46875 1.96875 -2.453125 C 2.09375 -2.453125 2.21875 -2.421875 2.328125 -2.375 C 2.5625 -2.265625 2.765625 -2.078125 2.828125 -1.8125 C 2.890625 -1.640625 2.84375 -1.453125 2.765625 -1.3125 C 2.515625 -0.875 2.03125 -0.75 1.625 -0.625 C 1.28125 -0.515625 0.546875 -0.234375 0.546875 -0.234375 L 0.4375 -0.203125 C 0.375 -0.1875 0.375 -0.1875 0.328125 -0.078125 L 0.265625 0.09375 L 2.328125 0.890625 L 2.4375 0.59375 L 0.65625 -0.078125 C 0.921875 -0.171875 1.609375 -0.40625 1.8125 -0.453125 C 2.1875 -0.5625 2.59375 -0.65625 2.90625 -0.90625 C 3.25 -1.1875 3.328125 -1.734375 3.09375 -2.109375 C 2.859375 -2.5625 2.21875 -2.84375 1.703125 -2.71875 C 1.53125 -2.65625 1.34375 -2.53125 1.21875 -2.40625 C 1.1875 -2.359375 1.140625 -2.328125 1.125 -2.296875 C 1.140625 -2.25 1.15625 -2.21875 1.171875 -2.203125 C 1.1875 -2.125 1.203125 -2.046875 1.21875 -1.96875 Z M 1.21875 -1.96875 "/>
</symbol>
</g>
<clipPath id="clip1">
  <path d="M -209 665 L 403 665 L 403 -127 L -209 -127 L -209 665 Z M -209 665 "/>
</clipPath>
<clipPath id="clip2">
  <path d="M 0.246094 97.503906 L 193.003906 97.503906 L 193.003906 -2.199219 L 0.246094 -2.199219 L 0.246094 97.503906 Z M 0.246094 97.503906 "/>
</clipPath>
<clipPath id="clip3">
  <path d="M -209 665 L 403 665 L 403 -127 L -209 -127 L -209 665 Z M -209 665 "/>
</clipPath>
</defs>
<g id="surface0">
<g clip-path="url(#clip1)" clip-rule="nonzero">
<g clip-path="url(#clip2)" clip-rule="nonzero">
<path style="fill:none;stroke-width:7.5;stroke-linecap:butt;stroke-linejoin:miter;stroke:rgb(13.730068%,12.159915%,12.54902%);stroke-opacity:1;stroke-miterlimit:4;" d="M 330.507369 762.382514 C 380.614034 667.493593 413.795154 566.751249 408.047521 458.110311 C 405.896566 417.383182 397.715886 376.373961 381.107696 338.996682 C 366.932552 307.155472 326.628598 260.857013 294.540587 304.122976 C 269.434362 337.974096 266.366607 390.337548 263.087283 430.676799 C 259.984266 468.935617 259.349558 507.476528 260.407405 545.84113 C 263.404637 652.50742 316.649579 881.108265 463.619726 838.194918 C 473.105084 835.444515 478.817455 832.412019 487.950197 827.193304 C 492.710506 824.478162 497.1182 821.163574 501.561156 817.990031 C 510.164974 811.889777 518.486701 805.401646 526.491073 798.525637 C 548.776373 779.484382 568.628627 757.657462 585.624695 733.750108 C 602.091839 710.583248 615.914368 685.582785 627.233326 659.524475 C 638.446499 633.712996 647.226625 606.914193 654.032105 579.621727 C 660.696538 552.787662 665.456848 525.459935 668.630387 497.9559 C 671.662881 471.509713 673.284912 444.922479 673.672789 418.335245 C 674.060666 393.72266 673.425958 369.145336 671.87445 344.603274 C 670.534511 323.199493 668.524603 301.830973 665.844725 280.568238 C 663.729032 263.67794 661.225461 246.858165 658.263491 230.108913 C 656.324106 219.072037 654.208413 208.035161 651.775366 197.068809 C 650.929088 193.119512 650.047549 189.205476 649.060226 185.256179 C 632.028897 118.576524 573.988383 62.510607 512.880114 35.218141 C 480.615794 20.760892 445.671597 12.685989 410.445307 10.006109 C 315.873825 2.812746 207.550339 28.941579 140.024468 99.358961 C 90.481988 151.052443 59.487084 218.543113 40.974769 287.05637 C 26.411748 341.041854 17.561099 396.543586 13.223928 452.29215 C 4.196971 568.267497 6.065833 733.397492 115.059289 810.16196 C 176.061773 853.075307 270.492208 844.436219 315.732779 782.516878 " transform="matrix(0.110779,0,0,-0.110779,0.246,97.503)"/>
<path style=" stroke:none;fill-rule:nonzero;fill:rgb(13.730068%,12.159915%,12.54902%);fill-opacity:1;" d="M 68.246094 17.648438 L 62.820313 13.234375 L 65.316406 19.769531 L 68.246094 17.648438 "/>
<path style=" stroke:none;fill-rule:nonzero;fill:rgb(13.730068%,12.159915%,12.54902%);fill-opacity:1;" d="M 143.035156 48.992188 L 147.25 43.410156 L 140.808594 46.136719 L 143.035156 48.992188 "/>
<path style=" stroke:none;fill-rule:nonzero;fill:rgb(13.730068%,12.159915%,12.54902%);fill-opacity:1;" d="M 72.441406 27.050781 C 72.441406 27.96875 71.699219 28.714844 70.78125 28.714844 C 69.863281 28.714844 69.117188 27.96875 69.117188 27.050781 C 69.117188 26.132813 69.863281 25.390625 70.78125 25.390625 C 71.699219 25.390625 72.441406 26.132813 72.441406 27.050781 "/>
<path style=" stroke:none;fill-rule:nonzero;fill:rgb(13.730068%,12.159915%,12.54902%);fill-opacity:1;" d="M 137.246094 51.488281 C 137.246094 52.40625 136.503906 53.152344 135.582031 53.152344 C 134.667969 53.152344 133.921875 52.40625 133.921875 51.488281 C 133.921875 50.570313 134.667969 49.828125 135.582031 49.828125 C 136.503906 49.828125 137.246094 50.570313 137.246094 51.488281 "/>
<path style="fill:none;stroke-width:5;stroke-linecap:butt;stroke-linejoin:miter;stroke:rgb(13.730068%,12.159915%,12.54902%);stroke-opacity:1;stroke-miterlimit:4;" d="M 612.56452 689.849437 L 1262.047039 439.245364 " transform="matrix(0.110779,0,0,-0.110779,0.246,97.503)"/>
<path style="fill:none;stroke-width:5;stroke-linecap:butt;stroke-linejoin:miter;stroke:rgb(13.730068%,12.159915%,12.54902%);stroke-opacity:1;stroke-miterlimit:4;" d="M 1262.047039 439.245364 C 1293.817697 458.850804 1322.943738 482.511327 1348.473101 509.768531 C 1362.965599 525.248366 1376.223943 541.927095 1387.75447 559.698933 C 1417.127342 604.974806 1424.285437 655.963055 1433.453441 707.762321 C 1439.80052 743.623352 1451.436832 780.436445 1473.686871 809.809344 C 1486.592599 826.87595 1503.447621 841.156891 1520.514212 853.851061 C 1560.430288 883.611838 1612.088461 883.329745 1650.347244 848.138685 C 1674.254576 826.135457 1691.14486 794.999479 1700.736002 764.110332 C 1702.992741 755.718075 1704.932126 747.220033 1706.695204 738.8983 C 1724.960688 653.671052 1713.289114 563.084045 1683.246272 481.91188 C 1655.2486 406.240522 1612.370553 338.079881 1560.71238 276.513156 C 1351.963995 27.777947 1163.244171 122.772653 1163.20891 122.772653 C 1099.13867 155.037002 1076.712324 226.124354 1105.27418 289.348373 C 1119.696155 321.224844 1142.016717 349.293064 1166.347188 374.081958 C 1193.392798 401.656516 1228.513303 418.652599 1261.059715 438.610655 C 1261.377069 438.822225 1261.729685 439.033794 1262.047039 439.245364 Z M 1262.047039 439.245364 " transform="matrix(0.110779,0,0,-0.110779,0.246,97.503)"/>
<path style="fill:none;stroke-width:5;stroke-linecap:butt;stroke-linejoin:miter;stroke:rgb(13.730068%,12.159915%,12.54902%);stroke-opacity:1;stroke-miterlimit:4;" d="M 631.147358 423.34239 C 631.147358 423.34239 631.147358 475.000609 622.825632 508.322806 " transform="matrix(0.110779,0,0,-0.110779,0.246,97.503)"/>
<path style=" stroke:none;fill-rule:nonzero;fill:rgb(13.730068%,12.159915%,12.54902%);fill-opacity:1;" d="M 71.050781 41.871094 L 68.03125 36.433594 L 67.929688 42.648438 L 71.050781 41.871094 "/>
<path style="fill:none;stroke-width:5;stroke-linecap:butt;stroke-linejoin:miter;stroke:rgb(13.730068%,12.159915%,12.54902%);stroke-opacity:1;stroke-miterlimit:4;" d="M 1446.182861 623.310829 L 1462.826313 689.990483 " transform="matrix(0.110779,0,0,-0.110779,0.246,97.503)"/>
<path style=" stroke:none;fill-rule:nonzero;fill:rgb(13.730068%,12.159915%,12.54902%);fill-opacity:1;" d="M 163.488281 22.585938 L 163.738281 16.375 L 160.414063 21.628906 L 163.488281 22.585938 "/>
</g>
</g>
<g clip-path="url(#clip3)" clip-rule="nonzero">
<g style="fill:rgb(0%,0%,0%);fill-opacity:1;">
  <use xlink:href="#glyph0-1" x="68.083" y="73.996"/>
</g>
<g style="fill:rgb(0%,0%,0%);fill-opacity:1;">
  <use xlink:href="#glyph0-2" x="122.703" y="73.996"/>
</g>
<g style="fill:rgb(0%,0%,0%);fill-opacity:1;">
  <use xlink:href="#glyph1-1" x="63.393" y="48.749"/>
</g>
<g style="fill:rgb(0%,0%,0%);fill-opacity:1;">
  <use xlink:href="#glyph2-1" x="65.859" y="49.62"/>
</g>
<g style="fill:rgb(0%,0%,0%);fill-opacity:1;">
  <use xlink:href="#glyph1-1" x="162.955" y="27.205"/>
</g>
<g style="fill:rgb(0%,0%,0%);fill-opacity:1;">
  <use xlink:href="#glyph2-2" x="165.42" y="28.077"/>
</g>
<g style="fill:rgb(0%,0%,0%);fill-opacity:1;">
  <use xlink:href="#glyph1-2" x="69.411" y="19.552"/>
</g>
<g style="fill:rgb(0%,0%,0%);fill-opacity:1;">
  <use xlink:href="#glyph3-1" x="73.901" y="19.552"/>
</g>
<g style="fill:rgb(0%,0%,0%);fill-opacity:1;">
  <use xlink:href="#glyph2-1" x="76.708" y="20.424"/>
</g>
<g style="fill:rgb(0%,0%,0%);fill-opacity:1;">
  <use xlink:href="#glyph1-2" x="135.948" y="41.923"/>
</g>
<g style="fill:rgb(0%,0%,0%);fill-opacity:1;">
  <use xlink:href="#glyph3-1" x="140.438" y="41.923"/>
</g>
<g style="fill:rgb(0%,0%,0%);fill-opacity:1;">
  <use xlink:href="#glyph2-2" x="143.245" y="42.795"/>
</g>
<g style="fill:rgb(0%,0%,0%);fill-opacity:1;">
  <use xlink:href="#glyph4-1" x="100.292" y="30.802"/>
</g>
<g style="fill:rgb(0%,0%,0%);fill-opacity:1;">
  <use xlink:href="#glyph5-1" x="102.369466" y="32.533509"/>
  <use xlink:href="#glyph5-2" x="104.956507" y="33.526587"/>
</g>
</g>
</g>
</svg>
