<?xml version="1.0" encoding="UTF-8"?>
<svg xmlns="http://www.w3.org/2000/svg" xmlns:xlink="http://www.w3.org/1999/xlink" width="62.35382907247958pt" height="408.76399058625503pt" viewBox="0 0 36 236" version="1.1">
<defs>
<g>
<symbol overflow="visible" id="glyph0-0">
<path style="stroke:none;" d=""/>
</symbol>
<symbol overflow="visible" id="glyph0-1">
<path style="stroke:none;" d="M 0.578125 -4.84375 L 0.578125 0 L 1.078125 0 L 1.078125 -4.84375 L 0.578125 -4.84375 Z M 0.578125 -4.84375 "/>
</symbol>
<symbol overflow="visible" id="glyph0-2">
<path style="stroke:none;" d="M 3.1875 -0.796875 C 3.125 -0.765625 3.078125 -0.71875 3.03125 -0.6875 C 2.9375 -0.625 2.84375 -0.5625 2.734375 -0.515625 C 2.3125 -0.3125 1.671875 -0.265625 1.296875 -0.5625 C 1.03125 -0.75 0.859375 -1.109375 0.84375 -1.5 C 0.8125 -1.953125 0.921875 -2.453125 1.296875 -2.75 C 1.5 -2.90625 1.765625 -3 2.140625 -2.96875 C 2.46875 -2.9375 2.65625 -2.890625 2.921875 -2.75 C 2.984375 -2.71875 3.03125 -2.671875 3.09375 -2.65625 L 3.171875 -3.078125 C 3.015625 -3.15625 2.875 -3.234375 2.703125 -3.28125 C 2.296875 -3.421875 1.671875 -3.40625 1.3125 -3.234375 C 0.96875 -3.078125 0.6875 -2.796875 0.515625 -2.46875 C 0.265625 -1.96875 0.265625 -1.359375 0.515625 -0.84375 C 0.609375 -0.65625 0.734375 -0.484375 0.90625 -0.34375 C 1.375 0.09375 2.09375 0.140625 2.6875 -0.0625 C 2.828125 -0.125 2.953125 -0.1875 3.078125 -0.265625 C 3.125 -0.296875 3.1875 -0.328125 3.203125 -0.359375 C 3.21875 -0.40625 3.1875 -0.796875 3.1875 -0.796875 Z M 3.1875 -0.796875 "/>
</symbol>
<symbol overflow="visible" id="glyph0-3">
<path style="stroke:none;" d="M 0.703125 -2.78125 C 0.25 -2.234375 0.140625 -1.421875 0.5 -0.78125 C 0.78125 -0.28125 1.359375 0.125 2.109375 0.046875 C 2.75 -0.015625 3.28125 -0.484375 3.46875 -1 C 3.734375 -1.703125 3.53125 -2.53125 2.953125 -3.015625 C 2.796875 -3.140625 2.625 -3.21875 2.4375 -3.296875 C 1.71875 -3.53125 1.0625 -3.21875 0.703125 -2.78125 Z M 2.25 -2.953125 C 2.359375 -2.921875 2.453125 -2.875 2.546875 -2.828125 C 2.984375 -2.578125 3.09375 -2.015625 3.0625 -1.546875 C 3.046875 -1.21875 2.96875 -0.90625 2.734375 -0.671875 C 2.34375 -0.25 1.53125 -0.234375 1.125 -0.671875 C 0.90625 -0.90625 0.828125 -1.21875 0.796875 -1.546875 C 0.765625 -2 0.859375 -2.390625 1.09375 -2.640625 C 1.359375 -2.921875 1.78125 -3.046875 2.25 -2.953125 Z M 2.25 -2.953125 "/>
</symbol>
<symbol overflow="visible" id="glyph0-4">
<path style="stroke:none;" d="M 0.078125 -1.84375 L 0.078125 -1.453125 L 2.140625 -1.453125 L 2.140625 -1.84375 L 0.078125 -1.84375 Z M 0.078125 -1.84375 "/>
</symbol>
<symbol overflow="visible" id="glyph0-5">
<path style="stroke:none;" d="M 1.09375 -2.8125 L 1.078125 -2.8125 L 1.078125 -3.296875 L 0.578125 -3.296875 L 0.578125 1.15625 L 1.09375 1.15625 L 1.09375 -0.453125 C 1.15625 -0.390625 1.21875 -0.3125 1.28125 -0.25 C 1.453125 -0.09375 1.671875 0.015625 1.90625 0.046875 C 2.015625 0.0625 2.109375 0.0625 2.21875 0.046875 C 2.78125 -0.015625 3.203125 -0.484375 3.390625 -1 C 3.640625 -1.71875 3.421875 -2.53125 3.03125 -2.96875 C 2.890625 -3.140625 2.6875 -3.265625 2.46875 -3.3125 C 2.125 -3.40625 1.71875 -3.28125 1.484375 -3.140625 C 1.359375 -3.078125 1.15625 -2.9375 1.09375 -2.8125 Z M 2.59375 -2.640625 C 3.15625 -2.078125 3.109375 -1.015625 2.4375 -0.53125 C 2.359375 -0.484375 2.265625 -0.4375 2.1875 -0.40625 C 1.8125 -0.28125 1.453125 -0.328125 1.203125 -0.640625 C 1.171875 -0.6875 1.125 -0.75 1.09375 -0.8125 C 1.09375 -0.859375 1.09375 -0.90625 1.09375 -0.9375 L 1.09375 -2.3125 C 1.09375 -2.375 1.078125 -2.46875 1.109375 -2.53125 C 1.140625 -2.578125 1.1875 -2.640625 1.234375 -2.671875 C 1.609375 -3.046875 2.21875 -3.015625 2.59375 -2.640625 Z M 2.59375 -2.640625 "/>
</symbol>
<symbol overflow="visible" id="glyph0-6">
<path style="stroke:none;" d="M 1.0625 -2.453125 L 1.0625 -2.453125 L 1.0625 -3.296875 L 0.578125 -3.296875 L 0.578125 0 L 1.078125 0 L 1.078125 -1.3125 C 1.078125 -1.578125 1.046875 -1.859375 1.15625 -2.109375 C 1.28125 -2.46875 1.609375 -2.703125 1.953125 -2.828125 C 2.109375 -2.875 2.28125 -2.90625 2.453125 -2.90625 L 2.453125 -3.34375 C 2 -3.34375 1.5625 -3.140625 1.28125 -2.796875 C 1.203125 -2.6875 1.109375 -2.578125 1.0625 -2.453125 Z M 1.0625 -2.453125 "/>
</symbol>
<symbol overflow="visible" id="glyph0-7">
<path style="stroke:none;" d="M 0.578125 -4.84375 L 0.578125 0 L 1.09375 0 L 1.09375 -1.53125 C 1.09375 -1.875 1.0625 -2.203125 1.21875 -2.515625 C 1.296875 -2.671875 1.421875 -2.8125 1.609375 -2.90625 C 1.734375 -2.96875 1.875 -2.96875 2.015625 -2.953125 C 2.25 -2.9375 2.484375 -2.875 2.609375 -2.6875 C 2.71875 -2.53125 2.734375 -2.34375 2.734375 -2.15625 L 2.734375 0 L 3.234375 0 L 3.234375 -1.875 C 3.234375 -2.21875 3.28125 -2.59375 3.109375 -2.90625 C 2.96875 -3.171875 2.6875 -3.296875 2.40625 -3.328125 C 2.078125 -3.375 1.765625 -3.3125 1.5 -3.140625 C 1.34375 -3.03125 1.140625 -2.8125 1.078125 -2.640625 L 1.078125 -2.640625 L 1.078125 -4.84375 L 0.578125 -4.84375 Z M 0.578125 -4.84375 "/>
</symbol>
<symbol overflow="visible" id="glyph0-8">
<path style="stroke:none;" d="M 0.578125 -4.84375 L 0.578125 0 L 1.09375 0 L 1.09375 -0.46875 L 1.09375 -0.46875 C 1.15625 -0.359375 1.265625 -0.265625 1.359375 -0.1875 C 1.671875 0.0625 2.1875 0.140625 2.640625 -0.078125 C 2.84375 -0.1875 3.015625 -0.359375 3.15625 -0.546875 C 3.84375 -1.5 3.421875 -3.09375 2.453125 -3.3125 C 2.328125 -3.359375 2.171875 -3.359375 2.03125 -3.328125 C 1.625 -3.28125 1.3125 -3.078125 1.078125 -2.828125 L 1.078125 -4.84375 L 0.578125 -4.84375 Z M 1.8125 -2.953125 C 2.140625 -2.984375 2.515625 -2.84375 2.734375 -2.578125 C 2.90625 -2.359375 2.96875 -2.078125 2.96875 -1.8125 C 3 -1.4375 2.953125 -1.03125 2.71875 -0.734375 C 2.515625 -0.46875 2.1875 -0.359375 1.875 -0.328125 C 1.609375 -0.328125 1.375 -0.421875 1.203125 -0.640625 C 1.171875 -0.6875 1.125 -0.75 1.09375 -0.8125 C 1.09375 -0.859375 1.09375 -0.90625 1.09375 -0.9375 L 1.09375 -2.328125 C 1.09375 -2.390625 1.078125 -2.46875 1.109375 -2.53125 C 1.140625 -2.609375 1.203125 -2.65625 1.265625 -2.71875 C 1.421875 -2.84375 1.609375 -2.9375 1.8125 -2.953125 Z M 1.8125 -2.953125 "/>
</symbol>
<symbol overflow="visible" id="glyph0-9">
<path style="stroke:none;" d="M 3.140625 -0.796875 C 3.09375 -0.765625 3.046875 -0.71875 3 -0.6875 C 2.59375 -0.390625 1.875 -0.140625 1.328125 -0.53125 C 0.984375 -0.78125 0.78125 -1.15625 0.78125 -1.734375 L 3.203125 -1.734375 C 3.203125 -2.25 3.078125 -2.734375 2.78125 -3.03125 C 2.4375 -3.34375 1.90625 -3.4375 1.46875 -3.328125 C 1.28125 -3.28125 1.109375 -3.1875 0.953125 -3.0625 C 0.515625 -2.71875 0.296875 -2.171875 0.296875 -1.609375 C 0.3125 -0.828125 0.890625 -0.109375 1.671875 0.03125 C 2.0625 0.109375 2.484375 0.015625 2.84375 -0.15625 C 2.90625 -0.1875 3.140625 -0.3125 3.15625 -0.375 C 3.1875 -0.40625 3.15625 -0.703125 3.140625 -0.796875 Z M 2.78125 -2.046875 L 0.8125 -2.046875 C 0.90625 -2.359375 1.0625 -2.65625 1.34375 -2.84375 C 1.6875 -3.0625 2.203125 -3.03125 2.5 -2.71875 C 2.671875 -2.53125 2.75 -2.296875 2.78125 -2.046875 Z M 2.78125 -2.046875 "/>
</symbol>
<symbol overflow="visible" id="glyph0-10">
<path style="stroke:none;" d="M 0.84375 -4.234375 L 0.84375 -3.296875 L 0.140625 -3.296875 L 0.140625 -2.90625 L 0.828125 -2.90625 L 0.828125 -0.921875 C 0.828125 -0.625 0.84375 -0.265625 1.09375 -0.0625 C 1.234375 0.0625 1.40625 0.0625 1.578125 0.046875 C 1.96875 0.03125 2.3125 -0.09375 2.578125 -0.25 L 2.484375 -0.625 C 2.40625 -0.578125 2.328125 -0.515625 2.25 -0.46875 C 2.03125 -0.359375 1.640625 -0.265625 1.453125 -0.453125 C 1.28125 -0.640625 1.3125 -0.953125 1.3125 -1.1875 L 1.3125 -2.90625 L 2.453125 -2.90625 L 2.453125 -3.296875 L 1.3125 -3.296875 L 1.3125 -4.234375 L 0.84375 -4.234375 Z M 0.84375 -4.234375 "/>
</symbol>
<symbol overflow="visible" id="glyph0-11">
<path style="stroke:none;" d="M 1.078125 -2.625 L 1.0625 -2.625 L 1.0625 -3.296875 L 0.578125 -3.296875 L 0.578125 0 L 1.09375 0 L 1.09375 -1.53125 C 1.09375 -1.875 1.0625 -2.203125 1.21875 -2.515625 C 1.296875 -2.671875 1.421875 -2.8125 1.609375 -2.90625 C 1.734375 -2.96875 1.875 -2.96875 2.015625 -2.953125 C 2.25 -2.9375 2.484375 -2.875 2.609375 -2.6875 C 2.71875 -2.53125 2.734375 -2.34375 2.734375 -2.15625 L 2.734375 0 L 3.234375 0 L 3.234375 -1.875 C 3.234375 -2.21875 3.28125 -2.609375 3.09375 -2.921875 C 2.953125 -3.171875 2.6875 -3.296875 2.40625 -3.328125 C 2.078125 -3.375 1.765625 -3.3125 1.484375 -3.125 C 1.328125 -3.015625 1.140625 -2.796875 1.078125 -2.625 Z M 1.078125 -2.625 "/>
</symbol>
<symbol overflow="visible" id="glyph0-12">
<path style="stroke:none;" d="M 1.078125 -2.625 L 1.0625 -2.625 L 1.0625 -3.296875 L 0.578125 -3.296875 L 0.578125 0 L 1.09375 0 L 1.09375 -1.53125 C 1.09375 -1.875 1.0625 -2.203125 1.21875 -2.515625 C 1.296875 -2.671875 1.421875 -2.8125 1.609375 -2.90625 C 1.734375 -2.96875 1.875 -2.96875 2.015625 -2.953125 C 2.25 -2.9375 2.484375 -2.875 2.609375 -2.6875 C 2.71875 -2.53125 2.734375 -2.34375 2.734375 -2.15625 L 2.734375 0 L 3.234375 0 L 3.234375 -1.53125 C 3.234375 -1.875 3.21875 -2.203125 3.375 -2.515625 C 3.453125 -2.671875 3.578125 -2.8125 3.75 -2.90625 C 3.890625 -2.96875 4.03125 -2.96875 4.171875 -2.953125 C 4.390625 -2.9375 4.640625 -2.875 4.765625 -2.6875 C 4.875 -2.53125 4.890625 -2.34375 4.890625 -2.15625 L 4.890625 0 L 5.390625 0 L 5.390625 -1.875 C 5.390625 -2.21875 5.421875 -2.609375 5.25 -2.921875 C 5.109375 -3.171875 4.84375 -3.296875 4.5625 -3.328125 C 4.421875 -3.34375 4.28125 -3.359375 4.15625 -3.328125 C 3.859375 -3.296875 3.59375 -3.125 3.40625 -2.90625 C 3.328125 -2.8125 3.25 -2.703125 3.21875 -2.609375 C 3.1875 -2.671875 3.1875 -2.734375 3.15625 -2.796875 C 3.03125 -3.125 2.75 -3.3125 2.328125 -3.34375 C 2.21875 -3.34375 2.109375 -3.359375 2 -3.328125 C 1.734375 -3.296875 1.515625 -3.171875 1.328125 -2.984375 C 1.21875 -2.890625 1.125 -2.75 1.078125 -2.625 Z M 1.078125 -2.625 "/>
</symbol>
<symbol overflow="visible" id="glyph0-13">
<path style="stroke:none;" d="M 0.828125 -3.296875 L 0.203125 -3.296875 L 0.203125 -2.90625 L 0.828125 -2.90625 L 0.828125 0 L 1.328125 0 L 1.328125 -2.90625 L 2.21875 -2.90625 L 2.21875 -3.296875 L 1.3125 -3.296875 L 1.3125 -3.875 C 1.3125 -3.984375 1.296875 -4.09375 1.328125 -4.1875 C 1.484375 -4.515625 2.03125 -4.546875 2.453125 -4.453125 C 2.53125 -4.453125 2.609375 -4.421875 2.6875 -4.390625 L 2.6875 -4.84375 C 2.1875 -4.921875 1.625 -4.953125 1.21875 -4.625 C 1.140625 -4.5625 1.078125 -4.5 1.03125 -4.4375 C 0.875 -4.25 0.828125 -4.0625 0.828125 -3.734375 L 0.828125 -3.296875 Z M 0.828125 -3.296875 "/>
</symbol>
</g>
<clipPath id="clip1">
  <path d="M -288 666 L 324 666 L 324 -126 L -288 -126 L -288 666 Z M -288 666 "/>
</clipPath>
<clipPath id="clip2">
  <path d="M -0.550781 235.695313 L 21.558594 235.695313 L 21.558594 -1.199219 L -0.550781 -1.199219 L -0.550781 235.695313 Z M -0.550781 235.695313 "/>
</clipPath>
<clipPath id="clip3">
  <path d="M -288 666 L 324 666 L 324 -126 L -288 -126 L -288 666 Z M -288 666 "/>
</clipPath>
</defs>
<g id="surface0">
<g clip-path="url(#clip1)" clip-rule="nonzero">
<g clip-path="url(#clip2)" clip-rule="nonzero">
<path style=" stroke:none;fill-rule:nonzero;fill:rgb(0%,0%,0%);fill-opacity:1;" d="M 0.503906 34.09375 C 0.503906 34.09375 9.035156 34.398438 13.816406 33.246094 L 13.894531 33.1875 L 13.925781 33.207031 L 13.96875 33.25 L 11.558594 175.515625 C 11.558594 186.441406 9.582031 177.097656 10.636719 182.230469 C 11.691406 187.363281 10.636719 225.265625 10.636719 225.265625 C 8.925781 227.765625 5.988281 225.75 6.292969 226.054688 C 6.433594 226.195313 3.253906 112.5625 3.265625 113.132813 L 0.503906 34.09375 L 0.503906 34.03125 "/>
<path style="fill:none;stroke-width:7.5;stroke-linecap:butt;stroke-linejoin:miter;stroke:rgb(0%,0%,0%);stroke-opacity:1;stroke-miterlimit:4;" d="M 137.508038 2210.755824 L 137.211229 1911.57302 L 137.211229 1911.647222 L 115.024806 571.594682 C 113.318158 478.285561 96.251679 556.56876 106.26896 507.817991 C 116.286241 459.067222 106.26896 99.07581 106.26896 99.07581 C 93.765909 76.592579 65.012601 91.5814 65.012601 91.5814 L 36.259294 1164.098325 L 10.028857 1912.834456 L 10.028857 2210.755824 L 9.991756 2210.755824 C 9.991756 2222.36845 38.745063 2231.792114 74.176559 2231.792114 C 109.645155 2231.792114 137.508038 2222.36845 137.508038 2210.755824 Z M 137.508038 2210.755824 " transform="matrix(0.105287,0,0,-0.105287,-0.552,235.697)"/>
<path style=" stroke:none;fill-rule:nonzero;fill:rgb(100%,100%,100%);fill-opacity:1;" d="M 6.890625 36.199219 C 8.027344 36.085938 9.152344 35.855469 10.289063 35.730469 C 10.835938 35.671875 11.34375 35.472656 11.871094 35.339844 C 12.257813 35.246094 12.699219 35.316406 13.058594 35.214844 C 13.273438 35.148438 13.582031 34.988281 13.660156 34.742188 C 13.8125 34.273438 13.601563 34.449219 13.203125 34.441406 C 11.5 34.417969 9.730469 34.742188 8.019531 34.800781 C 5.796875 34.882813 3.570313 34.917969 1.347656 34.878906 C 1.152344 34.878906 1.042969 35.425781 1.085938 35.5625 C 1.3125 35.917969 2.25 35.949219 2.582031 35.996094 C 3.984375 36.191406 5.449219 36.324219 6.859375 36.203125 C 6.871094 36.203125 6.882813 36.203125 6.890625 36.199219 "/>
<path style=" stroke:none;fill-rule:nonzero;fill:rgb(100%,100%,100%);fill-opacity:1;" d="M 6.730469 69.859375 C 6.96875 69.976563 7.144531 70.1875 7.214844 70.542969 C 7.273438 70.832031 7.214844 71.195313 7.214844 71.492188 C 7.214844 73.039063 7.214844 77.640625 7.214844 79.1875 C 7.214844 84.265625 7.214844 89.34375 7.214844 94.417969 C 7.214844 98.953125 7.214844 103.480469 7.214844 108.015625 C 7.214844 108.886719 7.214844 109.761719 7.214844 110.632813 C 7.214844 110.921875 7.265625 111.394531 7.324219 111.675781 C 7.324219 111.675781 8.003906 114.84375 6.558594 112.871094 C 5.109375 110.898438 4.816406 112.355469 4.816406 112.355469 C 4.757813 112.640625 4.707031 112.632813 4.699219 112.34375 L 4.597656 109.1875 C 4.589844 108.898438 4.582031 108.421875 4.582031 108.132813 C 4.582031 105.179688 4.582031 102.226563 4.582031 99.273438 C 4.582031 93.757813 4.582031 88.238281 4.582031 82.722656 C 4.582031 80.707031 4.582031 78.691406 4.582031 76.675781 C 4.582031 75.59375 4.332031 71.027344 4.628906 69.984375 C 5.261719 69.835938 6.167969 69.578125 6.730469 69.859375 "/>
<path style=" stroke:none;fill-rule:nonzero;fill:rgb(100%,100%,100%);fill-opacity:1;" d="M 6.558594 115.898438 C 6.558594 117.425781 6.175781 118.664063 5.703125 118.664063 C 5.226563 118.664063 4.847656 117.425781 4.847656 115.898438 C 4.847656 114.371094 5.226563 113.132813 5.703125 113.132813 C 6.175781 113.132813 6.558594 114.371094 6.558594 115.898438 "/>
<path style=" stroke:none;fill-rule:nonzero;fill:rgb(100%,100%,100%);fill-opacity:1;" d="M 10.671875 109.253906 C 10.671875 110.597656 10.335938 111.6875 9.917969 111.6875 C 9.5 111.6875 9.164063 110.597656 9.164063 109.253906 C 9.164063 107.90625 9.5 106.816406 9.917969 106.816406 C 10.335938 106.816406 10.671875 107.90625 10.671875 109.253906 "/>
<path style=" stroke:none;fill-rule:nonzero;fill:rgb(100%,100%,100%);fill-opacity:1;" d="M 4.714844 119.714844 C 4.714844 119.714844 6.160156 120.242188 7.082031 118.925781 C 8.003906 117.609375 7.476563 170.515625 7.476563 170.515625 L 7.476563 216.183594 L 6.292969 164.726563 L 4.714844 119.714844 "/>
<path style=" stroke:none;fill-rule:nonzero;fill:rgb(100%,100%,100%);fill-opacity:1;" d="M 10.527344 88.492188 L 10.761719 105.238281 C 10.765625 105.527344 10.535156 105.800781 10.25 105.847656 C 10.25 105.847656 9.058594 106.027344 8.792969 106.554688 C 8.53125 107.082031 8.433594 85.1875 8.433594 85.1875 C 8.429688 84.898438 8.421875 84.625 8.414063 84.582031 C 8.40625 84.535156 8.398438 84.179688 8.398438 83.890625 C 8.398438 82 8.398438 80.109375 8.398438 78.21875 C 8.398438 77.023438 8.398438 72.777344 8.398438 71.582031 C 8.398438 71.253906 8.28125 70.695313 8.34375 70.390625 C 8.535156 69.464844 10.769531 69.574219 10.769531 70.492188 L 10.769531 83.40625 "/>
<path style=" stroke:none;fill-rule:nonzero;fill:rgb(100%,100%,100%);fill-opacity:1;" d="M 10.769531 83.40625 L 10.769531 83.890625 C 10.769531 84.179688 10.582031 84.566406 10.355469 84.746094 C 10.355469 84.746094 8.925781 85.890625 9.453125 86.15625 L 10.082031 86.628906 C 10.316406 86.804688 10.507813 87.179688 10.511719 87.472656 L 10.527344 88.492188 "/>
<path style=" stroke:none;fill-rule:nonzero;fill:rgb(100%,100%,100%);fill-opacity:1;" d="M 8.792969 112.082031 C 8.792969 112.082031 9.582031 112.34375 10.242188 112.476563 C 10.898438 112.609375 9.582031 180.382813 9.582031 180.382813 L 8.792969 158.277344 L 8.398438 112.082031 "/>
<path style=" stroke:none;fill-rule:nonzero;fill:rgb(100%,100%,100%);fill-opacity:1;" d="M 8.667969 224.585938 L 8.742188 226.265625 L 8.195313 226.265625 C 8.195313 226.265625 8.375 225.535156 7.789063 225.351563 C 7.207031 225.167969 7.902344 224.621094 7.902344 224.621094 L 8.667969 224.585938 "/>
<path style="fill:none;stroke-width:5;stroke-linecap:butt;stroke-linejoin:miter;stroke:rgb(0%,0%,0%);stroke-opacity:1;stroke-miterlimit:4;" d="M 90.686522 86.461456 C 90.686522 86.461456 90.352613 53.441528 87.570035 43.350045 C 84.787457 33.295662 87.570035 13.817615 87.941045 12.073866 " transform="matrix(0.105287,0,0,-0.105287,-0.552,235.697)"/>
<path style="fill:none;stroke-width:5;stroke-linecap:butt;stroke-linejoin:miter;stroke:rgb(0%,0%,0%);stroke-opacity:1;stroke-miterlimit:4;" d="M 83.748628 85.422627 C 83.748628 85.422627 82.004879 66.278489 77.849562 57.930754 C 73.694245 49.620121 78.554482 12.073866 79.2223 9.996208 " transform="matrix(0.105287,0,0,-0.105287,-0.552,235.697)"/>
<path style=" stroke:none;fill-rule:nonzero;fill:rgb(100%,100%,100%);fill-opacity:1;" d="M 11.636719 42.648438 C 11.636719 42.648438 7.742188 69.183594 7.726563 69.285156 C 7.835938 68.523438 7.421875 67.386719 7.300781 66.636719 C 6.953125 64.46875 6.605469 62.300781 6.261719 60.136719 C 5.453125 55.09375 4.648438 50.046875 3.839844 45.003906 C 3.640625 43.746094 3.585938 42.332031 3.199219 41.113281 C 2.953125 40.335938 2.316406 39.015625 3.28125 38.5 C 3.6875 38.285156 4.292969 38.351563 4.746094 38.160156 C 5.328125 37.910156 5.847656 37.53125 6.460938 37.347656 C 7.136719 37.144531 7.929688 37.128906 8.609375 37.296875 C 9.222656 37.445313 9.464844 37.816406 9.953125 38.097656 C 10.757813 38.5625 11.585938 37.972656 12.019531 39.050781 C 12.359375 39.894531 11.855469 40.675781 11.765625 41.511719 L 11.636719 42.648438 "/>
<path style="fill:none;stroke-width:10;stroke-linecap:butt;stroke-linejoin:miter;stroke:rgb(0%,0%,0%);stroke-opacity:1;stroke-miterlimit:4;" d="M 115.766827 1833.549529 C 115.766827 1833.549529 78.777088 1581.52215 78.628684 1580.557522 C 79.667513 1587.792226 75.734802 1598.588629 74.58467 1605.712029 C 71.282677 1626.303107 67.980685 1646.894186 64.715793 1667.448163 C 57.035877 1715.345608 49.393063 1763.280155 41.713147 1811.1776 C 39.820994 1823.124136 39.301579 1836.554713 35.628576 1848.130238 C 33.29121 1855.513345 27.24374 1868.053498 36.407698 1872.950835 C 40.266206 1874.991393 46.016868 1874.360675 50.320589 1876.178626 C 55.848644 1878.553093 60.783082 1882.151894 66.607946 1883.895643 C 73.026426 1885.824897 80.557938 1885.973301 87.013519 1884.377956 C 92.838383 1882.968117 95.138647 1879.443518 99.776278 1876.772243 C 107.419092 1872.357219 115.284513 1877.959476 119.402729 1867.719588 C 122.63052 1859.705763 117.844485 1852.285555 116.991161 1844.345932 L 115.766827 1833.549529 Z M 115.766827 1833.549529 " transform="matrix(0.105287,0,0,-0.105287,-0.552,235.697)"/>
<path style=" stroke:none;fill-rule:nonzero;fill:rgb(100%,100%,100%);fill-opacity:1;" d="M 12.984375 54.660156 C 12.898438 55.210938 12.804688 55.683594 12.765625 56.238281 C 12.753906 56.441406 12.269531 56.460938 12.15625 56.382813 C 11.980469 56.261719 12.046875 55.703125 12.035156 55.53125 C 11.980469 54.695313 11.933594 53.863281 11.855469 53.03125 C 11.785156 52.320313 11.875 51.183594 12.375 50.636719 C 13.382813 49.53125 13.003906 51.425781 12.976563 51.972656 C 12.945313 52.546875 12.992188 53.015625 13.042969 53.535156 C 13.070313 53.785156 13.054688 54.21875 12.984375 54.660156 "/>
<path style=" stroke:none;fill-rule:nonzero;fill:rgb(100%,100%,100%);fill-opacity:1;" d="M 2.691406 52.855469 C 2.695313 53.167969 2.609375 54.441406 2.410156 54.535156 C 1.976563 54.742188 1.617188 54.175781 1.476563 53.878906 C 1.117188 53.101563 1.164063 51.925781 1.324219 51.113281 C 1.371094 50.878906 1.535156 50.644531 1.527344 50.394531 C 1.507813 49.957031 1.203125 49.703125 1.210938 49.285156 C 1.210938 49.171875 1.359375 48.636719 1.394531 48.484375 C 1.5 47.992188 1.902344 47.386719 2.453125 47.679688 C 3.390625 48.175781 2.671875 49.769531 2.710938 50.523438 C 2.738281 51.082031 2.683594 51.679688 2.660156 52.183594 C 2.652344 52.390625 2.6875 52.628906 2.691406 52.855469 "/>
<path style=" stroke:none;fill-rule:nonzero;fill:rgb(0%,0%,0%);fill-opacity:1;" d="M 10.980469 186.5625 L 10.980469 183.492188 C 10.980469 183.492188 10.050781 182.023438 10.980469 181.09375 C 11.910156 180.164063 11.554688 177.4375 11.554688 177.4375 L 9.582031 182.789063 L 10.589844 186.476563 "/>
<path style=" stroke:none;fill-rule:nonzero;fill:rgb(100%,100%,100%);fill-opacity:1;" d="M 10.980469 181.09375 C 10.980469 181.09375 9.636719 182.644531 11.308594 184.320313 C 11.308594 184.320313 12.214844 184.386719 12.097656 181.984375 C 11.984375 179.582031 10.980469 181.09375 10.980469 181.09375 "/>
<path style=" stroke:none;fill-rule:nonzero;fill:rgb(100%,100%,100%);fill-opacity:1;" d="M 6.265625 67.964844 C 6.265625 68.328125 5.820313 68.621094 5.277344 68.621094 C 4.730469 68.621094 4.289063 68.328125 4.289063 67.964844 C 4.289063 67.601563 4.730469 67.304688 5.277344 67.304688 C 5.820313 67.304688 6.265625 67.601563 6.265625 67.964844 "/>
<path style=" stroke:none;fill-rule:nonzero;fill:rgb(100%,100%,100%);fill-opacity:1;" d="M 11.289063 67.859375 C 11.289063 68.28125 10.777344 68.621094 10.144531 68.621094 C 9.515625 68.621094 9.003906 68.28125 9.003906 67.859375 C 9.003906 67.4375 9.515625 67.097656 10.144531 67.097656 C 10.777344 67.097656 11.289063 67.4375 11.289063 67.859375 "/>
<path style=" stroke:none;fill-rule:nonzero;fill:rgb(100%,100%,100%);fill-opacity:1;" d="M 4.261719 53.527344 C 4.019531 53.855469 4.261719 54.414063 4.25 54.828125 C 4.234375 55.339844 4.21875 55.855469 4.207031 56.367188 C 4.167969 57.625 4.132813 58.878906 4.097656 60.132813 C 4.050781 61.734375 4.003906 63.335938 3.960938 64.9375 C 3.960938 64.9375 3.894531 65.527344 4.554688 65.527344 C 5.210938 65.527344 5.769531 66.089844 5.769531 66.089844 C 5.769531 66.089844 7.054688 65.859375 6.527344 65.332031 C 6 64.804688 6.59375 64.210938 6.59375 64.210938 C 6.59375 64.210938 6.59375 63.421875 5.933594 63.421875 C 5.277344 63.421875 5.933594 62.765625 5.933594 62.765625 L 5.144531 62.105469 L 5.769531 61.480469 C 5.769531 61.480469 6.402344 60.535156 5.277344 59.410156 C 5.277344 59.410156 4.585938 59.375 5.277344 58.683594 C 5.277344 58.683594 5.933594 57.960938 4.554688 57.960938 C 4.554688 57.960938 5.539063 56.972656 4.554688 55.988281 C 4.554688 55.988281 4.554688 55.265625 4.554688 55.261719 C 4.554688 54.679688 4.921875 54.046875 4.261719 53.527344 "/>
<path style="fill:none;stroke-width:5;stroke-linecap:butt;stroke-linejoin:miter;stroke:rgb(0%,0%,0%);stroke-opacity:1;stroke-miterlimit:4;" d="M 36.890011 1710.225665 L 55.36633 1712.451727 " transform="matrix(0.105287,0,0,-0.105287,-0.552,235.697)"/>
<path style="fill:none;stroke-width:5;stroke-linecap:butt;stroke-linejoin:miter;stroke:rgb(0%,0%,0%);stroke-opacity:1;stroke-miterlimit:4;" d="M 40.154903 1688.410252 L 58.594121 1690.636314 " transform="matrix(0.105287,0,0,-0.105287,-0.552,235.697)"/>
<path style="fill:none;stroke-width:5;stroke-linecap:butt;stroke-linejoin:miter;stroke:rgb(0%,0%,0%);stroke-opacity:1;stroke-miterlimit:4;" d="M 40.154903 1674.46026 L 58.594121 1676.686323 " transform="matrix(0.105287,0,0,-0.105287,-0.552,235.697)"/>
<path style="fill:none;stroke-width:5;stroke-linecap:round;stroke-linejoin:miter;stroke:rgb(0%,0%,0%);stroke-opacity:1;stroke-miterlimit:4;" d="M 49.689871 1647.265196 L 68.129089 1649.454158 " transform="matrix(0.105287,0,0,-0.105287,-0.552,235.697)"/>
<path style=" stroke:none;fill-rule:nonzero;fill:rgb(100%,100%,100%);fill-opacity:1;" d="M 10.863281 55.65625 C 10.871094 55.9375 10.878906 56.21875 10.886719 56.5 C 10.925781 57.753906 10.960938 59.011719 10.996094 60.265625 C 11.042969 61.867188 11.089844 63.46875 11.132813 65.066406 C 11.132813 65.066406 11.199219 65.660156 10.539063 65.660156 C 9.882813 65.660156 9.324219 66.21875 9.324219 66.21875 C 9.324219 66.21875 8.039063 65.988281 8.566406 65.464844 C 9.09375 64.9375 8.5 64.34375 8.5 64.34375 C 8.5 64.34375 8.5 63.554688 9.160156 63.554688 C 9.816406 63.554688 9.160156 62.894531 9.160156 62.894531 L 9.949219 62.238281 L 9.324219 61.613281 C 9.324219 61.613281 8.691406 60.667969 9.816406 59.539063 C 9.816406 59.539063 10.507813 59.507813 9.816406 58.816406 C 9.816406 58.816406 9.160156 58.09375 10.539063 58.09375 C 10.347656 58.09375 10.132813 57.375 10.117188 57.246094 C 10.039063 56.640625 10.507813 56.230469 10.605469 55.65625 "/>
<path style="fill:none;stroke-width:5;stroke-linecap:butt;stroke-linejoin:miter;stroke:rgb(0%,0%,0%);stroke-opacity:1;stroke-miterlimit:4;" d="M 116.95406 1708.964229 L 98.477741 1711.190292 " transform="matrix(0.105287,0,0,-0.105287,-0.552,235.697)"/>
<path style="fill:none;stroke-width:5;stroke-linecap:butt;stroke-linejoin:miter;stroke:rgb(0%,0%,0%);stroke-opacity:1;stroke-miterlimit:4;" d="M 113.72627 1687.148816 L 95.249951 1689.374879 " transform="matrix(0.105287,0,0,-0.105287,-0.552,235.697)"/>
<path style="fill:none;stroke-width:5;stroke-linecap:butt;stroke-linejoin:miter;stroke:rgb(0%,0%,0%);stroke-opacity:1;stroke-miterlimit:4;" d="M 113.72627 1673.235926 L 95.249951 1675.424887 " transform="matrix(0.105287,0,0,-0.105287,-0.552,235.697)"/>
<path style="fill:none;stroke-width:5;stroke-linecap:round;stroke-linejoin:miter;stroke:rgb(0%,0%,0%);stroke-opacity:1;stroke-miterlimit:4;" d="M 104.154201 1646.003761 L 90.983331 1648.192722 " transform="matrix(0.105287,0,0,-0.105287,-0.552,235.697)"/>
<path style="fill:none;stroke-width:5;stroke-linecap:butt;stroke-linejoin:miter;stroke:rgb(0%,0%,0%);stroke-opacity:1;stroke-miterlimit:4;" d="M 101.334522 2074.780504 L 164.666 2074.780504 " transform="matrix(0.105287,0,0,-0.105287,-0.552,235.697)"/>
<path style="fill:none;stroke-width:5;stroke-linecap:butt;stroke-linejoin:miter;stroke:rgb(0%,0%,0%);stroke-opacity:1;stroke-miterlimit:4;" d="M 101.334522 1829.765222 L 164.666 1829.765222 " transform="matrix(0.105287,0,0,-0.105287,-0.552,235.697)"/>
<path style="fill:none;stroke-width:5;stroke-linecap:butt;stroke-linejoin:miter;stroke:rgb(0%,0%,0%);stroke-opacity:1;stroke-miterlimit:4;" d="M 119.662436 1739.758094 L 193.011197 1739.758094 " transform="matrix(0.105287,0,0,-0.105287,-0.552,235.697)"/>
<path style="fill:none;stroke-width:5;stroke-linecap:butt;stroke-linejoin:miter;stroke:rgb(0%,0%,0%);stroke-opacity:1;stroke-miterlimit:4;" d="M 82.672697 1631.423051 L 180.990459 1631.423051 " transform="matrix(0.105287,0,0,-0.105287,-0.552,235.697)"/>
<path style="fill:none;stroke-width:5;stroke-linecap:butt;stroke-linejoin:miter;stroke:rgb(0%,0%,0%);stroke-opacity:1;stroke-miterlimit:4;" d="M 76.36552 1494.779913 L 174.683282 1494.779913 " transform="matrix(0.105287,0,0,-0.105287,-0.552,235.697)"/>
<path style="fill:none;stroke-width:5;stroke-linecap:butt;stroke-linejoin:miter;stroke:rgb(0%,0%,0%);stroke-opacity:1;stroke-miterlimit:4;" d="M 93.023888 1408.111879 L 191.34165 1408.111879 " transform="matrix(0.105287,0,0,-0.105287,-0.552,235.697)"/>
<path style="fill:none;stroke-width:5;stroke-linecap:butt;stroke-linejoin:miter;stroke:rgb(0%,0%,0%);stroke-opacity:1;stroke-miterlimit:4;" d="M 95.95487 1198.528092 L 194.272632 1198.528092 " transform="matrix(0.105287,0,0,-0.105287,-0.552,235.697)"/>
<path style="fill:none;stroke-width:5;stroke-linecap:butt;stroke-linejoin:miter;stroke:rgb(0%,0%,0%);stroke-opacity:1;stroke-miterlimit:4;" d="M 86.345701 98.111183 L 137.990351 98.111183 " transform="matrix(0.105287,0,0,-0.105287,-0.552,235.697)"/>
<path style="fill:none;stroke-width:5;stroke-linecap:butt;stroke-linejoin:miter;stroke:rgb(0%,0%,0%);stroke-opacity:1;stroke-miterlimit:4;" d="M 85.492377 28.95484 L 137.174128 28.95484 " transform="matrix(0.105287,0,0,-0.105287,-0.552,235.697)"/>
</g>
</g>
<g clip-path="url(#clip3)" clip-rule="nonzero">
<g style="fill:rgb(0%,0%,0%);fill-opacity:1;">
  <use xlink:href="#glyph0-1" x="17.59" y="19.851"/>
</g>
<g style="fill:rgb(0%,0%,0%);fill-opacity:1;">
  <use xlink:href="#glyph0-2" x="17.59" y="44.871"/>
  <use xlink:href="#glyph0-2" x="21.037847" y="44.871"/>
</g>
<g style="fill:rgb(0%,0%,0%);fill-opacity:1;">
  <use xlink:href="#glyph0-3" x="20.424" y="53.645"/>
  <use xlink:href="#glyph0-4" x="24.303525" y="53.645"/>
  <use xlink:href="#glyph0-5" x="26.88941" y="53.645"/>
  <use xlink:href="#glyph0-2" x="30.715237" y="53.645"/>
</g>
<g style="fill:rgb(0%,0%,0%);fill-opacity:1;">
  <use xlink:href="#glyph0-2" x="19.29" y="65.267"/>
  <use xlink:href="#glyph0-4" x="22.737847" y="65.267"/>
  <use xlink:href="#glyph0-5" x="25.323732" y="65.267"/>
  <use xlink:href="#glyph0-2" x="29.149558" y="65.267"/>
</g>
<g style="fill:rgb(0%,0%,0%);fill-opacity:1;">
  <use xlink:href="#glyph0-6" x="18.724" y="80.796"/>
  <use xlink:href="#glyph0-7" x="21.283385" y="80.796"/>
  <use xlink:href="#glyph0-8" x="25.109211" y="80.796"/>
</g>
<g style="fill:rgb(0%,0%,0%);fill-opacity:1;">
  <use xlink:href="#glyph0-6" x="20.141" y="89.846"/>
  <use xlink:href="#glyph0-9" x="22.700385" y="89.846"/>
  <use xlink:href="#glyph0-10" x="26.148231" y="89.846"/>
</g>
<g style="fill:rgb(0%,0%,0%);fill-opacity:1;">
  <use xlink:href="#glyph0-6" x="20.708" y="111.673"/>
  <use xlink:href="#glyph0-9" x="23.267385" y="111.673"/>
  <use xlink:href="#glyph0-10" x="26.715231" y="111.673"/>
</g>
<g style="fill:rgb(0%,0%,0%);fill-opacity:1;">
  <use xlink:href="#glyph0-11" x="31.971384" y="111.673"/>
</g>
<g style="fill:rgb(0%,0%,0%);fill-opacity:1;">
  <use xlink:href="#glyph0-8" x="14.755" y="227.914"/>
  <use xlink:href="#glyph0-12" x="18.580827" y="227.914"/>
</g>
<g style="fill:rgb(0%,0%,0%);fill-opacity:1;">
  <use xlink:href="#glyph0-11" x="14.755" y="235.284"/>
  <use xlink:href="#glyph0-13" x="18.580827" y="235.284"/>
</g>
</g>
</g>
</svg>
