<?xml version="1.0" encoding="UTF-8" standalone="no"?>
<!-- Created with Inkscape (http://www.inkscape.org/) -->
<svg xmlns:dc="http://purl.org/dc/elements/1.1/" xmlns:cc="http://creativecommons.org/ns#" xmlns:rdf="http://www.w3.org/1999/02/22-rdf-syntax-ns#" xmlns:svg="http://www.w3.org/2000/svg" xmlns="http://www.w3.org/2000/svg" xmlns:xlink="http://www.w3.org/1999/xlink" version="1.1" width="128.0pt" height="104.3pt" viewBox="0 0 92.345259 75.259491" id="svg37389">
  <defs id="defs37391">
    <g id="g37393">
      <g id="glyph0-0"/>
      <g id="glyph0-1">
        <path d="M 4.515625,-0.796875 C 4.125,-0.578125 3.875,-0.375 3.296875,-0.359375 c -0.203125,0 -0.421875,0.015625 -0.625,-0.03125 -0.5625,-0.109375 -1.03125,-0.5 -1.296875,-1 C 0.890625,-2.28125 1.125,-3.5 1.953125,-4.125 c 0.140625,-0.09375 0.28125,-0.1875 0.4375,-0.25 0.46875,-0.15625 1.03125,-0.140625 1.5,0.03125 C 4.0625,-4.265625 4.21875,-4.1875 4.375,-4.109375 4.40625,-4.28125 4.453125,-4.46875 4.46875,-4.640625 4.328125,-4.703125 4.171875,-4.75 4,-4.78125 3.671875,-4.859375 3.171875,-4.921875 2.796875,-4.890625 c -0.71875,0.0625 -1.328125,0.46875 -1.6875,0.953125 -0.46875,0.59375 -0.625,1.390625 -0.453125,2.125 0.296875,1.125 1.25,1.9375 2.625,1.859375 C 3.734375,0.03125 4.015625,-0.0625 4.375,-0.234375 4.40625,-0.265625 4.53125,-0.3125 4.546875,-0.34375 4.5625,-0.390625 4.515625,-0.6875 4.515625,-0.796875 z m 0,0" id="path37397"/>
      </g>
      <g id="glyph0-2">
        <path d="m 0.734375,-4.84375 0,3.0625 c 0,0.140625 0,0.28125 0.015625,0.421875 0.0625,0.40625 0.265625,0.734375 0.53125,0.96875 C 1.84375,0.125 2.703125,0.265625 3.390625,-0.0625 3.75,-0.234375 4.078125,-0.5625 4.25,-0.921875 4.375,-1.21875 4.390625,-1.40625 4.390625,-1.8125 l 0,-3.03125 -0.5,0 0,3.078125 C 3.890625,-1.5 3.875,-1.21875 3.75,-0.96875 3.671875,-0.8125 3.5625,-0.65625 3.40625,-0.546875 2.8125,-0.109375 1.765625,-0.28125 1.4375,-0.875 1.28125,-1.15625 1.265625,-1.46875 1.265625,-1.78125 l 0,-3.0625 -0.53125,0 z m 0,0" id="path37400"/>
      </g>
      <g id="glyph0-3">
        <path d="M 0.75,-4.84375 0.75,0 2.28125,0 c 0.25,0 0.5,0 0.75,-0.015625 0.671875,-0.0625 1.328125,-0.40625 1.546875,-0.953125 C 4.75,-1.375 4.609375,-1.75 4.328125,-2.015625 4,-2.3125 3.5625,-2.46875 3.140625,-2.53125 3.265625,-2.5625 3.375,-2.578125 3.5,-2.625 3.90625,-2.78125 4.390625,-3.078125 4.4375,-3.546875 4.453125,-3.71875 4.390625,-3.921875 4.328125,-4.015625 4.03125,-4.53125 3.34375,-4.796875 2.625,-4.84375 c -0.171875,0 -0.328125,0 -0.5,0 l -1.375,0 z m 0.5,2.140625 0,-1.71875 0.8125,0 c 0.4375,0 0.859375,0.015625 1.265625,0.171875 0.265625,0.109375 0.59375,0.28125 0.625,0.578125 C 4,-3.3125 3.65625,-3.046875 3.375,-2.921875 c -0.296875,0.125 -0.609375,0.1875 -0.9375,0.21875 -0.140625,0 -0.28125,0 -0.421875,0 l -0.765625,0 z m 0,2.296875 0,-1.921875 0.875,0 c 0.140625,0 0.25,0 0.375,0 0.359375,0.015625 0.71875,0.078125 1.046875,0.25 0.328125,0.15625 0.65625,0.4375 0.609375,0.828125 -0.046875,0.34375 -0.390625,0.546875 -0.671875,0.671875 -0.265625,0.109375 -0.5625,0.15625 -0.859375,0.171875 -0.125,0 -0.234375,0 -0.359375,0 l -1.015625,0 z m 0,0" id="path37403"/>
      </g>
      <g id="glyph0-4">
        <path d="m 0.734375,-4.84375 0,4.84375 0.53125,0 0,-4.84375 -0.53125,0 z m 0,0" id="path37406"/>
      </g>
      <g id="glyph0-5">
        <path d="m 0.28125,-4.8125 0,0.40625 2.140625,0 0,4.40625 0.53125,0 0,-4.40625 2.125,0 0,-0.40625 -4.796875,0 z m 0,0" id="path37409"/>
      </g>
      <g id="glyph0-6">
        <path d="m 0.734375,-4.828125 0,4.828125 3.59375,0 0,-0.4375 -3.0625,0 0,-1.859375 2.734375,0 0,-0.40625 -2.734375,0 0,-1.703125 2.9375,0 0,-0.421875 -3.46875,0 z m 0,0" id="path37412"/>
      </g>
      <g id="glyph0-7">
        <path d="M 0.734375,-4.84375 0.734375,0 1.25,0 l 0,-2.21875 1.03125,0 c 0.140625,0 0.265625,-0.015625 0.375,0.015625 0.125,0.171875 0.25,0.34375 0.375,0.53125 C 3.421875,-1.125 3.8125,-0.5625 4.21875,-0.015625 4.390625,0 4.578125,0 4.75,0 L 4.46875,-0.390625 3.125,-2.28125 C 3.25,-2.296875 3.390625,-2.328125 3.515625,-2.390625 4.015625,-2.5625 4.578125,-2.96875 4.53125,-3.5625 4.515625,-3.796875 4.453125,-3.9375 4.328125,-4.109375 4.015625,-4.515625 3.484375,-4.765625 2.875,-4.828125 2.625,-4.84375 2.390625,-4.84375 2.125,-4.84375 l -1.390625,0 z M 1.25,-2.609375 l 0,-1.8125 1.046875,0 c 0.34375,0 0.703125,0 1.046875,0.09375 C 3.671875,-4.203125 4,-3.96875 4.046875,-3.59375 4.0625,-3.359375 3.96875,-3.140625 3.8125,-2.984375 c -0.125,0.109375 -0.265625,0.1875 -0.421875,0.25 -0.34375,0.125 -0.703125,0.125 -1.0625,0.125 l -1.078125,0 z m 0,0" id="path37415"/>
      </g>
      <g id="glyph0-8">
        <path d="M 0.21875,0 0.578125,0 C 0.625,0 0.6875,0.015625 0.71875,-0.015625 0.75,-0.03125 0.75,-0.0625 0.765625,-0.09375 c 0.109375,-0.25 0.453125,-1.109375 0.5,-1.203125 0.015625,-0.0625 0.03125,-0.09375 0.109375,-0.09375 l 1.671875,0 c 0.1875,0 0.375,-0.015625 0.5625,0 0.078125,0 0.09375,0.09375 0.125,0.15625 C 3.8125,-1.03125 4.1875,-0.125 4.203125,-0.0625 4.234375,0.015625 4.296875,0 4.40625,0 L 4.796875,0 C 4.625,-0.453125 4.4375,-0.890625 4.25,-1.34375 L 2.8125,-4.828125 C 2.796875,-4.859375 2.796875,-4.90625 2.765625,-4.90625 c -0.046875,0 -0.09375,0 -0.140625,0 l -0.25,0 c -0.046875,0 -0.109375,-0.015625 -0.140625,0.015625 C 2.203125,-4.875 2.1875,-4.84375 2.1875,-4.8125 L 0.765625,-1.34375 0.40625,-0.484375 C 0.34375,-0.328125 0.265625,-0.171875 0.21875,0 z M 2.484375,-4.328125 C 2.796875,-3.46875 3.15625,-2.640625 3.5,-1.8125 l -2.03125,0 c 0.328125,-0.828125 0.6875,-1.65625 1,-2.515625 l 0.015625,0 z m 0,0" id="path37418"/>
      </g>
      <g id="glyph0-9">
        <path d="m 4.640625,-2.296875 -1.625,0 0,0.421875 1.125,0 0,1.21875 C 4.140625,-0.546875 4.125,-0.515625 4,-0.5 3.65625,-0.390625 3.171875,-0.328125 2.78125,-0.375 2.3125,-0.4375 1.921875,-0.6875 1.65625,-0.984375 0.953125,-1.796875 0.953125,-3.078125 1.671875,-3.875 2.03125,-4.25 2.515625,-4.515625 3.1875,-4.46875 3.5,-4.453125 3.796875,-4.390625 4.078125,-4.265625 4.21875,-4.1875 4.34375,-4.09375 4.484375,-4 4.515625,-4.1875 4.5625,-4.375 4.578125,-4.546875 4.0625,-4.78125 3.703125,-4.890625 2.96875,-4.890625 2.3125,-4.890625 1.75,-4.578125 1.375,-4.25 c -0.140625,0.125 -0.25,0.28125 -0.359375,0.4375 -0.546875,0.828125 -0.5625,1.953125 0,2.78125 0.265625,0.390625 0.625,0.71875 1.09375,0.90625 0.625,0.25 1.3125,0.203125 1.953125,0.046875 0.0625,-0.015625 0.5625,-0.15625 0.578125,-0.21875 0,-0.03125 0,-0.046875 0,-0.078125 l 0,-1.921875 z m 0,0" id="path37421"/>
      </g>
      <g id="glyph0-10">
        <path d="M 1,-4.03125 C 0.265625,-3.125 0.234375,-1.75 0.96875,-0.84375 1.28125,-0.4375 1.703125,-0.140625 2.234375,0.015625 3.71875,0.421875 4.921875,-0.546875 5.25,-1.65625 5.53125,-2.578125 5.25,-3.640625 4.53125,-4.3125 4.171875,-4.640625 3.65625,-4.90625 3.046875,-4.9375 2.125,-5.015625 1.421875,-4.53125 1,-4.03125 z m 2.484375,-0.421875 c 0.484375,0.15625 0.875,0.484375 1.109375,0.921875 0.140625,0.265625 0.203125,0.5625 0.234375,0.859375 0.0625,0.828125 -0.28125,1.734375 -1.03125,2.140625 -0.375,0.203125 -0.828125,0.296875 -1.3125,0.1875 -0.328125,-0.078125 -0.625,-0.25 -0.84375,-0.453125 C 1.21875,-1.1875 1,-1.765625 0.96875,-2.328125 0.90625,-3.34375 1.421875,-4.109375 2.140625,-4.390625 2.5625,-4.5625 3.03125,-4.59375 3.484375,-4.453125 z m 0,0" id="path37424"/>
      </g>
      <g id="glyph0-11">
        <path d="M 0.75,-4.84375 0.75,0 l 0.484375,0 0,-4.40625 0,0 0.203125,0.34375 1.578125,2.75 C 3.265625,-0.875 3.5,-0.4375 3.75,-0.015625 3.96875,0.03125 4.25,-0.015625 4.484375,0 l 0,-4.84375 L 4,-4.84375 4,-0.421875 2.1875,-3.59375 C 1.953125,-4 1.734375,-4.4375 1.484375,-4.828125 c -0.203125,-0.03125 -0.5,0 -0.734375,-0.015625 z m 0,0" id="path37427"/>
      </g>
      <g id="glyph0-12">
        <path d="m 0.734375,-4.84375 0,4.84375 3.15625,0 0,-0.40625 -2.625,0 0,-4.4375 -0.53125,0 z m 0,0" id="path37430"/>
      </g>
      <g id="glyph0-13">
        <path d="m 0.734375,-4.84375 0,4.84375 0.53125,0 0,-2.3125 2.71875,0 0,2.3125 0.53125,0 0,-4.84375 -0.53125,0 0,2.125 -2.71875,0 0,-2.125 -0.53125,0 z m 0,0" id="path37433"/>
      </g>
      <g id="glyph0-14">
        <path d="m 0.765625,-4.84375 0,4.84375 0.46875,0 0,-4.328125 0.015625,0 C 1.28125,-4.1875 1.359375,-4.0625 1.40625,-3.921875 1.5,-3.703125 2.96875,-0.265625 3,-0.1875 c 0.046875,0.0625 0.015625,0.078125 0.15625,0.078125 l 0.203125,0 c 0.03125,0 0.0625,0 0.109375,0 C 3.5,-0.125 3.5,-0.15625 3.515625,-0.1875 3.546875,-0.234375 3.5625,-0.296875 3.59375,-0.359375 L 3.921875,-1.125 c 0.09375,-0.234375 1.34375,-3.109375 1.375,-3.203125 l 0,0 0,4.328125 0.484375,0 0,-4.84375 C 5.546875,-4.828125 5.265625,-4.859375 5.078125,-4.828125 L 5.03125,-4.734375 3.25,-0.625 1.9375,-3.671875 c -0.171875,-0.390625 -0.3125,-0.78125 -0.5,-1.15625 -0.1875,-0.03125 -0.46875,0 -0.671875,-0.015625 z m 0,0" id="path37436"/>
      </g>
      <g id="glyph0-15">
        <path d="m 0.21875,-4.84375 0.421875,0.515625 1.375,1.609375 c 0.046875,0.0625 0.09375,0.09375 0.125,0.171875 l -0.03125,0.0625 -2,2.484375 C 0.328125,0 0.546875,0 0.75,-0.015625 l 0.0625,-0.0625 1.640625,-2.109375 0,0 1.265625,1.546875 C 3.890625,-0.4375 4.0625,-0.203125 4.25,-0.015625 4.453125,0 4.671875,0 4.90625,0 l -2,-2.359375 c -0.0625,-0.0625 -0.109375,-0.109375 -0.140625,-0.1875 L 2.78125,-2.609375 4.578125,-4.84375 C 4.375,-4.828125 4.125,-4.84375 3.9375,-4.828125 3.421875,-4.21875 2.953125,-3.5625 2.4375,-2.96875 2.328125,-3.125 2.1875,-3.265625 2.0625,-3.421875 1.671875,-3.890625 1.28125,-4.375 0.875,-4.828125 c -0.203125,-0.015625 -0.4375,0 -0.65625,-0.015625 z m 0,0" id="path37439"/>
      </g>
      <g id="glyph0-16">
        <path d="m 0.90625,-2.328125 0,0 c 0,-0.59375 0.125,-1.28125 0.625,-1.671875 0.328125,-0.265625 0.796875,-0.390625 1.375,-0.234375 0.109375,0.015625 0.203125,0.0625 0.3125,0.09375 l 0,-0.28125 c 0,-0.03125 0,-0.09375 -0.015625,-0.109375 -0.046875,-0.0625 -0.46875,-0.125 -0.46875,-0.125 -0.625,-0.09375 -1.09375,0.078125 -1.453125,0.375 -0.453125,0.34375 -0.734375,0.875 -0.84375,1.4375 -0.046875,0.265625 -0.0625,0.546875 -0.046875,0.828125 0.03125,0.640625 0.125,1.15625 0.453125,1.578125 0.390625,0.53125 1.140625,0.703125 1.734375,0.421875 C 2.84375,-0.140625 3.0625,-0.375 3.21875,-0.609375 3.453125,-0.9375 3.5,-1.328125 3.484375,-1.71875 3.46875,-1.921875 3.421875,-2.125 3.359375,-2.3125 3.21875,-2.609375 2.96875,-2.953125 2.6875,-3.09375 2.546875,-3.140625 2.40625,-3.15625 2.25,-3.15625 1.875,-3.15625 1.515625,-3 1.21875,-2.75 1.125,-2.65625 0.953125,-2.453125 0.90625,-2.328125 z m 1.078125,-0.4375 c 0.234375,0 0.46875,0.03125 0.65625,0.203125 0.0625,0.046875 0.09375,0.109375 0.140625,0.15625 0.1875,0.25 0.1875,0.5625 0.1875,0.859375 0,0.46875 -0.046875,0.75 -0.3125,1.015625 -0.203125,0.203125 -0.46875,0.25 -0.75,0.25 C 1.609375,-0.296875 1.328125,-0.4375 1.15625,-0.671875 1.0625,-0.828125 1.015625,-1 0.96875,-1.171875 0.921875,-1.40625 0.890625,-1.65625 0.9375,-1.875 c 0.09375,-0.5 0.53125,-0.90625 1.046875,-0.890625 z m 0,0" id="path37442"/>
      </g>
      <g id="glyph0-17">
        <path d="M 1.828125,-4.6875 C 1.671875,-4.65625 1.5,-4.640625 1.359375,-4.5625 0.625,-4.28125 0.375,-3.34375 0.375,-2.40625 c 0,0.140625 0,0.28125 0,0.4375 0.015625,0.640625 0.171875,1.28125 0.53125,1.671875 0.3125,0.3125 0.765625,0.4375 1.1875,0.40625 0.265625,-0.03125 0.484375,-0.125 0.671875,-0.25 C 3.359375,-0.5625 3.5,-1.421875 3.5,-2.359375 3.5,-3.125 3.359375,-3.8125 2.984375,-4.234375 2.703125,-4.546875 2.265625,-4.71875 1.828125,-4.6875 z m 0.59375,0.515625 C 2.5,-4.125 2.5625,-4.078125 2.625,-4.015625 c 0.265625,0.25 0.34375,0.75 0.359375,1.21875 0,0.09375 0,0.1875 0,0.28125 l 0,0.359375 c 0,0.59375 -0.046875,1.171875 -0.3125,1.53125 -0.34375,0.453125 -1.09375,0.46875 -1.453125,0.015625 C 1.125,-0.703125 1.078125,-0.828125 1.03125,-0.9375 0.90625,-1.296875 0.875,-1.734375 0.875,-2.1875 l 0,-0.359375 c 0,-0.09375 0.015625,-0.171875 0.015625,-0.265625 0,-0.546875 0.140625,-1.09375 0.5,-1.328125 0.28125,-0.171875 0.703125,-0.21875 1.03125,-0.03125 z m 0,0" id="path37445"/>
      </g>
      <g id="glyph1-0"/>
      <g id="glyph1-1">
        <path d="M 1.15625,-2.546875 C 1.265625,-2.609375 1.359375,-2.6875 1.46875,-2.75 1.703125,-2.890625 1.953125,-2.953125 2.21875,-2.96875 2.390625,-3 2.578125,-2.984375 2.6875,-2.84375 c 0.171875,0.25 -0.015625,0.734375 -0.046875,0.984375 -0.515625,0 -1.09375,0.046875 -1.578125,0.28125 C 0.796875,-1.46875 0.53125,-1.25 0.4375,-0.96875 c -0.125,0.375 0,0.828125 0.375,0.984375 C 0.890625,0.046875 0.96875,0.0625 1.046875,0.0625 1.421875,0.09375 1.8125,-0.03125 2.125,-0.25 2.21875,-0.328125 2.296875,-0.40625 2.375,-0.484375 L 2.265625,0 2.953125,0 C 3,0 3.03125,-0.015625 3.03125,-0.0625 3.046875,-0.125 3.515625,-2.28125 3.53125,-2.40625 3.5625,-2.671875 3.515625,-2.96875 3.296875,-3.15625 3.109375,-3.3125 2.875,-3.375 2.625,-3.390625 2.3125,-3.40625 1.984375,-3.375 1.671875,-3.28125 1.59375,-3.25 1.28125,-3.140625 1.21875,-3.09375 1.203125,-3.0625 1.203125,-2.984375 1.203125,-2.9375 1.171875,-2.8125 1.15625,-2.671875 1.15625,-2.546875 z m 1.4375,0.9375 C 2.578125,-1.46875 2.53125,-1.328125 2.5,-1.1875 2.453125,-0.90625 2.40625,-0.703125 2.171875,-0.546875 1.921875,-0.375 1.421875,-0.25 1.1875,-0.5625 1.046875,-0.78125 1.171875,-1.046875 1.328125,-1.21875 c 0.25,-0.265625 0.8125,-0.390625 1.265625,-0.390625 z m 0,0" id="path37449"/>
      </g>
      <g id="glyph1-2">
        <path d="M 3.171875,-0.859375 2.90625,-0.6875 C 2.734375,-0.578125 2.484375,-0.46875 2.265625,-0.453125 2,-0.390625 1.640625,-0.375 1.4375,-0.609375 1.25,-0.84375 1.28125,-1.21875 1.359375,-1.5625 1.4375,-2.03125 1.59375,-2.609375 2.0625,-2.828125 2.265625,-2.90625 2.5,-2.921875 2.78125,-2.890625 2.9375,-2.859375 3.09375,-2.8125 3.21875,-2.71875 3.296875,-2.671875 3.375,-2.609375 3.453125,-2.546875 3.53125,-2.71875 3.59375,-2.90625 3.65625,-3.09375 3.34375,-3.296875 3.109375,-3.390625 2.609375,-3.390625 c -0.5,0 -0.984375,0.125 -1.359375,0.484375 -0.34375,0.3125 -0.546875,0.75 -0.640625,1.1875 -0.09375,0.421875 -0.15625,0.9375 0.109375,1.328125 C 1,0.015625 1.53125,0.09375 1.984375,0.0625 2.203125,0.046875 2.390625,0.015625 2.59375,-0.0625 2.6875,-0.09375 3.046875,-0.25 3.09375,-0.3125 3.125,-0.34375 3.125,-0.421875 3.125,-0.46875 c 0.03125,-0.125 0.046875,-0.265625 0.046875,-0.390625 z m 0,0" id="path37452"/>
      </g>
      <g id="glyph1-3">
        <path d="M 1.515625,-4.84375 0.484375,0 C 0.734375,-0.015625 1.03125,0.015625 1.25,-0.015625 1.296875,-0.125 1.3125,-0.25 1.34375,-0.359375 l 0,0 c 0.03125,0.0625 0.09375,0.125 0.140625,0.1875 C 1.84375,0.171875 2.4375,0.109375 2.84375,-0.09375 3.515625,-0.4375 3.828125,-1.21875 3.921875,-2 3.96875,-2.390625 3.9375,-2.796875 3.71875,-3.078125 3.21875,-3.65625 2.234375,-3.234375 1.859375,-2.90625 2,-3.546875 2.125,-4.1875 2.265625,-4.84375 l -0.75,0 z m 1.390625,2 C 3.21875,-2.65625 3.1875,-2.25 3.140625,-1.9375 3.03125,-1.390625 2.953125,-0.828125 2.5,-0.53125 2.234375,-0.375 1.75,-0.265625 1.484375,-0.5625 c -0.015625,-0.03125 -0.0625,-0.078125 -0.0625,-0.125 -0.015625,-0.015625 0,-0.0625 0,-0.09375 0.078125,-0.375 0.359375,-1.640625 0.375,-1.703125 0.015625,-0.15625 0.046875,-0.171875 0.1875,-0.25 0.234375,-0.171875 0.609375,-0.25 0.921875,-0.109375 z m 0,0" id="path37455"/>
      </g>
      <g id="glyph2-0"/>
      <g id="glyph2-1">
        <path d="m 0.484375,-1.90625 c -0.25,0.359375 -0.25,0.84375 0.015625,1.203125 0.1875,0.25 0.515625,0.453125 0.9375,0.40625 0.296875,-0.03125 0.546875,-0.203125 0.703125,-0.40625 0.234375,-0.3125 0.265625,-0.75 0.09375,-1.09375 -0.125,-0.234375 -0.34375,-0.421875 -0.625,-0.5 -0.484375,-0.15625 -0.921875,0.09375 -1.125,0.390625 z m 1.3125,-0.046875 C 2.140625,-1.6875 2.21875,-1.1875 1.953125,-0.84375 1.90625,-0.75 1.8125,-0.6875 1.71875,-0.625 1.453125,-0.46875 1.09375,-0.5 0.84375,-0.671875 0.5,-0.9375 0.421875,-1.453125 0.6875,-1.796875 c 0.0625,-0.09375 0.140625,-0.15625 0.234375,-0.21875 0.28125,-0.15625 0.640625,-0.125 0.875,0.0625 z m 0,0" id="path37459"/>
      </g>
    </g>
    <clipPath id="clip1">
      <path d="m -27,395 326,0 0,-453 -326,0 0,453 z m 0,0" id="path37462"/>
    </clipPath>
    <clipPath id="clip3">
      <path d="m -27,-58 326,0 0,453 -326,0 0,-453 z m 0,0" id="path37465"/>
    </clipPath>
  </defs>
  <g transform="translate(-0.52879294,-71.013672)" id="g38366">
    <g clip-path="url(#clip1)" id="g37750">
      <g clip-path="url(#clip3)" id="g37752">
        <path d="m 0.00190625,-5e-5 59.52734375,0" transform="matrix(1,0,0,-1,5.377,133.3437)" id="path37754" style="fill:none;stroke:#000000;stroke-width:0.69999999;stroke-linecap:round;stroke-linejoin:round;stroke-miterlimit:10"/>
        <path d="m 59.367188,134.57031 5.539062,-1.22656 -5.539062,-1.22656" id="path37756"/>
        <path d="M -0.0019125,9.875e-4 5.53715,1.22755 l -5.5390625,1.226563 0,-2.4531255 z m 0,0" transform="matrix(1,0,0,-1,59.3691,134.5713)" id="path37758" style="fill:none;stroke:#000000;stroke-width:0.69999999;stroke-linecap:round;stroke-linejoin:round;stroke-miterlimit:10"/>
        <path d="M 0.00190625,-5e-5 27.712844,13.898388" transform="matrix(1,0,0,-1,5.377,133.3437)" id="path37760" style="fill:none;stroke:#000000;stroke-width:0.69999999;stroke-linecap:round;stroke-linejoin:round;stroke-miterlimit:10"/>
        <path d="m 28.695313,123.02344 4.394531,-3.57813 -5.496094,1.38282" id="path37762"/>
        <path d="M 0.0019125,-9.375e-4 4.396444,3.577188 -1.09965,2.194375 0.0019125,-9.375e-4 z m 0,0" transform="matrix(1,0,0,-1,28.6934,123.0225)" id="path37764" style="fill:none;stroke:#000000;stroke-width:0.69999999;stroke-linecap:round;stroke-linejoin:round;stroke-miterlimit:10"/>
        <path d="m 0.00190625,-5e-5 0,48.1875" transform="matrix(1,0,0,-1,5.377,133.3437)" id="path37766" style="fill:none;stroke:#000000;stroke-width:0.69999999;stroke-linecap:round;stroke-linejoin:round;stroke-miterlimit:10"/>
        <path d="M 6.605469,90.6875 5.375,85.15625 4.152344,90.6875" id="path37768"/>
        <path d="M 9.6875e-4,0.001 -1.2295,5.53225 -2.452156,0.001 l 2.45312475,0 z m 0,0" transform="matrix(1,0,0,-1,6.6045,90.6885)" id="path37770" style="fill:none;stroke:#000000;stroke-width:0.69999999;stroke-linecap:round;stroke-linejoin:round;stroke-miterlimit:10"/>
        <path d="m 0.00190625,-9.5e-4 59.52734375,0 27.710938,13.898437 -59.527344,0 L 0.00190625,-9.5e-4 z m 0,0" transform="matrix(1,0,0,-1,5.377,85.1553)" id="path37772" style="fill:none;stroke:#000000;stroke-width:0.5;stroke-linecap:round;stroke-linejoin:round;stroke-miterlimit:10;stroke-dasharray:3, 3"/>
        <path d="m 9.5e-4,-9.5e-4 0,-48.1875 27.710938,13.898437 0,48.1875" transform="matrix(1,0,0,-1,64.9053,85.1553)" id="path37774" style="fill:none;stroke:#000000;stroke-width:0.5;stroke-linecap:round;stroke-linejoin:round;stroke-miterlimit:10;stroke-dasharray:3, 3"/>
        <path d="m -4.5625e-4,-0.0019125 0,-48.1875005 59.52734325,0" transform="matrix(1,0,0,-1,33.0903,71.2559)" id="path37776" style="fill:none;stroke:#000000;stroke-width:0.5;stroke-linecap:round;stroke-linejoin:round;stroke-miterlimit:10;stroke-dasharray:3, 3"/>
        <path d="m 0.00190625,2.5e-5 9.92187475,0 0,-9.921875" transform="matrix(1,0,0,-1,5.377,123.4219)" id="path37778" style="fill:none;stroke:#000000;stroke-width:0.30000001;stroke-linecap:round;stroke-linejoin:round;stroke-miterlimit:10"/>
        <path d="M 0.00190625,2.5e-5 8.4355,4.230494 l 0,-9.921875" transform="matrix(1,0,0,-1,5.377,123.4219)" id="path37780" style="fill:none;stroke:#000000;stroke-width:0.30000001;stroke-linecap:round;stroke-linejoin:round;stroke-miterlimit:10"/>
      </g>
    </g>
    <g clip-path="url(#clip1)" id="g37782">
      <g id="g37784">
        <use transform="translate(11.6533,146.1777)" id="use37786" x="0" y="0" width="241" height="339" xlink:href="#glyph0-14"/>
        <use transform="translate(18.201698,146.1777)" id="use37788" x="0" y="0" width="241" height="339" xlink:href="#glyph0-10"/>
        <use transform="translate(24.0039,146.1777)" id="use37790" x="0" y="0" width="241" height="339" xlink:href="#glyph0-11"/>
        <use transform="translate(29.25517,146.1777)" id="use37792" x="0" y="0" width="241" height="339" xlink:href="#glyph0-10"/>
        <use transform="translate(35.05737,146.1777)" id="use37794" x="0" y="0" width="241" height="339" xlink:href="#glyph0-1"/>
        <use transform="translate(40.01575,146.1777)" id="use37796" x="0" y="0" width="241" height="339" xlink:href="#glyph0-12"/>
        <use transform="translate(44.23489,146.1777)" id="use37798" x="0" y="0" width="241" height="339" xlink:href="#glyph0-4"/>
        <use transform="translate(46.24335,146.1777)" id="use37800" x="0" y="0" width="241" height="339" xlink:href="#glyph0-11"/>
        <use transform="translate(51.49462,146.1777)" id="use37802" x="0" y="0" width="241" height="339" xlink:href="#glyph0-4"/>
        <use transform="translate(53.50307,146.1777)" id="use37804" x="0" y="0" width="241" height="339" xlink:href="#glyph0-1"/>
      </g>
      <g id="g37806">
        <use transform="translate(33.19537,138.39494)" id="use37808" x="0" y="0" width="241" height="339" xlink:href="#glyph1-1"/>
      </g>
      <g id="g37810">
        <use transform="translate(22.26045,120.92557)" id="use37812" x="0" y="0" width="241" height="339" xlink:href="#glyph1-3"/>
      </g>
      <g id="g37814">
        <use transform="translate(8e-5,110.95304)" id="use37816" x="0" y="0" width="241" height="339" xlink:href="#glyph1-2"/>
      </g>
    </g>
  </g>
</svg>
