<?xml version="1.0" encoding="UTF-8"?>
<svg xmlns="http://www.w3.org/2000/svg" xmlns:xlink="http://www.w3.org/1999/xlink" width="102pt" height="130pt" viewBox="0 0 74 94" version="1.1">
<defs>
<g>
<symbol overflow="visible" id="glyph0-0">
<path style="stroke:none;" d=""/>
</symbol>
<symbol overflow="visible" id="glyph0-1">
<path style="stroke:none;" d="M 0.625 -0.90625 L 0.421875 -0.375 C 0.59375 -0.265625 0.78125 -0.15625 0.984375 -0.078125 C 1.703125 0.1875 2.5625 0.203125 3.25 -0.1875 C 3.71875 -0.453125 4.125 -0.90625 4.171875 -1.46875 C 4.171875 -1.5625 4.171875 -1.671875 4.15625 -1.765625 C 4.0625 -2.1875 3.71875 -2.484375 3.359375 -2.625 C 2.75 -2.828125 1.859375 -2.796875 1.6875 -3.421875 C 1.59375 -3.8125 1.9375 -4.140625 2.25 -4.328125 C 2.578125 -4.484375 2.9375 -4.546875 3.296875 -4.515625 C 3.671875 -4.5 3.953125 -4.390625 4.203125 -4.1875 C 4.265625 -4.15625 4.3125 -4.109375 4.359375 -4.0625 C 4.421875 -4.1875 4.46875 -4.328125 4.515625 -4.453125 C 4.546875 -4.53125 4.609375 -4.609375 4.5 -4.640625 C 4.109375 -4.859375 3.640625 -4.96875 3.03125 -4.9375 C 2.375 -4.90625 1.640625 -4.546875 1.3125 -3.9375 C 1.25 -3.8125 1.203125 -3.65625 1.1875 -3.5 C 1.125 -2.890625 1.609375 -2.546875 2 -2.40625 C 2.125 -2.359375 2.265625 -2.328125 2.390625 -2.3125 C 2.578125 -2.265625 2.984375 -2.171875 3.125 -2.125 C 3.34375 -2.046875 3.546875 -1.875 3.640625 -1.65625 C 3.8125 -1.1875 3.40625 -0.6875 3 -0.515625 C 2.265625 -0.140625 1.328125 -0.359375 0.796875 -0.78125 C 0.734375 -0.828125 0.6875 -0.875 0.625 -0.90625 Z M 0.625 -0.90625 "/>
</symbol>
<symbol overflow="visible" id="glyph0-2">
<path style="stroke:none;" d="M 3.765625 -4.84375 L 3.65625 -4.296875 L 3.34375 -2.84375 L 3.34375 -2.84375 C 3.296875 -2.96875 3.171875 -3.078125 3.0625 -3.15625 C 2.828125 -3.3125 2.515625 -3.375 2.234375 -3.328125 C 1.828125 -3.28125 1.484375 -3.015625 1.265625 -2.78125 C 0.84375 -2.328125 0.609375 -1.71875 0.625 -1.109375 C 0.640625 -0.578125 0.9375 0 1.578125 0.0625 C 2.125 0.078125 2.546875 -0.234375 2.828125 -0.515625 L 2.71875 0 L 3.09375 0 C 3.140625 0 3.21875 0.015625 3.234375 -0.015625 C 3.25 -0.0625 3.265625 -0.109375 3.265625 -0.15625 C 3.296875 -0.25 4.25 -4.78125 4.265625 -4.84375 L 3.765625 -4.84375 Z M 3.15625 -2.734375 C 3.1875 -2.6875 3.234375 -2.625 3.25 -2.546875 C 3.265625 -2.484375 3.234375 -2.390625 3.21875 -2.328125 C 3.171875 -2.125 2.9375 -0.984375 2.9375 -0.96875 C 2.90625 -0.8125 2.84375 -0.75 2.71875 -0.640625 C 2.53125 -0.46875 2.3125 -0.359375 2.0625 -0.328125 C 1.765625 -0.3125 1.515625 -0.421875 1.359375 -0.5625 C 1.09375 -0.828125 1.109375 -1.25 1.171875 -1.59375 C 1.25 -1.96875 1.40625 -2.359375 1.703125 -2.609375 C 1.828125 -2.71875 1.96875 -2.796875 2.125 -2.859375 C 2.484375 -2.984375 2.90625 -3.015625 3.15625 -2.734375 Z M 2.828125 -0.515625 C 2.828125 -0.515625 2.84375 -0.515625 2.84375 -0.515625 C 2.84375 -0.515625 2.828125 -0.5 2.828125 -0.515625 Z M 2.828125 -0.515625 "/>
</symbol>
<symbol overflow="visible" id="glyph0-3">
<path style="stroke:none;" d="M 1.765625 -4.84375 L 1.65625 -4.3125 L 0.734375 0 L 1.125 0 C 1.15625 0 1.25 0.015625 1.265625 -0.015625 C 1.296875 -0.0625 1.296875 -0.109375 1.296875 -0.15625 C 1.328125 -0.25 2.28125 -4.78125 2.296875 -4.84375 L 1.765625 -4.84375 Z M 1.765625 -4.84375 "/>
</symbol>
<symbol overflow="visible" id="glyph1-0">
<path style="stroke:none;" d=""/>
</symbol>
<symbol overflow="visible" id="glyph1-1">
<path style="stroke:none;" d="M 1.703125 -4.84375 L 1.546875 -4.078125 L 2.3125 -4.078125 C 2.359375 -4.328125 2.40625 -4.578125 2.453125 -4.84375 L 1.703125 -4.84375 Z M 1.375 -3.296875 C 1.359375 -3.171875 1.328125 -3.0625 1.3125 -2.953125 C 1.109375 -2.0625 0.765625 -0.34375 0.640625 0.234375 C 0.609375 0.34375 0.609375 0.484375 0.53125 0.578125 C 0.375 0.734375 0 0.78125 -0.265625 0.671875 C -0.34375 0.65625 -0.40625 0.609375 -0.46875 0.578125 L -0.671875 1.03125 C -0.5625 1.09375 -0.421875 1.140625 -0.28125 1.171875 C 0.21875 1.296875 0.859375 1.265625 1.171875 0.796875 C 1.3125 0.609375 1.359375 0.390625 1.40625 0.15625 C 1.53125 -0.453125 2.125 -3.234375 2.125 -3.296875 L 1.375 -3.296875 Z M 1.375 -3.296875 "/>
</symbol>
<symbol overflow="visible" id="glyph1-2">
<path style="stroke:none;" d="M 0.484375 -0.84375 L 0.265625 -0.265625 C 0.65625 0 1.140625 0.09375 1.609375 0.0625 C 1.9375 0.046875 2.25 -0.046875 2.484375 -0.28125 C 2.640625 -0.4375 2.734375 -0.640625 2.8125 -0.84375 C 2.984375 -1.375 2.734375 -1.8125 2.328125 -1.984375 C 2.203125 -2.03125 1.890625 -2.09375 1.78125 -2.109375 C 1.65625 -2.140625 1.53125 -2.171875 1.4375 -2.28125 C 1.3125 -2.4375 1.390625 -2.6875 1.53125 -2.8125 C 1.609375 -2.875 1.6875 -2.921875 1.765625 -2.9375 C 2.046875 -3 2.453125 -2.921875 2.640625 -2.84375 C 2.703125 -2.8125 2.78125 -2.765625 2.84375 -2.71875 C 2.90625 -2.6875 2.9375 -2.65625 2.984375 -2.625 C 3.03125 -2.765625 3.09375 -2.890625 3.140625 -3.015625 C 3.15625 -3.046875 3.203125 -3.125 3.171875 -3.15625 C 3.15625 -3.203125 3.078125 -3.21875 3.046875 -3.234375 C 2.796875 -3.34375 2.5 -3.390625 2.171875 -3.390625 C 1.78125 -3.390625 1.390625 -3.328125 1.09375 -3.0625 C 0.8125 -2.78125 0.578125 -2.203125 0.859375 -1.796875 C 0.96875 -1.640625 1.125 -1.53125 1.296875 -1.46875 C 1.671875 -1.328125 2.328125 -1.375 2.203125 -0.84375 C 2.0625 -0.28125 1.25 -0.328125 0.78125 -0.609375 C 0.71875 -0.640625 0.65625 -0.6875 0.609375 -0.734375 C 0.5625 -0.78125 0.53125 -0.8125 0.484375 -0.84375 Z M 0.484375 -0.84375 "/>
</symbol>
</g>
<clipPath id="clip1">
  <path d="M -269 667 L 343 667 L 343 -125 L -269 -125 L -269 667 Z M -269 667 "/>
</clipPath>
<clipPath id="clip2">
  <path d="M -0.875 93.800781 L 74.125 93.800781 L 74.125 -0.199219 L -0.875 -0.199219 L -0.875 93.800781 Z M -0.875 93.800781 "/>
</clipPath>
<clipPath id="clip3">
  <path d="M -0.875 93.800781 L 74.125 93.800781 L 74.125 -0.199219 L -0.875 -0.199219 L -0.875 93.800781 Z M -0.875 93.800781 "/>
</clipPath>
<clipPath id="clip4">
  <path d="M -269 667 L 343 667 L 343 -125 L -269 -125 L -269 667 Z M -269 667 "/>
</clipPath>
</defs>
<g id="surface0">
<g clip-path="url(#clip1)" clip-rule="nonzero">
<g clip-path="url(#clip2)" clip-rule="nonzero">
<g clip-path="url(#clip3)" clip-rule="nonzero">
<path style="fill:none;stroke-width:0.48;stroke-linecap:round;stroke-linejoin:round;stroke:rgb(0%,0%,0%);stroke-opacity:1;stroke-miterlimit:10;" d="M 1.583031 15.993406 L 49.653344 92.919187 M 25.622094 0.969969 L 73.692406 77.89575 " transform="matrix(1,0,0,-1,-0.876,93.802)"/>
<path style="fill:none;stroke-width:0.48;stroke-linecap:round;stroke-linejoin:round;stroke:rgb(0%,0%,0%);stroke-opacity:1;stroke-dasharray:3,3;stroke-miterlimit:10;" d="M 58.668969 53.856687 C 59.864281 55.77075 59.743187 58.39575 58.336937 61.157469 C 56.926781 63.915281 54.34475 66.587156 51.15725 68.579344 C 47.96975 70.571531 44.4385 71.723875 41.336937 71.778562 C 38.239281 71.83325 35.825219 70.790281 34.629906 68.876219 " transform="matrix(1,0,0,-1,-0.876,93.802)"/>
<path style="fill:none;stroke-width:0.48;stroke-linecap:round;stroke-linejoin:round;stroke:rgb(0%,0%,0%);stroke-opacity:1;stroke-miterlimit:10;" d="M 34.629906 68.876219 C 33.434594 66.966062 33.555687 64.341062 34.965844 61.579344 C 36.372094 58.817625 38.954125 56.149656 42.145531 54.157469 C 45.333031 52.165281 48.864281 51.012937 51.961937 50.95825 C 55.0635 50.899656 57.473656 51.942625 58.668969 53.856687 " transform="matrix(1,0,0,-1,-0.876,93.802)"/>
<path style="fill:none;stroke-width:0.48;stroke-linecap:round;stroke-linejoin:round;stroke:rgb(0%,0%,0%);stroke-opacity:1;stroke-dasharray:3,3;stroke-miterlimit:10;" d="M 40.645531 25.009031 C 41.840844 26.923094 41.71975 29.548094 40.309594 32.309812 C 38.899437 35.071531 36.317406 37.7395 33.129906 39.731687 C 29.942406 41.723875 26.411156 42.876219 23.3135 42.930906 C 20.211937 42.985594 17.801781 41.942625 16.606469 40.032469 " transform="matrix(1,0,0,-1,-0.876,93.802)"/>
<path style="fill:none;stroke-width:0.48;stroke-linecap:round;stroke-linejoin:round;stroke:rgb(0%,0%,0%);stroke-opacity:1;stroke-miterlimit:10;" d="M 16.606469 40.032469 C 15.411156 38.118406 15.528344 35.493406 16.9385 32.731687 C 18.348656 29.969969 20.930687 27.302 24.118187 25.309812 C 27.305687 23.317625 30.836937 22.165281 33.9385 22.110594 C 37.036156 22.055906 39.450219 23.098875 40.645531 25.009031 M 34.633812 42.137937 L 40.641625 51.751219 " transform="matrix(1,0,0,-1,-0.876,93.802)"/>
<path style="fill-rule:nonzero;fill:rgb(0%,0%,0%);fill-opacity:1;stroke-width:0.48;stroke-linecap:round;stroke-linejoin:round;stroke:rgb(0%,0%,0%);stroke-opacity:1;stroke-miterlimit:10;" d="M 38.747094 46.407469 L 40.641625 51.751219 L 36.668969 47.70825 L 38.747094 46.407469 Z M 38.747094 46.407469 " transform="matrix(1,0,0,-1,-0.876,93.802)"/>
<path style="fill:none;stroke-width:0.48;stroke-linecap:round;stroke-linejoin:round;stroke:rgb(0%,0%,0%);stroke-opacity:1;stroke-miterlimit:10;" d="M 49.059594 19.751219 L 67.083031 48.598875 " transform="matrix(1,0,0,-1,-0.876,93.802)"/>
<path style="fill-rule:nonzero;fill:rgb(0%,0%,0%);fill-opacity:1;stroke-width:0.48;stroke-linecap:round;stroke-linejoin:round;stroke:rgb(0%,0%,0%);stroke-opacity:1;stroke-miterlimit:10;" d="M 65.192406 43.255125 L 67.083031 48.598875 L 63.110375 44.555906 L 65.192406 43.255125 Z M 65.192406 43.255125 " transform="matrix(1,0,0,-1,-0.876,93.802)"/>
<path style="fill:none;stroke-width:0.48;stroke-linecap:round;stroke-linejoin:round;stroke:rgb(0%,0%,0%);stroke-opacity:1;stroke-miterlimit:10;" d="M 28.321312 69.477781 L 38.836937 86.305906 " transform="matrix(1,0,0,-1,-0.876,93.802)"/>
<path style="fill-rule:nonzero;fill:rgb(0%,0%,0%);fill-opacity:1;stroke-width:0.48;stroke-linecap:round;stroke-linejoin:round;stroke:rgb(0%,0%,0%);stroke-opacity:1;stroke-miterlimit:10;" d="M 36.942406 80.962156 L 38.836937 86.305906 L 34.860375 82.262937 L 36.942406 80.962156 Z M 36.942406 80.962156 " transform="matrix(1,0,0,-1,-0.876,93.802)"/>
<path style="fill:none;stroke-width:0.36;stroke-linecap:round;stroke-linejoin:round;stroke:rgb(0%,0%,0%);stroke-opacity:1;stroke-miterlimit:10;" d="M 61.075219 52.356687 L 70.6885 46.344969 M 43.047875 23.509031 L 52.665062 17.497312 M 14.801781 47.841062 C 20.336937 45.024656 24.301781 39.934812 26.21975 34.024656 " transform="matrix(1,0,0,-1,-0.876,93.802)"/>
<path style="fill-rule:nonzero;fill:rgb(0%,0%,0%);fill-opacity:1;stroke-width:0.36;stroke-linecap:round;stroke-linejoin:round;stroke:rgb(0%,0%,0%);stroke-opacity:1;stroke-miterlimit:10;" d="M 23.770531 37.497312 C 24.676781 36.415281 25.497094 35.251219 26.21975 34.024656 C 26.083031 35.442625 25.833031 36.844969 25.46975 38.20825 L 23.770531 37.497312 Z M 23.770531 37.497312 " transform="matrix(1,0,0,-1,-0.876,93.802)"/>
</g>
</g>
</g>
<g clip-path="url(#clip4)" clip-rule="nonzero">
<g style="fill:rgb(0%,0%,0%);fill-opacity:1;">
  <use xlink:href="#glyph0-1" x="7.822" y="48.318"/>
</g>
<g style="fill:rgb(0%,0%,0%);fill-opacity:1;">
  <use xlink:href="#glyph1-1" x="39.376" y="49.438"/>
</g>
<g style="fill:rgb(0%,0%,0%);fill-opacity:1;">
  <use xlink:href="#glyph0-2" x="58.368" y="63.058"/>
</g>
<g style="fill:rgb(0%,0%,0%);fill-opacity:1;">
  <use xlink:href="#glyph1-2" x="62.858" y="63.058"/>
</g>
<g style="fill:rgb(0%,0%,0%);fill-opacity:1;">
  <use xlink:href="#glyph0-3" x="26.811" y="19.251"/>
</g>
</g>
</g>
</svg>
