<?xml version="1.0" encoding="UTF-8"?>
<svg xmlns="http://www.w3.org/2000/svg" xmlns:xlink="http://www.w3.org/1999/xlink" width="285.78838324886476pt" height="122.97560733739029pt" viewBox="0 0 165 71" version="1.1">
<defs>
<g>
<symbol overflow="visible" id="glyph0-0">
<path style="stroke:none;" d=""/>
</symbol>
<symbol overflow="visible" id="glyph0-1">
<path style="stroke:none;" d="M 0.859375 -3.421875 C 0.21875 -2.65625 0.203125 -1.5 0.828125 -0.703125 C 1.078125 -0.375 1.4375 -0.125 1.890625 0.015625 C 3.15625 0.359375 4.1875 -0.46875 4.453125 -1.40625 C 4.703125 -2.203125 4.46875 -3.09375 3.859375 -3.65625 C 3.546875 -3.9375 3.109375 -4.15625 2.59375 -4.203125 C 1.8125 -4.25 1.203125 -3.859375 0.859375 -3.421875 Z M 2.96875 -3.78125 C 3.375 -3.65625 3.703125 -3.375 3.90625 -3 C 4.015625 -2.78125 4.078125 -2.515625 4.09375 -2.265625 C 4.15625 -1.5625 3.859375 -0.796875 3.21875 -0.453125 C 2.90625 -0.28125 2.515625 -0.203125 2.109375 -0.296875 C 1.828125 -0.359375 1.578125 -0.515625 1.390625 -0.671875 C 1.03125 -1.015625 0.859375 -1.5 0.828125 -1.984375 C 0.765625 -2.84375 1.203125 -3.484375 1.828125 -3.734375 C 2.171875 -3.875 2.5625 -3.90625 2.96875 -3.78125 Z M 2.96875 -3.78125 "/>
</symbol>
<symbol overflow="visible" id="glyph0-2">
<path style="stroke:none;" d="M 0.625 -4.109375 L 0.625 0 L 1.078125 0 L 1.078125 -1.71875 L 1.953125 -1.71875 C 2.078125 -1.71875 2.234375 -1.71875 2.359375 -1.71875 C 3.015625 -1.765625 3.640625 -2.140625 3.75 -2.734375 C 3.8125 -3.078125 3.6875 -3.359375 3.53125 -3.5625 C 3.28125 -3.84375 2.90625 -4.046875 2.46875 -4.09375 C 2.25 -4.125 2.046875 -4.109375 1.84375 -4.109375 L 0.625 -4.109375 Z M 1.0625 -2.0625 L 1.0625 -3.765625 L 1.953125 -3.765625 C 2.46875 -3.765625 2.953125 -3.703125 3.203125 -3.359375 C 3.40625 -3.09375 3.40625 -2.71875 3.203125 -2.453125 C 3.125 -2.359375 3.046875 -2.296875 2.9375 -2.234375 C 2.640625 -2.0625 2.296875 -2.0625 1.96875 -2.0625 L 1.0625 -2.0625 Z M 1.0625 -2.0625 "/>
</symbol>
<symbol overflow="visible" id="glyph0-3">
<path style="stroke:none;" d="M 0.234375 -4.09375 L 0.234375 -3.75 L 2.0625 -3.75 L 2.0625 0 L 2.5 0 L 2.5 -3.75 L 4.3125 -3.75 L 4.3125 -4.09375 L 0.234375 -4.09375 Z M 0.234375 -4.09375 "/>
</symbol>
<symbol overflow="visible" id="glyph0-4">
<path style="stroke:none;" d="M 0.625 -4.109375 L 0.625 0 L 1.078125 0 L 1.078125 -4.109375 L 0.625 -4.109375 Z M 0.625 -4.109375 "/>
</symbol>
<symbol overflow="visible" id="glyph0-5">
<path style="stroke:none;" d="M 3.84375 -0.671875 C 3.5 -0.5 3.296875 -0.3125 2.8125 -0.3125 C 2.625 -0.296875 2.453125 -0.296875 2.265625 -0.328125 C 1.796875 -0.421875 1.390625 -0.765625 1.171875 -1.171875 C 0.765625 -1.9375 0.953125 -2.984375 1.65625 -3.5 C 1.78125 -3.59375 1.90625 -3.65625 2.03125 -3.71875 C 2.4375 -3.859375 2.90625 -3.84375 3.3125 -3.6875 C 3.453125 -3.625 3.578125 -3.5625 3.71875 -3.484375 C 3.75 -3.640625 3.78125 -3.796875 3.796875 -3.953125 C 3.671875 -3.984375 3.546875 -4.03125 3.40625 -4.0625 C 3.125 -4.140625 2.703125 -4.1875 2.375 -4.15625 C 1.765625 -4.09375 1.25 -3.75 0.9375 -3.359375 C 0.546875 -2.84375 0.421875 -2.171875 0.5625 -1.546875 C 0.8125 -0.578125 1.625 0.109375 2.78125 0.046875 C 3.171875 0.03125 3.421875 -0.0625 3.71875 -0.203125 C 3.75 -0.21875 3.84375 -0.265625 3.859375 -0.296875 C 3.875 -0.328125 3.84375 -0.59375 3.84375 -0.671875 Z M 3.84375 -0.671875 "/>
</symbol>
<symbol overflow="visible" id="glyph0-6">
<path style="stroke:none;" d="M 0.1875 0 L 0.484375 0 C 0.53125 0 0.578125 0.015625 0.609375 -0.015625 C 0.640625 -0.03125 0.640625 -0.0625 0.65625 -0.078125 C 0.734375 -0.296875 1.03125 -1.015625 1.078125 -1.09375 C 1.078125 -1.15625 1.09375 -1.1875 1.171875 -1.1875 L 2.59375 -1.1875 C 2.75 -1.1875 2.90625 -1.1875 3.0625 -1.1875 C 3.125 -1.171875 3.15625 -1.09375 3.171875 -1.046875 C 3.234375 -0.875 3.546875 -0.09375 3.578125 -0.046875 C 3.59375 0.015625 3.65625 0 3.75 0 L 4.078125 0 C 3.921875 -0.390625 3.765625 -0.765625 3.609375 -1.140625 L 2.390625 -4.109375 C 2.375 -4.125 2.375 -4.15625 2.34375 -4.171875 C 2.3125 -4.171875 2.265625 -4.171875 2.234375 -4.171875 L 2.015625 -4.171875 C 1.984375 -4.171875 1.921875 -4.1875 1.890625 -4.15625 C 1.875 -4.140625 1.859375 -4.109375 1.859375 -4.09375 L 0.640625 -1.140625 L 0.34375 -0.421875 C 0.296875 -0.28125 0.234375 -0.140625 0.1875 0 Z M 2.109375 -3.671875 C 2.375 -2.9375 2.6875 -2.25 2.96875 -1.53125 L 1.25 -1.53125 C 1.53125 -2.25 1.828125 -2.9375 2.109375 -3.671875 L 2.109375 -3.671875 Z M 2.109375 -3.671875 "/>
</symbol>
<symbol overflow="visible" id="glyph0-7">
<path style="stroke:none;" d="M 0.625 -4.109375 L 0.625 0 L 3.296875 0 L 3.296875 -0.34375 L 1.078125 -0.34375 L 1.078125 -4.109375 L 0.625 -4.109375 Z M 0.625 -4.109375 "/>
</symbol>
<symbol overflow="visible" id="glyph0-8">
<path style="stroke:none;" d="M 0.375 -0.78125 C 0.359375 -0.71875 0.28125 -0.34375 0.296875 -0.3125 C 0.3125 -0.296875 0.328125 -0.296875 0.34375 -0.28125 L 0.5 -0.203125 C 1.046875 0.078125 2 0.25 2.640625 -0.109375 C 2.96875 -0.28125 3.28125 -0.640625 3.28125 -1.109375 C 3.28125 -1.71875 2.796875 -2.09375 2.375 -2.234375 C 2.265625 -2.265625 1.8125 -2.359375 1.734375 -2.375 C 1.4375 -2.453125 1.09375 -2.515625 0.890625 -2.78125 C 0.859375 -2.8125 0.828125 -2.859375 0.8125 -2.90625 C 0.65625 -3.296875 0.953125 -3.625 1.3125 -3.75 C 1.703125 -3.90625 2.1875 -3.859375 2.546875 -3.71875 C 2.640625 -3.671875 2.734375 -3.625 2.8125 -3.5625 C 2.875 -3.53125 2.921875 -3.484375 2.96875 -3.453125 C 3 -3.5625 3.015625 -3.671875 3.03125 -3.78125 C 3.046875 -3.859375 3.078125 -3.921875 2.984375 -3.9375 L 2.84375 -4.015625 C 2.1875 -4.28125 1.328125 -4.3125 0.75 -3.84375 C 0.671875 -3.78125 0.609375 -3.703125 0.546875 -3.625 C 0.375 -3.375 0.296875 -3.015625 0.46875 -2.671875 C 0.609375 -2.390625 0.859375 -2.1875 1.1875 -2.078125 C 1.3125 -2.03125 1.4375 -2 1.5625 -1.96875 C 1.703125 -1.9375 2.171875 -1.84375 2.25 -1.8125 C 2.484375 -1.734375 2.71875 -1.578125 2.8125 -1.359375 C 2.875 -1.25 2.890625 -1.171875 2.890625 -1.03125 C 2.84375 -0.671875 2.53125 -0.421875 2.203125 -0.328125 C 1.6875 -0.1875 1.09375 -0.34375 0.71875 -0.546875 C 0.59375 -0.609375 0.484375 -0.703125 0.375 -0.78125 Z M 0.375 -0.78125 "/>
</symbol>
<symbol overflow="visible" id="glyph0-9">
<path style="stroke:none;" d="M 0.015625 -4.109375 L 1.90625 -1.640625 C 1.921875 -1.109375 1.90625 -0.546875 1.90625 0 L 2.34375 0 C 2.34375 -0.546875 2.328125 -1.109375 2.34375 -1.640625 L 2.40625 -1.71875 L 4.234375 -4.109375 C 4.0625 -4.109375 3.890625 -4.109375 3.71875 -4.109375 L 3.671875 -4.046875 L 2.53125 -2.5625 C 2.40625 -2.390625 2.28125 -2.234375 2.140625 -2.0625 L 2 -2.25 L 1.765625 -2.5625 C 1.359375 -3.0625 0.984375 -3.59375 0.578125 -4.09375 C 0.421875 -4.125 0.203125 -4.09375 0.015625 -4.109375 Z M 0.015625 -4.109375 "/>
</symbol>
<symbol overflow="visible" id="glyph0-10">
<path style="stroke:none;" d="M 0.625 -4.09375 L 0.625 0 L 3.671875 0 L 3.671875 -0.359375 L 1.078125 -0.359375 L 1.078125 -1.953125 L 3.390625 -1.953125 L 3.390625 -2.296875 L 1.078125 -2.296875 L 1.078125 -3.75 L 3.578125 -3.75 L 3.578125 -4.09375 L 0.625 -4.09375 Z M 0.625 -4.09375 "/>
</symbol>
<symbol overflow="visible" id="glyph0-11">
<path style="stroke:none;" d="M 0.640625 -4.109375 L 0.640625 0 L 1.046875 0 L 1.046875 -3.671875 L 1.0625 -3.671875 C 1.09375 -3.5625 1.15625 -3.453125 1.203125 -3.328125 C 1.265625 -3.140625 2.515625 -0.234375 2.546875 -0.171875 C 2.59375 -0.109375 2.5625 -0.09375 2.671875 -0.09375 L 2.84375 -0.09375 C 2.875 -0.09375 2.90625 -0.09375 2.9375 -0.09375 C 2.96875 -0.09375 2.984375 -0.125 2.984375 -0.15625 C 3.015625 -0.203125 3.03125 -0.25 3.0625 -0.296875 L 3.328125 -0.953125 C 3.421875 -1.15625 4.46875 -3.59375 4.5 -3.671875 L 4.5 -3.671875 L 4.5 0 L 4.90625 0 L 4.90625 -4.109375 C 4.71875 -4.09375 4.484375 -4.125 4.3125 -4.09375 L 4.265625 -4.015625 L 2.765625 -0.53125 L 1.640625 -3.125 C 1.5 -3.453125 1.375 -3.796875 1.21875 -4.09375 C 1.0625 -4.140625 0.828125 -4.09375 0.640625 -4.109375 Z M 0.640625 -4.109375 "/>
</symbol>
<symbol overflow="visible" id="glyph1-0">
<path style="stroke:none;" d=""/>
</symbol>
<symbol overflow="visible" id="glyph1-1">
<path style="stroke:none;" d="M 1.765625 -4.84375 L 0.734375 0 L 1.109375 0 C 1.15625 0 1.21875 0.015625 1.265625 -0.015625 C 1.296875 -0.03125 1.296875 -0.09375 1.296875 -0.125 C 1.3125 -0.203125 1.671875 -1.875 1.671875 -1.875 C 1.671875 -1.90625 1.671875 -1.984375 1.71875 -2 C 1.734375 -2.03125 1.765625 -2.015625 1.796875 -2.015625 L 2.640625 -2.015625 C 2.859375 -2.015625 3.078125 -2 3.296875 -2.03125 C 3.6875 -2.0625 4.078125 -2.203125 4.40625 -2.421875 C 4.890625 -2.734375 5.3125 -3.296875 5.15625 -3.890625 C 5.0625 -4.28125 4.75 -4.546875 4.421875 -4.6875 C 4.0625 -4.84375 3.65625 -4.84375 3.265625 -4.84375 L 1.765625 -4.84375 Z M 1.765625 -2.421875 C 1.796875 -2.625 1.859375 -2.8125 1.890625 -3.015625 C 1.921875 -3.125 2.15625 -4.21875 2.15625 -4.28125 C 2.171875 -4.34375 2.171875 -4.421875 2.265625 -4.421875 L 3.453125 -4.421875 C 3.9375 -4.421875 4.625 -4.296875 4.6875 -3.6875 C 4.734375 -3.1875 4.359375 -2.765625 3.921875 -2.578125 C 3.546875 -2.421875 3.21875 -2.421875 2.75 -2.421875 L 1.765625 -2.421875 Z M 1.765625 -2.421875 "/>
</symbol>
<symbol overflow="visible" id="glyph1-2">
<path style="stroke:none;" d="M 4.453125 0.78125 L 4.265625 0.515625 L 3.71875 -0.265625 C 3.90625 -0.34375 4.265625 -0.640625 4.359375 -0.71875 C 5.125 -1.421875 5.78125 -2.78125 5.1875 -3.921875 C 4.8125 -4.65625 3.953125 -5.109375 2.875 -4.890625 C 1.71875 -4.640625 0.78125 -3.65625 0.484375 -2.640625 C 0.265625 -1.953125 0.328125 -1.171875 0.78125 -0.59375 C 1.21875 -0.0625 1.90625 0.15625 2.5625 0.109375 C 2.71875 0.09375 2.890625 0.0625 3.046875 0.015625 C 3.078125 0 3.234375 -0.046875 3.265625 -0.046875 C 3.296875 -0.03125 3.421875 0.171875 3.421875 0.171875 L 3.6875 0.578125 L 3.78125 0.6875 C 3.796875 0.703125 3.8125 0.734375 3.828125 0.765625 C 3.875 0.78125 3.953125 0.78125 4 0.78125 L 4.453125 0.78125 Z M 3.484375 -0.578125 L 3.09375 -1.125 L 2.984375 -1.28125 L 2.921875 -1.34375 C 2.75 -1.359375 2.5625 -1.359375 2.390625 -1.359375 L 3.046875 -0.390625 C 2.875 -0.328125 2.703125 -0.296875 2.515625 -0.296875 C 2.078125 -0.28125 1.640625 -0.40625 1.328125 -0.703125 C 1.015625 -1 0.84375 -1.5 0.890625 -2.0625 C 0.96875 -3.09375 1.625 -4.046875 2.59375 -4.40625 C 3.203125 -4.640625 3.984375 -4.59375 4.453125 -4.109375 C 4.671875 -3.890625 4.84375 -3.546875 4.875 -3.1875 C 4.96875 -2.4375 4.671875 -1.671875 4.171875 -1.109375 C 3.984375 -0.90625 3.75 -0.703125 3.484375 -0.578125 Z M 3.484375 -0.578125 "/>
</symbol>
<symbol overflow="visible" id="glyph2-0">
<path style="stroke:none;" d=""/>
</symbol>
<symbol overflow="visible" id="glyph2-1">
<path style="stroke:none;" d="M 1.03125 -2.78125 C 1.015625 -2.78125 0.984375 -2.765625 0.96875 -2.765625 C 0.84375 -2.71875 0.828125 -2.59375 0.78125 -2.484375 L 0.734375 -2.28125 L 0.28125 -0.75 C 0.265625 -0.703125 0.140625 -0.34375 0.15625 -0.296875 C 0.15625 -0.25 0.234375 -0.234375 0.28125 -0.21875 C 0.296875 -0.21875 0.328125 -0.203125 0.34375 -0.203125 C 0.40625 -0.21875 0.421875 -0.296875 0.4375 -0.34375 L 0.640625 -0.78125 L 1.09375 -1.859375 C 1.140625 -1.953125 1.328125 -2.328125 1.34375 -2.421875 C 1.4375 -2.65625 1.203125 -2.8125 1.03125 -2.78125 Z M 1.03125 -2.78125 "/>
</symbol>
</g>
<clipPath id="clip1">
  <path d="M -223 666 L 389 666 L 389 -126 L -223 -126 L -223 666 Z M -223 666 "/>
</clipPath>
<clipPath id="clip2">
  <path d="M 0.785156 71.140625 L 165.195313 71.140625 L 165.195313 -1.199219 L 0.785156 -1.199219 L 0.785156 71.140625 Z M 0.785156 71.140625 "/>
</clipPath>
<clipPath id="clip3">
  <path d="M -223 666 L 389 666 L 389 -126 L -223 -126 L -223 666 Z M -223 666 "/>
</clipPath>
</defs>
<g id="surface0">
<g clip-path="url(#clip1)" clip-rule="nonzero">
<g clip-path="url(#clip2)" clip-rule="nonzero">
<path style="fill:none;stroke-width:7.5;stroke-linecap:butt;stroke-linejoin:miter;stroke:rgb(13.730068%,12.159915%,12.54902%);stroke-opacity:1;stroke-miterlimit:4;" d="M 15.459593 327.926235 L 1465.001327 327.926235 " transform="matrix(0.109606,0,0,-0.109606,0.786,71.142)"/>
<path style=" stroke:none;fill-rule:nonzero;fill:rgb(13.730068%,12.159915%,12.54902%);fill-opacity:1;" d="M 163.277344 35.199219 C 163.277344 36.109375 162.542969 36.84375 161.632813 36.84375 C 160.726563 36.84375 159.988281 36.109375 159.988281 35.199219 C 159.988281 34.292969 160.726563 33.554688 161.632813 33.554688 C 162.542969 33.554688 163.277344 34.292969 163.277344 35.199219 "/>
<path style=" stroke:none;fill-rule:nonzero;fill:rgb(13.730068%,12.159915%,12.54902%);fill-opacity:1;" d="M 4.074219 35.199219 C 4.074219 36.109375 3.339844 36.84375 2.429688 36.84375 C 1.519531 36.84375 0.785156 36.109375 0.785156 35.199219 C 0.785156 34.292969 1.519531 33.554688 2.429688 33.554688 C 3.339844 33.554688 4.074219 34.292969 4.074219 35.199219 "/>
<path style="fill:none;stroke-width:7.5;stroke-linecap:butt;stroke-linejoin:miter;stroke:rgb(13.730068%,12.159915%,12.54902%);stroke-opacity:1;stroke-miterlimit:4;" d="M 429.583826 496.712153 C 291.3761 440.438301 153.204013 384.164448 14.996287 327.926235 " transform="matrix(0.109606,0,0,-0.109606,0.786,71.142)"/>
<path style="fill:none;stroke-width:7.5;stroke-linecap:butt;stroke-linejoin:miter;stroke:rgb(13.730068%,12.159915%,12.54902%);stroke-opacity:1;stroke-dasharray:30,20;stroke-miterlimit:4;" d="M 1068.375803 558.723871 C 1050.734538 565.744738 1032.451773 571.874632 1013.242396 576.828442 C 923.895627 599.815544 829.701965 601.846963 738.466334 590.193036 C 647.480174 578.53911 562.516993 550.812031 478.052756 516.420475 C 461.908326 509.862914 445.728256 503.269714 429.583826 496.712153 " transform="matrix(0.109606,0,0,-0.109606,0.786,71.142)"/>
<path style="fill:none;stroke-width:7.5;stroke-linecap:butt;stroke-linejoin:miter;stroke:rgb(13.730068%,12.159915%,12.54902%);stroke-opacity:1;stroke-miterlimit:4;" d="M 1467.496052 327.926235 C 1420.238846 356.437369 1373.017279 384.948504 1325.760073 413.459639 C 1290.121154 434.985546 1254.446597 456.511453 1218.807678 478.03736 C 1168.734997 508.259163 1121.370875 537.589993 1068.375803 558.723871 " transform="matrix(0.109606,0,0,-0.109606,0.786,71.142)"/>
<path style="fill:none;stroke-width:5;stroke-linecap:butt;stroke-linejoin:miter;stroke:rgb(13.730068%,12.159915%,12.54902%);stroke-opacity:1;stroke-dasharray:30,20;stroke-miterlimit:4;" d="M 429.583826 9.991442 L 1065.417773 9.991442 L 1065.417773 645.825388 L 429.583826 645.825388 L 429.583826 9.991442 Z M 429.583826 9.991442 " transform="matrix(0.109606,0,0,-0.109606,0.786,71.142)"/>
</g>
</g>
<g clip-path="url(#clip3)" clip-rule="nonzero">
<g style="fill:rgb(0%,0%,0%);fill-opacity:1;">
  <use xlink:href="#glyph0-1" x="55.058" y="50.881"/>
  <use xlink:href="#glyph0-2" x="59.989871" y="50.881"/>
  <use xlink:href="#glyph0-3" x="64.139282" y="50.881"/>
  <use xlink:href="#glyph0-4" x="68.704227" y="50.881"/>
  <use xlink:href="#glyph0-5" x="70.40845" y="50.881"/>
  <use xlink:href="#glyph0-6" x="74.62188" y="50.881"/>
  <use xlink:href="#glyph0-7" x="78.890438" y="50.881"/>
</g>
<g style="fill:rgb(0%,0%,0%);fill-opacity:1;">
  <use xlink:href="#glyph0-8" x="84.562683" y="50.881"/>
  <use xlink:href="#glyph0-9" x="88.226613" y="50.881"/>
  <use xlink:href="#glyph0-8" x="92.495172" y="50.881"/>
  <use xlink:href="#glyph0-3" x="96.159102" y="50.881"/>
  <use xlink:href="#glyph0-10" x="100.724046" y="50.881"/>
  <use xlink:href="#glyph0-11" x="104.676064" y="50.881"/>
</g>
<g style="fill:rgb(0%,0%,0%);fill-opacity:1;">
  <use xlink:href="#glyph1-1" x="-0.232" y="43.489"/>
</g>
<g style="fill:rgb(0%,0%,0%);fill-opacity:1;">
  <use xlink:href="#glyph1-1" x="158.108" y="43.489"/>
</g>
<g style="fill:rgb(0%,0%,0%);fill-opacity:1;">
  <use xlink:href="#glyph2-1" x="163.546" y="41.028"/>
</g>
<g style="fill:rgb(0%,0%,0%);fill-opacity:1;">
  <use xlink:href="#glyph1-2" x="40.641" y="15.375"/>
</g>
<g style="fill:rgb(0%,0%,0%);fill-opacity:1;">
  <use xlink:href="#glyph1-2" x="118.707" y="8.572"/>
</g>
<g style="fill:rgb(0%,0%,0%);fill-opacity:1;">
  <use xlink:href="#glyph2-1" x="124.49" y="6.111"/>
</g>
</g>
</g>
</svg>
