<?xml version="1.0" encoding="UTF-8"?>
<svg xmlns="http://www.w3.org/2000/svg" xmlns:xlink="http://www.w3.org/1999/xlink" width="273.66pt" height="219.97pt" viewBox="0 0 158.13 126.81" version="1.1">
<defs>
<g>
<symbol overflow="visible" id="glyph0-0">
<path style="stroke:none;" d=""/>
</symbol>
<symbol overflow="visible" id="glyph0-1">
<path style="stroke:none;" d="M 0.75 -3.296875 C 0.828125 -3.15625 0.9375 -3.03125 1.015625 -2.890625 C 1.078125 -2.8125 1.6875 -1.890625 1.71875 -1.84375 C 1.75 -1.8125 1.796875 -1.75 1.796875 -1.71875 C 1.796875 -1.671875 1.734375 -1.609375 1.6875 -1.59375 C 1.375 -1.296875 0.046875 -0.046875 0 0 C 0.1875 0 0.375 0 0.53125 0 L 0.6875 -0.140625 L 1.984375 -1.4375 C 2.265625 -0.953125 2.546875 -0.46875 2.859375 -0.015625 C 3.03125 0 3.21875 0 3.40625 0 C 3.3125 -0.140625 2.359375 -1.546875 2.34375 -1.578125 C 2.328125 -1.609375 2.28125 -1.65625 2.28125 -1.703125 C 2.28125 -1.75 2.359375 -1.796875 2.390625 -1.8125 C 2.484375 -1.921875 2.609375 -2.015625 2.71875 -2.125 C 2.828125 -2.21875 3.9375 -3.265625 3.96875 -3.296875 C 3.78125 -3.296875 3.609375 -3.296875 3.4375 -3.296875 C 2.96875 -2.890625 2.5625 -2.453125 2.109375 -2.03125 C 1.828125 -2.453125 1.578125 -2.890625 1.28125 -3.296875 C 1.109375 -3.296875 0.9375 -3.296875 0.75 -3.296875 Z M 0.75 -3.296875 "/>
</symbol>
<symbol overflow="visible" id="glyph0-2">
<path style="stroke:none;" d="M 1.78125 -4.859375 L 0.75 0 L 1.109375 0 C 1.140625 0 1.21875 0.015625 1.234375 -0.015625 C 1.265625 -0.046875 1.3125 -0.328125 1.328125 -0.40625 C 1.390625 -0.71875 1.96875 -3.421875 1.96875 -3.421875 C 2.03125 -3.765625 2.125 -4.09375 2.171875 -4.4375 L 2.1875 -4.4375 L 3.765625 0 C 4.015625 -0.015625 4.296875 0.03125 4.5 -0.015625 L 4.53125 -0.125 L 5.53125 -4.859375 L 5.046875 -4.859375 L 4.109375 -0.421875 L 2.640625 -4.53125 C 2.609375 -4.640625 2.5625 -4.75 2.515625 -4.84375 L 2.453125 -4.859375 L 1.78125 -4.859375 Z M 1.78125 -4.859375 "/>
</symbol>
<symbol overflow="visible" id="glyph0-3">
<path style="stroke:none;" d="M 0.21875 0 L 0.578125 0 L 0.734375 -0.015625 L 0.796875 -0.109375 C 1.0625 -0.53125 1.328125 -0.96875 1.609375 -1.390625 L 1.671875 -1.40625 L 3.984375 -1.40625 C 4.078125 -0.9375 4.140625 -0.453125 4.265625 -0.015625 C 4.40625 0.03125 4.640625 -0.015625 4.8125 0 C 4.796875 -0.140625 3.953125 -4.375 3.90625 -4.640625 C 3.90625 -4.671875 3.859375 -4.90625 3.828125 -4.921875 C 3.78125 -4.9375 3.734375 -4.921875 3.703125 -4.921875 L 3.421875 -4.921875 C 3.375 -4.921875 3.3125 -4.9375 3.28125 -4.90625 C 3.234375 -4.875 3.09375 -4.625 3.09375 -4.625 L 1.078125 -1.375 L 0.515625 -0.46875 C 0.40625 -0.328125 0.296875 -0.15625 0.21875 0 Z M 3.421875 -4.34375 C 3.5625 -3.5 3.734375 -2.65625 3.90625 -1.8125 L 1.859375 -1.8125 C 2.359375 -2.671875 2.90625 -3.5 3.421875 -4.34375 Z M 3.421875 -4.34375 "/>
</symbol>
<symbol overflow="visible" id="glyph0-4">
<path style="stroke:none;" d="M 1.78125 -4.859375 L 0.75 0 L 2.21875 0 C 2.46875 0 2.71875 0.015625 2.96875 0 C 3.796875 -0.078125 4.59375 -0.484375 4.890625 -1.125 C 5.046875 -1.515625 4.984375 -1.875 4.640625 -2.15625 C 4.375 -2.375 4.03125 -2.484375 3.703125 -2.546875 C 3.828125 -2.578125 3.96875 -2.609375 4.09375 -2.640625 C 4.609375 -2.828125 5.1875 -3.1875 5.25 -3.71875 C 5.25 -3.765625 5.25 -3.828125 5.25 -3.890625 C 5.171875 -4.296875 4.890625 -4.515625 4.5625 -4.671875 C 4.140625 -4.859375 3.765625 -4.859375 3.234375 -4.859375 L 1.78125 -4.859375 Z M 1.84375 -2.71875 C 1.859375 -2.875 2.09375 -3.9375 2.171875 -4.3125 C 2.1875 -4.375 2.1875 -4.4375 2.265625 -4.4375 L 2.828125 -4.4375 C 3.328125 -4.4375 3.84375 -4.46875 4.3125 -4.234375 C 4.5 -4.15625 4.703125 -4.015625 4.75 -3.796875 C 4.8125 -3.484375 4.53125 -3.234375 4.296875 -3.078125 C 4.25 -3.046875 4.203125 -3.03125 4.15625 -3 C 3.84375 -2.84375 3.5 -2.765625 3.140625 -2.734375 C 2.953125 -2.71875 2.765625 -2.71875 2.578125 -2.71875 L 1.84375 -2.71875 Z M 1.34375 -0.40625 C 1.359375 -0.515625 1.4375 -0.875 1.453125 -0.90625 C 1.5 -1.109375 1.6875 -2.015625 1.71875 -2.1875 C 1.734375 -2.265625 1.734375 -2.328125 1.828125 -2.328125 L 2.53125 -2.328125 C 2.6875 -2.328125 2.84375 -2.34375 3 -2.328125 C 3.390625 -2.3125 3.78125 -2.234375 4.109375 -2.03125 C 4.28125 -1.90625 4.46875 -1.734375 4.46875 -1.453125 C 4.46875 -1.0625 4.109375 -0.796875 3.765625 -0.65625 C 3.53125 -0.53125 3.125 -0.421875 2.828125 -0.421875 C 2.34375 -0.40625 1.84375 -0.40625 1.34375 -0.40625 Z M 1.34375 -0.40625 "/>
</symbol>
<symbol overflow="visible" id="glyph0-5">
<path style="stroke:none;" d="M 4.171875 -0.796875 C 4.0625 -0.75 3.953125 -0.671875 3.84375 -0.625 C 3.5625 -0.5 3.296875 -0.40625 3 -0.375 C 2.734375 -0.34375 2.46875 -0.34375 2.203125 -0.40625 C 1.9375 -0.46875 1.6875 -0.609375 1.515625 -0.78125 C 1.09375 -1.203125 1 -1.828125 1.109375 -2.390625 C 1.28125 -3.296875 1.953125 -4.078125 2.828125 -4.390625 C 3.28125 -4.5625 3.859375 -4.515625 4.28125 -4.375 C 4.546875 -4.265625 4.484375 -4.28125 4.75 -4.125 L 4.96875 -4.671875 C 4.75 -4.734375 4.53125 -4.8125 4.3125 -4.84375 C 3.96875 -4.921875 3.46875 -4.9375 3.125 -4.875 C 2.34375 -4.734375 1.75 -4.3125 1.28125 -3.8125 C 0.671875 -3.09375 0.296875 -2.015625 0.6875 -1.09375 C 0.75 -0.90625 0.859375 -0.734375 0.984375 -0.59375 C 1.390625 -0.140625 1.953125 0.09375 2.765625 0.046875 C 3.25 0.03125 3.515625 -0.0625 3.90625 -0.234375 C 3.953125 -0.25 4 -0.28125 4.046875 -0.296875 C 4.078125 -0.3125 4.109375 -0.328125 4.109375 -0.34375 C 4.15625 -0.40625 4.171875 -0.796875 4.171875 -0.796875 Z M 4.171875 -0.796875 "/>
</symbol>
<symbol overflow="visible" id="glyph0-6">
<path style="stroke:none;" d="M 1.765625 -4.84375 L 0.734375 0 C 1.921875 0 3.171875 0.015625 4.328125 0 C 4.375 -0.140625 4.40625 -0.28125 4.4375 -0.4375 L 1.359375 -0.4375 L 1.75 -2.3125 C 2.65625 -2.3125 3.625 -2.296875 4.484375 -2.3125 C 4.546875 -2.421875 4.5625 -2.578125 4.59375 -2.71875 L 1.84375 -2.71875 C 1.96875 -3.296875 2.09375 -3.859375 2.203125 -4.4375 L 5.171875 -4.4375 L 5.25 -4.84375 L 1.765625 -4.84375 Z M 1.765625 -4.84375 "/>
</symbol>
<symbol overflow="visible" id="glyph0-7">
<path style="stroke:none;" d="M 1.25 -4.859375 L 2.3125 -3.1875 C 2.4375 -2.96875 2.59375 -2.796875 2.6875 -2.5625 L 2.65625 -2.5 L 2.015625 -1.890625 L 0.109375 0 C 0.328125 0 0.546875 0 0.75 0 L 0.828125 -0.0625 L 2.9375 -2.1875 C 3.234375 -1.65625 3.578125 -1.140625 3.890625 -0.609375 C 4.015625 -0.40625 4.125 -0.1875 4.265625 -0.015625 C 4.453125 0.03125 4.71875 -0.015625 4.921875 0 C 4.4375 -0.8125 3.90625 -1.578125 3.421875 -2.375 C 3.375 -2.4375 3.34375 -2.484375 3.3125 -2.5625 L 3.359375 -2.625 L 4.609375 -3.84375 L 5.625 -4.859375 C 5.40625 -4.859375 5.1875 -4.859375 4.984375 -4.84375 L 4.921875 -4.796875 L 3.09375 -2.96875 C 2.6875 -3.59375 2.3125 -4.234375 1.90625 -4.84375 C 1.71875 -4.890625 1.46875 -4.84375 1.25 -4.859375 Z M 1.25 -4.859375 "/>
</symbol>
<symbol overflow="visible" id="glyph0-8">
<path style="stroke:none;" d="M 1.765625 -4.84375 L 0.734375 0 C 0.921875 0 1.09375 0 1.265625 -0.015625 L 1.28125 -0.0625 L 1.734375 -2.21875 L 3.59375 -2.21875 C 3.8125 -2.234375 4.078125 -2.203125 4.25 -2.234375 C 4.296875 -2.359375 4.328125 -2.5 4.359375 -2.625 L 1.828125 -2.625 C 1.953125 -3.234375 2.09375 -3.828125 2.203125 -4.4375 L 5.0625 -4.4375 L 5.15625 -4.84375 L 1.765625 -4.84375 Z M 1.765625 -4.84375 "/>
</symbol>
<symbol overflow="visible" id="glyph1-0">
<path style="stroke:none;" d=""/>
</symbol>
<symbol overflow="visible" id="glyph1-1">
<path style="stroke:none;" d="M 0.21875 0 L 0.578125 0 C 0.625 0 0.6875 0.015625 0.71875 -0.015625 C 0.75 -0.03125 0.75 -0.0625 0.765625 -0.09375 C 0.875 -0.34375 1.21875 -1.203125 1.265625 -1.296875 C 1.28125 -1.359375 1.296875 -1.40625 1.375 -1.40625 L 3.0625 -1.40625 C 3.25 -1.40625 3.4375 -1.40625 3.625 -1.40625 C 3.703125 -1.390625 3.71875 -1.296875 3.75 -1.234375 C 3.828125 -1.03125 4.203125 -0.125 4.234375 -0.0625 C 4.25 0.015625 4.3125 0 4.4375 0 L 4.8125 0 C 4.640625 -0.453125 4.453125 -0.890625 4.265625 -1.34375 L 2.828125 -4.84375 C 2.8125 -4.875 2.8125 -4.921875 2.765625 -4.921875 C 2.734375 -4.9375 2.6875 -4.921875 2.640625 -4.921875 L 2.375 -4.921875 C 2.34375 -4.921875 2.28125 -4.9375 2.234375 -4.90625 C 2.21875 -4.90625 2.203125 -4.859375 2.1875 -4.828125 L 0.765625 -1.34375 L 0.40625 -0.484375 C 0.34375 -0.328125 0.265625 -0.171875 0.21875 0 Z M 2.5 -4.34375 C 2.8125 -3.484375 3.171875 -2.65625 3.515625 -1.8125 L 1.46875 -1.8125 C 1.8125 -2.65625 2.171875 -3.484375 2.484375 -4.34375 L 2.5 -4.34375 Z M 2.5 -4.34375 "/>
</symbol>
<symbol overflow="visible" id="glyph1-2">
<path style="stroke:none;" d="M 0.734375 -4.859375 L 0.734375 0 L 1.28125 0 L 1.28125 -4.859375 L 0.734375 -4.859375 Z M 0.734375 -4.859375 "/>
</symbol>
<symbol overflow="visible" id="glyph1-3">
<path style="stroke:none;" d="M 0.734375 -4.859375 L 0.734375 0 L 1.265625 0 L 1.265625 -2.234375 L 2.296875 -2.234375 C 2.421875 -2.234375 2.5625 -2.234375 2.671875 -2.21875 C 2.796875 -2.046875 2.921875 -1.859375 3.046875 -1.6875 C 3.4375 -1.140625 3.828125 -0.5625 4.234375 -0.015625 C 4.40625 0 4.59375 0 4.78125 0 L 4.5 -0.40625 L 3.140625 -2.28125 C 3.265625 -2.296875 3.40625 -2.34375 3.53125 -2.390625 C 4.03125 -2.578125 4.59375 -2.984375 4.5625 -3.578125 C 4.53125 -3.8125 4.46875 -3.96875 4.359375 -4.125 C 4.03125 -4.53125 3.5 -4.78125 2.890625 -4.84375 C 2.640625 -4.859375 2.390625 -4.859375 2.140625 -4.859375 L 0.734375 -4.859375 Z M 1.265625 -2.625 L 1.265625 -4.4375 L 2.3125 -4.4375 C 2.65625 -4.4375 3.015625 -4.4375 3.359375 -4.34375 C 3.6875 -4.234375 4.03125 -3.984375 4.0625 -3.609375 C 4.078125 -3.375 3.984375 -3.15625 3.828125 -3 C 3.703125 -2.890625 3.5625 -2.8125 3.40625 -2.75 C 3.0625 -2.625 2.6875 -2.625 2.34375 -2.625 L 1.265625 -2.625 Z M 1.265625 -2.625 "/>
</symbol>
<symbol overflow="visible" id="glyph1-4">
<path style="stroke:none;" d="M 0.109375 -4.859375 C 0.140625 -4.71875 1.609375 -0.25 1.609375 -0.25 C 1.625 -0.203125 1.6875 0.015625 1.71875 0.03125 C 1.75 0.0625 1.796875 0.046875 1.828125 0.046875 L 2.046875 0.046875 C 2.09375 0.046875 2.125 0.0625 2.171875 0.046875 C 2.203125 0.046875 2.21875 0 2.21875 -0.015625 C 2.234375 -0.078125 2.53125 -0.984375 2.53125 -0.984375 L 3.21875 -3.125 C 3.3125 -3.40625 3.53125 -4.078125 3.578125 -4.34375 L 3.59375 -4.34375 C 3.6875 -3.90625 3.828125 -3.546875 3.9375 -3.140625 C 4.28125 -2.078125 4.609375 -1.015625 4.96875 0.03125 C 5.125 0.0625 5.3125 0.046875 5.46875 0.046875 L 5.515625 -0.03125 L 6.65625 -3.53125 L 7.078125 -4.859375 C 6.9375 -4.859375 6.765625 -4.859375 6.625 -4.84375 L 6.59375 -4.765625 C 6.140625 -3.34375 5.65625 -1.953125 5.234375 -0.515625 L 5.234375 -0.515625 C 5.21875 -0.640625 5.171875 -0.765625 5.125 -0.890625 L 4.90625 -1.578125 C 4.84375 -1.8125 3.890625 -4.796875 3.84375 -4.84375 C 3.828125 -4.875 3.75 -4.859375 3.71875 -4.859375 L 3.359375 -4.859375 L 2.390625 -1.890625 C 2.265625 -1.421875 2.09375 -1 1.984375 -0.515625 C 1.6875 -1.609375 1.3125 -2.640625 0.984375 -3.71875 C 0.84375 -4.09375 0.75 -4.5 0.609375 -4.84375 C 0.453125 -4.859375 0.28125 -4.859375 0.109375 -4.859375 Z M 0.109375 -4.859375 "/>
</symbol>
<symbol overflow="visible" id="glyph1-5">
<path style="stroke:none;" d="M 0.28125 -4.84375 L 0.28125 -4.421875 L 2.421875 -4.421875 L 2.421875 0 L 2.96875 0 L 2.96875 -4.421875 L 5.109375 -4.421875 L 5.109375 -4.84375 L 0.28125 -4.84375 Z M 0.28125 -4.84375 "/>
</symbol>
<symbol overflow="visible" id="glyph1-6">
<path style="stroke:none;" d="M 0.734375 -4.84375 L 0.734375 0 L 4.34375 0 L 4.34375 -0.4375 L 1.265625 -0.4375 L 1.265625 -2.3125 L 4.015625 -2.3125 L 4.015625 -2.71875 L 1.265625 -2.71875 L 1.265625 -4.4375 L 4.234375 -4.4375 L 4.234375 -4.84375 L 0.734375 -4.84375 Z M 0.734375 -4.84375 "/>
</symbol>
<symbol overflow="visible" id="glyph2-0">
<path style="stroke:none;" d=""/>
</symbol>
<symbol overflow="visible" id="glyph2-1">
<path style="stroke:none;" d="M 1.015625 -2.734375 C 1 -2.734375 0.96875 -2.734375 0.953125 -2.71875 C 0.828125 -2.671875 0.8125 -2.5625 0.78125 -2.453125 L 0.71875 -2.25 L 0.265625 -0.734375 C 0.25 -0.6875 0.140625 -0.328125 0.140625 -0.296875 C 0.15625 -0.25 0.234375 -0.234375 0.28125 -0.21875 C 0.296875 -0.21875 0.3125 -0.203125 0.34375 -0.203125 C 0.390625 -0.21875 0.421875 -0.296875 0.4375 -0.34375 L 0.625 -0.765625 L 1.078125 -1.828125 C 1.125 -1.921875 1.296875 -2.296875 1.328125 -2.390625 C 1.40625 -2.609375 1.171875 -2.765625 1.015625 -2.734375 Z M 1.015625 -2.734375 "/>
</symbol>
</g>
</defs>
<g id="surface0">
<path style="fill:none;stroke-width:5.10132;stroke-linecap:round;stroke-linejoin:round;stroke:rgb(0%,0%,0%);stroke-opacity:1;stroke-miterlimit:10;" d="M 1444.921875 678.060937 L 56.25 678.060937 " transform="matrix(0.1,0,0,-0.1,0,126.81)"/>
<path style=" stroke:none;fill-rule:nonzero;fill:rgb(0%,0%,0%);fill-opacity:1;" d="M 150.160156 59.003906 L 144.492188 57.746094 L 144.492188 60.261719 L 150.160156 59.003906 "/>
<path style="fill:none;stroke-width:5.10132;stroke-linecap:round;stroke-linejoin:round;stroke:rgb(0%,0%,0%);stroke-opacity:1;stroke-miterlimit:10;" d="M 1501.601563 678.060937 L 1444.921875 690.639062 L 1444.921875 665.482812 L 1501.601563 678.060937 Z M 1501.601563 678.060937 " transform="matrix(0.1,0,0,-0.1,0,126.81)"/>
<path style="fill:none;stroke-width:5.10132;stroke-linecap:round;stroke-linejoin:round;stroke:rgb(0%,0%,0%);stroke-opacity:1;stroke-miterlimit:10;" d="M 56.25 649.740625 L 56.25 706.420312 " transform="matrix(0.1,0,0,-0.1,0,126.81)"/>
<path style="fill:none;stroke-width:5.10132;stroke-linecap:round;stroke-linejoin:round;stroke:rgb(0%,0%,0%);stroke-opacity:1;stroke-miterlimit:10;" d="M 1019.804688 1188.217187 L 1019.804688 82.904687 " transform="matrix(0.1,0,0,-0.1,0,126.81)"/>
<path style="fill:none;stroke-width:5.10132;stroke-linecap:round;stroke-linejoin:round;stroke:rgb(0%,0%,0%);stroke-opacity:1;stroke-dasharray:41.6908,41.6908;stroke-miterlimit:10;" d="M 81.40625 1145.951562 L 1493.28125 41.225 " transform="matrix(0.1,0,0,-0.1,0,126.81)"/>
<path style="fill:none;stroke-width:5.10132;stroke-linecap:round;stroke-linejoin:round;stroke:rgb(0%,0%,0%);stroke-opacity:1;stroke-miterlimit:10;" d="M 81.40625 1145.951562 L 849.765625 678.060937 L 1493.28125 41.225 " transform="matrix(0.1,0,0,-0.1,0,126.81)"/>
<path style="fill:none;stroke-width:5.10132;stroke-linecap:round;stroke-linejoin:round;stroke:rgb(0%,0%,0%);stroke-opacity:1;stroke-miterlimit:10;" d="M 849.765625 678.060937 L 883.632813 745.951562 " transform="matrix(0.1,0,0,-0.1,0,126.81)"/>
<path style="fill:none;stroke-width:5.10132;stroke-linecap:round;stroke-linejoin:round;stroke:rgb(0%,0%,0%);stroke-opacity:1;stroke-miterlimit:10;" d="M 1019.804688 678.060937 L 935.703125 593.060937 " transform="matrix(0.1,0,0,-0.1,0,126.81)"/>
<path style="fill:none;stroke-width:7.08516;stroke-linecap:round;stroke-linejoin:round;stroke:rgb(0%,0%,0%);stroke-opacity:1;stroke-miterlimit:10;" d="M 81.40625 1145.951562 L 1019.804688 678.060937 L 1493.28125 41.225 " transform="matrix(0.1,0,0,-0.1,0,126.81)"/>
<path style="fill:none;stroke-width:28.3407;stroke-linecap:round;stroke-linejoin:round;stroke:rgb(0%,0%,0%);stroke-opacity:1;stroke-miterlimit:10;" d="M 81.40625 1145.951562 L 81.40625 1145.951562 " transform="matrix(0.1,0,0,-0.1,0,126.81)"/>
<path style="fill:none;stroke-width:28.3407;stroke-linecap:round;stroke-linejoin:round;stroke:rgb(0%,0%,0%);stroke-opacity:1;stroke-miterlimit:10;" d="M 1493.28125 41.225 L 1493.28125 41.225 " transform="matrix(0.1,0,0,-0.1,0,126.81)"/>
<path style="fill:none;stroke-width:3.68429;stroke-linecap:round;stroke-linejoin:round;stroke:rgb(0%,0%,0%);stroke-opacity:1;stroke-miterlimit:10;" d="M 1019.804688 734.740625 C 997.617188 734.740625 978.398438 721.967187 969.101563 703.373437 " transform="matrix(0.1,0,0,-0.1,0,126.81)"/>
<path style="fill:none;stroke-width:3.68429;stroke-linecap:round;stroke-linejoin:round;stroke:rgb(0%,0%,0%);stroke-opacity:1;stroke-miterlimit:10;" d="M 906.445313 678.060937 C 906.445313 700.2875 893.671875 719.50625 875.078125 728.803125 " transform="matrix(0.1,0,0,-0.1,0,126.81)"/>
<path style="fill:none;stroke-width:3.68429;stroke-linecap:round;stroke-linejoin:round;stroke:rgb(0%,0%,0%);stroke-opacity:1;stroke-miterlimit:10;" d="M 1019.804688 621.38125 L 1019.804688 621.38125 C 1032.5 621.38125 1044.21875 625.560937 1053.632813 632.592187 " transform="matrix(0.1,0,0,-0.1,0,126.81)"/>
<path style="fill:none;stroke-width:3.68429;stroke-linecap:round;stroke-linejoin:round;stroke:rgb(0%,0%,0%);stroke-opacity:1;stroke-miterlimit:10;" d="M 1019.804688 632.709375 L 1019.804688 632.709375 C 1029.960938 632.709375 1039.335938 636.029687 1046.875 641.654687 " transform="matrix(0.1,0,0,-0.1,0,126.81)"/>
<path style="fill:none;stroke-width:3.68429;stroke-linecap:round;stroke-linejoin:round;stroke:rgb(0%,0%,0%);stroke-opacity:1;stroke-miterlimit:10;" d="M 963.164063 678.060937 L 963.164063 678.060937 C 963.164063 662.31875 969.570313 648.060937 979.960938 637.7875 " transform="matrix(0.1,0,0,-0.1,0,126.81)"/>
<path style="fill:none;stroke-width:3.68429;stroke-linecap:round;stroke-linejoin:round;stroke:rgb(0%,0%,0%);stroke-opacity:1;stroke-miterlimit:10;" d="M 974.492188 678.060937 L 974.492188 678.060937 C 974.492188 665.44375 979.609375 654.0375 987.929688 645.834375 " transform="matrix(0.1,0,0,-0.1,0,126.81)"/>
<path style="fill:none;stroke-width:3.68429;stroke-linecap:round;stroke-linejoin:round;stroke:rgb(0%,0%,0%);stroke-opacity:1;stroke-miterlimit:10;" d="M 867.8125 714.271875 L 836.132813 730.053125 L 851.953125 761.771875 " transform="matrix(0.1,0,0,-0.1,0,126.81)"/>
<path style="fill:none;stroke-width:3.68429;stroke-linecap:round;stroke-linejoin:round;stroke:rgb(0%,0%,0%);stroke-opacity:1;stroke-miterlimit:10;" d="M 960.585938 618.217187 L 985.78125 593.295312 L 960.859375 568.139062 " transform="matrix(0.1,0,0,-0.1,0,126.81)"/>
<g style="fill:rgb(0%,0%,0%);fill-opacity:1;">
  <use xlink:href="#glyph0-1" x="145.32" y="65.2498"/>
</g>
<g style="fill:rgb(0%,0%,0%);fill-opacity:1;">
  <use xlink:href="#glyph1-1" x="12.84" y="57.4498"/>
  <use xlink:href="#glyph1-2" x="17.88" y="57.4498"/>
</g>
<g style="fill:rgb(0%,0%,0%);fill-opacity:1;">
  <use xlink:href="#glyph1-3" x="19.920001" y="57.4498"/>
</g>
<g style="fill:rgb(0%,0%,0%);fill-opacity:1;">
  <use xlink:href="#glyph1-4" x="12.84" y="65.36972"/>
</g>
<g style="fill:rgb(0%,0%,0%);fill-opacity:1;">
  <use xlink:href="#glyph1-1" x="19.440005" y="65.36972"/>
</g>
<g style="fill:rgb(0%,0%,0%);fill-opacity:1;">
  <use xlink:href="#glyph1-5" x="23.879848" y="65.36972"/>
</g>
<g style="fill:rgb(0%,0%,0%);fill-opacity:1;">
  <use xlink:href="#glyph1-6" x="29.279852" y="65.36972"/>
</g>
<g style="fill:rgb(0%,0%,0%);fill-opacity:1;">
  <use xlink:href="#glyph1-3" x="33.959854" y="65.36972"/>
</g>
<g style="fill:rgb(0%,0%,0%);fill-opacity:1;">
  <use xlink:href="#glyph0-2" x="99.1201" y="5.84982"/>
</g>
<g style="fill:rgb(0%,0%,0%);fill-opacity:1;">
  <use xlink:href="#glyph0-2" x="98.160334" y="125.84982"/>
</g>
<g style="fill:rgb(0%,0%,0%);fill-opacity:1;">
  <use xlink:href="#glyph2-1" x="103.920104" y="123.3299"/>
</g>
<g style="fill:rgb(0%,0%,0%);fill-opacity:1;">
  <use xlink:href="#glyph0-3" x="0.960104" y="14.6099"/>
</g>
<g style="fill:rgb(0%,0%,0%);fill-opacity:1;">
  <use xlink:href="#glyph0-4" x="151.440104" y="125.1299"/>
</g>
<g style="fill:rgb(0%,0%,0%);fill-opacity:1;">
  <use xlink:href="#glyph0-5" x="103.560404" y="57.4498"/>
</g>
<g style="fill:rgb(0%,0%,0%);fill-opacity:1;">
  <use xlink:href="#glyph0-6" x="89.880304" y="50.72988"/>
</g>
<g style="fill:rgb(0%,0%,0%);fill-opacity:1;">
  <use xlink:href="#glyph0-7" x="78.240104" y="65.36968"/>
</g>
<g style="fill:rgb(0%,0%,0%);fill-opacity:1;">
  <use xlink:href="#glyph0-8" x="87.480334" y="73.16968"/>
</g>
</g>
</svg>
