<?xml version="1.0" encoding="UTF-8"?>
<svg xmlns="http://www.w3.org/2000/svg" xmlns:xlink="http://www.w3.org/1999/xlink" width="273.6640275958826pt" height="181.8653347947321pt" viewBox="0 0 158 105" version="1.1">
<defs>
<g>
<symbol overflow="visible" id="glyph0-0">
<path style="stroke:none;" d=""/>
</symbol>
<symbol overflow="visible" id="glyph0-1">
<path style="stroke:none;" d="M 0.75 -3.296875 C 0.828125 -3.140625 0.921875 -3.015625 1.015625 -2.875 C 1.078125 -2.796875 1.6875 -1.875 1.71875 -1.84375 C 1.734375 -1.8125 1.796875 -1.75 1.796875 -1.703125 C 1.796875 -1.65625 1.71875 -1.609375 1.6875 -1.578125 C 1.375 -1.296875 0.046875 -0.046875 0 0 C 0.1875 0 0.375 0 0.53125 0 L 0.6875 -0.140625 L 1.984375 -1.4375 C 2.265625 -0.953125 2.53125 -0.46875 2.84375 -0.015625 C 3.015625 0 3.203125 0 3.390625 0 C 3.296875 -0.140625 2.359375 -1.53125 2.328125 -1.5625 C 2.3125 -1.609375 2.265625 -1.65625 2.265625 -1.6875 C 2.28125 -1.734375 2.34375 -1.78125 2.375 -1.8125 C 2.484375 -1.921875 2.59375 -2.015625 2.703125 -2.125 C 2.8125 -2.21875 3.921875 -3.25 3.953125 -3.296875 C 3.765625 -3.296875 3.59375 -3.296875 3.421875 -3.28125 C 2.96875 -2.875 2.546875 -2.4375 2.09375 -2.03125 C 1.828125 -2.453125 1.578125 -2.890625 1.28125 -3.28125 C 1.109375 -3.296875 0.921875 -3.296875 0.75 -3.296875 Z M 0.75 -3.296875 "/>
</symbol>
<symbol overflow="visible" id="glyph0-2">
<path style="stroke:none;" d="M 3.359375 -0.796875 C 3.25 -0.734375 3.15625 -0.671875 3.046875 -0.609375 C 2.765625 -0.46875 2.46875 -0.375 2.15625 -0.359375 C 1.9375 -0.34375 1.703125 -0.359375 1.515625 -0.484375 C 1.125 -0.75 1.09375 -1.265625 1.203125 -1.734375 C 1.34375 -2.265625 1.703125 -2.78125 2.265625 -2.921875 C 2.4375 -2.96875 2.609375 -2.96875 2.78125 -2.96875 C 3.078125 -2.953125 3.296875 -2.890625 3.515625 -2.75 C 3.5625 -2.703125 3.609375 -2.671875 3.671875 -2.65625 L 3.828125 -3.078125 C 3.46875 -3.28125 3.140625 -3.40625 2.5625 -3.375 C 2.046875 -3.328125 1.65625 -3.09375 1.34375 -2.8125 C 0.796875 -2.3125 0.296875 -1.1875 0.921875 -0.40625 C 0.984375 -0.328125 1.046875 -0.265625 1.125 -0.203125 C 1.578125 0.140625 2.203125 0.09375 2.734375 -0.078125 C 2.84375 -0.125 3.21875 -0.28125 3.296875 -0.375 C 3.328125 -0.421875 3.359375 -0.78125 3.359375 -0.796875 Z M 3.359375 -0.796875 "/>
</symbol>
<symbol overflow="visible" id="glyph0-3">
<path style="stroke:none;" d="M 0.84375 -3.296875 L 0.765625 -2.90625 L 1.4375 -2.90625 C 1.421875 -2.703125 1.359375 -2.5 1.3125 -2.3125 C 1.25 -2 0.96875 -0.78125 0.96875 -0.484375 C 0.96875 -0.375 0.984375 -0.265625 1.03125 -0.15625 C 1.109375 0 1.25 0.0625 1.46875 0.0625 C 1.734375 0.0625 2.015625 0 2.265625 -0.09375 C 2.328125 -0.109375 2.59375 -0.21875 2.625 -0.25 C 2.640625 -0.28125 2.625 -0.328125 2.625 -0.34375 C 2.625 -0.4375 2.609375 -0.53125 2.609375 -0.625 C 2.46875 -0.546875 2.40625 -0.484375 2.21875 -0.421875 C 2 -0.359375 1.671875 -0.265625 1.546875 -0.484375 C 1.4375 -0.640625 1.5 -0.875 1.546875 -1.046875 C 1.5625 -1.203125 1.921875 -2.84375 1.9375 -2.90625 L 3.078125 -2.90625 L 3.15625 -3.296875 L 2.015625 -3.296875 L 2.21875 -4.234375 C 2.0625 -4.234375 1.890625 -4.234375 1.75 -4.21875 C 1.640625 -3.9375 1.640625 -3.578125 1.53125 -3.296875 L 1.484375 -3.296875 L 0.84375 -3.296875 Z M 0.84375 -3.296875 "/>
</symbol>
</g>
<clipPath id="clip1">
  <path d="M -226 666 L 386 666 L 386 -126 L -226 -126 L -226 666 Z M -226 666 "/>
</clipPath>
<clipPath id="clip2">
  <path d="M 0.253906 104.984375 L 158.996094 104.984375 L 158.996094 -1.199219 L 0.253906 -1.199219 L 0.253906 104.984375 Z M 0.253906 104.984375 "/>
</clipPath>
<clipPath id="clip3">
  <path d="M -226 666 L 386 666 L 386 -126 L -226 -126 L -226 666 Z M -226 666 "/>
</clipPath>
</defs>
<g id="surface0">
<g clip-path="url(#clip1)" clip-rule="nonzero">
<g clip-path="url(#clip2)" clip-rule="nonzero">
<path style="fill:none;stroke-width:5;stroke-linecap:butt;stroke-linejoin:miter;stroke:rgb(13.730068%,12.159915%,12.54902%);stroke-opacity:1;stroke-miterlimit:4;" d="M 1419.706739 269.155761 L 14.712632 269.155761 L 14.712632 934.177079 " transform="matrix(0.107257,0,0,-0.107257,0.254,104.986)"/>
<path style=" stroke:none;fill-rule:nonzero;fill:rgb(13.730068%,12.159915%,12.54902%);fill-opacity:1;" d="M 3.371094 5.851563 L 1.8125 0.0390625 L 0.253906 5.851563 L 3.371094 5.851563 "/>
<path style=" stroke:none;fill-rule:nonzero;fill:rgb(13.730068%,12.159915%,12.54902%);fill-opacity:1;" d="M 151.464844 77.65625 L 157.277344 76.097656 L 151.464844 74.539063 L 151.464844 77.65625 "/>
<path style="fill:none;stroke-width:5;stroke-linecap:butt;stroke-linejoin:miter;stroke:rgb(13.730068%,12.159915%,12.54902%);stroke-opacity:1;stroke-miterlimit:4;" d="M 818.019051 784.638331 L 818.019051 698.251115 " transform="matrix(0.107257,0,0,-0.107257,0.254,104.986)"/>
<path style="fill:none;stroke-width:5;stroke-linecap:butt;stroke-linejoin:miter;stroke:rgb(13.730068%,12.159915%,12.54902%);stroke-opacity:1;stroke-miterlimit:4;" d="M 224.707863 697.996178 L 224.707863 787.26054 " transform="matrix(0.107257,0,0,-0.107257,0.254,104.986)"/>
<path style="fill:none;stroke-width:3.8;stroke-linecap:butt;stroke-linejoin:miter;stroke:rgb(13.730068%,12.159915%,12.54902%);stroke-opacity:1;stroke-miterlimit:4;" d="M 249.873784 741.444723 L 792.74387 741.444723 " transform="matrix(0.107257,0,0,-0.107257,0.254,104.986)"/>
<path style=" stroke:none;fill-rule:nonzero;fill:rgb(13.730068%,12.159915%,12.54902%);fill-opacity:1;" d="M 84.675781 26.339844 L 87.992188 25.449219 L 84.675781 24.5625 L 84.675781 26.339844 "/>
<path style=" stroke:none;fill-rule:nonzero;fill:rgb(13.730068%,12.159915%,12.54902%);fill-opacity:1;" d="M 27.660156 24.582031 L 24.347656 25.472656 L 27.660156 26.359375 L 27.660156 24.582031 "/>
<path style="fill:none;stroke-width:5;stroke-linecap:butt;stroke-linejoin:miter;stroke:rgb(13.730068%,12.159915%,12.54902%);stroke-opacity:1;stroke-miterlimit:4;" d="M 140.942855 505.4095 C 142.21754 515.825497 167.711238 676.144437 224.707863 680.004911 C 305.267948 685.431427 286.584709 6.352155 383.023726 9.994112 C 385.536676 10.103371 388.013207 10.394728 390.416899 10.941021 C 396.863162 12.397804 402.763132 15.420628 408.00755 19.353941 C 413.94394 23.833548 419.00626 29.405742 423.449447 35.378551 C 428.657445 42.443948 433.064213 50.055637 437.033946 57.922264 C 441.549973 66.954317 445.483286 76.314146 449.015984 85.783234 C 452.985717 96.381328 456.481996 107.125101 459.759757 117.941713 C 463.256035 129.595975 466.460957 141.359495 469.483781 153.159435 C 472.652284 165.505669 475.638689 177.924742 478.552254 190.343815 C 481.465819 203.017824 484.306546 215.691834 487.147272 228.365844 C 489.987998 240.967015 492.792305 253.531766 495.669451 266.096517 C 498.437338 278.224233 501.314484 290.351949 504.337308 302.406827 C 507.178035 313.696893 510.164439 324.986959 513.47862 336.167766 C 516.428605 346.255987 519.669947 356.307788 523.311903 366.177491 C 526.516825 374.772509 530.049524 383.258268 534.237774 391.379832 C 537.697633 398.153872 541.630946 404.745814 546.438329 410.645784 C 550.335223 415.380328 554.887669 419.787095 560.277765 422.809919 C 566.505512 426.269778 573.643747 427.945079 580.344948 424.995094 C 588.247994 421.498815 593.455992 414.28774 597.280047 406.821729 C 602.342367 397.024865 605.583708 386.353932 609.043567 375.937935 C 613.268237 363.227506 617.565746 350.480657 623.13794 338.280101 C 629.438526 324.477085 637.305152 311.36604 647.138436 299.821037 C 656.279748 289.150104 673.032749 275.784122 688.074031 268.645887 " transform="matrix(0.107257,0,0,-0.107257,0.254,104.986)"/>
<path style="fill:none;stroke-width:5;stroke-linecap:butt;stroke-linejoin:miter;stroke:rgb(13.730068%,12.159915%,12.54902%);stroke-opacity:1;stroke-dasharray:30,20;stroke-miterlimit:4;" d="M 742.193509 505.4095 C 743.431775 515.825497 768.160661 676.144437 823.481986 680.004911 C 901.674799 685.431427 883.501434 6.352155 977.099725 9.994112 C 979.503417 10.103371 981.907108 10.394728 984.27438 10.941021 C 990.502126 12.397804 996.256418 15.420628 1001.318738 19.353941 C 1007.109449 23.833548 1012.026091 29.405742 1016.3236 35.378551 C 1021.38592 42.443948 1025.64701 50.055637 1029.471064 57.922264 C 1033.877832 66.954317 1037.665467 76.314146 1041.125326 85.783234 C 1044.9858 96.381328 1048.37282 107.125101 1051.541323 117.941713 C 1054.964762 129.595975 1058.060425 141.359495 1061.010411 153.159435 C 1064.069654 165.505669 1066.98322 177.924742 1069.787526 190.343815 C 1072.628253 203.017824 1075.39614 215.691834 1078.127608 228.365844 C 1080.895495 240.967015 1083.590543 253.531766 1086.39485 266.096517 C 1089.089898 278.224233 1091.857785 290.351949 1094.80777 302.406827 C 1097.575657 313.696893 1100.452803 324.986959 1103.657725 336.167766 C 1106.534871 346.255987 1109.666954 356.307788 1113.236072 366.177491 C 1116.331735 374.772509 1119.755174 383.258268 1123.797746 391.379832 C 1127.184766 398.153872 1131.008821 404.745814 1135.670526 410.645784 C 1139.421741 415.380328 1143.864929 419.787095 1149.072927 422.809919 C 1155.118575 426.269778 1162.038293 427.945079 1168.557396 424.995094 C 1176.205505 421.498815 1181.304245 414.28774 1184.982621 406.821729 C 1189.862843 397.024865 1193.067765 386.353932 1196.418366 375.937935 C 1200.497357 363.227506 1204.685608 350.480657 1210.112123 338.280101 C 1216.194191 324.477085 1223.805881 311.36604 1233.384227 299.821037 C 1244.637874 286.236538 1258.404471 275.09215 1273.591431 266.569971 " transform="matrix(0.107257,0,0,-0.107257,0.254,104.986)"/>
</g>
</g>
<g clip-path="url(#clip3)" clip-rule="nonzero">
<g style="fill:rgb(0%,0%,0%);fill-opacity:1;">
  <use xlink:href="#glyph0-1" x="152.936" y="82.484"/>
</g>
<path style=" stroke:none;fill-rule:nonzero;fill:rgb(100%,100%,100%);fill-opacity:1;" d="M 49.410156 30.722656 L 62.78125 30.722656 L 62.78125 20.511719 L 49.410156 20.511719 L 49.410156 30.722656 Z M 49.410156 30.722656 "/>
<g style="fill:rgb(0%,0%,0%);fill-opacity:1;">
  <use xlink:href="#glyph0-2" x="52.401" y="27.733"/>
</g>
<g style="fill:rgb(0%,0%,0%);fill-opacity:1;">
  <use xlink:href="#glyph0-3" x="56.462541" y="27.733"/>
</g>
</g>
</g>
</svg>
