<?xml version="1.0" encoding="UTF-8"?>
<svg xmlns="http://www.w3.org/2000/svg" xmlns:xlink="http://www.w3.org/1999/xlink" width="237pt" height="118pt" viewBox="0 0 171 85" version="1.1">
<defs>
<g>
<symbol overflow="visible" id="glyph0-0">
<path style="stroke:none;" d=""/>
</symbol>
<symbol overflow="visible" id="glyph0-1">
<path style="stroke:none;" d="M 0.75 -3.296875 C 0.828125 -3.140625 0.921875 -3.015625 1.015625 -2.875 C 1.078125 -2.796875 1.6875 -1.875 1.71875 -1.84375 C 1.734375 -1.8125 1.796875 -1.75 1.796875 -1.703125 C 1.796875 -1.65625 1.71875 -1.609375 1.6875 -1.578125 C 1.375 -1.296875 0.046875 -0.046875 0 0 C 0.1875 0 0.375 0 0.53125 0 L 0.6875 -0.140625 L 1.984375 -1.4375 C 2.265625 -0.953125 2.53125 -0.46875 2.84375 -0.015625 C 3.015625 0 3.203125 0 3.390625 0 C 3.296875 -0.140625 2.359375 -1.53125 2.328125 -1.5625 C 2.3125 -1.609375 2.265625 -1.65625 2.265625 -1.6875 C 2.28125 -1.734375 2.34375 -1.78125 2.375 -1.8125 C 2.484375 -1.921875 2.59375 -2.015625 2.703125 -2.125 C 2.8125 -2.21875 3.921875 -3.25 3.953125 -3.296875 C 3.765625 -3.296875 3.59375 -3.296875 3.421875 -3.28125 C 2.96875 -2.875 2.546875 -2.4375 2.09375 -2.03125 C 1.828125 -2.453125 1.578125 -2.890625 1.28125 -3.28125 C 1.109375 -3.296875 0.921875 -3.296875 0.75 -3.296875 Z M 0.75 -3.296875 "/>
</symbol>
<symbol overflow="visible" id="glyph0-2">
<path style="stroke:none;" d="M 3.359375 -0.796875 C 3.25 -0.734375 3.15625 -0.671875 3.046875 -0.609375 C 2.765625 -0.46875 2.46875 -0.375 2.15625 -0.359375 C 1.9375 -0.34375 1.703125 -0.359375 1.515625 -0.484375 C 1.125 -0.75 1.09375 -1.265625 1.203125 -1.734375 C 1.34375 -2.265625 1.703125 -2.78125 2.265625 -2.921875 C 2.4375 -2.96875 2.609375 -2.96875 2.78125 -2.96875 C 3.078125 -2.953125 3.296875 -2.890625 3.515625 -2.75 C 3.5625 -2.703125 3.609375 -2.671875 3.671875 -2.65625 L 3.828125 -3.078125 C 3.46875 -3.28125 3.140625 -3.40625 2.5625 -3.375 C 2.046875 -3.328125 1.65625 -3.09375 1.34375 -2.8125 C 0.796875 -2.3125 0.296875 -1.1875 0.921875 -0.40625 C 0.984375 -0.328125 1.046875 -0.265625 1.125 -0.203125 C 1.578125 0.140625 2.203125 0.09375 2.734375 -0.078125 C 2.84375 -0.125 3.21875 -0.28125 3.296875 -0.375 C 3.328125 -0.421875 3.359375 -0.78125 3.359375 -0.796875 Z M 3.359375 -0.796875 "/>
</symbol>
<symbol overflow="visible" id="glyph0-3">
<path style="stroke:none;" d="M 0.84375 -3.296875 L 0.765625 -2.90625 L 1.4375 -2.90625 C 1.421875 -2.703125 1.359375 -2.5 1.3125 -2.3125 C 1.25 -2 0.96875 -0.78125 0.96875 -0.484375 C 0.96875 -0.375 0.984375 -0.265625 1.03125 -0.15625 C 1.109375 0 1.25 0.0625 1.46875 0.0625 C 1.734375 0.0625 2.015625 0 2.265625 -0.09375 C 2.328125 -0.109375 2.59375 -0.21875 2.625 -0.25 C 2.640625 -0.28125 2.625 -0.328125 2.625 -0.34375 C 2.625 -0.4375 2.609375 -0.53125 2.609375 -0.625 C 2.46875 -0.546875 2.40625 -0.484375 2.21875 -0.421875 C 2 -0.359375 1.671875 -0.265625 1.546875 -0.484375 C 1.4375 -0.640625 1.5 -0.875 1.546875 -1.046875 C 1.5625 -1.203125 1.921875 -2.84375 1.9375 -2.90625 L 3.078125 -2.90625 L 3.15625 -3.296875 L 2.015625 -3.296875 L 2.21875 -4.234375 C 2.0625 -4.234375 1.890625 -4.234375 1.75 -4.21875 C 1.640625 -3.9375 1.640625 -3.578125 1.53125 -3.296875 L 1.484375 -3.296875 L 0.84375 -3.296875 Z M 0.84375 -3.296875 "/>
</symbol>
<symbol overflow="visible" id="glyph0-4">
<path style="stroke:none;" d="M 1.75 -4.828125 L 0.734375 0 C 1.921875 0 3.15625 0.015625 4.3125 0 C 4.359375 -0.125 4.390625 -0.28125 4.40625 -0.4375 L 1.359375 -0.4375 L 1.75 -2.296875 C 2.640625 -2.3125 3.609375 -2.28125 4.46875 -2.3125 C 4.515625 -2.421875 4.546875 -2.578125 4.578125 -2.703125 L 1.84375 -2.703125 C 1.953125 -3.28125 2.078125 -3.84375 2.1875 -4.40625 L 5.15625 -4.40625 L 5.234375 -4.828125 L 1.75 -4.828125 Z M 1.75 -4.828125 "/>
</symbol>
<symbol overflow="visible" id="glyph0-5">
<path style="stroke:none;" d="M 1.765625 -4.84375 L 0.75 0 L 2.203125 0 C 2.453125 0 2.703125 0.015625 2.96875 0 C 3.78125 -0.078125 4.578125 -0.484375 4.875 -1.109375 C 5.03125 -1.5 4.953125 -1.859375 4.625 -2.140625 C 4.359375 -2.359375 4.015625 -2.484375 3.671875 -2.53125 C 3.8125 -2.578125 3.9375 -2.59375 4.078125 -2.640625 C 4.59375 -2.8125 5.15625 -3.171875 5.21875 -3.703125 C 5.21875 -3.75 5.21875 -3.8125 5.21875 -3.875 C 5.140625 -4.28125 4.875 -4.484375 4.53125 -4.640625 C 4.125 -4.84375 3.75 -4.84375 3.21875 -4.84375 L 1.765625 -4.84375 Z M 1.828125 -2.703125 C 1.84375 -2.859375 2.09375 -3.921875 2.171875 -4.296875 C 2.1875 -4.359375 2.171875 -4.421875 2.265625 -4.421875 L 2.828125 -4.421875 C 3.3125 -4.421875 3.828125 -4.453125 4.296875 -4.21875 C 4.46875 -4.125 4.6875 -4 4.71875 -3.78125 C 4.78125 -3.46875 4.515625 -3.21875 4.28125 -3.0625 C 4.234375 -3.03125 4.1875 -3.015625 4.140625 -2.984375 C 3.828125 -2.828125 3.484375 -2.75 3.125 -2.71875 C 2.9375 -2.703125 2.75 -2.703125 2.5625 -2.703125 L 1.828125 -2.703125 Z M 1.34375 -0.40625 C 1.359375 -0.515625 1.4375 -0.859375 1.453125 -0.90625 C 1.484375 -1.09375 1.6875 -2.015625 1.71875 -2.171875 C 1.734375 -2.25 1.71875 -2.328125 1.8125 -2.328125 L 2.515625 -2.328125 C 2.671875 -2.328125 2.84375 -2.328125 2.984375 -2.328125 C 3.375 -2.3125 3.765625 -2.234375 4.09375 -2.015625 C 4.265625 -1.90625 4.453125 -1.734375 4.453125 -1.453125 C 4.453125 -1.046875 4.078125 -0.796875 3.75 -0.640625 C 3.515625 -0.515625 3.109375 -0.421875 2.8125 -0.421875 C 2.328125 -0.40625 1.828125 -0.40625 1.34375 -0.40625 Z M 1.34375 -0.40625 "/>
</symbol>
<symbol overflow="visible" id="glyph1-0">
<path style="stroke:none;" d=""/>
</symbol>
<symbol overflow="visible" id="glyph1-1">
<path style="stroke:none;" d="M 0.734375 -2 C 0.59375 -1.953125 0.578125 -1.734375 0.71875 -1.6875 C 0.765625 -1.671875 0.8125 -1.671875 0.84375 -1.671875 L 4.78125 -1.671875 C 4.875 -1.671875 5.015625 -1.65625 5.09375 -1.71875 C 5.171875 -1.8125 5.125 -1.96875 5 -2 C 4.921875 -2.015625 4.828125 -2 4.734375 -2 L 0.859375 -2 C 0.828125 -2 0.78125 -2 0.734375 -2 Z M 0.734375 -2 "/>
</symbol>
<symbol overflow="visible" id="glyph1-2">
<path style="stroke:none;" d="M 0.984375 -5.21875 C 0.84375 -5.171875 0.859375 -5.03125 0.859375 -4.90625 L 0.859375 1.25 C 0.859375 1.359375 0.84375 1.46875 0.953125 1.53125 C 0.96875 1.53125 0.984375 1.546875 1 1.546875 C 1.015625 1.546875 1.03125 1.546875 1.0625 1.546875 C 1.21875 1.5 1.1875 1.3125 1.1875 1.1875 L 1.1875 -5 C 1.1875 -5.03125 1.1875 -5.078125 1.171875 -5.125 C 1.15625 -5.1875 1.0625 -5.234375 0.984375 -5.21875 Z M 0.984375 -5.21875 "/>
</symbol>
<symbol overflow="visible" id="glyph2-0">
<path style="stroke:none;" d=""/>
</symbol>
<symbol overflow="visible" id="glyph2-1">
<path style="stroke:none;" d="M 0.4375 -2.671875 C 0.375 -2.578125 0.4375 -2.453125 0.53125 -2.421875 C 0.578125 -2.40625 0.625 -2.421875 0.671875 -2.421875 L 5.125 -2.421875 C 5.1875 -2.421875 5.234375 -2.421875 5.296875 -2.453125 C 5.375 -2.546875 5.328125 -2.71875 5.203125 -2.734375 C 5.09375 -2.75 4.984375 -2.734375 4.890625 -2.734375 L 0.671875 -2.734375 C 0.5625 -2.734375 0.5 -2.75 0.4375 -2.671875 Z M 0.4375 -1.1875 C 0.375 -1.09375 0.4375 -0.96875 0.53125 -0.953125 C 0.578125 -0.9375 0.625 -0.9375 0.671875 -0.9375 L 5.125 -0.9375 C 5.1875 -0.9375 5.234375 -0.9375 5.296875 -0.984375 C 5.375 -1.078125 5.328125 -1.234375 5.203125 -1.265625 C 5.09375 -1.28125 4.984375 -1.265625 4.890625 -1.265625 L 0.65625 -1.265625 C 0.5625 -1.265625 0.484375 -1.265625 0.4375 -1.1875 Z M 0.4375 -1.1875 "/>
</symbol>
</g>
<clipPath id="clip1">
  <path d="M -220 667 L 392 667 L 392 -125 L -220 -125 L -220 667 Z M -220 667 "/>
</clipPath>
<clipPath id="clip2">
  <path d="M 0.125 84.800781 L 171.125 84.800781 L 171.125 -0.199219 L 0.125 -0.199219 L 0.125 84.800781 Z M 0.125 84.800781 "/>
</clipPath>
<clipPath id="clip3">
  <path d="M -220 667 L 392 667 L 392 -125 L -220 -125 L -220 667 Z M -220 667 "/>
</clipPath>
</defs>
<g id="surface0">
<g clip-path="url(#clip1)" clip-rule="nonzero">
<g clip-path="url(#clip2)" clip-rule="nonzero">
<path style="fill:none;stroke-width:3;stroke-linecap:round;stroke-linejoin:round;stroke:rgb(0%,0%,0%);stroke-opacity:1;stroke-miterlimit:10;" d="M 1.806875 103.840312 L 1702.588125 103.840312 " transform="matrix(0.1,0,0,-0.1,0.124,84.802)"/>
<path style=" stroke:none;fill-rule:nonzero;fill:rgb(0%,0%,0%);fill-opacity:1;" d="M 164.847656 75.644531 L 170.382813 74.417969 L 164.847656 73.191406 "/>
<path style="fill:none;stroke-width:3;stroke-linecap:round;stroke-linejoin:round;stroke:rgb(0%,0%,0%);stroke-opacity:1;stroke-miterlimit:10;" d="M 1647.236563 91.574687 L 1702.588125 103.840312 L 1647.236563 116.105937 L 1647.236563 91.574687 Z M 1647.236563 91.574687 " transform="matrix(0.1,0,0,-0.1,0.124,84.802)"/>
<path style="fill:none;stroke-width:3;stroke-linecap:round;stroke-linejoin:round;stroke:rgb(0%,0%,0%);stroke-opacity:1;stroke-miterlimit:10;" d="M 823.877187 4.621562 L 823.877187 840.871562 " transform="matrix(0.1,0,0,-0.1,0.124,84.802)"/>
<path style=" stroke:none;fill-rule:nonzero;fill:rgb(0%,0%,0%);fill-opacity:1;" d="M 83.738281 6.25 L 82.511719 0.714844 L 81.28125 6.25 "/>
<path style="fill:none;stroke-width:3;stroke-linecap:round;stroke-linejoin:round;stroke:rgb(0%,0%,0%);stroke-opacity:1;stroke-miterlimit:10;" d="M 836.142812 785.52 L 823.877187 840.871562 L 811.5725 785.52 L 836.142812 785.52 Z M 836.142812 785.52 " transform="matrix(0.1,0,0,-0.1,0.124,84.802)"/>
<path style="fill:none;stroke-width:7;stroke-linecap:round;stroke-linejoin:round;stroke:rgb(0%,0%,0%);stroke-opacity:1;stroke-miterlimit:10;" d="M 200.244375 103.840312 L 200.244375 472.355937 L 1447.470938 472.355937 L 1447.470938 103.840312 " transform="matrix(0.1,0,0,-0.1,0.124,84.802)"/>
</g>
</g>
<g clip-path="url(#clip3)" clip-rule="nonzero">
<g style="fill:rgb(0%,0%,0%);fill-opacity:1;">
  <use xlink:href="#glyph0-1" x="165.615" y="80.442"/>
</g>
<g style="fill:rgb(0%,0%,0%);fill-opacity:1;">
  <use xlink:href="#glyph1-1" x="13.389" y="80.325"/>
</g>
<g style="fill:rgb(0%,0%,0%);fill-opacity:1;">
  <use xlink:href="#glyph0-2" x="19.152" y="80.325"/>
</g>
<g style="fill:rgb(0%,0%,0%);fill-opacity:1;">
  <use xlink:href="#glyph0-3" x="23.213541" y="80.325"/>
</g>
<g style="fill:rgb(0%,0%,0%);fill-opacity:1;">
  <use xlink:href="#glyph0-2" x="140.995" y="80.249"/>
</g>
<g style="fill:rgb(0%,0%,0%);fill-opacity:1;">
  <use xlink:href="#glyph0-3" x="145.056541" y="80.249"/>
</g>
<g style="fill:rgb(0%,0%,0%);fill-opacity:1;">
  <use xlink:href="#glyph1-2" x="84.88" y="12.93"/>
</g>
<g style="fill:rgb(0%,0%,0%);fill-opacity:1;">
  <use xlink:href="#glyph0-4" x="86.938" y="12.93"/>
</g>
<g style="fill:rgb(0%,0%,0%);fill-opacity:1;">
  <use xlink:href="#glyph1-2" x="92.401" y="12.93"/>
</g>
<g style="fill:rgb(0%,0%,0%);fill-opacity:1;">
  <use xlink:href="#glyph2-1" x="96.518" y="12.93"/>
</g>
<g style="fill:rgb(0%,0%,0%);fill-opacity:1;">
  <use xlink:href="#glyph0-2" x="104.339" y="12.93"/>
</g>
<g style="fill:rgb(0%,0%,0%);fill-opacity:1;">
  <use xlink:href="#glyph1-2" x="108.401" y="12.93"/>
</g>
<g style="fill:rgb(0%,0%,0%);fill-opacity:1;">
  <use xlink:href="#glyph0-5" x="110.459" y="12.93"/>
</g>
<g style="fill:rgb(0%,0%,0%);fill-opacity:1;">
  <use xlink:href="#glyph1-2" x="116.113" y="12.93"/>
</g>
</g>
</g>
</svg>
