<?xml version="1.0" encoding="UTF-8"?>
<svg xmlns="http://www.w3.org/2000/svg" xmlns:xlink="http://www.w3.org/1999/xlink" width="301pt" height="205pt" viewBox="0 0 217 148" version="1.1">
<defs>
<g>
<symbol overflow="visible" id="glyph0-0">
<path style="stroke:none;" d=""/>
</symbol>
<symbol overflow="visible" id="glyph0-1">
<path style="stroke:none;" d="M 4.515625 -0.796875 C 4.125 -0.578125 3.875 -0.375 3.296875 -0.359375 C 3.09375 -0.359375 2.875 -0.34375 2.671875 -0.390625 C 2.109375 -0.5 1.640625 -0.890625 1.375 -1.390625 C 0.890625 -2.28125 1.125 -3.5 1.953125 -4.125 C 2.09375 -4.21875 2.234375 -4.3125 2.390625 -4.375 C 2.859375 -4.53125 3.421875 -4.515625 3.890625 -4.34375 C 4.0625 -4.265625 4.21875 -4.1875 4.375 -4.109375 C 4.40625 -4.28125 4.453125 -4.46875 4.46875 -4.640625 C 4.328125 -4.703125 4.171875 -4.75 4 -4.78125 C 3.671875 -4.859375 3.171875 -4.921875 2.796875 -4.890625 C 2.078125 -4.828125 1.46875 -4.421875 1.109375 -3.9375 C 0.640625 -3.34375 0.484375 -2.546875 0.65625 -1.8125 C 0.953125 -0.6875 1.90625 0.125 3.28125 0.046875 C 3.734375 0.03125 4.015625 -0.0625 4.375 -0.234375 C 4.40625 -0.265625 4.53125 -0.3125 4.546875 -0.34375 C 4.5625 -0.390625 4.515625 -0.6875 4.515625 -0.796875 Z M 4.515625 -0.796875 "/>
</symbol>
<symbol overflow="visible" id="glyph0-2">
<path style="stroke:none;" d="M 0.578125 -4.84375 L 0.578125 0 L 1.078125 0 L 1.078125 -4.84375 L 0.578125 -4.84375 Z M 0.578125 -4.84375 "/>
</symbol>
<symbol overflow="visible" id="glyph0-3">
<path style="stroke:none;" d="M 0.703125 -2.78125 C 0.25 -2.234375 0.140625 -1.421875 0.5 -0.78125 C 0.78125 -0.28125 1.359375 0.125 2.109375 0.046875 C 2.75 -0.015625 3.28125 -0.484375 3.46875 -1 C 3.734375 -1.703125 3.53125 -2.53125 2.953125 -3.015625 C 2.796875 -3.140625 2.625 -3.21875 2.4375 -3.296875 C 1.71875 -3.53125 1.0625 -3.21875 0.703125 -2.78125 Z M 2.25 -2.953125 C 2.359375 -2.921875 2.453125 -2.875 2.546875 -2.828125 C 2.984375 -2.578125 3.09375 -2.015625 3.0625 -1.546875 C 3.046875 -1.21875 2.96875 -0.90625 2.734375 -0.671875 C 2.34375 -0.25 1.53125 -0.234375 1.125 -0.671875 C 0.90625 -0.90625 0.828125 -1.21875 0.796875 -1.546875 C 0.765625 -2 0.859375 -2.390625 1.09375 -2.640625 C 1.359375 -2.921875 1.78125 -3.046875 2.25 -2.953125 Z M 2.25 -2.953125 "/>
</symbol>
<symbol overflow="visible" id="glyph0-4">
<path style="stroke:none;" d="M 0.296875 -0.71875 C 0.28125 -0.625 0.265625 -0.515625 0.234375 -0.40625 C 0.234375 -0.375 0.203125 -0.3125 0.234375 -0.28125 C 0.25 -0.234375 0.328125 -0.203125 0.375 -0.1875 C 0.6875 -0.046875 0.953125 0.015625 1.359375 0.046875 C 1.859375 0.09375 2.453125 -0.015625 2.703125 -0.515625 C 2.75 -0.640625 2.78125 -0.78125 2.78125 -0.921875 C 2.78125 -1.015625 2.78125 -1.109375 2.75 -1.1875 C 2.640625 -1.515625 2.359375 -1.734375 2.0625 -1.84375 C 1.890625 -1.90625 1.71875 -1.9375 1.546875 -1.96875 C 1.296875 -2.015625 0.984375 -2.046875 0.8125 -2.265625 C 0.671875 -2.421875 0.703125 -2.640625 0.84375 -2.796875 C 1.015625 -2.96875 1.28125 -3 1.609375 -2.984375 C 1.90625 -2.96875 2.15625 -2.90625 2.390625 -2.796875 C 2.453125 -2.78125 2.515625 -2.734375 2.578125 -2.71875 L 2.65625 -3.140625 C 2.3125 -3.296875 2 -3.375 1.515625 -3.375 C 1.09375 -3.375 0.734375 -3.28125 0.5 -3.046875 C 0.265625 -2.796875 0.1875 -2.390625 0.34375 -2.078125 C 0.484375 -1.8125 0.765625 -1.640625 1.046875 -1.546875 C 1.453125 -1.4375 1.984375 -1.453125 2.21875 -1.15625 C 2.375 -0.984375 2.359375 -0.71875 2.1875 -0.5625 C 2.109375 -0.46875 1.984375 -0.40625 1.859375 -0.390625 C 1.328125 -0.265625 0.75 -0.46875 0.421875 -0.640625 C 0.375 -0.671875 0.328125 -0.703125 0.296875 -0.71875 Z M 0.296875 -0.71875 "/>
</symbol>
<symbol overflow="visible" id="glyph0-5">
<path style="stroke:none;" d="M 3.140625 -0.796875 C 3.09375 -0.765625 3.046875 -0.71875 3 -0.6875 C 2.59375 -0.390625 1.875 -0.140625 1.328125 -0.53125 C 0.984375 -0.78125 0.78125 -1.15625 0.78125 -1.734375 L 3.203125 -1.734375 C 3.203125 -2.25 3.078125 -2.734375 2.78125 -3.03125 C 2.4375 -3.34375 1.90625 -3.4375 1.46875 -3.328125 C 1.28125 -3.28125 1.109375 -3.1875 0.953125 -3.0625 C 0.515625 -2.71875 0.296875 -2.171875 0.296875 -1.609375 C 0.3125 -0.828125 0.890625 -0.109375 1.671875 0.03125 C 2.0625 0.109375 2.484375 0.015625 2.84375 -0.15625 C 2.90625 -0.1875 3.140625 -0.3125 3.15625 -0.375 C 3.1875 -0.40625 3.15625 -0.703125 3.140625 -0.796875 Z M 2.78125 -2.046875 L 0.8125 -2.046875 C 0.90625 -2.359375 1.0625 -2.65625 1.34375 -2.84375 C 1.6875 -3.0625 2.203125 -3.03125 2.5 -2.71875 C 2.671875 -2.53125 2.75 -2.296875 2.78125 -2.046875 Z M 2.78125 -2.046875 "/>
</symbol>
<symbol overflow="visible" id="glyph0-6">
<path style="stroke:none;" d="M 2.734375 -4.84375 L 2.734375 -2.84375 L 2.734375 -2.84375 C 2.703125 -2.90625 2.65625 -2.9375 2.609375 -2.984375 C 2.328125 -3.28125 1.734375 -3.46875 1.25 -3.25 C 1.078125 -3.171875 0.9375 -3.078125 0.8125 -2.9375 C 0.28125 -2.390625 0.1875 -1.484375 0.5 -0.8125 C 0.6875 -0.375 1.09375 0.03125 1.59375 0.0625 C 1.984375 0.078125 2.3125 -0.09375 2.515625 -0.28125 C 2.59375 -0.359375 2.65625 -0.4375 2.71875 -0.515625 L 2.71875 0 L 3.234375 0 L 3.234375 -4.84375 L 2.734375 -4.84375 Z M 1.9375 -2.953125 C 2.171875 -2.96875 2.40625 -2.90625 2.578125 -2.71875 C 2.625 -2.6875 2.671875 -2.625 2.703125 -2.5625 C 2.734375 -2.5 2.71875 -2.421875 2.71875 -2.34375 L 2.71875 -0.96875 C 2.71875 -0.796875 2.703125 -0.796875 2.59375 -0.671875 C 2.453125 -0.484375 2.25 -0.359375 2 -0.328125 C 1.640625 -0.3125 1.25 -0.46875 1.046875 -0.78125 C 0.90625 -0.984375 0.859375 -1.234375 0.84375 -1.484375 C 0.8125 -1.8125 0.84375 -2.1875 1.03125 -2.46875 C 1.234375 -2.78125 1.578125 -2.921875 1.9375 -2.953125 Z M 1.9375 -2.953125 "/>
</symbol>
<symbol overflow="visible" id="glyph0-7">
<path style="stroke:none;" d="M 0.4375 -0.90625 C 0.421875 -0.84375 0.328125 -0.40625 0.34375 -0.375 C 0.359375 -0.359375 0.390625 -0.34375 0.40625 -0.328125 L 0.578125 -0.25 C 1.234375 0.09375 2.359375 0.296875 3.109375 -0.125 C 3.5 -0.328125 3.875 -0.765625 3.875 -1.296875 C 3.875 -2.015625 3.296875 -2.453125 2.796875 -2.625 C 2.65625 -2.671875 2.140625 -2.78125 2.046875 -2.796875 C 1.6875 -2.875 1.296875 -2.96875 1.046875 -3.265625 C 1.015625 -3.3125 0.984375 -3.359375 0.96875 -3.421875 C 0.765625 -3.875 1.125 -4.265625 1.546875 -4.421875 C 2 -4.59375 2.578125 -4.546875 2.984375 -4.375 C 3.09375 -4.328125 3.21875 -4.265625 3.3125 -4.1875 C 3.375 -4.15625 3.4375 -4.109375 3.5 -4.0625 C 3.53125 -4.1875 3.546875 -4.328125 3.5625 -4.453125 C 3.578125 -4.546875 3.625 -4.609375 3.515625 -4.640625 L 3.34375 -4.71875 C 2.578125 -5.03125 1.546875 -5.078125 0.890625 -4.515625 C 0.796875 -4.453125 0.71875 -4.359375 0.640625 -4.265625 C 0.4375 -3.984375 0.34375 -3.546875 0.546875 -3.15625 C 0.71875 -2.8125 1.015625 -2.578125 1.390625 -2.4375 C 1.546875 -2.390625 1.6875 -2.359375 1.84375 -2.328125 C 2 -2.28125 2.5625 -2.171875 2.65625 -2.125 C 2.921875 -2.03125 3.1875 -1.859375 3.3125 -1.59375 C 3.375 -1.484375 3.390625 -1.375 3.390625 -1.203125 C 3.34375 -0.78125 2.96875 -0.5 2.59375 -0.390625 C 1.984375 -0.21875 1.296875 -0.40625 0.84375 -0.640625 C 0.703125 -0.71875 0.578125 -0.828125 0.4375 -0.90625 Z M 0.4375 -0.90625 "/>
</symbol>
<symbol overflow="visible" id="glyph0-8">
<path style="stroke:none;" d="M 0.578125 -3.296875 L 0.578125 -0.921875 C 0.578125 -0.625 0.609375 -0.375 0.78125 -0.171875 C 1.03125 0.125 1.5625 0.09375 1.90625 -0.015625 C 2.25 -0.09375 2.625 -0.34375 2.734375 -0.59375 L 2.75 -0.59375 L 2.75 0 L 3.234375 0 L 3.234375 -3.296875 L 2.734375 -3.296875 L 2.734375 -1.625 C 2.734375 -1.21875 2.765625 -0.875 2.5 -0.59375 C 2.25 -0.359375 1.921875 -0.296875 1.578125 -0.328125 C 1.4375 -0.328125 1.265625 -0.34375 1.171875 -0.46875 C 1.09375 -0.5625 1.09375 -0.703125 1.09375 -0.828125 L 1.09375 -3.296875 L 0.578125 -3.296875 Z M 0.578125 -3.296875 "/>
</symbol>
<symbol overflow="visible" id="glyph0-9">
<path style="stroke:none;" d="M 1.0625 -2.453125 L 1.0625 -2.453125 L 1.0625 -3.296875 L 0.578125 -3.296875 L 0.578125 0 L 1.078125 0 L 1.078125 -1.3125 C 1.078125 -1.578125 1.046875 -1.859375 1.15625 -2.109375 C 1.28125 -2.46875 1.609375 -2.703125 1.953125 -2.828125 C 2.109375 -2.875 2.28125 -2.90625 2.453125 -2.90625 L 2.453125 -3.34375 C 2 -3.34375 1.5625 -3.140625 1.28125 -2.796875 C 1.203125 -2.6875 1.109375 -2.578125 1.0625 -2.453125 Z M 1.0625 -2.453125 "/>
</symbol>
<symbol overflow="visible" id="glyph0-10">
<path style="stroke:none;" d="M 0.828125 -3.296875 L 0.203125 -3.296875 L 0.203125 -2.90625 L 0.828125 -2.90625 L 0.828125 0 L 1.328125 0 L 1.328125 -2.90625 L 2.21875 -2.90625 L 2.21875 -3.296875 L 1.3125 -3.296875 L 1.3125 -3.875 C 1.3125 -3.984375 1.296875 -4.09375 1.328125 -4.1875 C 1.484375 -4.515625 2.03125 -4.546875 2.453125 -4.453125 C 2.53125 -4.453125 2.609375 -4.421875 2.6875 -4.390625 L 2.6875 -4.84375 C 2.1875 -4.921875 1.625 -4.953125 1.21875 -4.625 C 1.140625 -4.5625 1.078125 -4.5 1.03125 -4.4375 C 0.875 -4.25 0.828125 -4.0625 0.828125 -3.734375 L 0.828125 -3.296875 Z M 0.828125 -3.296875 "/>
</symbol>
<symbol overflow="visible" id="glyph0-11">
<path style="stroke:none;" d="M 0.640625 -2.640625 C 0.765625 -2.703125 0.859375 -2.78125 0.984375 -2.84375 C 1.203125 -2.9375 1.4375 -2.984375 1.6875 -3 C 1.75 -3.015625 1.828125 -3.015625 1.90625 -3.015625 C 2.1875 -2.96875 2.421875 -2.78125 2.5 -2.515625 C 2.578125 -2.3125 2.546875 -2.0625 2.546875 -1.859375 C 2.1875 -1.859375 1.8125 -1.828125 1.453125 -1.734375 C 0.953125 -1.609375 0.328125 -1.359375 0.390625 -0.71875 C 0.4375 -0.4375 0.59375 -0.15625 0.859375 -0.015625 C 1.03125 0.0625 1.234375 0.0625 1.4375 0.046875 C 1.734375 0.015625 2.0625 -0.0625 2.3125 -0.25 C 2.40625 -0.3125 2.484375 -0.390625 2.5625 -0.46875 L 2.5625 0 L 3.046875 0 L 3.046875 -1.828125 C 3.046875 -2.015625 3.078125 -2.21875 3.03125 -2.421875 C 2.96875 -2.90625 2.53125 -3.265625 2.078125 -3.359375 C 1.796875 -3.40625 1.359375 -3.34375 1.125 -3.296875 C 1.046875 -3.265625 0.65625 -3.140625 0.625 -3.078125 C 0.59375 -3.046875 0.609375 -2.984375 0.609375 -2.953125 C 0.625 -2.84375 0.640625 -2.75 0.640625 -2.640625 Z M 2.546875 -1.625 L 2.546875 -1.109375 C 2.546875 -0.96875 2.546875 -0.84375 2.484375 -0.71875 C 2.40625 -0.578125 2.265625 -0.46875 2.109375 -0.421875 C 1.78125 -0.296875 1.328125 -0.28125 1.046875 -0.515625 C 0.96875 -0.5625 0.90625 -0.640625 0.890625 -0.75 C 0.8125 -1.046875 1.078125 -1.28125 1.3125 -1.390625 C 1.640625 -1.546875 2.109375 -1.625 2.546875 -1.625 Z M 2.546875 -1.625 "/>
</symbol>
<symbol overflow="visible" id="glyph0-12">
<path style="stroke:none;" d="M 3.1875 -0.796875 C 3.125 -0.765625 3.078125 -0.71875 3.03125 -0.6875 C 2.9375 -0.625 2.84375 -0.5625 2.734375 -0.515625 C 2.3125 -0.3125 1.671875 -0.265625 1.296875 -0.5625 C 1.03125 -0.75 0.859375 -1.109375 0.84375 -1.5 C 0.8125 -1.953125 0.921875 -2.453125 1.296875 -2.75 C 1.5 -2.90625 1.765625 -3 2.140625 -2.96875 C 2.46875 -2.9375 2.65625 -2.890625 2.921875 -2.75 C 2.984375 -2.71875 3.03125 -2.671875 3.09375 -2.65625 L 3.171875 -3.078125 C 3.015625 -3.15625 2.875 -3.234375 2.703125 -3.28125 C 2.296875 -3.421875 1.671875 -3.40625 1.3125 -3.234375 C 0.96875 -3.078125 0.6875 -2.796875 0.515625 -2.46875 C 0.265625 -1.96875 0.265625 -1.359375 0.515625 -0.84375 C 0.609375 -0.65625 0.734375 -0.484375 0.90625 -0.34375 C 1.375 0.09375 2.09375 0.140625 2.6875 -0.0625 C 2.828125 -0.125 2.953125 -0.1875 3.078125 -0.265625 C 3.125 -0.296875 3.1875 -0.328125 3.203125 -0.359375 C 3.21875 -0.40625 3.1875 -0.796875 3.1875 -0.796875 Z M 3.1875 -0.796875 "/>
</symbol>
<symbol overflow="visible" id="glyph0-13">
<path style="stroke:none;" d="M 2.71875 -2 L 0.6875 -2 C 0.640625 -2 0.578125 -2 0.53125 -2 C 0.453125 -1.96875 0.40625 -1.90625 0.40625 -1.84375 C 0.40625 -1.765625 0.453125 -1.703125 0.53125 -1.6875 C 0.578125 -1.671875 0.640625 -1.671875 0.6875 -1.671875 L 2.71875 -1.671875 L 2.71875 0.359375 C 2.71875 0.40625 2.703125 0.453125 2.71875 0.515625 C 2.75 0.578125 2.8125 0.625 2.875 0.625 C 2.953125 0.625 3.015625 0.578125 3.03125 0.515625 C 3.046875 0.453125 3.03125 0.40625 3.03125 0.359375 L 3.03125 -1.671875 L 5.078125 -1.671875 C 5.125 -1.671875 5.171875 -1.671875 5.21875 -1.6875 C 5.296875 -1.703125 5.34375 -1.765625 5.34375 -1.84375 C 5.34375 -1.90625 5.296875 -1.96875 5.21875 -2 C 5.171875 -2 5.125 -2 5.078125 -2 L 3.03125 -2 L 3.03125 -4.03125 C 3.03125 -4.078125 3.046875 -4.140625 3.03125 -4.1875 C 3.015625 -4.265625 2.953125 -4.3125 2.875 -4.3125 C 2.8125 -4.3125 2.75 -4.265625 2.71875 -4.1875 C 2.703125 -4.140625 2.71875 -4.078125 2.71875 -4.03125 L 2.71875 -2 Z M 2.71875 -2 "/>
</symbol>
<symbol overflow="visible" id="glyph0-14">
<path style="stroke:none;" d="M 0.734375 -4.84375 L 0.734375 0 L 1.265625 0 L 1.265625 -2.015625 L 2.296875 -2.015625 C 2.453125 -2.015625 2.625 -2.015625 2.78125 -2.015625 C 3.546875 -2.078125 4.296875 -2.515625 4.421875 -3.21875 C 4.5 -3.625 4.328125 -3.953125 4.140625 -4.1875 C 3.859375 -4.53125 3.421875 -4.765625 2.90625 -4.828125 C 2.65625 -4.84375 2.40625 -4.84375 2.171875 -4.84375 L 0.734375 -4.84375 Z M 1.25 -2.421875 L 1.25 -4.421875 L 2.296875 -4.421875 C 2.90625 -4.421875 3.46875 -4.359375 3.765625 -3.953125 C 4 -3.640625 4 -3.203125 3.765625 -2.890625 C 3.6875 -2.78125 3.578125 -2.703125 3.46875 -2.625 C 3.109375 -2.421875 2.703125 -2.421875 2.328125 -2.421875 L 1.25 -2.421875 Z M 1.25 -2.421875 "/>
</symbol>
<symbol overflow="visible" id="glyph0-15">
<path style="stroke:none;" d="M 0.578125 -4.84375 L 0.578125 -4.34375 L 1.078125 -4.34375 L 1.078125 -4.84375 L 0.578125 -4.84375 Z M 0.578125 -3.296875 L 0.578125 0 L 1.078125 0 L 1.078125 -3.296875 L 0.578125 -3.296875 Z M 0.578125 -3.296875 "/>
</symbol>
<symbol overflow="visible" id="glyph0-16">
<path style="stroke:none;" d="M 1.078125 -2.625 L 1.0625 -2.625 L 1.0625 -3.296875 L 0.578125 -3.296875 L 0.578125 0 L 1.09375 0 L 1.09375 -1.53125 C 1.09375 -1.875 1.0625 -2.203125 1.21875 -2.515625 C 1.296875 -2.671875 1.421875 -2.8125 1.609375 -2.90625 C 1.734375 -2.96875 1.875 -2.96875 2.015625 -2.953125 C 2.25 -2.9375 2.484375 -2.875 2.609375 -2.6875 C 2.71875 -2.53125 2.734375 -2.34375 2.734375 -2.15625 L 2.734375 0 L 3.234375 0 L 3.234375 -1.875 C 3.234375 -2.21875 3.28125 -2.609375 3.09375 -2.921875 C 2.953125 -3.171875 2.6875 -3.296875 2.40625 -3.328125 C 2.078125 -3.375 1.765625 -3.3125 1.484375 -3.125 C 1.328125 -3.015625 1.140625 -2.796875 1.078125 -2.625 Z M 1.078125 -2.625 "/>
</symbol>
<symbol overflow="visible" id="glyph0-17">
<path style="stroke:none;" d="M 0.84375 -4.234375 L 0.84375 -3.296875 L 0.140625 -3.296875 L 0.140625 -2.90625 L 0.828125 -2.90625 L 0.828125 -0.921875 C 0.828125 -0.625 0.84375 -0.265625 1.09375 -0.0625 C 1.234375 0.0625 1.40625 0.0625 1.578125 0.046875 C 1.96875 0.03125 2.3125 -0.09375 2.578125 -0.25 L 2.484375 -0.625 C 2.40625 -0.578125 2.328125 -0.515625 2.25 -0.46875 C 2.03125 -0.359375 1.640625 -0.265625 1.453125 -0.453125 C 1.28125 -0.640625 1.3125 -0.953125 1.3125 -1.1875 L 1.3125 -2.90625 L 2.453125 -2.90625 L 2.453125 -3.296875 L 1.3125 -3.296875 L 1.3125 -4.234375 L 0.84375 -4.234375 Z M 0.84375 -4.234375 "/>
</symbol>
<symbol overflow="visible" id="glyph0-18">
<path style="stroke:none;" d="M 0.578125 -4.84375 L 0.578125 0 L 1.09375 0 L 1.09375 -1.53125 C 1.09375 -1.875 1.0625 -2.203125 1.21875 -2.515625 C 1.296875 -2.671875 1.421875 -2.8125 1.609375 -2.90625 C 1.734375 -2.96875 1.875 -2.96875 2.015625 -2.953125 C 2.25 -2.9375 2.484375 -2.875 2.609375 -2.6875 C 2.71875 -2.53125 2.734375 -2.34375 2.734375 -2.15625 L 2.734375 0 L 3.234375 0 L 3.234375 -1.875 C 3.234375 -2.21875 3.28125 -2.59375 3.109375 -2.90625 C 2.96875 -3.171875 2.6875 -3.296875 2.40625 -3.328125 C 2.078125 -3.375 1.765625 -3.3125 1.5 -3.140625 C 1.34375 -3.03125 1.140625 -2.8125 1.078125 -2.640625 L 1.078125 -2.640625 L 1.078125 -4.84375 L 0.578125 -4.84375 Z M 0.578125 -4.84375 "/>
</symbol>
<symbol overflow="visible" id="glyph0-19">
<path style="stroke:none;" d="M 2.71875 -0.890625 L 2.71875 -0.890625 L 2.71875 -0.21875 C 2.71875 0 2.734375 0.1875 2.640625 0.390625 C 2.5625 0.609375 2.359375 0.796875 2.125 0.859375 C 2 0.90625 1.875 0.890625 1.734375 0.890625 C 1.4375 0.875 1.15625 0.8125 0.890625 0.703125 C 0.765625 0.65625 0.65625 0.59375 0.53125 0.546875 L 0.53125 0.84375 C 0.53125 0.890625 0.53125 0.9375 0.546875 0.96875 C 0.609375 1.046875 1.140625 1.203125 1.140625 1.203125 C 1.40625 1.25 1.828125 1.3125 2.109375 1.265625 C 2.671875 1.21875 3.125 0.765625 3.21875 0.21875 C 3.234375 0.078125 3.234375 -0.046875 3.234375 -0.171875 L 3.234375 -3.34375 L 2.734375 -3.34375 L 2.734375 -2.734375 C 2.625 -2.921875 2.46875 -3.09375 2.28125 -3.21875 C 1.78125 -3.5 1.140625 -3.296875 0.78125 -2.890625 C 0.328125 -2.390625 0.1875 -1.59375 0.46875 -0.96875 C 0.671875 -0.53125 1.078125 -0.1875 1.5625 -0.140625 C 1.8125 -0.109375 2.015625 -0.171875 2.1875 -0.265625 C 2.390625 -0.390625 2.640625 -0.640625 2.71875 -0.890625 Z M 2.1875 -2.9375 C 2.453125 -2.875 2.625 -2.609375 2.71875 -2.34375 C 2.765625 -2.234375 2.734375 -2.09375 2.734375 -1.96875 C 2.734375 -1.90625 2.75 -1.84375 2.734375 -1.78125 C 2.734375 -1.75 2.71875 -1.734375 2.71875 -1.703125 C 2.703125 -1.46875 2.6875 -1.21875 2.578125 -1 C 2.4375 -0.6875 2.171875 -0.4375 1.71875 -0.546875 C 1.21875 -0.640625 0.859375 -1.078125 0.84375 -1.578125 C 0.8125 -2.125 1.109375 -2.6875 1.625 -2.890625 C 1.78125 -2.9375 2 -2.984375 2.1875 -2.9375 Z M 2.1875 -2.9375 "/>
</symbol>
<symbol overflow="visible" id="glyph1-0">
<path style="stroke:none;" d=""/>
</symbol>
<symbol overflow="visible" id="glyph1-1">
<path style="stroke:none;" d="M 0.625 -0.90625 L 0.421875 -0.375 C 0.59375 -0.265625 0.78125 -0.15625 0.984375 -0.078125 C 1.703125 0.1875 2.5625 0.203125 3.25 -0.1875 C 3.71875 -0.453125 4.125 -0.90625 4.171875 -1.46875 C 4.171875 -1.5625 4.171875 -1.671875 4.15625 -1.765625 C 4.0625 -2.1875 3.71875 -2.484375 3.359375 -2.625 C 2.75 -2.828125 1.859375 -2.796875 1.6875 -3.421875 C 1.59375 -3.8125 1.9375 -4.140625 2.25 -4.328125 C 2.578125 -4.484375 2.9375 -4.546875 3.296875 -4.515625 C 3.671875 -4.5 3.953125 -4.390625 4.203125 -4.1875 C 4.265625 -4.15625 4.3125 -4.109375 4.359375 -4.0625 C 4.421875 -4.1875 4.46875 -4.328125 4.515625 -4.453125 C 4.546875 -4.53125 4.609375 -4.609375 4.5 -4.640625 C 4.109375 -4.859375 3.640625 -4.96875 3.03125 -4.9375 C 2.375 -4.90625 1.640625 -4.546875 1.3125 -3.9375 C 1.25 -3.8125 1.203125 -3.65625 1.1875 -3.5 C 1.125 -2.890625 1.609375 -2.546875 2 -2.40625 C 2.125 -2.359375 2.265625 -2.328125 2.390625 -2.3125 C 2.578125 -2.265625 2.984375 -2.171875 3.125 -2.125 C 3.34375 -2.046875 3.546875 -1.875 3.640625 -1.65625 C 3.8125 -1.1875 3.40625 -0.6875 3 -0.515625 C 2.265625 -0.140625 1.328125 -0.359375 0.796875 -0.78125 C 0.734375 -0.828125 0.6875 -0.875 0.625 -0.90625 Z M 0.625 -0.90625 "/>
</symbol>
<symbol overflow="visible" id="glyph1-2">
<path style="stroke:none;" d="M 1.203125 -2.640625 C 1.46875 -2.78125 1.609375 -2.890625 1.953125 -2.953125 C 2.078125 -2.984375 2.390625 -3.03125 2.53125 -3.015625 C 2.765625 -2.984375 2.953125 -2.84375 3.015625 -2.609375 C 3.09375 -2.359375 2.96875 -2.109375 2.9375 -1.859375 C 2.328125 -1.859375 1.65625 -1.75 1.1875 -1.53125 C 0.9375 -1.390625 0.671875 -1.1875 0.578125 -0.90625 C 0.46875 -0.5 0.640625 0 1.109375 0.0625 C 1.75 0.09375 2.328125 -0.15625 2.65625 -0.46875 L 2.5625 0 L 2.921875 0 C 3 0 3.0625 0.015625 3.0625 -0.078125 C 3.078125 -0.125 3.21875 -0.78125 3.21875 -0.78125 L 3.453125 -1.875 C 3.484375 -2.046875 3.546875 -2.21875 3.546875 -2.390625 C 3.578125 -2.703125 3.4375 -2.984375 3.234375 -3.15625 C 2.984375 -3.359375 2.671875 -3.390625 2.359375 -3.359375 C 2.140625 -3.359375 1.921875 -3.3125 1.703125 -3.25 C 1.640625 -3.234375 1.3125 -3.125 1.265625 -3.078125 C 1.25 -3.046875 1.203125 -2.75 1.203125 -2.640625 Z M 2.890625 -1.625 C 2.875 -1.484375 2.828125 -1.34375 2.796875 -1.203125 C 2.765625 -1.03125 2.734375 -0.84375 2.625 -0.703125 C 2.546875 -0.59375 2.421875 -0.515625 2.296875 -0.453125 C 1.9375 -0.296875 1.375 -0.25 1.125 -0.53125 C 0.984375 -0.6875 1.046875 -0.9375 1.171875 -1.09375 C 1.40625 -1.359375 1.765625 -1.46875 2.09375 -1.546875 C 2.359375 -1.59375 2.625 -1.625 2.890625 -1.625 Z M 2.890625 -1.625 "/>
</symbol>
<symbol overflow="visible" id="glyph1-3">
<path style="stroke:none;" d="M 1.609375 -4.84375 L 0.578125 0 C 0.75 0 0.9375 0 1.09375 -0.015625 C 1.140625 -0.15625 1.15625 -0.3125 1.1875 -0.46875 L 1.203125 -0.46875 C 1.265625 -0.3125 1.421875 -0.15625 1.546875 -0.078125 C 1.921875 0.140625 2.390625 0.0625 2.765625 -0.140625 C 3.453125 -0.515625 3.875 -1.3125 3.890625 -2.09375 C 3.90625 -2.578125 3.703125 -3.171875 3.171875 -3.3125 C 2.578125 -3.46875 1.96875 -3.078125 1.671875 -2.828125 L 2.109375 -4.84375 L 1.609375 -4.84375 Z M 3 -2.84375 C 3.0625 -2.8125 3.125 -2.765625 3.171875 -2.71875 C 3.421875 -2.453125 3.421875 -2.046875 3.34375 -1.703125 C 3.296875 -1.4375 3.203125 -1.1875 3.0625 -0.953125 C 2.8125 -0.578125 2.390625 -0.359375 1.9375 -0.328125 C 1.734375 -0.328125 1.546875 -0.375 1.421875 -0.53125 C 1.375 -0.578125 1.28125 -0.734375 1.28125 -0.8125 C 1.265625 -0.890625 1.296875 -0.96875 1.3125 -1.046875 C 1.359375 -1.296875 1.609375 -2.46875 1.640625 -2.515625 C 1.671875 -2.578125 1.75 -2.640625 1.8125 -2.6875 C 2.109375 -2.9375 2.59375 -3.0625 3 -2.84375 Z M 3 -2.84375 "/>
</symbol>
<symbol overflow="visible" id="glyph2-0">
<path style="stroke:none;" d=""/>
</symbol>
<symbol overflow="visible" id="glyph2-1">
<path style="stroke:none;" d="M 0.640625 0 L 3.1875 0 C 3.484375 -0.015625 3.828125 0.03125 4.09375 -0.015625 C 4.171875 -0.203125 4.1875 -0.453125 4.234375 -0.671875 C 3.375 -0.65625 2.484375 -0.65625 1.625 -0.640625 C 1.703125 -1.03125 1.796875 -1.40625 1.875 -1.796875 L 1.9375 -2.09375 C 1.9375 -2.125 1.9375 -2.1875 1.96875 -2.203125 C 2 -2.234375 2.078125 -2.21875 2.125 -2.21875 L 4.265625 -2.21875 L 4.390625 -2.78125 L 2.078125 -2.78125 L 2.375 -4.203125 L 4.890625 -4.1875 L 5.03125 -4.8125 L 2.546875 -4.8125 C 2.265625 -4.796875 1.921875 -4.84375 1.671875 -4.796875 L 1.640625 -4.703125 L 0.640625 0 Z M 0.640625 0 "/>
</symbol>
<symbol overflow="visible" id="glyph3-0">
<path style="stroke:none;" d=""/>
</symbol>
<symbol overflow="visible" id="glyph3-1">
<path style="stroke:none;" d="M 0.859375 -1.890625 C 1.046875 -1.984375 1.140625 -2.0625 1.390625 -2.109375 C 1.484375 -2.140625 1.71875 -2.15625 1.8125 -2.15625 C 1.984375 -2.140625 2.109375 -2.03125 2.15625 -1.875 C 2.203125 -1.6875 2.125 -1.515625 2.109375 -1.328125 C 1.65625 -1.328125 1.1875 -1.25 0.859375 -1.09375 C 0.671875 -1 0.484375 -0.859375 0.421875 -0.640625 C 0.328125 -0.359375 0.453125 0 0.796875 0.046875 C 1.25 0.0625 1.671875 -0.109375 1.90625 -0.328125 L 1.828125 0 L 2.09375 0 C 2.140625 0 2.1875 0.015625 2.1875 -0.0625 C 2.203125 -0.09375 2.296875 -0.5625 2.296875 -0.5625 L 2.46875 -1.34375 C 2.5 -1.46875 2.53125 -1.59375 2.546875 -1.71875 C 2.5625 -1.9375 2.46875 -2.140625 2.3125 -2.265625 C 2.140625 -2.40625 1.90625 -2.421875 1.6875 -2.40625 C 1.53125 -2.390625 1.375 -2.375 1.21875 -2.328125 C 1.171875 -2.3125 0.9375 -2.234375 0.90625 -2.203125 C 0.890625 -2.171875 0.859375 -1.96875 0.859375 -1.890625 Z M 2.0625 -1.15625 C 2.046875 -1.0625 2.03125 -0.953125 2 -0.859375 C 1.96875 -0.734375 1.953125 -0.609375 1.875 -0.5 C 1.8125 -0.421875 1.734375 -0.375 1.640625 -0.328125 C 1.390625 -0.21875 0.984375 -0.171875 0.8125 -0.375 C 0.703125 -0.5 0.75 -0.671875 0.84375 -0.78125 C 1 -0.96875 1.265625 -1.046875 1.5 -1.09375 C 1.6875 -1.140625 1.875 -1.15625 2.0625 -1.15625 Z M 2.0625 -1.15625 "/>
</symbol>
<symbol overflow="visible" id="glyph3-2">
<path style="stroke:none;" d="M 1.15625 -3.453125 L 0.421875 0 C 0.53125 0 0.671875 0 0.78125 -0.015625 C 0.8125 -0.109375 0.828125 -0.21875 0.859375 -0.328125 L 0.859375 -0.328125 C 0.90625 -0.21875 1.015625 -0.109375 1.109375 -0.0625 C 1.375 0.109375 1.71875 0.046875 1.96875 -0.09375 C 2.46875 -0.375 2.78125 -0.9375 2.78125 -1.5 C 2.796875 -1.84375 2.640625 -2.265625 2.265625 -2.375 C 1.84375 -2.484375 1.40625 -2.203125 1.203125 -2.015625 L 1.5 -3.453125 L 1.15625 -3.453125 Z M 2.140625 -2.03125 C 2.1875 -2.015625 2.234375 -1.984375 2.265625 -1.9375 C 2.453125 -1.75 2.4375 -1.453125 2.390625 -1.21875 C 2.359375 -1.03125 2.296875 -0.84375 2.1875 -0.6875 C 2.015625 -0.40625 1.703125 -0.265625 1.390625 -0.234375 C 1.25 -0.234375 1.109375 -0.265625 1.015625 -0.375 C 0.984375 -0.421875 0.90625 -0.515625 0.90625 -0.578125 C 0.90625 -0.640625 0.9375 -0.703125 0.9375 -0.75 C 0.984375 -0.921875 1.15625 -1.765625 1.171875 -1.796875 C 1.203125 -1.84375 1.25 -1.890625 1.296875 -1.921875 C 1.5 -2.09375 1.859375 -2.1875 2.140625 -2.03125 Z M 2.140625 -2.03125 "/>
</symbol>
</g>
<clipPath id="clip1">
  <path d="M -197 667 L 415 667 L 415 -125 L -197 -125 L -197 667 Z M -197 667 "/>
</clipPath>
<clipPath id="clip2">
  <path d="M -0.375 139.800781 L 217.625 139.800781 L 217.625 -0.199219 L -0.375 -0.199219 L -0.375 139.800781 Z M -0.375 139.800781 "/>
</clipPath>
<clipPath id="clip3">
  <path d="M -197 667 L 415 667 L 415 -125 L -197 -125 L -197 667 Z M -197 667 "/>
</clipPath>
</defs>
<g id="surface0">
<g clip-path="url(#clip1)" clip-rule="nonzero">
<g clip-path="url(#clip2)" clip-rule="nonzero">
<path style="fill:none;stroke-width:3;stroke-linecap:round;stroke-linejoin:round;stroke:rgb(0%,0%,0%);stroke-opacity:1;stroke-dasharray:30,30;stroke-miterlimit:10;" d="M 56.377188 59.42625 L 835.9475 373.02 " transform="matrix(0.1,0,0,-0.1,-0.376,139.802)"/>
<path style="fill:none;stroke-width:3;stroke-linecap:round;stroke-linejoin:round;stroke:rgb(0%,0%,0%);stroke-opacity:1;stroke-dasharray:30,30;stroke-miterlimit:10;" d="M 56.377188 59.42625 L 936.064687 381.848125 " transform="matrix(0.1,0,0,-0.1,-0.376,139.802)"/>
<path style="fill:none;stroke-width:3;stroke-linecap:round;stroke-linejoin:round;stroke:rgb(0%,0%,0%);stroke-opacity:1;stroke-dasharray:30,30;stroke-miterlimit:10;" d="M 56.377188 59.42625 L 1888.056875 1398.684062 " transform="matrix(0.1,0,0,-0.1,-0.376,139.802)"/>
<path style="fill:none;stroke-width:3;stroke-linecap:round;stroke-linejoin:round;stroke:rgb(0%,0%,0%);stroke-opacity:1;stroke-dasharray:30,30;stroke-miterlimit:10;" d="M 56.377188 59.42625 L 719.463125 608.645 " transform="matrix(0.1,0,0,-0.1,-0.376,139.802)"/>
<path style="fill:none;stroke-width:3;stroke-linecap:round;stroke-linejoin:round;stroke:rgb(0%,0%,0%);stroke-opacity:1;stroke-dasharray:30,30;stroke-miterlimit:10;" d="M 1615.517813 686.61375 L 1927.35375 812.043437 " transform="matrix(0.1,0,0,-0.1,-0.376,139.802)"/>
<path style="fill:none;stroke-width:3;stroke-linecap:round;stroke-linejoin:round;stroke:rgb(0%,0%,0%);stroke-opacity:1;stroke-dasharray:30,30;stroke-miterlimit:10;" d="M 1815.713125 704.27 L 2167.588125 833.254375 " transform="matrix(0.1,0,0,-0.1,-0.376,139.802)"/>
<path style="fill:none;stroke-width:3;stroke-linecap:round;stroke-linejoin:round;stroke:rgb(0%,0%,0%);stroke-opacity:1;stroke-dasharray:30,30;stroke-miterlimit:10;" d="M 1382.549063 1157.824687 L 1647.783438 1377.512187 " transform="matrix(0.1,0,0,-0.1,-0.376,139.802)"/>
<path style="fill:none;stroke-width:3;stroke-linecap:round;stroke-linejoin:round;stroke:rgb(0%,0%,0%);stroke-opacity:1;stroke-dasharray:30,30;stroke-miterlimit:10;" d="M 936.064687 381.848125 C 907.744375 466.418437 868.369375 545.598125 819.580312 617.473125 " transform="matrix(0.1,0,0,-0.1,-0.376,139.802)"/>
<path style="fill:none;stroke-width:3;stroke-linecap:round;stroke-linejoin:round;stroke:rgb(0%,0%,0%);stroke-opacity:1;stroke-dasharray:30,30;stroke-miterlimit:10;" d="M 819.54125 617.434062 C 795.713125 621.61375 762.236562 618.762187 719.463125 608.645 L 719.463125 608.645 " transform="matrix(0.1,0,0,-0.1,-0.376,139.802)"/>
<path style=" stroke:none;fill-rule:nonzero;fill:rgb(0%,0%,0%);fill-opacity:1;" d="M 84.972656 89.421875 C 84.972656 89.140625 84.859375 88.871094 84.660156 88.671875 C 84.460938 88.472656 84.191406 88.359375 83.910156 88.359375 C 83.628906 88.359375 83.355469 88.472656 83.15625 88.671875 C 82.957031 88.871094 82.847656 89.140625 82.847656 89.421875 C 82.847656 89.707031 82.957031 89.976563 83.15625 90.175781 C 83.355469 90.375 83.628906 90.488281 83.910156 90.488281 C 84.191406 90.488281 84.460938 90.375 84.660156 90.175781 C 84.859375 89.976563 84.972656 89.707031 84.972656 89.421875 "/>
<path style=" stroke:none;fill-rule:nonzero;fill:rgb(0%,0%,0%);fill-opacity:1;" d="M 163.621094 44.988281 C 163.621094 44.707031 163.507813 44.4375 163.308594 44.238281 C 163.109375 44.039063 162.839844 43.925781 162.558594 43.925781 C 162.277344 43.925781 162.003906 44.039063 161.804688 44.238281 C 161.605469 44.4375 161.496094 44.707031 161.496094 44.988281 C 161.496094 45.269531 161.605469 45.542969 161.804688 45.742188 C 162.003906 45.941406 162.277344 46.050781 162.558594 46.050781 C 162.839844 46.050781 163.109375 45.941406 163.308594 45.742188 C 163.507813 45.542969 163.621094 45.269531 163.621094 44.988281 "/>
<path style="fill:none;stroke-width:5;stroke-linecap:round;stroke-linejoin:round;stroke:rgb(0%,0%,0%);stroke-opacity:1;stroke-miterlimit:10;" d="M 842.861562 503.80125 L 1351.767813 791.30125 " transform="matrix(0.1,0,0,-0.1,-0.376,139.802)"/>
<path style=" stroke:none;fill-rule:nonzero;fill:rgb(0%,0%,0%);fill-opacity:1;" d="M 130.585938 64.464844 L 134.800781 60.671875 L 129.375 62.328125 "/>
<path style="fill:none;stroke-width:5;stroke-linecap:round;stroke-linejoin:round;stroke:rgb(0%,0%,0%);stroke-opacity:1;stroke-miterlimit:10;" d="M 1309.619375 753.371562 L 1351.767813 791.30125 L 1297.51 774.73875 L 1309.619375 753.371562 Z M 1309.619375 753.371562 " transform="matrix(0.1,0,0,-0.1,-0.376,139.802)"/>
<path style="fill:none;stroke-width:5;stroke-linecap:round;stroke-linejoin:round;stroke:rgb(0%,0%,0%);stroke-opacity:1;stroke-miterlimit:10;" d="M 1629.345938 948.137187 L 1756.5725 1020.012187 " transform="matrix(0.1,0,0,-0.1,-0.376,139.802)"/>
<path style=" stroke:none;fill-rule:nonzero;fill:rgb(0%,0%,0%);fill-opacity:1;" d="M 171.066406 41.59375 L 175.28125 37.800781 L 169.859375 39.453125 "/>
<path style="fill:none;stroke-width:5;stroke-linecap:round;stroke-linejoin:round;stroke:rgb(0%,0%,0%);stroke-opacity:1;stroke-miterlimit:10;" d="M 1714.424063 982.0825 L 1756.5725 1020.012187 L 1702.35375 1003.48875 L 1714.424063 982.0825 Z M 1714.424063 982.0825 " transform="matrix(0.1,0,0,-0.1,-0.376,139.802)"/>
<path style="fill:none;stroke-width:5;stroke-linecap:round;stroke-linejoin:round;stroke:rgb(0%,0%,0%);stroke-opacity:1;stroke-miterlimit:10;" d="M 835.9475 373.02 L 1615.517813 686.61375 " transform="matrix(0.1,0,0,-0.1,-0.376,139.802)"/>
<path style="fill:none;stroke-width:5;stroke-linecap:round;stroke-linejoin:round;stroke:rgb(0%,0%,0%);stroke-opacity:1;stroke-miterlimit:10;" d="M 936.064687 381.848125 L 1815.713125 704.27 " transform="matrix(0.1,0,0,-0.1,-0.376,139.802)"/>
<path style="fill:none;stroke-width:5;stroke-linecap:round;stroke-linejoin:round;stroke:rgb(0%,0%,0%);stroke-opacity:1;stroke-miterlimit:10;" d="M 719.463125 608.645 L 1382.549063 1157.824687 " transform="matrix(0.1,0,0,-0.1,-0.376,139.802)"/>
<path style="fill:none;stroke-width:5;stroke-linecap:round;stroke-linejoin:round;stroke:rgb(0%,0%,0%);stroke-opacity:1;stroke-miterlimit:10;" d="M 835.9475 373.02 C 806.299062 457.512187 766.963125 536.652812 719.463125 608.645 " transform="matrix(0.1,0,0,-0.1,-0.376,139.802)"/>
<path style="fill:none;stroke-width:5;stroke-linecap:round;stroke-linejoin:round;stroke:rgb(0%,0%,0%);stroke-opacity:1;stroke-miterlimit:10;" d="M 1615.517813 686.61375 C 1556.220938 855.559062 1477.549063 1013.879375 1382.549063 1157.824687 " transform="matrix(0.1,0,0,-0.1,-0.376,139.802)"/>
<path style="fill:none;stroke-width:5;stroke-linecap:round;stroke-linejoin:round;stroke:rgb(0%,0%,0%);stroke-opacity:1;stroke-miterlimit:10;" d="M 1815.752188 704.27 C 1759.0725 873.410625 1680.361563 1031.730937 1582.8225 1175.480937 " transform="matrix(0.1,0,0,-0.1,-0.376,139.802)"/>
<path style="fill:none;stroke-width:5;stroke-linecap:round;stroke-linejoin:round;stroke:rgb(0%,0%,0%);stroke-opacity:1;stroke-miterlimit:10;" d="M 936.025625 381.848125 C 913.681875 383.02 880.205312 380.090312 835.9475 373.02 " transform="matrix(0.1,0,0,-0.1,-0.376,139.802)"/>
<path style="fill:none;stroke-width:5;stroke-linecap:round;stroke-linejoin:round;stroke:rgb(0%,0%,0%);stroke-opacity:1;stroke-miterlimit:10;" d="M 1815.713125 704.27 C 1771.025625 706.574687 1704.0725 700.793437 1615.556875 686.61375 " transform="matrix(0.1,0,0,-0.1,-0.376,139.802)"/>
<path style="fill:none;stroke-width:5;stroke-linecap:round;stroke-linejoin:round;stroke:rgb(0%,0%,0%);stroke-opacity:1;stroke-miterlimit:10;" d="M 1582.744375 1175.441875 C 1535.088125 1183.762187 1468.056875 1178.098125 1382.588125 1157.824687 L 1382.549063 1157.824687 " transform="matrix(0.1,0,0,-0.1,-0.376,139.802)"/>
<path style="fill:none;stroke-width:3;stroke-linecap:round;stroke-linejoin:round;stroke:rgb(0%,0%,0%);stroke-opacity:1;stroke-miterlimit:10;" d="M 98.877188 59.42625 C 98.877188 70.715312 94.424063 81.535625 86.455313 89.504375 C 78.4475 97.473125 67.66625 101.965312 56.377188 101.965312 C 45.088125 101.965312 34.267813 97.473125 26.299063 89.504375 C 18.330313 81.535625 13.838125 70.715312 13.838125 59.42625 C 13.838125 48.17625 18.330313 37.355937 26.299063 29.387187 C 34.267813 21.418437 45.088125 16.92625 56.377188 16.92625 C 67.66625 16.92625 78.4475 21.418437 86.455313 29.387187 C 94.424063 37.355937 98.877188 48.17625 98.877188 59.42625 Z M 98.877188 59.42625 " transform="matrix(0.1,0,0,-0.1,-0.376,139.802)"/>
<path style="fill:none;stroke-width:3;stroke-linecap:round;stroke-linejoin:round;stroke:rgb(0%,0%,0%);stroke-opacity:1;stroke-miterlimit:10;" d="M 1032.275625 994.855937 C 1064.85375 983.02 1095.01 964.73875 1117.314688 938.17625 " transform="matrix(0.1,0,0,-0.1,-0.376,139.802)"/>
<path style=" stroke:none;fill-rule:nonzero;fill:rgb(0%,0%,0%);fill-opacity:1;" d="M 107.679688 43.851563 C 108.980469 44.410156 110.21875 45.113281 111.355469 45.984375 C 110.695313 44.714844 109.871094 43.554688 108.925781 42.496094 "/>
<path style="fill:none;stroke-width:3;stroke-linecap:round;stroke-linejoin:round;stroke:rgb(0%,0%,0%);stroke-opacity:1;stroke-miterlimit:10;" d="M 1080.556875 959.504375 C 1093.564688 953.918437 1105.9475 946.887187 1117.314688 938.17625 C 1110.713125 950.871562 1102.470938 962.473125 1093.017813 973.059062 L 1080.556875 959.504375 Z M 1080.556875 959.504375 " transform="matrix(0.1,0,0,-0.1,-0.376,139.802)"/>
</g>
</g>
<g clip-path="url(#clip3)" clip-rule="nonzero">
<g style="fill:rgb(0%,0%,0%);fill-opacity:1;">
  <use xlink:href="#glyph0-1" x="48.061" y="42.16"/>
  <use xlink:href="#glyph0-2" x="53.017977" y="42.16"/>
  <use xlink:href="#glyph0-3" x="54.6889" y="42.16"/>
  <use xlink:href="#glyph0-4" x="58.568424" y="42.16"/>
  <use xlink:href="#glyph0-5" x="61.54275" y="42.16"/>
  <use xlink:href="#glyph0-6" x="64.990597" y="42.16"/>
</g>
<g style="fill:rgb(0%,0%,0%);fill-opacity:1;">
  <use xlink:href="#glyph0-7" x="71.271201" y="42.16"/>
  <use xlink:href="#glyph0-8" x="75.581707" y="42.16"/>
  <use xlink:href="#glyph0-9" x="79.407534" y="42.16"/>
  <use xlink:href="#glyph0-10" x="81.966918" y="42.16"/>
  <use xlink:href="#glyph0-11" x="84.337313" y="42.16"/>
  <use xlink:href="#glyph0-12" x="87.97415" y="42.16"/>
  <use xlink:href="#glyph0-5" x="91.421996" y="42.16"/>
</g>
<g style="fill:rgb(0%,0%,0%);fill-opacity:1;">
  <use xlink:href="#glyph1-1" x="97.329" y="42.16"/>
</g>
<g style="fill:rgb(0%,0%,0%);fill-opacity:1;">
  <use xlink:href="#glyph1-2" x="84.488" y="97.37"/>
</g>
<g style="fill:rgb(0%,0%,0%);fill-opacity:1;">
  <use xlink:href="#glyph2-1" x="136.821" y="60.715"/>
</g>
<g style="fill:rgb(0%,0%,0%);fill-opacity:1;">
  <use xlink:href="#glyph3-1" x="141.65" y="61.587"/>
</g>
<g style="fill:rgb(0%,0%,0%);fill-opacity:1;">
  <use xlink:href="#glyph1-3" x="168.979" y="58.318"/>
</g>
<g style="fill:rgb(0%,0%,0%);fill-opacity:1;">
  <use xlink:href="#glyph2-1" x="177.073" y="37.755"/>
</g>
<g style="fill:rgb(0%,0%,0%);fill-opacity:1;">
  <use xlink:href="#glyph3-2" x="181.902" y="38.812"/>
</g>
<g style="fill:rgb(0%,0%,0%);fill-opacity:1;">
  <use xlink:href="#glyph0-13" x="2.412" y="135.69"/>
</g>
<g style="fill:rgb(0%,0%,0%);fill-opacity:1;">
  <use xlink:href="#glyph0-14" x="-0.376" y="145.779"/>
</g>
<g style="fill:rgb(0%,0%,0%);fill-opacity:1;">
  <use xlink:href="#glyph0-3" x="4.289472" y="145.779"/>
  <use xlink:href="#glyph0-15" x="8.168997" y="145.779"/>
  <use xlink:href="#glyph0-16" x="9.83992" y="145.779"/>
  <use xlink:href="#glyph0-17" x="13.665746" y="145.779"/>
</g>
<g style="fill:rgb(0%,0%,0%);fill-opacity:1;">
  <use xlink:href="#glyph0-1" x="18.921899" y="145.779"/>
  <use xlink:href="#glyph0-18" x="23.878876" y="145.779"/>
  <use xlink:href="#glyph0-11" x="27.704703" y="145.779"/>
</g>
<g style="fill:rgb(0%,0%,0%);fill-opacity:1;">
  <use xlink:href="#glyph0-9" x="31.132326" y="145.779"/>
  <use xlink:href="#glyph0-19" x="33.69171" y="145.779"/>
  <use xlink:href="#glyph0-5" x="37.517537" y="145.779"/>
</g>
</g>
</g>
</svg>
