<?xml version="1.0" encoding="UTF-8"?>
<svg xmlns="http://www.w3.org/2000/svg" xmlns:xlink="http://www.w3.org/1999/xlink" width="284pt" height="265pt" viewBox="0 0 205.19 191.38" version="1.1">
<defs>
<g>
<symbol overflow="visible" id="glyph0-0">
<path style="stroke:none;" d=""/>
</symbol>
<symbol overflow="visible" id="glyph0-1">
<path style="stroke:none;" d="M 0.8125 -3.296875 C 0.953125 -2.453125 1.125 -1.625 1.28125 -0.78125 C 1.34375 -0.53125 1.34375 -0.203125 1.453125 0.015625 C 1.609375 0.015625 1.8125 0.03125 1.953125 0 L 2.015625 -0.0625 L 4 -3.296875 C 3.828125 -3.296875 3.65625 -3.3125 3.515625 -3.296875 L 2.265625 -1.25 L 1.8125 -0.515625 L 1.4375 -2.578125 C 1.375 -2.8125 1.359375 -3.078125 1.296875 -3.296875 C 1.140625 -3.3125 0.96875 -3.296875 0.8125 -3.296875 Z M 0.8125 -3.296875 "/>
</symbol>
<symbol overflow="visible" id="glyph0-2">
<path style="stroke:none;" d="M 1.765625 -4.859375 L 0.734375 0 C 1.78125 0 2.890625 0.015625 3.890625 0 C 3.953125 -0.125 3.96875 -0.265625 3.984375 -0.40625 L 1.359375 -0.40625 L 2.296875 -4.859375 L 1.765625 -4.859375 Z M 1.765625 -4.859375 "/>
</symbol>
<symbol overflow="visible" id="glyph0-3">
<path style="stroke:none;" d="M 4.46875 0.78125 L 4.296875 0.515625 L 3.734375 -0.265625 C 3.921875 -0.34375 4.296875 -0.640625 4.375 -0.734375 C 5.15625 -1.421875 5.796875 -2.796875 5.203125 -3.9375 C 4.84375 -4.6875 3.96875 -5.140625 2.890625 -4.90625 C 1.71875 -4.65625 0.796875 -3.671875 0.484375 -2.65625 C 0.265625 -1.953125 0.328125 -1.171875 0.796875 -0.59375 C 1.21875 -0.0625 1.90625 0.15625 2.578125 0.109375 C 2.734375 0.09375 2.90625 0.0625 3.0625 0.015625 C 3.09375 0 3.25 -0.046875 3.28125 -0.046875 C 3.296875 -0.03125 3.4375 0.171875 3.4375 0.171875 L 3.703125 0.578125 L 3.796875 0.6875 C 3.8125 0.71875 3.828125 0.734375 3.84375 0.765625 C 3.890625 0.796875 3.96875 0.78125 4.03125 0.78125 L 4.46875 0.78125 Z M 3.5 -0.578125 L 3.109375 -1.140625 L 3 -1.28125 L 2.9375 -1.34375 C 2.765625 -1.359375 2.578125 -1.359375 2.390625 -1.359375 L 3.0625 -0.390625 C 2.890625 -0.34375 2.703125 -0.296875 2.53125 -0.296875 C 2.09375 -0.28125 1.640625 -0.40625 1.328125 -0.71875 C 1.015625 -1 0.859375 -1.515625 0.890625 -2.078125 C 0.96875 -3.09375 1.640625 -4.0625 2.609375 -4.421875 C 3.21875 -4.65625 4 -4.625 4.484375 -4.125 C 4.703125 -3.90625 4.859375 -3.5625 4.90625 -3.203125 C 4.984375 -2.453125 4.6875 -1.671875 4.1875 -1.109375 C 4 -0.90625 3.765625 -0.703125 3.5 -0.578125 Z M 3.5 -0.578125 "/>
</symbol>
<symbol overflow="visible" id="glyph0-4">
<path style="stroke:none;" d="M 0.21875 0 L 0.578125 0 L 0.734375 -0.015625 L 0.796875 -0.109375 C 1.0625 -0.53125 1.328125 -0.96875 1.609375 -1.390625 L 1.671875 -1.40625 L 3.984375 -1.40625 C 4.078125 -0.9375 4.140625 -0.453125 4.265625 -0.015625 C 4.40625 0.03125 4.640625 -0.015625 4.8125 0 C 4.796875 -0.140625 3.953125 -4.375 3.90625 -4.640625 C 3.90625 -4.671875 3.859375 -4.90625 3.828125 -4.921875 C 3.78125 -4.9375 3.734375 -4.921875 3.703125 -4.921875 L 3.421875 -4.921875 C 3.375 -4.921875 3.3125 -4.9375 3.28125 -4.90625 C 3.234375 -4.875 3.09375 -4.625 3.09375 -4.625 L 1.078125 -1.375 L 0.515625 -0.46875 C 0.40625 -0.328125 0.296875 -0.15625 0.21875 0 Z M 3.421875 -4.34375 C 3.5625 -3.5 3.734375 -2.65625 3.90625 -1.8125 L 1.859375 -1.8125 C 2.359375 -2.671875 2.90625 -3.5 3.421875 -4.34375 Z M 3.421875 -4.34375 "/>
</symbol>
<symbol overflow="visible" id="glyph0-5">
<path style="stroke:none;" d="M 0.625 -0.921875 L 0.421875 -0.375 C 0.609375 -0.265625 0.78125 -0.15625 0.984375 -0.078125 C 1.71875 0.1875 2.578125 0.203125 3.265625 -0.1875 C 3.734375 -0.46875 4.140625 -0.921875 4.1875 -1.484375 C 4.1875 -1.578125 4.1875 -1.6875 4.171875 -1.78125 C 4.078125 -2.203125 3.734375 -2.5 3.359375 -2.625 C 2.765625 -2.84375 1.875 -2.8125 1.6875 -3.4375 C 1.59375 -3.828125 1.953125 -4.171875 2.265625 -4.34375 C 2.578125 -4.515625 2.953125 -4.5625 3.296875 -4.546875 C 3.6875 -4.515625 3.96875 -4.421875 4.21875 -4.21875 C 4.28125 -4.171875 4.328125 -4.125 4.375 -4.078125 C 4.4375 -4.203125 4.484375 -4.34375 4.53125 -4.46875 C 4.5625 -4.546875 4.625 -4.640625 4.515625 -4.671875 C 4.125 -4.890625 3.65625 -5 3.046875 -4.96875 C 2.375 -4.921875 1.65625 -4.578125 1.328125 -3.96875 C 1.25 -3.828125 1.203125 -3.671875 1.1875 -3.515625 C 1.125 -2.90625 1.625 -2.5625 2.015625 -2.421875 C 2.140625 -2.375 2.28125 -2.34375 2.40625 -2.3125 C 2.59375 -2.28125 3 -2.1875 3.140625 -2.140625 C 3.359375 -2.046875 3.5625 -1.890625 3.65625 -1.65625 C 3.828125 -1.1875 3.421875 -0.6875 3.015625 -0.515625 C 2.28125 -0.140625 1.34375 -0.359375 0.796875 -0.78125 C 0.734375 -0.828125 0.6875 -0.875 0.625 -0.921875 Z M 0.625 -0.921875 "/>
</symbol>
<symbol overflow="visible" id="glyph1-0">
<path style="stroke:none;" d=""/>
</symbol>
<symbol overflow="visible" id="glyph1-1">
<path style="stroke:none;" d="M 0.4375 -2.6875 C 0.375 -2.59375 0.4375 -2.453125 0.53125 -2.4375 C 0.578125 -2.421875 0.625 -2.421875 0.671875 -2.421875 L 5.140625 -2.421875 C 5.203125 -2.421875 5.265625 -2.421875 5.3125 -2.46875 C 5.40625 -2.5625 5.359375 -2.734375 5.21875 -2.75 C 5.125 -2.765625 5.015625 -2.75 4.90625 -2.75 L 0.671875 -2.75 C 0.5625 -2.75 0.5 -2.765625 0.4375 -2.6875 Z M 0.4375 -1.1875 C 0.375 -1.09375 0.4375 -0.96875 0.53125 -0.953125 C 0.578125 -0.9375 0.625 -0.9375 0.671875 -0.9375 L 5.140625 -0.9375 C 5.203125 -0.9375 5.265625 -0.9375 5.3125 -0.984375 C 5.40625 -1.078125 5.359375 -1.25 5.21875 -1.265625 C 5.125 -1.28125 5.015625 -1.265625 4.90625 -1.265625 L 0.671875 -1.265625 C 0.5625 -1.265625 0.484375 -1.28125 0.4375 -1.1875 Z M 0.4375 -1.1875 "/>
</symbol>
<symbol overflow="visible" id="glyph1-2">
<path style="stroke:none;" d="M 1.84375 -4.703125 C 1.671875 -4.6875 1.515625 -4.65625 1.359375 -4.578125 C 0.625 -4.3125 0.375 -3.359375 0.375 -2.421875 C 0.375 -2.265625 0.375 -2.125 0.375 -1.984375 C 0.40625 -1.328125 0.546875 -0.6875 0.921875 -0.296875 C 1.21875 0.015625 1.6875 0.140625 2.109375 0.109375 C 2.359375 0.078125 2.59375 -0.015625 2.78125 -0.140625 C 3.375 -0.5625 3.515625 -1.421875 3.515625 -2.359375 C 3.515625 -3.140625 3.375 -3.828125 3 -4.25 C 2.71875 -4.5625 2.265625 -4.75 1.84375 -4.703125 Z M 2.4375 -4.1875 C 2.5 -4.15625 2.578125 -4.09375 2.640625 -4.03125 C 2.890625 -3.78125 2.984375 -3.28125 3 -2.8125 C 3 -2.71875 3 -2.625 3 -2.53125 L 3 -2.171875 C 3 -1.5625 2.953125 -0.984375 2.6875 -0.625 C 2.328125 -0.171875 1.59375 -0.15625 1.21875 -0.609375 C 1.140625 -0.71875 1.078125 -0.828125 1.03125 -0.9375 C 0.90625 -1.296875 0.875 -1.75 0.875 -2.203125 L 0.875 -2.5625 C 0.875 -2.640625 0.890625 -2.734375 0.890625 -2.828125 C 0.890625 -3.375 1.03125 -3.921875 1.40625 -4.15625 C 1.671875 -4.328125 2.09375 -4.375 2.4375 -4.1875 Z M 2.4375 -4.1875 "/>
</symbol>
<symbol overflow="visible" id="glyph1-3">
<path style="stroke:none;" d="M 0.21875 0 L 0.578125 0 C 0.625 0 0.6875 0.015625 0.71875 -0.015625 C 0.75 -0.03125 0.75 -0.0625 0.765625 -0.09375 C 0.875 -0.34375 1.21875 -1.203125 1.265625 -1.296875 C 1.28125 -1.359375 1.296875 -1.40625 1.375 -1.40625 L 3.0625 -1.40625 C 3.25 -1.40625 3.4375 -1.40625 3.625 -1.40625 C 3.703125 -1.390625 3.71875 -1.296875 3.75 -1.234375 C 3.828125 -1.03125 4.203125 -0.125 4.234375 -0.0625 C 4.25 0.015625 4.3125 0 4.4375 0 L 4.8125 0 C 4.640625 -0.453125 4.453125 -0.890625 4.265625 -1.34375 L 2.828125 -4.84375 C 2.8125 -4.875 2.8125 -4.921875 2.765625 -4.921875 C 2.734375 -4.9375 2.6875 -4.921875 2.640625 -4.921875 L 2.375 -4.921875 C 2.34375 -4.921875 2.28125 -4.9375 2.234375 -4.90625 C 2.21875 -4.90625 2.203125 -4.859375 2.1875 -4.828125 L 0.765625 -1.34375 L 0.40625 -0.484375 C 0.34375 -0.328125 0.265625 -0.171875 0.21875 0 Z M 2.5 -4.34375 C 2.8125 -3.484375 3.171875 -2.65625 3.515625 -1.8125 L 1.46875 -1.8125 C 1.8125 -2.65625 2.171875 -3.484375 2.484375 -4.34375 L 2.5 -4.34375 Z M 2.5 -4.34375 "/>
</symbol>
<symbol overflow="visible" id="glyph1-4">
<path style="stroke:none;" d="M 1.078125 -2.453125 L 1.0625 -2.453125 L 1.0625 -3.296875 L 0.59375 -3.296875 L 0.59375 0 L 1.078125 0 L 1.078125 -1.3125 C 1.078125 -1.578125 1.0625 -1.859375 1.15625 -2.125 C 1.28125 -2.484375 1.609375 -2.71875 1.96875 -2.828125 C 2.125 -2.890625 2.28125 -2.90625 2.453125 -2.90625 L 2.453125 -3.359375 C 2 -3.359375 1.578125 -3.15625 1.28125 -2.8125 C 1.203125 -2.703125 1.109375 -2.578125 1.078125 -2.453125 Z M 1.078125 -2.453125 "/>
</symbol>
<symbol overflow="visible" id="glyph1-5">
<path style="stroke:none;" d="M 3.15625 -0.796875 C 3.109375 -0.765625 3.0625 -0.71875 3.015625 -0.6875 C 2.609375 -0.40625 1.890625 -0.140625 1.34375 -0.53125 C 1 -0.78125 0.78125 -1.171875 0.78125 -1.75 L 3.21875 -1.75 C 3.21875 -2.265625 3.09375 -2.75 2.78125 -3.03125 C 2.453125 -3.359375 1.90625 -3.453125 1.46875 -3.34375 C 1.28125 -3.296875 1.109375 -3.203125 0.953125 -3.078125 C 0.515625 -2.734375 0.296875 -2.171875 0.296875 -1.609375 C 0.3125 -0.828125 0.890625 -0.109375 1.671875 0.03125 C 2.078125 0.109375 2.5 0.015625 2.859375 -0.15625 C 2.921875 -0.203125 3.15625 -0.3125 3.171875 -0.375 C 3.203125 -0.40625 3.15625 -0.703125 3.15625 -0.796875 Z M 2.796875 -2.0625 L 0.8125 -2.0625 C 0.90625 -2.359375 1.0625 -2.671875 1.34375 -2.84375 C 1.6875 -3.078125 2.21875 -3.046875 2.515625 -2.734375 C 2.6875 -2.546875 2.765625 -2.296875 2.796875 -2.0625 Z M 2.796875 -2.0625 "/>
</symbol>
<symbol overflow="visible" id="glyph1-6">
<path style="stroke:none;" d="M 0.640625 -2.65625 C 0.765625 -2.71875 0.875 -2.796875 0.984375 -2.84375 C 1.21875 -2.953125 1.453125 -3 1.6875 -3.015625 C 1.765625 -3.03125 1.84375 -3.03125 1.90625 -3.03125 C 2.1875 -2.984375 2.421875 -2.796875 2.515625 -2.515625 C 2.578125 -2.3125 2.5625 -2.078125 2.5625 -1.875 C 2.1875 -1.875 1.8125 -1.84375 1.46875 -1.75 C 0.953125 -1.625 0.328125 -1.359375 0.40625 -0.734375 C 0.4375 -0.4375 0.59375 -0.15625 0.859375 -0.015625 C 1.046875 0.0625 1.25 0.0625 1.4375 0.046875 C 1.75 0.015625 2.0625 -0.0625 2.328125 -0.25 C 2.421875 -0.3125 2.484375 -0.390625 2.5625 -0.46875 L 2.5625 0 L 3.0625 0 L 3.0625 -1.828125 C 3.0625 -2.03125 3.09375 -2.234375 3.046875 -2.421875 C 2.984375 -2.921875 2.546875 -3.28125 2.09375 -3.359375 C 1.796875 -3.421875 1.359375 -3.359375 1.140625 -3.296875 C 1.046875 -3.28125 0.671875 -3.15625 0.625 -3.09375 C 0.609375 -3.0625 0.609375 -3 0.609375 -2.96875 C 0.625 -2.859375 0.640625 -2.765625 0.640625 -2.65625 Z M 2.5625 -1.625 L 2.5625 -1.109375 C 2.5625 -0.984375 2.5625 -0.84375 2.5 -0.734375 C 2.421875 -0.578125 2.265625 -0.46875 2.109375 -0.421875 C 1.78125 -0.296875 1.34375 -0.28125 1.046875 -0.515625 C 0.984375 -0.5625 0.90625 -0.640625 0.890625 -0.75 C 0.8125 -1.046875 1.078125 -1.28125 1.328125 -1.40625 C 1.65625 -1.546875 2.109375 -1.625 2.5625 -1.625 Z M 2.5625 -1.625 "/>
</symbol>
<symbol overflow="visible" id="glyph1-7">
<path style="stroke:none;" d="M 2.59375 1.546875 C 2.5625 1.515625 2.5 1.484375 2.46875 1.4375 C 1.703125 0.75 1.234375 -0.3125 1.1875 -1.609375 C 1.140625 -2.484375 1.296875 -3.390625 1.71875 -4.171875 C 1.90625 -4.546875 2.15625 -4.859375 2.46875 -5.140625 C 2.5 -5.171875 2.5625 -5.203125 2.59375 -5.25 L 2.328125 -5.25 C 2.1875 -5.25 2.203125 -5.25 2.09375 -5.171875 C 1.734375 -4.875 1.421875 -4.5 1.203125 -4.09375 C 0.53125 -2.828125 0.484375 -1.171875 1.09375 0.1875 C 1.328125 0.6875 1.65625 1.125 2.09375 1.46875 C 2.171875 1.546875 2.171875 1.546875 2.328125 1.546875 L 2.59375 1.546875 Z M 2.59375 1.546875 "/>
</symbol>
<symbol overflow="visible" id="glyph1-8">
<path style="stroke:none;" d="M 0.4375 -5.25 C 0.46875 -5.203125 0.515625 -5.171875 0.5625 -5.140625 C 1.421875 -4.375 1.90625 -3.125 1.84375 -1.609375 C 1.8125 -0.859375 1.640625 -0.09375 1.265625 0.5625 C 1.078125 0.890625 0.84375 1.1875 0.5625 1.4375 C 0.515625 1.484375 0.46875 1.515625 0.4375 1.546875 L 0.6875 1.546875 C 0.84375 1.546875 0.828125 1.546875 0.9375 1.46875 C 1.296875 1.1875 1.59375 0.8125 1.828125 0.390625 C 2.484375 -0.859375 2.546875 -2.53125 1.9375 -3.875 C 1.703125 -4.390625 1.359375 -4.8125 0.9375 -5.171875 C 0.84375 -5.234375 0.84375 -5.25 0.6875 -5.25 L 0.4375 -5.25 Z M 0.4375 -5.25 "/>
</symbol>
<symbol overflow="visible" id="glyph1-9">
<path style="stroke:none;" d="M 0.59375 -4.859375 L 0.59375 0 L 1.09375 0 L 1.09375 -0.46875 L 1.109375 -0.46875 C 1.15625 -0.359375 1.265625 -0.265625 1.359375 -0.1875 C 1.671875 0.0625 2.1875 0.140625 2.640625 -0.078125 C 2.859375 -0.203125 3.03125 -0.359375 3.15625 -0.546875 C 3.859375 -1.515625 3.4375 -3.09375 2.46875 -3.328125 C 2.328125 -3.359375 2.1875 -3.359375 2.03125 -3.34375 C 1.625 -3.296875 1.3125 -3.09375 1.078125 -2.828125 L 1.078125 -4.859375 L 0.59375 -4.859375 Z M 1.8125 -2.96875 C 2.15625 -3 2.53125 -2.859375 2.75 -2.578125 C 2.90625 -2.359375 2.96875 -2.09375 2.984375 -1.828125 C 3.015625 -1.453125 2.96875 -1.046875 2.734375 -0.734375 C 2.53125 -0.46875 2.203125 -0.359375 1.890625 -0.34375 C 1.609375 -0.328125 1.375 -0.421875 1.21875 -0.640625 C 1.171875 -0.6875 1.125 -0.75 1.109375 -0.8125 C 1.09375 -0.859375 1.09375 -0.90625 1.09375 -0.9375 L 1.09375 -2.328125 C 1.09375 -2.40625 1.078125 -2.484375 1.109375 -2.546875 C 1.140625 -2.625 1.21875 -2.671875 1.265625 -2.734375 C 1.421875 -2.859375 1.609375 -2.953125 1.8125 -2.96875 Z M 1.8125 -2.96875 "/>
</symbol>
<symbol overflow="visible" id="glyph2-0">
<path style="stroke:none;" d=""/>
</symbol>
<symbol overflow="visible" id="glyph2-1">
<path style="stroke:none;" d="M 1.296875 -3.296875 C 1.171875 -3.28125 1.0625 -3.265625 0.953125 -3.21875 C 0.4375 -3.015625 0.265625 -2.34375 0.265625 -1.6875 C 0.265625 -1.59375 0.265625 -1.484375 0.265625 -1.390625 C 0.28125 -0.9375 0.375 -0.484375 0.640625 -0.21875 C 0.859375 0.015625 1.171875 0.109375 1.484375 0.078125 C 1.65625 0.046875 1.8125 -0.015625 1.953125 -0.09375 C 2.359375 -0.390625 2.46875 -1 2.46875 -1.65625 C 2.46875 -2.203125 2.375 -2.6875 2.109375 -2.984375 C 1.90625 -3.203125 1.59375 -3.328125 1.296875 -3.296875 Z M 1.703125 -2.9375 C 1.75 -2.90625 1.8125 -2.875 1.84375 -2.828125 C 2.03125 -2.65625 2.09375 -2.296875 2.09375 -1.96875 C 2.09375 -1.90625 2.109375 -1.84375 2.109375 -1.765625 L 2.109375 -1.515625 C 2.109375 -1.09375 2.0625 -0.6875 1.875 -0.4375 C 1.640625 -0.125 1.109375 -0.109375 0.859375 -0.4375 C 0.796875 -0.5 0.75 -0.578125 0.71875 -0.65625 C 0.640625 -0.90625 0.625 -1.21875 0.625 -1.546875 L 0.625 -1.796875 C 0.625 -1.859375 0.625 -1.90625 0.625 -1.984375 C 0.625 -2.359375 0.71875 -2.75 0.984375 -2.921875 C 1.171875 -3.03125 1.46875 -3.0625 1.703125 -2.9375 Z M 1.703125 -2.9375 "/>
</symbol>
<symbol overflow="visible" id="glyph3-0">
<path style="stroke:none;" d=""/>
</symbol>
<symbol overflow="visible" id="glyph3-1">
<path style="stroke:none;" d="M 1.015625 -2.734375 C 1 -2.734375 0.96875 -2.734375 0.953125 -2.71875 C 0.828125 -2.671875 0.8125 -2.5625 0.78125 -2.453125 L 0.71875 -2.25 L 0.265625 -0.734375 C 0.25 -0.6875 0.140625 -0.328125 0.140625 -0.296875 C 0.15625 -0.25 0.234375 -0.234375 0.28125 -0.21875 C 0.296875 -0.21875 0.3125 -0.203125 0.34375 -0.203125 C 0.390625 -0.21875 0.421875 -0.296875 0.4375 -0.34375 L 0.625 -0.765625 L 1.078125 -1.828125 C 1.125 -1.921875 1.296875 -2.296875 1.328125 -2.390625 C 1.40625 -2.609375 1.171875 -2.765625 1.015625 -2.734375 Z M 1.015625 -2.734375 "/>
</symbol>
</g>
</defs>
<g id="surface0">
<path style="fill:none;stroke-width:5.10003;stroke-linecap:round;stroke-linejoin:round;stroke:rgb(0%,0%,0%);stroke-opacity:1;stroke-miterlimit:10;" d="M 299.335938 1724.034375 C 236.757813 1724.034375 186.015625 1632.042188 186.015625 1518.604688 C 186.015625 1405.167188 236.757813 1313.175 299.335938 1313.175 " transform="matrix(0.1,0,0,-0.1,0,191.38)"/>
<path style="fill:none;stroke-width:5.10003;stroke-linecap:round;stroke-linejoin:round;stroke:rgb(0%,0%,0%);stroke-opacity:1;stroke-dasharray:30.0747,30.0747;stroke-miterlimit:10;" d="M 299.335938 1313.175 C 361.953125 1313.175 412.695313 1405.167188 412.695313 1518.604688 C 412.695313 1632.042188 361.953125 1724.034375 299.335938 1724.034375 " transform="matrix(0.1,0,0,-0.1,0,191.38)"/>
<path style="fill:none;stroke-width:5.10003;stroke-linecap:round;stroke-linejoin:round;stroke:rgb(0%,0%,0%);stroke-opacity:1;stroke-miterlimit:10;" d="M 299.335938 1724.034375 L 1595.585938 1724.034375 " transform="matrix(0.1,0,0,-0.1,0,191.38)"/>
<path style="fill:none;stroke-width:5.10003;stroke-linecap:round;stroke-linejoin:round;stroke:rgb(0%,0%,0%);stroke-opacity:1;stroke-miterlimit:10;" d="M 299.335938 1313.175 L 1595.585938 1313.175 " transform="matrix(0.1,0,0,-0.1,0,191.38)"/>
<path style="fill:none;stroke-width:5.10003;stroke-linecap:round;stroke-linejoin:round;stroke:rgb(0%,0%,0%);stroke-opacity:1;stroke-miterlimit:10;" d="M 1595.585938 1724.034375 C 1533.007813 1724.034375 1482.265625 1632.042188 1482.265625 1518.604688 C 1482.265625 1405.167188 1533.007813 1313.175 1595.585938 1313.175 C 1658.203125 1313.175 1708.945313 1405.167188 1708.945313 1518.604688 C 1708.945313 1632.042188 1658.203125 1724.034375 1595.585938 1724.034375 Z M 1595.585938 1724.034375 " transform="matrix(0.1,0,0,-0.1,0,191.38)"/>
<path style="fill:none;stroke-width:3.68335;stroke-linecap:round;stroke-linejoin:round;stroke:rgb(0%,0%,0%);stroke-opacity:1;stroke-miterlimit:10;" d="M 1595.585938 1745.284375 L 1595.585938 1766.534375 " transform="matrix(0.1,0,0,-0.1,0,191.38)"/>
<path style="fill:none;stroke-width:3.68335;stroke-linecap:round;stroke-linejoin:round;stroke:rgb(0%,0%,0%);stroke-opacity:1;stroke-miterlimit:10;" d="M 1595.585938 1787.784375 L 1595.585938 1894.034375 " transform="matrix(0.1,0,0,-0.1,0,191.38)"/>
<path style="fill:none;stroke-width:3.68335;stroke-linecap:round;stroke-linejoin:round;stroke:rgb(0%,0%,0%);stroke-opacity:1;stroke-miterlimit:10;" d="M 299.335938 1745.284375 L 299.335938 1766.534375 " transform="matrix(0.1,0,0,-0.1,0,191.38)"/>
<path style="fill:none;stroke-width:3.68335;stroke-linecap:round;stroke-linejoin:round;stroke:rgb(0%,0%,0%);stroke-opacity:1;stroke-miterlimit:10;" d="M 299.335938 1787.784375 L 299.335938 1894.034375 " transform="matrix(0.1,0,0,-0.1,0,191.38)"/>
<path style="fill:none;stroke-width:3.68335;stroke-linecap:round;stroke-linejoin:round;stroke:rgb(0%,0%,0%);stroke-opacity:1;stroke-miterlimit:10;" d="M 1553.085938 1844.425 L 341.835938 1844.425 " transform="matrix(0.1,0,0,-0.1,0,191.38)"/>
<path style=" stroke:none;fill-rule:nonzero;fill:rgb(0%,0%,0%);fill-opacity:1;" d="M 159.558594 6.9375 L 155.308594 5.992188 L 155.308594 7.878906 L 159.558594 6.9375 "/>
<path style="fill:none;stroke-width:3.68335;stroke-linecap:round;stroke-linejoin:round;stroke:rgb(0%,0%,0%);stroke-opacity:1;stroke-miterlimit:10;" d="M 1595.585938 1844.425 L 1553.085938 1853.878125 L 1553.085938 1835.010938 L 1595.585938 1844.425 Z M 1595.585938 1844.425 " transform="matrix(0.1,0,0,-0.1,0,191.38)"/>
<path style=" stroke:none;fill-rule:nonzero;fill:rgb(0%,0%,0%);fill-opacity:1;" d="M 29.933594 6.9375 L 34.183594 7.878906 L 34.183594 5.992188 L 29.933594 6.9375 "/>
<path style="fill:none;stroke-width:3.68335;stroke-linecap:round;stroke-linejoin:round;stroke:rgb(0%,0%,0%);stroke-opacity:1;stroke-miterlimit:10;" d="M 299.335938 1844.425 L 341.835938 1835.010938 L 341.835938 1853.878125 L 299.335938 1844.425 Z M 299.335938 1844.425 " transform="matrix(0.1,0,0,-0.1,0,191.38)"/>
<path style="fill:none;stroke-width:3.68335;stroke-linecap:round;stroke-linejoin:round;stroke:rgb(0%,0%,0%);stroke-opacity:1;stroke-miterlimit:10;" d="M 422.851563 1352.784375 C 389.6875 1319.89375 351.601563 1292.198438 309.960938 1270.675 L 338.320313 1270.675 L 253.320313 1214.034375 " transform="matrix(0.1,0,0,-0.1,0,191.38)"/>
<path style=" stroke:none;fill-rule:nonzero;fill:rgb(0%,0%,0%);fill-opacity:1;" d="M 45.164063 52.976563 C 44.023438 53.855469 42.84375 54.675781 41.628906 55.4375 L 42.945313 56.769531 C 43.742188 55.542969 44.484375 54.277344 45.164063 52.976563 "/>
<path style="fill:none;stroke-width:3.68335;stroke-linecap:round;stroke-linejoin:round;stroke:rgb(0%,0%,0%);stroke-opacity:1;stroke-miterlimit:10;" d="M 451.640625 1384.034375 C 440.234375 1375.245313 428.4375 1367.042188 416.289063 1359.425 L 429.453125 1346.104688 C 437.421875 1358.370313 444.84375 1371.026563 451.640625 1384.034375 Z M 451.640625 1384.034375 " transform="matrix(0.1,0,0,-0.1,0,191.38)"/>
<path style="fill:none;stroke-width:3.68335;stroke-linecap:round;stroke-linejoin:round;stroke:rgb(0%,0%,0%);stroke-opacity:1;stroke-miterlimit:10;" d="M 1641.875 1359.698438 C 1658.710938 1330.51875 1681.484375 1304.971875 1708.945313 1284.854688 L 1694.765625 1327.354688 L 1765.625 1256.534375 " transform="matrix(0.1,0,0,-0.1,0,191.38)"/>
<path style=" stroke:none;fill-rule:nonzero;fill:rgb(0%,0%,0%);fill-opacity:1;" d="M 162.394531 51.5625 C 162.589844 53.035156 162.914063 54.480469 163.367188 55.882813 L 165.007813 54.9375 C 164.042969 53.894531 163.167969 52.765625 162.394531 51.5625 "/>
<path style="fill:none;stroke-width:3.68335;stroke-linecap:round;stroke-linejoin:round;stroke:rgb(0%,0%,0%);stroke-opacity:1;stroke-miterlimit:10;" d="M 1623.945313 1398.175 C 1625.898438 1383.448438 1629.140625 1368.995313 1633.671875 1354.971875 L 1650.078125 1364.425 C 1640.429688 1374.854688 1631.679688 1386.14375 1623.945313 1398.175 Z M 1623.945313 1398.175 " transform="matrix(0.1,0,0,-0.1,0,191.38)"/>
<path style="fill:none;stroke-width:9.91672;stroke-linecap:round;stroke-linejoin:round;stroke:rgb(0%,0%,0%);stroke-opacity:1;stroke-miterlimit:10;" d="M 1020.351563 1403.682813 L 1020.351563 1403.682813 " transform="matrix(0.1,0,0,-0.1,0,191.38)"/>
<path style="fill:none;stroke-width:9.91672;stroke-linecap:round;stroke-linejoin:round;stroke:rgb(0%,0%,0%);stroke-opacity:1;stroke-miterlimit:10;" d="M 322.734375 1598.135938 L 322.734375 1598.135938 " transform="matrix(0.1,0,0,-0.1,0,191.38)"/>
<path style="fill:none;stroke-width:9.91672;stroke-linecap:round;stroke-linejoin:round;stroke:rgb(0%,0%,0%);stroke-opacity:1;stroke-miterlimit:10;" d="M 1251.71875 1367.003125 L 1251.71875 1367.003125 " transform="matrix(0.1,0,0,-0.1,0,191.38)"/>
<path style="fill:none;stroke-width:9.91672;stroke-linecap:round;stroke-linejoin:round;stroke:rgb(0%,0%,0%);stroke-opacity:1;stroke-miterlimit:10;" d="M 434.921875 1556.026563 L 434.921875 1556.026563 " transform="matrix(0.1,0,0,-0.1,0,191.38)"/>
<path style="fill:none;stroke-width:9.91672;stroke-linecap:round;stroke-linejoin:round;stroke:rgb(0%,0%,0%);stroke-opacity:1;stroke-miterlimit:10;" d="M 1569.882813 1469.26875 L 1569.882813 1469.26875 " transform="matrix(0.1,0,0,-0.1,0,191.38)"/>
<path style="fill:none;stroke-width:9.91672;stroke-linecap:round;stroke-linejoin:round;stroke:rgb(0%,0%,0%);stroke-opacity:1;stroke-miterlimit:10;" d="M 1462.109375 1673.253125 L 1462.109375 1673.253125 " transform="matrix(0.1,0,0,-0.1,0,191.38)"/>
<path style="fill:none;stroke-width:9.91672;stroke-linecap:round;stroke-linejoin:round;stroke:rgb(0%,0%,0%);stroke-opacity:1;stroke-miterlimit:10;" d="M 1097.109375 1388.057813 L 1097.109375 1388.057813 " transform="matrix(0.1,0,0,-0.1,0,191.38)"/>
<path style="fill:none;stroke-width:9.91672;stroke-linecap:round;stroke-linejoin:round;stroke:rgb(0%,0%,0%);stroke-opacity:1;stroke-miterlimit:10;" d="M 739.101563 1579.425 L 739.101563 1579.425 " transform="matrix(0.1,0,0,-0.1,0,191.38)"/>
<path style="fill:none;stroke-width:9.91672;stroke-linecap:round;stroke-linejoin:round;stroke:rgb(0%,0%,0%);stroke-opacity:1;stroke-miterlimit:10;" d="M 926.757813 1682.55 L 926.757813 1682.55 " transform="matrix(0.1,0,0,-0.1,0,191.38)"/>
<path style="fill:none;stroke-width:9.91672;stroke-linecap:round;stroke-linejoin:round;stroke:rgb(0%,0%,0%);stroke-opacity:1;stroke-miterlimit:10;" d="M 256.09375 1651.065625 L 256.09375 1651.065625 " transform="matrix(0.1,0,0,-0.1,0,191.38)"/>
<path style="fill:none;stroke-width:9.91672;stroke-linecap:round;stroke-linejoin:round;stroke:rgb(0%,0%,0%);stroke-opacity:1;stroke-miterlimit:10;" d="M 711.5625 1580.596875 L 711.5625 1580.596875 " transform="matrix(0.1,0,0,-0.1,0,191.38)"/>
<path style="fill:none;stroke-width:9.91672;stroke-linecap:round;stroke-linejoin:round;stroke:rgb(0%,0%,0%);stroke-opacity:1;stroke-miterlimit:10;" d="M 484.882813 1394.58125 L 484.882813 1394.58125 " transform="matrix(0.1,0,0,-0.1,0,191.38)"/>
<path style="fill:none;stroke-width:9.91672;stroke-linecap:round;stroke-linejoin:round;stroke:rgb(0%,0%,0%);stroke-opacity:1;stroke-miterlimit:10;" d="M 1529.804688 1443.135938 L 1529.804688 1443.135938 " transform="matrix(0.1,0,0,-0.1,0,191.38)"/>
<path style="fill:none;stroke-width:9.91672;stroke-linecap:round;stroke-linejoin:round;stroke:rgb(0%,0%,0%);stroke-opacity:1;stroke-miterlimit:10;" d="M 1407.226563 1615.323438 L 1407.226563 1615.323438 " transform="matrix(0.1,0,0,-0.1,0,191.38)"/>
<path style="fill:none;stroke-width:9.91672;stroke-linecap:round;stroke-linejoin:round;stroke:rgb(0%,0%,0%);stroke-opacity:1;stroke-miterlimit:10;" d="M 587.773438 1683.448438 L 587.773438 1683.448438 " transform="matrix(0.1,0,0,-0.1,0,191.38)"/>
<path style="fill:none;stroke-width:9.91672;stroke-linecap:round;stroke-linejoin:round;stroke:rgb(0%,0%,0%);stroke-opacity:1;stroke-miterlimit:10;" d="M 781.523438 1650.245313 L 781.523438 1650.245313 " transform="matrix(0.1,0,0,-0.1,0,191.38)"/>
<path style="fill:none;stroke-width:9.91672;stroke-linecap:round;stroke-linejoin:round;stroke:rgb(0%,0%,0%);stroke-opacity:1;stroke-miterlimit:10;" d="M 935.976563 1446.14375 L 935.976563 1446.14375 " transform="matrix(0.1,0,0,-0.1,0,191.38)"/>
<path style="fill:none;stroke-width:9.91672;stroke-linecap:round;stroke-linejoin:round;stroke:rgb(0%,0%,0%);stroke-opacity:1;stroke-miterlimit:10;" d="M 587.148438 1550.089063 L 587.148438 1550.089063 " transform="matrix(0.1,0,0,-0.1,0,191.38)"/>
<path style="fill:none;stroke-width:9.91672;stroke-linecap:round;stroke-linejoin:round;stroke:rgb(0%,0%,0%);stroke-opacity:1;stroke-miterlimit:10;" d="M 1245.117188 1460.440625 L 1245.117188 1460.440625 " transform="matrix(0.1,0,0,-0.1,0,191.38)"/>
<path style="fill:none;stroke-width:9.91672;stroke-linecap:round;stroke-linejoin:round;stroke:rgb(0%,0%,0%);stroke-opacity:1;stroke-miterlimit:10;" d="M 981.914063 1639.073438 L 981.914063 1639.073438 " transform="matrix(0.1,0,0,-0.1,0,191.38)"/>
<path style="fill:none;stroke-width:9.91672;stroke-linecap:round;stroke-linejoin:round;stroke:rgb(0%,0%,0%);stroke-opacity:1;stroke-miterlimit:10;" d="M 1250.117188 1666.885938 L 1250.117188 1666.885938 " transform="matrix(0.1,0,0,-0.1,0,191.38)"/>
<path style="fill:none;stroke-width:9.91672;stroke-linecap:round;stroke-linejoin:round;stroke:rgb(0%,0%,0%);stroke-opacity:1;stroke-miterlimit:10;" d="M 428.554688 1563.175 L 428.554688 1563.175 " transform="matrix(0.1,0,0,-0.1,0,191.38)"/>
<path style="fill:none;stroke-width:9.91672;stroke-linecap:round;stroke-linejoin:round;stroke:rgb(0%,0%,0%);stroke-opacity:1;stroke-miterlimit:10;" d="M 752.96875 1488.565625 L 752.96875 1488.565625 " transform="matrix(0.1,0,0,-0.1,0,191.38)"/>
<path style="fill:none;stroke-width:9.91672;stroke-linecap:round;stroke-linejoin:round;stroke:rgb(0%,0%,0%);stroke-opacity:1;stroke-miterlimit:10;" d="M 774.335938 1414.854688 L 774.335938 1414.854688 " transform="matrix(0.1,0,0,-0.1,0,191.38)"/>
<path style="fill:none;stroke-width:9.91672;stroke-linecap:round;stroke-linejoin:round;stroke:rgb(0%,0%,0%);stroke-opacity:1;stroke-miterlimit:10;" d="M 296.796875 1525.83125 L 296.796875 1525.83125 " transform="matrix(0.1,0,0,-0.1,0,191.38)"/>
<path style="fill:none;stroke-width:9.91672;stroke-linecap:round;stroke-linejoin:round;stroke:rgb(0%,0%,0%);stroke-opacity:1;stroke-miterlimit:10;" d="M 358.671875 1492.042188 L 358.671875 1492.042188 " transform="matrix(0.1,0,0,-0.1,0,191.38)"/>
<path style="fill:none;stroke-width:9.91672;stroke-linecap:round;stroke-linejoin:round;stroke:rgb(0%,0%,0%);stroke-opacity:1;stroke-miterlimit:10;" d="M 1403.710938 1551.339063 L 1403.710938 1551.339063 " transform="matrix(0.1,0,0,-0.1,0,191.38)"/>
<path style="fill:none;stroke-width:9.91672;stroke-linecap:round;stroke-linejoin:round;stroke:rgb(0%,0%,0%);stroke-opacity:1;stroke-miterlimit:10;" d="M 455.898438 1588.526563 L 455.898438 1588.526563 " transform="matrix(0.1,0,0,-0.1,0,191.38)"/>
<path style="fill:none;stroke-width:9.91672;stroke-linecap:round;stroke-linejoin:round;stroke:rgb(0%,0%,0%);stroke-opacity:1;stroke-miterlimit:10;" d="M 1132.148438 1590.675 L 1132.148438 1590.675 " transform="matrix(0.1,0,0,-0.1,0,191.38)"/>
<path style="fill:none;stroke-width:9.91672;stroke-linecap:round;stroke-linejoin:round;stroke:rgb(0%,0%,0%);stroke-opacity:1;stroke-miterlimit:10;" d="M 567.382813 1439.7375 L 567.382813 1439.7375 " transform="matrix(0.1,0,0,-0.1,0,191.38)"/>
<path style="fill:none;stroke-width:9.91672;stroke-linecap:round;stroke-linejoin:round;stroke:rgb(0%,0%,0%);stroke-opacity:1;stroke-miterlimit:10;" d="M 242.734375 1527.042188 L 242.734375 1527.042188 " transform="matrix(0.1,0,0,-0.1,0,191.38)"/>
<path style="fill:none;stroke-width:9.91672;stroke-linecap:round;stroke-linejoin:round;stroke:rgb(0%,0%,0%);stroke-opacity:1;stroke-miterlimit:10;" d="M 964.570313 1460.596875 L 964.570313 1460.596875 " transform="matrix(0.1,0,0,-0.1,0,191.38)"/>
<path style="fill:none;stroke-width:9.91672;stroke-linecap:round;stroke-linejoin:round;stroke:rgb(0%,0%,0%);stroke-opacity:1;stroke-miterlimit:10;" d="M 1346.40625 1363.760938 L 1346.40625 1363.760938 " transform="matrix(0.1,0,0,-0.1,0,191.38)"/>
<path style="fill:none;stroke-width:9.91672;stroke-linecap:round;stroke-linejoin:round;stroke:rgb(0%,0%,0%);stroke-opacity:1;stroke-miterlimit:10;" d="M 1554.609375 1644.698438 L 1554.609375 1644.698438 " transform="matrix(0.1,0,0,-0.1,0,191.38)"/>
<path style="fill:none;stroke-width:9.91672;stroke-linecap:round;stroke-linejoin:round;stroke:rgb(0%,0%,0%);stroke-opacity:1;stroke-miterlimit:10;" d="M 585.9375 1570.479688 L 585.9375 1570.479688 " transform="matrix(0.1,0,0,-0.1,0,191.38)"/>
<path style="fill:none;stroke-width:9.91672;stroke-linecap:round;stroke-linejoin:round;stroke:rgb(0%,0%,0%);stroke-opacity:1;stroke-miterlimit:10;" d="M 1331.484375 1483.8 L 1331.484375 1483.8 " transform="matrix(0.1,0,0,-0.1,0,191.38)"/>
<path style="fill:none;stroke-width:9.91672;stroke-linecap:round;stroke-linejoin:round;stroke:rgb(0%,0%,0%);stroke-opacity:1;stroke-miterlimit:10;" d="M 1130.039063 1585.51875 L 1130.039063 1585.51875 " transform="matrix(0.1,0,0,-0.1,0,191.38)"/>
<path style="fill:none;stroke-width:9.91672;stroke-linecap:round;stroke-linejoin:round;stroke:rgb(0%,0%,0%);stroke-opacity:1;stroke-miterlimit:10;" d="M 1134.453125 1517.2375 L 1134.453125 1517.2375 " transform="matrix(0.1,0,0,-0.1,0,191.38)"/>
<path style="fill:none;stroke-width:9.91672;stroke-linecap:round;stroke-linejoin:round;stroke:rgb(0%,0%,0%);stroke-opacity:1;stroke-miterlimit:10;" d="M 1531.132813 1424.151563 L 1531.132813 1424.151563 " transform="matrix(0.1,0,0,-0.1,0,191.38)"/>
<path style="fill:none;stroke-width:9.91672;stroke-linecap:round;stroke-linejoin:round;stroke:rgb(0%,0%,0%);stroke-opacity:1;stroke-miterlimit:10;" d="M 549.53125 1434.307813 L 549.53125 1434.307813 " transform="matrix(0.1,0,0,-0.1,0,191.38)"/>
<path style="fill:none;stroke-width:9.91672;stroke-linecap:round;stroke-linejoin:round;stroke:rgb(0%,0%,0%);stroke-opacity:1;stroke-miterlimit:10;" d="M 1069.101563 1592.901563 L 1069.101563 1592.901563 " transform="matrix(0.1,0,0,-0.1,0,191.38)"/>
<path style="fill:none;stroke-width:9.91672;stroke-linecap:round;stroke-linejoin:round;stroke:rgb(0%,0%,0%);stroke-opacity:1;stroke-miterlimit:10;" d="M 610.15625 1552.042188 L 610.15625 1552.042188 " transform="matrix(0.1,0,0,-0.1,0,191.38)"/>
<path style="fill:none;stroke-width:9.91672;stroke-linecap:round;stroke-linejoin:round;stroke:rgb(0%,0%,0%);stroke-opacity:1;stroke-miterlimit:10;" d="M 1323.632813 1556.651563 L 1323.632813 1556.651563 " transform="matrix(0.1,0,0,-0.1,0,191.38)"/>
<path style="fill:none;stroke-width:9.91672;stroke-linecap:round;stroke-linejoin:round;stroke:rgb(0%,0%,0%);stroke-opacity:1;stroke-miterlimit:10;" d="M 555.742188 1671.417188 L 555.742188 1671.417188 " transform="matrix(0.1,0,0,-0.1,0,191.38)"/>
<path style="fill:none;stroke-width:9.91672;stroke-linecap:round;stroke-linejoin:round;stroke:rgb(0%,0%,0%);stroke-opacity:1;stroke-miterlimit:10;" d="M 1501.796875 1383.95625 L 1501.796875 1383.95625 " transform="matrix(0.1,0,0,-0.1,0,191.38)"/>
<path style="fill:none;stroke-width:9.91672;stroke-linecap:round;stroke-linejoin:round;stroke:rgb(0%,0%,0%);stroke-opacity:1;stroke-miterlimit:10;" d="M 1205.273438 1593.760938 L 1205.273438 1593.760938 " transform="matrix(0.1,0,0,-0.1,0,191.38)"/>
<path style="fill:none;stroke-width:9.91672;stroke-linecap:round;stroke-linejoin:round;stroke:rgb(0%,0%,0%);stroke-opacity:1;stroke-miterlimit:10;" d="M 1349.609375 1665.948438 L 1349.609375 1665.948438 " transform="matrix(0.1,0,0,-0.1,0,191.38)"/>
<path style="fill:none;stroke-width:9.91672;stroke-linecap:round;stroke-linejoin:round;stroke:rgb(0%,0%,0%);stroke-opacity:1;stroke-miterlimit:10;" d="M 898.59375 1401.846875 L 898.59375 1401.846875 " transform="matrix(0.1,0,0,-0.1,0,191.38)"/>
<path style="fill:none;stroke-width:9.91672;stroke-linecap:round;stroke-linejoin:round;stroke:rgb(0%,0%,0%);stroke-opacity:1;stroke-miterlimit:10;" d="M 1011.796875 1680.714063 L 1011.796875 1680.714063 " transform="matrix(0.1,0,0,-0.1,0,191.38)"/>
<path style="fill:none;stroke-width:9.91672;stroke-linecap:round;stroke-linejoin:round;stroke:rgb(0%,0%,0%);stroke-opacity:1;stroke-miterlimit:10;" d="M 426.054688 1625.010938 L 426.054688 1625.010938 " transform="matrix(0.1,0,0,-0.1,0,191.38)"/>
<path style="fill:none;stroke-width:9.91672;stroke-linecap:round;stroke-linejoin:round;stroke:rgb(0%,0%,0%);stroke-opacity:1;stroke-miterlimit:10;" d="M 1204.648438 1639.190625 L 1204.648438 1639.190625 " transform="matrix(0.1,0,0,-0.1,0,191.38)"/>
<path style="fill:none;stroke-width:9.91672;stroke-linecap:round;stroke-linejoin:round;stroke:rgb(0%,0%,0%);stroke-opacity:1;stroke-miterlimit:10;" d="M 407.34375 1414.073438 L 407.34375 1414.073438 " transform="matrix(0.1,0,0,-0.1,0,191.38)"/>
<path style="fill:none;stroke-width:9.91672;stroke-linecap:round;stroke-linejoin:round;stroke:rgb(0%,0%,0%);stroke-opacity:1;stroke-miterlimit:10;" d="M 899.296875 1639.1125 L 899.296875 1639.1125 " transform="matrix(0.1,0,0,-0.1,0,191.38)"/>
<path style="fill:none;stroke-width:9.91672;stroke-linecap:round;stroke-linejoin:round;stroke:rgb(0%,0%,0%);stroke-opacity:1;stroke-miterlimit:10;" d="M 254.609375 1557.901563 L 254.609375 1557.901563 " transform="matrix(0.1,0,0,-0.1,0,191.38)"/>
<path style="fill:none;stroke-width:9.91672;stroke-linecap:round;stroke-linejoin:round;stroke:rgb(0%,0%,0%);stroke-opacity:1;stroke-miterlimit:10;" d="M 1094.140625 1480.792188 L 1094.140625 1480.792188 " transform="matrix(0.1,0,0,-0.1,0,191.38)"/>
<path style="fill:none;stroke-width:9.91672;stroke-linecap:round;stroke-linejoin:round;stroke:rgb(0%,0%,0%);stroke-opacity:1;stroke-miterlimit:10;" d="M 947.5 1688.4875 L 947.5 1688.4875 " transform="matrix(0.1,0,0,-0.1,0,191.38)"/>
<path style="fill:none;stroke-width:9.91672;stroke-linecap:round;stroke-linejoin:round;stroke:rgb(0%,0%,0%);stroke-opacity:1;stroke-miterlimit:10;" d="M 1652.578125 1538.526563 L 1652.578125 1538.526563 " transform="matrix(0.1,0,0,-0.1,0,191.38)"/>
<path style="fill:none;stroke-width:9.91672;stroke-linecap:round;stroke-linejoin:round;stroke:rgb(0%,0%,0%);stroke-opacity:1;stroke-miterlimit:10;" d="M 1186.914063 1369.542188 L 1186.914063 1369.542188 " transform="matrix(0.1,0,0,-0.1,0,191.38)"/>
<path style="fill:none;stroke-width:9.91672;stroke-linecap:round;stroke-linejoin:round;stroke:rgb(0%,0%,0%);stroke-opacity:1;stroke-miterlimit:10;" d="M 479.453125 1512.70625 L 479.453125 1512.70625 " transform="matrix(0.1,0,0,-0.1,0,191.38)"/>
<path style="fill:none;stroke-width:9.91672;stroke-linecap:round;stroke-linejoin:round;stroke:rgb(0%,0%,0%);stroke-opacity:1;stroke-miterlimit:10;" d="M 285.46875 1462.784375 L 285.46875 1462.784375 " transform="matrix(0.1,0,0,-0.1,0,191.38)"/>
<path style="fill:none;stroke-width:9.91672;stroke-linecap:round;stroke-linejoin:round;stroke:rgb(0%,0%,0%);stroke-opacity:1;stroke-miterlimit:10;" d="M 1603.28125 1579.89375 L 1603.28125 1579.89375 " transform="matrix(0.1,0,0,-0.1,0,191.38)"/>
<path style="fill:none;stroke-width:9.91672;stroke-linecap:round;stroke-linejoin:round;stroke:rgb(0%,0%,0%);stroke-opacity:1;stroke-miterlimit:10;" d="M 1250.703125 1408.135938 L 1250.703125 1408.135938 " transform="matrix(0.1,0,0,-0.1,0,191.38)"/>
<path style="fill:none;stroke-width:9.91672;stroke-linecap:round;stroke-linejoin:round;stroke:rgb(0%,0%,0%);stroke-opacity:1;stroke-miterlimit:10;" d="M 321.40625 1600.51875 L 321.40625 1600.51875 " transform="matrix(0.1,0,0,-0.1,0,191.38)"/>
<path style="fill:none;stroke-width:9.91672;stroke-linecap:round;stroke-linejoin:round;stroke:rgb(0%,0%,0%);stroke-opacity:1;stroke-miterlimit:10;" d="M 1155.390625 1546.651563 L 1155.390625 1546.651563 " transform="matrix(0.1,0,0,-0.1,0,191.38)"/>
<path style="fill:none;stroke-width:9.91672;stroke-linecap:round;stroke-linejoin:round;stroke:rgb(0%,0%,0%);stroke-opacity:1;stroke-miterlimit:10;" d="M 633.085938 1493.565625 L 633.085938 1493.565625 " transform="matrix(0.1,0,0,-0.1,0,191.38)"/>
<path style="fill:none;stroke-width:9.91672;stroke-linecap:round;stroke-linejoin:round;stroke:rgb(0%,0%,0%);stroke-opacity:1;stroke-miterlimit:10;" d="M 1464.453125 1417.08125 L 1464.453125 1417.08125 " transform="matrix(0.1,0,0,-0.1,0,191.38)"/>
<path style="fill:none;stroke-width:9.91672;stroke-linecap:round;stroke-linejoin:round;stroke:rgb(0%,0%,0%);stroke-opacity:1;stroke-miterlimit:10;" d="M 966.875 1381.182813 L 966.875 1381.182813 " transform="matrix(0.1,0,0,-0.1,0,191.38)"/>
<path style="fill:none;stroke-width:9.91672;stroke-linecap:round;stroke-linejoin:round;stroke:rgb(0%,0%,0%);stroke-opacity:1;stroke-miterlimit:10;" d="M 1621.328125 1439.346875 L 1621.328125 1439.346875 " transform="matrix(0.1,0,0,-0.1,0,191.38)"/>
<path style="fill:none;stroke-width:9.91672;stroke-linecap:round;stroke-linejoin:round;stroke:rgb(0%,0%,0%);stroke-opacity:1;stroke-miterlimit:10;" d="M 342.773438 1550.714063 L 342.773438 1550.714063 " transform="matrix(0.1,0,0,-0.1,0,191.38)"/>
<path style="fill:none;stroke-width:9.91672;stroke-linecap:round;stroke-linejoin:round;stroke:rgb(0%,0%,0%);stroke-opacity:1;stroke-miterlimit:10;" d="M 1596.640625 1594.503125 L 1596.640625 1594.503125 " transform="matrix(0.1,0,0,-0.1,0,191.38)"/>
<path style="fill:none;stroke-width:9.91672;stroke-linecap:round;stroke-linejoin:round;stroke:rgb(0%,0%,0%);stroke-opacity:1;stroke-miterlimit:10;" d="M 400.46875 1643.526563 L 400.46875 1643.526563 " transform="matrix(0.1,0,0,-0.1,0,191.38)"/>
<path style="fill:none;stroke-width:9.91672;stroke-linecap:round;stroke-linejoin:round;stroke:rgb(0%,0%,0%);stroke-opacity:1;stroke-miterlimit:10;" d="M 290.664063 1461.76875 L 290.664063 1461.76875 " transform="matrix(0.1,0,0,-0.1,0,191.38)"/>
<path style="fill:none;stroke-width:9.91672;stroke-linecap:round;stroke-linejoin:round;stroke:rgb(0%,0%,0%);stroke-opacity:1;stroke-miterlimit:10;" d="M 549.726563 1565.753125 L 549.726563 1565.753125 " transform="matrix(0.1,0,0,-0.1,0,191.38)"/>
<path style="fill:none;stroke-width:9.91672;stroke-linecap:round;stroke-linejoin:round;stroke:rgb(0%,0%,0%);stroke-opacity:1;stroke-miterlimit:10;" d="M 367.578125 1517.589063 L 367.578125 1517.589063 " transform="matrix(0.1,0,0,-0.1,0,191.38)"/>
<path style="fill:none;stroke-width:9.91672;stroke-linecap:round;stroke-linejoin:round;stroke:rgb(0%,0%,0%);stroke-opacity:1;stroke-miterlimit:10;" d="M 1362.929688 1646.690625 L 1362.929688 1646.690625 " transform="matrix(0.1,0,0,-0.1,0,191.38)"/>
<path style="fill:none;stroke-width:9.91672;stroke-linecap:round;stroke-linejoin:round;stroke:rgb(0%,0%,0%);stroke-opacity:1;stroke-miterlimit:10;" d="M 445.625 1345.635938 L 445.625 1345.635938 " transform="matrix(0.1,0,0,-0.1,0,191.38)"/>
<path style="fill:none;stroke-width:9.91672;stroke-linecap:round;stroke-linejoin:round;stroke:rgb(0%,0%,0%);stroke-opacity:1;stroke-miterlimit:10;" d="M 1271.601563 1350.167188 L 1271.601563 1350.167188 " transform="matrix(0.1,0,0,-0.1,0,191.38)"/>
<path style="fill:none;stroke-width:9.91672;stroke-linecap:round;stroke-linejoin:round;stroke:rgb(0%,0%,0%);stroke-opacity:1;stroke-miterlimit:10;" d="M 699.335938 1488.292188 L 699.335938 1488.292188 " transform="matrix(0.1,0,0,-0.1,0,191.38)"/>
<path style="fill:none;stroke-width:9.91672;stroke-linecap:round;stroke-linejoin:round;stroke:rgb(0%,0%,0%);stroke-opacity:1;stroke-miterlimit:10;" d="M 649.296875 1383.409375 L 649.296875 1383.409375 " transform="matrix(0.1,0,0,-0.1,0,191.38)"/>
<path style="fill:none;stroke-width:9.91672;stroke-linecap:round;stroke-linejoin:round;stroke:rgb(0%,0%,0%);stroke-opacity:1;stroke-miterlimit:10;" d="M 1253.554688 1608.64375 L 1253.554688 1608.64375 " transform="matrix(0.1,0,0,-0.1,0,191.38)"/>
<path style="fill:none;stroke-width:9.91672;stroke-linecap:round;stroke-linejoin:round;stroke:rgb(0%,0%,0%);stroke-opacity:1;stroke-miterlimit:10;" d="M 310.117188 1433.135938 L 310.117188 1433.135938 " transform="matrix(0.1,0,0,-0.1,0,191.38)"/>
<path style="fill:none;stroke-width:9.91672;stroke-linecap:round;stroke-linejoin:round;stroke:rgb(0%,0%,0%);stroke-opacity:1;stroke-miterlimit:10;" d="M 282.695313 1410.714063 L 282.695313 1410.714063 " transform="matrix(0.1,0,0,-0.1,0,191.38)"/>
<path style="fill:none;stroke-width:9.91672;stroke-linecap:round;stroke-linejoin:round;stroke:rgb(0%,0%,0%);stroke-opacity:1;stroke-miterlimit:10;" d="M 1558.710938 1595.323438 L 1558.710938 1595.323438 " transform="matrix(0.1,0,0,-0.1,0,191.38)"/>
<path style="fill:none;stroke-width:9.91672;stroke-linecap:round;stroke-linejoin:round;stroke:rgb(0%,0%,0%);stroke-opacity:1;stroke-miterlimit:10;" d="M 1479.453125 1357.510938 L 1479.453125 1357.510938 " transform="matrix(0.1,0,0,-0.1,0,191.38)"/>
<path style="fill:none;stroke-width:9.91672;stroke-linecap:round;stroke-linejoin:round;stroke:rgb(0%,0%,0%);stroke-opacity:1;stroke-miterlimit:10;" d="M 1622.148438 1466.026563 L 1622.148438 1466.026563 " transform="matrix(0.1,0,0,-0.1,0,191.38)"/>
<path style="fill:none;stroke-width:9.91672;stroke-linecap:round;stroke-linejoin:round;stroke:rgb(0%,0%,0%);stroke-opacity:1;stroke-miterlimit:10;" d="M 786.640625 1691.651563 L 786.640625 1691.651563 " transform="matrix(0.1,0,0,-0.1,0,191.38)"/>
<path style="fill:none;stroke-width:9.91672;stroke-linecap:round;stroke-linejoin:round;stroke:rgb(0%,0%,0%);stroke-opacity:1;stroke-miterlimit:10;" d="M 1578.125 1689.385938 L 1578.125 1689.385938 " transform="matrix(0.1,0,0,-0.1,0,191.38)"/>
<path style="fill:none;stroke-width:9.91672;stroke-linecap:round;stroke-linejoin:round;stroke:rgb(0%,0%,0%);stroke-opacity:1;stroke-miterlimit:10;" d="M 241.015625 1505.089063 L 241.015625 1505.089063 " transform="matrix(0.1,0,0,-0.1,0,191.38)"/>
<path style="fill:none;stroke-width:9.91672;stroke-linecap:round;stroke-linejoin:round;stroke:rgb(0%,0%,0%);stroke-opacity:1;stroke-miterlimit:10;" d="M 376.210938 1695.440625 L 376.210938 1695.440625 " transform="matrix(0.1,0,0,-0.1,0,191.38)"/>
<path style="fill:none;stroke-width:9.91672;stroke-linecap:round;stroke-linejoin:round;stroke:rgb(0%,0%,0%);stroke-opacity:1;stroke-miterlimit:10;" d="M 562.34375 1607.159375 L 562.34375 1607.159375 " transform="matrix(0.1,0,0,-0.1,0,191.38)"/>
<path style="fill:none;stroke-width:5.10003;stroke-linecap:round;stroke-linejoin:round;stroke:rgb(0%,0%,0%);stroke-opacity:1;stroke-miterlimit:10;" d="M 398.515625 590.675 C 335.9375 590.675 285.195313 498.721875 285.195313 385.245313 C 285.195313 271.807813 335.9375 179.854688 398.515625 179.854688 " transform="matrix(0.1,0,0,-0.1,0,191.38)"/>
<path style="fill:none;stroke-width:5.10003;stroke-linecap:round;stroke-linejoin:round;stroke:rgb(0%,0%,0%);stroke-opacity:1;stroke-dasharray:30.0747,30.0747;stroke-miterlimit:10;" d="M 398.515625 179.854688 C 461.09375 179.854688 511.835938 271.807813 511.835938 385.245313 C 511.835938 498.721875 461.09375 590.675 398.515625 590.675 " transform="matrix(0.1,0,0,-0.1,0,191.38)"/>
<path style="fill:none;stroke-width:5.10003;stroke-linecap:round;stroke-linejoin:round;stroke:rgb(0%,0%,0%);stroke-opacity:1;stroke-miterlimit:10;" d="M 398.515625 590.675 L 1496.445313 590.675 " transform="matrix(0.1,0,0,-0.1,0,191.38)"/>
<path style="fill:none;stroke-width:5.10003;stroke-linecap:round;stroke-linejoin:round;stroke:rgb(0%,0%,0%);stroke-opacity:1;stroke-miterlimit:10;" d="M 398.515625 179.854688 L 1496.445313 179.854688 " transform="matrix(0.1,0,0,-0.1,0,191.38)"/>
<path style="fill:none;stroke-width:5.10003;stroke-linecap:round;stroke-linejoin:round;stroke:rgb(0%,0%,0%);stroke-opacity:1;stroke-miterlimit:10;" d="M 1496.445313 590.675 C 1433.828125 590.675 1383.085938 498.721875 1383.085938 385.245313 C 1383.085938 271.807813 1433.828125 179.854688 1496.445313 179.854688 C 1559.023438 179.854688 1609.765625 271.807813 1609.765625 385.245313 C 1609.765625 498.721875 1559.023438 590.675 1496.445313 590.675 Z M 1496.445313 590.675 " transform="matrix(0.1,0,0,-0.1,0,191.38)"/>
<path style="fill:none;stroke-width:5.10003;stroke-linecap:round;stroke-linejoin:round;stroke:rgb(0%,0%,0%);stroke-opacity:1;stroke-miterlimit:10;" d="M 876.640625 94.854688 L 1074.960938 94.854688 " transform="matrix(0.1,0,0,-0.1,0,191.38)"/>
<path style=" stroke:none;fill-rule:nonzero;fill:rgb(0%,0%,0%);fill-opacity:1;" d="M 81.996094 181.894531 L 87.664063 183.152344 L 87.664063 180.640625 L 81.996094 181.894531 "/>
<path style="fill:none;stroke-width:5.10003;stroke-linecap:round;stroke-linejoin:round;stroke:rgb(0%,0%,0%);stroke-opacity:1;stroke-miterlimit:10;" d="M 819.960938 94.854688 L 876.640625 82.276563 L 876.640625 107.39375 L 819.960938 94.854688 Z M 819.960938 94.854688 " transform="matrix(0.1,0,0,-0.1,0,191.38)"/>
<path style="fill:none;stroke-width:3.68335;stroke-linecap:round;stroke-linejoin:round;stroke:rgb(0%,0%,0%);stroke-opacity:1;stroke-miterlimit:10;" d="M 1496.445313 611.925 L 1496.445313 633.175 " transform="matrix(0.1,0,0,-0.1,0,191.38)"/>
<path style="fill:none;stroke-width:3.68335;stroke-linecap:round;stroke-linejoin:round;stroke:rgb(0%,0%,0%);stroke-opacity:1;stroke-miterlimit:10;" d="M 1496.445313 654.425 L 1496.445313 760.675 " transform="matrix(0.1,0,0,-0.1,0,191.38)"/>
<path style="fill:none;stroke-width:3.68335;stroke-linecap:round;stroke-linejoin:round;stroke:rgb(0%,0%,0%);stroke-opacity:1;stroke-miterlimit:10;" d="M 398.515625 611.925 L 398.515625 633.175 " transform="matrix(0.1,0,0,-0.1,0,191.38)"/>
<path style="fill:none;stroke-width:3.68335;stroke-linecap:round;stroke-linejoin:round;stroke:rgb(0%,0%,0%);stroke-opacity:1;stroke-miterlimit:10;" d="M 398.515625 654.425 L 398.515625 760.675 " transform="matrix(0.1,0,0,-0.1,0,191.38)"/>
<path style="fill:none;stroke-width:3.68335;stroke-linecap:round;stroke-linejoin:round;stroke:rgb(0%,0%,0%);stroke-opacity:1;stroke-miterlimit:10;" d="M 1453.945313 711.104688 L 441.015625 711.104688 " transform="matrix(0.1,0,0,-0.1,0,191.38)"/>
<path style=" stroke:none;fill-rule:nonzero;fill:rgb(0%,0%,0%);fill-opacity:1;" d="M 149.644531 120.269531 L 145.394531 119.328125 L 145.394531 121.210938 L 149.644531 120.269531 "/>
<path style="fill:none;stroke-width:3.68335;stroke-linecap:round;stroke-linejoin:round;stroke:rgb(0%,0%,0%);stroke-opacity:1;stroke-miterlimit:10;" d="M 1496.445313 711.104688 L 1453.945313 720.51875 L 1453.945313 701.690625 L 1496.445313 711.104688 Z M 1496.445313 711.104688 " transform="matrix(0.1,0,0,-0.1,0,191.38)"/>
<path style=" stroke:none;fill-rule:nonzero;fill:rgb(0%,0%,0%);fill-opacity:1;" d="M 39.851563 120.269531 L 44.101563 121.210938 L 44.101563 119.328125 L 39.851563 120.269531 "/>
<path style="fill:none;stroke-width:3.68335;stroke-linecap:round;stroke-linejoin:round;stroke:rgb(0%,0%,0%);stroke-opacity:1;stroke-miterlimit:10;" d="M 398.515625 711.104688 L 441.015625 701.690625 L 441.015625 720.51875 L 398.515625 711.104688 Z M 398.515625 711.104688 " transform="matrix(0.1,0,0,-0.1,0,191.38)"/>
<path style="fill:none;stroke-width:3.68335;stroke-linecap:round;stroke-linejoin:round;stroke:rgb(0%,0%,0%);stroke-opacity:1;stroke-miterlimit:10;" d="M 579.179688 233.135938 C 526.015625 177.159375 463.75 130.3625 394.960938 94.854688 L 437.460938 94.854688 L 352.460938 38.175 " transform="matrix(0.1,0,0,-0.1,0,191.38)"/>
<path style=" stroke:none;fill-rule:nonzero;fill:rgb(0%,0%,0%);fill-opacity:1;" d="M 60.746094 164.894531 C 59.601563 165.773438 58.429688 166.617188 57.238281 167.417969 L 58.597656 168.710938 C 59.351563 167.464844 60.070313 166.191406 60.746094 164.894531 "/>
<path style="fill:none;stroke-width:3.68335;stroke-linecap:round;stroke-linejoin:round;stroke:rgb(0%,0%,0%);stroke-opacity:1;stroke-miterlimit:10;" d="M 607.460938 264.854688 C 596.015625 256.065625 584.296875 247.628125 572.382813 239.620313 L 585.976563 226.690625 C 593.515625 239.151563 600.703125 251.885938 607.460938 264.854688 Z M 607.460938 264.854688 " transform="matrix(0.1,0,0,-0.1,0,191.38)"/>
<path style="fill:none;stroke-width:3.68335;stroke-linecap:round;stroke-linejoin:round;stroke:rgb(0%,0%,0%);stroke-opacity:1;stroke-miterlimit:10;" d="M 1514.375 226.378125 C 1531.210938 197.159375 1553.984375 171.651563 1581.445313 151.495313 L 1567.265625 193.995313 L 1638.085938 123.175 " transform="matrix(0.1,0,0,-0.1,0,191.38)"/>
<path style=" stroke:none;fill-rule:nonzero;fill:rgb(0%,0%,0%);fill-opacity:1;" d="M 149.644531 164.894531 C 149.839844 166.367188 150.164063 167.8125 150.617188 169.214844 L 152.257813 168.269531 C 151.292969 167.226563 150.417969 166.101563 149.644531 164.894531 "/>
<path style="fill:none;stroke-width:3.68335;stroke-linecap:round;stroke-linejoin:round;stroke:rgb(0%,0%,0%);stroke-opacity:1;stroke-miterlimit:10;" d="M 1496.445313 264.854688 C 1498.398438 250.128125 1501.640625 235.675 1506.171875 221.651563 L 1522.578125 231.104688 C 1512.929688 241.534375 1504.179688 252.784375 1496.445313 264.854688 Z M 1496.445313 264.854688 " transform="matrix(0.1,0,0,-0.1,0,191.38)"/>
<path style="fill:none;stroke-width:9.91672;stroke-linecap:round;stroke-linejoin:round;stroke:rgb(0%,0%,0%);stroke-opacity:1;stroke-miterlimit:10;" d="M 1138.554688 432.003125 L 1138.554688 432.003125 " transform="matrix(0.1,0,0,-0.1,0,191.38)"/>
<path style="fill:none;stroke-width:9.91672;stroke-linecap:round;stroke-linejoin:round;stroke:rgb(0%,0%,0%);stroke-opacity:1;stroke-miterlimit:10;" d="M 555.234375 232.159375 L 555.234375 232.159375 " transform="matrix(0.1,0,0,-0.1,0,191.38)"/>
<path style="fill:none;stroke-width:9.91672;stroke-linecap:round;stroke-linejoin:round;stroke:rgb(0%,0%,0%);stroke-opacity:1;stroke-miterlimit:10;" d="M 1187.1875 539.346875 L 1187.1875 539.346875 " transform="matrix(0.1,0,0,-0.1,0,191.38)"/>
<path style="fill:none;stroke-width:9.91672;stroke-linecap:round;stroke-linejoin:round;stroke:rgb(0%,0%,0%);stroke-opacity:1;stroke-miterlimit:10;" d="M 737.226563 366.807813 L 737.226563 366.807813 " transform="matrix(0.1,0,0,-0.1,0,191.38)"/>
<path style="fill:none;stroke-width:9.91672;stroke-linecap:round;stroke-linejoin:round;stroke:rgb(0%,0%,0%);stroke-opacity:1;stroke-miterlimit:10;" d="M 1333.984375 529.815625 L 1333.984375 529.815625 " transform="matrix(0.1,0,0,-0.1,0,191.38)"/>
<path style="fill:none;stroke-width:9.91672;stroke-linecap:round;stroke-linejoin:round;stroke:rgb(0%,0%,0%);stroke-opacity:1;stroke-miterlimit:10;" d="M 1443.359375 331.104688 L 1443.359375 331.104688 " transform="matrix(0.1,0,0,-0.1,0,191.38)"/>
<path style="fill:none;stroke-width:9.91672;stroke-linecap:round;stroke-linejoin:round;stroke:rgb(0%,0%,0%);stroke-opacity:1;stroke-miterlimit:10;" d="M 1276.132813 422.667188 L 1276.132813 422.667188 " transform="matrix(0.1,0,0,-0.1,0,191.38)"/>
<path style="fill:none;stroke-width:9.91672;stroke-linecap:round;stroke-linejoin:round;stroke:rgb(0%,0%,0%);stroke-opacity:1;stroke-miterlimit:10;" d="M 986.523438 553.33125 L 986.523438 553.33125 " transform="matrix(0.1,0,0,-0.1,0,191.38)"/>
<path style="fill:none;stroke-width:9.91672;stroke-linecap:round;stroke-linejoin:round;stroke:rgb(0%,0%,0%);stroke-opacity:1;stroke-miterlimit:10;" d="M 1013.359375 243.409375 L 1013.359375 243.409375 " transform="matrix(0.1,0,0,-0.1,0,191.38)"/>
<path style="fill:none;stroke-width:9.91672;stroke-linecap:round;stroke-linejoin:round;stroke:rgb(0%,0%,0%);stroke-opacity:1;stroke-miterlimit:10;" d="M 1384.882813 529.7375 L 1384.882813 529.7375 " transform="matrix(0.1,0,0,-0.1,0,191.38)"/>
<path style="fill:none;stroke-width:9.91672;stroke-linecap:round;stroke-linejoin:round;stroke:rgb(0%,0%,0%);stroke-opacity:1;stroke-miterlimit:10;" d="M 1376.523438 390.909375 L 1376.523438 390.909375 " transform="matrix(0.1,0,0,-0.1,0,191.38)"/>
<path style="fill:none;stroke-width:9.91672;stroke-linecap:round;stroke-linejoin:round;stroke:rgb(0%,0%,0%);stroke-opacity:1;stroke-miterlimit:10;" d="M 482.03125 432.589063 L 482.03125 432.589063 " transform="matrix(0.1,0,0,-0.1,0,191.38)"/>
<path style="fill:none;stroke-width:9.91672;stroke-linecap:round;stroke-linejoin:round;stroke:rgb(0%,0%,0%);stroke-opacity:1;stroke-miterlimit:10;" d="M 1314.53125 371.925 L 1314.53125 371.925 " transform="matrix(0.1,0,0,-0.1,0,191.38)"/>
<path style="fill:none;stroke-width:9.91672;stroke-linecap:round;stroke-linejoin:round;stroke:rgb(0%,0%,0%);stroke-opacity:1;stroke-miterlimit:10;" d="M 1049.023438 288.839063 L 1049.023438 288.839063 " transform="matrix(0.1,0,0,-0.1,0,191.38)"/>
<path style="fill:none;stroke-width:9.91672;stroke-linecap:round;stroke-linejoin:round;stroke:rgb(0%,0%,0%);stroke-opacity:1;stroke-miterlimit:10;" d="M 449.023438 254.346875 L 449.023438 254.346875 " transform="matrix(0.1,0,0,-0.1,0,191.38)"/>
<path style="fill:none;stroke-width:9.91672;stroke-linecap:round;stroke-linejoin:round;stroke:rgb(0%,0%,0%);stroke-opacity:1;stroke-miterlimit:10;" d="M 814.375 338.64375 L 814.375 338.64375 " transform="matrix(0.1,0,0,-0.1,0,191.38)"/>
<path style="fill:none;stroke-width:9.91672;stroke-linecap:round;stroke-linejoin:round;stroke:rgb(0%,0%,0%);stroke-opacity:1;stroke-miterlimit:10;" d="M 1195.3125 533.292188 L 1195.3125 533.292188 " transform="matrix(0.1,0,0,-0.1,0,191.38)"/>
<path style="fill:none;stroke-width:9.91672;stroke-linecap:round;stroke-linejoin:round;stroke:rgb(0%,0%,0%);stroke-opacity:1;stroke-miterlimit:10;" d="M 626.289063 256.651563 L 626.289063 256.651563 " transform="matrix(0.1,0,0,-0.1,0,191.38)"/>
<path style="fill:none;stroke-width:9.91672;stroke-linecap:round;stroke-linejoin:round;stroke:rgb(0%,0%,0%);stroke-opacity:1;stroke-miterlimit:10;" d="M 1191.71875 491.260938 L 1191.71875 491.260938 " transform="matrix(0.1,0,0,-0.1,0,191.38)"/>
<path style="fill:none;stroke-width:9.91672;stroke-linecap:round;stroke-linejoin:round;stroke:rgb(0%,0%,0%);stroke-opacity:1;stroke-miterlimit:10;" d="M 355.078125 450.05 L 355.078125 450.05 " transform="matrix(0.1,0,0,-0.1,0,191.38)"/>
<path style="fill:none;stroke-width:9.91672;stroke-linecap:round;stroke-linejoin:round;stroke:rgb(0%,0%,0%);stroke-opacity:1;stroke-miterlimit:10;" d="M 691.484375 529.89375 L 691.484375 529.89375 " transform="matrix(0.1,0,0,-0.1,0,191.38)"/>
<path style="fill:none;stroke-width:9.91672;stroke-linecap:round;stroke-linejoin:round;stroke:rgb(0%,0%,0%);stroke-opacity:1;stroke-miterlimit:10;" d="M 757.460938 369.385938 L 757.460938 369.385938 " transform="matrix(0.1,0,0,-0.1,0,191.38)"/>
<path style="fill:none;stroke-width:9.91672;stroke-linecap:round;stroke-linejoin:round;stroke:rgb(0%,0%,0%);stroke-opacity:1;stroke-miterlimit:10;" d="M 816.875 460.05 L 816.875 460.05 " transform="matrix(0.1,0,0,-0.1,0,191.38)"/>
<path style="fill:none;stroke-width:9.91672;stroke-linecap:round;stroke-linejoin:round;stroke:rgb(0%,0%,0%);stroke-opacity:1;stroke-miterlimit:10;" d="M 1260.3125 468.64375 L 1260.3125 468.64375 " transform="matrix(0.1,0,0,-0.1,0,191.38)"/>
<path style="fill:none;stroke-width:9.91672;stroke-linecap:round;stroke-linejoin:round;stroke:rgb(0%,0%,0%);stroke-opacity:1;stroke-miterlimit:10;" d="M 1142.96875 431.964063 L 1142.96875 431.964063 " transform="matrix(0.1,0,0,-0.1,0,191.38)"/>
<path style="fill:none;stroke-width:9.91672;stroke-linecap:round;stroke-linejoin:round;stroke:rgb(0%,0%,0%);stroke-opacity:1;stroke-miterlimit:10;" d="M 1515.46875 264.971875 L 1515.46875 264.971875 " transform="matrix(0.1,0,0,-0.1,0,191.38)"/>
<path style="fill:none;stroke-width:9.91672;stroke-linecap:round;stroke-linejoin:round;stroke:rgb(0%,0%,0%);stroke-opacity:1;stroke-miterlimit:10;" d="M 712.304688 317.198438 L 712.304688 317.198438 " transform="matrix(0.1,0,0,-0.1,0,191.38)"/>
<path style="fill:none;stroke-width:9.91672;stroke-linecap:round;stroke-linejoin:round;stroke:rgb(0%,0%,0%);stroke-opacity:1;stroke-miterlimit:10;" d="M 1205.664063 556.104688 L 1205.664063 556.104688 " transform="matrix(0.1,0,0,-0.1,0,191.38)"/>
<path style="fill:none;stroke-width:9.91672;stroke-linecap:round;stroke-linejoin:round;stroke:rgb(0%,0%,0%);stroke-opacity:1;stroke-miterlimit:10;" d="M 794.21875 451.573438 L 794.21875 451.573438 " transform="matrix(0.1,0,0,-0.1,0,191.38)"/>
<path style="fill:none;stroke-width:9.91672;stroke-linecap:round;stroke-linejoin:round;stroke:rgb(0%,0%,0%);stroke-opacity:1;stroke-miterlimit:10;" d="M 395.625 270.83125 L 395.625 270.83125 " transform="matrix(0.1,0,0,-0.1,0,191.38)"/>
<path style="fill:none;stroke-width:9.91672;stroke-linecap:round;stroke-linejoin:round;stroke:rgb(0%,0%,0%);stroke-opacity:1;stroke-miterlimit:10;" d="M 693.867188 363.214063 L 693.867188 363.214063 " transform="matrix(0.1,0,0,-0.1,0,191.38)"/>
<path style="fill:none;stroke-width:9.91672;stroke-linecap:round;stroke-linejoin:round;stroke:rgb(0%,0%,0%);stroke-opacity:1;stroke-miterlimit:10;" d="M 1225.703125 243.214063 L 1225.703125 243.214063 " transform="matrix(0.1,0,0,-0.1,0,191.38)"/>
<path style="fill:none;stroke-width:9.91672;stroke-linecap:round;stroke-linejoin:round;stroke:rgb(0%,0%,0%);stroke-opacity:1;stroke-miterlimit:10;" d="M 884.414063 343.565625 L 884.414063 343.565625 " transform="matrix(0.1,0,0,-0.1,0,191.38)"/>
<path style="fill:none;stroke-width:9.91672;stroke-linecap:round;stroke-linejoin:round;stroke:rgb(0%,0%,0%);stroke-opacity:1;stroke-miterlimit:10;" d="M 1018.359375 428.175 L 1018.359375 428.175 " transform="matrix(0.1,0,0,-0.1,0,191.38)"/>
<path style="fill:none;stroke-width:9.91672;stroke-linecap:round;stroke-linejoin:round;stroke:rgb(0%,0%,0%);stroke-opacity:1;stroke-miterlimit:10;" d="M 1203.554688 299.346875 L 1203.554688 299.346875 " transform="matrix(0.1,0,0,-0.1,0,191.38)"/>
<path style="fill:none;stroke-width:9.91672;stroke-linecap:round;stroke-linejoin:round;stroke:rgb(0%,0%,0%);stroke-opacity:1;stroke-miterlimit:10;" d="M 1475.078125 222.120313 L 1475.078125 222.120313 " transform="matrix(0.1,0,0,-0.1,0,191.38)"/>
<path style="fill:none;stroke-width:9.91672;stroke-linecap:round;stroke-linejoin:round;stroke:rgb(0%,0%,0%);stroke-opacity:1;stroke-miterlimit:10;" d="M 470.585938 480.51875 L 470.585938 480.51875 " transform="matrix(0.1,0,0,-0.1,0,191.38)"/>
<path style="fill:none;stroke-width:9.91672;stroke-linecap:round;stroke-linejoin:round;stroke:rgb(0%,0%,0%);stroke-opacity:1;stroke-miterlimit:10;" d="M 1081.484375 211.6125 L 1081.484375 211.6125 " transform="matrix(0.1,0,0,-0.1,0,191.38)"/>
<path style="fill:none;stroke-width:9.91672;stroke-linecap:round;stroke-linejoin:round;stroke:rgb(0%,0%,0%);stroke-opacity:1;stroke-miterlimit:10;" d="M 757.773438 341.104688 L 757.773438 341.104688 " transform="matrix(0.1,0,0,-0.1,0,191.38)"/>
<path style="fill:none;stroke-width:9.91672;stroke-linecap:round;stroke-linejoin:round;stroke:rgb(0%,0%,0%);stroke-opacity:1;stroke-miterlimit:10;" d="M 1532.03125 520.948438 L 1532.03125 520.948438 " transform="matrix(0.1,0,0,-0.1,0,191.38)"/>
<path style="fill:none;stroke-width:9.91672;stroke-linecap:round;stroke-linejoin:round;stroke:rgb(0%,0%,0%);stroke-opacity:1;stroke-miterlimit:10;" d="M 877.851563 398.448438 L 877.851563 398.448438 " transform="matrix(0.1,0,0,-0.1,0,191.38)"/>
<path style="fill:none;stroke-width:9.91672;stroke-linecap:round;stroke-linejoin:round;stroke:rgb(0%,0%,0%);stroke-opacity:1;stroke-miterlimit:10;" d="M 1355.195313 317.55 L 1355.195313 317.55 " transform="matrix(0.1,0,0,-0.1,0,191.38)"/>
<path style="fill:none;stroke-width:9.91672;stroke-linecap:round;stroke-linejoin:round;stroke:rgb(0%,0%,0%);stroke-opacity:1;stroke-miterlimit:10;" d="M 691.71875 443.057813 L 691.71875 443.057813 " transform="matrix(0.1,0,0,-0.1,0,191.38)"/>
<path style="fill:none;stroke-width:9.91672;stroke-linecap:round;stroke-linejoin:round;stroke:rgb(0%,0%,0%);stroke-opacity:1;stroke-miterlimit:10;" d="M 1441.71875 359.7375 L 1441.71875 359.7375 " transform="matrix(0.1,0,0,-0.1,0,191.38)"/>
<path style="fill:none;stroke-width:9.91672;stroke-linecap:round;stroke-linejoin:round;stroke:rgb(0%,0%,0%);stroke-opacity:1;stroke-miterlimit:10;" d="M 1459.84375 448.995313 L 1459.84375 448.995313 " transform="matrix(0.1,0,0,-0.1,0,191.38)"/>
<path style="fill:none;stroke-width:9.91672;stroke-linecap:round;stroke-linejoin:round;stroke:rgb(0%,0%,0%);stroke-opacity:1;stroke-miterlimit:10;" d="M 1099.335938 381.534375 L 1099.335938 381.534375 " transform="matrix(0.1,0,0,-0.1,0,191.38)"/>
<path style="fill:none;stroke-width:9.91672;stroke-linecap:round;stroke-linejoin:round;stroke:rgb(0%,0%,0%);stroke-opacity:1;stroke-miterlimit:10;" d="M 419.101563 459.58125 L 419.101563 459.58125 " transform="matrix(0.1,0,0,-0.1,0,191.38)"/>
<path style="fill:none;stroke-width:9.91672;stroke-linecap:round;stroke-linejoin:round;stroke:rgb(0%,0%,0%);stroke-opacity:1;stroke-miterlimit:10;" d="M 808.828125 375.596875 L 808.828125 375.596875 " transform="matrix(0.1,0,0,-0.1,0,191.38)"/>
<path style="fill:none;stroke-width:9.91672;stroke-linecap:round;stroke-linejoin:round;stroke:rgb(0%,0%,0%);stroke-opacity:1;stroke-miterlimit:10;" d="M 627.5 242.70625 L 627.5 242.70625 " transform="matrix(0.1,0,0,-0.1,0,191.38)"/>
<path style="fill:none;stroke-width:9.91672;stroke-linecap:round;stroke-linejoin:round;stroke:rgb(0%,0%,0%);stroke-opacity:1;stroke-miterlimit:10;" d="M 655.78125 374.854688 L 655.78125 374.854688 " transform="matrix(0.1,0,0,-0.1,0,191.38)"/>
<path style="fill:none;stroke-width:9.91672;stroke-linecap:round;stroke-linejoin:round;stroke:rgb(0%,0%,0%);stroke-opacity:1;stroke-miterlimit:10;" d="M 1124.335938 550.870313 L 1124.335938 550.870313 " transform="matrix(0.1,0,0,-0.1,0,191.38)"/>
<path style="fill:none;stroke-width:9.91672;stroke-linecap:round;stroke-linejoin:round;stroke:rgb(0%,0%,0%);stroke-opacity:1;stroke-miterlimit:10;" d="M 1057.1875 448.64375 L 1057.1875 448.64375 " transform="matrix(0.1,0,0,-0.1,0,191.38)"/>
<path style="fill:none;stroke-width:9.91672;stroke-linecap:round;stroke-linejoin:round;stroke:rgb(0%,0%,0%);stroke-opacity:1;stroke-miterlimit:10;" d="M 740.507813 517.8625 L 740.507813 517.8625 " transform="matrix(0.1,0,0,-0.1,0,191.38)"/>
<path style="fill:none;stroke-width:9.91672;stroke-linecap:round;stroke-linejoin:round;stroke:rgb(0%,0%,0%);stroke-opacity:1;stroke-miterlimit:10;" d="M 810.195313 448.878125 L 810.195313 448.878125 " transform="matrix(0.1,0,0,-0.1,0,191.38)"/>
<path style="fill:none;stroke-width:9.91672;stroke-linecap:round;stroke-linejoin:round;stroke:rgb(0%,0%,0%);stroke-opacity:1;stroke-miterlimit:10;" d="M 974.570313 486.729688 L 974.570313 486.729688 " transform="matrix(0.1,0,0,-0.1,0,191.38)"/>
<path style="fill:none;stroke-width:9.91672;stroke-linecap:round;stroke-linejoin:round;stroke:rgb(0%,0%,0%);stroke-opacity:1;stroke-miterlimit:10;" d="M 1452.773438 304.659375 L 1452.773438 304.659375 " transform="matrix(0.1,0,0,-0.1,0,191.38)"/>
<path style="fill:none;stroke-width:9.91672;stroke-linecap:round;stroke-linejoin:round;stroke:rgb(0%,0%,0%);stroke-opacity:1;stroke-miterlimit:10;" d="M 1225.585938 406.221875 L 1225.585938 406.221875 " transform="matrix(0.1,0,0,-0.1,0,191.38)"/>
<path style="fill:none;stroke-width:9.91672;stroke-linecap:round;stroke-linejoin:round;stroke:rgb(0%,0%,0%);stroke-opacity:1;stroke-miterlimit:10;" d="M 1564.414063 450.167188 L 1564.414063 450.167188 " transform="matrix(0.1,0,0,-0.1,0,191.38)"/>
<path style="fill:none;stroke-width:9.91672;stroke-linecap:round;stroke-linejoin:round;stroke:rgb(0%,0%,0%);stroke-opacity:1;stroke-miterlimit:10;" d="M 678.984375 315.714063 L 678.984375 315.714063 " transform="matrix(0.1,0,0,-0.1,0,191.38)"/>
<path style="fill:none;stroke-width:9.91672;stroke-linecap:round;stroke-linejoin:round;stroke:rgb(0%,0%,0%);stroke-opacity:1;stroke-miterlimit:10;" d="M 1173.203125 210.753125 L 1173.203125 210.753125 " transform="matrix(0.1,0,0,-0.1,0,191.38)"/>
<path style="fill:none;stroke-width:9.91672;stroke-linecap:round;stroke-linejoin:round;stroke:rgb(0%,0%,0%);stroke-opacity:1;stroke-miterlimit:10;" d="M 648.046875 233.839063 L 648.046875 233.839063 " transform="matrix(0.1,0,0,-0.1,0,191.38)"/>
<path style="fill:none;stroke-width:9.91672;stroke-linecap:round;stroke-linejoin:round;stroke:rgb(0%,0%,0%);stroke-opacity:1;stroke-miterlimit:10;" d="M 1246.210938 314.620313 L 1246.210938 314.620313 " transform="matrix(0.1,0,0,-0.1,0,191.38)"/>
<path style="fill:none;stroke-width:9.91672;stroke-linecap:round;stroke-linejoin:round;stroke:rgb(0%,0%,0%);stroke-opacity:1;stroke-miterlimit:10;" d="M 519.609375 221.651563 L 519.609375 221.651563 " transform="matrix(0.1,0,0,-0.1,0,191.38)"/>
<path style="fill:none;stroke-width:9.91672;stroke-linecap:round;stroke-linejoin:round;stroke:rgb(0%,0%,0%);stroke-opacity:1;stroke-miterlimit:10;" d="M 643.476563 515.51875 L 643.476563 515.51875 " transform="matrix(0.1,0,0,-0.1,0,191.38)"/>
<path style="fill:none;stroke-width:9.91672;stroke-linecap:round;stroke-linejoin:round;stroke:rgb(0%,0%,0%);stroke-opacity:1;stroke-miterlimit:10;" d="M 723.359375 456.14375 L 723.359375 456.14375 " transform="matrix(0.1,0,0,-0.1,0,191.38)"/>
<path style="fill:none;stroke-width:9.91672;stroke-linecap:round;stroke-linejoin:round;stroke:rgb(0%,0%,0%);stroke-opacity:1;stroke-miterlimit:10;" d="M 504.335938 518.917188 L 504.335938 518.917188 " transform="matrix(0.1,0,0,-0.1,0,191.38)"/>
<path style="fill:none;stroke-width:9.91672;stroke-linecap:round;stroke-linejoin:round;stroke:rgb(0%,0%,0%);stroke-opacity:1;stroke-miterlimit:10;" d="M 1412.265625 505.714063 L 1412.265625 505.714063 " transform="matrix(0.1,0,0,-0.1,0,191.38)"/>
<path style="fill:none;stroke-width:9.91672;stroke-linecap:round;stroke-linejoin:round;stroke:rgb(0%,0%,0%);stroke-opacity:1;stroke-miterlimit:10;" d="M 1065.390625 501.065625 L 1065.390625 501.065625 " transform="matrix(0.1,0,0,-0.1,0,191.38)"/>
<path style="fill:none;stroke-width:9.91672;stroke-linecap:round;stroke-linejoin:round;stroke:rgb(0%,0%,0%);stroke-opacity:1;stroke-miterlimit:10;" d="M 1225.078125 460.3625 L 1225.078125 460.3625 " transform="matrix(0.1,0,0,-0.1,0,191.38)"/>
<path style="fill:none;stroke-width:9.91672;stroke-linecap:round;stroke-linejoin:round;stroke:rgb(0%,0%,0%);stroke-opacity:1;stroke-miterlimit:10;" d="M 1214.648438 327.510938 L 1214.648438 327.510938 " transform="matrix(0.1,0,0,-0.1,0,191.38)"/>
<path style="fill:none;stroke-width:9.91672;stroke-linecap:round;stroke-linejoin:round;stroke:rgb(0%,0%,0%);stroke-opacity:1;stroke-miterlimit:10;" d="M 1477.070313 230.128125 L 1477.070313 230.128125 " transform="matrix(0.1,0,0,-0.1,0,191.38)"/>
<path style="fill:none;stroke-width:9.91672;stroke-linecap:round;stroke-linejoin:round;stroke:rgb(0%,0%,0%);stroke-opacity:1;stroke-miterlimit:10;" d="M 905.429688 536.729688 L 905.429688 536.729688 " transform="matrix(0.1,0,0,-0.1,0,191.38)"/>
<path style="fill:none;stroke-width:9.91672;stroke-linecap:round;stroke-linejoin:round;stroke:rgb(0%,0%,0%);stroke-opacity:1;stroke-miterlimit:10;" d="M 609.453125 530.440625 L 609.453125 530.440625 " transform="matrix(0.1,0,0,-0.1,0,191.38)"/>
<path style="fill:none;stroke-width:9.91672;stroke-linecap:round;stroke-linejoin:round;stroke:rgb(0%,0%,0%);stroke-opacity:1;stroke-miterlimit:10;" d="M 1191.523438 223.565625 L 1191.523438 223.565625 " transform="matrix(0.1,0,0,-0.1,0,191.38)"/>
<path style="fill:none;stroke-width:9.91672;stroke-linecap:round;stroke-linejoin:round;stroke:rgb(0%,0%,0%);stroke-opacity:1;stroke-miterlimit:10;" d="M 868.046875 209.425 L 868.046875 209.425 " transform="matrix(0.1,0,0,-0.1,0,191.38)"/>
<path style="fill:none;stroke-width:9.91672;stroke-linecap:round;stroke-linejoin:round;stroke:rgb(0%,0%,0%);stroke-opacity:1;stroke-miterlimit:10;" d="M 321.054688 322.120313 L 321.054688 322.120313 " transform="matrix(0.1,0,0,-0.1,0,191.38)"/>
<path style="fill:none;stroke-width:9.91672;stroke-linecap:round;stroke-linejoin:round;stroke:rgb(0%,0%,0%);stroke-opacity:1;stroke-miterlimit:10;" d="M 825.859375 530.245313 L 825.859375 530.245313 " transform="matrix(0.1,0,0,-0.1,0,191.38)"/>
<path style="fill:none;stroke-width:9.91672;stroke-linecap:round;stroke-linejoin:round;stroke:rgb(0%,0%,0%);stroke-opacity:1;stroke-miterlimit:10;" d="M 1214.21875 214.776563 L 1214.21875 214.776563 " transform="matrix(0.1,0,0,-0.1,0,191.38)"/>
<path style="fill:none;stroke-width:9.91672;stroke-linecap:round;stroke-linejoin:round;stroke:rgb(0%,0%,0%);stroke-opacity:1;stroke-miterlimit:10;" d="M 675.234375 493.839063 L 675.234375 493.839063 " transform="matrix(0.1,0,0,-0.1,0,191.38)"/>
<path style="fill:none;stroke-width:9.91672;stroke-linecap:round;stroke-linejoin:round;stroke:rgb(0%,0%,0%);stroke-opacity:1;stroke-miterlimit:10;" d="M 1283.90625 445.440625 L 1283.90625 445.440625 " transform="matrix(0.1,0,0,-0.1,0,191.38)"/>
<path style="fill:none;stroke-width:9.91672;stroke-linecap:round;stroke-linejoin:round;stroke:rgb(0%,0%,0%);stroke-opacity:1;stroke-miterlimit:10;" d="M 915.507813 208.8 L 915.507813 208.8 " transform="matrix(0.1,0,0,-0.1,0,191.38)"/>
<path style="fill:none;stroke-width:9.91672;stroke-linecap:round;stroke-linejoin:round;stroke:rgb(0%,0%,0%);stroke-opacity:1;stroke-miterlimit:10;" d="M 1209.21875 471.065625 L 1209.21875 471.065625 " transform="matrix(0.1,0,0,-0.1,0,191.38)"/>
<path style="fill:none;stroke-width:9.91672;stroke-linecap:round;stroke-linejoin:round;stroke:rgb(0%,0%,0%);stroke-opacity:1;stroke-miterlimit:10;" d="M 366.328125 335.792188 L 366.328125 335.792188 " transform="matrix(0.1,0,0,-0.1,0,191.38)"/>
<path style="fill:none;stroke-width:9.91672;stroke-linecap:round;stroke-linejoin:round;stroke:rgb(0%,0%,0%);stroke-opacity:1;stroke-miterlimit:10;" d="M 948.59375 430.089063 L 948.59375 430.089063 " transform="matrix(0.1,0,0,-0.1,0,191.38)"/>
<path style="fill:none;stroke-width:9.91672;stroke-linecap:round;stroke-linejoin:round;stroke:rgb(0%,0%,0%);stroke-opacity:1;stroke-miterlimit:10;" d="M 959.84375 502.315625 L 959.84375 502.315625 " transform="matrix(0.1,0,0,-0.1,0,191.38)"/>
<path style="fill:none;stroke-width:9.91672;stroke-linecap:round;stroke-linejoin:round;stroke:rgb(0%,0%,0%);stroke-opacity:1;stroke-miterlimit:10;" d="M 1173.242188 527.2375 L 1173.242188 527.2375 " transform="matrix(0.1,0,0,-0.1,0,191.38)"/>
<path style="fill:none;stroke-width:9.91672;stroke-linecap:round;stroke-linejoin:round;stroke:rgb(0%,0%,0%);stroke-opacity:1;stroke-miterlimit:10;" d="M 924.765625 282.276563 L 924.765625 282.276563 " transform="matrix(0.1,0,0,-0.1,0,191.38)"/>
<path style="fill:none;stroke-width:9.91672;stroke-linecap:round;stroke-linejoin:round;stroke:rgb(0%,0%,0%);stroke-opacity:1;stroke-miterlimit:10;" d="M 1509.921875 344.854688 L 1509.921875 344.854688 " transform="matrix(0.1,0,0,-0.1,0,191.38)"/>
<path style="fill:none;stroke-width:9.91672;stroke-linecap:round;stroke-linejoin:round;stroke:rgb(0%,0%,0%);stroke-opacity:1;stroke-miterlimit:10;" d="M 756.054688 443.604688 L 756.054688 443.604688 " transform="matrix(0.1,0,0,-0.1,0,191.38)"/>
<path style="fill:none;stroke-width:9.91672;stroke-linecap:round;stroke-linejoin:round;stroke:rgb(0%,0%,0%);stroke-opacity:1;stroke-miterlimit:10;" d="M 1127.03125 328.214063 L 1127.03125 328.214063 " transform="matrix(0.1,0,0,-0.1,0,191.38)"/>
<g style="fill:rgb(0%,0%,0%);fill-opacity:1;">
  <use xlink:href="#glyph0-1" x="85.8" y="66.7"/>
</g>
<g style="fill:rgb(0%,0%,0%);fill-opacity:1;">
  <use xlink:href="#glyph1-1" x="92.03984" y="66.7"/>
</g>
<g style="fill:rgb(0%,0%,0%);fill-opacity:1;">
  <use xlink:href="#glyph1-2" x="99.959766" y="66.7"/>
</g>
<path style=" stroke:none;fill-rule:nonzero;fill:rgb(100%,100%,100%);fill-opacity:1;" d="M 87.828125 0.953125 L 101.75 0.953125 L 101.75 12.714844 L 87.828125 12.714844 Z M 87.828125 0.953125 "/>
<g style="fill:rgb(0%,0%,0%);fill-opacity:1;">
  <use xlink:href="#glyph0-2" x="90.8398" y="8.86"/>
</g>
<g style="fill:rgb(0%,0%,0%);fill-opacity:1;">
  <use xlink:href="#glyph2-1" x="95.51988" y="9.699844"/>
</g>
<g style="fill:rgb(0%,0%,0%);fill-opacity:1;">
  <use xlink:href="#glyph0-3" x="17.39998" y="71.979944"/>
</g>
<g style="fill:rgb(0%,0%,0%);fill-opacity:1;">
  <use xlink:href="#glyph1-3" x="178.79998" y="67.660024"/>
  <use xlink:href="#glyph1-4" x="183.83998" y="67.660024"/>
</g>
<g style="fill:rgb(0%,0%,0%);fill-opacity:1;">
  <use xlink:href="#glyph1-5" x="186.35998" y="67.660024"/>
</g>
<g style="fill:rgb(0%,0%,0%);fill-opacity:1;">
  <use xlink:href="#glyph1-6" x="189.839989" y="67.660024"/>
</g>
<g style="fill:rgb(0%,0%,0%);fill-opacity:1;">
  <use xlink:href="#glyph0-4" x="195.96018" y="67.660024"/>
</g>
<g style="fill:rgb(0%,0%,0%);fill-opacity:1;">
  <use xlink:href="#glyph2-1" x="201.00002" y="68.499868"/>
</g>
<g style="fill:rgb(0%,0%,0%);fill-opacity:1;">
  <use xlink:href="#glyph1-7" x="0.96002" y="41.260068"/>
</g>
<g style="fill:rgb(0%,0%,0%);fill-opacity:1;">
  <use xlink:href="#glyph1-6" x="3.960021" y="41.260068"/>
</g>
<g style="fill:rgb(0%,0%,0%);fill-opacity:1;">
  <use xlink:href="#glyph1-8" x="7.560023" y="41.260068"/>
</g>
<g style="fill:rgb(0%,0%,0%);fill-opacity:1;">
  <use xlink:href="#glyph0-5" x="181.32002" y="11.619868"/>
</g>
<g style="fill:rgb(0%,0%,0%);fill-opacity:1;">
  <use xlink:href="#glyph0-1" x="95.52002" y="187.299868"/>
</g>
<path style=" stroke:none;fill-rule:nonzero;fill:rgb(100%,100%,100%);fill-opacity:1;" d="M 89.507813 114.710938 L 100.1875 114.710938 L 100.1875 125.632813 L 89.507813 125.632813 Z M 89.507813 114.710938 "/>
<g style="fill:rgb(0%,0%,0%);fill-opacity:1;">
  <use xlink:href="#glyph0-2" x="92.5199" y="122.6198"/>
</g>
<g style="fill:rgb(0%,0%,0%);fill-opacity:1;">
  <use xlink:href="#glyph0-3" x="27.3601" y="189.58"/>
</g>
<g style="fill:rgb(0%,0%,0%);fill-opacity:1;">
  <use xlink:href="#glyph1-3" x="165.9601" y="181.06008"/>
  <use xlink:href="#glyph1-4" x="171.0001" y="181.06008"/>
</g>
<g style="fill:rgb(0%,0%,0%);fill-opacity:1;">
  <use xlink:href="#glyph1-5" x="173.5201" y="181.06008"/>
</g>
<g style="fill:rgb(0%,0%,0%);fill-opacity:1;">
  <use xlink:href="#glyph1-6" x="177.000109" y="181.06008"/>
</g>
<g style="fill:rgb(0%,0%,0%);fill-opacity:1;">
  <use xlink:href="#glyph0-4" x="183.2402" y="181.06008"/>
</g>
<g style="fill:rgb(0%,0%,0%);fill-opacity:1;">
  <use xlink:href="#glyph2-1" x="188.28004" y="181.899924"/>
</g>
<g style="fill:rgb(0%,0%,0%);fill-opacity:1;">
  <use xlink:href="#glyph1-7" x="10.80004" y="154.660124"/>
</g>
<g style="fill:rgb(0%,0%,0%);fill-opacity:1;">
  <use xlink:href="#glyph1-9" x="13.800042" y="154.660124"/>
</g>
<g style="fill:rgb(0%,0%,0%);fill-opacity:1;">
  <use xlink:href="#glyph1-8" x="17.640043" y="154.660124"/>
</g>
<g style="fill:rgb(0%,0%,0%);fill-opacity:1;">
  <use xlink:href="#glyph0-5" x="170.40004" y="124.899924"/>
</g>
<g style="fill:rgb(0%,0%,0%);fill-opacity:1;">
  <use xlink:href="#glyph3-1" x="175.43988" y="122.499924"/>
</g>
</g>
</svg>
