<?xml version="1.0" encoding="UTF-8"?>
<svg xmlns="http://www.w3.org/2000/svg" xmlns:xlink="http://www.w3.org/1999/xlink" width="237pt" height="291pt" viewBox="0 0 171 210" version="1.1">
<defs>
<g>
<symbol overflow="visible" id="glyph0-0">
<path style="stroke:none;" d=""/>
</symbol>
<symbol overflow="visible" id="glyph0-1">
<path style="stroke:none;" d="M 4.515625 -0.796875 C 4.125 -0.578125 3.875 -0.375 3.296875 -0.359375 C 3.09375 -0.359375 2.875 -0.34375 2.671875 -0.390625 C 2.109375 -0.5 1.640625 -0.890625 1.375 -1.390625 C 0.890625 -2.28125 1.125 -3.5 1.953125 -4.125 C 2.09375 -4.21875 2.234375 -4.3125 2.390625 -4.375 C 2.859375 -4.53125 3.421875 -4.515625 3.890625 -4.34375 C 4.0625 -4.265625 4.21875 -4.1875 4.375 -4.109375 C 4.40625 -4.28125 4.453125 -4.46875 4.46875 -4.640625 C 4.328125 -4.703125 4.171875 -4.75 4 -4.78125 C 3.671875 -4.859375 3.171875 -4.921875 2.796875 -4.890625 C 2.078125 -4.828125 1.46875 -4.421875 1.109375 -3.9375 C 0.640625 -3.34375 0.484375 -2.546875 0.65625 -1.8125 C 0.953125 -0.6875 1.90625 0.125 3.28125 0.046875 C 3.734375 0.03125 4.015625 -0.0625 4.375 -0.234375 C 4.40625 -0.265625 4.53125 -0.3125 4.546875 -0.34375 C 4.5625 -0.390625 4.515625 -0.6875 4.515625 -0.796875 Z M 4.515625 -0.796875 "/>
</symbol>
<symbol overflow="visible" id="glyph0-2">
<path style="stroke:none;" d="M 0.734375 -4.84375 L 0.734375 0 L 3.890625 0 L 3.890625 -0.40625 L 1.265625 -0.40625 L 1.265625 -4.84375 L 0.734375 -4.84375 Z M 0.734375 -4.84375 "/>
</symbol>
<symbol overflow="visible" id="glyph0-3">
<path style="stroke:none;" d="M 1 -4.03125 C 0.265625 -3.125 0.234375 -1.75 0.96875 -0.84375 C 1.28125 -0.4375 1.703125 -0.140625 2.234375 0.015625 C 3.71875 0.421875 4.921875 -0.546875 5.25 -1.65625 C 5.53125 -2.578125 5.25 -3.640625 4.53125 -4.3125 C 4.171875 -4.640625 3.65625 -4.90625 3.046875 -4.9375 C 2.125 -5.015625 1.421875 -4.53125 1 -4.03125 Z M 3.484375 -4.453125 C 3.96875 -4.296875 4.359375 -3.96875 4.59375 -3.53125 C 4.734375 -3.265625 4.796875 -2.96875 4.828125 -2.671875 C 4.890625 -1.84375 4.546875 -0.9375 3.796875 -0.53125 C 3.421875 -0.328125 2.96875 -0.234375 2.484375 -0.34375 C 2.15625 -0.421875 1.859375 -0.59375 1.640625 -0.796875 C 1.21875 -1.1875 1 -1.765625 0.96875 -2.328125 C 0.90625 -3.34375 1.421875 -4.109375 2.140625 -4.390625 C 2.5625 -4.5625 3.03125 -4.59375 3.484375 -4.453125 Z M 3.484375 -4.453125 "/>
</symbol>
<symbol overflow="visible" id="glyph0-4">
<path style="stroke:none;" d="M 0.734375 -4.84375 L 0.734375 -1.78125 C 0.734375 -1.640625 0.734375 -1.5 0.75 -1.359375 C 0.8125 -0.953125 1.015625 -0.625 1.28125 -0.390625 C 1.84375 0.125 2.703125 0.265625 3.390625 -0.0625 C 3.75 -0.234375 4.078125 -0.5625 4.25 -0.921875 C 4.375 -1.21875 4.390625 -1.40625 4.390625 -1.8125 L 4.390625 -4.84375 L 3.890625 -4.84375 L 3.890625 -1.765625 C 3.890625 -1.5 3.875 -1.21875 3.75 -0.96875 C 3.671875 -0.8125 3.5625 -0.65625 3.40625 -0.546875 C 2.8125 -0.109375 1.765625 -0.28125 1.4375 -0.875 C 1.28125 -1.15625 1.265625 -1.46875 1.265625 -1.78125 L 1.265625 -4.84375 L 0.734375 -4.84375 Z M 0.734375 -4.84375 "/>
</symbol>
<symbol overflow="visible" id="glyph0-5">
<path style="stroke:none;" d="M 0.734375 -4.84375 L 0.734375 0 L 2.265625 0 C 2.890625 0 3.203125 0.03125 3.71875 -0.21875 C 4.359375 -0.515625 4.875 -1.109375 5.03125 -1.875 C 5.234375 -2.84375 4.828125 -3.90625 4 -4.453125 C 3.703125 -4.640625 3.359375 -4.78125 3 -4.828125 C 2.71875 -4.84375 2.4375 -4.84375 2.15625 -4.84375 L 0.734375 -4.84375 Z M 1.25 -0.40625 L 1.25 -4.421875 L 2.234375 -4.421875 C 2.421875 -4.421875 2.609375 -4.4375 2.796875 -4.421875 C 3.296875 -4.375 3.71875 -4.171875 4.015625 -3.875 C 4.375 -3.5 4.53125 -3 4.5625 -2.5 C 4.59375 -1.90625 4.40625 -1.296875 3.96875 -0.890625 C 3.6875 -0.640625 3.25 -0.453125 2.796875 -0.421875 C 2.609375 -0.40625 2.4375 -0.40625 2.25 -0.40625 L 1.25 -0.40625 Z M 1.25 -0.40625 "/>
</symbol>
<symbol overflow="visible" id="glyph0-6">
<path style="stroke:none;" d="M 2.71875 -2 L 0.6875 -2 C 0.640625 -2 0.578125 -2 0.53125 -2 C 0.453125 -1.96875 0.40625 -1.90625 0.40625 -1.84375 C 0.40625 -1.765625 0.453125 -1.703125 0.53125 -1.6875 C 0.578125 -1.671875 0.640625 -1.671875 0.6875 -1.671875 L 2.71875 -1.671875 L 2.71875 0.359375 C 2.71875 0.40625 2.703125 0.453125 2.71875 0.515625 C 2.75 0.578125 2.8125 0.625 2.875 0.625 C 2.953125 0.625 3.015625 0.578125 3.03125 0.515625 C 3.046875 0.453125 3.03125 0.40625 3.03125 0.359375 L 3.03125 -1.671875 L 5.078125 -1.671875 C 5.125 -1.671875 5.171875 -1.671875 5.21875 -1.6875 C 5.296875 -1.703125 5.34375 -1.765625 5.34375 -1.84375 C 5.34375 -1.90625 5.296875 -1.96875 5.21875 -2 C 5.171875 -2 5.125 -2 5.078125 -2 L 3.03125 -2 L 3.03125 -4.03125 C 3.03125 -4.078125 3.046875 -4.140625 3.03125 -4.1875 C 3.015625 -4.265625 2.953125 -4.3125 2.875 -4.3125 C 2.8125 -4.3125 2.75 -4.265625 2.71875 -4.1875 C 2.703125 -4.140625 2.71875 -4.078125 2.71875 -4.03125 L 2.71875 -2 Z M 2.71875 -2 "/>
</symbol>
<symbol overflow="visible" id="glyph1-0">
<path style="stroke:none;" d=""/>
</symbol>
<symbol overflow="visible" id="glyph1-1">
<path style="stroke:none;" d="M 0.734375 -2 C 0.59375 -1.953125 0.578125 -1.734375 0.71875 -1.6875 C 0.765625 -1.671875 0.8125 -1.671875 0.84375 -1.671875 L 4.78125 -1.671875 C 4.875 -1.671875 5.015625 -1.65625 5.09375 -1.71875 C 5.171875 -1.8125 5.125 -1.96875 5 -2 C 4.921875 -2.015625 4.828125 -2 4.734375 -2 L 0.859375 -2 C 0.828125 -2 0.78125 -2 0.734375 -2 Z M 0.734375 -2 "/>
</symbol>
</g>
<clipPath id="clip1">
  <path d="M -219 666 L 393 666 L 393 -126 L -219 -126 L -219 666 Z M -219 666 "/>
</clipPath>
<clipPath id="clip2">
  <path d="M 0.875 209.785156 L 172.371094 209.785156 L 172.371094 -1.199219 L 0.875 -1.199219 L 0.875 209.785156 Z M 0.875 209.785156 "/>
</clipPath>
<clipPath id="clip3">
  <path d="M -219 666 L 393 666 L 393 -126 L -219 -126 L -219 666 Z M -219 666 "/>
</clipPath>
<clipPath id="clip4">
  <path d="M 0.875 209.785156 L 172.371094 209.785156 L 172.371094 -1.199219 L 0.875 -1.199219 L 0.875 209.785156 Z M 0.875 209.785156 "/>
</clipPath>
<clipPath id="clip5">
  <path d="M 169.550781 209.785156 L 0.875 209.785156 L 0.875 200.761719 L 169.550781 200.761719 L 169.550781 209.785156 Z M 169.550781 209.785156 "/>
</clipPath>
<clipPath id="clip6">
  <path d="M 189.371094 204.023438 L 169.429688 184.078125 L 147.023438 206.484375 L 166.96875 226.429688 L 189.371094 204.023438 Z M 189.371094 204.023438 "/>
</clipPath>
<clipPath id="clip7">
  <path d="M -219 666 L 393 666 L 393 -126 L -219 -126 L -219 666 Z M -219 666 "/>
</clipPath>
<clipPath id="clip8">
  <path d="M 0.875 209.785156 L 172.371094 209.785156 L 172.371094 -1.199219 L 0.875 -1.199219 L 0.875 209.785156 Z M 0.875 209.785156 "/>
</clipPath>
<clipPath id="clip9">
  <path d="M 169.550781 209.785156 L 0.875 209.785156 L 0.875 200.761719 L 169.550781 200.761719 L 169.550781 209.785156 Z M 169.550781 209.785156 "/>
</clipPath>
<clipPath id="clip10">
  <path d="M 170.226563 184.875 L 150.28125 164.929688 L 127.875 187.335938 L 147.820313 207.28125 L 170.226563 184.875 Z M 170.226563 184.875 "/>
</clipPath>
<clipPath id="clip11">
  <path d="M -219 666 L 393 666 L 393 -126 L -219 -126 L -219 666 Z M -219 666 "/>
</clipPath>
<clipPath id="clip12">
  <path d="M 0.875 209.785156 L 172.371094 209.785156 L 172.371094 -1.199219 L 0.875 -1.199219 L 0.875 209.785156 Z M 0.875 209.785156 "/>
</clipPath>
<clipPath id="clip13">
  <path d="M 169.550781 209.785156 L 0.875 209.785156 L 0.875 200.761719 L 169.550781 200.761719 L 169.550781 209.785156 Z M 169.550781 209.785156 "/>
</clipPath>
<clipPath id="clip14">
  <path d="M 167.765625 225.628906 L 147.820313 205.683594 L 125.414063 228.089844 L 145.359375 248.035156 L 167.765625 225.628906 Z M 167.765625 225.628906 "/>
</clipPath>
<clipPath id="clip15">
  <path d="M -219 666 L 393 666 L 393 -126 L -219 -126 L -219 666 Z M -219 666 "/>
</clipPath>
<clipPath id="clip16">
  <path d="M 0.875 209.785156 L 172.371094 209.785156 L 172.371094 -1.199219 L 0.875 -1.199219 L 0.875 209.785156 Z M 0.875 209.785156 "/>
</clipPath>
<clipPath id="clip17">
  <path d="M 169.550781 209.785156 L 0.875 209.785156 L 0.875 200.761719 L 169.550781 200.761719 L 169.550781 209.785156 Z M 169.550781 209.785156 "/>
</clipPath>
<clipPath id="clip18">
  <path d="M 148.617188 206.484375 L 128.675781 186.539063 L 106.269531 208.941406 L 126.214844 228.886719 L 148.617188 206.484375 Z M 148.617188 206.484375 "/>
</clipPath>
<clipPath id="clip19">
  <path d="M -219 666 L 393 666 L 393 -126 L -219 -126 L -219 666 Z M -219 666 "/>
</clipPath>
<clipPath id="clip20">
  <path d="M 0.875 209.785156 L 172.371094 209.785156 L 172.371094 -1.199219 L 0.875 -1.199219 L 0.875 209.785156 Z M 0.875 209.785156 "/>
</clipPath>
<clipPath id="clip21">
  <path d="M 169.550781 209.785156 L 0.875 209.785156 L 0.875 200.761719 L 169.550781 200.761719 L 169.550781 209.785156 Z M 169.550781 209.785156 "/>
</clipPath>
<clipPath id="clip22">
  <path d="M 129.472656 187.335938 L 109.527344 167.390625 L 87.121094 189.796875 L 107.066406 209.742188 L 129.472656 187.335938 Z M 129.472656 187.335938 "/>
</clipPath>
<clipPath id="clip23">
  <path d="M -219 666 L 393 666 L 393 -126 L -219 -126 L -219 666 Z M -219 666 "/>
</clipPath>
<clipPath id="clip24">
  <path d="M 0.875 209.785156 L 172.371094 209.785156 L 172.371094 -1.199219 L 0.875 -1.199219 L 0.875 209.785156 Z M 0.875 209.785156 "/>
</clipPath>
<clipPath id="clip25">
  <path d="M 169.550781 209.785156 L 0.875 209.785156 L 0.875 200.761719 L 169.550781 200.761719 L 169.550781 209.785156 Z M 169.550781 209.785156 "/>
</clipPath>
<clipPath id="clip26">
  <path d="M 107.867188 208.941406 L 87.921875 189 L 65.515625 211.402344 L 85.460938 231.347656 L 107.867188 208.941406 Z M 107.867188 208.941406 "/>
</clipPath>
<clipPath id="clip27">
  <path d="M -219 666 L 393 666 L 393 -126 L -219 -126 L -219 666 Z M -219 666 "/>
</clipPath>
<clipPath id="clip28">
  <path d="M 0.875 209.785156 L 172.371094 209.785156 L 172.371094 -1.199219 L 0.875 -1.199219 L 0.875 209.785156 Z M 0.875 209.785156 "/>
</clipPath>
<clipPath id="clip29">
  <path d="M 169.550781 209.785156 L 0.875 209.785156 L 0.875 200.761719 L 169.550781 200.761719 L 169.550781 209.785156 Z M 169.550781 209.785156 "/>
</clipPath>
<clipPath id="clip30">
  <path d="M 88.71875 189.796875 L 68.773438 169.851563 L 46.367188 192.257813 L 66.3125 212.199219 L 88.71875 189.796875 Z M 88.71875 189.796875 "/>
</clipPath>
<clipPath id="clip31">
  <path d="M -219 666 L 393 666 L 393 -126 L -219 -126 L -219 666 Z M -219 666 "/>
</clipPath>
<clipPath id="clip32">
  <path d="M 0.875 209.785156 L 172.371094 209.785156 L 172.371094 -1.199219 L 0.875 -1.199219 L 0.875 209.785156 Z M 0.875 209.785156 "/>
</clipPath>
<clipPath id="clip33">
  <path d="M 169.550781 209.785156 L 0.875 209.785156 L 0.875 200.761719 L 169.550781 200.761719 L 169.550781 209.785156 Z M 169.550781 209.785156 "/>
</clipPath>
<clipPath id="clip34">
  <path d="M 67.109375 211.402344 L 47.167969 191.457031 L 24.761719 213.863281 L 44.707031 233.808594 L 67.109375 211.402344 Z M 67.109375 211.402344 "/>
</clipPath>
<clipPath id="clip35">
  <path d="M -219 666 L 393 666 L 393 -126 L -219 -126 L -219 666 Z M -219 666 "/>
</clipPath>
<clipPath id="clip36">
  <path d="M 0.875 209.785156 L 172.371094 209.785156 L 172.371094 -1.199219 L 0.875 -1.199219 L 0.875 209.785156 Z M 0.875 209.785156 "/>
</clipPath>
<clipPath id="clip37">
  <path d="M 169.550781 209.785156 L 0.875 209.785156 L 0.875 200.761719 L 169.550781 200.761719 L 169.550781 209.785156 Z M 169.550781 209.785156 "/>
</clipPath>
<clipPath id="clip38">
  <path d="M 47.964844 192.253906 L 28.019531 172.308594 L 5.613281 194.714844 L 25.558594 214.660156 L 47.964844 192.253906 Z M 47.964844 192.253906 "/>
</clipPath>
<clipPath id="clip39">
  <path d="M -219 666 L 393 666 L 393 -126 L -219 -126 L -219 666 Z M -219 666 "/>
</clipPath>
<clipPath id="clip40">
  <path d="M 0.875 209.785156 L 172.371094 209.785156 L 172.371094 -1.199219 L 0.875 -1.199219 L 0.875 209.785156 Z M 0.875 209.785156 "/>
</clipPath>
<clipPath id="clip41">
  <path d="M 169.550781 209.785156 L 0.875 209.785156 L 0.875 200.761719 L 169.550781 200.761719 L 169.550781 209.785156 Z M 169.550781 209.785156 "/>
</clipPath>
<clipPath id="clip42">
  <path d="M 26.355469 213.863281 L 6.414063 193.917969 L -15.992188 216.320313 L 3.953125 236.265625 L 26.355469 213.863281 Z M 26.355469 213.863281 "/>
</clipPath>
<clipPath id="clip43">
  <path d="M -219 666 L 393 666 L 393 -126 L -219 -126 L -219 666 Z M -219 666 "/>
</clipPath>
<clipPath id="clip44">
  <path d="M 0.875 209.785156 L 172.371094 209.785156 L 172.371094 -1.199219 L 0.875 -1.199219 L 0.875 209.785156 Z M 0.875 209.785156 "/>
</clipPath>
<clipPath id="clip45">
  <path d="M 169.550781 209.785156 L 0.875 209.785156 L 0.875 200.761719 L 169.550781 200.761719 L 169.550781 209.785156 Z M 169.550781 209.785156 "/>
</clipPath>
<clipPath id="clip46">
  <path d="M 7.210938 194.714844 L -12.734375 174.769531 L -35.136719 197.175781 L -15.195313 217.121094 L 7.210938 194.714844 Z M 7.210938 194.714844 "/>
</clipPath>
<clipPath id="clip47">
  <path d="M -219 666 L 393 666 L 393 -126 L -219 -126 L -219 666 Z M -219 666 "/>
</clipPath>
<clipPath id="clip48">
  <path d="M 0.875 209.785156 L 172.371094 209.785156 L 172.371094 -1.199219 L 0.875 -1.199219 L 0.875 209.785156 Z M 0.875 209.785156 "/>
</clipPath>
<clipPath id="clip49">
  <path d="M -219 666 L 393 666 L 393 -126 L -219 -126 L -219 666 Z M -219 666 "/>
</clipPath>
</defs>
<g id="surface0">
<g clip-path="url(#clip1)" clip-rule="nonzero">
<g clip-path="url(#clip2)" clip-rule="nonzero">
<path style="fill:none;stroke-width:5;stroke-linecap:butt;stroke-linejoin:miter;stroke:rgb(13.730068%,12.159915%,12.54902%);stroke-opacity:1;stroke-miterlimit:4;" d="M 12.489608 1602.486521 C 41.468058 1511.985127 104.929824 1426.019188 185.771735 1375.990682 C 213.746152 1358.645159 244.247961 1345.523495 276.065399 1337.110397 C 326.059283 1323.954111 368.367127 1327.866375 419.018826 1330.186036 C 449.278282 1331.570908 479.676226 1328.489568 509.174002 1321.599829 C 541.510767 1314.086897 572.393416 1301.172965 604.868668 1294.144738 C 637.240054 1287.116512 670.996312 1285.662397 704.025513 1284.450633 C 752.946122 1282.6503 802.143705 1284.139037 850.579608 1291.755834 C 875.368819 1295.633476 899.915678 1301.103721 923.873966 1308.685896 C 984.462122 1327.797132 1042.834483 1371.14363 1087.49661 1415.840378 C 1140.121751 1461.125697 1208.465192 1465.799641 1271.476874 1489.169358 C 1345.394425 1516.624448 1424.816842 1549.653649 1483.396934 1603.871393 C 1490.806 1610.726511 1497.834226 1617.962468 1504.170016 1625.821617 " transform="matrix(0.112826,0,0,-0.112826,0.876,209.787)"/>
<path style="fill:none;stroke-width:5;stroke-linecap:butt;stroke-linejoin:miter;stroke:rgb(13.730068%,12.159915%,12.54902%);stroke-opacity:1;stroke-miterlimit:4;" d="M 277.484893 1852.490565 C 277.484893 1852.490565 182.517285 1660.82426 89.176903 1545.845251 " transform="matrix(0.112826,0,0,-0.112826,0.876,209.787)"/>
<path style="fill:none;stroke-width:5;stroke-linecap:butt;stroke-linejoin:miter;stroke:rgb(13.730068%,12.159915%,12.54902%);stroke-opacity:1;stroke-miterlimit:4;" d="M 440.830562 1719.161999 C 440.830562 1719.161999 357.599746 1517.386128 234.173016 1409.15837 " transform="matrix(0.112826,0,0,-0.112826,0.876,209.787)"/>
<path style="fill:none;stroke-width:5;stroke-linecap:butt;stroke-linejoin:miter;stroke:rgb(13.730068%,12.159915%,12.54902%);stroke-opacity:1;stroke-miterlimit:4;" d="M 694.158299 1669.168115 C 694.158299 1669.168115 655.831962 1529.157541 499.168301 1359.164486 " transform="matrix(0.112826,0,0,-0.112826,0.876,209.787)"/>
<path style="fill:none;stroke-width:5;stroke-linecap:butt;stroke-linejoin:miter;stroke:rgb(13.730068%,12.159915%,12.54902%);stroke-opacity:1;stroke-miterlimit:4;" d="M 949.182504 1704.170759 C 949.182504 1704.170759 840.816259 1467.496109 694.158299 1394.167129 " transform="matrix(0.112826,0,0,-0.112826,0.876,209.787)"/>
<path style="fill:none;stroke-width:5;stroke-linecap:butt;stroke-linejoin:miter;stroke:rgb(13.730068%,12.159915%,12.54902%);stroke-opacity:1;stroke-miterlimit:4;" d="M 1084.172917 1525.833848 C 1084.172917 1525.833848 944.820157 1341.472744 833.649546 1308.651274 " transform="matrix(0.112826,0,0,-0.112826,0.876,209.787)"/>
<path style="fill:none;stroke-width:5;stroke-linecap:butt;stroke-linejoin:miter;stroke:rgb(13.730068%,12.159915%,12.54902%);stroke-opacity:1;stroke-miterlimit:4;" d="M 1472.491066 1744.158942 L 1342.486193 1577.489579 " transform="matrix(0.112826,0,0,-0.112826,0.876,209.787)"/>
<path style="fill:none;stroke-width:5;stroke-linecap:butt;stroke-linejoin:miter;stroke:rgb(13.730068%,12.159915%,12.54902%);stroke-opacity:1;stroke-miterlimit:4;" d="M 621.279402 1291.028776 L 580.702649 1189.032943 L 619.479069 1127.821594 L 675.635634 1094.307688 L 675.635634 1024.163914 L 630.696533 967.799618 L 630.696533 910.569776 L 657.493809 849.150697 L 657.493809 764.188791 L 615.185965 705.470212 L 647.488108 642.493151 L 714.169702 627.50191 L 729.160943 555.834777 " transform="matrix(0.112826,0,0,-0.112826,0.876,209.787)"/>
<path style="fill:none;stroke-width:5;stroke-linecap:butt;stroke-linejoin:miter;stroke:rgb(13.730068%,12.159915%,12.54902%);stroke-opacity:1;stroke-miterlimit:4;" d="M 615.913023 706.439622 L 534.170945 654.160699 L 485.838907 585.817258 L 415.83362 547.490922 L 388.205421 462.078932 C 388.205421 462.078932 347.69791 420.636633 345.828333 412.085048 C 344.408839 405.576149 345.828333 342.495223 345.828333 342.495223 L 399.180532 292.501338 " transform="matrix(0.112826,0,0,-0.112826,0.876,209.787)"/>
<path style="fill:none;stroke-width:3.8;stroke-linecap:butt;stroke-linejoin:miter;stroke:rgb(13.730068%,12.159915%,12.54902%);stroke-opacity:1;stroke-miterlimit:4;" d="M 381.765765 534.02304 L 374.010481 515.01567 " transform="matrix(0.112826,0,0,-0.112826,0.876,209.787)"/>
<path style=" stroke:none;fill-rule:nonzero;fill:rgb(13.730068%,12.159915%,12.54902%);fill-opacity:1;" d="M 42.40625 150.78125 L 42.171875 154.378906 L 44.175781 151.378906 L 42.40625 150.78125 "/>
<path style="fill:none;stroke-width:5;stroke-linecap:butt;stroke-linejoin:miter;stroke:rgb(13.730068%,12.159915%,12.54902%);stroke-opacity:1;stroke-miterlimit:4;" d="M -0.00886318 79.992708 L 1492.502468 79.992708 " transform="matrix(0.112826,0,0,-0.112826,0.876,209.787)"/>
</g>
</g>
<g clip-path="url(#clip3)" clip-rule="nonzero">
<g clip-path="url(#clip4)" clip-rule="nonzero">
<g clip-path="url(#clip5)" clip-rule="nonzero">
<g clip-path="url(#clip6)" clip-rule="nonzero">
<path style="fill:none;stroke-width:5.87909;stroke-linecap:butt;stroke-linejoin:miter;stroke:rgb(0%,0%,0%);stroke-opacity:1;stroke-miterlimit:4;" d="M -1557.137692 -1327.63272 L -1557.103149 -1725.687791 " transform="matrix(-0.0565419,-0.0565419,-0.0562844,0.0562844,0.876,209.787)"/>
<path style="fill:none;stroke-width:5.87909;stroke-linecap:butt;stroke-linejoin:miter;stroke:rgb(0%,0%,0%);stroke-opacity:1;stroke-miterlimit:4;" d="M -1439.5534 -1327.63272 L -1439.518857 -1725.687791 " transform="matrix(-0.0565419,-0.0565419,-0.0562844,0.0562844,0.876,209.787)"/>
<path style="fill:none;stroke-width:5.87909;stroke-linecap:butt;stroke-linejoin:miter;stroke:rgb(0%,0%,0%);stroke-opacity:1;stroke-miterlimit:4;" d="M -1321.969108 -1327.63272 L -1321.969108 -1725.722492 " transform="matrix(-0.0565419,-0.0565419,-0.0562844,0.0562844,0.876,209.787)"/>
</g>
</g>
</g>
</g>
<g clip-path="url(#clip7)" clip-rule="nonzero">
<g clip-path="url(#clip8)" clip-rule="nonzero">
<g clip-path="url(#clip9)" clip-rule="nonzero">
<g clip-path="url(#clip10)" clip-rule="nonzero">
<path style="fill:none;stroke-width:5.87909;stroke-linecap:butt;stroke-linejoin:miter;stroke:rgb(0%,0%,0%);stroke-opacity:1;stroke-miterlimit:4;" d="M -1218.47835 -1327.63272 L -1218.443807 -1725.687791 " transform="matrix(-0.0565419,-0.0565419,-0.0562844,0.0562844,0.876,209.787)"/>
</g>
</g>
</g>
</g>
<g clip-path="url(#clip11)" clip-rule="nonzero">
<g clip-path="url(#clip12)" clip-rule="nonzero">
<g clip-path="url(#clip13)" clip-rule="nonzero">
<g clip-path="url(#clip14)" clip-rule="nonzero">
<path style="fill:none;stroke-width:5.87909;stroke-linecap:butt;stroke-linejoin:miter;stroke:rgb(0%,0%,0%);stroke-opacity:1;stroke-miterlimit:4;" d="M -1321.969108 -943.770355 L -1321.934565 -1341.825426 " transform="matrix(-0.0565419,-0.0565419,-0.0562844,0.0562844,0.876,209.787)"/>
</g>
</g>
</g>
</g>
<g clip-path="url(#clip15)" clip-rule="nonzero">
<g clip-path="url(#clip16)" clip-rule="nonzero">
<g clip-path="url(#clip17)" clip-rule="nonzero">
<g clip-path="url(#clip18)" clip-rule="nonzero">
<path style="fill:none;stroke-width:5.87909;stroke-linecap:butt;stroke-linejoin:miter;stroke:rgb(0%,0%,0%);stroke-opacity:1;stroke-miterlimit:4;" d="M -1218.47835 -943.770355 L -1218.47835 -1341.790725 " transform="matrix(-0.0565419,-0.0565419,-0.0562844,0.0562844,0.876,209.787)"/>
<path style="fill:none;stroke-width:5.87909;stroke-linecap:butt;stroke-linejoin:miter;stroke:rgb(0%,0%,0%);stroke-opacity:1;stroke-miterlimit:4;" d="M -1100.894058 -943.770355 L -1100.894058 -1341.790725 " transform="matrix(-0.0565419,-0.0565419,-0.0562844,0.0562844,0.876,209.787)"/>
<path style="fill:none;stroke-width:5.87909;stroke-linecap:butt;stroke-linejoin:miter;stroke:rgb(0%,0%,0%);stroke-opacity:1;stroke-miterlimit:4;" d="M -983.309766 -943.770355 L -983.309766 -1341.790725 " transform="matrix(-0.0565419,-0.0565419,-0.0562844,0.0562844,0.876,209.787)"/>
</g>
</g>
</g>
</g>
<g clip-path="url(#clip19)" clip-rule="nonzero">
<g clip-path="url(#clip20)" clip-rule="nonzero">
<g clip-path="url(#clip21)" clip-rule="nonzero">
<g clip-path="url(#clip22)" clip-rule="nonzero">
<path style="fill:none;stroke-width:5.87909;stroke-linecap:butt;stroke-linejoin:miter;stroke:rgb(0%,0%,0%);stroke-opacity:1;stroke-miterlimit:4;" d="M -879.853551 -943.735654 L -879.853551 -1341.825426 " transform="matrix(-0.0565419,-0.0565419,-0.0562844,0.0562844,0.876,209.787)"/>
</g>
</g>
</g>
</g>
<g clip-path="url(#clip23)" clip-rule="nonzero">
<g clip-path="url(#clip24)" clip-rule="nonzero">
<g clip-path="url(#clip25)" clip-rule="nonzero">
<g clip-path="url(#clip26)" clip-rule="nonzero">
<path style="fill:none;stroke-width:5.87909;stroke-linecap:butt;stroke-linejoin:miter;stroke:rgb(0%,0%,0%);stroke-opacity:1;stroke-miterlimit:4;" d="M -879.853551 -559.873289 L -879.853551 -957.96306 " transform="matrix(-0.0565419,-0.0565419,-0.0562844,0.0562844,0.876,209.787)"/>
<path style="fill:none;stroke-width:5.87909;stroke-linecap:butt;stroke-linejoin:miter;stroke:rgb(0%,0%,0%);stroke-opacity:1;stroke-miterlimit:4;" d="M -762.269259 -559.873289 L -762.269259 -957.96306 " transform="matrix(-0.0565419,-0.0565419,-0.0562844,0.0562844,0.876,209.787)"/>
<path style="fill:none;stroke-width:5.87909;stroke-linecap:butt;stroke-linejoin:miter;stroke:rgb(0%,0%,0%);stroke-opacity:1;stroke-miterlimit:4;" d="M -644.684967 -559.873289 L -644.71951 -957.928359 " transform="matrix(-0.0565419,-0.0565419,-0.0562844,0.0562844,0.876,209.787)"/>
</g>
</g>
</g>
</g>
<g clip-path="url(#clip27)" clip-rule="nonzero">
<g clip-path="url(#clip28)" clip-rule="nonzero">
<g clip-path="url(#clip29)" clip-rule="nonzero">
<g clip-path="url(#clip30)" clip-rule="nonzero">
<path style="fill:none;stroke-width:5.87909;stroke-linecap:butt;stroke-linejoin:miter;stroke:rgb(0%,0%,0%);stroke-opacity:1;stroke-miterlimit:4;" d="M -541.194209 -559.873289 L -541.228752 -957.928359 " transform="matrix(-0.0565419,-0.0565419,-0.0562844,0.0562844,0.876,209.787)"/>
<path style="fill:none;stroke-width:5.87909;stroke-linecap:butt;stroke-linejoin:miter;stroke:rgb(0%,0%,0%);stroke-opacity:1;stroke-miterlimit:4;" d="M -423.64446 -559.838588 L -423.64446 -957.928359 " transform="matrix(-0.0565419,-0.0565419,-0.0562844,0.0562844,0.876,209.787)"/>
</g>
</g>
</g>
</g>
<g clip-path="url(#clip31)" clip-rule="nonzero">
<g clip-path="url(#clip32)" clip-rule="nonzero">
<g clip-path="url(#clip33)" clip-rule="nonzero">
<g clip-path="url(#clip34)" clip-rule="nonzero">
<path style="fill:none;stroke-width:5.87909;stroke-linecap:butt;stroke-linejoin:miter;stroke:rgb(0%,0%,0%);stroke-opacity:1;stroke-miterlimit:4;" d="M -541.228752 -175.976222 L -541.228752 -574.065994 " transform="matrix(-0.0565419,-0.0565419,-0.0562844,0.0562844,0.876,209.787)"/>
<path style="fill:none;stroke-width:5.87909;stroke-linecap:butt;stroke-linejoin:miter;stroke:rgb(0%,0%,0%);stroke-opacity:1;stroke-miterlimit:4;" d="M -423.64446 -175.976222 L -423.64446 -574.065994 " transform="matrix(-0.0565419,-0.0565419,-0.0562844,0.0562844,0.876,209.787)"/>
<path style="fill:none;stroke-width:5.87909;stroke-linecap:butt;stroke-linejoin:miter;stroke:rgb(0%,0%,0%);stroke-opacity:1;stroke-miterlimit:4;" d="M -306.060168 -175.976222 L -306.060168 -574.065994 " transform="matrix(-0.0565419,-0.0565419,-0.0562844,0.0562844,0.876,209.787)"/>
</g>
</g>
</g>
</g>
<g clip-path="url(#clip35)" clip-rule="nonzero">
<g clip-path="url(#clip36)" clip-rule="nonzero">
<g clip-path="url(#clip37)" clip-rule="nonzero">
<g clip-path="url(#clip38)" clip-rule="nonzero">
<path style="fill:none;stroke-width:5.87909;stroke-linecap:butt;stroke-linejoin:miter;stroke:rgb(0%,0%,0%);stroke-opacity:1;stroke-miterlimit:4;" d="M -202.56941 -175.976222 L -202.56941 -574.065994 " transform="matrix(-0.0565419,-0.0565419,-0.0562844,0.0562844,0.876,209.787)"/>
<path style="fill:none;stroke-width:5.87909;stroke-linecap:butt;stroke-linejoin:miter;stroke:rgb(0%,0%,0%);stroke-opacity:1;stroke-miterlimit:4;" d="M -84.985118 -175.976222 L -84.985118 -574.065994 " transform="matrix(-0.0565419,-0.0565419,-0.0562844,0.0562844,0.876,209.787)"/>
</g>
</g>
</g>
</g>
<g clip-path="url(#clip39)" clip-rule="nonzero">
<g clip-path="url(#clip40)" clip-rule="nonzero">
<g clip-path="url(#clip41)" clip-rule="nonzero">
<g clip-path="url(#clip42)" clip-rule="nonzero">
<path style="fill:none;stroke-width:5.87909;stroke-linecap:butt;stroke-linejoin:miter;stroke:rgb(0%,0%,0%);stroke-opacity:1;stroke-miterlimit:4;" d="M -84.985118 207.886143 L -85.019661 -190.168928 " transform="matrix(-0.0565419,-0.0565419,-0.0562844,0.0562844,0.876,209.787)"/>
<path style="fill:none;stroke-width:5.87909;stroke-linecap:butt;stroke-linejoin:miter;stroke:rgb(0%,0%,0%);stroke-opacity:1;stroke-miterlimit:4;" d="M 32.599174 207.886143 L 32.564631 -190.168928 " transform="matrix(-0.0565419,-0.0565419,-0.0562844,0.0562844,0.876,209.787)"/>
</g>
</g>
</g>
</g>
<g clip-path="url(#clip43)" clip-rule="nonzero">
<g clip-path="url(#clip44)" clip-rule="nonzero">
<g clip-path="url(#clip45)" clip-rule="nonzero">
<g clip-path="url(#clip46)" clip-rule="nonzero">
<path style="fill:none;stroke-width:5.87909;stroke-linecap:butt;stroke-linejoin:miter;stroke:rgb(0%,0%,0%);stroke-opacity:1;stroke-miterlimit:4;" d="M 136.055389 207.920844 L 136.055389 -190.168928 " transform="matrix(-0.0565419,-0.0565419,-0.0562844,0.0562844,0.876,209.787)"/>
</g>
</g>
</g>
</g>
<g clip-path="url(#clip47)" clip-rule="nonzero">
<g clip-path="url(#clip48)" clip-rule="nonzero">
<path style="fill-rule:nonzero;fill:rgb(100%,100%,100%);fill-opacity:1;stroke-width:3.8;stroke-linecap:butt;stroke-linejoin:miter;stroke:rgb(13.730068%,12.159915%,12.54902%);stroke-opacity:1;stroke-miterlimit:4;" d="M 573.743666 1267.48595 L 562.49158 1242.489007 " transform="matrix(0.112826,0,0,-0.112826,0.876,209.787)"/>
<path style=" stroke:none;fill-rule:nonzero;fill:rgb(13.730068%,12.159915%,12.54902%);fill-opacity:1;" d="M 63.761719 68.640625 L 63.183594 72.203125 L 65.464844 69.40625 L 63.761719 68.640625 "/>
<path style="fill-rule:nonzero;fill:rgb(100%,100%,100%);fill-opacity:1;stroke-width:3.8;stroke-linecap:butt;stroke-linejoin:miter;stroke:rgb(13.730068%,12.159915%,12.54902%);stroke-opacity:1;stroke-miterlimit:4;" d="M 670.096146 907.038352 L 679.824872 881.418218 " transform="matrix(0.112826,0,0,-0.112826,0.876,209.787)"/>
<path style=" stroke:none;fill-rule:nonzero;fill:rgb(13.730068%,12.159915%,12.54902%);fill-opacity:1;" d="M 76.488281 110.070313 L 78.597656 113 L 78.234375 109.410156 L 76.488281 110.070313 "/>
</g>
</g>
<g clip-path="url(#clip49)" clip-rule="nonzero">
<path style=" stroke:none;fill-rule:nonzero;fill:rgb(100%,100%,100%);fill-opacity:1;" d="M 56.9375 46.382813 L 86.546875 46.382813 L 86.546875 37.570313 L 56.9375 37.570313 L 56.9375 46.382813 Z M 56.9375 46.382813 "/>
<g style="fill:rgb(0%,0%,0%);fill-opacity:1;">
  <use xlink:href="#glyph0-1" x="58.92" y="44.398"/>
  <use xlink:href="#glyph0-2" x="63.876977" y="44.398"/>
  <use xlink:href="#glyph0-3" x="68.095429" y="44.398"/>
  <use xlink:href="#glyph0-4" x="73.89763" y="44.398"/>
  <use xlink:href="#glyph0-5" x="79.035926" y="44.398"/>
</g>
<g style="fill:rgb(0%,0%,0%);fill-opacity:1;">
  <use xlink:href="#glyph0-6" x="6.342" y="206.161"/>
</g>
<g style="fill:rgb(0%,0%,0%);fill-opacity:1;">
  <use xlink:href="#glyph0-6" x="21.512805" y="206.161"/>
</g>
<g style="fill:rgb(0%,0%,0%);fill-opacity:1;">
  <use xlink:href="#glyph0-6" x="36.676635" y="206.161"/>
</g>
<g style="fill:rgb(0%,0%,0%);fill-opacity:1;">
  <use xlink:href="#glyph0-6" x="51.84744" y="206.161"/>
</g>
<g style="fill:rgb(0%,0%,0%);fill-opacity:1;">
  <use xlink:href="#glyph0-6" x="67.018244" y="206.161"/>
</g>
<g style="fill:rgb(0%,0%,0%);fill-opacity:1;">
  <use xlink:href="#glyph0-6" x="82.182075" y="206.161"/>
</g>
<g style="fill:rgb(0%,0%,0%);fill-opacity:1;">
  <use xlink:href="#glyph0-6" x="97.35288" y="206.161"/>
</g>
<g style="fill:rgb(0%,0%,0%);fill-opacity:1;">
  <use xlink:href="#glyph0-6" x="112.51671" y="206.161"/>
</g>
<g style="fill:rgb(0%,0%,0%);fill-opacity:1;">
  <use xlink:href="#glyph0-6" x="127.687515" y="206.161"/>
</g>
<g style="fill:rgb(0%,0%,0%);fill-opacity:1;">
  <use xlink:href="#glyph0-6" x="142.858319" y="206.161"/>
</g>
<g style="fill:rgb(0%,0%,0%);fill-opacity:1;">
  <use xlink:href="#glyph0-6" x="158.02215" y="206.161"/>
</g>
<g style="fill:rgb(0%,0%,0%);fill-opacity:1;">
  <use xlink:href="#glyph1-1" x="42.545" y="173.076"/>
</g>
<g style="fill:rgb(0%,0%,0%);fill-opacity:1;">
  <use xlink:href="#glyph1-1" x="47.081" y="160.32"/>
</g>
<g style="fill:rgb(0%,0%,0%);fill-opacity:1;">
  <use xlink:href="#glyph1-1" x="49.254" y="142.462"/>
</g>
<g style="fill:rgb(0%,0%,0%);fill-opacity:1;">
  <use xlink:href="#glyph1-1" x="73.349" y="145.297"/>
</g>
<g style="fill:rgb(0%,0%,0%);fill-opacity:1;">
  <use xlink:href="#glyph1-1" x="74.01" y="130.84"/>
</g>
<g style="fill:rgb(0%,0%,0%);fill-opacity:1;">
  <use xlink:href="#glyph1-1" x="77.978" y="116.95"/>
</g>
<g style="fill:rgb(0%,0%,0%);fill-opacity:1;">
  <use xlink:href="#glyph1-1" x="77.695" y="99.376"/>
</g>
<g style="fill:rgb(0%,0%,0%);fill-opacity:1;">
  <use xlink:href="#glyph1-1" x="72.026" y="81.517"/>
</g>
<g style="fill:rgb(0%,0%,0%);fill-opacity:1;">
  <use xlink:href="#glyph1-1" x="6.545" y="33.895"/>
</g>
<g style="fill:rgb(0%,0%,0%);fill-opacity:1;">
  <use xlink:href="#glyph1-1" x="17.884" y="49.486"/>
</g>
<g style="fill:rgb(0%,0%,0%);fill-opacity:1;">
  <use xlink:href="#glyph1-1" x="32.057" y="58.273"/>
</g>
<g style="fill:rgb(0%,0%,0%);fill-opacity:1;">
  <use xlink:href="#glyph1-1" x="60.403" y="60.824"/>
</g>
<g style="fill:rgb(0%,0%,0%);fill-opacity:1;">
  <use xlink:href="#glyph1-1" x="80.246" y="63.092"/>
</g>
<g style="fill:rgb(0%,0%,0%);fill-opacity:1;">
  <use xlink:href="#glyph1-1" x="99.995" y="62.242"/>
</g>
<g style="fill:rgb(0%,0%,0%);fill-opacity:1;">
  <use xlink:href="#glyph1-1" x="114.168" y="52.604"/>
</g>
<g style="fill:rgb(0%,0%,0%);fill-opacity:1;">
  <use xlink:href="#glyph1-1" x="134.01" y="42.399"/>
</g>
<g style="fill:rgb(0%,0%,0%);fill-opacity:1;">
  <use xlink:href="#glyph1-1" x="153.853" y="34.746"/>
</g>
</g>
</g>
</svg>
