<?xml version="1.0" encoding="UTF-8"?>
<svg xmlns="http://www.w3.org/2000/svg" xmlns:xlink="http://www.w3.org/1999/xlink" width="334pt" height="266pt" viewBox="0 0 241 192" version="1.1">
<defs>
<g>
<symbol overflow="visible" id="glyph0-0">
<path style="stroke:none;" d=""/>
</symbol>
<symbol overflow="visible" id="glyph0-1">
<path style="stroke:none;" d="M 0.59375 -1.59375 C 0.46875 -1.5625 0.453125 -1.390625 0.578125 -1.34375 C 0.609375 -1.34375 0.640625 -1.34375 0.6875 -1.34375 L 3.828125 -1.34375 C 3.90625 -1.34375 4.015625 -1.328125 4.078125 -1.375 C 4.140625 -1.453125 4.109375 -1.578125 4 -1.59375 C 3.9375 -1.609375 3.859375 -1.59375 3.78125 -1.59375 L 0.6875 -1.59375 C 0.65625 -1.59375 0.625 -1.609375 0.59375 -1.59375 Z M 0.59375 -1.59375 "/>
</symbol>
<symbol overflow="visible" id="glyph1-0">
<path style="stroke:none;" d=""/>
</symbol>
<symbol overflow="visible" id="glyph1-1">
<path style="stroke:none;" d="M 0.625 -3.375 L 0.625 -3.0625 C 0.890625 -3.0625 1.171875 -3.109375 1.421875 -3.21875 L 1.421875 -0.3125 L 0.65625 -0.3125 L 0.65625 0 L 2.609375 0 L 2.609375 -0.3125 L 1.828125 -0.3125 L 1.828125 -3.75 C 1.796875 -3.75 1.75 -3.75 1.734375 -3.75 C 1.6875 -3.71875 1.65625 -3.6875 1.609375 -3.65625 C 1.390625 -3.46875 0.984375 -3.375 0.625 -3.375 Z M 0.625 -3.375 "/>
</symbol>
<symbol overflow="visible" id="glyph1-2">
<path style="stroke:none;" d="M 1.46875 -3.75 C 1.328125 -3.734375 1.203125 -3.703125 1.078125 -3.65625 C 0.5 -3.4375 0.296875 -2.671875 0.296875 -1.921875 C 0.296875 -1.8125 0.296875 -1.703125 0.296875 -1.578125 C 0.3125 -1.0625 0.4375 -0.546875 0.734375 -0.234375 C 0.96875 0.015625 1.34375 0.109375 1.671875 0.078125 C 1.890625 0.0625 2.0625 -0.015625 2.21875 -0.109375 C 2.6875 -0.453125 2.796875 -1.140625 2.796875 -1.890625 C 2.796875 -2.5 2.6875 -3.046875 2.390625 -3.390625 C 2.171875 -3.640625 1.8125 -3.78125 1.46875 -3.75 Z M 1.9375 -3.34375 C 2 -3.3125 2.046875 -3.265625 2.109375 -3.21875 C 2.3125 -3.015625 2.375 -2.609375 2.390625 -2.25 C 2.390625 -2.171875 2.390625 -2.09375 2.390625 -2.015625 L 2.390625 -1.734375 C 2.390625 -1.25 2.34375 -0.78125 2.140625 -0.5 C 1.859375 -0.140625 1.265625 -0.125 0.96875 -0.484375 C 0.90625 -0.5625 0.859375 -0.65625 0.828125 -0.75 C 0.71875 -1.03125 0.703125 -1.390625 0.703125 -1.75 L 0.703125 -2.03125 C 0.703125 -2.109375 0.703125 -2.171875 0.703125 -2.25 C 0.703125 -2.6875 0.8125 -3.125 1.109375 -3.3125 C 1.328125 -3.453125 1.671875 -3.484375 1.9375 -3.34375 Z M 1.9375 -3.34375 "/>
</symbol>
<symbol overflow="visible" id="glyph1-3">
<path style="stroke:none;" d="M 3.609375 -0.640625 C 3.296875 -0.46875 3.109375 -0.296875 2.640625 -0.296875 C 2.46875 -0.28125 2.296875 -0.28125 2.140625 -0.3125 C 1.6875 -0.40625 1.3125 -0.71875 1.09375 -1.109375 C 0.71875 -1.828125 0.890625 -2.8125 1.5625 -3.296875 C 1.671875 -3.375 1.796875 -3.453125 1.921875 -3.5 C 2.296875 -3.625 2.734375 -3.625 3.125 -3.46875 C 3.25 -3.421875 3.375 -3.359375 3.5 -3.28125 C 3.53125 -3.4375 3.5625 -3.578125 3.578125 -3.71875 C 3.453125 -3.765625 3.328125 -3.796875 3.203125 -3.828125 C 2.9375 -3.890625 2.546875 -3.9375 2.25 -3.90625 C 1.65625 -3.859375 1.171875 -3.53125 0.890625 -3.15625 C 0.515625 -2.671875 0.390625 -2.046875 0.53125 -1.453125 C 0.765625 -0.546875 1.53125 0.109375 2.625 0.03125 C 2.984375 0.03125 3.21875 -0.0625 3.5 -0.1875 C 3.53125 -0.203125 3.625 -0.25 3.640625 -0.265625 C 3.65625 -0.3125 3.625 -0.546875 3.609375 -0.640625 Z M 3.609375 -0.640625 "/>
</symbol>
<symbol overflow="visible" id="glyph2-0">
<path style="stroke:none;" d=""/>
</symbol>
<symbol overflow="visible" id="glyph2-1">
<path style="stroke:none;" d="M 0.453125 -2.9375 L 0.453125 0 L 0.765625 0 L 0.765625 -1.234375 L 1.390625 -1.234375 C 1.484375 -1.234375 1.59375 -1.21875 1.6875 -1.234375 C 2.15625 -1.265625 2.609375 -1.53125 2.6875 -1.953125 C 2.734375 -2.203125 2.640625 -2.40625 2.515625 -2.546875 C 2.34375 -2.75 2.078125 -2.890625 1.765625 -2.9375 C 1.609375 -2.953125 1.46875 -2.9375 1.3125 -2.9375 L 0.453125 -2.9375 Z M 0.765625 -1.46875 L 0.765625 -2.6875 L 1.390625 -2.6875 C 1.765625 -2.6875 2.109375 -2.65625 2.296875 -2.40625 C 2.4375 -2.21875 2.4375 -1.9375 2.296875 -1.75 C 2.234375 -1.6875 2.171875 -1.640625 2.109375 -1.59375 C 1.890625 -1.46875 1.640625 -1.46875 1.40625 -1.46875 L 0.765625 -1.46875 Z M 0.765625 -1.46875 "/>
</symbol>
<symbol overflow="visible" id="glyph2-2">
<path style="stroke:none;" d="M 0.609375 -2.453125 C 0.15625 -1.90625 0.140625 -1.0625 0.59375 -0.515625 C 0.78125 -0.265625 1.03125 -0.078125 1.359375 0.015625 C 2.265625 0.25 3 -0.328125 3.1875 -1 C 3.359375 -1.578125 3.1875 -2.21875 2.75 -2.609375 C 2.53125 -2.8125 2.21875 -2.984375 1.859375 -3 C 1.296875 -3.046875 0.859375 -2.75 0.609375 -2.453125 Z M 2.125 -2.703125 C 2.40625 -2.609375 2.640625 -2.40625 2.796875 -2.140625 C 2.875 -1.984375 2.921875 -1.796875 2.9375 -1.625 C 2.96875 -1.125 2.765625 -0.578125 2.296875 -0.328125 C 2.078125 -0.203125 1.796875 -0.140625 1.515625 -0.21875 C 1.3125 -0.25 1.125 -0.359375 1 -0.484375 C 0.734375 -0.71875 0.609375 -1.078125 0.59375 -1.421875 C 0.546875 -2.03125 0.859375 -2.5 1.296875 -2.671875 C 1.546875 -2.78125 1.84375 -2.796875 2.125 -2.703125 Z M 2.125 -2.703125 "/>
</symbol>
<symbol overflow="visible" id="glyph2-3">
<path style="stroke:none;" d="M 0.265625 -0.5625 C 0.25 -0.515625 0.203125 -0.25 0.21875 -0.234375 C 0.21875 -0.21875 0.234375 -0.203125 0.25 -0.203125 L 0.359375 -0.140625 C 0.75 0.0625 1.4375 0.1875 1.890625 -0.078125 C 2.125 -0.203125 2.34375 -0.46875 2.34375 -0.796875 C 2.34375 -1.234375 2 -1.5 1.703125 -1.59375 C 1.625 -1.625 1.296875 -1.6875 1.25 -1.703125 C 1.03125 -1.75 0.78125 -1.796875 0.640625 -1.984375 C 0.625 -2.015625 0.59375 -2.046875 0.578125 -2.078125 C 0.46875 -2.359375 0.6875 -2.59375 0.9375 -2.6875 C 1.21875 -2.796875 1.5625 -2.765625 1.8125 -2.65625 C 1.890625 -2.625 1.953125 -2.59375 2.015625 -2.546875 C 2.046875 -2.53125 2.09375 -2.5 2.125 -2.46875 C 2.140625 -2.546875 2.15625 -2.625 2.171875 -2.703125 C 2.171875 -2.765625 2.203125 -2.796875 2.140625 -2.8125 L 2.03125 -2.875 C 1.5625 -3.0625 0.9375 -3.078125 0.53125 -2.75 C 0.484375 -2.703125 0.4375 -2.65625 0.390625 -2.59375 C 0.265625 -2.421875 0.203125 -2.15625 0.328125 -1.90625 C 0.4375 -1.703125 0.625 -1.5625 0.84375 -1.484375 C 0.9375 -1.453125 1.03125 -1.4375 1.125 -1.40625 C 1.21875 -1.390625 1.546875 -1.3125 1.609375 -1.296875 C 1.78125 -1.234375 1.9375 -1.125 2.015625 -0.96875 C 2.046875 -0.890625 2.0625 -0.84375 2.0625 -0.734375 C 2.03125 -0.484375 1.8125 -0.296875 1.578125 -0.234375 C 1.203125 -0.125 0.78125 -0.25 0.515625 -0.390625 C 0.421875 -0.4375 0.34375 -0.5 0.265625 -0.5625 Z M 0.265625 -0.5625 "/>
</symbol>
<symbol overflow="visible" id="glyph2-4">
<path style="stroke:none;" d="M 0.453125 -2.9375 L 0.453125 0 L 0.765625 0 L 0.765625 -2.9375 L 0.453125 -2.9375 Z M 0.453125 -2.9375 "/>
</symbol>
<symbol overflow="visible" id="glyph2-5">
<path style="stroke:none;" d="M 0.171875 -2.921875 L 0.171875 -2.671875 L 1.46875 -2.671875 L 1.46875 0 L 1.796875 0 L 1.796875 -2.671875 L 3.09375 -2.671875 L 3.09375 -2.921875 L 0.171875 -2.921875 Z M 0.171875 -2.921875 "/>
</symbol>
<symbol overflow="visible" id="glyph2-6">
<path style="stroke:none;" d="M 0.0625 -2.9375 C 0.09375 -2.859375 0.140625 -2.765625 0.171875 -2.6875 L 1.265625 -0.140625 L 1.328125 -0.03125 C 1.328125 -0.015625 1.328125 0.015625 1.34375 0.015625 C 1.375 0.03125 1.421875 0.03125 1.4375 0.03125 L 1.59375 0.03125 C 1.625 0.03125 1.65625 0.03125 1.6875 0.03125 C 1.703125 0.03125 1.703125 0 1.71875 -0.015625 C 1.734375 -0.0625 1.75 -0.109375 1.78125 -0.140625 C 1.84375 -0.328125 2.96875 -2.90625 2.984375 -2.9375 C 2.875 -2.9375 2.75 -2.9375 2.65625 -2.9375 L 2.640625 -2.875 L 1.53125 -0.3125 L 1.234375 -1.015625 L 0.40625 -2.9375 L 0.0625 -2.9375 Z M 0.0625 -2.9375 "/>
</symbol>
<symbol overflow="visible" id="glyph2-7">
<path style="stroke:none;" d="M 0.4375 -2.9375 L 0.4375 0 L 2.625 0 L 2.625 -0.265625 L 0.765625 -0.265625 L 0.765625 -1.390625 L 2.421875 -1.390625 L 2.421875 -1.640625 L 0.765625 -1.640625 L 0.765625 -2.6875 L 2.5625 -2.6875 L 2.5625 -2.9375 L 0.4375 -2.9375 Z M 0.4375 -2.9375 "/>
</symbol>
<symbol overflow="visible" id="glyph2-8">
<path style="stroke:none;" d="M 2.75 -0.484375 C 2.5 -0.359375 2.359375 -0.234375 2 -0.21875 C 1.875 -0.21875 1.75 -0.21875 1.625 -0.234375 C 1.28125 -0.3125 1 -0.546875 0.828125 -0.84375 C 0.546875 -1.390625 0.6875 -2.125 1.1875 -2.5 C 1.265625 -2.5625 1.359375 -2.609375 1.453125 -2.65625 C 1.734375 -2.75 2.078125 -2.75 2.359375 -2.640625 C 2.46875 -2.59375 2.5625 -2.546875 2.65625 -2.5 C 2.6875 -2.609375 2.703125 -2.71875 2.71875 -2.828125 C 2.625 -2.859375 2.53125 -2.890625 2.4375 -2.90625 C 2.234375 -2.953125 1.9375 -2.984375 1.703125 -2.96875 C 1.265625 -2.9375 0.890625 -2.6875 0.671875 -2.390625 C 0.390625 -2.03125 0.296875 -1.546875 0.40625 -1.109375 C 0.578125 -0.421875 1.15625 0.078125 1.984375 0.03125 C 2.265625 0.015625 2.4375 -0.046875 2.65625 -0.140625 C 2.6875 -0.15625 2.75 -0.1875 2.765625 -0.203125 C 2.78125 -0.234375 2.75 -0.421875 2.75 -0.484375 Z M 2.75 -0.484375 "/>
</symbol>
<symbol overflow="visible" id="glyph2-9">
<path style="stroke:none;" d="M 0.4375 -2.9375 L 0.4375 0 L 0.765625 0 L 0.765625 -1.40625 L 2.421875 -1.40625 L 2.421875 0 L 2.734375 0 L 2.734375 -2.9375 L 2.421875 -2.9375 L 2.421875 -1.65625 L 0.765625 -1.65625 L 0.765625 -2.9375 L 0.4375 -2.9375 Z M 0.4375 -2.9375 "/>
</symbol>
<symbol overflow="visible" id="glyph2-10">
<path style="stroke:none;" d="M 0.125 0 L 0.34375 0 C 0.375 0 0.421875 0.015625 0.4375 -0.015625 C 0.453125 -0.015625 0.453125 -0.046875 0.46875 -0.0625 C 0.53125 -0.21875 0.734375 -0.734375 0.765625 -0.78125 C 0.78125 -0.828125 0.78125 -0.84375 0.828125 -0.84375 L 1.84375 -0.84375 C 1.96875 -0.84375 2.078125 -0.84375 2.1875 -0.84375 C 2.234375 -0.84375 2.25 -0.78125 2.265625 -0.75 C 2.3125 -0.625 2.546875 -0.078125 2.5625 -0.03125 C 2.578125 0.015625 2.609375 0 2.6875 0 L 2.90625 0 C 2.8125 -0.28125 2.6875 -0.546875 2.578125 -0.8125 L 1.703125 -2.9375 C 1.703125 -2.953125 1.703125 -2.984375 1.671875 -2.984375 C 1.65625 -2.984375 1.625 -2.984375 1.59375 -2.984375 L 1.4375 -2.984375 C 1.421875 -2.984375 1.375 -2.984375 1.359375 -2.96875 C 1.34375 -2.96875 1.328125 -2.9375 1.328125 -2.921875 L 0.46875 -0.8125 L 0.25 -0.296875 C 0.21875 -0.203125 0.171875 -0.109375 0.125 0 Z M 1.515625 -2.625 C 1.703125 -2.109375 1.921875 -1.609375 2.125 -1.09375 L 0.890625 -1.09375 C 1.09375 -1.609375 1.3125 -2.109375 1.5 -2.625 L 1.515625 -2.625 Z M 1.515625 -2.625 "/>
</symbol>
<symbol overflow="visible" id="glyph2-11">
<path style="stroke:none;" d="M 0.453125 -2.9375 L 0.453125 0 L 0.765625 0 L 0.765625 -1.34375 L 1.390625 -1.34375 C 1.46875 -1.34375 1.546875 -1.359375 1.609375 -1.34375 C 1.6875 -1.234375 1.765625 -1.125 1.84375 -1.015625 C 2.078125 -0.6875 2.3125 -0.34375 2.5625 -0.015625 C 2.65625 0 2.78125 0 2.890625 0 L 2.71875 -0.234375 L 1.890625 -1.390625 C 1.984375 -1.390625 2.0625 -1.421875 2.140625 -1.453125 C 2.4375 -1.5625 2.78125 -1.8125 2.75 -2.171875 C 2.75 -2.3125 2.703125 -2.390625 2.640625 -2.5 C 2.4375 -2.734375 2.109375 -2.890625 1.75 -2.9375 C 1.59375 -2.9375 1.453125 -2.9375 1.296875 -2.9375 L 0.453125 -2.9375 Z M 0.765625 -1.59375 L 0.765625 -2.6875 L 1.390625 -2.6875 C 1.609375 -2.6875 1.828125 -2.6875 2.03125 -2.625 C 2.234375 -2.5625 2.4375 -2.40625 2.453125 -2.1875 C 2.46875 -2.046875 2.40625 -1.90625 2.3125 -1.8125 C 2.234375 -1.75 2.15625 -1.703125 2.0625 -1.671875 C 1.84375 -1.59375 1.625 -1.59375 1.421875 -1.59375 L 0.765625 -1.59375 Z M 0.765625 -1.59375 "/>
</symbol>
<symbol overflow="visible" id="glyph2-12">
<path style="stroke:none;" d="M 2.828125 -1.390625 L 1.828125 -1.390625 L 1.828125 -1.140625 L 2.515625 -1.140625 L 2.515625 -0.390625 C 2.515625 -0.328125 2.5 -0.3125 2.4375 -0.296875 C 2.21875 -0.234375 1.9375 -0.1875 1.6875 -0.21875 C 1.40625 -0.265625 1.171875 -0.421875 1 -0.59375 C 0.578125 -1.09375 0.578125 -1.875 1.015625 -2.34375 C 1.234375 -2.578125 1.53125 -2.75 1.9375 -2.71875 C 2.125 -2.703125 2.3125 -2.671875 2.484375 -2.59375 C 2.5625 -2.546875 2.640625 -2.484375 2.734375 -2.4375 C 2.75 -2.546875 2.765625 -2.65625 2.78125 -2.765625 C 2.46875 -2.90625 2.25 -2.96875 1.8125 -2.96875 C 1.40625 -2.96875 1.0625 -2.78125 0.84375 -2.578125 C 0.75 -2.5 0.6875 -2.40625 0.625 -2.3125 C 0.28125 -1.8125 0.28125 -1.125 0.609375 -0.625 C 0.78125 -0.390625 1 -0.1875 1.28125 -0.078125 C 1.65625 0.078125 2.078125 0.046875 2.46875 -0.046875 C 2.515625 -0.0625 2.8125 -0.140625 2.8125 -0.1875 C 2.828125 -0.1875 2.828125 -0.21875 2.828125 -0.21875 L 2.828125 -1.390625 Z M 2.828125 -1.390625 "/>
</symbol>
<symbol overflow="visible" id="glyph2-13">
<path style="stroke:none;" d="M 0.453125 -2.9375 L 0.453125 0 L 0.75 0 L 0.75 -2.6875 L 0.75 -2.6875 L 0.875 -2.46875 L 1.828125 -0.796875 C 1.984375 -0.53125 2.125 -0.265625 2.28125 -0.015625 C 2.40625 0.015625 2.578125 -0.015625 2.734375 0 L 2.734375 -2.9375 L 2.4375 -2.9375 L 2.4375 -0.265625 L 1.328125 -2.1875 C 1.1875 -2.4375 1.0625 -2.703125 0.890625 -2.9375 C 0.78125 -2.953125 0.59375 -2.9375 0.453125 -2.9375 Z M 0.453125 -2.9375 "/>
</symbol>
<symbol overflow="visible" id="glyph2-14">
<path style="stroke:none;" d="M 0.453125 -2.9375 L 0.453125 0 L 1.375 0 C 1.75 0 1.953125 0.015625 2.25 -0.125 C 2.65625 -0.3125 2.96875 -0.671875 3.0625 -1.140625 C 3.1875 -1.734375 2.9375 -2.375 2.4375 -2.703125 C 2.25 -2.828125 2.03125 -2.90625 1.828125 -2.9375 C 1.65625 -2.953125 1.484375 -2.9375 1.3125 -2.9375 L 0.453125 -2.9375 Z M 0.765625 -0.25 L 0.765625 -2.6875 L 1.359375 -2.6875 C 1.46875 -2.6875 1.59375 -2.6875 1.703125 -2.6875 C 2 -2.65625 2.25 -2.53125 2.4375 -2.34375 C 2.65625 -2.125 2.75 -1.828125 2.78125 -1.515625 C 2.796875 -1.15625 2.6875 -0.796875 2.40625 -0.546875 C 2.234375 -0.390625 1.984375 -0.28125 1.703125 -0.25 C 1.59375 -0.25 1.484375 -0.25 1.359375 -0.25 L 0.765625 -0.25 Z M 0.765625 -0.25 "/>
</symbol>
<symbol overflow="visible" id="glyph2-15">
<path style="stroke:none;" d="M 0.4375 -2.9375 L 0.4375 0 L 0.765625 0 L 0.765625 -1.34375 L 2.296875 -1.34375 L 2.296875 -1.59375 L 0.765625 -1.59375 L 0.765625 -2.6875 L 2.5 -2.6875 L 2.5 -2.9375 L 0.4375 -2.9375 Z M 0.4375 -2.9375 "/>
</symbol>
<symbol overflow="visible" id="glyph2-16">
<path style="stroke:none;" d="M 0.46875 -2.9375 L 0.46875 0 L 0.75 0 L 0.75 -2.625 L 0.765625 -2.625 C 0.78125 -2.546875 0.828125 -2.46875 0.859375 -2.390625 C 0.90625 -2.25 1.796875 -0.171875 1.828125 -0.125 C 1.84375 -0.078125 1.828125 -0.0625 1.90625 -0.0625 L 2.03125 -0.0625 C 2.0625 -0.0625 2.078125 -0.0625 2.109375 -0.0625 C 2.125 -0.078125 2.125 -0.09375 2.140625 -0.109375 C 2.15625 -0.140625 2.171875 -0.1875 2.1875 -0.21875 L 2.390625 -0.6875 C 2.4375 -0.828125 3.203125 -2.578125 3.21875 -2.625 L 3.21875 -2.625 L 3.21875 0 L 3.515625 0 L 3.515625 -2.9375 C 3.375 -2.9375 3.203125 -2.953125 3.078125 -2.9375 L 3.046875 -2.875 L 1.984375 -0.375 L 1.171875 -2.234375 C 1.078125 -2.46875 0.984375 -2.703125 0.875 -2.9375 C 0.765625 -2.953125 0.59375 -2.9375 0.46875 -2.9375 Z M 0.46875 -2.9375 "/>
</symbol>
<symbol overflow="visible" id="glyph2-17">
<path style="stroke:none;" d="M 0.4375 -2.9375 L 0.4375 0 L 2.359375 0 L 2.359375 -0.25 L 0.765625 -0.25 L 0.765625 -2.9375 L 0.4375 -2.9375 Z M 0.4375 -2.9375 "/>
</symbol>
<symbol overflow="visible" id="glyph2-18">
<path style="stroke:none;" d="M 0.015625 -2.9375 L 1.359375 -1.171875 C 1.375 -0.796875 1.359375 -0.390625 1.359375 0 L 1.671875 0 C 1.6875 -0.390625 1.671875 -0.796875 1.6875 -1.171875 L 1.71875 -1.234375 L 3.03125 -2.9375 C 2.90625 -2.9375 2.78125 -2.9375 2.65625 -2.9375 L 2.625 -2.890625 L 1.8125 -1.84375 C 1.71875 -1.71875 1.625 -1.59375 1.53125 -1.46875 L 1.421875 -1.609375 L 1.265625 -1.828125 C 0.96875 -2.1875 0.703125 -2.578125 0.40625 -2.9375 C 0.296875 -2.953125 0.140625 -2.9375 0.015625 -2.9375 Z M 0.015625 -2.9375 "/>
</symbol>
<symbol overflow="visible" id="glyph2-19">
<path style="stroke:none;" d="M 0.0625 -2.9375 C 0.078125 -2.859375 0.96875 -0.140625 0.96875 -0.140625 C 0.984375 -0.125 1.015625 0.015625 1.03125 0.015625 C 1.046875 0.03125 1.09375 0.03125 1.109375 0.03125 L 1.234375 0.03125 C 1.265625 0.03125 1.28125 0.03125 1.3125 0.03125 C 1.328125 0.03125 1.34375 0 1.34375 -0.015625 C 1.359375 -0.046875 1.53125 -0.59375 1.53125 -0.59375 L 1.953125 -1.890625 C 2 -2.0625 2.140625 -2.46875 2.171875 -2.625 L 2.171875 -2.625 C 2.234375 -2.359375 2.3125 -2.140625 2.390625 -1.890625 C 2.59375 -1.25 2.796875 -0.609375 3 0.015625 C 3.09375 0.03125 3.21875 0.03125 3.3125 0.03125 L 3.34375 -0.015625 L 4.03125 -2.140625 L 4.28125 -2.9375 C 4.1875 -2.9375 4.09375 -2.9375 4.015625 -2.9375 L 3.984375 -2.890625 C 3.71875 -2.03125 3.421875 -1.1875 3.171875 -0.3125 L 3.15625 -0.3125 C 3.15625 -0.390625 3.125 -0.46875 3.09375 -0.546875 L 2.96875 -0.953125 C 2.921875 -1.09375 2.34375 -2.90625 2.328125 -2.921875 C 2.3125 -2.953125 2.265625 -2.9375 2.25 -2.9375 L 2.03125 -2.9375 L 1.453125 -1.140625 C 1.375 -0.859375 1.265625 -0.59375 1.203125 -0.3125 C 1.015625 -0.984375 0.796875 -1.59375 0.59375 -2.25 C 0.515625 -2.46875 0.453125 -2.71875 0.359375 -2.9375 C 0.28125 -2.9375 0.171875 -2.9375 0.0625 -2.9375 Z M 0.0625 -2.9375 "/>
</symbol>
<symbol overflow="visible" id="glyph3-0">
<path style="stroke:none;" d=""/>
</symbol>
<symbol overflow="visible" id="glyph3-1">
<path style="stroke:none;" d="M 2.71875 -2 L 0.6875 -2 C 0.640625 -2 0.578125 -2 0.53125 -2 C 0.453125 -1.96875 0.40625 -1.90625 0.40625 -1.84375 C 0.40625 -1.765625 0.453125 -1.703125 0.53125 -1.6875 C 0.578125 -1.671875 0.640625 -1.671875 0.6875 -1.671875 L 2.71875 -1.671875 L 2.71875 0.359375 C 2.71875 0.40625 2.703125 0.453125 2.71875 0.515625 C 2.75 0.578125 2.8125 0.625 2.875 0.625 C 2.953125 0.625 3.015625 0.578125 3.03125 0.515625 C 3.046875 0.453125 3.03125 0.40625 3.03125 0.359375 L 3.03125 -1.671875 L 5.078125 -1.671875 C 5.125 -1.671875 5.171875 -1.671875 5.21875 -1.6875 C 5.296875 -1.703125 5.34375 -1.765625 5.34375 -1.84375 C 5.34375 -1.90625 5.296875 -1.96875 5.21875 -2 C 5.171875 -2 5.125 -2 5.078125 -2 L 3.03125 -2 L 3.03125 -4.03125 C 3.03125 -4.078125 3.046875 -4.140625 3.03125 -4.1875 C 3.015625 -4.265625 2.953125 -4.3125 2.875 -4.3125 C 2.8125 -4.3125 2.75 -4.265625 2.71875 -4.1875 C 2.703125 -4.140625 2.71875 -4.078125 2.71875 -4.03125 L 2.71875 -2 Z M 2.71875 -2 "/>
</symbol>
<symbol overflow="visible" id="glyph4-0">
<path style="stroke:none;" d=""/>
</symbol>
<symbol overflow="visible" id="glyph4-1">
<path style="stroke:none;" d="M 0.734375 -2 C 0.59375 -1.953125 0.578125 -1.734375 0.71875 -1.6875 C 0.765625 -1.671875 0.8125 -1.671875 0.84375 -1.671875 L 4.78125 -1.671875 C 4.875 -1.671875 5.015625 -1.65625 5.09375 -1.71875 C 5.171875 -1.8125 5.125 -1.96875 5 -2 C 4.921875 -2.015625 4.828125 -2 4.734375 -2 L 0.859375 -2 C 0.828125 -2 0.78125 -2 0.734375 -2 Z M 0.734375 -2 "/>
</symbol>
<symbol overflow="visible" id="glyph5-0">
<path style="stroke:none;" d=""/>
</symbol>
<symbol overflow="visible" id="glyph5-1">
<path style="stroke:none;" d="M 2.3125 -1.703125 L 0.578125 -1.703125 C 0.53125 -1.703125 0.484375 -1.703125 0.453125 -1.6875 C 0.390625 -1.671875 0.34375 -1.625 0.34375 -1.5625 C 0.34375 -1.5 0.390625 -1.453125 0.453125 -1.4375 C 0.484375 -1.421875 0.53125 -1.421875 0.578125 -1.421875 L 2.3125 -1.421875 L 2.3125 0.296875 C 2.3125 0.34375 2.296875 0.390625 2.3125 0.4375 C 2.328125 0.484375 2.390625 0.53125 2.453125 0.53125 C 2.5 0.53125 2.5625 0.484375 2.578125 0.4375 C 2.59375 0.390625 2.578125 0.34375 2.578125 0.296875 L 2.578125 -1.421875 L 4.3125 -1.421875 C 4.359375 -1.421875 4.390625 -1.421875 4.4375 -1.4375 C 4.5 -1.453125 4.53125 -1.5 4.53125 -1.5625 C 4.53125 -1.625 4.5 -1.671875 4.4375 -1.6875 C 4.390625 -1.703125 4.359375 -1.703125 4.3125 -1.703125 L 2.578125 -1.703125 L 2.578125 -3.421875 C 2.578125 -3.46875 2.59375 -3.515625 2.578125 -3.5625 C 2.5625 -3.625 2.5 -3.65625 2.453125 -3.65625 C 2.390625 -3.65625 2.328125 -3.625 2.3125 -3.5625 C 2.296875 -3.515625 2.3125 -3.46875 2.3125 -3.421875 L 2.3125 -1.703125 Z M 2.3125 -1.703125 "/>
</symbol>
<symbol overflow="visible" id="glyph6-0">
<path style="stroke:none;" d=""/>
</symbol>
<symbol overflow="visible" id="glyph6-1">
<path style="stroke:none;" d="M 0.625 -1.6875 C 0.5 -1.65625 0.484375 -1.46875 0.609375 -1.4375 C 0.65625 -1.421875 0.6875 -1.421875 0.71875 -1.421875 L 4.0625 -1.421875 C 4.140625 -1.421875 4.25 -1.40625 4.328125 -1.46875 C 4.40625 -1.546875 4.359375 -1.671875 4.25 -1.6875 C 4.1875 -1.71875 4.09375 -1.703125 4.015625 -1.703125 L 0.734375 -1.703125 C 0.703125 -1.703125 0.65625 -1.703125 0.625 -1.6875 Z M 0.625 -1.6875 "/>
</symbol>
</g>
<clipPath id="clip1">
  <path d="M -185 667 L 427 667 L 427 -125 L -185 -125 L -185 667 Z M -185 667 "/>
</clipPath>
<clipPath id="clip2">
  <path d="M 0.125 191.800781 L 241.125 191.800781 L 241.125 -0.199219 L 0.125 -0.199219 L 0.125 191.800781 Z M 0.125 191.800781 "/>
</clipPath>
<clipPath id="clip3">
  <path d="M 0.605469 191.015625 L 240.644531 191.015625 L 240.644531 0.589844 L 0.605469 0.589844 L 0.605469 191.015625 Z M 0.605469 191.015625 "/>
</clipPath>
<clipPath id="clip4">
  <path d="M -185 667 L 427 667 L 427 -125 L -185 -125 L -185 667 Z M -185 667 "/>
</clipPath>
</defs>
<g id="surface0">
<g clip-path="url(#clip1)" clip-rule="nonzero">
<g clip-path="url(#clip2)" clip-rule="nonzero">
<g clip-path="url(#clip3)" clip-rule="nonzero">
<path style="fill:none;stroke-width:3.8;stroke-linecap:butt;stroke-linejoin:round;stroke:rgb(0%,0%,0%);stroke-opacity:1;stroke-miterlimit:4;" d="M 470.986563 1470.012188 C 470.986563 1470.012188 790.713125 1414.035625 684.150625 1400.36375 C 684.150625 1400.36375 613.994375 1401.730938 866.26 1319.816875 " transform="matrix(0.1,0,0,-0.1,0.124,191.802)"/>
<path style=" stroke:none;fill-rule:nonzero;fill:rgb(0%,0%,0%);fill-opacity:1;" d="M 85.898438 60.484375 L 89.347656 60.652344 L 86.445313 58.761719 L 85.898438 60.484375 "/>
<path style="fill:none;stroke-width:3.8;stroke-linecap:butt;stroke-linejoin:round;stroke:rgb(0%,0%,0%);stroke-opacity:1;stroke-miterlimit:4;" d="M 404.892813 1093.059063 C 404.892813 1093.059063 613.994375 1087.629375 560.01 1064.387188 C 551.689687 1058.762188 528.213125 1044.855938 528.213125 1033.293438 C 528.213125 1016.652813 570.400625 1019.777813 579.85375 1019.934063 C 668.408437 1021.61375 757.158437 1022.043438 846.025625 1022.043438 " transform="matrix(0.1,0,0,-0.1,0.124,191.802)"/>
<path style=" stroke:none;fill-rule:nonzero;fill:rgb(0%,0%,0%);fill-opacity:1;" d="M 84.117188 90.492188 L 87.449219 89.585938 L 84.117188 88.683594 L 84.117188 90.492188 "/>
<path style="fill:none;stroke-width:3.8;stroke-linecap:butt;stroke-linejoin:round;stroke:rgb(0%,0%,0%);stroke-opacity:1;stroke-miterlimit:4;" d="M 406.689688 337.785625 C 418.525625 343.02 430.244375 348.645 442.744375 352.121563 C 445.556875 352.941875 457.1975 357.277813 459.658438 354.191875 C 464.345938 348.3325 438.60375 335.715313 447.04125 329.543438 C 458.486563 321.145 482.861563 344.074688 491.338125 349.934063 C 514.385 365.871563 539.463125 379.230938 563.135 394.230938 " transform="matrix(0.1,0,0,-0.1,0.124,191.802)"/>
<path style=" stroke:none;fill-rule:nonzero;fill:rgb(0%,0%,0%);fill-opacity:1;" d="M 56.394531 153.460938 L 58.746094 150.902344 L 55.445313 151.929688 L 56.394531 153.460938 "/>
<path style="fill:none;stroke-width:2.835;stroke-linecap:butt;stroke-linejoin:round;stroke:rgb(0%,0%,0%);stroke-opacity:1;stroke-dasharray:30,20;stroke-miterlimit:4;" d="M 461.10375 435.012188 C 461.10375 435.012188 446.26 293.17625 314.931875 100.129375 " transform="matrix(0.1,0,0,-0.1,0.124,191.802)"/>
<path style="fill:none;stroke-width:2.835;stroke-linecap:butt;stroke-linejoin:round;stroke:rgb(0%,0%,0%);stroke-opacity:1;stroke-dasharray:30,20;stroke-miterlimit:4;" d="M 608.174062 411.105938 C 608.174062 411.105938 557.783437 193.527813 491.220938 101.965313 " transform="matrix(0.1,0,0,-0.1,0.124,191.802)"/>
<path style="fill:none;stroke-width:2.835;stroke-linecap:butt;stroke-linejoin:round;stroke:rgb(0%,0%,0%);stroke-opacity:1;stroke-dasharray:30,20;stroke-miterlimit:4;" d="M 734.619375 423.059063 C 734.619375 423.059063 654.931875 174.816875 602.744375 98.3325 " transform="matrix(0.1,0,0,-0.1,0.124,191.802)"/>
<path style="fill:none;stroke-width:2.835;stroke-linecap:butt;stroke-linejoin:round;stroke:rgb(0%,0%,0%);stroke-opacity:1;stroke-dasharray:30,20;stroke-miterlimit:4;" d="M 815.635 425.8325 C 815.635 425.8325 741.26 186.223125 676.494375 98.3325 " transform="matrix(0.1,0,0,-0.1,0.124,191.802)"/>
<path style="fill:none;stroke-width:2.835;stroke-linecap:butt;stroke-linejoin:round;stroke:rgb(0%,0%,0%);stroke-opacity:1;stroke-dasharray:30,20;stroke-miterlimit:4;" d="M 871.220937 400.871563 C 871.220937 400.871563 804.189687 182.590313 773.60375 96.535625 " transform="matrix(0.1,0,0,-0.1,0.124,191.802)"/>
<path style="fill:none;stroke-width:2.835;stroke-linecap:butt;stroke-linejoin:round;stroke:rgb(0%,0%,0%);stroke-opacity:1;stroke-dasharray:30,20;stroke-miterlimit:4;" d="M 898.642812 391.145 C 898.642812 391.145 881.533437 178.449688 843.799062 102.004375 " transform="matrix(0.1,0,0,-0.1,0.124,191.802)"/>
<path style="fill:none;stroke-width:2.835;stroke-linecap:butt;stroke-linejoin:round;stroke:rgb(0%,0%,0%);stroke-opacity:1;stroke-dasharray:30,20;stroke-miterlimit:4;" d="M 936.10375 383.645 C 936.10375 383.645 908.525625 174.816875 890.556875 98.3325 " transform="matrix(0.1,0,0,-0.1,0.124,191.802)"/>
<path style="fill:none;stroke-width:2.835;stroke-linecap:butt;stroke-linejoin:round;stroke:rgb(0%,0%,0%);stroke-opacity:1;stroke-dasharray:30,20;stroke-miterlimit:4;" d="M 952.627187 358.996563 C 949.111562 303.527813 939.033437 161.4575 924.736562 101.965313 " transform="matrix(0.1,0,0,-0.1,0.124,191.802)"/>
<path style="fill:none;stroke-width:2.835;stroke-linecap:butt;stroke-linejoin:round;stroke:rgb(0%,0%,0%);stroke-opacity:1;stroke-dasharray:30,20;stroke-miterlimit:4;" d="M 972.861562 380.598125 C 972.861562 380.598125 968.369375 243.566875 960.674062 94.660625 " transform="matrix(0.1,0,0,-0.1,0.124,191.802)"/>
<path style="fill:none;stroke-width:2.835;stroke-linecap:butt;stroke-linejoin:round;stroke:rgb(0%,0%,0%);stroke-opacity:1;stroke-dasharray:30,20;stroke-miterlimit:4;" d="M 995.244375 312.473125 C 992.705312 237.395 989.033437 124.309063 989.033437 100.168438 " transform="matrix(0.1,0,0,-0.1,0.124,191.802)"/>
<path style="fill:none;stroke-width:5;stroke-linecap:butt;stroke-linejoin:round;stroke:rgb(0%,0%,0%);stroke-opacity:1;stroke-dasharray:30,20;stroke-miterlimit:4;" d="M 1045.400625 106.30125 L 1045.439688 99.42625 " transform="matrix(0.1,0,0,-0.1,0.124,191.802)"/>
<path style="fill:none;stroke-width:2.835;stroke-linecap:butt;stroke-linejoin:round;stroke:rgb(0%,0%,0%);stroke-opacity:1;stroke-dasharray:30,20;stroke-miterlimit:4;" d="M 1020.127188 369.191875 L 1022.002188 106.30125 " transform="matrix(0.1,0,0,-0.1,0.124,191.802)"/>
<path style="fill:none;stroke-width:2.835;stroke-linecap:butt;stroke-linejoin:round;stroke:rgb(0%,0%,0%);stroke-opacity:1;stroke-dasharray:30,20;stroke-miterlimit:4;" d="M 1051.767813 365.793438 L 1056.494375 98.762188 " transform="matrix(0.1,0,0,-0.1,0.124,191.802)"/>
<path style="fill:none;stroke-width:2.835;stroke-linecap:butt;stroke-linejoin:round;stroke:rgb(0%,0%,0%);stroke-opacity:1;stroke-dasharray:30,20;stroke-miterlimit:4;" d="M 1083.564688 383.80125 L 1103.369375 104.5825 " transform="matrix(0.1,0,0,-0.1,0.124,191.802)"/>
<path style="fill:none;stroke-width:2.835;stroke-linecap:butt;stroke-linejoin:round;stroke:rgb(0%,0%,0%);stroke-opacity:1;stroke-dasharray:30,20;stroke-miterlimit:4;" d="M 1109.775625 380.793438 L 1165.752188 91.965313 " transform="matrix(0.1,0,0,-0.1,0.124,191.802)"/>
<path style="fill:none;stroke-width:2.835;stroke-linecap:butt;stroke-linejoin:round;stroke:rgb(0%,0%,0%);stroke-opacity:1;stroke-dasharray:30,20;stroke-miterlimit:4;" d="M 1137.158438 430.598125 L 1225.088125 101.535625 " transform="matrix(0.1,0,0,-0.1,0.124,191.802)"/>
<path style="fill:none;stroke-width:5;stroke-linecap:butt;stroke-linejoin:round;stroke:rgb(0%,0%,0%);stroke-opacity:1;stroke-miterlimit:4;" d="M 279.6975 98.3325 L 214.85375 34.11375 " transform="matrix(0.1,0,0,-0.1,0.124,191.802)"/>
<path style="fill:none;stroke-width:5;stroke-linecap:butt;stroke-linejoin:round;stroke:rgb(0%,0%,0%);stroke-opacity:1;stroke-miterlimit:4;" d="M 251.767813 98.3325 L 186.885 34.11375 " transform="matrix(0.1,0,0,-0.1,0.124,191.802)"/>
<path style="fill:none;stroke-width:5;stroke-linecap:butt;stroke-linejoin:round;stroke:rgb(0%,0%,0%);stroke-opacity:1;stroke-miterlimit:4;" d="M 223.838125 98.3325 L 158.955313 34.11375 " transform="matrix(0.1,0,0,-0.1,0.124,191.802)"/>
<path style="fill:none;stroke-width:5;stroke-linecap:butt;stroke-linejoin:round;stroke:rgb(0%,0%,0%);stroke-opacity:1;stroke-miterlimit:4;" d="M 195.869375 98.3325 L 130.986563 34.11375 " transform="matrix(0.1,0,0,-0.1,0.124,191.802)"/>
<path style="fill:none;stroke-width:5;stroke-linecap:butt;stroke-linejoin:round;stroke:rgb(0%,0%,0%);stroke-opacity:1;stroke-miterlimit:4;" d="M 66.26 73.723125 L 139.85375 73.723125 " transform="matrix(0.1,0,0,-0.1,0.124,191.802)"/>
<path style="fill:none;stroke-width:5;stroke-linecap:butt;stroke-linejoin:round;stroke:rgb(0%,0%,0%);stroke-opacity:1;stroke-miterlimit:4;" d="M 48.76 54.152813 L 122.35375 54.152813 " transform="matrix(0.1,0,0,-0.1,0.124,191.802)"/>
<path style="fill:none;stroke-width:4.25;stroke-linecap:butt;stroke-linejoin:round;stroke:rgb(0%,0%,0%);stroke-opacity:1;stroke-miterlimit:4;" d="M 42.314688 34.5825 L 104.892813 34.5825 " transform="matrix(0.1,0,0,-0.1,0.124,191.802)"/>
<path style="fill:none;stroke-width:5;stroke-linecap:butt;stroke-linejoin:round;stroke:rgb(0%,0%,0%);stroke-opacity:1;stroke-miterlimit:4;" d="M 512.8225 98.3325 L 447.97875 34.11375 " transform="matrix(0.1,0,0,-0.1,0.124,191.802)"/>
<path style="fill:none;stroke-width:5;stroke-linecap:butt;stroke-linejoin:round;stroke:rgb(0%,0%,0%);stroke-opacity:1;stroke-miterlimit:4;" d="M 484.892813 98.3325 L 420.01 34.11375 " transform="matrix(0.1,0,0,-0.1,0.124,191.802)"/>
<path style="fill:none;stroke-width:5;stroke-linecap:butt;stroke-linejoin:round;stroke:rgb(0%,0%,0%);stroke-opacity:1;stroke-miterlimit:4;" d="M 456.924063 98.3325 L 392.080313 34.11375 " transform="matrix(0.1,0,0,-0.1,0.124,191.802)"/>
<path style="fill:none;stroke-width:5;stroke-linecap:butt;stroke-linejoin:round;stroke:rgb(0%,0%,0%);stroke-opacity:1;stroke-miterlimit:4;" d="M 428.994375 98.3325 L 364.111563 34.11375 " transform="matrix(0.1,0,0,-0.1,0.124,191.802)"/>
<path style="fill:none;stroke-width:5;stroke-linecap:butt;stroke-linejoin:round;stroke:rgb(0%,0%,0%);stroke-opacity:1;stroke-miterlimit:4;" d="M 299.385 73.723125 L 372.97875 73.723125 " transform="matrix(0.1,0,0,-0.1,0.124,191.802)"/>
<path style="fill:none;stroke-width:5;stroke-linecap:butt;stroke-linejoin:round;stroke:rgb(0%,0%,0%);stroke-opacity:1;stroke-miterlimit:4;" d="M 281.885 54.152813 L 355.517813 54.152813 " transform="matrix(0.1,0,0,-0.1,0.124,191.802)"/>
<path style="fill:none;stroke-width:4.25;stroke-linecap:butt;stroke-linejoin:round;stroke:rgb(0%,0%,0%);stroke-opacity:1;stroke-miterlimit:4;" d="M 275.47875 34.5825 L 338.017813 34.5825 " transform="matrix(0.1,0,0,-0.1,0.124,191.802)"/>
<path style="fill:none;stroke-width:5;stroke-linecap:butt;stroke-linejoin:round;stroke:rgb(0%,0%,0%);stroke-opacity:1;stroke-miterlimit:4;" d="M 742.861562 98.3325 L 678.017812 34.11375 " transform="matrix(0.1,0,0,-0.1,0.124,191.802)"/>
<path style="fill:none;stroke-width:5;stroke-linecap:butt;stroke-linejoin:round;stroke:rgb(0%,0%,0%);stroke-opacity:1;stroke-miterlimit:4;" d="M 714.892812 98.3325 L 650.049062 34.11375 " transform="matrix(0.1,0,0,-0.1,0.124,191.802)"/>
<path style="fill:none;stroke-width:5;stroke-linecap:butt;stroke-linejoin:round;stroke:rgb(0%,0%,0%);stroke-opacity:1;stroke-miterlimit:4;" d="M 686.963125 98.3325 L 622.119375 34.11375 " transform="matrix(0.1,0,0,-0.1,0.124,191.802)"/>
<path style="fill:none;stroke-width:5;stroke-linecap:butt;stroke-linejoin:round;stroke:rgb(0%,0%,0%);stroke-opacity:1;stroke-miterlimit:4;" d="M 658.994375 98.3325 L 594.150625 34.11375 " transform="matrix(0.1,0,0,-0.1,0.124,191.802)"/>
<path style="fill:none;stroke-width:5;stroke-linecap:butt;stroke-linejoin:round;stroke:rgb(0%,0%,0%);stroke-opacity:1;stroke-miterlimit:4;" d="M 972.705312 98.3325 L 907.861562 34.11375 " transform="matrix(0.1,0,0,-0.1,0.124,191.802)"/>
<path style="fill:none;stroke-width:5;stroke-linecap:butt;stroke-linejoin:round;stroke:rgb(0%,0%,0%);stroke-opacity:1;stroke-miterlimit:4;" d="M 944.775625 98.3325 L 879.892812 34.11375 " transform="matrix(0.1,0,0,-0.1,0.124,191.802)"/>
<path style="fill:none;stroke-width:5;stroke-linecap:butt;stroke-linejoin:round;stroke:rgb(0%,0%,0%);stroke-opacity:1;stroke-miterlimit:4;" d="M 916.806875 98.3325 L 851.963125 34.11375 " transform="matrix(0.1,0,0,-0.1,0.124,191.802)"/>
<path style="fill:none;stroke-width:5;stroke-linecap:butt;stroke-linejoin:round;stroke:rgb(0%,0%,0%);stroke-opacity:1;stroke-miterlimit:4;" d="M 888.877187 98.3325 L 823.994375 34.11375 " transform="matrix(0.1,0,0,-0.1,0.124,191.802)"/>
<path style="fill:none;stroke-width:5;stroke-linecap:butt;stroke-linejoin:round;stroke:rgb(0%,0%,0%);stroke-opacity:1;stroke-miterlimit:4;" d="M 1202.627188 98.3325 L 1137.783438 34.11375 " transform="matrix(0.1,0,0,-0.1,0.124,191.802)"/>
<path style="fill:none;stroke-width:5;stroke-linecap:butt;stroke-linejoin:round;stroke:rgb(0%,0%,0%);stroke-opacity:1;stroke-miterlimit:4;" d="M 1174.6975 98.3325 L 1109.814688 34.11375 " transform="matrix(0.1,0,0,-0.1,0.124,191.802)"/>
<path style="fill:none;stroke-width:5;stroke-linecap:butt;stroke-linejoin:round;stroke:rgb(0%,0%,0%);stroke-opacity:1;stroke-miterlimit:4;" d="M 1146.767813 98.3325 L 1081.885 34.11375 " transform="matrix(0.1,0,0,-0.1,0.124,191.802)"/>
<path style="fill:none;stroke-width:5;stroke-linecap:butt;stroke-linejoin:round;stroke:rgb(0%,0%,0%);stroke-opacity:1;stroke-miterlimit:4;" d="M 1118.799063 98.3325 L 1053.91625 34.11375 " transform="matrix(0.1,0,0,-0.1,0.124,191.802)"/>
<path style="fill:none;stroke-width:5;stroke-linecap:butt;stroke-linejoin:round;stroke:rgb(0%,0%,0%);stroke-opacity:1;stroke-miterlimit:4;" d="M 516.142812 73.723125 L 589.736562 73.723125 " transform="matrix(0.1,0,0,-0.1,0.124,191.802)"/>
<path style="fill:none;stroke-width:5;stroke-linecap:butt;stroke-linejoin:round;stroke:rgb(0%,0%,0%);stroke-opacity:1;stroke-miterlimit:4;" d="M 498.642813 54.152813 L 572.236562 54.152813 " transform="matrix(0.1,0,0,-0.1,0.124,191.802)"/>
<path style="fill:none;stroke-width:4.25;stroke-linecap:butt;stroke-linejoin:round;stroke:rgb(0%,0%,0%);stroke-opacity:1;stroke-miterlimit:4;" d="M 492.236563 34.5825 L 554.775625 34.5825 " transform="matrix(0.1,0,0,-0.1,0.124,191.802)"/>
<path style="fill:none;stroke-width:5;stroke-linecap:butt;stroke-linejoin:round;stroke:rgb(0%,0%,0%);stroke-opacity:1;stroke-miterlimit:4;" d="M 744.6975 73.723125 L 818.29125 73.723125 " transform="matrix(0.1,0,0,-0.1,0.124,191.802)"/>
<path style="fill:none;stroke-width:5;stroke-linecap:butt;stroke-linejoin:round;stroke:rgb(0%,0%,0%);stroke-opacity:1;stroke-miterlimit:4;" d="M 727.1975 54.152813 L 800.830312 54.152813 " transform="matrix(0.1,0,0,-0.1,0.124,191.802)"/>
<path style="fill:none;stroke-width:4.25;stroke-linecap:butt;stroke-linejoin:round;stroke:rgb(0%,0%,0%);stroke-opacity:1;stroke-miterlimit:4;" d="M 720.752187 34.5825 L 783.330312 34.5825 " transform="matrix(0.1,0,0,-0.1,0.124,191.802)"/>
<path style="fill:none;stroke-width:5;stroke-linecap:butt;stroke-linejoin:round;stroke:rgb(0%,0%,0%);stroke-opacity:1;stroke-miterlimit:4;" d="M 984.111562 73.723125 L 1057.705313 73.723125 " transform="matrix(0.1,0,0,-0.1,0.124,191.802)"/>
<path style="fill:none;stroke-width:5;stroke-linecap:butt;stroke-linejoin:round;stroke:rgb(0%,0%,0%);stroke-opacity:1;stroke-miterlimit:4;" d="M 966.611562 54.152813 L 1040.244375 54.152813 " transform="matrix(0.1,0,0,-0.1,0.124,191.802)"/>
<path style="fill:none;stroke-width:4.25;stroke-linecap:butt;stroke-linejoin:round;stroke:rgb(0%,0%,0%);stroke-opacity:1;stroke-miterlimit:4;" d="M 960.16625 34.5825 L 1022.744375 34.5825 " transform="matrix(0.1,0,0,-0.1,0.124,191.802)"/>
<path style="fill:none;stroke-width:5;stroke-linecap:butt;stroke-linejoin:round;stroke:rgb(0%,0%,0%);stroke-opacity:1;stroke-miterlimit:4;" d="M 1211.963125 73.723125 L 1285.556875 73.723125 " transform="matrix(0.1,0,0,-0.1,0.124,191.802)"/>
<path style="fill:none;stroke-width:5;stroke-linecap:butt;stroke-linejoin:round;stroke:rgb(0%,0%,0%);stroke-opacity:1;stroke-miterlimit:4;" d="M 1194.463125 54.152813 L 1268.056875 54.152813 " transform="matrix(0.1,0,0,-0.1,0.124,191.802)"/>
<path style="fill:none;stroke-width:4.25;stroke-linecap:butt;stroke-linejoin:round;stroke:rgb(0%,0%,0%);stroke-opacity:1;stroke-miterlimit:4;" d="M 1188.017813 34.5825 L 1250.595938 34.5825 " transform="matrix(0.1,0,0,-0.1,0.124,191.802)"/>
<path style="fill:none;stroke-width:4.981;stroke-linecap:butt;stroke-linejoin:miter;stroke:rgb(0%,0%,0%);stroke-opacity:1;stroke-miterlimit:4;" d="M 2402.627188 10.402813 L 7.35375 10.402813 L 7.35375 1909.621563 L 2402.627188 1909.621563 L 2402.627188 10.402813 Z M 2402.627188 10.402813 " transform="matrix(0.1,0,0,-0.1,0.124,191.802)"/>
<path style="fill:none;stroke-width:5.01;stroke-linecap:butt;stroke-linejoin:miter;stroke:rgb(0%,0%,0%);stroke-opacity:1;stroke-miterlimit:4;" d="M 2099.306875 1287.434063 L 2191.025625 1287.434063 " transform="matrix(0.1,0,0,-0.1,0.124,191.802)"/>
<path style="fill:none;stroke-width:5.01;stroke-linecap:butt;stroke-linejoin:miter;stroke:rgb(0%,0%,0%);stroke-opacity:1;stroke-miterlimit:4;" d="M 7.35375 1287.434063 L 2099.306875 1287.434063 " transform="matrix(0.1,0,0,-0.1,0.124,191.802)"/>
<path style="fill:none;stroke-width:5.039;stroke-linecap:butt;stroke-linejoin:miter;stroke:rgb(0%,0%,0%);stroke-opacity:1;stroke-miterlimit:4;" d="M 7.35375 930.52 L 2216.220938 930.52 " transform="matrix(0.1,0,0,-0.1,0.124,191.802)"/>
<path style="fill:none;stroke-width:5.01;stroke-linecap:butt;stroke-linejoin:round;stroke:rgb(0%,0%,0%);stroke-opacity:1;stroke-miterlimit:4;" d="M 522.236562 1782.785625 C 522.236562 1782.785625 527.627187 1881.105938 636.924062 1857.902813 C 636.924062 1857.902813 647.705312 1854.191875 711.10375 1857.902813 C 798.095937 1862.980938 880.283437 1836.574688 966.10375 1855.168438 C 966.10375 1855.168438 1243.994375 1883.879375 1266.924063 1845.637188 C 1266.924063 1845.637188 1341.10375 1862.004375 1432.861563 1862.004375 C 1461.845938 1862.004375 1490.908438 1862.434063 1519.775625 1864.934063 C 1578.252188 1869.973125 1642.744375 1866.262188 1697.275625 1841.535625 C 1697.275625 1841.535625 1793.056875 1845.637188 1884.775625 1806.027813 C 1884.775625 1806.027813 1948.213125 1834.699688 1988.681875 1778.684063 C 1988.681875 1778.684063 2002.158438 1725.441875 1961.689688 1707.668438 C 1961.689688 1707.668438 1918.525625 1627.0825 1795.752188 1573.80125 C 1795.752188 1573.80125 1691.885 1493.215313 1596.10375 1470.012188 C 1596.10375 1470.012188 1598.799063 1486.379375 1598.799063 1486.418438 C 1593.330313 1453.098125 1552.470938 1444.230938 1526.767813 1432.941875 C 1491.5725 1417.512188 1467.392813 1397.668438 1426.10375 1397.668438 C 1426.10375 1397.668438 1432.861563 1383.996563 1403.174063 1375.793438 L 1324.931875 1306.145 C 1324.931875 1306.145 1325.635 1279.504375 1316.845938 1270.637188 C 1316.845938 1270.637188 1306.064688 1185.949688 1266.963125 1177.746563 C 1266.533438 1164.11375 1265.556875 1150.36375 1263.135 1136.92625 C 1261.72875 1128.996563 1257.236563 1120.793438 1256.181875 1113.17625 C 1254.892813 1104.035625 1260.986563 1096.691875 1262.236563 1085.8325 C 1263.799063 1072.316875 1261.142813 1058.215313 1257.470938 1045.285625 C 1260.713125 1028.645 1265.361563 1010.8325 1273.838125 996.145 C 1287.66625 972.199688 1291.220938 948.293438 1291.220938 919.621563 C 1291.220938 919.621563 1292.588125 900.480938 1343.838125 877.277813 C 1343.838125 877.277813 1370.16625 835.598125 1385.674063 819.895 C 1385.674063 819.895 1376.220938 822.629375 1432.861563 804.895 C 1489.54125 787.121563 1488.174063 758.410625 1488.174063 728.410625 C 1488.174063 728.410625 1619.033438 750.246563 1544.85375 587.746563 C 1544.85375 587.746563 1590.713125 410.2075 1426.10375 463.449688 C 1426.10375 463.449688 1427.470938 468.918438 1397.783438 438.840313 C 1397.783438 438.840313 1330.3225 406.105938 1234.54125 444.309063 C 1234.54125 444.309063 1186.689688 421.77 1168.4475 440.246563 C 1168.4475 440.246563 1144.150625 449.816875 1109.0725 400.637188 C 1109.0725 400.637188 1095.595938 371.965313 1032.1975 384.230938 C 1023.330313 385.949688 1007.705313 381.30125 997.627187 380.8325 C 983.095937 380.168438 968.525625 380.441875 954.033437 381.691875 C 926.26 384.11375 896.72875 389.309063 871.220937 400.910625 C 845.088125 412.785625 818.60375 424.699688 792.080312 436.145 C 792.080312 436.145 566.806875 371.965313 491.26 448.449688 C 491.26 448.449688 292.939688 343.293438 264.619375 503.059063 C 264.619375 503.059063 257.861563 553.605938 318.564688 632.824688 C 312.04125 646.379375 321.533438 663.059063 328.799063 674.191875 C 358.135 719.191875 405.908438 746.535625 449.424063 774.895 C 449.424063 774.895 448.095938 811.730938 465.595938 817.199688 C 452.35375 813.059063 420.3225 855.090313 415.088125 863.293438 C 403.135 882.004375 396.845938 903.684063 396.611563 925.949688 C 395.830313 992.121563 444.619375 1063.840313 507.431875 1086.262188 C 507.431875 1086.262188 513.525625 1127.902813 520.9475 1135.441875 C 520.439687 1134.973125 500.595938 1169.5825 499.502188 1172.121563 C 495.3225 1182.121563 491.338125 1193.527813 492.158438 1204.5825 C 492.744375 1212.980938 500.908438 1222.199688 499.931875 1230.324688 C 499.111563 1237.473125 489.306875 1245.324688 484.502188 1250.168438 C 474.111563 1260.715313 473.369375 1279.543438 473.564688 1293.293438 C 473.91625 1317.434063 479.931875 1341.496563 487.04125 1364.348125 C 492.588125 1382.277813 499.306875 1399.855938 506.5725 1417.121563 C 524.736562 1460.246563 561.064687 1496.262188 496.650625 1515.129375 C 496.650625 1515.129375 385.361563 1530.8325 375.244375 1636.691875 C 375.244375 1636.691875 390.088125 1773.254375 522.275625 1782.824688 L 522.275625 1782.785625 L 522.236562 1782.785625 Z M 522.236562 1782.785625 " transform="matrix(0.1,0,0,-0.1,0.124,191.802)"/>
<path style="fill:none;stroke-width:3.8;stroke-linecap:butt;stroke-linejoin:round;stroke:rgb(0%,0%,0%);stroke-opacity:1;stroke-miterlimit:4;" d="M 1469.931875 333.605938 C 1434.736563 340.637188 1399.619375 348.098125 1364.658438 356.223125 C 1335.79125 362.941875 1306.220938 369.387188 1278.4475 379.934063 C 1274.775625 381.340313 1261.72875 384.855938 1260.400625 389.621563 C 1257.470938 400.402813 1294.463125 394.387188 1301.845938 397.043438 C 1316.963125 402.55125 1282.119375 412.512188 1275.752188 414.777813 C 1260.049063 420.402813 1244.306875 426.027813 1228.525625 431.652813 C 1203.095938 440.715313 1177.66625 449.816875 1152.236563 458.918438 " transform="matrix(0.1,0,0,-0.1,0.124,191.802)"/>
<path style=" stroke:none;fill-rule:nonzero;fill:rgb(0%,0%,0%);fill-opacity:1;" d="M 116.21875 145.273438 L 112.777344 145.003906 L 115.625 146.984375 L 116.21875 145.277344 "/>
<path style="fill:none;stroke-width:5.102;stroke-linecap:butt;stroke-linejoin:round;stroke:rgb(0%,0%,0%);stroke-opacity:1;stroke-miterlimit:4;" d="M 2402.627188 10.402813 L 7.35375 10.402813 L 7.35375 98.3325 L 2402.627188 98.3325 L 2402.627188 10.402813 Z M 2402.627188 10.402813 " transform="matrix(0.1,0,0,-0.1,0.124,191.802)"/>
<path style="fill:none;stroke-width:5;stroke-linecap:butt;stroke-linejoin:round;stroke:rgb(0%,0%,0%);stroke-opacity:1;stroke-miterlimit:4;" d="M 1434.931875 98.3325 L 1370.088125 34.11375 " transform="matrix(0.1,0,0,-0.1,0.124,191.802)"/>
<path style="fill:none;stroke-width:5;stroke-linecap:butt;stroke-linejoin:round;stroke:rgb(0%,0%,0%);stroke-opacity:1;stroke-miterlimit:4;" d="M 1406.963125 98.3325 L 1342.119375 34.11375 " transform="matrix(0.1,0,0,-0.1,0.124,191.802)"/>
<path style="fill:none;stroke-width:5;stroke-linecap:butt;stroke-linejoin:round;stroke:rgb(0%,0%,0%);stroke-opacity:1;stroke-miterlimit:4;" d="M 1379.033438 98.3325 L 1314.189688 34.11375 " transform="matrix(0.1,0,0,-0.1,0.124,191.802)"/>
<path style="fill:none;stroke-width:5;stroke-linecap:butt;stroke-linejoin:round;stroke:rgb(0%,0%,0%);stroke-opacity:1;stroke-miterlimit:4;" d="M 1351.064688 98.3325 L 1286.220938 34.11375 " transform="matrix(0.1,0,0,-0.1,0.124,191.802)"/>
<path style="fill:none;stroke-width:5;stroke-linecap:butt;stroke-linejoin:round;stroke:rgb(0%,0%,0%);stroke-opacity:1;stroke-miterlimit:4;" d="M 1673.135 98.3325 L 1608.29125 34.11375 " transform="matrix(0.1,0,0,-0.1,0.124,191.802)"/>
<path style="fill:none;stroke-width:5;stroke-linecap:butt;stroke-linejoin:round;stroke:rgb(0%,0%,0%);stroke-opacity:1;stroke-miterlimit:4;" d="M 1645.205313 98.3325 L 1580.361563 34.11375 " transform="matrix(0.1,0,0,-0.1,0.124,191.802)"/>
<path style="fill:none;stroke-width:5;stroke-linecap:butt;stroke-linejoin:round;stroke:rgb(0%,0%,0%);stroke-opacity:1;stroke-miterlimit:4;" d="M 1617.275625 98.3325 L 1552.392813 34.11375 " transform="matrix(0.1,0,0,-0.1,0.124,191.802)"/>
<path style="fill:none;stroke-width:5;stroke-linecap:butt;stroke-linejoin:round;stroke:rgb(0%,0%,0%);stroke-opacity:1;stroke-miterlimit:4;" d="M 1589.306875 98.3325 L 1524.424063 34.11375 " transform="matrix(0.1,0,0,-0.1,0.124,191.802)"/>
<path style="fill:none;stroke-width:5;stroke-linecap:butt;stroke-linejoin:round;stroke:rgb(0%,0%,0%);stroke-opacity:1;stroke-miterlimit:4;" d="M 1450.205313 73.723125 L 1523.799063 73.723125 " transform="matrix(0.1,0,0,-0.1,0.124,191.802)"/>
<path style="fill:none;stroke-width:5;stroke-linecap:butt;stroke-linejoin:round;stroke:rgb(0%,0%,0%);stroke-opacity:1;stroke-miterlimit:4;" d="M 1432.705313 54.152813 L 1506.299063 54.152813 " transform="matrix(0.1,0,0,-0.1,0.124,191.802)"/>
<path style="fill:none;stroke-width:4.25;stroke-linecap:butt;stroke-linejoin:round;stroke:rgb(0%,0%,0%);stroke-opacity:1;stroke-miterlimit:4;" d="M 1426.26 34.5825 L 1488.838125 34.5825 " transform="matrix(0.1,0,0,-0.1,0.124,191.802)"/>
<path style="fill:none;stroke-width:5;stroke-linecap:butt;stroke-linejoin:round;stroke:rgb(0%,0%,0%);stroke-opacity:1;stroke-miterlimit:4;" d="M 1902.04125 98.3325 L 1837.1975 34.11375 " transform="matrix(0.1,0,0,-0.1,0.124,191.802)"/>
<path style="fill:none;stroke-width:5;stroke-linecap:butt;stroke-linejoin:round;stroke:rgb(0%,0%,0%);stroke-opacity:1;stroke-miterlimit:4;" d="M 1874.0725 98.3325 L 1809.267813 34.11375 " transform="matrix(0.1,0,0,-0.1,0.124,191.802)"/>
<path style="fill:none;stroke-width:5;stroke-linecap:butt;stroke-linejoin:round;stroke:rgb(0%,0%,0%);stroke-opacity:1;stroke-miterlimit:4;" d="M 1846.142813 98.3325 L 1781.299063 34.11375 " transform="matrix(0.1,0,0,-0.1,0.124,191.802)"/>
<path style="fill:none;stroke-width:5;stroke-linecap:butt;stroke-linejoin:round;stroke:rgb(0%,0%,0%);stroke-opacity:1;stroke-miterlimit:4;" d="M 1818.174063 98.3325 L 1753.330313 34.11375 " transform="matrix(0.1,0,0,-0.1,0.124,191.802)"/>
<path style="fill:none;stroke-width:5;stroke-linecap:butt;stroke-linejoin:round;stroke:rgb(0%,0%,0%);stroke-opacity:1;stroke-miterlimit:4;" d="M 1679.0725 79.191875 L 1752.66625 79.191875 " transform="matrix(0.1,0,0,-0.1,0.124,191.802)"/>
<path style="fill:none;stroke-width:5;stroke-linecap:butt;stroke-linejoin:round;stroke:rgb(0%,0%,0%);stroke-opacity:1;stroke-miterlimit:4;" d="M 1661.5725 59.5825 L 1735.16625 59.5825 " transform="matrix(0.1,0,0,-0.1,0.124,191.802)"/>
<path style="fill:none;stroke-width:4.25;stroke-linecap:butt;stroke-linejoin:round;stroke:rgb(0%,0%,0%);stroke-opacity:1;stroke-miterlimit:4;" d="M 1655.127188 40.012188 L 1717.705313 40.012188 " transform="matrix(0.1,0,0,-0.1,0.124,191.802)"/>
<path style="fill:none;stroke-width:5;stroke-linecap:butt;stroke-linejoin:round;stroke:rgb(0%,0%,0%);stroke-opacity:1;stroke-miterlimit:4;" d="M 2128.29125 98.3325 L 2063.4475 34.11375 " transform="matrix(0.1,0,0,-0.1,0.124,191.802)"/>
<path style="fill:none;stroke-width:5;stroke-linecap:butt;stroke-linejoin:round;stroke:rgb(0%,0%,0%);stroke-opacity:1;stroke-miterlimit:4;" d="M 2100.3225 98.3325 L 2035.47875 34.11375 " transform="matrix(0.1,0,0,-0.1,0.124,191.802)"/>
<path style="fill:none;stroke-width:5;stroke-linecap:butt;stroke-linejoin:round;stroke:rgb(0%,0%,0%);stroke-opacity:1;stroke-miterlimit:4;" d="M 2072.35375 98.3325 L 2007.51 34.11375 " transform="matrix(0.1,0,0,-0.1,0.124,191.802)"/>
<path style="fill:none;stroke-width:5;stroke-linecap:butt;stroke-linejoin:round;stroke:rgb(0%,0%,0%);stroke-opacity:1;stroke-miterlimit:4;" d="M 2044.424063 98.3325 L 1979.580313 34.11375 " transform="matrix(0.1,0,0,-0.1,0.124,191.802)"/>
<path style="fill:none;stroke-width:5;stroke-linecap:butt;stroke-linejoin:round;stroke:rgb(0%,0%,0%);stroke-opacity:1;stroke-miterlimit:4;" d="M 1914.033438 78.098125 L 1987.66625 78.098125 " transform="matrix(0.1,0,0,-0.1,0.124,191.802)"/>
<path style="fill:none;stroke-width:5;stroke-linecap:butt;stroke-linejoin:round;stroke:rgb(0%,0%,0%);stroke-opacity:1;stroke-miterlimit:4;" d="M 1896.5725 58.527813 L 1970.205313 58.527813 " transform="matrix(0.1,0,0,-0.1,0.124,191.802)"/>
<path style="fill:none;stroke-width:4.25;stroke-linecap:butt;stroke-linejoin:round;stroke:rgb(0%,0%,0%);stroke-opacity:1;stroke-miterlimit:4;" d="M 1890.127188 38.9575 L 1952.705313 38.9575 " transform="matrix(0.1,0,0,-0.1,0.124,191.802)"/>
<path style="fill:none;stroke-width:5;stroke-linecap:butt;stroke-linejoin:round;stroke:rgb(0%,0%,0%);stroke-opacity:1;stroke-miterlimit:4;" d="M 2363.60375 98.3325 L 2298.76 34.11375 " transform="matrix(0.1,0,0,-0.1,0.124,191.802)"/>
<path style="fill:none;stroke-width:5;stroke-linecap:butt;stroke-linejoin:round;stroke:rgb(0%,0%,0%);stroke-opacity:1;stroke-miterlimit:4;" d="M 2335.635 98.3325 L 2270.79125 34.11375 " transform="matrix(0.1,0,0,-0.1,0.124,191.802)"/>
<path style="fill:none;stroke-width:5;stroke-linecap:butt;stroke-linejoin:round;stroke:rgb(0%,0%,0%);stroke-opacity:1;stroke-miterlimit:4;" d="M 2307.705313 98.3325 L 2242.8225 34.11375 " transform="matrix(0.1,0,0,-0.1,0.124,191.802)"/>
<path style="fill:none;stroke-width:5;stroke-linecap:butt;stroke-linejoin:round;stroke:rgb(0%,0%,0%);stroke-opacity:1;stroke-miterlimit:4;" d="M 2279.736563 98.3325 L 2214.892813 34.11375 " transform="matrix(0.1,0,0,-0.1,0.124,191.802)"/>
<path style="fill:none;stroke-width:5;stroke-linecap:butt;stroke-linejoin:round;stroke:rgb(0%,0%,0%);stroke-opacity:1;stroke-miterlimit:4;" d="M 2139.463125 78.098125 L 2213.056875 78.098125 " transform="matrix(0.1,0,0,-0.1,0.124,191.802)"/>
<path style="fill:none;stroke-width:5;stroke-linecap:butt;stroke-linejoin:round;stroke:rgb(0%,0%,0%);stroke-opacity:1;stroke-miterlimit:4;" d="M 2122.002188 58.527813 L 2195.595938 58.527813 " transform="matrix(0.1,0,0,-0.1,0.124,191.802)"/>
<path style="fill:none;stroke-width:4.25;stroke-linecap:butt;stroke-linejoin:round;stroke:rgb(0%,0%,0%);stroke-opacity:1;stroke-miterlimit:4;" d="M 2115.556875 38.9575 L 2178.135 38.9575 " transform="matrix(0.1,0,0,-0.1,0.124,191.802)"/>
<path style="fill:none;stroke-width:5;stroke-linecap:butt;stroke-linejoin:round;stroke:rgb(0%,0%,0%);stroke-opacity:1;stroke-miterlimit:4;" d="M 2235.556875 808.996563 L 2235.556875 339.191875 " transform="matrix(0.1,0,0,-0.1,0.124,191.802)"/>
<path style=" stroke:none;fill-rule:nonzero;fill:rgb(0%,0%,0%);fill-opacity:1;" d="M 222.515625 157.074219 L 223.691406 161.515625 L 224.867188 157.074219 L 222.515625 157.074219 "/>
<path style="fill:none;stroke-width:5;stroke-linecap:butt;stroke-linejoin:round;stroke:rgb(0%,0%,0%);stroke-opacity:1;stroke-miterlimit:4;" d="M 1338.4475 1132.668438 L 2120.088125 1132.668438 " transform="matrix(0.1,0,0,-0.1,0.124,191.802)"/>
<path style=" stroke:none;fill-rule:nonzero;fill:rgb(0%,0%,0%);fill-opacity:1;" d="M 211.332031 79.710938 L 215.71875 78.519531 L 211.332031 77.328125 L 211.332031 79.710938 "/>
</g>
</g>
</g>
<g clip-path="url(#clip4)" clip-rule="nonzero">
<g style="fill:rgb(0%,0%,0%);fill-opacity:1;">
  <use xlink:href="#glyph0-1" x="220.432" y="65.361"/>
</g>
<g style="fill:rgb(0%,0%,0%);fill-opacity:1;">
  <use xlink:href="#glyph1-1" x="225.0432" y="65.361"/>
  <use xlink:href="#glyph1-2" x="228.14682" y="65.361"/>
</g>
<g style="fill:rgb(0%,0%,0%);fill-opacity:1;">
  <use xlink:href="#glyph1-3" x="232.282562" y="65.361"/>
</g>
<g style="fill:rgb(0%,0%,0%);fill-opacity:1;">
  <use xlink:href="#glyph1-2" x="228.146" y="101.33"/>
</g>
<g style="fill:rgb(0%,0%,0%);fill-opacity:1;">
  <use xlink:href="#glyph1-3" x="232.281742" y="101.33"/>
</g>
<g style="fill:rgb(0%,0%,0%);fill-opacity:1;">
  <use xlink:href="#glyph2-1" x="19.61535" y="46.8442"/>
  <use xlink:href="#glyph2-2" x="22.579223" y="46.8442"/>
  <use xlink:href="#glyph2-3" x="26.101999" y="46.8442"/>
  <use xlink:href="#glyph2-4" x="28.719099" y="46.8442"/>
  <use xlink:href="#glyph2-5" x="29.936404" y="46.8442"/>
  <use xlink:href="#glyph2-4" x="33.197089" y="46.8442"/>
  <use xlink:href="#glyph2-6" x="34.414394" y="46.8442"/>
  <use xlink:href="#glyph2-7" x="37.463373" y="46.8442"/>
</g>
<g style="fill:rgb(0%,0%,0%);fill-opacity:1;">
  <use xlink:href="#glyph2-8" x="11.021" y="51.9255"/>
  <use xlink:href="#glyph2-9" x="14.030602" y="51.9255"/>
  <use xlink:href="#glyph2-10" x="17.221" y="51.9255"/>
  <use xlink:href="#glyph2-11" x="20.269979" y="51.9255"/>
  <use xlink:href="#glyph2-12" x="23.293977" y="51.9255"/>
  <use xlink:href="#glyph2-7" x="26.434412" y="51.9255"/>
</g>
<g style="fill:rgb(0%,0%,0%);fill-opacity:1;">
  <use xlink:href="#glyph2-8" x="30.747695" y="51.9255"/>
  <use xlink:href="#glyph2-7" x="33.757297" y="51.9255"/>
  <use xlink:href="#glyph2-13" x="36.580175" y="51.9255"/>
  <use xlink:href="#glyph2-5" x="39.770573" y="51.9255"/>
  <use xlink:href="#glyph2-7" x="43.031257" y="51.9255"/>
  <use xlink:href="#glyph2-11" x="45.854135" y="51.9255"/>
</g>
<g style="fill:rgb(0%,0%,0%);fill-opacity:1;">
  <use xlink:href="#glyph2-13" x="13.2009" y="82.5612"/>
  <use xlink:href="#glyph2-7" x="16.391298" y="82.5612"/>
  <use xlink:href="#glyph2-12" x="19.214176" y="82.5612"/>
  <use xlink:href="#glyph2-10" x="22.354612" y="82.5612"/>
</g>
<g style="fill:rgb(0%,0%,0%);fill-opacity:1;">
  <use xlink:href="#glyph2-5" x="25.009819" y="82.5612"/>
  <use xlink:href="#glyph2-4" x="28.270503" y="82.5612"/>
  <use xlink:href="#glyph2-6" x="29.487808" y="82.5612"/>
  <use xlink:href="#glyph2-7" x="32.536787" y="82.5612"/>
</g>
<g style="fill:rgb(0%,0%,0%);fill-opacity:1;">
  <use xlink:href="#glyph2-8" x="5.352" y="87.6425"/>
  <use xlink:href="#glyph2-9" x="8.361602" y="87.6425"/>
  <use xlink:href="#glyph2-10" x="11.552" y="87.6425"/>
  <use xlink:href="#glyph2-11" x="14.600979" y="87.6425"/>
  <use xlink:href="#glyph2-12" x="17.624977" y="87.6425"/>
  <use xlink:href="#glyph2-7" x="20.765412" y="87.6425"/>
</g>
<g style="fill:rgb(0%,0%,0%);fill-opacity:1;">
  <use xlink:href="#glyph2-8" x="25.078695" y="87.6425"/>
  <use xlink:href="#glyph2-7" x="28.088297" y="87.6425"/>
  <use xlink:href="#glyph2-13" x="30.911175" y="87.6425"/>
  <use xlink:href="#glyph2-5" x="34.101573" y="87.6425"/>
  <use xlink:href="#glyph2-7" x="37.362257" y="87.6425"/>
  <use xlink:href="#glyph2-11" x="40.185135" y="87.6425"/>
</g>
<g style="fill:rgb(0%,0%,0%);fill-opacity:1;">
  <use xlink:href="#glyph2-14" x="144.868" y="83.624"/>
  <use xlink:href="#glyph2-4" x="148.224375" y="83.624"/>
  <use xlink:href="#glyph2-11" x="149.44168" y="83.624"/>
  <use xlink:href="#glyph2-7" x="152.465678" y="83.624"/>
  <use xlink:href="#glyph2-8" x="155.288556" y="83.624"/>
  <use xlink:href="#glyph2-5" x="158.298158" y="83.624"/>
  <use xlink:href="#glyph2-4" x="161.558842" y="83.624"/>
  <use xlink:href="#glyph2-2" x="162.776147" y="83.624"/>
  <use xlink:href="#glyph2-13" x="166.298922" y="83.624"/>
</g>
<g style="fill:rgb(0%,0%,0%);fill-opacity:1;">
  <use xlink:href="#glyph2-2" x="170.979726" y="83.624"/>
  <use xlink:href="#glyph2-15" x="174.502501" y="83.624"/>
</g>
<g style="fill:rgb(0%,0%,0%);fill-opacity:1;">
  <use xlink:href="#glyph2-16" x="178.689184" y="83.624"/>
  <use xlink:href="#glyph2-2" x="182.664585" y="83.624"/>
</g>
<g style="fill:rgb(0%,0%,0%);fill-opacity:1;">
  <use xlink:href="#glyph2-6" x="186.056103" y="83.624"/>
  <use xlink:href="#glyph2-7" x="189.105082" y="83.624"/>
  <use xlink:href="#glyph2-16" x="191.92796" y="83.624"/>
  <use xlink:href="#glyph2-7" x="195.903361" y="83.624"/>
  <use xlink:href="#glyph2-13" x="198.726239" y="83.624"/>
  <use xlink:href="#glyph2-5" x="201.916637" y="83.624"/>
</g>
<g style="fill:rgb(0%,0%,0%);fill-opacity:1;">
  <use xlink:href="#glyph2-10" x="20.21575" y="161.1482"/>
  <use xlink:href="#glyph2-11" x="23.264729" y="161.1482"/>
  <use xlink:href="#glyph2-7" x="26.288727" y="161.1482"/>
  <use xlink:href="#glyph2-10" x="29.111605" y="161.1482"/>
</g>
<g style="fill:rgb(0%,0%,0%);fill-opacity:1;">
  <use xlink:href="#glyph2-2" x="33.650989" y="161.1482"/>
  <use xlink:href="#glyph2-15" x="37.173764" y="161.1482"/>
</g>
<path style=" stroke:none;fill-rule:nonzero;fill:rgb(100%,100%,100%);fill-opacity:1;" d="M 11.769531 167.300781 L 48.3125 167.300781 L 48.3125 161.949219 L 11.769531 161.949219 L 11.769531 167.300781 Z M 11.769531 167.300781 "/>
<g style="fill:rgb(0%,0%,0%);fill-opacity:1;">
  <use xlink:href="#glyph2-13" x="12.97545" y="166.09435"/>
  <use xlink:href="#glyph2-7" x="16.165848" y="166.09435"/>
  <use xlink:href="#glyph2-12" x="18.988726" y="166.09435"/>
  <use xlink:href="#glyph2-10" x="22.129162" y="166.09435"/>
</g>
<g style="fill:rgb(0%,0%,0%);fill-opacity:1;">
  <use xlink:href="#glyph2-5" x="24.784369" y="166.09435"/>
  <use xlink:href="#glyph2-4" x="28.045053" y="166.09435"/>
  <use xlink:href="#glyph2-6" x="29.262358" y="166.09435"/>
  <use xlink:href="#glyph2-7" x="32.311337" y="166.09435"/>
</g>
<g style="fill:rgb(0%,0%,0%);fill-opacity:1;">
  <use xlink:href="#glyph2-11" x="36.628854" y="166.09435"/>
  <use xlink:href="#glyph2-10" x="39.652852" y="166.09435"/>
  <use xlink:href="#glyph2-4" x="42.701831" y="166.09435"/>
  <use xlink:href="#glyph2-13" x="43.919136" y="166.09435"/>
</g>
<g style="fill:rgb(0%,0%,0%);fill-opacity:1;">
  <use xlink:href="#glyph2-3" x="148.935" y="159.39055"/>
  <use xlink:href="#glyph2-16" x="151.5521" y="159.39055"/>
  <use xlink:href="#glyph2-10" x="155.527501" y="159.39055"/>
  <use xlink:href="#glyph2-17" x="158.57648" y="159.39055"/>
  <use xlink:href="#glyph2-17" x="161.137691" y="159.39055"/>
</g>
<g style="fill:rgb(0%,0%,0%);fill-opacity:1;">
  <use xlink:href="#glyph2-8" x="165.189306" y="159.39055"/>
  <use xlink:href="#glyph2-7" x="168.198908" y="159.39055"/>
  <use xlink:href="#glyph2-13" x="171.021785" y="159.39055"/>
  <use xlink:href="#glyph2-5" x="174.212183" y="159.39055"/>
  <use xlink:href="#glyph2-7" x="177.472868" y="159.39055"/>
  <use xlink:href="#glyph2-11" x="180.295746" y="159.39055"/>
</g>
<g style="fill:rgb(0%,0%,0%);fill-opacity:1;">
  <use xlink:href="#glyph2-2" x="184.810148" y="159.39055"/>
  <use xlink:href="#glyph2-15" x="188.332924" y="159.39055"/>
</g>
<g style="fill:rgb(0%,0%,0%);fill-opacity:1;">
  <use xlink:href="#glyph2-1" x="144.72835" y="164.47185"/>
  <use xlink:href="#glyph2-2" x="147.692223" y="164.47185"/>
  <use xlink:href="#glyph2-3" x="151.214999" y="164.47185"/>
  <use xlink:href="#glyph2-4" x="153.832099" y="164.47185"/>
  <use xlink:href="#glyph2-5" x="155.049404" y="164.47185"/>
  <use xlink:href="#glyph2-4" x="158.310089" y="164.47185"/>
  <use xlink:href="#glyph2-6" x="159.527394" y="164.47185"/>
  <use xlink:href="#glyph2-7" x="162.576373" y="164.47185"/>
</g>
<g style="fill:rgb(0%,0%,0%);fill-opacity:1;">
  <use xlink:href="#glyph2-8" x="166.889656" y="164.47185"/>
  <use xlink:href="#glyph2-9" x="169.899257" y="164.47185"/>
  <use xlink:href="#glyph2-10" x="173.089656" y="164.47185"/>
  <use xlink:href="#glyph2-11" x="176.138635" y="164.47185"/>
  <use xlink:href="#glyph2-12" x="179.162632" y="164.47185"/>
  <use xlink:href="#glyph2-7" x="182.303068" y="164.47185"/>
</g>
<g style="fill:rgb(0%,0%,0%);fill-opacity:1;">
  <use xlink:href="#glyph2-4" x="186.620585" y="164.47185"/>
  <use xlink:href="#glyph2-13" x="187.83789" y="164.47185"/>
</g>
<g style="fill:rgb(0%,0%,0%);fill-opacity:1;">
  <use xlink:href="#glyph2-10" x="143.274" y="169.5523"/>
  <use xlink:href="#glyph2-11" x="146.322979" y="169.5523"/>
  <use xlink:href="#glyph2-7" x="149.346977" y="169.5523"/>
  <use xlink:href="#glyph2-10" x="152.169855" y="169.5523"/>
</g>
<g style="fill:rgb(0%,0%,0%);fill-opacity:1;">
  <use xlink:href="#glyph2-2" x="156.709239" y="169.5523"/>
  <use xlink:href="#glyph2-15" x="160.232014" y="169.5523"/>
</g>
<g style="fill:rgb(0%,0%,0%);fill-opacity:1;">
  <use xlink:href="#glyph2-9" x="164.418697" y="169.5523"/>
  <use xlink:href="#glyph2-7" x="167.609095" y="169.5523"/>
  <use xlink:href="#glyph2-10" x="170.431973" y="169.5523"/>
</g>
<g style="fill:rgb(0%,0%,0%);fill-opacity:1;">
  <use xlink:href="#glyph2-6" x="172.955923" y="169.5523"/>
  <use xlink:href="#glyph2-18" x="176.004902" y="169.5523"/>
</g>
<g style="fill:rgb(0%,0%,0%);fill-opacity:1;">
  <use xlink:href="#glyph2-11" x="180.544286" y="169.5523"/>
  <use xlink:href="#glyph2-10" x="183.568284" y="169.5523"/>
  <use xlink:href="#glyph2-4" x="186.617263" y="169.5523"/>
  <use xlink:href="#glyph2-13" x="187.834568" y="169.5523"/>
</g>
<g style="fill:rgb(0%,0%,0%);fill-opacity:1;">
  <use xlink:href="#glyph3-1" x="216.88" y="113.422"/>
</g>
<g style="fill:rgb(0%,0%,0%);fill-opacity:1;">
  <use xlink:href="#glyph4-1" x="216.88" y="163.879"/>
</g>
<g style="fill:rgb(0%,0%,0%);fill-opacity:1;">
  <use xlink:href="#glyph2-15" x="180.8338" y="135.2852"/>
</g>
<g style="fill:rgb(0%,0%,0%);fill-opacity:1;">
  <use xlink:href="#glyph2-10" x="183.132072" y="135.2852"/>
  <use xlink:href="#glyph2-4" x="186.181051" y="135.2852"/>
  <use xlink:href="#glyph2-11" x="187.398356" y="135.2852"/>
</g>
<g style="fill:rgb(0%,0%,0%);fill-opacity:1;">
  <use xlink:href="#glyph2-19" x="191.916993" y="135.2852"/>
  <use xlink:href="#glyph2-7" x="196.274734" y="135.2852"/>
  <use xlink:href="#glyph2-10" x="199.097612" y="135.2852"/>
</g>
<g style="fill:rgb(0%,0%,0%);fill-opacity:1;">
  <use xlink:href="#glyph2-5" x="201.752819" y="135.2852"/>
  <use xlink:href="#glyph2-9" x="205.013503" y="135.2852"/>
  <use xlink:href="#glyph2-7" x="208.203902" y="135.2852"/>
  <use xlink:href="#glyph2-11" x="211.026779" y="135.2852"/>
</g>
<g style="fill:rgb(0%,0%,0%);fill-opacity:1;">
  <use xlink:href="#glyph2-1" x="172.242" y="140.3665"/>
  <use xlink:href="#glyph2-2" x="175.205874" y="140.3665"/>
  <use xlink:href="#glyph2-5" x="178.728649" y="140.3665"/>
  <use xlink:href="#glyph2-7" x="181.989333" y="140.3665"/>
  <use xlink:href="#glyph2-13" x="184.812211" y="140.3665"/>
  <use xlink:href="#glyph2-5" x="188.002609" y="140.3665"/>
  <use xlink:href="#glyph2-4" x="191.263293" y="140.3665"/>
  <use xlink:href="#glyph2-10" x="192.480598" y="140.3665"/>
  <use xlink:href="#glyph2-17" x="195.529578" y="140.3665"/>
</g>
<g style="fill:rgb(0%,0%,0%);fill-opacity:1;">
  <use xlink:href="#glyph2-12" x="199.581193" y="140.3665"/>
  <use xlink:href="#glyph2-11" x="202.721628" y="140.3665"/>
  <use xlink:href="#glyph2-10" x="205.745626" y="140.3665"/>
  <use xlink:href="#glyph2-14" x="208.794605" y="140.3665"/>
  <use xlink:href="#glyph2-4" x="212.15098" y="140.3665"/>
  <use xlink:href="#glyph2-7" x="213.368285" y="140.3665"/>
  <use xlink:href="#glyph2-13" x="216.191163" y="140.3665"/>
  <use xlink:href="#glyph2-5" x="219.381561" y="140.3665"/>
</g>
<g style="fill:rgb(0%,0%,0%);fill-opacity:1;">
  <use xlink:href="#glyph5-1" x="65.423" y="15.917"/>
</g>
<g style="fill:rgb(0%,0%,0%);fill-opacity:1;">
  <use xlink:href="#glyph5-1" x="130.619" y="15.917"/>
</g>
<g style="fill:rgb(0%,0%,0%);fill-opacity:1;">
  <use xlink:href="#glyph5-1" x="172.289" y="18.752"/>
</g>
<g style="fill:rgb(0%,0%,0%);fill-opacity:1;">
  <use xlink:href="#glyph5-1" x="99.438" y="24.988"/>
</g>
<g style="fill:rgb(0%,0%,0%);fill-opacity:1;">
  <use xlink:href="#glyph5-1" x="147.627" y="35.193"/>
</g>
<g style="fill:rgb(0%,0%,0%);fill-opacity:1;">
  <use xlink:href="#glyph5-1" x="71.092" y="36.327"/>
</g>
<g style="fill:rgb(0%,0%,0%);fill-opacity:1;">
  <use xlink:href="#glyph5-1" x="112.194" y="42.563"/>
</g>
<g style="fill:rgb(0%,0%,0%);fill-opacity:1;">
  <use xlink:href="#glyph5-1" x="82.43" y="50.784"/>
</g>
<g style="fill:rgb(0%,0%,0%);fill-opacity:1;">
  <use xlink:href="#glyph5-1" x="59.47" y="56.736"/>
</g>
<g style="fill:rgb(0%,0%,0%);fill-opacity:1;">
  <use xlink:href="#glyph5-1" x="102.273" y="57.303"/>
</g>
<g style="fill:rgb(0%,0%,0%);fill-opacity:1;">
  <use xlink:href="#glyph5-1" x="123.533" y="57.303"/>
</g>
<g style="fill:rgb(0%,0%,0%);fill-opacity:1;">
  <use xlink:href="#glyph5-1" x="78.178" y="62.406"/>
</g>
<g style="fill:rgb(0%,0%,0%);fill-opacity:1;">
  <use xlink:href="#glyph5-1" x="111.344" y="65.24"/>
</g>
<g style="fill:rgb(0%,0%,0%);fill-opacity:1;">
  <use xlink:href="#glyph5-1" x="125.234" y="66.374"/>
</g>
<g style="fill:rgb(0%,0%,0%);fill-opacity:1;">
  <use xlink:href="#glyph6-1" x="58.619" y="67.508"/>
</g>
<g style="fill:rgb(0%,0%,0%);fill-opacity:1;">
  <use xlink:href="#glyph5-1" x="69.958" y="68.642"/>
</g>
<g style="fill:rgb(0%,0%,0%);fill-opacity:1;">
  <use xlink:href="#glyph5-1" x="88.383" y="68.642"/>
</g>
<g style="fill:rgb(0%,0%,0%);fill-opacity:1;">
  <use xlink:href="#glyph5-1" x="101.706" y="68.925"/>
</g>
<g style="fill:rgb(0%,0%,0%);fill-opacity:1;">
  <use xlink:href="#glyph5-1" x="115.312" y="72.327"/>
</g>
<g style="fill:rgb(0%,0%,0%);fill-opacity:1;">
  <use xlink:href="#glyph5-1" x="58.619" y="74.595"/>
</g>
<g style="fill:rgb(0%,0%,0%);fill-opacity:1;">
  <use xlink:href="#glyph5-1" x="69.958" y="77.429"/>
</g>
<g style="fill:rgb(0%,0%,0%);fill-opacity:1;">
  <use xlink:href="#glyph5-1" x="82.714" y="76.579"/>
</g>
<g style="fill:rgb(0%,0%,0%);fill-opacity:1;">
  <use xlink:href="#glyph6-1" x="94.053" y="76.579"/>
</g>
<g style="fill:rgb(0%,0%,0%);fill-opacity:1;">
  <use xlink:href="#glyph6-1" x="109.927" y="79.98"/>
</g>
<g style="fill:rgb(0%,0%,0%);fill-opacity:1;">
  <use xlink:href="#glyph6-1" x="67.123" y="85.65"/>
</g>
<g style="fill:rgb(0%,0%,0%);fill-opacity:1;">
  <use xlink:href="#glyph6-1" x="78.462" y="84.516"/>
</g>
<g style="fill:rgb(0%,0%,0%);fill-opacity:1;">
  <use xlink:href="#glyph6-1" x="89.801" y="85.083"/>
</g>
<g style="fill:rgb(0%,0%,0%);fill-opacity:1;">
  <use xlink:href="#glyph5-1" x="104.824" y="86.5"/>
</g>
<g style="fill:rgb(0%,0%,0%);fill-opacity:1;">
  <use xlink:href="#glyph6-1" x="116.73" y="87.351"/>
</g>
<g style="fill:rgb(0%,0%,0%);fill-opacity:1;">
  <use xlink:href="#glyph6-1" x="59.186" y="90.185"/>
</g>
<g style="fill:rgb(0%,0%,0%);fill-opacity:1;">
  <use xlink:href="#glyph6-1" x="77.045" y="90.469"/>
</g>
<g style="fill:rgb(0%,0%,0%);fill-opacity:1;">
  <use xlink:href="#glyph6-1" x="52.95" y="94.154"/>
</g>
<g style="fill:rgb(0%,0%,0%);fill-opacity:1;">
  <use xlink:href="#glyph6-1" x="69.958" y="95.004"/>
</g>
<g style="fill:rgb(0%,0%,0%);fill-opacity:1;">
  <use xlink:href="#glyph6-1" x="85.549" y="96.421"/>
</g>
<g style="fill:rgb(0%,0%,0%);fill-opacity:1;">
  <use xlink:href="#glyph6-1" x="99.722" y="95.854"/>
</g>
<g style="fill:rgb(0%,0%,0%);fill-opacity:1;">
  <use xlink:href="#glyph6-1" x="116.73" y="94.154"/>
</g>
<g style="fill:rgb(0%,0%,0%);fill-opacity:1;">
  <use xlink:href="#glyph6-1" x="61.454" y="104.358"/>
</g>
<g style="fill:rgb(0%,0%,0%);fill-opacity:1;">
  <use xlink:href="#glyph6-1" x="78.462" y="105.492"/>
</g>
<g style="fill:rgb(0%,0%,0%);fill-opacity:1;">
  <use xlink:href="#glyph6-1" x="99.722" y="102.658"/>
</g>
<g style="fill:rgb(0%,0%,0%);fill-opacity:1;">
  <use xlink:href="#glyph6-1" x="125.234" y="107.76"/>
</g>
<g style="fill:rgb(0%,0%,0%);fill-opacity:1;">
  <use xlink:href="#glyph5-1" x="90.084" y="109.177"/>
</g>
<g style="fill:rgb(0%,0%,0%);fill-opacity:1;">
  <use xlink:href="#glyph5-1" x="108.226" y="107.193"/>
</g>
<g style="fill:rgb(0%,0%,0%);fill-opacity:1;">
  <use xlink:href="#glyph6-1" x="54.368" y="127.603"/>
</g>
<g style="fill:rgb(0%,0%,0%);fill-opacity:1;">
  <use xlink:href="#glyph6-1" x="64.289" y="115.414"/>
</g>
<g style="fill:rgb(0%,0%,0%);fill-opacity:1;">
  <use xlink:href="#glyph6-1" x="82.714" y="122.5"/>
</g>
<g style="fill:rgb(0%,0%,0%);fill-opacity:1;">
  <use xlink:href="#glyph6-1" x="97.454" y="124.768"/>
</g>
<g style="fill:rgb(0%,0%,0%);fill-opacity:1;">
  <use xlink:href="#glyph6-1" x="106.808" y="117.965"/>
</g>
<g style="fill:rgb(0%,0%,0%);fill-opacity:1;">
  <use xlink:href="#glyph6-1" x="119.564" y="127.603"/>
</g>
<g style="fill:rgb(0%,0%,0%);fill-opacity:1;">
  <use xlink:href="#glyph6-1" x="142.242" y="121.083"/>
</g>
<g style="fill:rgb(0%,0%,0%);fill-opacity:1;">
  <use xlink:href="#glyph6-1" x="35.942" y="142.626"/>
</g>
<g style="fill:rgb(0%,0%,0%);fill-opacity:1;">
  <use xlink:href="#glyph6-1" x="61.454" y="143.193"/>
</g>
<g style="fill:rgb(0%,0%,0%);fill-opacity:1;">
  <use xlink:href="#glyph6-1" x="77.045" y="134.973"/>
</g>
<g style="fill:rgb(0%,0%,0%);fill-opacity:1;">
  <use xlink:href="#glyph6-1" x="128.068" y="144.043"/>
</g>
<g style="fill:rgb(0%,0%,0%);fill-opacity:1;">
  <use xlink:href="#glyph6-1" x="143.659" y="135.256"/>
</g>
<g style="fill:rgb(0%,0%,0%);fill-opacity:1;">
  <use xlink:href="#glyph5-1" x="88.383" y="129.87"/>
</g>
<g style="fill:rgb(0%,0%,0%);fill-opacity:1;">
  <use xlink:href="#glyph5-1" x="103.974" y="131.288"/>
</g>
<g style="fill:rgb(0%,0%,0%);fill-opacity:1;">
  <use xlink:href="#glyph5-1" x="95.47" y="136.673"/>
</g>
<g style="fill:rgb(0%,0%,0%);fill-opacity:1;">
  <use xlink:href="#glyph5-1" x="109.643" y="139.508"/>
</g>
<g style="fill:rgb(0%,0%,0%);fill-opacity:1;">
  <use xlink:href="#glyph5-1" x="88.383" y="142.343"/>
</g>
<g style="fill:rgb(0%,0%,0%);fill-opacity:1;">
  <use xlink:href="#glyph5-1" x="102.556" y="142.91"/>
</g>
<g style="fill:rgb(0%,0%,0%);fill-opacity:1;">
  <use xlink:href="#glyph5-1" x="85.549" y="150.28"/>
</g>
<g style="fill:rgb(0%,0%,0%);fill-opacity:1;">
  <use xlink:href="#glyph5-1" x="94.053" y="148.295"/>
</g>
<g style="fill:rgb(0%,0%,0%);fill-opacity:1;">
  <use xlink:href="#glyph5-1" x="105.391" y="150.847"/>
</g>
<g style="fill:rgb(0%,0%,0%);fill-opacity:1;">
  <use xlink:href="#glyph6-1" x="48.698" y="153.114"/>
</g>
<g style="fill:rgb(0%,0%,0%);fill-opacity:1;">
  <use xlink:href="#glyph6-1" x="47.281" y="162.185"/>
</g>
<g style="fill:rgb(0%,0%,0%);fill-opacity:1;">
  <use xlink:href="#glyph6-1" x="64.856" y="159.351"/>
</g>
<g style="fill:rgb(0%,0%,0%);fill-opacity:1;">
  <use xlink:href="#glyph6-1" x="79.879" y="158.217"/>
</g>
<g style="fill:rgb(0%,0%,0%);fill-opacity:1;">
  <use xlink:href="#glyph6-1" x="77.045" y="169.555"/>
</g>
<g style="fill:rgb(0%,0%,0%);fill-opacity:1;">
  <use xlink:href="#glyph5-1" x="91.218" y="159.351"/>
</g>
<g style="fill:rgb(0%,0%,0%);fill-opacity:1;">
  <use xlink:href="#glyph5-1" x="97.738" y="159.351"/>
</g>
<g style="fill:rgb(0%,0%,0%);fill-opacity:1;">
  <use xlink:href="#glyph5-1" x="105.391" y="159.351"/>
</g>
<g style="fill:rgb(0%,0%,0%);fill-opacity:1;">
  <use xlink:href="#glyph5-1" x="111.911" y="159.351"/>
</g>
<g style="fill:rgb(0%,0%,0%);fill-opacity:1;">
  <use xlink:href="#glyph5-1" x="94.053" y="162.469"/>
</g>
<g style="fill:rgb(0%,0%,0%);fill-opacity:1;">
  <use xlink:href="#glyph5-1" x="101.139" y="163.036"/>
</g>
<g style="fill:rgb(0%,0%,0%);fill-opacity:1;">
  <use xlink:href="#glyph5-1" x="109.643" y="163.603"/>
</g>
<g style="fill:rgb(0%,0%,0%);fill-opacity:1;">
  <use xlink:href="#glyph5-1" x="91.218" y="167.288"/>
</g>
<g style="fill:rgb(0%,0%,0%);fill-opacity:1;">
  <use xlink:href="#glyph5-1" x="97.171" y="167.288"/>
</g>
<g style="fill:rgb(0%,0%,0%);fill-opacity:1;">
  <use xlink:href="#glyph5-1" x="104.824" y="167.288"/>
</g>
<g style="fill:rgb(0%,0%,0%);fill-opacity:1;">
  <use xlink:href="#glyph5-1" x="113.895" y="167.288"/>
</g>
<g style="fill:rgb(0%,0%,0%);fill-opacity:1;">
  <use xlink:href="#glyph5-1" x="16.95" y="180.779"/>
</g>
<g style="fill:rgb(0%,0%,0%);fill-opacity:1;">
  <use xlink:href="#glyph5-1" x="30.84" y="180.779"/>
</g>
<g style="fill:rgb(0%,0%,0%);fill-opacity:1;">
  <use xlink:href="#glyph5-1" x="48.131" y="180.779"/>
</g>
<g style="fill:rgb(0%,0%,0%);fill-opacity:1;">
  <use xlink:href="#glyph5-1" x="67.974" y="180.779"/>
</g>
<g style="fill:rgb(0%,0%,0%);fill-opacity:1;">
  <use xlink:href="#glyph6-1" x="84.982" y="180.779"/>
</g>
<g style="fill:rgb(0%,0%,0%);fill-opacity:1;">
  <use xlink:href="#glyph6-1" x="96.887" y="180.779"/>
</g>
<g style="fill:rgb(0%,0%,0%);fill-opacity:1;">
  <use xlink:href="#glyph6-1" x="114.745" y="180.779"/>
</g>
<g style="fill:rgb(0%,0%,0%);fill-opacity:1;">
  <use xlink:href="#glyph5-1" x="123.249" y="180.779"/>
</g>
<g style="fill:rgb(0%,0%,0%);fill-opacity:1;">
  <use xlink:href="#glyph5-1" x="137.423" y="180.779"/>
</g>
<g style="fill:rgb(0%,0%,0%);fill-opacity:1;">
  <use xlink:href="#glyph5-1" x="154.43" y="180.779"/>
</g>
<g style="fill:rgb(0%,0%,0%);fill-opacity:1;">
  <use xlink:href="#glyph5-1" x="168.604" y="180.779"/>
</g>
<g style="fill:rgb(0%,0%,0%);fill-opacity:1;">
  <use xlink:href="#glyph6-1" x="184.194" y="180.779"/>
</g>
<g style="fill:rgb(0%,0%,0%);fill-opacity:1;">
  <use xlink:href="#glyph6-1" x="204.037" y="180.779"/>
</g>
<g style="fill:rgb(0%,0%,0%);fill-opacity:1;">
  <use xlink:href="#glyph6-1" x="225.297" y="180.779"/>
</g>
</g>
</g>
</svg>
