<?xml version="1.0" encoding="UTF-8"?>
<svg xmlns="http://www.w3.org/2000/svg" xmlns:xlink="http://www.w3.org/1999/xlink" width="176pt" height="140pt" viewBox="0 0 127.87 101.62" version="1.1">
<defs>
<g>
<symbol overflow="visible" id="glyph0-0">
<path style="stroke:none;" d=""/>
</symbol>
<symbol overflow="visible" id="glyph0-1">
<path style="stroke:none;" d="M 1.21875 -2.65625 C 1.46875 -2.78125 1.609375 -2.890625 1.953125 -2.96875 C 2.09375 -3 2.40625 -3.03125 2.546875 -3.03125 C 2.78125 -3 2.96875 -2.84375 3.03125 -2.625 C 3.09375 -2.359375 2.984375 -2.125 2.953125 -1.875 C 2.328125 -1.875 1.65625 -1.765625 1.203125 -1.53125 C 0.9375 -1.40625 0.671875 -1.203125 0.59375 -0.90625 C 0.46875 -0.5 0.640625 0 1.125 0.0625 C 1.75 0.09375 2.34375 -0.15625 2.671875 -0.46875 L 2.5625 0 L 2.9375 0 C 3.015625 0 3.078125 0.015625 3.078125 -0.078125 C 3.09375 -0.125 3.234375 -0.78125 3.234375 -0.78125 L 3.46875 -1.890625 C 3.5 -2.0625 3.5625 -2.234375 3.5625 -2.40625 C 3.59375 -2.71875 3.453125 -3 3.25 -3.171875 C 3 -3.375 2.6875 -3.40625 2.375 -3.375 C 2.15625 -3.359375 1.9375 -3.328125 1.71875 -3.265625 C 1.640625 -3.25 1.3125 -3.140625 1.28125 -3.09375 C 1.25 -3.0625 1.21875 -2.765625 1.21875 -2.65625 Z M 2.890625 -1.625 C 2.890625 -1.484375 2.84375 -1.34375 2.8125 -1.203125 C 2.765625 -1.03125 2.75 -0.859375 2.640625 -0.703125 C 2.5625 -0.609375 2.4375 -0.515625 2.3125 -0.46875 C 1.953125 -0.296875 1.390625 -0.25 1.140625 -0.53125 C 1 -0.6875 1.0625 -0.9375 1.1875 -1.09375 C 1.40625 -1.359375 1.78125 -1.484375 2.109375 -1.546875 C 2.359375 -1.609375 2.625 -1.625 2.890625 -1.625 Z M 2.890625 -1.625 "/>
</symbol>
<symbol overflow="visible" id="glyph0-2">
<path style="stroke:none;" d="M 1.609375 -4.859375 L 0.59375 0 C 0.75 0 0.9375 0 1.09375 -0.015625 C 1.140625 -0.15625 1.15625 -0.3125 1.203125 -0.46875 L 1.203125 -0.46875 C 1.265625 -0.3125 1.421875 -0.15625 1.546875 -0.078125 C 1.9375 0.140625 2.40625 0.0625 2.765625 -0.140625 C 3.46875 -0.53125 3.90625 -1.3125 3.90625 -2.09375 C 3.921875 -2.59375 3.71875 -3.1875 3.1875 -3.328125 C 2.59375 -3.484375 1.96875 -3.09375 1.6875 -2.828125 L 2.109375 -4.859375 L 1.609375 -4.859375 Z M 3.015625 -2.859375 C 3.078125 -2.828125 3.140625 -2.78125 3.1875 -2.734375 C 3.4375 -2.46875 3.4375 -2.046875 3.359375 -1.71875 C 3.296875 -1.453125 3.21875 -1.1875 3.078125 -0.953125 C 2.828125 -0.578125 2.390625 -0.359375 1.953125 -0.34375 C 1.75 -0.328125 1.5625 -0.375 1.421875 -0.53125 C 1.375 -0.59375 1.28125 -0.734375 1.28125 -0.8125 C 1.28125 -0.890625 1.3125 -0.984375 1.328125 -1.046875 C 1.375 -1.296875 1.609375 -2.484375 1.640625 -2.53125 C 1.6875 -2.59375 1.75 -2.65625 1.8125 -2.703125 C 2.109375 -2.953125 2.609375 -3.078125 3.015625 -2.859375 Z M 3.015625 -2.859375 "/>
</symbol>
<symbol overflow="visible" id="glyph0-3">
<path style="stroke:none;" d="M 1.828125 -4.859375 L 1.734375 -4.359375 L 2.21875 -4.359375 L 2.328125 -4.859375 L 1.828125 -4.859375 Z M 1.5 -3.296875 C 1.484375 -3.1875 1.453125 -3.078125 1.421875 -2.96875 C 1.28125 -2.296875 1.015625 -1.046875 0.90625 -0.515625 L 0.75 0.234375 C 0.71875 0.34375 0.71875 0.484375 0.625 0.59375 C 0.4375 0.78125 0.03125 0.875 -0.328125 0.765625 C -0.421875 0.734375 -0.5 0.671875 -0.59375 0.625 L -0.78125 1.015625 C -0.40625 1.1875 0.109375 1.34375 0.59375 1.109375 C 0.859375 1 1.09375 0.75 1.1875 0.484375 C 1.21875 0.375 2 -3.296875 2 -3.296875 L 1.5 -3.296875 Z M 1.5 -3.296875 "/>
</symbol>
<symbol overflow="visible" id="glyph0-4">
<path style="stroke:none;" d="M 0.75 -3.296875 C 0.828125 -3.15625 0.9375 -3.03125 1.015625 -2.890625 C 1.078125 -2.8125 1.6875 -1.890625 1.71875 -1.84375 C 1.75 -1.8125 1.796875 -1.75 1.796875 -1.71875 C 1.796875 -1.671875 1.734375 -1.609375 1.6875 -1.59375 C 1.375 -1.296875 0.046875 -0.046875 0 0 C 0.1875 0 0.375 0 0.53125 0 L 0.6875 -0.140625 L 1.984375 -1.4375 C 2.265625 -0.953125 2.546875 -0.46875 2.859375 -0.015625 C 3.03125 0 3.21875 0 3.40625 0 C 3.3125 -0.140625 2.359375 -1.546875 2.34375 -1.578125 C 2.328125 -1.609375 2.28125 -1.65625 2.28125 -1.703125 C 2.28125 -1.75 2.359375 -1.796875 2.390625 -1.8125 C 2.484375 -1.921875 2.609375 -2.015625 2.71875 -2.125 C 2.828125 -2.21875 3.9375 -3.265625 3.96875 -3.296875 C 3.78125 -3.296875 3.609375 -3.296875 3.4375 -3.296875 C 2.96875 -2.890625 2.5625 -2.453125 2.109375 -2.03125 C 1.828125 -2.453125 1.578125 -2.890625 1.28125 -3.296875 C 1.109375 -3.296875 0.9375 -3.296875 0.75 -3.296875 Z M 0.75 -3.296875 "/>
</symbol>
<symbol overflow="visible" id="glyph0-5">
<path style="stroke:none;" d="M 0.8125 -3.296875 C 0.828125 -3.203125 0.859375 -3.109375 0.875 -3.015625 C 1.015625 -2.328125 1.515625 -0.078125 1.515625 0 C 1.515625 0.03125 1.328125 0.296875 1.328125 0.296875 C 1.171875 0.578125 0.9375 0.875 0.515625 0.828125 C 0.421875 0.828125 0.328125 0.8125 0.234375 0.796875 C 0.171875 0.78125 0.09375 0.75 0.03125 0.734375 L -0.015625 1.171875 C 0.203125 1.21875 0.59375 1.25 0.796875 1.1875 C 1.234375 1.078125 1.546875 0.59375 1.765625 0.265625 L 2.109375 -0.28125 C 2.296875 -0.59375 3.90625 -3.140625 4 -3.296875 C 3.828125 -3.296875 3.65625 -3.3125 3.515625 -3.296875 C 3.34375 -3.046875 3.203125 -2.78125 3.03125 -2.546875 C 2.640625 -1.859375 2.1875 -1.234375 1.84375 -0.515625 L 1.828125 -0.515625 C 1.734375 -1.515625 1.484375 -2.375 1.3125 -3.296875 L 0.8125 -3.296875 Z M 0.8125 -3.296875 "/>
</symbol>
<symbol overflow="visible" id="glyph0-6">
<path style="stroke:none;" d="M 1.015625 -3.296875 L 0.9375 -2.921875 L 3.078125 -2.921875 L 1.046875 -1 C 0.796875 -0.75 0.53125 -0.515625 0.28125 -0.265625 C 0.265625 -0.171875 0.234375 -0.09375 0.21875 0 C 1.171875 0 2.203125 0.015625 3.109375 0 C 3.15625 -0.125 3.1875 -0.265625 3.21875 -0.390625 L 0.953125 -0.390625 L 3.75 -3.046875 C 3.78125 -3.125 3.796875 -3.21875 3.8125 -3.296875 L 1.015625 -3.296875 Z M 1.015625 -3.296875 "/>
</symbol>
<symbol overflow="visible" id="glyph1-0">
<path style="stroke:none;" d=""/>
</symbol>
<symbol overflow="visible" id="glyph1-1">
<path style="stroke:none;" d="M 2.734375 -2.015625 L 0.6875 -2.015625 C 0.640625 -2.015625 0.578125 -2.015625 0.53125 -2 C 0.46875 -1.984375 0.40625 -1.921875 0.40625 -1.84375 C 0.40625 -1.78125 0.46875 -1.71875 0.53125 -1.6875 C 0.578125 -1.6875 0.640625 -1.6875 0.6875 -1.6875 L 2.734375 -1.6875 L 2.734375 0.359375 C 2.734375 0.40625 2.71875 0.46875 2.734375 0.515625 C 2.765625 0.578125 2.828125 0.625 2.890625 0.625 C 2.96875 0.625 3.03125 0.578125 3.046875 0.515625 C 3.0625 0.46875 3.046875 0.40625 3.046875 0.359375 L 3.046875 -1.6875 L 5.09375 -1.6875 C 5.140625 -1.6875 5.1875 -1.6875 5.25 -1.6875 C 5.3125 -1.71875 5.359375 -1.78125 5.359375 -1.84375 C 5.359375 -1.921875 5.3125 -1.984375 5.25 -2 C 5.1875 -2.015625 5.140625 -2.015625 5.09375 -2.015625 L 3.046875 -2.015625 L 3.046875 -4.046875 C 3.046875 -4.109375 3.0625 -4.15625 3.046875 -4.203125 C 3.03125 -4.28125 2.96875 -4.328125 2.890625 -4.328125 C 2.828125 -4.328125 2.765625 -4.28125 2.734375 -4.203125 C 2.71875 -4.15625 2.734375 -4.109375 2.734375 -4.046875 L 2.734375 -2.015625 Z M 2.734375 -2.015625 "/>
</symbol>
<symbol overflow="visible" id="glyph2-0">
<path style="stroke:none;" d=""/>
</symbol>
<symbol overflow="visible" id="glyph2-1">
<path style="stroke:none;" d="M 0.734375 -2 C 0.59375 -1.953125 0.578125 -1.75 0.734375 -1.6875 C 0.765625 -1.6875 0.8125 -1.6875 0.859375 -1.6875 L 4.8125 -1.6875 C 4.90625 -1.6875 5.03125 -1.65625 5.109375 -1.734375 C 5.203125 -1.8125 5.15625 -1.984375 5.03125 -2 C 4.9375 -2.015625 4.84375 -2.015625 4.75 -2.015625 L 0.875 -2.015625 C 0.828125 -2.015625 0.78125 -2.015625 0.734375 -2 Z M 0.734375 -2 "/>
</symbol>
<symbol overflow="visible" id="glyph3-0">
<path style="stroke:none;" d=""/>
</symbol>
<symbol overflow="visible" id="glyph3-1">
<path style="stroke:none;" d="M 0.53125 -2.3125 C 0.578125 -2.21875 0.65625 -2.125 0.71875 -2.03125 C 0.75 -1.96875 1.1875 -1.3125 1.203125 -1.296875 C 1.21875 -1.265625 1.265625 -1.234375 1.265625 -1.203125 C 1.265625 -1.171875 1.21875 -1.140625 1.1875 -1.109375 C 0.96875 -0.90625 0.03125 -0.03125 0 0 C 0.125 0 0.265625 0 0.375 0 L 0.484375 -0.09375 L 1.390625 -1.015625 C 1.59375 -0.671875 1.78125 -0.328125 2 -0.015625 C 2.125 0 2.25 0 2.390625 0 C 2.328125 -0.09375 1.65625 -1.078125 1.640625 -1.109375 C 1.625 -1.125 1.59375 -1.15625 1.59375 -1.1875 C 1.609375 -1.21875 1.65625 -1.25 1.671875 -1.28125 C 1.75 -1.34375 1.828125 -1.421875 1.90625 -1.484375 C 1.984375 -1.5625 2.75 -2.28125 2.78125 -2.3125 C 2.65625 -2.3125 2.53125 -2.3125 2.40625 -2.3125 C 2.078125 -2.03125 1.796875 -1.71875 1.484375 -1.421875 C 1.28125 -1.71875 1.109375 -2.03125 0.90625 -2.3125 C 0.78125 -2.3125 0.65625 -2.3125 0.53125 -2.3125 Z M 0.53125 -2.3125 "/>
</symbol>
</g>
</defs>
<g id="surface0">
<path style="fill:none;stroke-width:5.09944;stroke-linecap:round;stroke-linejoin:round;stroke:rgb(0%,0%,0%);stroke-opacity:1;stroke-miterlimit:10;" d="M 33.359375 201.473437 L 741.601563 201.473437 " transform="matrix(0.1,0,0,-0.1,0,101.62)"/>
<path style="fill:none;stroke-width:5.09944;stroke-linecap:round;stroke-linejoin:round;stroke:rgb(0%,0%,0%);stroke-opacity:1;stroke-miterlimit:10;" d="M 936.5625 544.79375 L 228.320313 544.79375 " transform="matrix(0.1,0,0,-0.1,0,101.62)"/>
<path style="fill:none;stroke-width:5.09944;stroke-linecap:round;stroke-linejoin:round;stroke:rgb(0%,0%,0%);stroke-opacity:1;stroke-miterlimit:10;" d="M 27.851563 167.879687 L 736.09375 167.879687 " transform="matrix(0.1,0,0,-0.1,0,101.62)"/>
<path style="fill:none;stroke-width:5.09944;stroke-linecap:round;stroke-linejoin:round;stroke:rgb(0%,0%,0%);stroke-opacity:1;stroke-miterlimit:10;" d="M 931.054688 511.2 L 222.8125 511.2 " transform="matrix(0.1,0,0,-0.1,0,101.62)"/>
<path style="fill:none;stroke-width:5.09944;stroke-linecap:round;stroke-linejoin:round;stroke:rgb(0%,0%,0%);stroke-opacity:1;stroke-miterlimit:10;" d="M 33.359375 201.473437 C 32.578125 201.473437 31.601563 200.614062 30.585938 198.85625 C 27.773438 193.85625 25.46875 183.465625 25.46875 175.653125 C 25.46875 170.614062 26.40625 167.879687 27.851563 167.879687 " transform="matrix(0.1,0,0,-0.1,0,101.62)"/>
<path style="fill:none;stroke-width:5.09944;stroke-linecap:round;stroke-linejoin:round;stroke:rgb(0%,0%,0%);stroke-opacity:1;stroke-miterlimit:10;" d="M 743.984375 193.7 C 743.984375 201.5125 741.679688 203.817187 738.867188 198.85625 C 736.015625 193.85625 733.710938 183.465625 733.710938 175.653125 C 733.710938 167.801562 736.015625 165.535937 738.867188 170.496875 C 741.679688 175.496875 743.984375 185.8875 743.984375 193.7 Z M 743.984375 193.7 " transform="matrix(0.1,0,0,-0.1,0,101.62)"/>
<path style="fill:none;stroke-width:5.09944;stroke-linecap:round;stroke-linejoin:round;stroke:rgb(0%,0%,0%);stroke-opacity:1;stroke-miterlimit:10;" d="M 938.945313 537.020312 C 938.945313 544.832812 936.640625 547.1375 933.828125 542.176562 C 930.976563 537.176562 928.671875 526.785937 928.671875 518.973437 C 928.671875 511.121875 930.976563 508.85625 933.828125 513.817187 C 936.640625 518.817187 938.945313 529.207812 938.945313 537.020312 Z M 938.945313 537.020312 " transform="matrix(0.1,0,0,-0.1,0,101.62)"/>
<path style="fill:none;stroke-width:5.09944;stroke-linecap:round;stroke-linejoin:round;stroke:rgb(0%,0%,0%);stroke-opacity:1;stroke-miterlimit:10;" d="M 228.320313 544.79375 C 227.5 544.79375 226.5625 543.934375 225.546875 542.176562 C 222.734375 537.176562 220.429688 526.785937 220.429688 518.973437 C 220.429688 513.934375 221.367188 511.2 222.8125 511.2 " transform="matrix(0.1,0,0,-0.1,0,101.62)"/>
<path style="fill:none;stroke-width:5.09944;stroke-linecap:round;stroke-linejoin:round;stroke:rgb(0%,0%,0%);stroke-opacity:1;stroke-miterlimit:10;" d="M 41.992188 167.879687 C 40.585938 167.879687 39.648438 170.614062 39.648438 175.653125 C 39.648438 183.465625 41.914063 193.85625 44.765625 198.85625 C 45.78125 200.614062 46.71875 201.473437 47.5 201.473437 " transform="matrix(0.1,0,0,-0.1,0,101.62)"/>
<path style="fill:none;stroke-width:5.09944;stroke-linecap:round;stroke-linejoin:round;stroke:rgb(0%,0%,0%);stroke-opacity:1;stroke-miterlimit:10;" d="M 236.953125 511.2 C 235.546875 511.2 234.570313 513.934375 234.570313 518.973437 C 234.570313 526.785937 236.875 537.176562 239.726563 542.176562 C 240.742188 543.934375 241.679688 544.79375 242.460938 544.79375 " transform="matrix(0.1,0,0,-0.1,0,101.62)"/>
<path style="fill:none;stroke-width:5.09944;stroke-linecap:round;stroke-linejoin:round;stroke:rgb(0%,0%,0%);stroke-opacity:1;stroke-miterlimit:10;" d="M 98.671875 167.879687 C 97.226563 167.879687 96.289063 170.614062 96.289063 175.653125 C 96.289063 183.465625 98.59375 193.85625 101.445313 198.85625 C 102.421875 200.614062 103.398438 201.473437 104.179688 201.473437 " transform="matrix(0.1,0,0,-0.1,0,101.62)"/>
<path style="fill:none;stroke-width:5.09944;stroke-linecap:round;stroke-linejoin:round;stroke:rgb(0%,0%,0%);stroke-opacity:1;stroke-miterlimit:10;" d="M 293.632813 511.2 C 292.1875 511.2 291.25 513.934375 291.25 518.973437 C 291.25 526.785937 293.554688 537.176562 296.367188 542.176562 C 297.382813 543.934375 298.320313 544.79375 299.140625 544.79375 " transform="matrix(0.1,0,0,-0.1,0,101.62)"/>
<path style="fill:none;stroke-width:5.09944;stroke-linecap:round;stroke-linejoin:round;stroke:rgb(0%,0%,0%);stroke-opacity:1;stroke-miterlimit:10;" d="M 155.3125 167.879687 C 153.90625 167.879687 152.96875 170.614062 152.96875 175.653125 C 152.96875 183.465625 155.234375 193.85625 158.085938 198.85625 C 159.101563 200.614062 160.039063 201.473437 160.859375 201.473437 " transform="matrix(0.1,0,0,-0.1,0,101.62)"/>
<path style="fill:none;stroke-width:5.09944;stroke-linecap:round;stroke-linejoin:round;stroke:rgb(0%,0%,0%);stroke-opacity:1;stroke-miterlimit:10;" d="M 350.273438 511.2 C 348.867188 511.2 347.890625 513.934375 347.890625 518.973437 C 347.890625 526.785937 350.195313 537.176562 353.046875 542.176562 C 354.0625 543.934375 355 544.79375 355.78125 544.79375 " transform="matrix(0.1,0,0,-0.1,0,101.62)"/>
<path style="fill:none;stroke-width:5.09944;stroke-linecap:round;stroke-linejoin:round;stroke:rgb(0%,0%,0%);stroke-opacity:1;stroke-miterlimit:10;" d="M 211.992188 167.879687 C 210.546875 167.879687 209.609375 170.614062 209.609375 175.653125 C 209.609375 183.465625 211.914063 193.85625 214.726563 198.85625 C 215.742188 200.614062 216.71875 201.473437 217.5 201.473437 " transform="matrix(0.1,0,0,-0.1,0,101.62)"/>
<path style="fill:none;stroke-width:5.09944;stroke-linecap:round;stroke-linejoin:round;stroke:rgb(0%,0%,0%);stroke-opacity:1;stroke-miterlimit:10;" d="M 406.953125 511.2 C 405.507813 511.2 404.570313 513.934375 404.570313 518.973437 C 404.570313 526.785937 406.875 537.176562 409.6875 542.176562 C 410.703125 543.934375 411.640625 544.79375 412.460938 544.79375 " transform="matrix(0.1,0,0,-0.1,0,101.62)"/>
<path style="fill:none;stroke-width:5.09944;stroke-linecap:round;stroke-linejoin:round;stroke:rgb(0%,0%,0%);stroke-opacity:1;stroke-miterlimit:10;" d="M 268.632813 167.879687 C 267.226563 167.879687 266.289063 170.614062 266.289063 175.653125 C 266.289063 183.465625 268.554688 193.85625 271.40625 198.85625 C 272.421875 200.614062 273.359375 201.473437 274.140625 201.473437 " transform="matrix(0.1,0,0,-0.1,0,101.62)"/>
<path style="fill:none;stroke-width:5.09944;stroke-linecap:round;stroke-linejoin:round;stroke:rgb(0%,0%,0%);stroke-opacity:1;stroke-miterlimit:10;" d="M 463.59375 511.2 C 462.1875 511.2 461.210938 513.934375 461.210938 518.973437 C 461.210938 526.785937 463.515625 537.176562 466.367188 542.176562 C 467.382813 543.934375 468.320313 544.79375 469.101563 544.79375 " transform="matrix(0.1,0,0,-0.1,0,101.62)"/>
<path style="fill:none;stroke-width:5.09944;stroke-linecap:round;stroke-linejoin:round;stroke:rgb(0%,0%,0%);stroke-opacity:1;stroke-miterlimit:10;" d="M 325.3125 167.879687 C 323.867188 167.879687 322.929688 170.614062 322.929688 175.653125 C 322.929688 183.465625 325.234375 193.85625 328.046875 198.85625 C 329.0625 200.614062 330.039063 201.473437 330.820313 201.473437 " transform="matrix(0.1,0,0,-0.1,0,101.62)"/>
<path style="fill:none;stroke-width:5.09944;stroke-linecap:round;stroke-linejoin:round;stroke:rgb(0%,0%,0%);stroke-opacity:1;stroke-miterlimit:10;" d="M 520.273438 511.2 C 518.828125 511.2 517.890625 513.934375 517.890625 518.973437 C 517.890625 526.785937 520.195313 537.176562 523.007813 542.176562 C 524.023438 543.934375 524.960938 544.79375 525.78125 544.79375 " transform="matrix(0.1,0,0,-0.1,0,101.62)"/>
<path style="fill:none;stroke-width:5.09944;stroke-linecap:round;stroke-linejoin:round;stroke:rgb(0%,0%,0%);stroke-opacity:1;stroke-miterlimit:10;" d="M 381.992188 167.879687 C 380.546875 167.879687 379.609375 170.614062 379.609375 175.653125 C 379.609375 183.465625 381.914063 193.85625 384.726563 198.85625 C 385.742188 200.614062 386.679688 201.473437 387.460938 201.473437 " transform="matrix(0.1,0,0,-0.1,0,101.62)"/>
<path style="fill:none;stroke-width:5.09944;stroke-linecap:round;stroke-linejoin:round;stroke:rgb(0%,0%,0%);stroke-opacity:1;stroke-miterlimit:10;" d="M 576.914063 511.2 C 575.507813 511.2 574.570313 513.934375 574.570313 518.973437 C 574.570313 526.785937 576.835938 537.176562 579.6875 542.176562 C 580.703125 543.934375 581.640625 544.79375 582.421875 544.79375 " transform="matrix(0.1,0,0,-0.1,0,101.62)"/>
<path style="fill:none;stroke-width:5.09944;stroke-linecap:round;stroke-linejoin:round;stroke:rgb(0%,0%,0%);stroke-opacity:1;stroke-miterlimit:10;" d="M 438.632813 167.879687 C 437.1875 167.879687 436.25 170.614062 436.25 175.653125 C 436.25 183.465625 438.554688 193.85625 441.40625 198.85625 C 442.382813 200.614062 443.359375 201.473437 444.140625 201.473437 " transform="matrix(0.1,0,0,-0.1,0,101.62)"/>
<path style="fill:none;stroke-width:5.09944;stroke-linecap:round;stroke-linejoin:round;stroke:rgb(0%,0%,0%);stroke-opacity:1;stroke-miterlimit:10;" d="M 633.59375 511.2 C 632.148438 511.2 631.210938 513.934375 631.210938 518.973437 C 631.210938 526.785937 633.515625 537.176562 636.328125 542.176562 C 637.34375 543.934375 638.320313 544.79375 639.101563 544.79375 " transform="matrix(0.1,0,0,-0.1,0,101.62)"/>
<path style="fill:none;stroke-width:5.09944;stroke-linecap:round;stroke-linejoin:round;stroke:rgb(0%,0%,0%);stroke-opacity:1;stroke-miterlimit:10;" d="M 495.3125 167.879687 C 493.867188 167.879687 492.929688 170.614062 492.929688 175.653125 C 492.929688 183.465625 495.234375 193.85625 498.046875 198.85625 C 499.0625 200.614062 500 201.473437 500.820313 201.473437 " transform="matrix(0.1,0,0,-0.1,0,101.62)"/>
<path style="fill:none;stroke-width:5.09944;stroke-linecap:round;stroke-linejoin:round;stroke:rgb(0%,0%,0%);stroke-opacity:1;stroke-miterlimit:10;" d="M 690.234375 511.2 C 688.828125 511.2 687.851563 513.934375 687.851563 518.973437 C 687.851563 526.785937 690.15625 537.176562 693.007813 542.176562 C 694.023438 543.934375 694.960938 544.79375 695.742188 544.79375 " transform="matrix(0.1,0,0,-0.1,0,101.62)"/>
<path style="fill:none;stroke-width:5.09944;stroke-linecap:round;stroke-linejoin:round;stroke:rgb(0%,0%,0%);stroke-opacity:1;stroke-miterlimit:10;" d="M 551.953125 167.879687 C 550.507813 167.879687 549.570313 170.614062 549.570313 175.653125 C 549.570313 183.465625 551.875 193.85625 554.6875 198.85625 C 555.742188 200.614062 556.679688 201.473437 557.460938 201.473437 " transform="matrix(0.1,0,0,-0.1,0,101.62)"/>
<path style="fill:none;stroke-width:5.09944;stroke-linecap:round;stroke-linejoin:round;stroke:rgb(0%,0%,0%);stroke-opacity:1;stroke-miterlimit:10;" d="M 746.914063 511.2 C 745.46875 511.2 744.53125 513.934375 744.53125 518.973437 C 744.53125 526.785937 746.835938 537.176562 749.648438 542.176562 C 750.664063 543.934375 751.601563 544.79375 752.421875 544.79375 " transform="matrix(0.1,0,0,-0.1,0,101.62)"/>
<path style="fill:none;stroke-width:5.09944;stroke-linecap:round;stroke-linejoin:round;stroke:rgb(0%,0%,0%);stroke-opacity:1;stroke-miterlimit:10;" d="M 608.59375 167.879687 C 607.1875 167.879687 606.25 170.614062 606.25 175.653125 C 606.25 183.465625 608.515625 193.85625 611.367188 198.85625 C 612.382813 200.614062 613.320313 201.473437 614.140625 201.473437 " transform="matrix(0.1,0,0,-0.1,0,101.62)"/>
<path style="fill:none;stroke-width:5.09944;stroke-linecap:round;stroke-linejoin:round;stroke:rgb(0%,0%,0%);stroke-opacity:1;stroke-miterlimit:10;" d="M 803.554688 511.2 C 802.148438 511.2 801.171875 513.934375 801.171875 518.973437 C 801.171875 526.785937 803.476563 537.176562 806.328125 542.176562 C 807.34375 543.934375 808.28125 544.79375 809.0625 544.79375 " transform="matrix(0.1,0,0,-0.1,0,101.62)"/>
<path style="fill:none;stroke-width:5.09944;stroke-linecap:round;stroke-linejoin:round;stroke:rgb(0%,0%,0%);stroke-opacity:1;stroke-miterlimit:10;" d="M 665.273438 167.879687 C 663.867188 167.879687 662.890625 170.614062 662.890625 175.653125 C 662.890625 183.465625 665.195313 193.85625 668.046875 198.85625 C 669.0625 200.614062 670 201.473437 670.78125 201.473437 " transform="matrix(0.1,0,0,-0.1,0,101.62)"/>
<path style="fill:none;stroke-width:5.09944;stroke-linecap:round;stroke-linejoin:round;stroke:rgb(0%,0%,0%);stroke-opacity:1;stroke-miterlimit:10;" d="M 860.234375 511.2 C 858.789063 511.2 857.851563 513.934375 857.851563 518.973437 C 857.851563 526.785937 860.15625 537.176562 862.96875 542.176562 C 863.984375 543.934375 864.921875 544.79375 865.742188 544.79375 " transform="matrix(0.1,0,0,-0.1,0,101.62)"/>
<path style="fill:none;stroke-width:5.09944;stroke-linecap:round;stroke-linejoin:round;stroke:rgb(0%,0%,0%);stroke-opacity:1;stroke-miterlimit:10;" d="M 721.953125 167.879687 C 720.507813 167.879687 719.570313 170.614062 719.570313 175.653125 C 719.570313 183.465625 721.835938 193.85625 724.6875 198.85625 C 725.703125 200.614062 726.640625 201.473437 727.460938 201.473437 " transform="matrix(0.1,0,0,-0.1,0,101.62)"/>
<path style="fill:none;stroke-width:5.09944;stroke-linecap:round;stroke-linejoin:round;stroke:rgb(0%,0%,0%);stroke-opacity:1;stroke-miterlimit:10;" d="M 916.875 511.2 C 915.46875 511.2 914.53125 513.934375 914.53125 518.973437 C 914.53125 526.785937 916.796875 537.176562 919.648438 542.176562 C 920.664063 543.934375 921.601563 544.79375 922.382813 544.79375 " transform="matrix(0.1,0,0,-0.1,0,101.62)"/>
<path style="fill:none;stroke-width:15.2983;stroke-linecap:round;stroke-linejoin:round;stroke:rgb(100%,100%,100%);stroke-opacity:1;stroke-miterlimit:10;" d="M 482.1875 356.317187 L 482.1875 1007.91875 " transform="matrix(0.1,0,0,-0.1,0,101.62)"/>
<path style="fill:none;stroke-width:5.09944;stroke-linecap:round;stroke-linejoin:round;stroke:rgb(0%,0%,0%);stroke-opacity:1;stroke-miterlimit:10;" d="M 482.1875 951.278125 L 482.1875 356.317187 " transform="matrix(0.1,0,0,-0.1,0,101.62)"/>
<path style=" stroke:none;fill-rule:nonzero;fill:rgb(0%,0%,0%);fill-opacity:1;" d="M 48.21875 0.828125 L 46.964844 6.492188 L 49.476563 6.492188 L 48.21875 0.828125 "/>
<path style="fill:none;stroke-width:5.09944;stroke-linecap:round;stroke-linejoin:round;stroke:rgb(0%,0%,0%);stroke-opacity:1;stroke-miterlimit:10;" d="M 482.1875 1007.91875 L 469.648438 951.278125 L 494.765625 951.278125 L 482.1875 1007.91875 Z M 482.1875 1007.91875 " transform="matrix(0.1,0,0,-0.1,0,101.62)"/>
<path style="fill:none;stroke-width:5.09944;stroke-linecap:round;stroke-linejoin:round;stroke:rgb(0%,0%,0%);stroke-opacity:1;stroke-miterlimit:10;" d="M 482.1875 356.317187 L 574.570313 518.973437 " transform="matrix(0.1,0,0,-0.1,0,101.62)"/>
<path style="fill:none;stroke-width:5.09944;stroke-linecap:round;stroke-linejoin:round;stroke:rgb(0%,0%,0%);stroke-opacity:1;stroke-miterlimit:10;" d="M 731.25 794.95 L 589.21875 544.79375 " transform="matrix(0.1,0,0,-0.1,0,101.62)"/>
<path style=" stroke:none;fill-rule:nonzero;fill:rgb(0%,0%,0%);fill-opacity:1;" d="M 75.925781 17.199219 L 72.035156 21.503906 L 74.21875 22.746094 L 75.925781 17.199219 "/>
<path style="fill:none;stroke-width:5.09944;stroke-linecap:round;stroke-linejoin:round;stroke:rgb(0%,0%,0%);stroke-opacity:1;stroke-miterlimit:10;" d="M 759.257813 844.207812 L 720.351563 801.160937 L 742.1875 788.739062 L 759.257813 844.207812 Z M 759.257813 844.207812 " transform="matrix(0.1,0,0,-0.1,0,101.62)"/>
<path style="fill:none;stroke-width:5.09944;stroke-linecap:round;stroke-linejoin:round;stroke:rgb(0%,0%,0%);stroke-opacity:1;stroke-miterlimit:10;" d="M 1218.789063 356.317187 L 482.1875 356.317187 " transform="matrix(0.1,0,0,-0.1,0,101.62)"/>
<path style=" stroke:none;fill-rule:nonzero;fill:rgb(0%,0%,0%);fill-opacity:1;" d="M 127.546875 65.988281 L 121.878906 64.730469 L 121.878906 67.242188 L 127.546875 65.988281 "/>
<path style="fill:none;stroke-width:5.09944;stroke-linecap:round;stroke-linejoin:round;stroke:rgb(0%,0%,0%);stroke-opacity:1;stroke-miterlimit:10;" d="M 1275.46875 356.317187 L 1218.789063 368.895312 L 1218.789063 343.778125 L 1275.46875 356.317187 Z M 1275.46875 356.317187 " transform="matrix(0.1,0,0,-0.1,0,101.62)"/>
<path style="fill:none;stroke-width:5.09944;stroke-linecap:round;stroke-linejoin:round;stroke:rgb(0%,0%,0%);stroke-opacity:1;stroke-dasharray:43.868,43.868;stroke-miterlimit:10;" d="M 738.867188 184.676562 L 933.828125 527.996875 " transform="matrix(0.1,0,0,-0.1,0,101.62)"/>
<path style="fill:none;stroke-width:5.09944;stroke-linecap:round;stroke-linejoin:round;stroke:rgb(0%,0%,0%);stroke-opacity:1;stroke-dasharray:40.5665,40.5665;stroke-miterlimit:10;" d="M 40.15625 201.473437 L 220.429688 518.973437 " transform="matrix(0.1,0,0,-0.1,0,101.62)"/>
<path style="fill:none;stroke-width:5.09944;stroke-linecap:round;stroke-linejoin:round;stroke:rgb(0%,0%,0%);stroke-opacity:1;stroke-miterlimit:10;" d="M 607.1875 40.10625 L 543.4375 40.10625 " transform="matrix(0.1,0,0,-0.1,0,101.62)"/>
<path style=" stroke:none;fill-rule:nonzero;fill:rgb(0%,0%,0%);fill-opacity:1;" d="M 65.675781 97.609375 L 60.71875 96.507813 L 60.71875 98.707031 L 65.675781 97.609375 "/>
<path style="fill:none;stroke-width:5.09944;stroke-linecap:round;stroke-linejoin:round;stroke:rgb(0%,0%,0%);stroke-opacity:1;stroke-miterlimit:10;" d="M 656.757813 40.10625 L 607.1875 51.121875 L 607.1875 29.129687 L 656.757813 40.10625 Z M 656.757813 40.10625 " transform="matrix(0.1,0,0,-0.1,0,101.62)"/>
<path style="fill:none;stroke-width:5.09944;stroke-linecap:round;stroke-linejoin:round;stroke:rgb(0%,0%,0%);stroke-opacity:1;stroke-miterlimit:10;" d="M 757.734375 654.48125 L 821.484375 654.48125 " transform="matrix(0.1,0,0,-0.1,0,101.62)"/>
<path style=" stroke:none;fill-rule:nonzero;fill:rgb(0%,0%,0%);fill-opacity:1;" d="M 70.816406 36.171875 L 75.773438 37.269531 L 75.773438 35.074219 L 70.816406 36.171875 "/>
<path style="fill:none;stroke-width:5.09944;stroke-linecap:round;stroke-linejoin:round;stroke:rgb(0%,0%,0%);stroke-opacity:1;stroke-miterlimit:10;" d="M 708.164063 654.48125 L 757.734375 643.504687 L 757.734375 665.457812 L 708.164063 654.48125 Z M 708.164063 654.48125 " transform="matrix(0.1,0,0,-0.1,0,101.62)"/>
<g style="fill:rgb(0%,0%,0%);fill-opacity:1;">
  <use xlink:href="#glyph0-1" x="37.6801" y="79.1798"/>
</g>
<g style="fill:rgb(0%,0%,0%);fill-opacity:1;">
  <use xlink:href="#glyph0-2" x="5.2801" y="68.3798"/>
</g>
<g style="fill:rgb(0%,0%,0%);fill-opacity:1;">
  <use xlink:href="#glyph1-1" x="2.63987" y="90.4599"/>
</g>
<g style="fill:rgb(0%,0%,0%);fill-opacity:1;">
  <use xlink:href="#glyph1-1" x="12.119956" y="90.4599"/>
</g>
<g style="fill:rgb(0%,0%,0%);fill-opacity:1;">
  <use xlink:href="#glyph1-1" x="21.719966" y="90.4599"/>
</g>
<g style="fill:rgb(0%,0%,0%);fill-opacity:1;">
  <use xlink:href="#glyph1-1" x="31.200052" y="90.4599"/>
</g>
<g style="fill:rgb(0%,0%,0%);fill-opacity:1;">
  <use xlink:href="#glyph1-1" x="40.680138" y="90.4599"/>
</g>
<g style="fill:rgb(0%,0%,0%);fill-opacity:1;">
  <use xlink:href="#glyph1-1" x="50.160224" y="90.4599"/>
</g>
<g style="fill:rgb(0%,0%,0%);fill-opacity:1;">
  <use xlink:href="#glyph1-1" x="59.64031" y="90.4599"/>
</g>
<g style="fill:rgb(0%,0%,0%);fill-opacity:1;">
  <use xlink:href="#glyph1-1" x="69.24032" y="90.4599"/>
</g>
<g style="fill:rgb(0%,0%,0%);fill-opacity:1;">
  <use xlink:href="#glyph2-1" x="22.43987" y="46.54"/>
</g>
<g style="fill:rgb(0%,0%,0%);fill-opacity:1;">
  <use xlink:href="#glyph2-1" x="31.919956" y="46.54"/>
</g>
<g style="fill:rgb(0%,0%,0%);fill-opacity:1;">
  <use xlink:href="#glyph2-1" x="41.400042" y="46.54"/>
</g>
<g style="fill:rgb(0%,0%,0%);fill-opacity:1;">
  <use xlink:href="#glyph2-1" x="50.880128" y="46.54"/>
</g>
<g style="fill:rgb(0%,0%,0%);fill-opacity:1;">
  <use xlink:href="#glyph2-1" x="60.480138" y="46.54"/>
</g>
<g style="fill:rgb(0%,0%,0%);fill-opacity:1;">
  <use xlink:href="#glyph2-1" x="69.960224" y="46.54"/>
</g>
<g style="fill:rgb(0%,0%,0%);fill-opacity:1;">
  <use xlink:href="#glyph2-1" x="79.44031" y="46.54"/>
</g>
<g style="fill:rgb(0%,0%,0%);fill-opacity:1;">
  <use xlink:href="#glyph2-1" x="88.920396" y="46.54"/>
</g>
<g style="fill:rgb(0%,0%,0%);fill-opacity:1;">
  <use xlink:href="#glyph0-3" x="47.03987" y="99.4599"/>
</g>
<g style="fill:rgb(0%,0%,0%);fill-opacity:1;">
  <use xlink:href="#glyph3-1" x="48.96018" y="100.300134"/>
</g>
<g style="fill:rgb(0%,0%,0%);fill-opacity:1;">
  <use xlink:href="#glyph0-3" x="84.36018" y="38.020034"/>
</g>
<g style="fill:rgb(0%,0%,0%);fill-opacity:1;">
  <use xlink:href="#glyph3-1" x="86.2801" y="38.859878"/>
</g>
<g style="fill:rgb(0%,0%,0%);fill-opacity:1;">
  <use xlink:href="#glyph0-4" x="122.7602" y="62.500078"/>
</g>
<g style="fill:rgb(0%,0%,0%);fill-opacity:1;">
  <use xlink:href="#glyph0-5" x="69.72" y="18.219978"/>
</g>
<g style="fill:rgb(0%,0%,0%);fill-opacity:1;">
  <use xlink:href="#glyph0-6" x="41.2802" y="5.619978"/>
</g>
</g>
</svg>
