<?xml version="1.0" encoding="UTF-8"?>
<svg xmlns="http://www.w3.org/2000/svg" xmlns:xlink="http://www.w3.org/1999/xlink" width="412pt" height="329pt" viewBox="0 0 238 190" version="1.1">
<defs>
<g>
<symbol overflow="visible" id="glyph0-0">
<path style="stroke:none;" d=""/>
</symbol>
<symbol overflow="visible" id="glyph0-1">
<path style="stroke:none;" d="M 2.140625 -0.625 C 2.234375 -0.421875 2.265625 -0.3125 2.4375 -0.15625 C 2.703125 0.078125 3.09375 0.125 3.421875 -0.015625 C 3.609375 -0.09375 3.75 -0.21875 3.890625 -0.375 C 4.328125 -0.859375 4.484375 -1.546875 4.609375 -2.1875 C 4.671875 -2.5 4.71875 -3.046875 4.546875 -3.28125 C 4.515625 -3.328125 4.453125 -3.34375 4.375 -3.34375 C 4.234375 -3.34375 4.09375 -3.21875 4.078125 -3.0625 C 4.0625 -2.984375 4.109375 -2.921875 4.125 -2.84375 C 4.203125 -2.53125 4.046875 -1.953125 4 -1.75 C 3.9375 -1.453125 3.875 -1.140625 3.734375 -0.859375 C 3.609375 -0.640625 3.4375 -0.453125 3.171875 -0.4375 C 2.828125 -0.4375 2.59375 -0.578125 2.46875 -0.828125 C 2.4375 -0.890625 2.390625 -0.96875 2.390625 -1.03125 C 2.390625 -1.0625 2.453125 -1.203125 2.46875 -1.234375 C 2.546875 -1.4375 2.6875 -1.859375 2.640625 -2.078125 C 2.625 -2.1875 2.546875 -2.25 2.453125 -2.25 C 2.34375 -2.234375 2.265625 -2.140625 2.21875 -2.0625 C 2.09375 -1.828125 2.0625 -1.484375 2.0625 -1.1875 C 2.0625 -1.03125 2.078125 -1.03125 2 -0.9375 C 1.8125 -0.671875 1.46875 -0.40625 1.09375 -0.4375 C 1.046875 -0.4375 1 -0.453125 0.96875 -0.46875 C 0.703125 -0.578125 0.65625 -0.890625 0.65625 -1.140625 C 0.65625 -1.734375 0.890625 -2.375 1.1875 -2.796875 C 1.234375 -2.875 1.328125 -2.96875 1.328125 -3.09375 C 1.328125 -3.265625 1.125 -3.328125 0.984375 -3.265625 C 0.90625 -3.21875 0.84375 -3.125 0.796875 -3.046875 C 0.453125 -2.515625 0.15625 -1.890625 0.15625 -1.109375 C 0.15625 -0.703125 0.265625 -0.328125 0.546875 -0.09375 C 0.8125 0.09375 1.171875 0.09375 1.453125 -0.03125 C 1.625 -0.109375 1.78125 -0.21875 1.921875 -0.34375 C 2 -0.4375 2.078125 -0.515625 2.140625 -0.625 Z M 2.140625 -0.625 "/>
</symbol>
<symbol overflow="visible" id="glyph0-2">
<path style="stroke:none;" d="M 3.09375 -5.21875 C 2.953125 -5.1875 2.921875 -5 2.875 -4.890625 L 0.90625 0.109375 L 0.453125 1.234375 C 0.4375 1.28125 0.40625 1.328125 0.40625 1.390625 C 0.40625 1.484375 0.5 1.546875 0.59375 1.546875 C 0.6875 1.53125 0.71875 1.46875 0.75 1.390625 C 0.78125 1.328125 3.21875 -4.84375 3.265625 -5 C 3.28125 -5.03125 3.296875 -5.078125 3.28125 -5.109375 C 3.25 -5.1875 3.15625 -5.234375 3.09375 -5.21875 Z M 3.09375 -5.21875 "/>
</symbol>
<symbol overflow="visible" id="glyph0-3">
<path style="stroke:none;" d="M 0.203125 -2.234375 L 0.5625 -2.234375 C 0.671875 -2.234375 0.703125 -2.21875 0.765625 -2.328125 C 0.875 -2.5 1.015625 -2.65625 1.203125 -2.75 C 1.3125 -2.796875 1.421875 -2.796875 1.546875 -2.796875 L 1.828125 -2.796875 C 1.796875 -2.671875 1.765625 -2.546875 1.734375 -2.40625 C 1.578125 -1.703125 1.40625 -1.03125 1.140625 -0.421875 C 1.109375 -0.328125 1.03125 -0.21875 1.046875 -0.125 C 1.0625 0.0625 1.296875 0.09375 1.421875 0 C 1.546875 -0.0625 1.578125 -0.21875 1.640625 -0.34375 C 1.859375 -0.875 2.015625 -1.4375 2.15625 -2 C 2.203125 -2.1875 2.328125 -2.765625 2.328125 -2.78125 C 2.359375 -2.8125 2.4375 -2.796875 2.484375 -2.796875 L 2.90625 -2.796875 C 2.78125 -2.078125 2.625 -1.390625 2.828125 -0.5625 C 2.84375 -0.421875 2.953125 -0.09375 3.046875 0 C 3.125 0.078125 3.25 0.0625 3.34375 0.015625 C 3.40625 -0.015625 3.4375 -0.0625 3.484375 -0.125 C 3.546875 -0.265625 3.46875 -0.390625 3.421875 -0.5 C 3.21875 -0.96875 3.21875 -1.609375 3.3125 -2.234375 C 3.34375 -2.421875 3.390625 -2.609375 3.40625 -2.796875 L 4.015625 -2.796875 C 4.125 -2.796875 4.234375 -2.78125 4.328125 -2.828125 C 4.46875 -2.875 4.59375 -3.0625 4.5 -3.203125 C 4.4375 -3.3125 4.28125 -3.296875 4.1875 -3.296875 L 1.984375 -3.296875 C 1.734375 -3.296875 1.46875 -3.3125 1.21875 -3.234375 C 0.84375 -3.09375 0.484375 -2.734375 0.296875 -2.390625 C 0.265625 -2.34375 0.21875 -2.296875 0.203125 -2.234375 Z M 0.203125 -2.234375 "/>
</symbol>
<symbol overflow="visible" id="glyph0-4">
<path style="stroke:none;" d="M 0.4375 -4.40625 L 2.578125 -4.40625 L 1.640625 0 L 2.03125 0 C 2.0625 0 2.140625 0.015625 2.171875 -0.015625 C 2.1875 -0.03125 2.1875 -0.078125 2.203125 -0.109375 L 2.25 -0.328125 C 2.390625 -1.03125 3.09375 -4.375 3.109375 -4.40625 C 3.8125 -4.421875 4.578125 -4.375 5.234375 -4.421875 C 5.28125 -4.53125 5.296875 -4.6875 5.328125 -4.8125 L 1.71875 -4.8125 C 1.328125 -4.796875 0.890625 -4.84375 0.53125 -4.796875 C 0.5 -4.671875 0.46875 -4.53125 0.4375 -4.40625 Z M 0.4375 -4.40625 "/>
</symbol>
<symbol overflow="visible" id="glyph1-0">
<path style="stroke:none;" d=""/>
</symbol>
<symbol overflow="visible" id="glyph1-1">
<path style="stroke:none;" d="M 1.3125 -3.34375 C 1.1875 -3.328125 1.078125 -3.3125 0.96875 -3.265625 C 0.453125 -3.0625 0.265625 -2.390625 0.265625 -1.71875 C 0.265625 -1.609375 0.265625 -1.515625 0.265625 -1.40625 C 0.28125 -0.953125 0.390625 -0.5 0.65625 -0.21875 C 0.875 0.015625 1.203125 0.109375 1.5 0.078125 C 1.6875 0.0625 1.84375 -0.015625 1.984375 -0.09375 C 2.40625 -0.40625 2.5 -1.015625 2.5 -1.6875 C 2.5 -2.234375 2.40625 -2.71875 2.140625 -3.03125 C 1.9375 -3.25 1.609375 -3.375 1.3125 -3.34375 Z M 1.734375 -2.984375 C 1.78125 -2.953125 1.828125 -2.921875 1.875 -2.875 C 2.0625 -2.6875 2.125 -2.328125 2.140625 -2 C 2.140625 -1.9375 2.140625 -1.875 2.140625 -1.796875 L 2.140625 -1.546875 C 2.140625 -1.109375 2.09375 -0.703125 1.90625 -0.453125 C 1.65625 -0.125 1.125 -0.109375 0.875 -0.4375 C 0.8125 -0.515625 0.765625 -0.59375 0.734375 -0.671875 C 0.640625 -0.921875 0.625 -1.25 0.625 -1.5625 L 0.625 -1.8125 C 0.625 -1.890625 0.640625 -1.9375 0.640625 -2.015625 C 0.640625 -2.40625 0.734375 -2.796875 1 -2.953125 C 1.1875 -3.078125 1.5 -3.109375 1.734375 -2.984375 Z M 1.734375 -2.984375 "/>
</symbol>
<symbol overflow="visible" id="glyph2-0">
<path style="stroke:none;" d=""/>
</symbol>
<symbol overflow="visible" id="glyph2-1">
<path style="stroke:none;" d="M -4.84375 -1.765625 L 0 -0.734375 L 0 -1.109375 C 0 -1.15625 0.015625 -1.21875 -0.015625 -1.265625 C -0.03125 -1.296875 -0.09375 -1.296875 -0.125 -1.296875 C -0.203125 -1.3125 -1.875 -1.671875 -1.875 -1.671875 C -1.90625 -1.671875 -1.984375 -1.671875 -2 -1.71875 C -2.03125 -1.734375 -2.015625 -1.765625 -2.015625 -1.796875 L -2.015625 -2.640625 C -2.015625 -2.859375 -2 -3.078125 -2.03125 -3.296875 C -2.0625 -3.6875 -2.203125 -4.078125 -2.421875 -4.40625 C -2.734375 -4.890625 -3.296875 -5.3125 -3.890625 -5.15625 C -4.28125 -5.0625 -4.546875 -4.75 -4.6875 -4.421875 C -4.84375 -4.0625 -4.84375 -3.65625 -4.84375 -3.265625 L -4.84375 -1.765625 Z M -2.421875 -1.765625 C -2.625 -1.796875 -2.8125 -1.859375 -3.015625 -1.890625 C -3.125 -1.921875 -4.21875 -2.15625 -4.28125 -2.15625 C -4.34375 -2.171875 -4.421875 -2.171875 -4.421875 -2.265625 L -4.421875 -3.453125 C -4.421875 -3.9375 -4.296875 -4.625 -3.6875 -4.6875 C -3.1875 -4.734375 -2.765625 -4.359375 -2.578125 -3.921875 C -2.421875 -3.546875 -2.421875 -3.21875 -2.421875 -2.75 L -2.421875 -1.765625 Z M -2.421875 -1.765625 "/>
</symbol>
<symbol overflow="visible" id="glyph2-2">
<path style="stroke:none;" d="M -0.625 -2.140625 C -0.421875 -2.234375 -0.3125 -2.265625 -0.15625 -2.4375 C 0.078125 -2.703125 0.125 -3.09375 -0.015625 -3.421875 C -0.09375 -3.609375 -0.21875 -3.75 -0.375 -3.890625 C -0.859375 -4.328125 -1.546875 -4.484375 -2.1875 -4.609375 C -2.5 -4.671875 -3.046875 -4.71875 -3.28125 -4.546875 C -3.328125 -4.515625 -3.34375 -4.453125 -3.34375 -4.375 C -3.34375 -4.234375 -3.21875 -4.09375 -3.0625 -4.078125 C -2.984375 -4.0625 -2.921875 -4.109375 -2.84375 -4.125 C -2.53125 -4.203125 -1.953125 -4.046875 -1.75 -4 C -1.453125 -3.9375 -1.140625 -3.875 -0.859375 -3.734375 C -0.640625 -3.609375 -0.453125 -3.4375 -0.4375 -3.171875 C -0.4375 -2.828125 -0.578125 -2.59375 -0.828125 -2.46875 C -0.890625 -2.4375 -0.96875 -2.390625 -1.03125 -2.390625 C -1.0625 -2.390625 -1.203125 -2.453125 -1.234375 -2.46875 C -1.4375 -2.546875 -1.859375 -2.6875 -2.078125 -2.640625 C -2.1875 -2.625 -2.25 -2.546875 -2.25 -2.453125 C -2.234375 -2.34375 -2.140625 -2.265625 -2.0625 -2.21875 C -1.828125 -2.09375 -1.484375 -2.0625 -1.1875 -2.0625 C -1.03125 -2.0625 -1.03125 -2.078125 -0.9375 -2 C -0.671875 -1.8125 -0.40625 -1.46875 -0.4375 -1.09375 C -0.4375 -1.046875 -0.453125 -1 -0.46875 -0.96875 C -0.578125 -0.703125 -0.890625 -0.65625 -1.140625 -0.65625 C -1.734375 -0.65625 -2.375 -0.890625 -2.796875 -1.1875 C -2.875 -1.234375 -2.96875 -1.328125 -3.09375 -1.328125 C -3.265625 -1.328125 -3.328125 -1.125 -3.265625 -0.984375 C -3.21875 -0.90625 -3.125 -0.84375 -3.046875 -0.796875 C -2.515625 -0.453125 -1.890625 -0.15625 -1.109375 -0.15625 C -0.703125 -0.15625 -0.328125 -0.265625 -0.09375 -0.546875 C 0.09375 -0.8125 0.09375 -1.171875 -0.03125 -1.453125 C -0.109375 -1.625 -0.21875 -1.78125 -0.34375 -1.921875 C -0.4375 -2 -0.515625 -2.078125 -0.625 -2.140625 Z M -0.625 -2.140625 "/>
</symbol>
<symbol overflow="visible" id="glyph2-3">
<path style="stroke:none;" d="M -5.21875 -3.09375 C -5.1875 -2.953125 -5 -2.921875 -4.890625 -2.875 L 0.109375 -0.90625 L 1.234375 -0.453125 C 1.28125 -0.4375 1.328125 -0.40625 1.390625 -0.40625 C 1.484375 -0.40625 1.546875 -0.5 1.546875 -0.59375 C 1.53125 -0.6875 1.46875 -0.71875 1.390625 -0.75 C 1.328125 -0.78125 -4.84375 -3.21875 -5 -3.265625 C -5.03125 -3.28125 -5.078125 -3.296875 -5.109375 -3.28125 C -5.1875 -3.25 -5.234375 -3.15625 -5.21875 -3.09375 Z M -5.21875 -3.09375 "/>
</symbol>
<symbol overflow="visible" id="glyph3-0">
<path style="stroke:none;" d=""/>
</symbol>
<symbol overflow="visible" id="glyph3-1">
<path style="stroke:none;" d="M -3.453125 -1.265625 L -3.078125 -1.1875 L 0 -0.53125 L 0 -0.8125 C 0 -0.828125 0.015625 -0.890625 -0.015625 -0.90625 C -0.046875 -0.921875 -0.078125 -0.921875 -0.109375 -0.9375 C -0.171875 -0.953125 -3.421875 -1.640625 -3.453125 -1.640625 L -3.453125 -1.265625 Z M -3.453125 -1.265625 "/>
</symbol>
<symbol overflow="visible" id="glyph4-0">
<path style="stroke:none;" d=""/>
</symbol>
<symbol overflow="visible" id="glyph4-1">
<path style="stroke:none;" d="M -1.4375 -4.34375 L -1.4375 -4.34375 L -1.4375 -0.515625 C -1.4375 -0.4375 -1.453125 -0.328125 -1.359375 -0.296875 C -1.34375 -0.296875 -1.328125 -0.296875 -1.3125 -0.296875 C -1.296875 -0.296875 -1.296875 -0.296875 -1.28125 -0.296875 C -1.1875 -0.328125 -1.203125 -0.4375 -1.203125 -0.515625 L -1.203125 -4.34375 C -0.984375 -4.0625 -0.71875 -3.84375 -0.359375 -3.71875 C -0.28125 -3.6875 -0.1875 -3.65625 -0.09375 -3.640625 C -0.046875 -3.640625 0 -3.65625 0 -3.71875 C 0 -3.75 0.015625 -3.8125 -0.015625 -3.84375 C -0.046875 -3.875 -0.09375 -3.875 -0.140625 -3.890625 C -0.203125 -3.90625 -0.28125 -3.921875 -0.359375 -3.953125 C -0.734375 -4.109375 -1.078125 -4.4375 -1.21875 -4.84375 C -1.234375 -4.890625 -1.234375 -4.953125 -1.28125 -4.984375 C -1.3125 -5.015625 -1.359375 -5 -1.375 -4.96875 C -1.390625 -4.921875 -1.40625 -4.890625 -1.421875 -4.84375 C -1.59375 -4.359375 -1.953125 -4.046875 -2.453125 -3.890625 C -2.5 -3.890625 -2.53125 -3.875 -2.578125 -3.859375 C -2.625 -3.84375 -2.625 -3.796875 -2.625 -3.75 C -2.625 -3.671875 -2.609375 -3.640625 -2.53125 -3.640625 C -2.15625 -3.703125 -1.828125 -3.90625 -1.625 -4.125 C -1.5625 -4.1875 -1.484375 -4.265625 -1.4375 -4.34375 Z M -1.4375 -4.34375 "/>
</symbol>
<symbol overflow="visible" id="glyph5-0">
<path style="stroke:none;" d=""/>
</symbol>
<symbol overflow="visible" id="glyph5-1">
<path style="stroke:none;" d="M 1.546875 -2.578125 C 1.5 -2.546875 1.46875 -2.5 1.4375 -2.453125 C 0.75 -1.6875 -0.3125 -1.21875 -1.59375 -1.171875 C -2.46875 -1.140625 -3.375 -1.296875 -4.15625 -1.703125 C -4.53125 -1.90625 -4.84375 -2.140625 -5.109375 -2.453125 C -5.15625 -2.5 -5.1875 -2.546875 -5.21875 -2.578125 L -5.21875 -2.328125 C -5.21875 -2.171875 -5.21875 -2.1875 -5.140625 -2.078125 C -4.859375 -1.71875 -4.484375 -1.421875 -4.0625 -1.1875 C -2.828125 -0.53125 -1.15625 -0.484375 0.1875 -1.09375 C 0.6875 -1.3125 1.109375 -1.65625 1.46875 -2.078125 C 1.53125 -2.171875 1.546875 -2.171875 1.546875 -2.328125 L 1.546875 -2.578125 Z M 1.546875 -2.578125 "/>
</symbol>
<symbol overflow="visible" id="glyph5-2">
<path style="stroke:none;" d="M -5.21875 -0.4375 C -5.1875 -0.46875 -5.15625 -0.515625 -5.109375 -0.5625 C -4.34375 -1.421875 -3.109375 -1.890625 -1.59375 -1.828125 C -0.84375 -1.8125 -0.09375 -1.625 0.5625 -1.265625 C 0.890625 -1.078125 1.1875 -0.84375 1.4375 -0.5625 C 1.46875 -0.515625 1.5 -0.46875 1.546875 -0.4375 L 1.546875 -0.6875 C 1.546875 -0.84375 1.546875 -0.828125 1.46875 -0.921875 C 1.171875 -1.296875 0.796875 -1.59375 0.390625 -1.8125 C -0.859375 -2.484375 -2.515625 -2.53125 -3.859375 -1.921875 C -4.375 -1.6875 -4.796875 -1.359375 -5.140625 -0.9375 C -5.21875 -0.84375 -5.21875 -0.84375 -5.21875 -0.6875 L -5.21875 -0.4375 Z M -5.21875 -0.4375 "/>
</symbol>
<symbol overflow="visible" id="glyph6-0">
<path style="stroke:none;" d=""/>
</symbol>
<symbol overflow="visible" id="glyph6-1">
<path style="stroke:none;" d="M -3.34375 -1.3125 C -3.328125 -1.1875 -3.3125 -1.078125 -3.265625 -0.96875 C -3.0625 -0.453125 -2.390625 -0.265625 -1.71875 -0.265625 C -1.609375 -0.265625 -1.515625 -0.265625 -1.40625 -0.265625 C -0.953125 -0.28125 -0.5 -0.390625 -0.21875 -0.65625 C 0.015625 -0.875 0.109375 -1.203125 0.078125 -1.5 C 0.0625 -1.6875 -0.015625 -1.84375 -0.09375 -1.984375 C -0.40625 -2.40625 -1.015625 -2.5 -1.6875 -2.5 C -2.234375 -2.5 -2.71875 -2.40625 -3.03125 -2.140625 C -3.25 -1.9375 -3.375 -1.609375 -3.34375 -1.3125 Z M -2.984375 -1.734375 C -2.953125 -1.78125 -2.921875 -1.828125 -2.875 -1.875 C -2.6875 -2.0625 -2.328125 -2.125 -2 -2.140625 C -1.9375 -2.140625 -1.875 -2.140625 -1.796875 -2.140625 L -1.546875 -2.140625 C -1.109375 -2.140625 -0.703125 -2.09375 -0.453125 -1.90625 C -0.125 -1.65625 -0.109375 -1.125 -0.4375 -0.875 C -0.515625 -0.8125 -0.59375 -0.765625 -0.671875 -0.734375 C -0.921875 -0.640625 -1.25 -0.625 -1.5625 -0.625 L -1.8125 -0.625 C -1.890625 -0.625 -1.9375 -0.640625 -2.015625 -0.640625 C -2.40625 -0.640625 -2.796875 -0.734375 -2.953125 -1 C -3.078125 -1.1875 -3.109375 -1.5 -2.984375 -1.734375 Z M -2.984375 -1.734375 "/>
</symbol>
<symbol overflow="visible" id="glyph7-0">
<path style="stroke:none;" d=""/>
</symbol>
<symbol overflow="visible" id="glyph7-1">
<path style="stroke:none;" d="M 1.828125 -4.6875 C 1.671875 -4.65625 1.5 -4.640625 1.359375 -4.5625 C 0.625 -4.28125 0.375 -3.34375 0.375 -2.40625 C 0.375 -2.265625 0.375 -2.125 0.375 -1.96875 C 0.390625 -1.328125 0.546875 -0.6875 0.90625 -0.296875 C 1.21875 0.015625 1.671875 0.140625 2.09375 0.109375 C 2.359375 0.078125 2.578125 -0.015625 2.765625 -0.140625 C 3.359375 -0.5625 3.5 -1.421875 3.5 -2.359375 C 3.5 -3.125 3.359375 -3.8125 2.984375 -4.234375 C 2.703125 -4.546875 2.265625 -4.71875 1.828125 -4.6875 Z M 2.421875 -4.171875 C 2.5 -4.125 2.5625 -4.078125 2.625 -4.015625 C 2.890625 -3.765625 2.96875 -3.265625 2.984375 -2.796875 C 2.984375 -2.703125 2.984375 -2.609375 2.984375 -2.515625 L 2.984375 -2.15625 C 2.984375 -1.5625 2.9375 -0.984375 2.671875 -0.625 C 2.328125 -0.171875 1.578125 -0.15625 1.21875 -0.609375 C 1.125 -0.703125 1.078125 -0.828125 1.03125 -0.9375 C 0.90625 -1.296875 0.875 -1.734375 0.875 -2.1875 L 0.875 -2.546875 C 0.875 -2.640625 0.890625 -2.71875 0.890625 -2.8125 C 0.890625 -3.359375 1.03125 -3.90625 1.390625 -4.140625 C 1.671875 -4.3125 2.09375 -4.359375 2.421875 -4.171875 Z M 2.421875 -4.171875 "/>
</symbol>
<symbol overflow="visible" id="glyph7-2">
<path style="stroke:none;" d="M 0.78125 -4.21875 L 0.78125 -3.828125 C 1.125 -3.828125 1.46875 -3.890625 1.78125 -4.03125 L 1.78125 -0.390625 L 0.8125 -0.390625 L 0.8125 0 L 3.25 0 L 3.25 -0.390625 L 2.28125 -0.390625 L 2.28125 -4.6875 C 2.25 -4.6875 2.1875 -4.6875 2.15625 -4.671875 C 2.109375 -4.65625 2.0625 -4.59375 2.015625 -4.5625 C 1.734375 -4.328125 1.21875 -4.21875 0.78125 -4.21875 Z M 0.78125 -4.21875 "/>
</symbol>
<symbol overflow="visible" id="glyph7-3">
<path style="stroke:none;" d="M 0.625 -3.203125 C 0.734375 -3.609375 0.90625 -4.046875 1.34375 -4.203125 C 1.5 -4.265625 1.671875 -4.28125 1.859375 -4.265625 C 2.21875 -4.234375 2.578125 -4.09375 2.796875 -3.78125 C 2.9375 -3.578125 2.984375 -3.328125 2.953125 -3.078125 C 2.875 -2.40625 2.28125 -1.984375 1.796875 -1.609375 C 1.40625 -1.3125 0.59375 -0.59375 0.59375 -0.59375 L 0.453125 -0.484375 C 0.390625 -0.40625 0.390625 -0.421875 0.390625 -0.265625 L 0.390625 0 L 3.484375 0 L 3.484375 -0.4375 L 0.84375 -0.4375 C 1.109375 -0.671875 1.90625 -1.34375 2.140625 -1.515625 C 2.578125 -1.84375 3.0625 -2.15625 3.34375 -2.640625 C 3.640625 -3.203125 3.453125 -3.921875 2.96875 -4.3125 C 2.4375 -4.765625 1.46875 -4.828125 0.875 -4.390625 C 0.65625 -4.234375 0.5 -3.984375 0.390625 -3.734375 C 0.375 -3.671875 0.328125 -3.609375 0.328125 -3.546875 C 0.34375 -3.515625 0.390625 -3.484375 0.40625 -3.4375 C 0.46875 -3.359375 0.546875 -3.265625 0.625 -3.203125 Z M 0.625 -3.203125 "/>
</symbol>
</g>
<clipPath id="clip1">
  <path d="M -186 667 L 426 667 L 426 -125 L -186 -125 L -186 667 Z M -186 667 "/>
</clipPath>
<clipPath id="clip2">
  <path d="M 21.601563 190.800781 L 238.601563 190.800781 L 238.601563 -0.199219 L 21.601563 -0.199219 L 21.601563 190.800781 Z M 21.601563 190.800781 "/>
</clipPath>
<clipPath id="clip3">
  <path d="M -186 667 L 426 667 L 426 -125 L -186 -125 L -186 667 Z M -186 667 "/>
</clipPath>
<clipPath id="clip4">
  <path d="M 21.601563 190.800781 L 238.601563 190.800781 L 238.601563 -0.199219 L 21.601563 -0.199219 L 21.601563 190.800781 Z M 21.601563 190.800781 "/>
</clipPath>
<clipPath id="clip5">
  <path d="M 119.90625 173.859375 L 119.90625 17.953125 L 144.003906 17.953125 L 144.003906 173.859375 L 119.90625 173.859375 Z M 119.90625 173.859375 "/>
</clipPath>
<clipPath id="clip6">
  <path d="M -186 667 L 426 667 L 426 -125 L -186 -125 L -186 667 Z M -186 667 "/>
</clipPath>
<clipPath id="clip7">
  <path d="M 21.601563 190.800781 L 238.601563 190.800781 L 238.601563 -0.199219 L 21.601563 -0.199219 L 21.601563 190.800781 Z M 21.601563 190.800781 "/>
</clipPath>
<clipPath id="clip8">
  <path d="M -186 667 L 426 667 L 426 -125 L -186 -125 L -186 667 Z M -186 667 "/>
</clipPath>
</defs>
<g id="surface0">
<g clip-path="url(#clip1)" clip-rule="nonzero">
<g clip-path="url(#clip2)" clip-rule="nonzero">
<path style="fill:none;stroke-width:5;stroke-linecap:round;stroke-linejoin:round;stroke:rgb(0%,0%,0%);stroke-opacity:1;stroke-miterlimit:10;" d="M 26.372813 169.42625 L 68.872813 169.42625 " transform="matrix(0.1,0,0,-0.1,21.601,190.802)"/>
<path style="fill:none;stroke-width:5;stroke-linecap:round;stroke-linejoin:round;stroke:rgb(0%,0%,0%);stroke-opacity:1;stroke-miterlimit:10;" d="M 68.872813 169.42625 Z M 68.872813 169.42625 " transform="matrix(0.1,0,0,-0.1,21.601,190.802)"/>
<path style="fill:none;stroke-width:5;stroke-linecap:round;stroke-linejoin:round;stroke:rgb(0%,0%,0%);stroke-opacity:1;stroke-miterlimit:10;" d="M 97.232188 169.42625 L 2152.349375 169.42625 " transform="matrix(0.1,0,0,-0.1,21.601,190.802)"/>
<path style=" stroke:none;fill-rule:nonzero;fill:rgb(0%,0%,0%);fill-opacity:1;" d="M 231.300781 175.085938 L 236.835938 173.859375 L 231.300781 172.628906 "/>
<path style="fill:none;stroke-width:5;stroke-linecap:round;stroke-linejoin:round;stroke:rgb(0%,0%,0%);stroke-opacity:1;stroke-miterlimit:10;" d="M 2096.997812 157.160625 L 2152.349375 169.42625 L 2096.997812 181.730938 L 2096.997812 157.160625 Z M 2096.997812 157.160625 " transform="matrix(0.1,0,0,-0.1,21.601,190.802)"/>
<path style="fill:none;stroke-width:5;stroke-linecap:round;stroke-linejoin:round;stroke:rgb(0%,0%,0%);stroke-opacity:1;stroke-miterlimit:10;" d="M 26.372813 13.527813 L 26.372813 1898.566875 " transform="matrix(0.1,0,0,-0.1,21.601,190.802)"/>
<path style=" stroke:none;fill-rule:nonzero;fill:rgb(0%,0%,0%);fill-opacity:1;" d="M 25.464844 6.480469 L 24.238281 0.945313 L 23.011719 6.480469 "/>
<path style="fill:none;stroke-width:5;stroke-linecap:round;stroke-linejoin:round;stroke:rgb(0%,0%,0%);stroke-opacity:1;stroke-miterlimit:10;" d="M 38.638438 1843.215313 L 26.372813 1898.566875 L 14.107188 1843.215313 L 38.638438 1843.215313 Z M 38.638438 1843.215313 " transform="matrix(0.1,0,0,-0.1,21.601,190.802)"/>
<path style="fill:none;stroke-width:5;stroke-linecap:round;stroke-linejoin:round;stroke:rgb(0%,0%,0%);stroke-opacity:1;stroke-miterlimit:10;" d="M 47.622813 132.629375 L 90.161875 206.262188 " transform="matrix(0.1,0,0,-0.1,21.601,190.802)"/>
<path style="fill:none;stroke-width:5;stroke-linecap:round;stroke-linejoin:round;stroke:rgb(0%,0%,0%);stroke-opacity:1;stroke-miterlimit:10;" d="M 75.982188 132.629375 L 118.482188 206.262188 " transform="matrix(0.1,0,0,-0.1,21.601,190.802)"/>
<path style="fill:none;stroke-width:5;stroke-linecap:round;stroke-linejoin:round;stroke:rgb(0%,0%,0%);stroke-opacity:1;stroke-miterlimit:10;" d="M 26.372813 948.9575 L 111.411875 948.9575 " transform="matrix(0.1,0,0,-0.1,21.601,190.802)"/>
<path style="fill:none;stroke-width:5;stroke-linecap:round;stroke-linejoin:round;stroke:rgb(0%,0%,0%);stroke-opacity:1;stroke-miterlimit:10;" d="M 26.372813 1728.48875 L 111.411875 1728.48875 " transform="matrix(0.1,0,0,-0.1,21.601,190.802)"/>
<path style="fill:none;stroke-width:5;stroke-linecap:round;stroke-linejoin:round;stroke:rgb(0%,0%,0%);stroke-opacity:1;stroke-miterlimit:10;" d="M 1103.52125 169.42625 L 1103.52125 1728.48875 " transform="matrix(0.1,0,0,-0.1,21.601,190.802)"/>
</g>
</g>
<g clip-path="url(#clip3)" clip-rule="nonzero">
<g clip-path="url(#clip4)" clip-rule="nonzero">
<g clip-path="url(#clip5)" clip-rule="nonzero">
<path style="fill:none;stroke-width:3;stroke-linecap:round;stroke-linejoin:round;stroke:rgb(0%,0%,0%);stroke-opacity:1;stroke-miterlimit:10;" d="M 983.0525 48.9575 L 1224.029063 289.895 " transform="matrix(0.1,0,0,-0.1,21.601,190.802)"/>
<path style="fill:none;stroke-width:3;stroke-linecap:round;stroke-linejoin:round;stroke:rgb(0%,0%,0%);stroke-opacity:1;stroke-miterlimit:10;" d="M 983.0525 169.230938 L 1224.029063 410.168438 " transform="matrix(0.1,0,0,-0.1,21.601,190.802)"/>
<path style="fill:none;stroke-width:3;stroke-linecap:round;stroke-linejoin:round;stroke:rgb(0%,0%,0%);stroke-opacity:1;stroke-miterlimit:10;" d="M 983.0525 289.504375 L 1224.029063 530.441875 " transform="matrix(0.1,0,0,-0.1,21.601,190.802)"/>
<path style="fill:none;stroke-width:3;stroke-linecap:round;stroke-linejoin:round;stroke:rgb(0%,0%,0%);stroke-opacity:1;stroke-miterlimit:10;" d="M 983.0525 409.777813 L 1224.029063 650.715313 " transform="matrix(0.1,0,0,-0.1,21.601,190.802)"/>
<path style="fill:none;stroke-width:3;stroke-linecap:round;stroke-linejoin:round;stroke:rgb(0%,0%,0%);stroke-opacity:1;stroke-miterlimit:10;" d="M 983.0525 530.012188 L 1224.029063 770.949688 " transform="matrix(0.1,0,0,-0.1,21.601,190.802)"/>
<path style="fill:none;stroke-width:3;stroke-linecap:round;stroke-linejoin:round;stroke:rgb(0%,0%,0%);stroke-opacity:1;stroke-miterlimit:10;" d="M 983.0525 650.285625 L 1224.029063 891.223125 " transform="matrix(0.1,0,0,-0.1,21.601,190.802)"/>
<path style="fill:none;stroke-width:3;stroke-linecap:round;stroke-linejoin:round;stroke:rgb(0%,0%,0%);stroke-opacity:1;stroke-miterlimit:10;" d="M 983.0525 770.559063 L 1224.029063 1011.496563 " transform="matrix(0.1,0,0,-0.1,21.601,190.802)"/>
<path style="fill:none;stroke-width:3;stroke-linecap:round;stroke-linejoin:round;stroke:rgb(0%,0%,0%);stroke-opacity:1;stroke-miterlimit:10;" d="M 983.0525 890.8325 L 1224.029063 1131.77 " transform="matrix(0.1,0,0,-0.1,21.601,190.802)"/>
<path style="fill:none;stroke-width:3;stroke-linecap:round;stroke-linejoin:round;stroke:rgb(0%,0%,0%);stroke-opacity:1;stroke-miterlimit:10;" d="M 983.0525 1011.066875 L 1224.029063 1252.004375 " transform="matrix(0.1,0,0,-0.1,21.601,190.802)"/>
<path style="fill:none;stroke-width:3;stroke-linecap:round;stroke-linejoin:round;stroke:rgb(0%,0%,0%);stroke-opacity:1;stroke-miterlimit:10;" d="M 983.0525 1131.340313 L 1224.029063 1372.277813 " transform="matrix(0.1,0,0,-0.1,21.601,190.802)"/>
<path style="fill:none;stroke-width:3;stroke-linecap:round;stroke-linejoin:round;stroke:rgb(0%,0%,0%);stroke-opacity:1;stroke-miterlimit:10;" d="M 983.0525 1251.61375 L 1224.029063 1492.55125 " transform="matrix(0.1,0,0,-0.1,21.601,190.802)"/>
<path style="fill:none;stroke-width:3;stroke-linecap:round;stroke-linejoin:round;stroke:rgb(0%,0%,0%);stroke-opacity:1;stroke-miterlimit:10;" d="M 983.0525 1371.887188 L 1224.029063 1612.824688 " transform="matrix(0.1,0,0,-0.1,21.601,190.802)"/>
<path style="fill:none;stroke-width:3;stroke-linecap:round;stroke-linejoin:round;stroke:rgb(0%,0%,0%);stroke-opacity:1;stroke-miterlimit:10;" d="M 983.0525 1492.121563 L 1224.029063 1733.098125 " transform="matrix(0.1,0,0,-0.1,21.601,190.802)"/>
<path style="fill:none;stroke-width:3;stroke-linecap:round;stroke-linejoin:round;stroke:rgb(0%,0%,0%);stroke-opacity:1;stroke-miterlimit:10;" d="M 983.0525 1612.395 L 1224.029063 1853.3325 " transform="matrix(0.1,0,0,-0.1,21.601,190.802)"/>
</g>
</g>
</g>
<g clip-path="url(#clip6)" clip-rule="nonzero">
<g clip-path="url(#clip7)" clip-rule="nonzero">
<path style="fill:none;stroke-width:3;stroke-linecap:round;stroke-linejoin:round;stroke:rgb(0%,0%,0%);stroke-opacity:1;stroke-dasharray:85.0392,28.3464;stroke-miterlimit:10;" d="M 983.0525 169.42625 L 983.0525 1728.48875 L 1224.029063 1728.48875 L 1224.029063 169.42625 " transform="matrix(0.1,0,0,-0.1,21.601,190.802)"/>
<path style="fill:none;stroke-width:3;stroke-linecap:round;stroke-linejoin:round;stroke:rgb(0%,0%,0%);stroke-opacity:1;stroke-miterlimit:10;" d="M 1004.3025 651.340313 L 1103.52125 651.340313 " transform="matrix(0.1,0,0,-0.1,21.601,190.802)"/>
<path style=" stroke:none;fill-rule:nonzero;fill:rgb(0%,0%,0%);fill-opacity:1;" d="M 127.804688 126.589844 L 131.953125 125.667969 L 127.804688 124.75 "/>
<path style="fill:none;stroke-width:3;stroke-linecap:round;stroke-linejoin:round;stroke:rgb(0%,0%,0%);stroke-opacity:1;stroke-miterlimit:10;" d="M 1062.036875 642.121563 L 1103.52125 651.340313 L 1062.036875 660.52 L 1062.036875 642.121563 Z M 1062.036875 642.121563 " transform="matrix(0.1,0,0,-0.1,21.601,190.802)"/>
<path style="fill:none;stroke-width:3;stroke-linecap:round;stroke-linejoin:round;stroke:rgb(0%,0%,0%);stroke-opacity:1;stroke-miterlimit:10;" d="M 1337.388438 651.340313 L 1224.029063 651.340313 " transform="matrix(0.1,0,0,-0.1,21.601,190.802)"/>
<path style=" stroke:none;fill-rule:nonzero;fill:rgb(0%,0%,0%);fill-opacity:1;" d="M 148.152344 124.75 L 144.003906 125.667969 L 148.152344 126.589844 "/>
<path style="fill:none;stroke-width:3;stroke-linecap:round;stroke-linejoin:round;stroke:rgb(0%,0%,0%);stroke-opacity:1;stroke-miterlimit:10;" d="M 1265.513438 660.52 L 1224.029063 651.340313 L 1265.513438 642.121563 L 1265.513438 660.52 Z M 1265.513438 660.52 " transform="matrix(0.1,0,0,-0.1,21.601,190.802)"/>
<path style="fill:none;stroke-width:3;stroke-linecap:round;stroke-linejoin:round;stroke:rgb(0%,0%,0%);stroke-opacity:1;stroke-miterlimit:10;" d="M 1344.497813 268.645 L 1344.497813 495.441875 " transform="matrix(0.1,0,0,-0.1,21.601,190.802)"/>
<path style="fill:none;stroke-width:3;stroke-linecap:round;stroke-linejoin:round;stroke:rgb(0%,0%,0%);stroke-opacity:1;stroke-miterlimit:10;" d="M 1004.3025 410.402813 L 1103.52125 410.402813 " transform="matrix(0.1,0,0,-0.1,21.601,190.802)"/>
<path style=" stroke:none;fill-rule:nonzero;fill:rgb(0%,0%,0%);fill-opacity:1;" d="M 127.804688 150.683594 L 131.953125 149.761719 L 127.804688 148.84375 "/>
<path style="fill:none;stroke-width:3;stroke-linecap:round;stroke-linejoin:round;stroke:rgb(0%,0%,0%);stroke-opacity:1;stroke-miterlimit:10;" d="M 1062.036875 401.184063 L 1103.52125 410.402813 L 1062.036875 419.5825 L 1062.036875 401.184063 Z M 1062.036875 401.184063 " transform="matrix(0.1,0,0,-0.1,21.601,190.802)"/>
<path style="fill:none;stroke-width:3;stroke-linecap:round;stroke-linejoin:round;stroke:rgb(0%,0%,0%);stroke-opacity:1;stroke-miterlimit:10;" d="M 1457.857188 410.402813 L 1344.497813 410.402813 " transform="matrix(0.1,0,0,-0.1,21.601,190.802)"/>
<path style=" stroke:none;fill-rule:nonzero;fill:rgb(0%,0%,0%);fill-opacity:1;" d="M 160.199219 148.84375 L 156.050781 149.761719 L 160.199219 150.683594 "/>
<path style="fill:none;stroke-width:3;stroke-linecap:round;stroke-linejoin:round;stroke:rgb(0%,0%,0%);stroke-opacity:1;stroke-miterlimit:10;" d="M 1385.982188 419.5825 L 1344.497813 410.402813 L 1385.982188 401.184063 L 1385.982188 419.5825 Z M 1385.982188 419.5825 " transform="matrix(0.1,0,0,-0.1,21.601,190.802)"/>
<path style="fill:none;stroke-width:7;stroke-linecap:round;stroke-linejoin:round;stroke:rgb(0%,0%,0%);stroke-opacity:1;stroke-miterlimit:10;" d="M 139.77125 169.42625 C 155.825938 169.777813 171.880625 171.027813 187.935313 173.215313 C 203.99 175.402813 220.08375 178.566875 236.138438 180.441875 C 252.193125 182.355938 268.247813 182.980938 284.341563 181.809063 C 300.39625 180.637188 316.450938 177.590313 332.505625 174.777813 C 348.560313 171.965313 364.654063 169.387188 380.70875 169.42625 C 396.763438 169.504375 412.818125 172.121563 428.872813 176.418438 C 444.966563 180.715313 461.02125 186.691875 477.075938 190.559063 C 493.130625 194.42625 509.185313 196.262188 525.279063 194.27 C 541.33375 192.23875 557.388438 186.4575 573.443125 180.715313 C 589.497813 174.973125 605.5525 169.348125 621.64625 169.42625 C 637.74 169.543438 653.83375 175.402813 669.849375 186.30125 C 685.943125 197.23875 701.95875 213.215313 718.013438 225.246563 C 734.029063 237.23875 750.122813 245.285625 766.216563 242.316875 C 782.388438 239.348125 798.443125 225.324688 814.419688 207.355938 C 830.39625 189.309063 846.372813 167.316875 862.58375 169.42625 C 879.497813 171.691875 896.099375 200.090313 910.786875 254.73875 C 930.70875 328.9575 945.630625 445.402813 958.950938 566.340313 C 976.529063 725.36375 991.8025 894.11375 1007.154063 1062.434063 C 1021.95875 1224.934063 1036.880625 1387.668438 1055.357188 1533.840313 C 1068.013438 1634.27 1083.6775 1728.48875 1103.52125 1728.48875 L 1103.52125 1728.48875 C 1123.404063 1728.48875 1139.068125 1634.27 1151.724375 1533.840313 C 1170.161875 1387.668438 1185.08375 1224.934063 1199.9275 1062.434063 C 1215.24 894.11375 1230.5525 725.36375 1248.091563 566.340313 C 1261.450938 445.402813 1276.372813 328.9575 1296.294688 254.73875 C 1310.943125 200.090313 1327.58375 171.691875 1344.497813 169.42625 C 1360.70875 167.316875 1376.685313 189.309063 1392.661875 207.355938 C 1408.599375 225.324688 1424.693125 239.348125 1440.865 242.316875 C 1456.95875 245.285625 1473.0525 237.23875 1489.068125 225.246563 C 1505.122813 213.215313 1521.138438 197.23875 1537.232188 186.30125 C 1553.247813 175.402813 1569.341563 169.543438 1585.435313 169.42625 C 1601.49 169.348125 1617.544688 174.973125 1633.599375 180.715313 C 1649.654063 186.4575 1665.70875 192.23875 1681.8025 194.27 C 1697.857188 196.262188 1713.911875 194.42625 1730.005625 190.559063 C 1746.060313 186.691875 1762.115 180.715313 1778.169688 176.418438 C 1794.224375 172.121563 1810.318125 169.504375 1826.372813 169.42625 C 1842.4275 169.387188 1858.482188 171.965313 1874.575938 174.777813 C 1890.630625 177.590313 1906.685313 180.637188 1922.74 181.809063 C 1938.794688 182.980938 1954.888438 182.355938 1970.943125 180.441875 C 1986.997813 178.566875 2003.0525 175.402813 2019.107188 173.215313 C 2035.161875 171.027813 2051.255625 169.777813 2067.310312 169.42625 " transform="matrix(0.1,0,0,-0.1,21.601,190.802)"/>
</g>
</g>
<g clip-path="url(#clip8)" clip-rule="nonzero">
<g style="fill:rgb(0%,0%,0%);fill-opacity:1;">
  <use xlink:href="#glyph0-1" x="231.38" y="179.922"/>
</g>
<g style="fill:rgb(0%,0%,0%);fill-opacity:1;">
  <use xlink:href="#glyph0-1" x="127.815" y="178.505"/>
</g>
<g style="fill:rgb(0%,0%,0%);fill-opacity:1;">
  <use xlink:href="#glyph1-1" x="132.652" y="179.376"/>
</g>
<g style="fill:rgb(0%,0%,0%);fill-opacity:1;">
  <use xlink:href="#glyph2-1" x="5.878" y="126.456"/>
</g>
<g style="fill:rgb(0%,0%,0%);fill-opacity:1;">
  <use xlink:href="#glyph3-1" x="6.935" y="122.096"/>
</g>
<g style="fill:rgb(0%,0%,0%);fill-opacity:1;">
  <use xlink:href="#glyph4-1" x="6.935" y="120.005"/>
</g>
<g style="fill:rgb(0%,0%,0%);fill-opacity:1;">
  <use xlink:href="#glyph3-1" x="6.935" y="114.713"/>
</g>
<g style="fill:rgb(0%,0%,0%);fill-opacity:1;">
  <use xlink:href="#glyph3-1" x="6.935" y="112.622847"/>
</g>
<g style="fill:rgb(0%,0%,0%);fill-opacity:1;">
  <use xlink:href="#glyph5-1" x="5.878" y="110.034"/>
</g>
<g style="fill:rgb(0%,0%,0%);fill-opacity:1;">
  <use xlink:href="#glyph2-2" x="5.878" y="107.016"/>
</g>
<g style="fill:rgb(0%,0%,0%);fill-opacity:1;">
  <use xlink:href="#glyph5-2" x="5.878" y="101.946"/>
</g>
<g style="fill:rgb(0%,0%,0%);fill-opacity:1;">
  <use xlink:href="#glyph2-3" x="5.878" y="98.929"/>
  <use xlink:href="#glyph2-1" x="5.878" y="95.22382"/>
</g>
<g style="fill:rgb(0%,0%,0%);fill-opacity:1;">
  <use xlink:href="#glyph3-1" x="6.935" y="90.863"/>
</g>
<g style="fill:rgb(0%,0%,0%);fill-opacity:1;">
  <use xlink:href="#glyph4-1" x="6.935" y="88.773"/>
</g>
<g style="fill:rgb(0%,0%,0%);fill-opacity:1;">
  <use xlink:href="#glyph3-1" x="6.935" y="83.48"/>
</g>
<g style="fill:rgb(0%,0%,0%);fill-opacity:1;">
  <use xlink:href="#glyph3-1" x="6.935" y="81.389847"/>
</g>
<g style="fill:rgb(0%,0%,0%);fill-opacity:1;">
  <use xlink:href="#glyph5-1" x="5.878" y="78.801"/>
</g>
<g style="fill:rgb(0%,0%,0%);fill-opacity:1;">
  <use xlink:href="#glyph2-2" x="5.878" y="75.784"/>
</g>
<g style="fill:rgb(0%,0%,0%);fill-opacity:1;">
  <use xlink:href="#glyph6-1" x="6.75" y="70.946"/>
</g>
<g style="fill:rgb(0%,0%,0%);fill-opacity:1;">
  <use xlink:href="#glyph5-2" x="5.878" y="67.677"/>
</g>
<g style="fill:rgb(0%,0%,0%);fill-opacity:1;">
  <use xlink:href="#glyph7-1" x="19.139" y="175.799"/>
</g>
<g style="fill:rgb(0%,0%,0%);fill-opacity:1;">
  <use xlink:href="#glyph7-2" x="11.555" y="97.398"/>
</g>
<g style="fill:rgb(0%,0%,0%);fill-opacity:1;">
  <use xlink:href="#glyph0-2" x="15.434" y="97.398"/>
</g>
<g style="fill:rgb(0%,0%,0%);fill-opacity:1;">
  <use xlink:href="#glyph7-3" x="19.139" y="97.398"/>
</g>
<g style="fill:rgb(0%,0%,0%);fill-opacity:1;">
  <use xlink:href="#glyph7-2" x="19.139" y="19.893"/>
</g>
<g style="fill:rgb(0%,0%,0%);fill-opacity:1;">
  <use xlink:href="#glyph7-3" x="168.719" y="151.54"/>
</g>
<g style="fill:rgb(0%,0%,0%);fill-opacity:1;">
  <use xlink:href="#glyph0-3" x="172.598" y="151.54"/>
</g>
<g style="fill:rgb(0%,0%,0%);fill-opacity:1;">
  <use xlink:href="#glyph0-2" x="177.40783" y="151.54"/>
  <use xlink:href="#glyph0-4" x="181.11301" y="151.54"/>
</g>
<g style="fill:rgb(0%,0%,0%);fill-opacity:1;">
  <use xlink:href="#glyph0-3" x="156.813" y="127.445"/>
</g>
<g style="fill:rgb(0%,0%,0%);fill-opacity:1;">
  <use xlink:href="#glyph0-2" x="161.629804" y="127.445"/>
</g>
<g style="fill:rgb(0%,0%,0%);fill-opacity:1;">
  <use xlink:href="#glyph0-4" x="165.32801" y="127.445"/>
</g>
</g>
</g>
</svg>
