<?xml version="1.0" encoding="UTF-8"?>
<svg xmlns="http://www.w3.org/2000/svg" xmlns:xlink="http://www.w3.org/1999/xlink" width="192.25763964014536pt" height="244.21916386721168pt" viewBox="0 0 111 141" version="1.1">
<defs>
<g>
<symbol overflow="visible" id="glyph0-0">
<path style="stroke:none;" d=""/>
</symbol>
<symbol overflow="visible" id="glyph0-1">
<path style="stroke:none;" d="M 0.640625 -4.109375 L 0.640625 0 L 1.046875 0 L 1.046875 -3.75 L 1.046875 -3.75 L 1.21875 -3.453125 L 2.5625 -1.109375 C 2.765625 -0.75 2.96875 -0.375 3.1875 -0.015625 C 3.375 0.03125 3.609375 -0.015625 3.8125 0 L 3.8125 -4.109375 L 3.40625 -4.109375 L 3.40625 -0.359375 L 1.859375 -3.0625 C 1.65625 -3.40625 1.484375 -3.765625 1.25 -4.09375 C 1.078125 -4.140625 0.828125 -4.09375 0.640625 -4.109375 Z M 0.640625 -4.109375 "/>
</symbol>
<symbol overflow="visible" id="glyph0-2">
<path style="stroke:none;" d="M 2.671875 -0.671875 C 2.625 -0.640625 2.59375 -0.609375 2.546875 -0.578125 C 2.203125 -0.34375 1.59375 -0.125 1.125 -0.453125 C 0.84375 -0.65625 0.65625 -0.984375 0.65625 -1.484375 L 2.71875 -1.484375 C 2.71875 -1.90625 2.625 -2.328125 2.359375 -2.5625 C 2.078125 -2.84375 1.609375 -2.921875 1.25 -2.828125 C 1.09375 -2.78125 0.9375 -2.703125 0.8125 -2.609375 C 0.4375 -2.3125 0.25 -1.84375 0.25 -1.375 C 0.265625 -0.703125 0.765625 -0.09375 1.421875 0.03125 C 1.75 0.09375 2.109375 0.015625 2.421875 -0.140625 C 2.46875 -0.171875 2.671875 -0.265625 2.6875 -0.3125 C 2.703125 -0.34375 2.671875 -0.59375 2.671875 -0.671875 Z M 2.375 -1.734375 L 0.6875 -1.734375 C 0.765625 -2 0.90625 -2.25 1.140625 -2.40625 C 1.4375 -2.59375 1.875 -2.578125 2.125 -2.3125 C 2.265625 -2.15625 2.34375 -1.953125 2.375 -1.734375 Z M 2.375 -1.734375 "/>
</symbol>
<symbol overflow="visible" id="glyph0-3">
<path style="stroke:none;" d="M 0.484375 -2.796875 L 0.484375 -0.78125 C 0.484375 -0.53125 0.515625 -0.3125 0.65625 -0.140625 C 0.875 0.109375 1.328125 0.078125 1.625 -0.015625 C 1.90625 -0.078125 2.234375 -0.296875 2.328125 -0.515625 L 2.328125 -0.515625 L 2.328125 0 L 2.75 0 L 2.75 -2.796875 L 2.328125 -2.796875 L 2.328125 -1.375 C 2.328125 -1.03125 2.34375 -0.734375 2.125 -0.515625 C 1.90625 -0.296875 1.625 -0.25 1.34375 -0.265625 C 1.21875 -0.28125 1.078125 -0.296875 1 -0.390625 C 0.9375 -0.484375 0.921875 -0.59375 0.921875 -0.703125 L 0.921875 -2.796875 L 0.484375 -2.796875 Z M 0.484375 -2.796875 "/>
</symbol>
<symbol overflow="visible" id="glyph0-4">
<path style="stroke:none;" d="M 0.90625 -2.078125 L 0.90625 -2.078125 L 0.90625 -2.796875 L 0.5 -2.796875 L 0.5 0 L 0.921875 0 L 0.921875 -1.109375 C 0.921875 -1.34375 0.890625 -1.578125 0.984375 -1.796875 C 1.09375 -2.09375 1.375 -2.296875 1.65625 -2.390625 C 1.796875 -2.4375 1.9375 -2.46875 2.078125 -2.46875 L 2.078125 -2.84375 C 1.6875 -2.84375 1.328125 -2.671875 1.09375 -2.375 C 1.015625 -2.28125 0.9375 -2.1875 0.90625 -2.078125 Z M 0.90625 -2.078125 "/>
</symbol>
<symbol overflow="visible" id="glyph0-5">
<path style="stroke:none;" d="M 0.546875 -2.25 C 0.640625 -2.296875 0.734375 -2.359375 0.828125 -2.40625 C 1.03125 -2.5 1.21875 -2.546875 1.4375 -2.546875 C 1.5 -2.5625 1.5625 -2.5625 1.609375 -2.5625 C 1.859375 -2.53125 2.0625 -2.359375 2.125 -2.125 C 2.1875 -1.953125 2.15625 -1.765625 2.15625 -1.578125 C 1.859375 -1.578125 1.546875 -1.5625 1.234375 -1.484375 C 0.8125 -1.375 0.265625 -1.15625 0.34375 -0.609375 C 0.359375 -0.375 0.5 -0.125 0.734375 -0.015625 C 0.875 0.0625 1.046875 0.046875 1.21875 0.03125 C 1.484375 0.015625 1.75 -0.046875 1.96875 -0.203125 C 2.046875 -0.265625 2.109375 -0.328125 2.171875 -0.390625 L 2.171875 0 L 2.59375 0 L 2.59375 -1.546875 C 2.59375 -1.71875 2.609375 -1.890625 2.578125 -2.0625 C 2.515625 -2.46875 2.15625 -2.78125 1.765625 -2.84375 C 1.515625 -2.890625 1.15625 -2.84375 0.953125 -2.796875 C 0.890625 -2.765625 0.5625 -2.671875 0.53125 -2.609375 C 0.515625 -2.59375 0.515625 -2.53125 0.515625 -2.5 C 0.53125 -2.421875 0.53125 -2.328125 0.546875 -2.25 Z M 2.15625 -1.375 L 2.15625 -0.9375 C 2.15625 -0.828125 2.171875 -0.71875 2.109375 -0.609375 C 2.046875 -0.484375 1.921875 -0.40625 1.78125 -0.359375 C 1.515625 -0.25 1.125 -0.234375 0.890625 -0.4375 C 0.828125 -0.484375 0.765625 -0.546875 0.765625 -0.640625 C 0.6875 -0.890625 0.90625 -1.09375 1.125 -1.1875 C 1.390625 -1.3125 1.78125 -1.375 2.15625 -1.375 Z M 2.15625 -1.375 "/>
</symbol>
<symbol overflow="visible" id="glyph0-6">
<path style="stroke:none;" d="M 0.5 -4.109375 L 0.5 0 L 0.921875 0 L 0.921875 -4.109375 L 0.5 -4.109375 Z M 0.5 -4.109375 "/>
</symbol>
<symbol overflow="visible" id="glyph0-7">
<path style="stroke:none;" d="M 0.625 -4.109375 L 0.625 0 L 1.0625 0 L 1.0625 -1.890625 L 1.9375 -1.890625 C 2.0625 -1.890625 2.171875 -1.890625 2.25 -1.875 C 2.375 -1.734375 2.46875 -1.578125 2.578125 -1.421875 C 2.90625 -0.953125 3.234375 -0.46875 3.59375 -0.015625 C 3.71875 0 3.890625 0 4.03125 0 L 3.796875 -0.34375 L 2.65625 -1.9375 C 2.765625 -1.953125 2.875 -1.984375 2.984375 -2.03125 C 3.40625 -2.171875 3.890625 -2.53125 3.859375 -3.03125 C 3.84375 -3.234375 3.78125 -3.359375 3.6875 -3.484375 C 3.40625 -3.828125 2.953125 -4.046875 2.453125 -4.09375 C 2.234375 -4.109375 2.03125 -4.109375 1.8125 -4.109375 L 0.625 -4.109375 Z M 1.0625 -2.21875 L 1.0625 -3.765625 L 1.953125 -3.765625 C 2.25 -3.765625 2.546875 -3.765625 2.84375 -3.671875 C 3.125 -3.578125 3.40625 -3.375 3.4375 -3.046875 C 3.453125 -2.859375 3.375 -2.671875 3.234375 -2.53125 C 3.125 -2.4375 3.015625 -2.375 2.875 -2.328125 C 2.59375 -2.21875 2.28125 -2.21875 1.984375 -2.21875 L 1.0625 -2.21875 Z M 1.0625 -2.21875 "/>
</symbol>
<symbol overflow="visible" id="glyph0-8">
<path style="stroke:none;" d="M 0.25 -0.609375 C 0.234375 -0.53125 0.21875 -0.4375 0.203125 -0.34375 C 0.203125 -0.3125 0.171875 -0.265625 0.203125 -0.234375 C 0.21875 -0.203125 0.28125 -0.171875 0.3125 -0.171875 C 0.59375 -0.046875 0.8125 0.015625 1.15625 0.046875 C 1.578125 0.078125 2.09375 -0.015625 2.296875 -0.4375 C 2.34375 -0.53125 2.375 -0.671875 2.375 -0.78125 C 2.375 -0.859375 2.359375 -0.9375 2.34375 -1.015625 C 2.25 -1.28125 2 -1.46875 1.75 -1.5625 C 1.609375 -1.625 1.46875 -1.640625 1.3125 -1.671875 C 1.09375 -1.71875 0.828125 -1.734375 0.6875 -1.921875 C 0.578125 -2.0625 0.59375 -2.25 0.703125 -2.375 C 0.859375 -2.515625 1.09375 -2.546875 1.375 -2.53125 C 1.625 -2.515625 1.828125 -2.46875 2.03125 -2.375 C 2.078125 -2.359375 2.140625 -2.328125 2.1875 -2.3125 L 2.25 -2.671875 C 1.953125 -2.796875 1.6875 -2.859375 1.28125 -2.859375 C 0.9375 -2.859375 0.625 -2.796875 0.421875 -2.59375 C 0.21875 -2.375 0.15625 -2.03125 0.296875 -1.765625 C 0.40625 -1.546875 0.65625 -1.390625 0.890625 -1.3125 C 1.234375 -1.21875 1.6875 -1.234375 1.890625 -0.984375 C 2.015625 -0.84375 2 -0.609375 1.859375 -0.46875 C 1.78125 -0.390625 1.6875 -0.34375 1.578125 -0.328125 C 1.125 -0.21875 0.640625 -0.390625 0.359375 -0.546875 C 0.3125 -0.578125 0.28125 -0.59375 0.25 -0.609375 Z M 0.25 -0.609375 "/>
</symbol>
<symbol overflow="visible" id="glyph0-9">
<path style="stroke:none;" d="M 0.921875 -2.390625 L 0.921875 -2.390625 L 0.921875 -2.796875 L 0.5 -2.796875 L 0.5 0.984375 L 0.9375 0.984375 L 0.9375 -0.390625 C 0.984375 -0.328125 1.03125 -0.265625 1.09375 -0.21875 C 1.234375 -0.078125 1.421875 0.015625 1.625 0.046875 C 1.71875 0.046875 1.796875 0.046875 1.890625 0.046875 C 2.359375 -0.015625 2.71875 -0.40625 2.875 -0.84375 C 3.09375 -1.453125 2.90625 -2.15625 2.5625 -2.53125 C 2.453125 -2.671875 2.28125 -2.78125 2.109375 -2.8125 C 1.796875 -2.890625 1.453125 -2.78125 1.25 -2.671875 C 1.15625 -2.609375 0.984375 -2.5 0.921875 -2.390625 Z M 2.203125 -2.234375 C 2.671875 -1.765625 2.640625 -0.859375 2.0625 -0.453125 C 2 -0.421875 1.9375 -0.375 1.859375 -0.34375 C 1.53125 -0.234375 1.234375 -0.265625 1.03125 -0.53125 C 1 -0.59375 0.953125 -0.640625 0.9375 -0.6875 C 0.921875 -0.734375 0.9375 -0.765625 0.9375 -0.796875 L 0.9375 -1.96875 C 0.9375 -2.015625 0.921875 -2.09375 0.9375 -2.15625 C 0.96875 -2.203125 1.015625 -2.234375 1.046875 -2.28125 C 1.359375 -2.59375 1.890625 -2.5625 2.203125 -2.234375 Z M 2.203125 -2.234375 "/>
</symbol>
<symbol overflow="visible" id="glyph0-10">
<path style="stroke:none;" d="M 0.59375 -2.375 C 0.203125 -1.890625 0.125 -1.203125 0.421875 -0.671875 C 0.671875 -0.25 1.15625 0.109375 1.78125 0.046875 C 2.34375 -0.015625 2.78125 -0.421875 2.9375 -0.859375 C 3.171875 -1.4375 3 -2.15625 2.5 -2.5625 C 2.375 -2.671875 2.234375 -2.734375 2.0625 -2.796875 C 1.453125 -3 0.90625 -2.734375 0.59375 -2.375 Z M 1.90625 -2.5 C 2 -2.484375 2.078125 -2.453125 2.15625 -2.40625 C 2.546875 -2.1875 2.640625 -1.71875 2.609375 -1.3125 C 2.59375 -1.046875 2.515625 -0.78125 2.328125 -0.5625 C 1.984375 -0.203125 1.296875 -0.203125 0.953125 -0.5625 C 0.765625 -0.78125 0.703125 -1.046875 0.6875 -1.3125 C 0.65625 -1.6875 0.734375 -2.03125 0.921875 -2.234375 C 1.15625 -2.484375 1.515625 -2.59375 1.90625 -2.5 Z M 1.90625 -2.5 "/>
</symbol>
<symbol overflow="visible" id="glyph0-11">
<path style="stroke:none;" d="M 0.90625 -2.234375 L 0.90625 -2.234375 L 0.90625 -2.796875 L 0.484375 -2.796875 L 0.484375 0 L 0.921875 0 L 0.921875 -1.296875 C 0.921875 -1.59375 0.90625 -1.875 1.03125 -2.125 C 1.109375 -2.28125 1.21875 -2.390625 1.359375 -2.46875 C 1.46875 -2.515625 1.59375 -2.515625 1.71875 -2.5 C 1.90625 -2.5 2.109375 -2.453125 2.21875 -2.28125 C 2.3125 -2.15625 2.328125 -1.984375 2.328125 -1.828125 L 2.328125 0 L 2.75 0 L 2.75 -1.59375 C 2.75 -1.890625 2.78125 -2.21875 2.640625 -2.484375 C 2.515625 -2.703125 2.28125 -2.796875 2.046875 -2.828125 C 1.765625 -2.859375 1.5 -2.8125 1.265625 -2.65625 C 1.125 -2.5625 0.96875 -2.375 0.90625 -2.234375 Z M 0.90625 -2.234375 "/>
</symbol>
<symbol overflow="visible" id="glyph0-12">
<path style="stroke:none;" d="M 0.625 -4.109375 L 0.625 0 L 1.078125 0 L 1.078125 -1.71875 L 1.953125 -1.71875 C 2.078125 -1.71875 2.234375 -1.71875 2.359375 -1.71875 C 3.015625 -1.765625 3.640625 -2.140625 3.75 -2.734375 C 3.8125 -3.078125 3.6875 -3.359375 3.53125 -3.5625 C 3.28125 -3.84375 2.90625 -4.046875 2.46875 -4.09375 C 2.25 -4.125 2.046875 -4.109375 1.84375 -4.109375 L 0.625 -4.109375 Z M 1.0625 -2.0625 L 1.0625 -3.765625 L 1.953125 -3.765625 C 2.46875 -3.765625 2.953125 -3.703125 3.203125 -3.359375 C 3.40625 -3.09375 3.40625 -2.71875 3.203125 -2.453125 C 3.125 -2.359375 3.046875 -2.296875 2.9375 -2.234375 C 2.640625 -2.0625 2.296875 -2.0625 1.96875 -2.0625 L 1.0625 -2.0625 Z M 1.0625 -2.0625 "/>
</symbol>
<symbol overflow="visible" id="glyph0-13">
<path style="stroke:none;" d="M 0.484375 -4.109375 L 0.484375 0 L 0.921875 0 L 0.921875 -1.296875 C 0.921875 -1.59375 0.90625 -1.875 1.03125 -2.125 C 1.109375 -2.28125 1.21875 -2.390625 1.359375 -2.46875 C 1.46875 -2.515625 1.59375 -2.515625 1.71875 -2.5 C 1.90625 -2.5 2.109375 -2.453125 2.21875 -2.28125 C 2.3125 -2.15625 2.328125 -1.984375 2.328125 -1.828125 L 2.328125 0 L 2.75 0 L 2.75 -1.59375 C 2.75 -1.890625 2.78125 -2.203125 2.640625 -2.46875 C 2.515625 -2.703125 2.28125 -2.796875 2.046875 -2.828125 C 1.765625 -2.859375 1.5 -2.8125 1.265625 -2.671875 C 1.140625 -2.5625 0.96875 -2.390625 0.921875 -2.234375 L 0.90625 -2.234375 L 0.90625 -4.109375 L 0.484375 -4.109375 Z M 0.484375 -4.109375 "/>
</symbol>
<symbol overflow="visible" id="glyph0-14">
<path style="stroke:none;" d="M 0.71875 -3.59375 L 0.71875 -2.796875 L 0.125 -2.796875 L 0.125 -2.46875 L 0.703125 -2.46875 L 0.703125 -0.78125 C 0.703125 -0.53125 0.71875 -0.21875 0.9375 -0.046875 C 1.046875 0.046875 1.203125 0.046875 1.34375 0.046875 C 1.671875 0.03125 1.953125 -0.078125 2.1875 -0.21875 L 2.109375 -0.53125 C 2.046875 -0.484375 1.984375 -0.4375 1.90625 -0.40625 C 1.71875 -0.3125 1.390625 -0.234375 1.234375 -0.390625 C 1.09375 -0.546875 1.125 -0.8125 1.125 -1.015625 L 1.125 -2.46875 L 2.078125 -2.46875 L 2.078125 -2.796875 L 1.125 -2.796875 L 1.125 -3.59375 L 0.71875 -3.59375 Z M 0.71875 -3.59375 "/>
</symbol>
<symbol overflow="visible" id="glyph0-15">
<path style="stroke:none;" d="M 2.703125 -0.6875 C 2.65625 -0.65625 2.625 -0.609375 2.5625 -0.578125 C 2.5 -0.53125 2.40625 -0.484375 2.328125 -0.4375 C 1.953125 -0.265625 1.421875 -0.21875 1.109375 -0.484375 C 0.875 -0.640625 0.734375 -0.9375 0.71875 -1.28125 C 0.6875 -1.65625 0.78125 -2.09375 1.09375 -2.34375 C 1.265625 -2.46875 1.5 -2.546875 1.828125 -2.515625 C 2.109375 -2.5 2.25 -2.453125 2.484375 -2.34375 C 2.53125 -2.3125 2.578125 -2.28125 2.640625 -2.25 L 2.703125 -2.625 C 2.5625 -2.671875 2.4375 -2.75 2.296875 -2.796875 C 1.953125 -2.90625 1.421875 -2.890625 1.109375 -2.75 C 0.8125 -2.625 0.59375 -2.375 0.4375 -2.09375 C 0.234375 -1.671875 0.21875 -1.15625 0.4375 -0.71875 C 0.515625 -0.5625 0.625 -0.421875 0.765625 -0.296875 C 1.171875 0.078125 1.78125 0.125 2.28125 -0.0625 C 2.390625 -0.09375 2.515625 -0.15625 2.625 -0.21875 C 2.65625 -0.25 2.703125 -0.265625 2.71875 -0.3125 C 2.734375 -0.34375 2.703125 -0.6875 2.703125 -0.6875 Z M 2.703125 -0.6875 "/>
</symbol>
<symbol overflow="visible" id="glyph0-16">
<path style="stroke:none;" d="M 0.90625 -2.234375 L 0.90625 -2.234375 L 0.90625 -2.796875 L 0.484375 -2.796875 L 0.484375 0 L 0.921875 0 L 0.921875 -1.296875 C 0.921875 -1.59375 0.90625 -1.875 1.03125 -2.125 C 1.109375 -2.28125 1.21875 -2.390625 1.359375 -2.46875 C 1.46875 -2.515625 1.59375 -2.515625 1.71875 -2.5 C 1.90625 -2.5 2.109375 -2.453125 2.21875 -2.28125 C 2.3125 -2.15625 2.328125 -1.984375 2.328125 -1.828125 L 2.328125 0 L 2.75 0 L 2.75 -1.296875 C 2.75 -1.59375 2.734375 -1.875 2.859375 -2.125 C 2.9375 -2.28125 3.046875 -2.390625 3.1875 -2.46875 C 3.296875 -2.515625 3.421875 -2.515625 3.546875 -2.5 C 3.734375 -2.5 3.9375 -2.453125 4.046875 -2.28125 C 4.140625 -2.15625 4.15625 -1.984375 4.15625 -1.828125 L 4.15625 0 L 4.578125 0 L 4.578125 -1.59375 C 4.578125 -1.890625 4.609375 -2.21875 4.46875 -2.484375 C 4.34375 -2.703125 4.109375 -2.796875 3.875 -2.828125 C 3.765625 -2.84375 3.640625 -2.84375 3.53125 -2.828125 C 3.28125 -2.796875 3.046875 -2.65625 2.890625 -2.46875 C 2.828125 -2.390625 2.765625 -2.296875 2.734375 -2.21875 C 2.71875 -2.265625 2.703125 -2.328125 2.6875 -2.375 C 2.5625 -2.65625 2.34375 -2.8125 1.984375 -2.84375 C 1.890625 -2.84375 1.796875 -2.84375 1.703125 -2.828125 C 1.484375 -2.796875 1.28125 -2.6875 1.125 -2.53125 C 1.046875 -2.453125 0.953125 -2.34375 0.90625 -2.234375 Z M 0.90625 -2.234375 "/>
</symbol>
<symbol overflow="visible" id="glyph0-17">
<path style="stroke:none;" d="M 0.5 -4.109375 L 0.5 -3.6875 L 0.921875 -3.6875 L 0.921875 -4.109375 L 0.5 -4.109375 Z M 0.5 -2.796875 L 0.5 0 L 0.921875 0 L 0.921875 -2.796875 L 0.5 -2.796875 Z M 0.5 -2.796875 "/>
</symbol>
<symbol overflow="visible" id="glyph0-18">
<path style="stroke:none;" d="M 0.1875 0 L 0.484375 0 C 0.53125 0 0.578125 0.015625 0.609375 -0.015625 C 0.640625 -0.03125 0.640625 -0.0625 0.65625 -0.078125 C 0.734375 -0.296875 1.03125 -1.015625 1.078125 -1.09375 C 1.078125 -1.15625 1.09375 -1.1875 1.171875 -1.1875 L 2.59375 -1.1875 C 2.75 -1.1875 2.90625 -1.1875 3.0625 -1.1875 C 3.125 -1.171875 3.15625 -1.09375 3.171875 -1.046875 C 3.234375 -0.875 3.546875 -0.09375 3.578125 -0.046875 C 3.59375 0.015625 3.65625 0 3.75 0 L 4.078125 0 C 3.921875 -0.390625 3.765625 -0.765625 3.609375 -1.140625 L 2.390625 -4.109375 C 2.375 -4.125 2.375 -4.15625 2.34375 -4.171875 C 2.3125 -4.171875 2.265625 -4.171875 2.234375 -4.171875 L 2.015625 -4.171875 C 1.984375 -4.171875 1.921875 -4.1875 1.890625 -4.15625 C 1.875 -4.140625 1.859375 -4.109375 1.859375 -4.09375 L 0.640625 -1.140625 L 0.34375 -0.421875 C 0.296875 -0.28125 0.234375 -0.140625 0.1875 0 Z M 2.109375 -3.671875 C 2.375 -2.9375 2.6875 -2.25 2.96875 -1.53125 L 1.25 -1.53125 C 1.53125 -2.25 1.828125 -2.9375 2.109375 -3.671875 L 2.109375 -3.671875 Z M 2.109375 -3.671875 "/>
</symbol>
<symbol overflow="visible" id="glyph0-19">
<path style="stroke:none;" d="M 0.5 -4.109375 L 0.5 0 L 0.9375 0 L 0.9375 -0.390625 L 0.9375 -0.390625 C 0.984375 -0.296875 1.078125 -0.21875 1.15625 -0.15625 C 1.421875 0.0625 1.859375 0.125 2.234375 -0.078125 C 2.421875 -0.171875 2.5625 -0.296875 2.671875 -0.46875 C 3.265625 -1.28125 2.90625 -2.625 2.09375 -2.8125 C 1.96875 -2.84375 1.84375 -2.84375 1.71875 -2.828125 C 1.375 -2.78125 1.109375 -2.609375 0.921875 -2.390625 L 0.921875 -4.109375 L 0.5 -4.109375 Z M 1.53125 -2.515625 C 1.828125 -2.53125 2.140625 -2.421875 2.328125 -2.1875 C 2.46875 -2 2.515625 -1.765625 2.53125 -1.546875 C 2.546875 -1.21875 2.515625 -0.875 2.3125 -0.625 C 2.140625 -0.40625 1.859375 -0.296875 1.59375 -0.28125 C 1.375 -0.265625 1.171875 -0.359375 1.03125 -0.53125 C 1 -0.59375 0.953125 -0.640625 0.9375 -0.6875 C 0.921875 -0.734375 0.9375 -0.765625 0.9375 -0.796875 L 0.9375 -1.96875 C 0.9375 -2.03125 0.921875 -2.109375 0.9375 -2.15625 C 0.96875 -2.21875 1.03125 -2.265625 1.078125 -2.3125 C 1.203125 -2.421875 1.359375 -2.5 1.53125 -2.515625 Z M 1.53125 -2.515625 "/>
</symbol>
<symbol overflow="visible" id="glyph0-20">
<path style="stroke:none;" d="M 0.09375 -2.796875 C 0.171875 -2.5625 0.296875 -2.328125 0.390625 -2.109375 C 0.453125 -1.953125 1.265625 -0.046875 1.28125 -0.015625 C 1.296875 0.046875 1.171875 0.25 1.171875 0.265625 C 1.109375 0.421875 1.015625 0.609375 0.859375 0.671875 C 0.671875 0.765625 0.296875 0.65625 0.15625 0.625 L 0.1875 1 C 0.328125 1.015625 0.625 1.046875 0.765625 1.03125 C 1.1875 1 1.390625 0.5625 1.53125 0.25 L 1.71875 -0.203125 L 2.453125 -1.96875 L 2.671875 -2.5 C 2.703125 -2.59375 2.765625 -2.6875 2.78125 -2.796875 L 2.5 -2.796875 C 2.46875 -2.796875 2.40625 -2.8125 2.375 -2.78125 C 2.359375 -2.765625 2.296875 -2.609375 2.296875 -2.609375 L 2.125 -2.171875 L 1.6875 -1.09375 C 1.609375 -0.875 1.515625 -0.65625 1.46875 -0.4375 C 1.390625 -0.6875 1.296875 -0.921875 1.203125 -1.15625 L 0.59375 -2.625 L 0.53125 -2.734375 C 0.515625 -2.796875 0.484375 -2.796875 0.390625 -2.796875 L 0.09375 -2.796875 Z M 0.09375 -2.796875 "/>
</symbol>
<symbol overflow="visible" id="glyph0-21">
<path style="stroke:none;" d="M 2.3125 -0.75 L 2.3125 -0.75 L 2.3125 -0.1875 C 2.3125 0 2.328125 0.15625 2.25 0.328125 C 2.171875 0.515625 2 0.671875 1.8125 0.734375 C 1.703125 0.765625 1.59375 0.765625 1.46875 0.75 C 1.21875 0.734375 0.984375 0.6875 0.75 0.609375 C 0.65625 0.5625 0.5625 0.515625 0.453125 0.46875 L 0.453125 0.71875 C 0.453125 0.75 0.453125 0.796875 0.46875 0.828125 C 0.515625 0.890625 0.96875 1.015625 0.96875 1.015625 C 1.1875 1.0625 1.546875 1.109375 1.796875 1.078125 C 2.265625 1.03125 2.65625 0.640625 2.734375 0.1875 C 2.75 0.078125 2.75 -0.03125 2.75 -0.140625 L 2.75 -2.84375 L 2.328125 -2.84375 L 2.328125 -2.328125 C 2.234375 -2.484375 2.109375 -2.625 1.9375 -2.734375 C 1.515625 -2.96875 0.96875 -2.796875 0.65625 -2.453125 C 0.28125 -2.03125 0.15625 -1.359375 0.390625 -0.828125 C 0.5625 -0.453125 0.90625 -0.171875 1.328125 -0.125 C 1.546875 -0.09375 1.71875 -0.140625 1.859375 -0.21875 C 2.03125 -0.328125 2.25 -0.546875 2.3125 -0.75 Z M 1.859375 -2.5 C 2.09375 -2.4375 2.234375 -2.21875 2.3125 -2 C 2.34375 -1.890625 2.328125 -1.78125 2.328125 -1.671875 C 2.328125 -1.625 2.328125 -1.5625 2.328125 -1.515625 C 2.328125 -1.484375 2.3125 -1.46875 2.3125 -1.4375 C 2.296875 -1.25 2.28125 -1.046875 2.203125 -0.859375 C 2.0625 -0.59375 1.84375 -0.375 1.453125 -0.46875 C 1.046875 -0.546875 0.734375 -0.921875 0.703125 -1.34375 C 0.6875 -1.8125 0.953125 -2.28125 1.390625 -2.453125 C 1.515625 -2.5 1.703125 -2.53125 1.859375 -2.5 Z M 1.859375 -2.5 "/>
</symbol>
<symbol overflow="visible" id="glyph0-22">
<path style="stroke:none;" d="M 0.09375 -2.796875 L 0.328125 -2.078125 C 0.5625 -1.375 0.765625 -0.671875 1.015625 0 C 1.125 0.03125 1.265625 0.015625 1.40625 0.015625 C 1.609375 -0.640625 2.03125 -1.78125 2.140625 -2.359375 L 2.15625 -2.359375 C 2.203125 -2.109375 2.296875 -1.859375 2.375 -1.59375 L 2.875 -0.03125 C 2.890625 0.03125 2.9375 0.015625 3.015625 0.015625 L 3.234375 0.015625 C 3.25 0.015625 3.3125 0.03125 3.328125 0 C 3.34375 -0.015625 3.359375 -0.046875 3.359375 -0.078125 C 3.671875 -0.96875 3.9375 -1.890625 4.25 -2.796875 C 4.109375 -2.796875 3.96875 -2.796875 3.859375 -2.78125 L 3.828125 -2.71875 C 3.578125 -1.96875 3.328125 -1.21875 3.109375 -0.4375 L 3.09375 -0.4375 C 3.046875 -0.671875 2.953125 -0.921875 2.875 -1.15625 C 2.828125 -1.296875 2.375 -2.75 2.34375 -2.78125 C 2.328125 -2.8125 2.28125 -2.796875 2.25 -2.796875 L 1.96875 -2.796875 C 1.71875 -2 1.453125 -1.25 1.234375 -0.4375 C 1 -1.21875 0.765625 -2.015625 0.5 -2.78125 C 0.375 -2.796875 0.234375 -2.796875 0.09375 -2.796875 Z M 0.09375 -2.796875 "/>
</symbol>
<symbol overflow="visible" id="glyph0-23">
<path style="stroke:none;" d="M 0.515625 -4.109375 L 0.515625 0 L 0.890625 0 C 0.90625 -0.3125 0.875 -0.671875 0.90625 -0.96875 C 1.0625 -1.15625 1.265625 -1.296875 1.4375 -1.484375 L 1.515625 -1.34375 C 1.84375 -0.90625 2.15625 -0.453125 2.5 -0.015625 C 2.625 0 2.796875 0 2.953125 0 C 2.859375 -0.140625 1.78125 -1.625 1.78125 -1.625 C 1.765625 -1.65625 1.703125 -1.703125 1.71875 -1.734375 C 1.734375 -1.78125 1.78125 -1.8125 1.8125 -1.828125 C 1.875 -1.90625 1.953125 -1.984375 2.03125 -2.046875 L 2.515625 -2.515625 C 2.609375 -2.609375 2.71875 -2.6875 2.796875 -2.796875 C 2.625 -2.796875 2.453125 -2.796875 2.296875 -2.796875 L 2.171875 -2.671875 L 0.90625 -1.46875 L 0.90625 -4.109375 L 0.515625 -4.109375 Z M 0.515625 -4.109375 "/>
</symbol>
<symbol overflow="visible" id="glyph0-24">
<path style="stroke:none;" d="M 2.3125 -1.703125 L 0.578125 -1.703125 C 0.53125 -1.703125 0.484375 -1.703125 0.453125 -1.6875 C 0.390625 -1.671875 0.34375 -1.625 0.34375 -1.5625 C 0.34375 -1.5 0.390625 -1.453125 0.453125 -1.4375 C 0.484375 -1.421875 0.53125 -1.421875 0.578125 -1.421875 L 2.3125 -1.421875 L 2.3125 0.296875 C 2.3125 0.34375 2.296875 0.390625 2.3125 0.4375 C 2.328125 0.484375 2.390625 0.53125 2.453125 0.53125 C 2.5 0.53125 2.5625 0.484375 2.578125 0.4375 C 2.59375 0.390625 2.578125 0.34375 2.578125 0.296875 L 2.578125 -1.421875 L 4.3125 -1.421875 C 4.359375 -1.421875 4.390625 -1.421875 4.4375 -1.4375 C 4.5 -1.453125 4.53125 -1.5 4.53125 -1.5625 C 4.53125 -1.625 4.5 -1.671875 4.4375 -1.6875 C 4.390625 -1.703125 4.359375 -1.703125 4.3125 -1.703125 L 2.578125 -1.703125 L 2.578125 -3.421875 C 2.578125 -3.46875 2.59375 -3.515625 2.578125 -3.5625 C 2.5625 -3.625 2.5 -3.65625 2.453125 -3.65625 C 2.390625 -3.65625 2.328125 -3.625 2.3125 -3.5625 C 2.296875 -3.515625 2.3125 -3.46875 2.3125 -3.421875 L 2.3125 -1.703125 Z M 2.3125 -1.703125 "/>
</symbol>
<symbol overflow="visible" id="glyph1-0">
<path style="stroke:none;" d=""/>
</symbol>
<symbol overflow="visible" id="glyph1-1">
<path style="stroke:none;" d="M 0.625 -1.6875 C 0.5 -1.65625 0.484375 -1.46875 0.609375 -1.4375 C 0.65625 -1.421875 0.6875 -1.421875 0.71875 -1.421875 L 4.0625 -1.421875 C 4.140625 -1.421875 4.25 -1.40625 4.328125 -1.46875 C 4.40625 -1.546875 4.359375 -1.671875 4.25 -1.6875 C 4.1875 -1.71875 4.09375 -1.703125 4.015625 -1.703125 L 0.734375 -1.703125 C 0.703125 -1.703125 0.65625 -1.703125 0.625 -1.6875 Z M 0.625 -1.6875 "/>
</symbol>
<symbol overflow="visible" id="glyph2-0">
<path style="stroke:none;" d=""/>
</symbol>
<symbol overflow="visible" id="glyph2-1">
<path style="stroke:none;" d="M 2.734375 -0.53125 C 2.765625 -0.3125 2.890625 -0.078125 3.109375 0 C 3.4375 0.140625 3.9375 -0.0625 3.984375 -0.375 L 3.546875 -0.375 C 3.53125 -0.296875 3.421875 -0.265625 3.34375 -0.296875 C 3.1875 -0.34375 3.15625 -0.640625 3.125 -0.78125 C 3.125 -0.828125 3.109375 -0.875 3.125 -0.9375 C 3.125 -0.984375 3.234375 -1.078125 3.234375 -1.09375 C 3.515625 -1.484375 3.765625 -2.03125 3.859375 -2.53125 C 3.71875 -2.53125 3.578125 -2.546875 3.4375 -2.515625 L 3.40625 -2.4375 C 3.328125 -2.109375 3.203125 -1.8125 3.078125 -1.53125 C 3.0625 -1.625 3.0625 -1.71875 3.03125 -1.8125 C 2.96875 -2.203125 2.734375 -2.578125 2.40625 -2.734375 C 2.03125 -2.921875 1.59375 -2.84375 1.25 -2.65625 C 0.75 -2.390625 0.359375 -1.859375 0.28125 -1.296875 C 0.21875 -0.890625 0.328125 -0.4375 0.671875 -0.171875 C 0.734375 -0.109375 0.8125 -0.078125 0.875 -0.03125 C 1.453125 0.1875 2.109375 -0.078125 2.5 -0.34375 C 2.578125 -0.40625 2.65625 -0.46875 2.734375 -0.53125 Z M 2.15625 -2.4375 C 2.59375 -2.21875 2.625 -1.640625 2.65625 -1.09375 C 2.671875 -0.96875 2.671875 -0.953125 2.59375 -0.859375 C 2.328125 -0.5625 1.90625 -0.3125 1.453125 -0.28125 C 1.21875 -0.265625 1.015625 -0.34375 0.890625 -0.453125 C 0.6875 -0.640625 0.671875 -0.953125 0.703125 -1.203125 C 0.765625 -1.640625 0.9375 -2.109375 1.328125 -2.359375 C 1.53125 -2.484375 1.890625 -2.578125 2.15625 -2.4375 Z M 2.15625 -2.4375 "/>
</symbol>
<symbol overflow="visible" id="glyph2-2">
<path style="stroke:none;" d="M -0.25 0.984375 L 0.1875 0.984375 L 0.265625 0.65625 C 0.328125 0.359375 0.390625 0.0625 0.4375 -0.234375 L 0.5625 -0.125 C 0.828125 0.078125 1.1875 0.203125 1.609375 0.203125 C 1.71875 0.203125 1.828125 0.203125 1.9375 0.1875 C 2.546875 0.078125 3.125 -0.359375 3.359375 -0.953125 C 3.421875 -1.15625 3.453125 -1.390625 3.453125 -1.609375 C 3.4375 -1.953125 3.3125 -2.234375 3.140625 -2.421875 C 3.09375 -2.484375 3.03125 -2.515625 2.984375 -2.578125 C 3.0625 -2.609375 3.125 -2.65625 3.1875 -2.6875 C 3.53125 -2.953125 3.75 -3.421875 3.46875 -3.796875 C 3.21875 -4.125 2.6875 -4.21875 2.125 -4.109375 C 1.59375 -4.015625 1.03125 -3.71875 0.734375 -3.234375 C 0.5625 -2.953125 0.515625 -2.609375 0.453125 -2.28125 C 0.375 -1.953125 -0.234375 0.9375 -0.25 0.984375 Z M 2.421875 -3.828125 C 2.5 -3.828125 2.578125 -3.828125 2.65625 -3.8125 C 2.796875 -3.8125 2.953125 -3.78125 3.0625 -3.671875 C 3.25 -3.5 3.15625 -3.1875 3.046875 -3 C 3.03125 -2.953125 3 -2.90625 2.96875 -2.875 C 2.9375 -2.828125 2.8125 -2.71875 2.75 -2.71875 C 2.71875 -2.71875 2.6875 -2.734375 2.671875 -2.734375 C 2.4375 -2.8125 2.1875 -2.8125 1.890625 -2.78125 C 1.78125 -2.765625 1.640625 -2.765625 1.53125 -2.6875 C 1.5 -2.65625 1.4375 -2.609375 1.453125 -2.546875 C 1.46875 -2.453125 1.609375 -2.421875 1.6875 -2.40625 C 1.828125 -2.375 1.953125 -2.375 2.09375 -2.375 C 2.28125 -2.375 2.453125 -2.390625 2.625 -2.4375 C 2.65625 -2.4375 2.6875 -2.453125 2.71875 -2.4375 C 2.78125 -2.390625 2.828125 -2.328125 2.875 -2.265625 C 3 -2.078125 3.03125 -1.859375 3.03125 -1.625 C 3.03125 -1.21875 2.921875 -0.765625 2.625 -0.46875 C 2.390625 -0.25 2.109375 -0.125 1.6875 -0.125 C 1.296875 -0.140625 0.859375 -0.28125 0.6875 -0.671875 C 0.59375 -0.890625 0.625 -1.0625 0.6875 -1.328125 L 0.9375 -2.546875 C 0.984375 -2.71875 1 -2.890625 1.078125 -3.046875 C 1.328125 -3.546875 1.890625 -3.78125 2.421875 -3.828125 Z M 2.421875 -3.828125 "/>
</symbol>
<symbol overflow="visible" id="glyph2-3">
<path style="stroke:none;" d="M -0.03125 -1.609375 L 0.390625 -1.609375 C 0.46875 -1.90625 0.65625 -2.203125 0.9375 -2.34375 C 1.09375 -2.421875 1.296875 -2.453125 1.484375 -2.390625 C 1.828125 -2.265625 1.984375 -1.84375 2.078125 -1.484375 C 2.125 -1.328125 2.171875 -1.15625 2.21875 -1 C 2.234375 -0.921875 2.296875 -0.609375 2.296875 -0.53125 C 2.296875 -0.484375 2.28125 -0.453125 2.265625 -0.421875 C 2.171875 -0.09375 1.984375 0.625 1.984375 0.890625 C 1.984375 0.984375 2.03125 1.078125 2.140625 1.078125 C 2.34375 1.078125 2.40625 0.796875 2.453125 0.625 C 2.515625 0.34375 2.578125 -0.0625 2.609375 -0.359375 C 2.609375 -0.4375 2.609375 -0.5 2.625 -0.5625 C 2.625 -0.609375 2.609375 -0.65625 2.625 -0.6875 C 2.671875 -0.859375 2.75 -1.015625 2.828125 -1.171875 C 2.96875 -1.546875 3.140625 -1.90625 3.296875 -2.265625 L 3.453125 -2.59375 C 3.46875 -2.65625 3.515625 -2.71875 3.53125 -2.796875 C 3.390625 -2.796875 3.234375 -2.796875 3.109375 -2.78125 L 3.0625 -2.6875 C 2.890625 -2.265625 2.71875 -1.84375 2.5625 -1.40625 C 2.53125 -1.53125 2.515625 -1.65625 2.484375 -1.78125 C 2.390625 -2.125 2.203125 -2.46875 1.90625 -2.6875 C 1.59375 -2.890625 1.1875 -2.875 0.859375 -2.734375 C 0.53125 -2.578125 0.25 -2.296875 0.09375 -1.984375 C 0.03125 -1.859375 -0.015625 -1.734375 -0.03125 -1.609375 Z M -0.03125 -1.609375 "/>
</symbol>
<symbol overflow="visible" id="glyph3-0">
<path style="stroke:none;" d=""/>
</symbol>
<symbol overflow="visible" id="glyph3-1">
<path style="stroke:none;" d="M 0.109375 -3.296875 C 0.203125 -3.015625 0.34375 -2.75 0.453125 -2.46875 C 0.53125 -2.296875 1.5 -0.0625 1.5 -0.015625 C 1.515625 0.046875 1.390625 0.296875 1.390625 0.3125 C 1.3125 0.5 1.203125 0.71875 1 0.796875 C 0.796875 0.90625 0.34375 0.78125 0.1875 0.734375 L 0.21875 1.171875 C 0.390625 1.1875 0.734375 1.234375 0.890625 1.21875 C 1.40625 1.171875 1.640625 0.65625 1.796875 0.28125 L 2.015625 -0.234375 L 2.875 -2.328125 L 3.140625 -2.953125 C 3.1875 -3.0625 3.25 -3.171875 3.28125 -3.296875 L 2.9375 -3.296875 C 2.90625 -3.296875 2.828125 -3.296875 2.796875 -3.28125 C 2.78125 -3.25 2.703125 -3.0625 2.703125 -3.0625 L 2.5 -2.546875 L 1.984375 -1.296875 C 1.890625 -1.03125 1.78125 -0.78125 1.71875 -0.515625 C 1.640625 -0.796875 1.53125 -1.078125 1.421875 -1.359375 L 0.703125 -3.078125 L 0.640625 -3.21875 C 0.609375 -3.296875 0.578125 -3.296875 0.453125 -3.296875 L 0.109375 -3.296875 Z M 0.109375 -3.296875 "/>
</symbol>
<symbol overflow="visible" id="glyph3-2">
<path style="stroke:none;" d="M 0.578125 -4.84375 L 0.578125 0 L 1.09375 0 L 1.09375 -0.46875 L 1.09375 -0.46875 C 1.15625 -0.359375 1.265625 -0.265625 1.359375 -0.1875 C 1.671875 0.0625 2.1875 0.140625 2.640625 -0.078125 C 2.84375 -0.1875 3.015625 -0.359375 3.15625 -0.546875 C 3.84375 -1.5 3.421875 -3.09375 2.453125 -3.3125 C 2.328125 -3.359375 2.171875 -3.359375 2.03125 -3.328125 C 1.625 -3.28125 1.3125 -3.078125 1.078125 -2.828125 L 1.078125 -4.84375 L 0.578125 -4.84375 Z M 1.8125 -2.953125 C 2.140625 -2.984375 2.515625 -2.84375 2.734375 -2.578125 C 2.90625 -2.359375 2.96875 -2.078125 2.96875 -1.8125 C 3 -1.4375 2.953125 -1.03125 2.71875 -0.734375 C 2.515625 -0.46875 2.1875 -0.359375 1.875 -0.328125 C 1.609375 -0.328125 1.375 -0.421875 1.203125 -0.640625 C 1.171875 -0.6875 1.125 -0.75 1.09375 -0.8125 C 1.09375 -0.859375 1.09375 -0.90625 1.09375 -0.9375 L 1.09375 -2.328125 C 1.09375 -2.390625 1.078125 -2.46875 1.109375 -2.53125 C 1.140625 -2.609375 1.203125 -2.65625 1.265625 -2.71875 C 1.421875 -2.84375 1.609375 -2.9375 1.8125 -2.953125 Z M 1.8125 -2.953125 "/>
</symbol>
<symbol overflow="visible" id="glyph3-3">
<path style="stroke:none;" d="M 0.4375 -2.671875 C 0.375 -2.578125 0.4375 -2.453125 0.53125 -2.421875 C 0.578125 -2.40625 0.625 -2.421875 0.671875 -2.421875 L 5.125 -2.421875 C 5.1875 -2.421875 5.234375 -2.421875 5.296875 -2.453125 C 5.375 -2.546875 5.328125 -2.71875 5.203125 -2.734375 C 5.09375 -2.75 4.984375 -2.734375 4.890625 -2.734375 L 0.671875 -2.734375 C 0.5625 -2.734375 0.5 -2.75 0.4375 -2.671875 Z M 0.4375 -1.1875 C 0.375 -1.09375 0.4375 -0.96875 0.53125 -0.953125 C 0.578125 -0.9375 0.625 -0.9375 0.671875 -0.9375 L 5.125 -0.9375 C 5.1875 -0.9375 5.234375 -0.9375 5.296875 -0.984375 C 5.375 -1.078125 5.328125 -1.234375 5.203125 -1.265625 C 5.09375 -1.28125 4.984375 -1.265625 4.890625 -1.265625 L 0.65625 -1.265625 C 0.5625 -1.265625 0.484375 -1.265625 0.4375 -1.1875 Z M 0.4375 -1.1875 "/>
</symbol>
<symbol overflow="visible" id="glyph3-4">
<path style="stroke:none;" d="M 2.578125 1.546875 C 2.546875 1.5 2.5 1.46875 2.453125 1.4375 C 1.6875 0.75 1.21875 -0.3125 1.171875 -1.59375 C 1.140625 -2.46875 1.296875 -3.375 1.703125 -4.15625 C 1.90625 -4.53125 2.140625 -4.84375 2.453125 -5.109375 C 2.5 -5.15625 2.546875 -5.1875 2.578125 -5.21875 L 2.328125 -5.21875 C 2.171875 -5.21875 2.1875 -5.21875 2.078125 -5.140625 C 1.71875 -4.859375 1.421875 -4.484375 1.1875 -4.0625 C 0.53125 -2.828125 0.484375 -1.15625 1.09375 0.1875 C 1.3125 0.6875 1.65625 1.109375 2.078125 1.46875 C 2.171875 1.53125 2.171875 1.546875 2.328125 1.546875 L 2.578125 1.546875 Z M 2.578125 1.546875 "/>
</symbol>
<symbol overflow="visible" id="glyph3-5">
<path style="stroke:none;" d="M 2.71875 -2 L 0.6875 -2 C 0.640625 -2 0.578125 -2 0.53125 -2 C 0.453125 -1.96875 0.40625 -1.90625 0.40625 -1.84375 C 0.40625 -1.765625 0.453125 -1.703125 0.53125 -1.6875 C 0.578125 -1.671875 0.640625 -1.671875 0.6875 -1.671875 L 2.71875 -1.671875 L 2.71875 0.359375 C 2.71875 0.40625 2.703125 0.453125 2.71875 0.515625 C 2.75 0.578125 2.8125 0.625 2.875 0.625 C 2.953125 0.625 3.015625 0.578125 3.03125 0.515625 C 3.046875 0.453125 3.03125 0.40625 3.03125 0.359375 L 3.03125 -1.671875 L 5.078125 -1.671875 C 5.125 -1.671875 5.171875 -1.671875 5.21875 -1.6875 C 5.296875 -1.703125 5.34375 -1.765625 5.34375 -1.84375 C 5.34375 -1.90625 5.296875 -1.96875 5.21875 -2 C 5.171875 -2 5.125 -2 5.078125 -2 L 3.03125 -2 L 3.03125 -4.03125 C 3.03125 -4.078125 3.046875 -4.140625 3.03125 -4.1875 C 3.015625 -4.265625 2.953125 -4.3125 2.875 -4.3125 C 2.8125 -4.3125 2.75 -4.265625 2.71875 -4.1875 C 2.703125 -4.140625 2.71875 -4.078125 2.71875 -4.03125 L 2.71875 -2 Z M 2.71875 -2 "/>
</symbol>
<symbol overflow="visible" id="glyph3-6">
<path style="stroke:none;" d="M 0.625 -3.203125 C 0.734375 -3.609375 0.90625 -4.046875 1.34375 -4.203125 C 1.5 -4.265625 1.671875 -4.28125 1.859375 -4.265625 C 2.21875 -4.234375 2.578125 -4.09375 2.796875 -3.78125 C 2.9375 -3.578125 2.984375 -3.328125 2.953125 -3.078125 C 2.875 -2.40625 2.28125 -1.984375 1.796875 -1.609375 C 1.40625 -1.3125 0.59375 -0.59375 0.59375 -0.59375 L 0.453125 -0.484375 C 0.390625 -0.40625 0.390625 -0.421875 0.390625 -0.265625 L 0.390625 0 L 3.484375 0 L 3.484375 -0.4375 L 0.84375 -0.4375 C 1.109375 -0.671875 1.90625 -1.34375 2.140625 -1.515625 C 2.578125 -1.84375 3.0625 -2.15625 3.34375 -2.640625 C 3.640625 -3.203125 3.453125 -3.921875 2.96875 -4.3125 C 2.4375 -4.765625 1.46875 -4.828125 0.875 -4.390625 C 0.65625 -4.234375 0.5 -3.984375 0.390625 -3.734375 C 0.375 -3.671875 0.328125 -3.609375 0.328125 -3.546875 C 0.34375 -3.515625 0.390625 -3.484375 0.40625 -3.4375 C 0.46875 -3.359375 0.546875 -3.265625 0.625 -3.203125 Z M 0.625 -3.203125 "/>
</symbol>
<symbol overflow="visible" id="glyph3-7">
<path style="stroke:none;" d="M 0.4375 -5.21875 C 0.46875 -5.1875 0.515625 -5.15625 0.5625 -5.109375 C 1.421875 -4.34375 1.890625 -3.109375 1.828125 -1.59375 C 1.8125 -0.84375 1.625 -0.09375 1.265625 0.5625 C 1.078125 0.890625 0.84375 1.1875 0.5625 1.4375 C 0.515625 1.46875 0.46875 1.5 0.4375 1.546875 L 0.6875 1.546875 C 0.84375 1.546875 0.828125 1.546875 0.921875 1.46875 C 1.296875 1.171875 1.59375 0.796875 1.8125 0.390625 C 2.484375 -0.859375 2.53125 -2.515625 1.921875 -3.859375 C 1.6875 -4.375 1.359375 -4.796875 0.9375 -5.140625 C 0.84375 -5.21875 0.84375 -5.21875 0.6875 -5.21875 L 0.4375 -5.21875 Z M 0.4375 -5.21875 "/>
</symbol>
<symbol overflow="visible" id="glyph3-8">
<path style="stroke:none;" d="M 1.0625 -2.453125 L 1.0625 -2.453125 L 1.0625 -3.296875 L 0.578125 -3.296875 L 0.578125 0 L 1.078125 0 L 1.078125 -1.3125 C 1.078125 -1.578125 1.046875 -1.859375 1.15625 -2.109375 C 1.28125 -2.46875 1.609375 -2.703125 1.953125 -2.828125 C 2.109375 -2.875 2.28125 -2.90625 2.453125 -2.90625 L 2.453125 -3.34375 C 2 -3.34375 1.5625 -3.140625 1.28125 -2.796875 C 1.203125 -2.6875 1.109375 -2.578125 1.0625 -2.453125 Z M 1.0625 -2.453125 "/>
</symbol>
<symbol overflow="visible" id="glyph3-9">
<path style="stroke:none;" d="M 2.71875 -0.890625 L 2.71875 -0.890625 L 2.71875 -0.21875 C 2.71875 0 2.734375 0.1875 2.640625 0.390625 C 2.5625 0.609375 2.359375 0.796875 2.125 0.859375 C 2 0.90625 1.875 0.890625 1.734375 0.890625 C 1.4375 0.875 1.15625 0.8125 0.890625 0.703125 C 0.765625 0.65625 0.65625 0.59375 0.53125 0.546875 L 0.53125 0.84375 C 0.53125 0.890625 0.53125 0.9375 0.546875 0.96875 C 0.609375 1.046875 1.140625 1.203125 1.140625 1.203125 C 1.40625 1.25 1.828125 1.3125 2.109375 1.265625 C 2.671875 1.21875 3.125 0.765625 3.21875 0.21875 C 3.234375 0.078125 3.234375 -0.046875 3.234375 -0.171875 L 3.234375 -3.34375 L 2.734375 -3.34375 L 2.734375 -2.734375 C 2.625 -2.921875 2.46875 -3.09375 2.28125 -3.21875 C 1.78125 -3.5 1.140625 -3.296875 0.78125 -2.890625 C 0.328125 -2.390625 0.1875 -1.59375 0.46875 -0.96875 C 0.671875 -0.53125 1.078125 -0.1875 1.5625 -0.140625 C 1.8125 -0.109375 2.015625 -0.171875 2.1875 -0.265625 C 2.390625 -0.390625 2.640625 -0.640625 2.71875 -0.890625 Z M 2.1875 -2.9375 C 2.453125 -2.875 2.625 -2.609375 2.71875 -2.34375 C 2.765625 -2.234375 2.734375 -2.09375 2.734375 -1.96875 C 2.734375 -1.90625 2.75 -1.84375 2.734375 -1.78125 C 2.734375 -1.75 2.71875 -1.734375 2.71875 -1.703125 C 2.703125 -1.46875 2.6875 -1.21875 2.578125 -1 C 2.4375 -0.6875 2.171875 -0.4375 1.71875 -0.546875 C 1.21875 -0.640625 0.859375 -1.078125 0.84375 -1.578125 C 0.8125 -2.125 1.109375 -2.6875 1.625 -2.890625 C 1.78125 -2.9375 2 -2.984375 2.1875 -2.9375 Z M 2.1875 -2.9375 "/>
</symbol>
<symbol overflow="visible" id="glyph3-10">
<path style="stroke:none;" d="M 0.109375 -3.296875 L 0.390625 -2.4375 C 0.65625 -1.625 0.90625 -0.796875 1.1875 0 C 1.328125 0.03125 1.5 0.015625 1.65625 0.015625 C 1.890625 -0.75 2.390625 -2.09375 2.515625 -2.78125 L 2.53125 -2.78125 C 2.59375 -2.46875 2.703125 -2.1875 2.78125 -1.875 L 3.375 -0.03125 C 3.40625 0.03125 3.453125 0.015625 3.546875 0.015625 L 3.796875 0.015625 C 3.828125 0.015625 3.890625 0.03125 3.921875 0 C 3.9375 -0.015625 3.9375 -0.0625 3.953125 -0.09375 C 4.328125 -1.140625 4.640625 -2.234375 5 -3.296875 C 4.84375 -3.296875 4.671875 -3.296875 4.53125 -3.28125 L 4.515625 -3.203125 C 4.203125 -2.328125 3.921875 -1.421875 3.65625 -0.515625 L 3.640625 -0.515625 C 3.578125 -0.796875 3.484375 -1.078125 3.390625 -1.359375 C 3.328125 -1.53125 2.78125 -3.234375 2.765625 -3.28125 C 2.734375 -3.296875 2.671875 -3.296875 2.640625 -3.296875 L 2.328125 -3.296875 C 2.03125 -2.359375 1.71875 -1.46875 1.453125 -0.515625 C 1.171875 -1.4375 0.90625 -2.375 0.578125 -3.28125 C 0.453125 -3.296875 0.265625 -3.296875 0.109375 -3.296875 Z M 0.109375 -3.296875 "/>
</symbol>
<symbol overflow="visible" id="glyph3-11">
<path style="stroke:none;" d="M 0.609375 -4.84375 L 0.609375 0 L 1.046875 0 C 1.0625 -0.375 1.03125 -0.796875 1.0625 -1.140625 C 1.25 -1.359375 1.484375 -1.53125 1.6875 -1.734375 L 1.796875 -1.59375 C 2.171875 -1.0625 2.546875 -0.53125 2.9375 -0.015625 C 3.09375 0 3.296875 0 3.46875 0 C 3.359375 -0.171875 2.09375 -1.90625 2.09375 -1.90625 C 2.0625 -1.9375 2 -2 2.015625 -2.046875 C 2.03125 -2.09375 2.09375 -2.125 2.125 -2.15625 C 2.203125 -2.25 2.296875 -2.328125 2.390625 -2.40625 L 2.96875 -2.96875 C 3.078125 -3.0625 3.203125 -3.171875 3.296875 -3.296875 C 3.09375 -3.296875 2.890625 -3.296875 2.703125 -3.28125 L 2.546875 -3.15625 L 1.0625 -1.734375 L 1.0625 -4.84375 L 0.609375 -4.84375 Z M 0.609375 -4.84375 "/>
</symbol>
<symbol overflow="visible" id="glyph4-0">
<path style="stroke:none;" d=""/>
</symbol>
<symbol overflow="visible" id="glyph4-1">
<path style="stroke:none;" d="M 0.734375 -2 C 0.59375 -1.953125 0.578125 -1.734375 0.71875 -1.6875 C 0.765625 -1.671875 0.8125 -1.671875 0.84375 -1.671875 L 4.78125 -1.671875 C 4.875 -1.671875 5.015625 -1.65625 5.09375 -1.71875 C 5.171875 -1.8125 5.125 -1.96875 5 -2 C 4.921875 -2.015625 4.828125 -2 4.734375 -2 L 0.859375 -2 C 0.828125 -2 0.78125 -2 0.734375 -2 Z M 0.734375 -2 "/>
</symbol>
<symbol overflow="visible" id="glyph5-0">
<path style="stroke:none;" d=""/>
</symbol>
<symbol overflow="visible" id="glyph5-1">
<path style="stroke:none;" d="M 1.625 -4.84375 L 0.609375 0 C 0.765625 0 0.90625 0 1.046875 -0.015625 L 1.078125 -0.09375 C 1.140625 -0.4375 1.21875 -0.796875 1.296875 -1.125 L 1.390625 -1.21875 L 2.0625 -1.734375 C 2.34375 -1.15625 2.625 -0.578125 2.9375 -0.015625 C 3.09375 0 3.296875 0 3.46875 0 L 2.4375 -2.046875 C 2.96875 -2.453125 3.46875 -2.875 4 -3.28125 L 4 -3.296875 C 3.796875 -3.296875 3.59375 -3.296875 3.40625 -3.28125 L 3.328125 -3.234375 L 1.421875 -1.734375 L 2.078125 -4.84375 L 1.625 -4.84375 Z M 1.625 -4.84375 "/>
</symbol>
<symbol overflow="visible" id="glyph5-2">
<path style="stroke:none;" d="M -0.28125 1.15625 L 0.21875 1.15625 L 0.3125 0.765625 C 0.390625 0.421875 0.453125 0.078125 0.515625 -0.28125 L 0.671875 -0.15625 C 0.96875 0.09375 1.40625 0.234375 1.890625 0.25 C 2.015625 0.25 2.140625 0.25 2.28125 0.21875 C 3 0.09375 3.671875 -0.421875 3.9375 -1.125 C 4.03125 -1.359375 4.0625 -1.640625 4.0625 -1.890625 C 4.046875 -2.296875 3.90625 -2.625 3.6875 -2.859375 C 3.640625 -2.921875 3.578125 -2.96875 3.515625 -3.03125 C 3.609375 -3.0625 3.671875 -3.125 3.75 -3.171875 C 4.140625 -3.46875 4.40625 -4.015625 4.078125 -4.46875 C 3.78125 -4.84375 3.15625 -4.96875 2.515625 -4.84375 C 1.875 -4.71875 1.21875 -4.375 0.875 -3.8125 C 0.65625 -3.46875 0.609375 -3.0625 0.53125 -2.671875 C 0.453125 -2.296875 -0.28125 1.09375 -0.28125 1.15625 Z M 2.84375 -4.5 C 2.9375 -4.515625 3.03125 -4.5 3.125 -4.5 C 3.296875 -4.484375 3.484375 -4.453125 3.609375 -4.328125 C 3.8125 -4.125 3.71875 -3.75 3.59375 -3.53125 C 3.5625 -3.484375 3.53125 -3.421875 3.484375 -3.390625 C 3.453125 -3.328125 3.3125 -3.203125 3.234375 -3.1875 C 3.203125 -3.1875 3.171875 -3.21875 3.140625 -3.21875 C 2.875 -3.3125 2.578125 -3.296875 2.234375 -3.28125 C 2.09375 -3.265625 1.921875 -3.25 1.8125 -3.15625 C 1.75 -3.125 1.703125 -3.0625 1.71875 -3 C 1.734375 -2.875 1.890625 -2.84375 2 -2.828125 C 2.140625 -2.796875 2.3125 -2.796875 2.453125 -2.796875 C 2.6875 -2.796875 2.890625 -2.8125 3.078125 -2.859375 C 3.125 -2.875 3.15625 -2.890625 3.203125 -2.859375 C 3.28125 -2.8125 3.328125 -2.734375 3.375 -2.671875 C 3.53125 -2.453125 3.5625 -2.1875 3.5625 -1.921875 C 3.5625 -1.4375 3.4375 -0.890625 3.078125 -0.546875 C 2.8125 -0.296875 2.484375 -0.140625 2 -0.140625 C 1.53125 -0.15625 1 -0.328125 0.796875 -0.78125 C 0.703125 -1.046875 0.734375 -1.25 0.796875 -1.5625 L 1.109375 -3 C 1.15625 -3.203125 1.171875 -3.40625 1.265625 -3.578125 C 1.5625 -4.171875 2.234375 -4.453125 2.84375 -4.5 Z M 2.84375 -4.5 "/>
</symbol>
<symbol overflow="visible" id="glyph5-3">
<path style="stroke:none;" d="M -0.046875 -1.890625 L 0.46875 -1.890625 C 0.546875 -2.25 0.78125 -2.59375 1.109375 -2.765625 C 1.296875 -2.84375 1.53125 -2.890625 1.734375 -2.8125 C 2.15625 -2.65625 2.328125 -2.171875 2.453125 -1.734375 C 2.515625 -1.546875 2.5625 -1.359375 2.609375 -1.171875 C 2.625 -1.078125 2.703125 -0.71875 2.703125 -0.625 C 2.703125 -0.578125 2.671875 -0.53125 2.671875 -0.5 C 2.5625 -0.109375 2.34375 0.734375 2.34375 1.046875 C 2.34375 1.15625 2.390625 1.28125 2.515625 1.28125 C 2.75 1.265625 2.84375 0.9375 2.875 0.734375 C 2.96875 0.390625 3.03125 -0.0625 3.0625 -0.4375 C 3.078125 -0.515625 3.078125 -0.59375 3.078125 -0.671875 C 3.078125 -0.71875 3.078125 -0.765625 3.09375 -0.8125 C 3.15625 -1.015625 3.234375 -1.203125 3.328125 -1.390625 C 3.5 -1.8125 3.703125 -2.234375 3.890625 -2.65625 L 4.0625 -3.046875 C 4.09375 -3.125 4.125 -3.203125 4.15625 -3.296875 C 4 -3.296875 3.8125 -3.296875 3.65625 -3.28125 L 3.59375 -3.15625 C 3.390625 -2.65625 3.203125 -2.171875 3.03125 -1.65625 C 2.984375 -1.796875 2.96875 -1.9375 2.921875 -2.09375 C 2.8125 -2.5 2.59375 -2.90625 2.234375 -3.15625 C 1.875 -3.40625 1.40625 -3.390625 1.015625 -3.21875 C 0.625 -3.03125 0.296875 -2.703125 0.109375 -2.328125 C 0.046875 -2.1875 -0.015625 -2.046875 -0.046875 -1.890625 Z M -0.046875 -1.890625 "/>
</symbol>
<symbol overflow="visible" id="glyph5-4">
<path style="stroke:none;" d="M 3.21875 -0.625 C 3.265625 -0.375 3.40625 -0.09375 3.65625 0 C 4.046875 0.171875 4.640625 -0.0625 4.6875 -0.4375 L 4.1875 -0.4375 C 4.140625 -0.34375 4.03125 -0.3125 3.9375 -0.34375 C 3.75 -0.40625 3.703125 -0.75 3.6875 -0.90625 C 3.671875 -0.96875 3.671875 -1.03125 3.671875 -1.09375 C 3.6875 -1.15625 3.796875 -1.28125 3.8125 -1.296875 C 4.140625 -1.75 4.4375 -2.390625 4.546875 -2.984375 C 4.390625 -2.984375 4.203125 -2.984375 4.046875 -2.96875 L 4.015625 -2.875 C 3.921875 -2.46875 3.78125 -2.125 3.609375 -1.8125 C 3.59375 -1.921875 3.59375 -2.03125 3.578125 -2.140625 C 3.484375 -2.59375 3.21875 -3.03125 2.84375 -3.21875 C 2.390625 -3.4375 1.875 -3.359375 1.46875 -3.125 C 0.875 -2.8125 0.4375 -2.1875 0.328125 -1.53125 C 0.265625 -1.046875 0.390625 -0.515625 0.78125 -0.1875 C 0.859375 -0.125 0.953125 -0.078125 1.03125 -0.046875 C 1.703125 0.21875 2.484375 -0.09375 2.9375 -0.40625 C 3.03125 -0.484375 3.125 -0.5625 3.21875 -0.625 Z M 2.546875 -2.875 C 3.046875 -2.609375 3.078125 -1.921875 3.125 -1.296875 C 3.140625 -1.140625 3.15625 -1.109375 3.046875 -1.015625 C 2.734375 -0.671875 2.25 -0.375 1.703125 -0.328125 C 1.4375 -0.3125 1.1875 -0.390625 1.046875 -0.53125 C 0.8125 -0.75 0.78125 -1.109375 0.828125 -1.421875 C 0.890625 -1.9375 1.09375 -2.484375 1.5625 -2.78125 C 1.8125 -2.921875 2.21875 -3.03125 2.546875 -2.875 Z M 2.546875 -2.875 "/>
</symbol>
<symbol overflow="visible" id="glyph6-0">
<path style="stroke:none;" d=""/>
</symbol>
<symbol overflow="visible" id="glyph6-1">
<path style="stroke:none;" d="M 0.546875 -3.015625 L 0.546875 -2.734375 C 0.796875 -2.734375 1.046875 -2.78125 1.28125 -2.875 L 1.28125 -0.28125 L 0.578125 -0.28125 L 0.578125 0 L 2.328125 0 L 2.328125 -0.28125 L 1.640625 -0.28125 L 1.640625 -3.34375 C 1.609375 -3.34375 1.5625 -3.359375 1.546875 -3.34375 C 1.5 -3.328125 1.46875 -3.296875 1.4375 -3.265625 C 1.234375 -3.09375 0.875 -3.015625 0.546875 -3.015625 Z M 0.546875 -3.015625 "/>
</symbol>
<symbol overflow="visible" id="glyph6-2">
<path style="stroke:none;" d="M 0.4375 -2.28125 C 0.515625 -2.578125 0.65625 -2.890625 0.953125 -3 C 1.078125 -3.046875 1.203125 -3.0625 1.328125 -3.046875 C 1.578125 -3.03125 1.84375 -2.921875 2 -2.703125 C 2.109375 -2.5625 2.140625 -2.375 2.109375 -2.203125 C 2.046875 -1.71875 1.625 -1.421875 1.28125 -1.15625 C 1 -0.9375 0.421875 -0.421875 0.421875 -0.421875 L 0.328125 -0.34375 C 0.28125 -0.296875 0.28125 -0.296875 0.28125 -0.1875 L 0.28125 0 L 2.5 0 L 2.5 -0.3125 L 0.59375 -0.3125 C 0.796875 -0.484375 1.359375 -0.953125 1.53125 -1.078125 C 1.84375 -1.3125 2.1875 -1.546875 2.390625 -1.890625 C 2.609375 -2.28125 2.46875 -2.8125 2.125 -3.078125 C 1.75 -3.40625 1.046875 -3.453125 0.625 -3.140625 C 0.46875 -3.03125 0.359375 -2.84375 0.28125 -2.671875 C 0.265625 -2.625 0.234375 -2.578125 0.234375 -2.546875 C 0.25 -2.515625 0.28125 -2.484375 0.296875 -2.46875 C 0.34375 -2.40625 0.390625 -2.34375 0.4375 -2.28125 Z M 0.4375 -2.28125 "/>
</symbol>
<symbol overflow="visible" id="glyph6-3">
<path style="stroke:none;" d="M 0.484375 -2.53125 L 0.5 -2.53125 C 0.703125 -2.875 1.078125 -3.109375 1.484375 -3.0625 C 1.78125 -3.046875 2.046875 -2.890625 2.015625 -2.53125 C 1.96875 -2.265625 1.75 -2.046875 1.484375 -1.96875 C 1.328125 -1.921875 1.09375 -1.90625 0.921875 -1.90625 L 0.921875 -1.625 L 1.25 -1.625 C 1.328125 -1.625 1.390625 -1.625 1.453125 -1.625 C 1.640625 -1.609375 1.8125 -1.546875 1.953125 -1.421875 C 2.171875 -1.203125 2.21875 -0.828125 2.078125 -0.5625 C 2.015625 -0.453125 1.921875 -0.375 1.828125 -0.3125 C 1.5625 -0.15625 1.234375 -0.1875 0.96875 -0.28125 C 0.765625 -0.328125 0.59375 -0.4375 0.4375 -0.578125 C 0.390625 -0.625 0.34375 -0.6875 0.28125 -0.734375 C 0.265625 -0.671875 0.25 -0.609375 0.25 -0.546875 C 0.234375 -0.484375 0.21875 -0.453125 0.28125 -0.40625 L 0.375 -0.3125 C 0.515625 -0.1875 0.6875 -0.078125 0.859375 -0.015625 C 1.25 0.125 1.703125 0.125 2.0625 -0.109375 C 2.421875 -0.328125 2.671875 -0.78125 2.46875 -1.21875 C 2.34375 -1.5 2.09375 -1.671875 1.765625 -1.765625 C 1.953125 -1.859375 2.09375 -1.9375 2.21875 -2.109375 C 2.3125 -2.25 2.421875 -2.484375 2.375 -2.71875 C 2.328125 -2.96875 2.125 -3.15625 1.90625 -3.25 C 1.578125 -3.390625 1.1875 -3.375 0.859375 -3.234375 C 0.703125 -3.15625 0.546875 -3.0625 0.421875 -2.921875 C 0.40625 -2.90625 0.3125 -2.8125 0.3125 -2.765625 C 0.328125 -2.75 0.453125 -2.59375 0.484375 -2.53125 Z M 0.484375 -2.53125 "/>
</symbol>
<symbol overflow="visible" id="glyph6-4">
<path style="stroke:none;" d="M 0.15625 -0.875 L 1.671875 -0.875 L 1.671875 0 L 2.015625 0 L 2.015625 -0.875 L 2.609375 -0.875 L 2.609375 -1.171875 L 2.015625 -1.171875 L 2.015625 -3.3125 L 1.734375 -3.3125 C 1.6875 -3.3125 1.640625 -3.328125 1.609375 -3.3125 C 1.578125 -3.28125 1.5 -3.15625 1.484375 -3.140625 L 1.203125 -2.703125 C 1.078125 -2.53125 0.265625 -1.34375 0.203125 -1.25 C 0.15625 -1.1875 0.15625 -1.171875 0.15625 -1.078125 L 0.15625 -0.875 Z M 1.6875 -3 L 1.6875 -1.171875 L 0.515625 -1.171875 L 1.265625 -2.28125 C 1.40625 -2.515625 1.5625 -2.734375 1.6875 -3 Z M 1.6875 -3 "/>
</symbol>
</g>
<clipPath id="clip1">
  <path d="M -250 668 L 362 668 L 362 -124 L -250 -124 L -250 668 Z M -250 668 "/>
</clipPath>
<clipPath id="clip2">
  <path d="M 6.867188 87.121094 L 103.246094 87.121094 L 103.246094 18.28125 L 6.867188 18.28125 L 6.867188 87.121094 Z M 6.867188 87.121094 "/>
</clipPath>
<clipPath id="clip3">
  <path d="M -250 668 L 362 668 L 362 -124 L -250 -124 L -250 668 Z M -250 668 "/>
</clipPath>
</defs>
<g id="surface0">
<g clip-path="url(#clip1)" clip-rule="nonzero">
<g clip-path="url(#clip2)" clip-rule="nonzero">
<path style="fill:none;stroke-width:7.5;stroke-linecap:butt;stroke-linejoin:miter;stroke:rgb(0%,0%,0%);stroke-opacity:1;stroke-miterlimit:4;" d="M 113.665119 449.102975 L 193.663913 449.102975 L 193.663913 631.709719 L 113.665119 631.709719 L 113.665119 449.102975 Z M 113.665119 449.102975 " transform="matrix(0.10591,0,0,-0.10591,6.868,87.123)"/>
<path style="fill:none;stroke-width:7.5;stroke-linecap:butt;stroke-linejoin:miter;stroke:rgb(0%,0%,0%);stroke-opacity:1;stroke-miterlimit:4;" d="M 227.891151 449.102975 L 307.889945 449.102975 L 307.889945 631.709719 L 227.891151 631.709719 L 227.891151 449.102975 Z M 227.891151 449.102975 " transform="matrix(0.10591,0,0,-0.10591,6.868,87.123)"/>
<path style="fill:none;stroke-width:7.5;stroke-linecap:butt;stroke-linejoin:miter;stroke:rgb(0%,0%,0%);stroke-opacity:1;stroke-miterlimit:4;" d="M 227.891151 540.387906 L 193.663913 540.387906 " transform="matrix(0.10591,0,0,-0.10591,6.868,87.123)"/>
<path style="fill:none;stroke-width:7.5;stroke-linecap:butt;stroke-linejoin:miter;stroke:rgb(0%,0%,0%);stroke-opacity:1;stroke-miterlimit:4;" d="M 383.499686 449.102975 L 463.498479 449.102975 L 463.498479 631.709719 L 383.499686 631.709719 L 383.499686 449.102975 Z M 383.499686 449.102975 " transform="matrix(0.10591,0,0,-0.10591,6.868,87.123)"/>
<path style="fill:none;stroke-width:7.5;stroke-linecap:butt;stroke-linejoin:miter;stroke:rgb(0%,0%,0%);stroke-opacity:1;stroke-miterlimit:4;" d="M 497.725718 449.102975 L 577.724512 449.102975 L 577.724512 631.709719 L 497.725718 631.709719 L 497.725718 449.102975 Z M 497.725718 449.102975 " transform="matrix(0.10591,0,0,-0.10591,6.868,87.123)"/>
<path style="fill:none;stroke-width:7.5;stroke-linecap:butt;stroke-linejoin:miter;stroke:rgb(0%,0%,0%);stroke-opacity:1;stroke-miterlimit:4;" d="M 497.725718 540.387906 L 463.498479 540.387906 " transform="matrix(0.10591,0,0,-0.10591,6.868,87.123)"/>
<path style="fill:none;stroke-width:7.5;stroke-linecap:butt;stroke-linejoin:miter;stroke:rgb(0%,0%,0%);stroke-opacity:1;stroke-miterlimit:4;" d="M 698.331269 449.102975 L 778.330062 449.102975 L 778.330062 631.709719 L 698.331269 631.709719 L 698.331269 449.102975 Z M 698.331269 449.102975 " transform="matrix(0.10591,0,0,-0.10591,6.868,87.123)"/>
<path style="fill:none;stroke-width:7.5;stroke-linecap:butt;stroke-linejoin:miter;stroke:rgb(0%,0%,0%);stroke-opacity:1;stroke-miterlimit:4;" d="M 892.556095 449.102975 L 812.557301 449.102975 L 812.557301 631.709719 L 892.556095 631.709719 L 892.556095 449.102975 Z M 892.556095 449.102975 " transform="matrix(0.10591,0,0,-0.10591,6.868,87.123)"/>
<path style="fill:none;stroke-width:7.5;stroke-linecap:butt;stroke-linejoin:miter;stroke:rgb(0%,0%,0%);stroke-opacity:1;stroke-miterlimit:4;" d="M 812.557301 540.387906 L 778.330062 540.387906 " transform="matrix(0.10591,0,0,-0.10591,6.868,87.123)"/>
<path style="fill:none;stroke-width:7.5;stroke-linecap:butt;stroke-linejoin:miter;stroke:rgb(0%,0%,0%);stroke-opacity:1;stroke-miterlimit:4;" d="M 539.145103 133.939447 C 539.145103 174.658058 572.155209 207.668164 612.910703 207.668164 C 653.629315 207.668164 686.676304 174.658058 686.676304 133.939447 C 686.676304 93.183952 653.629315 60.173846 612.910703 60.173846 C 572.155209 60.173846 539.145103 93.183952 539.145103 133.939447 Z M 539.145103 133.939447 " transform="matrix(0.10591,0,0,-0.10591,6.868,87.123)"/>
<path style="fill:none;stroke-width:7.5;stroke-linecap:butt;stroke-linejoin:miter;stroke:rgb(0%,0%,0%);stroke-opacity:1;stroke-miterlimit:4;" d="M 274.584776 133.939447 C 274.584776 174.658058 307.594883 207.668164 348.313494 207.668164 C 389.068988 207.668164 422.079095 174.658058 422.079095 133.939447 C 422.079095 93.183952 389.068988 60.173846 348.313494 60.173846 C 307.594883 60.173846 274.584776 93.183952 274.584776 133.939447 Z M 274.584776 133.939447 " transform="matrix(0.10591,0,0,-0.10591,6.868,87.123)"/>
<path style="fill:none;stroke-width:7.5;stroke-linecap:butt;stroke-linejoin:miter;stroke:rgb(0%,0%,0%);stroke-opacity:1;stroke-miterlimit:4;" d="M 9.987567 133.939447 C 9.987567 174.658058 43.034556 207.668164 83.753168 207.668164 C 124.508662 207.668164 157.518768 174.658058 157.518768 133.939447 C 157.518768 93.183952 124.508662 60.173846 83.753168 60.173846 C 43.034556 60.173846 9.987567 93.183952 9.987567 133.939447 Z M 9.987567 133.939447 " transform="matrix(0.10591,0,0,-0.10591,6.868,87.123)"/>
<path style="fill:none;stroke-width:7.5;stroke-linecap:butt;stroke-linejoin:miter;stroke:rgb(0%,0%,0%);stroke-opacity:1;stroke-miterlimit:4;" d="M 153.019067 449.102975 L 101.899506 205.418314 " transform="matrix(0.10591,0,0,-0.10591,6.868,87.123)"/>
<path style="fill:none;stroke-width:7.5;stroke-linecap:round;stroke-linejoin:round;stroke:rgb(0%,0%,0%);stroke-opacity:1;stroke-miterlimit:4;" d="M 150.621685 164.957882 L 537.337846 448.107139 L 600.407434 207.668164 " transform="matrix(0.10591,0,0,-0.10591,6.868,87.123)"/>
<path style="fill:none;stroke-width:7.5;stroke-linecap:round;stroke-linejoin:round;stroke:rgb(0%,0%,0%);stroke-opacity:1;stroke-miterlimit:4;" d="M 558.582338 183.76811 L 267.355748 449.102975 L 328.728727 205.012603 " transform="matrix(0.10591,0,0,-0.10591,6.868,87.123)"/>
<path style="fill:none;stroke-width:7.5;stroke-linecap:butt;stroke-linejoin:miter;stroke:rgb(0%,0%,0%);stroke-opacity:1;stroke-miterlimit:4;" d="M 366.238535 207.151805 L 422.521688 449.102975 " transform="matrix(0.10591,0,0,-0.10591,6.868,87.123)"/>
<path style="fill:none;stroke-width:7.5;stroke-linecap:butt;stroke-linejoin:miter;stroke:rgb(0%,0%,0%);stroke-opacity:1;stroke-miterlimit:4;" d="M 363.767387 61.575392 L 363.767387 38.339228 " transform="matrix(0.10591,0,0,-0.10591,6.868,87.123)"/>
<path style="fill:none;stroke-width:7.5;stroke-linecap:butt;stroke-linejoin:miter;stroke:rgb(0%,0%,0%);stroke-opacity:1;stroke-dasharray:20,15;stroke-miterlimit:4;" d="M 331.937531 62.239283 L 331.937531 7.431442 " transform="matrix(0.10591,0,0,-0.10591,6.868,87.123)"/>
<path style="fill:none;stroke-width:7.5;stroke-linecap:butt;stroke-linejoin:miter;stroke:rgb(0%,0%,0%);stroke-opacity:1;stroke-miterlimit:4;" d="M 627.22123 61.464744 L 627.22123 36.716385 " transform="matrix(0.10591,0,0,-0.10591,6.868,87.123)"/>
<path style="fill:none;stroke-width:7.5;stroke-linecap:butt;stroke-linejoin:miter;stroke:rgb(0%,0%,0%);stroke-opacity:1;stroke-dasharray:20,15;stroke-miterlimit:4;" d="M 595.428256 62.239283 L 595.428256 1.308897 " transform="matrix(0.10591,0,0,-0.10591,6.868,87.123)"/>
<path style="fill:none;stroke-width:7.5;stroke-linecap:butt;stroke-linejoin:miter;stroke:rgb(0%,0%,0%);stroke-opacity:1;stroke-miterlimit:4;" d="M 98.653819 61.575392 L 98.653819 38.339228 L 738.201576 38.339228 L 738.201576 449.102975 " transform="matrix(0.10591,0,0,-0.10591,6.868,87.123)"/>
<path style="fill:none;stroke-width:7.5;stroke-linecap:butt;stroke-linejoin:miter;stroke:rgb(0%,0%,0%);stroke-opacity:1;stroke-dasharray:30,20;stroke-miterlimit:4;" d="M 852.538257 383.304059 L 852.538257 10.013238 L 66.860845 10.013238 L 66.860845 49.920428 L 66.860845 62.239283 " transform="matrix(0.10591,0,0,-0.10591,6.868,87.123)"/>
<path style="fill:none;stroke-width:7.5;stroke-linecap:butt;stroke-linejoin:miter;stroke:rgb(0%,0%,0%);stroke-opacity:1;stroke-dasharray:30,20;stroke-miterlimit:4;" d="M 852.538257 449.102975 L 852.538257 383.304059 " transform="matrix(0.10591,0,0,-0.10591,6.868,87.123)"/>
<path style="fill:none;stroke-width:7.5;stroke-linecap:butt;stroke-linejoin:miter;stroke:rgb(0%,0%,0%);stroke-opacity:1;stroke-dasharray:20,15;stroke-miterlimit:4;" d="M 316.889348 10.013238 L 335.736459 10.013238 " transform="matrix(0.10591,0,0,-0.10591,6.868,87.123)"/>
<path style="fill:none;stroke-width:7.5;stroke-linecap:butt;stroke-linejoin:miter;stroke:rgb(0%,0%,0%);stroke-opacity:1;stroke-dasharray:20,15;stroke-miterlimit:4;" d="M 592.18257 10.013238 L 611.066563 10.013238 " transform="matrix(0.10591,0,0,-0.10591,6.868,87.123)"/>
</g>
</g>
<g clip-path="url(#clip3)" clip-rule="nonzero">
<g style="fill:rgb(0%,0%,0%);fill-opacity:1;">
  <use xlink:href="#glyph0-1" x="32.171" y="4.919"/>
  <use xlink:href="#glyph0-2" x="36.637545" y="4.919"/>
  <use xlink:href="#glyph0-3" x="39.568214" y="4.919"/>
  <use xlink:href="#glyph0-4" x="42.820167" y="4.919"/>
  <use xlink:href="#glyph0-5" x="44.995644" y="4.919"/>
  <use xlink:href="#glyph0-6" x="48.086955" y="4.919"/>
</g>
<g style="fill:rgb(0%,0%,0%);fill-opacity:1;">
  <use xlink:href="#glyph0-7" x="51.5938" y="4.919"/>
  <use xlink:href="#glyph0-2" x="55.827385" y="4.919"/>
  <use xlink:href="#glyph0-8" x="58.758055" y="4.919"/>
  <use xlink:href="#glyph0-9" x="61.286231" y="4.919"/>
  <use xlink:href="#glyph0-10" x="64.538184" y="4.919"/>
  <use xlink:href="#glyph0-11" x="67.83578" y="4.919"/>
  <use xlink:href="#glyph0-8" x="71.087733" y="4.919"/>
  <use xlink:href="#glyph0-2" x="73.61591" y="4.919"/>
  <use xlink:href="#glyph0-8" x="76.54658" y="4.919"/>
</g>
<g style="fill:rgb(0%,0%,0%);fill-opacity:1;">
  <use xlink:href="#glyph0-12" x="19.126" y="94.074"/>
  <use xlink:href="#glyph0-13" x="23.275411" y="94.074"/>
  <use xlink:href="#glyph0-10" x="26.527364" y="94.074"/>
  <use xlink:href="#glyph0-14" x="29.82496" y="94.074"/>
  <use xlink:href="#glyph0-10" x="32.206129" y="94.074"/>
  <use xlink:href="#glyph0-15" x="35.503725" y="94.074"/>
  <use xlink:href="#glyph0-13" x="38.434395" y="94.074"/>
  <use xlink:href="#glyph0-2" x="41.686348" y="94.074"/>
  <use xlink:href="#glyph0-16" x="44.617017" y="94.074"/>
  <use xlink:href="#glyph0-17" x="49.700639" y="94.074"/>
  <use xlink:href="#glyph0-15" x="51.120923" y="94.074"/>
  <use xlink:href="#glyph0-5" x="54.051592" y="94.074"/>
  <use xlink:href="#glyph0-6" x="57.142904" y="94.074"/>
</g>
<g style="fill:rgb(0%,0%,0%);fill-opacity:1;">
  <use xlink:href="#glyph0-18" x="60.649749" y="94.074"/>
  <use xlink:href="#glyph0-19" x="64.918307" y="94.074"/>
  <use xlink:href="#glyph0-8" x="68.17026" y="94.074"/>
  <use xlink:href="#glyph0-10" x="70.698437" y="94.074"/>
</g>
<g style="fill:rgb(0%,0%,0%);fill-opacity:1;">
  <use xlink:href="#glyph0-4" x="73.812273" y="94.074"/>
</g>
<g style="fill:rgb(0%,0%,0%);fill-opacity:1;">
  <use xlink:href="#glyph0-9" x="75.993678" y="94.074"/>
  <use xlink:href="#glyph0-14" x="79.24563" y="94.074"/>
  <use xlink:href="#glyph0-17" x="81.6268" y="94.074"/>
  <use xlink:href="#glyph0-10" x="83.047084" y="94.074"/>
  <use xlink:href="#glyph0-11" x="86.34468" y="94.074"/>
  <use xlink:href="#glyph0-8" x="89.596633" y="94.074"/>
</g>
<g style="fill:rgb(0%,0%,0%);fill-opacity:1;">
  <use xlink:href="#glyph0-19" x="21.683" y="31.564"/>
</g>
<g style="fill:rgb(0%,0%,0%);fill-opacity:1;">
  <use xlink:href="#glyph0-20" x="33.772" y="31.564"/>
</g>
<g style="fill:rgb(0%,0%,0%);fill-opacity:1;">
  <use xlink:href="#glyph0-21" x="50.029" y="31.564"/>
</g>
<g style="fill:rgb(0%,0%,0%);fill-opacity:1;">
  <use xlink:href="#glyph0-4" x="62.757" y="31.564"/>
</g>
<g style="fill:rgb(0%,0%,0%);fill-opacity:1;">
  <use xlink:href="#glyph0-22" x="82.929" y="31.564"/>
</g>
<g style="fill:rgb(0%,0%,0%);fill-opacity:1;">
  <use xlink:href="#glyph0-19" x="93.849" y="31.564"/>
  <use xlink:href="#glyph0-23" x="97.100953" y="31.564"/>
</g>
<g style="fill:rgb(0%,0%,0%);fill-opacity:1;">
  <use xlink:href="#glyph1-1" x="20.86" y="17.391"/>
</g>
<g style="fill:rgb(0%,0%,0%);fill-opacity:1;">
  <use xlink:href="#glyph0-24" x="32.765" y="17.391"/>
</g>
<g style="fill:rgb(0%,0%,0%);fill-opacity:1;">
  <use xlink:href="#glyph1-1" x="49.206" y="17.391"/>
</g>
<g style="fill:rgb(0%,0%,0%);fill-opacity:1;">
  <use xlink:href="#glyph0-24" x="61.395" y="17.391"/>
</g>
<g style="fill:rgb(0%,0%,0%);fill-opacity:1;">
  <use xlink:href="#glyph0-24" x="82.655" y="17.391"/>
</g>
<g style="fill:rgb(0%,0%,0%);fill-opacity:1;">
  <use xlink:href="#glyph1-1" x="94.56" y="17.391"/>
</g>
<g style="fill:rgb(0%,0%,0%);fill-opacity:1;">
  <use xlink:href="#glyph2-1" x="13.364" y="74.208"/>
</g>
<g style="fill:rgb(0%,0%,0%);fill-opacity:1;">
  <use xlink:href="#glyph2-2" x="41.622" y="74.373"/>
</g>
<g style="fill:rgb(0%,0%,0%);fill-opacity:1;">
  <use xlink:href="#glyph2-3" x="69.915" y="73.714"/>
</g>
<g style="fill:rgb(0%,0%,0%);fill-opacity:1;">
  <use xlink:href="#glyph3-1" x="1.018" y="119.631"/>
</g>
<g style="fill:rgb(0%,0%,0%);fill-opacity:1;">
  <use xlink:href="#glyph4-1" x="5.275" y="119.631"/>
</g>
<g style="fill:rgb(0%,0%,0%);fill-opacity:1;">
  <use xlink:href="#glyph3-2" x="12.844" y="119.631"/>
</g>
<g style="fill:rgb(0%,0%,0%);fill-opacity:1;">
  <use xlink:href="#glyph3-3" x="20.533312" y="119.631"/>
</g>
<g style="fill:rgb(0%,0%,0%);fill-opacity:1;">
  <use xlink:href="#glyph5-1" x="28.354" y="119.631"/>
</g>
<g style="fill:rgb(0%,0%,0%);fill-opacity:1;">
  <use xlink:href="#glyph6-1" x="31.965" y="120.503"/>
</g>
<g style="fill:rgb(0%,0%,0%);fill-opacity:1;">
  <use xlink:href="#glyph3-4" x="35.234" y="119.631"/>
</g>
<g style="fill:rgb(0%,0%,0%);fill-opacity:1;">
  <use xlink:href="#glyph5-2" x="38.251" y="119.631"/>
</g>
<g style="fill:rgb(0%,0%,0%);fill-opacity:1;">
  <use xlink:href="#glyph3-5" x="42.85" y="119.631"/>
</g>
<g style="fill:rgb(0%,0%,0%);fill-opacity:1;">
  <use xlink:href="#glyph5-3" x="48.613" y="119.631"/>
</g>
<g style="fill:rgb(0%,0%,0%);fill-opacity:1;">
  <use xlink:href="#glyph4-1" x="53.004" y="119.631"/>
</g>
<g style="fill:rgb(0%,0%,0%);fill-opacity:1;">
  <use xlink:href="#glyph3-6" x="58.767" y="119.631"/>
</g>
<g style="fill:rgb(0%,0%,0%);fill-opacity:1;">
  <use xlink:href="#glyph5-4" x="62.646" y="119.631"/>
</g>
<g style="fill:rgb(0%,0%,0%);fill-opacity:1;">
  <use xlink:href="#glyph3-7" x="67.704" y="119.631"/>
</g>
<g style="fill:rgb(0%,0%,0%);fill-opacity:1;">
  <use xlink:href="#glyph3-8" x="1.436" y="129.096"/>
</g>
<g style="fill:rgb(0%,0%,0%);fill-opacity:1;">
  <use xlink:href="#glyph4-1" x="5.275" y="129.096"/>
</g>
<g style="fill:rgb(0%,0%,0%);fill-opacity:1;">
  <use xlink:href="#glyph3-9" x="12.844" y="129.096"/>
</g>
<g style="fill:rgb(0%,0%,0%);fill-opacity:1;">
  <use xlink:href="#glyph3-3" x="20.533312" y="129.096"/>
</g>
<g style="fill:rgb(0%,0%,0%);fill-opacity:1;">
  <use xlink:href="#glyph5-1" x="28.354" y="129.096"/>
</g>
<g style="fill:rgb(0%,0%,0%);fill-opacity:1;">
  <use xlink:href="#glyph6-2" x="31.965" y="129.968"/>
</g>
<g style="fill:rgb(0%,0%,0%);fill-opacity:1;">
  <use xlink:href="#glyph3-4" x="35.234" y="129.096"/>
</g>
<g style="fill:rgb(0%,0%,0%);fill-opacity:1;">
  <use xlink:href="#glyph5-4" x="38.251" y="129.096"/>
</g>
<g style="fill:rgb(0%,0%,0%);fill-opacity:1;">
  <use xlink:href="#glyph3-5" x="43.309" y="129.096"/>
</g>
<g style="fill:rgb(0%,0%,0%);fill-opacity:1;">
  <use xlink:href="#glyph5-3" x="49.072" y="129.096"/>
</g>
<g style="fill:rgb(0%,0%,0%);fill-opacity:1;">
  <use xlink:href="#glyph4-1" x="53.462" y="129.096"/>
</g>
<g style="fill:rgb(0%,0%,0%);fill-opacity:1;">
  <use xlink:href="#glyph3-6" x="59.226" y="129.096"/>
</g>
<g style="fill:rgb(0%,0%,0%);fill-opacity:1;">
  <use xlink:href="#glyph5-2" x="63.105" y="129.096"/>
</g>
<g style="fill:rgb(0%,0%,0%);fill-opacity:1;">
  <use xlink:href="#glyph3-7" x="67.704" y="129.096"/>
</g>
<g style="fill:rgb(0%,0%,0%);fill-opacity:1;">
  <use xlink:href="#glyph3-10" x="0.156" y="138.56"/>
</g>
<g style="fill:rgb(0%,0%,0%);fill-opacity:1;">
  <use xlink:href="#glyph4-1" x="5.275" y="138.56"/>
</g>
<g style="fill:rgb(0%,0%,0%);fill-opacity:1;">
  <use xlink:href="#glyph3-2" x="11.038" y="138.56"/>
  <use xlink:href="#glyph3-11" x="14.863827" y="138.56"/>
</g>
<g style="fill:rgb(0%,0%,0%);fill-opacity:1;">
  <use xlink:href="#glyph3-3" x="20.531434" y="138.56"/>
</g>
<g style="fill:rgb(0%,0%,0%);fill-opacity:1;">
  <use xlink:href="#glyph5-1" x="28.354" y="138.56"/>
</g>
<g style="fill:rgb(0%,0%,0%);fill-opacity:1;">
  <use xlink:href="#glyph6-3" x="31.965" y="139.432"/>
</g>
<g style="fill:rgb(0%,0%,0%);fill-opacity:1;">
  <use xlink:href="#glyph3-4" x="35.234" y="138.56"/>
</g>
<g style="fill:rgb(0%,0%,0%);fill-opacity:1;">
  <use xlink:href="#glyph5-4" x="38.251" y="138.56"/>
</g>
<g style="fill:rgb(0%,0%,0%);fill-opacity:1;">
  <use xlink:href="#glyph3-5" x="43.309" y="138.56"/>
</g>
<g style="fill:rgb(0%,0%,0%);fill-opacity:1;">
  <use xlink:href="#glyph5-3" x="49.072" y="138.56"/>
</g>
<g style="fill:rgb(0%,0%,0%);fill-opacity:1;">
  <use xlink:href="#glyph3-5" x="53.462" y="138.56"/>
</g>
<g style="fill:rgb(0%,0%,0%);fill-opacity:1;">
  <use xlink:href="#glyph5-2" x="59.226" y="138.56"/>
</g>
<g style="fill:rgb(0%,0%,0%);fill-opacity:1;">
  <use xlink:href="#glyph3-7" x="63.824" y="138.56"/>
</g>
<g style="fill:rgb(0%,0%,0%);fill-opacity:1;">
  <use xlink:href="#glyph4-1" x="66.841" y="138.56"/>
</g>
<g style="fill:rgb(0%,0%,0%);fill-opacity:1;">
  <use xlink:href="#glyph5-1" x="72.605" y="138.56"/>
</g>
<g style="fill:rgb(0%,0%,0%);fill-opacity:1;">
  <use xlink:href="#glyph6-4" x="76.215" y="139.432"/>
</g>
<g style="fill:rgb(0%,0%,0%);fill-opacity:1;">
  <use xlink:href="#glyph3-4" x="79.484" y="138.56"/>
</g>
<g style="fill:rgb(0%,0%,0%);fill-opacity:1;">
  <use xlink:href="#glyph5-4" x="82.501" y="138.56"/>
</g>
<g style="fill:rgb(0%,0%,0%);fill-opacity:1;">
  <use xlink:href="#glyph3-5" x="87.559" y="138.56"/>
</g>
<g style="fill:rgb(0%,0%,0%);fill-opacity:1;">
  <use xlink:href="#glyph5-2" x="93.322" y="138.56"/>
</g>
<g style="fill:rgb(0%,0%,0%);fill-opacity:1;">
  <use xlink:href="#glyph3-5" x="97.921" y="138.56"/>
</g>
<g style="fill:rgb(0%,0%,0%);fill-opacity:1;">
  <use xlink:href="#glyph5-3" x="103.684" y="138.56"/>
</g>
<g style="fill:rgb(0%,0%,0%);fill-opacity:1;">
  <use xlink:href="#glyph3-7" x="108.075" y="138.56"/>
</g>
</g>
</g>
</svg>
