<?xml version="1.0" encoding="UTF-8"?>
<svg xmlns="http://www.w3.org/2000/svg" xmlns:xlink="http://www.w3.org/1999/xlink" width="226pt" height="162pt" viewBox="0 0 163 117" version="1.1">
<defs>
<g>
<symbol overflow="visible" id="glyph0-0">
<path style="stroke:none;" d=""/>
</symbol>
<symbol overflow="visible" id="glyph0-1">
<path style="stroke:none;" d="M 2.578125 1.546875 C 2.546875 1.5 2.5 1.46875 2.453125 1.4375 C 1.6875 0.75 1.21875 -0.3125 1.171875 -1.59375 C 1.140625 -2.46875 1.296875 -3.375 1.703125 -4.15625 C 1.90625 -4.53125 2.140625 -4.84375 2.453125 -5.109375 C 2.5 -5.15625 2.546875 -5.1875 2.578125 -5.21875 L 2.328125 -5.21875 C 2.171875 -5.21875 2.1875 -5.21875 2.078125 -5.140625 C 1.71875 -4.859375 1.421875 -4.484375 1.1875 -4.0625 C 0.53125 -2.828125 0.484375 -1.15625 1.09375 0.1875 C 1.3125 0.6875 1.65625 1.109375 2.078125 1.46875 C 2.171875 1.53125 2.171875 1.546875 2.328125 1.546875 L 2.578125 1.546875 Z M 2.578125 1.546875 "/>
</symbol>
<symbol overflow="visible" id="glyph0-2">
<path style="stroke:none;" d="M 0.4375 -5.21875 C 0.46875 -5.1875 0.515625 -5.15625 0.5625 -5.109375 C 1.421875 -4.34375 1.890625 -3.109375 1.828125 -1.59375 C 1.8125 -0.84375 1.625 -0.09375 1.265625 0.5625 C 1.078125 0.890625 0.84375 1.1875 0.5625 1.4375 C 0.515625 1.46875 0.46875 1.5 0.4375 1.546875 L 0.6875 1.546875 C 0.84375 1.546875 0.828125 1.546875 0.921875 1.46875 C 1.296875 1.171875 1.59375 0.796875 1.8125 0.390625 C 2.484375 -0.859375 2.53125 -2.515625 1.921875 -3.859375 C 1.6875 -4.375 1.359375 -4.796875 0.9375 -5.140625 C 0.84375 -5.21875 0.84375 -5.21875 0.6875 -5.21875 L 0.4375 -5.21875 Z M 0.4375 -5.21875 "/>
</symbol>
<symbol overflow="visible" id="glyph0-3">
<path style="stroke:none;" d="M 2.71875 -2 L 0.6875 -2 C 0.640625 -2 0.578125 -2 0.53125 -2 C 0.453125 -1.96875 0.40625 -1.90625 0.40625 -1.84375 C 0.40625 -1.765625 0.453125 -1.703125 0.53125 -1.6875 C 0.578125 -1.671875 0.640625 -1.671875 0.6875 -1.671875 L 2.71875 -1.671875 L 2.71875 0.359375 C 2.71875 0.40625 2.703125 0.453125 2.71875 0.515625 C 2.75 0.578125 2.8125 0.625 2.875 0.625 C 2.953125 0.625 3.015625 0.578125 3.03125 0.515625 C 3.046875 0.453125 3.03125 0.40625 3.03125 0.359375 L 3.03125 -1.671875 L 5.078125 -1.671875 C 5.125 -1.671875 5.171875 -1.671875 5.21875 -1.6875 C 5.296875 -1.703125 5.34375 -1.765625 5.34375 -1.84375 C 5.34375 -1.90625 5.296875 -1.96875 5.21875 -2 C 5.171875 -2 5.125 -2 5.078125 -2 L 3.03125 -2 L 3.03125 -4.03125 C 3.03125 -4.078125 3.046875 -4.140625 3.03125 -4.1875 C 3.015625 -4.265625 2.953125 -4.3125 2.875 -4.3125 C 2.8125 -4.3125 2.75 -4.265625 2.71875 -4.1875 C 2.703125 -4.140625 2.71875 -4.078125 2.71875 -4.03125 L 2.71875 -2 Z M 2.71875 -2 "/>
</symbol>
<symbol overflow="visible" id="glyph0-4">
<path style="stroke:none;" d="M 0.328125 0 L 4.84375 0 C 4.828125 -0.0625 4.796875 -0.109375 4.78125 -0.15625 L 2.984375 -4.609375 L 2.90625 -4.8125 C 2.890625 -4.84375 2.890625 -4.875 2.859375 -4.890625 C 2.828125 -4.921875 2.75 -4.90625 2.71875 -4.90625 L 2.453125 -4.90625 C 2.421875 -4.90625 2.375 -4.90625 2.328125 -4.90625 C 2.296875 -4.90625 2.28125 -4.859375 2.265625 -4.828125 C 1.859375 -3.8125 0.34375 -0.09375 0.328125 0 Z M 2.5625 -4.328125 L 2.6875 -3.96875 L 3.6875 -1.453125 C 3.8125 -1.140625 3.9375 -0.828125 4.0625 -0.5 L 1.03125 -0.5 C 1.46875 -1.640625 1.9375 -2.75 2.390625 -3.890625 C 2.453125 -4.03125 2.5 -4.1875 2.5625 -4.328125 Z M 2.5625 -4.328125 "/>
</symbol>
<symbol overflow="visible" id="glyph0-5">
<path style="stroke:none;" d="M 0.78125 -4.21875 L 0.78125 -3.828125 C 1.125 -3.828125 1.46875 -3.890625 1.78125 -4.03125 L 1.78125 -0.390625 L 0.8125 -0.390625 L 0.8125 0 L 3.25 0 L 3.25 -0.390625 L 2.28125 -0.390625 L 2.28125 -4.6875 C 2.25 -4.6875 2.1875 -4.6875 2.15625 -4.671875 C 2.109375 -4.65625 2.0625 -4.59375 2.015625 -4.5625 C 1.734375 -4.328125 1.21875 -4.21875 0.78125 -4.21875 Z M 0.78125 -4.21875 "/>
</symbol>
<symbol overflow="visible" id="glyph0-6">
<path style="stroke:none;" d="M 0.625 -3.203125 C 0.734375 -3.609375 0.90625 -4.046875 1.34375 -4.203125 C 1.5 -4.265625 1.671875 -4.28125 1.859375 -4.265625 C 2.21875 -4.234375 2.578125 -4.09375 2.796875 -3.78125 C 2.9375 -3.578125 2.984375 -3.328125 2.953125 -3.078125 C 2.875 -2.40625 2.28125 -1.984375 1.796875 -1.609375 C 1.40625 -1.3125 0.59375 -0.59375 0.59375 -0.59375 L 0.453125 -0.484375 C 0.390625 -0.40625 0.390625 -0.421875 0.390625 -0.265625 L 0.390625 0 L 3.484375 0 L 3.484375 -0.4375 L 0.84375 -0.4375 C 1.109375 -0.671875 1.90625 -1.34375 2.140625 -1.515625 C 2.578125 -1.84375 3.0625 -2.15625 3.34375 -2.640625 C 3.640625 -3.203125 3.453125 -3.921875 2.96875 -4.3125 C 2.4375 -4.765625 1.46875 -4.828125 0.875 -4.390625 C 0.65625 -4.234375 0.5 -3.984375 0.390625 -3.734375 C 0.375 -3.671875 0.328125 -3.609375 0.328125 -3.546875 C 0.34375 -3.515625 0.390625 -3.484375 0.40625 -3.4375 C 0.46875 -3.359375 0.546875 -3.265625 0.625 -3.203125 Z M 0.625 -3.203125 "/>
</symbol>
<symbol overflow="visible" id="glyph0-7">
<path style="stroke:none;" d="M 0.6875 -3.546875 L 0.6875 -3.546875 C 0.96875 -4.03125 1.515625 -4.34375 2.078125 -4.28125 C 2.484375 -4.265625 2.875 -4.03125 2.8125 -3.546875 C 2.765625 -3.15625 2.453125 -2.859375 2.078125 -2.75 C 1.875 -2.6875 1.515625 -2.671875 1.296875 -2.65625 L 1.296875 -2.265625 L 1.75 -2.265625 C 1.84375 -2.265625 1.9375 -2.28125 2.046875 -2.265625 C 2.296875 -2.25 2.546875 -2.15625 2.734375 -1.984375 C 3.046875 -1.6875 3.09375 -1.15625 2.90625 -0.78125 C 2.8125 -0.640625 2.703125 -0.515625 2.546875 -0.4375 C 2.1875 -0.21875 1.734375 -0.265625 1.34375 -0.390625 C 1.078125 -0.46875 0.828125 -0.609375 0.625 -0.796875 C 0.53125 -0.875 0.46875 -0.953125 0.390625 -1.03125 C 0.375 -0.953125 0.359375 -0.859375 0.34375 -0.78125 C 0.328125 -0.671875 0.3125 -0.640625 0.390625 -0.5625 L 0.515625 -0.4375 C 0.71875 -0.265625 0.953125 -0.125 1.203125 -0.015625 C 1.75 0.1875 2.390625 0.171875 2.890625 -0.140625 C 3.375 -0.46875 3.734375 -1.09375 3.453125 -1.6875 C 3.265625 -2.09375 2.921875 -2.328125 2.46875 -2.46875 C 2.734375 -2.59375 2.921875 -2.703125 3.09375 -2.953125 C 3.234375 -3.15625 3.390625 -3.46875 3.3125 -3.796875 C 3.25 -4.140625 2.96875 -4.40625 2.65625 -4.546875 C 2.203125 -4.75 1.65625 -4.71875 1.203125 -4.515625 C 0.96875 -4.421875 0.765625 -4.265625 0.59375 -4.078125 C 0.5625 -4.0625 0.453125 -3.921875 0.453125 -3.875 C 0.453125 -3.84375 0.625 -3.609375 0.6875 -3.546875 Z M 0.6875 -3.546875 "/>
</symbol>
<symbol overflow="visible" id="glyph0-8">
<path style="stroke:none;" d="M 0.21875 -1.21875 L 2.34375 -1.21875 L 2.34375 0 L 2.8125 0 L 2.8125 -1.21875 L 3.65625 -1.21875 L 3.65625 -1.640625 L 2.8125 -1.640625 L 2.8125 -4.640625 L 2.421875 -4.640625 C 2.375 -4.640625 2.296875 -4.65625 2.265625 -4.625 C 2.203125 -4.578125 2.109375 -4.40625 2.078125 -4.390625 L 1.671875 -3.78125 C 1.515625 -3.546875 0.375 -1.875 0.296875 -1.75 C 0.21875 -1.671875 0.21875 -1.640625 0.21875 -1.5 L 0.21875 -1.21875 Z M 2.359375 -4.1875 L 2.359375 -1.640625 L 0.71875 -1.640625 L 1.765625 -3.1875 C 1.953125 -3.515625 2.1875 -3.828125 2.359375 -4.1875 Z M 2.359375 -4.1875 "/>
</symbol>
<symbol overflow="visible" id="glyph0-9">
<path style="stroke:none;" d="M 0.65625 -4.578125 L 0.65625 -2.03125 L 0.953125 -2.03125 C 1 -2.03125 1.046875 -2.015625 1.09375 -2.046875 C 1.125 -2.0625 1.15625 -2.109375 1.171875 -2.140625 C 1.21875 -2.203125 1.265625 -2.265625 1.328125 -2.3125 C 1.625 -2.546875 2.09375 -2.625 2.453125 -2.453125 C 2.84375 -2.28125 2.953125 -1.828125 2.953125 -1.4375 C 2.953125 -1.1875 2.90625 -0.9375 2.78125 -0.734375 C 2.5 -0.3125 1.921875 -0.21875 1.453125 -0.328125 C 1.0625 -0.421875 0.78125 -0.640625 0.578125 -0.921875 L 0.5625 -0.921875 C 0.546875 -0.890625 0.34375 -0.609375 0.34375 -0.578125 C 0.34375 -0.546875 0.375 -0.53125 0.390625 -0.515625 C 0.625 -0.28125 0.84375 -0.109375 1.1875 0 C 1.828125 0.21875 2.578125 0.109375 3.0625 -0.390625 C 3.28125 -0.625 3.421875 -0.90625 3.46875 -1.21875 C 3.59375 -2.09375 2.953125 -3.015625 1.875 -2.921875 C 1.5625 -2.890625 1.359375 -2.765625 1.140625 -2.59375 L 1.140625 -4.15625 L 3.21875 -4.15625 L 3.21875 -4.578125 L 0.65625 -4.578125 Z M 0.65625 -4.578125 "/>
</symbol>
<symbol overflow="visible" id="glyph0-10">
<path style="stroke:none;" d="M 0.90625 -2.328125 L 0.90625 -2.328125 C 0.90625 -2.921875 1.03125 -3.609375 1.53125 -4 C 1.859375 -4.265625 2.328125 -4.390625 2.90625 -4.234375 C 3.015625 -4.21875 3.109375 -4.171875 3.21875 -4.140625 L 3.21875 -4.421875 C 3.21875 -4.453125 3.21875 -4.515625 3.203125 -4.53125 C 3.15625 -4.59375 2.734375 -4.65625 2.734375 -4.65625 C 2.109375 -4.75 1.640625 -4.578125 1.28125 -4.28125 C 0.828125 -3.9375 0.546875 -3.40625 0.4375 -2.84375 C 0.390625 -2.578125 0.375 -2.296875 0.390625 -2.015625 C 0.421875 -1.375 0.515625 -0.859375 0.84375 -0.4375 C 1.234375 0.09375 1.984375 0.265625 2.578125 -0.015625 C 2.84375 -0.140625 3.0625 -0.375 3.21875 -0.609375 C 3.453125 -0.9375 3.5 -1.328125 3.484375 -1.71875 C 3.46875 -1.921875 3.421875 -2.125 3.359375 -2.3125 C 3.21875 -2.609375 2.96875 -2.953125 2.6875 -3.09375 C 2.546875 -3.140625 2.40625 -3.15625 2.25 -3.15625 C 1.875 -3.15625 1.515625 -3 1.21875 -2.75 C 1.125 -2.65625 0.953125 -2.453125 0.90625 -2.328125 Z M 1.984375 -2.765625 C 2.21875 -2.765625 2.453125 -2.734375 2.640625 -2.5625 C 2.703125 -2.515625 2.734375 -2.453125 2.78125 -2.40625 C 2.96875 -2.15625 2.96875 -1.84375 2.96875 -1.546875 C 2.96875 -1.078125 2.921875 -0.796875 2.65625 -0.53125 C 2.453125 -0.328125 2.1875 -0.28125 1.90625 -0.28125 C 1.609375 -0.296875 1.328125 -0.4375 1.15625 -0.671875 C 1.0625 -0.828125 1.015625 -1 0.96875 -1.171875 C 0.921875 -1.40625 0.890625 -1.65625 0.9375 -1.875 C 1.03125 -2.375 1.46875 -2.78125 1.984375 -2.765625 Z M 1.984375 -2.765625 "/>
</symbol>
<symbol overflow="visible" id="glyph1-0">
<path style="stroke:none;" d=""/>
</symbol>
<symbol overflow="visible" id="glyph1-1">
<path style="stroke:none;" d="M 0.75 -3.296875 C 0.828125 -3.140625 0.921875 -3.015625 1.015625 -2.875 C 1.078125 -2.796875 1.6875 -1.875 1.71875 -1.84375 C 1.734375 -1.8125 1.796875 -1.75 1.796875 -1.703125 C 1.796875 -1.65625 1.71875 -1.609375 1.6875 -1.578125 C 1.375 -1.296875 0.046875 -0.046875 0 0 C 0.1875 0 0.375 0 0.53125 0 L 0.6875 -0.140625 L 1.984375 -1.4375 C 2.265625 -0.953125 2.53125 -0.46875 2.84375 -0.015625 C 3.015625 0 3.203125 0 3.390625 0 C 3.296875 -0.140625 2.359375 -1.53125 2.328125 -1.5625 C 2.3125 -1.609375 2.265625 -1.65625 2.265625 -1.6875 C 2.28125 -1.734375 2.34375 -1.78125 2.375 -1.8125 C 2.484375 -1.921875 2.59375 -2.015625 2.703125 -2.125 C 2.8125 -2.21875 3.921875 -3.25 3.953125 -3.296875 C 3.765625 -3.296875 3.59375 -3.296875 3.421875 -3.28125 C 2.96875 -2.875 2.546875 -2.4375 2.09375 -2.03125 C 1.828125 -2.453125 1.578125 -2.890625 1.28125 -3.28125 C 1.109375 -3.296875 0.921875 -3.296875 0.75 -3.296875 Z M 0.75 -3.296875 "/>
</symbol>
<symbol overflow="visible" id="glyph1-2">
<path style="stroke:none;" d="M 0.78125 -0.578125 L 0.78125 0 L 0.96875 0 L 0.78125 0.78125 L 1.078125 0.78125 C 1.171875 0.515625 1.265625 0.265625 1.359375 0 C 1.359375 -0.1875 1.359375 -0.390625 1.359375 -0.578125 L 0.78125 -0.578125 Z M 0.78125 -0.578125 "/>
</symbol>
<symbol overflow="visible" id="glyph1-3">
<path style="stroke:none;" d="M 0.8125 -3.296875 C 0.828125 -3.1875 0.84375 -3.09375 0.875 -3 C 1.015625 -2.3125 1.515625 -0.078125 1.515625 0 C 1.5 0.03125 1.328125 0.296875 1.328125 0.296875 C 1.15625 0.578125 0.9375 0.875 0.515625 0.828125 C 0.421875 0.828125 0.328125 0.8125 0.234375 0.796875 C 0.171875 0.78125 0.09375 0.75 0.03125 0.734375 L -0.015625 1.171875 C 0.203125 1.203125 0.578125 1.25 0.796875 1.1875 C 1.234375 1.0625 1.546875 0.59375 1.75 0.265625 L 2.09375 -0.28125 C 2.28125 -0.59375 3.875 -3.125 3.984375 -3.296875 C 3.8125 -3.296875 3.640625 -3.296875 3.5 -3.28125 C 3.328125 -3.03125 3.1875 -2.78125 3.03125 -2.53125 C 2.625 -1.859375 2.1875 -1.234375 1.828125 -0.515625 L 1.828125 -0.515625 C 1.734375 -1.515625 1.484375 -2.359375 1.296875 -3.296875 L 0.8125 -3.296875 Z M 0.8125 -3.296875 "/>
</symbol>
<symbol overflow="visible" id="glyph1-4">
<path style="stroke:none;" d="M 1.015625 -3.296875 L 0.9375 -2.90625 L 3.0625 -2.90625 L 1.046875 -1 C 0.796875 -0.75 0.515625 -0.515625 0.28125 -0.265625 C 0.265625 -0.171875 0.234375 -0.09375 0.21875 0 C 1.171875 0 2.1875 0.015625 3.09375 0 C 3.15625 -0.125 3.171875 -0.265625 3.203125 -0.390625 L 0.953125 -0.390625 L 3.734375 -3.03125 C 3.765625 -3.109375 3.78125 -3.203125 3.796875 -3.296875 L 1.015625 -3.296875 Z M 1.015625 -3.296875 "/>
</symbol>
<symbol overflow="visible" id="glyph1-5">
<path style="stroke:none;" d="M 4.15625 -0.796875 C 4.046875 -0.75 3.9375 -0.671875 3.828125 -0.625 C 3.546875 -0.5 3.28125 -0.40625 2.984375 -0.375 C 2.71875 -0.34375 2.453125 -0.328125 2.1875 -0.390625 C 1.921875 -0.46875 1.6875 -0.59375 1.515625 -0.78125 C 1.09375 -1.1875 1 -1.8125 1.109375 -2.375 C 1.28125 -3.28125 1.953125 -4.0625 2.8125 -4.375 C 3.265625 -4.53125 3.84375 -4.5 4.265625 -4.359375 C 4.515625 -4.25 4.453125 -4.265625 4.734375 -4.109375 L 4.9375 -4.640625 C 4.71875 -4.71875 4.515625 -4.78125 4.296875 -4.828125 C 3.953125 -4.90625 3.453125 -4.90625 3.109375 -4.859375 C 2.328125 -4.71875 1.734375 -4.296875 1.28125 -3.796875 C 0.65625 -3.078125 0.296875 -2 0.6875 -1.09375 C 0.75 -0.90625 0.859375 -0.734375 0.984375 -0.59375 C 1.375 -0.125 1.9375 0.09375 2.75 0.046875 C 3.234375 0.03125 3.5 -0.0625 3.890625 -0.234375 C 3.9375 -0.25 3.984375 -0.28125 4.03125 -0.296875 C 4.0625 -0.3125 4.078125 -0.328125 4.09375 -0.34375 C 4.125 -0.390625 4.15625 -0.78125 4.15625 -0.796875 Z M 4.15625 -0.796875 "/>
</symbol>
<symbol overflow="visible" id="glyph2-0">
<path style="stroke:none;" d=""/>
</symbol>
<symbol overflow="visible" id="glyph2-1">
<path style="stroke:none;" d="M 1.765625 -2.578125 L 1.75 -2.578125 C 1.8125 -2.828125 1.859375 -3.078125 1.90625 -3.328125 L 1.171875 -3.328125 C 0.953125 -2.203125 0.703125 -1.109375 0.46875 0 L 1.1875 0 C 1.234375 0 1.265625 -0.015625 1.265625 -0.078125 C 1.28125 -0.125 1.546875 -1.359375 1.578125 -1.578125 C 1.640625 -1.859375 1.6875 -2.140625 1.828125 -2.390625 C 2 -2.671875 2.265625 -2.921875 2.609375 -2.90625 C 2.78125 -2.90625 2.96875 -2.84375 3 -2.65625 C 3.046875 -2.5 2.984375 -2.3125 2.953125 -2.140625 C 2.8125 -1.421875 2.640625 -0.703125 2.5 0 L 3.203125 0 C 3.25 0 3.296875 -0.015625 3.296875 -0.0625 C 3.296875 -0.109375 3.390625 -0.5625 3.421875 -0.734375 L 3.75 -2.234375 C 3.8125 -2.5 3.875 -2.828125 3.734375 -3.078125 C 3.609375 -3.28125 3.359375 -3.34375 3.140625 -3.359375 C 3.015625 -3.359375 2.875 -3.359375 2.75 -3.34375 C 2.4375 -3.265625 2.15625 -3.078125 1.953125 -2.84375 C 1.875 -2.75 1.8125 -2.671875 1.765625 -2.578125 Z M 1.75 -2.5625 C 1.75 -2.5625 1.75 -2.5625 1.75 -2.5625 C 1.75 -2.5625 1.75 -2.5625 1.75 -2.5625 Z M 1.75 -2.5625 "/>
</symbol>
<symbol overflow="visible" id="glyph2-2">
<path style="stroke:none;" d="M 3.9375 -0.921875 C 3.578125 -0.75 3.34375 -0.578125 2.84375 -0.546875 C 2.328125 -0.5 1.828125 -0.53125 1.484375 -0.875 C 1.15625 -1.21875 1.15625 -1.75 1.21875 -2.203125 C 1.34375 -2.90625 1.625 -3.65625 2.265625 -4.046875 C 2.703125 -4.3125 3.4375 -4.421875 4.03125 -4.171875 C 4.171875 -4.109375 4.296875 -4.03125 4.4375 -3.953125 L 4.703125 -4.65625 C 4.3125 -4.828125 3.9375 -4.90625 3.40625 -4.90625 C 2.625 -4.90625 1.828125 -4.671875 1.265625 -4.109375 C 0.828125 -3.671875 0.5625 -3.078125 0.421875 -2.484375 C 0.28125 -1.84375 0.25 -1.09375 0.65625 -0.5625 C 1.015625 -0.125 1.59375 0.03125 2.125 0.0625 C 2.265625 0.0625 2.421875 0.078125 2.5625 0.0625 C 3.078125 0.03125 3.234375 -0.03125 3.671875 -0.21875 C 3.734375 -0.25 3.8125 -0.265625 3.859375 -0.328125 C 3.890625 -0.375 3.875 -0.453125 3.890625 -0.5 C 3.90625 -0.640625 3.9375 -0.78125 3.9375 -0.921875 Z M 3.9375 -0.921875 "/>
</symbol>
<symbol overflow="visible" id="glyph3-0">
<path style="stroke:none;" d=""/>
</symbol>
<symbol overflow="visible" id="glyph3-1">
<path style="stroke:none;" d="M 1.03125 -2.78125 C 1.015625 -2.78125 0.984375 -2.765625 0.96875 -2.765625 C 0.84375 -2.71875 0.828125 -2.59375 0.78125 -2.484375 L 0.734375 -2.28125 L 0.28125 -0.75 C 0.265625 -0.703125 0.140625 -0.34375 0.15625 -0.296875 C 0.15625 -0.25 0.234375 -0.234375 0.28125 -0.21875 C 0.296875 -0.21875 0.328125 -0.203125 0.34375 -0.203125 C 0.40625 -0.21875 0.421875 -0.296875 0.4375 -0.34375 L 0.640625 -0.78125 L 1.09375 -1.859375 C 1.140625 -1.953125 1.328125 -2.328125 1.34375 -2.421875 C 1.4375 -2.65625 1.203125 -2.8125 1.03125 -2.78125 Z M 1.03125 -2.78125 "/>
</symbol>
<symbol overflow="visible" id="glyph4-0">
<path style="stroke:none;" d=""/>
</symbol>
<symbol overflow="visible" id="glyph4-1">
<path style="stroke:none;" d="M 0.53125 -2.359375 C 0.59375 -2.25 0.65625 -2.15625 0.734375 -2.0625 C 0.765625 -2 1.203125 -1.34375 1.21875 -1.3125 C 1.25 -1.296875 1.28125 -1.25 1.28125 -1.21875 C 1.28125 -1.1875 1.234375 -1.15625 1.203125 -1.125 C 0.984375 -0.921875 0.03125 -0.03125 0 0 C 0.140625 0 0.265625 0 0.390625 0 L 0.484375 -0.09375 L 1.421875 -1.03125 C 1.609375 -0.6875 1.8125 -0.34375 2.03125 -0.015625 C 2.15625 0 2.296875 0 2.421875 0 C 2.359375 -0.09375 1.6875 -1.09375 1.671875 -1.125 C 1.65625 -1.140625 1.625 -1.1875 1.625 -1.21875 C 1.625 -1.25 1.6875 -1.28125 1.703125 -1.296875 C 1.78125 -1.375 1.859375 -1.4375 1.9375 -1.515625 C 2.015625 -1.578125 2.796875 -2.328125 2.828125 -2.359375 C 2.703125 -2.359375 2.5625 -2.359375 2.4375 -2.34375 C 2.125 -2.0625 1.8125 -1.75 1.5 -1.453125 C 1.3125 -1.75 1.125 -2.0625 0.921875 -2.34375 C 0.796875 -2.359375 0.65625 -2.359375 0.53125 -2.359375 Z M 0.53125 -2.359375 "/>
</symbol>
</g>
<clipPath id="clip1">
  <path d="M -224 668 L 388 668 L 388 -124 L -224 -124 L -224 668 Z M -224 668 "/>
</clipPath>
<clipPath id="clip2">
  <path d="M 5.277344 114.773438 L 142.277344 114.773438 L 142.277344 2.773438 L 5.277344 2.773438 L 5.277344 114.773438 Z M 5.277344 114.773438 "/>
</clipPath>
<clipPath id="clip3">
  <path d="M -224 668 L 388 668 L 388 -124 L -224 -124 L -224 668 Z M -224 668 "/>
</clipPath>
</defs>
<g id="surface0">
<g clip-path="url(#clip1)" clip-rule="nonzero">
<g clip-path="url(#clip2)" clip-rule="nonzero">
<path style="fill:none;stroke-width:5;stroke-linecap:butt;stroke-linejoin:round;stroke:rgb(0%,0%,0%);stroke-opacity:1;stroke-miterlimit:10;" d="M 163.870625 73.84375 L 872.503438 73.84375 L 872.503438 782.515625 L 163.870625 782.515625 L 163.870625 73.84375 Z M 163.870625 73.84375 " transform="matrix(0.1,0,0,-0.1,5.277,114.775)"/>
<path style="fill:none;stroke-width:5;stroke-linecap:round;stroke-linejoin:round;stroke:rgb(0%,0%,0%);stroke-opacity:1;stroke-miterlimit:10;" d="M 1123.089375 324.390625 L 1123.089375 1033.0625 L 414.4175 1033.0625 " transform="matrix(0.1,0,0,-0.1,5.277,114.775)"/>
<path style="fill:none;stroke-width:5;stroke-linecap:round;stroke-linejoin:round;stroke:rgb(0%,0%,0%);stroke-opacity:1;stroke-dasharray:30,30;stroke-miterlimit:10;" d="M 414.4175 1033.0625 L 414.4175 324.390625 L 1123.089375 324.390625 " transform="matrix(0.1,0,0,-0.1,5.277,114.775)"/>
<path style="fill:none;stroke-width:5;stroke-linecap:round;stroke-linejoin:round;stroke:rgb(0%,0%,0%);stroke-opacity:1;stroke-miterlimit:10;" d="M 163.870625 782.515625 L 414.4175 1033.0625 " transform="matrix(0.1,0,0,-0.1,5.277,114.775)"/>
<path style="fill:none;stroke-width:5;stroke-linecap:round;stroke-linejoin:round;stroke:rgb(0%,0%,0%);stroke-opacity:1;stroke-miterlimit:10;" d="M 872.503438 782.515625 L 1123.089375 1033.0625 " transform="matrix(0.1,0,0,-0.1,5.277,114.775)"/>
<path style="fill:none;stroke-width:5;stroke-linecap:round;stroke-linejoin:round;stroke:rgb(0%,0%,0%);stroke-opacity:1;stroke-miterlimit:10;" d="M 872.503438 73.84375 L 1123.089375 324.390625 " transform="matrix(0.1,0,0,-0.1,5.277,114.775)"/>
<path style="fill:none;stroke-width:5;stroke-linecap:round;stroke-linejoin:round;stroke:rgb(0%,0%,0%);stroke-opacity:1;stroke-dasharray:30,30;stroke-miterlimit:10;" d="M 163.870625 73.84375 L 414.4175 324.390625 " transform="matrix(0.1,0,0,-0.1,5.277,114.775)"/>
<path style=" stroke:none;fill-rule:nonzero;fill:rgb(0%,0%,0%);fill-opacity:1;" d="M 22.726563 107.390625 C 22.726563 107.105469 22.613281 106.835938 22.414063 106.636719 C 22.214844 106.4375 21.945313 106.324219 21.664063 106.324219 C 21.378906 106.324219 21.109375 106.4375 20.910156 106.636719 C 20.710938 106.835938 20.597656 107.105469 20.597656 107.390625 C 20.597656 107.671875 20.710938 107.941406 20.910156 108.140625 C 21.109375 108.339844 21.378906 108.453125 21.664063 108.453125 C 21.945313 108.453125 22.214844 108.339844 22.414063 108.140625 C 22.613281 107.941406 22.726563 107.671875 22.726563 107.390625 "/>
<path style=" stroke:none;fill-rule:nonzero;fill:rgb(0%,0%,0%);fill-opacity:1;" d="M 93.589844 107.390625 C 93.589844 107.105469 93.480469 106.835938 93.28125 106.636719 C 93.082031 106.4375 92.808594 106.324219 92.527344 106.324219 C 92.246094 106.324219 91.976563 106.4375 91.777344 106.636719 C 91.578125 106.835938 91.464844 107.105469 91.464844 107.390625 C 91.464844 107.671875 91.578125 107.941406 91.777344 108.140625 C 91.976563 108.339844 92.246094 108.453125 92.527344 108.453125 C 92.808594 108.453125 93.082031 108.339844 93.28125 108.140625 C 93.480469 107.941406 93.589844 107.671875 93.589844 107.390625 "/>
<path style=" stroke:none;fill-rule:nonzero;fill:rgb(0%,0%,0%);fill-opacity:1;" d="M 93.589844 36.523438 C 93.589844 36.242188 93.480469 35.972656 93.28125 35.769531 C 93.082031 35.570313 92.808594 35.460938 92.527344 35.460938 C 92.246094 35.460938 91.976563 35.570313 91.777344 35.769531 C 91.578125 35.96875 91.464844 36.242188 91.464844 36.523438 C 91.464844 36.804688 91.578125 37.074219 91.777344 37.273438 C 91.976563 37.472656 92.246094 37.585938 92.527344 37.585938 C 92.808594 37.585938 93.082031 37.472656 93.28125 37.273438 C 93.480469 37.078125 93.589844 36.804688 93.589844 36.523438 "/>
<path style=" stroke:none;fill-rule:nonzero;fill:rgb(0%,0%,0%);fill-opacity:1;" d="M 22.726563 36.523438 C 22.726563 36.242188 22.613281 35.972656 22.414063 35.769531 C 22.214844 35.570313 21.945313 35.460938 21.664063 35.460938 C 21.378906 35.460938 21.109375 35.570313 20.910156 35.769531 C 20.710938 35.96875 20.597656 36.242188 20.597656 36.523438 C 20.597656 36.804688 20.710938 37.074219 20.910156 37.273438 C 21.109375 37.472656 21.378906 37.585938 21.664063 37.585938 C 21.945313 37.585938 22.214844 37.472656 22.414063 37.273438 C 22.613281 37.078125 22.726563 36.804688 22.726563 36.523438 "/>
<path style=" stroke:none;fill-rule:nonzero;fill:rgb(0%,0%,0%);fill-opacity:1;" d="M 47.78125 82.335938 C 47.78125 82.050781 47.667969 81.78125 47.46875 81.582031 C 47.269531 81.382813 47 81.269531 46.71875 81.269531 C 46.4375 81.269531 46.167969 81.382813 45.964844 81.582031 C 45.765625 81.78125 45.65625 82.050781 45.65625 82.335938 C 45.65625 82.617188 45.765625 82.886719 45.964844 83.085938 C 46.164063 83.285156 46.4375 83.398438 46.71875 83.398438 C 47 83.398438 47.269531 83.285156 47.46875 83.085938 C 47.667969 82.886719 47.78125 82.617188 47.78125 82.335938 "/>
<path style=" stroke:none;fill-rule:nonzero;fill:rgb(0%,0%,0%);fill-opacity:1;" d="M 118.648438 82.335938 C 118.648438 82.050781 118.535156 81.78125 118.335938 81.582031 C 118.136719 81.382813 117.867188 81.269531 117.585938 81.269531 C 117.300781 81.269531 117.03125 81.382813 116.832031 81.582031 C 116.632813 81.78125 116.519531 82.050781 116.519531 82.335938 C 116.519531 82.617188 116.632813 82.886719 116.832031 83.085938 C 117.03125 83.285156 117.300781 83.398438 117.585938 83.398438 C 117.867188 83.398438 118.136719 83.285156 118.335938 83.085938 C 118.535156 82.886719 118.648438 82.617188 118.648438 82.335938 "/>
<path style=" stroke:none;fill-rule:nonzero;fill:rgb(0%,0%,0%);fill-opacity:1;" d="M 118.648438 11.46875 C 118.648438 11.1875 118.535156 10.914063 118.335938 10.714844 C 118.136719 10.515625 117.867188 10.40625 117.585938 10.40625 C 117.300781 10.40625 117.03125 10.515625 116.832031 10.714844 C 116.632813 10.914063 116.519531 11.1875 116.519531 11.46875 C 116.519531 11.75 116.632813 12.019531 116.832031 12.21875 C 117.03125 12.421875 117.300781 12.53125 117.585938 12.53125 C 117.867188 12.53125 118.136719 12.417969 118.335938 12.21875 C 118.535156 12.019531 118.648438 11.75 118.648438 11.46875 "/>
<path style=" stroke:none;fill-rule:nonzero;fill:rgb(0%,0%,0%);fill-opacity:1;" d="M 47.78125 11.46875 C 47.78125 11.1875 47.667969 10.914063 47.46875 10.714844 C 47.269531 10.515625 47 10.40625 46.71875 10.40625 C 46.4375 10.40625 46.167969 10.515625 45.964844 10.714844 C 45.765625 10.914063 45.65625 11.1875 45.65625 11.46875 C 45.65625 11.75 45.765625 12.019531 45.964844 12.21875 C 46.164063 12.421875 46.4375 12.53125 46.71875 12.53125 C 47 12.53125 47.269531 12.417969 47.46875 12.21875 C 47.667969 12.019531 47.78125 11.75 47.78125 11.46875 "/>
<path style="fill:none;stroke-width:5;stroke-linecap:round;stroke-linejoin:round;stroke:rgb(0%,0%,0%);stroke-opacity:1;stroke-miterlimit:10;" d="M 289.144063 553.453125 L 623.128438 709.195312 " transform="matrix(0.1,0,0,-0.1,5.277,114.775)"/>
<path style=" stroke:none;fill-rule:nonzero;fill:rgb(0%,0%,0%);fill-opacity:1;" d="M 63.089844 47.304688 L 67.589844 43.855469 L 62.054688 45.082031 "/>
<path style="fill:none;stroke-width:5;stroke-linecap:round;stroke-linejoin:round;stroke:rgb(0%,0%,0%);stroke-opacity:1;stroke-miterlimit:10;" d="M 578.128438 674.703125 L 623.128438 709.195312 L 567.776875 696.929687 L 578.128438 674.703125 Z M 578.128438 674.703125 " transform="matrix(0.1,0,0,-0.1,5.277,114.775)"/>
<path style="fill:none;stroke-width:5;stroke-linecap:round;stroke-linejoin:round;stroke:rgb(0%,0%,0%);stroke-opacity:1;stroke-dasharray:30,30;stroke-miterlimit:10;" d="M 289.144063 553.453125 L 623.128438 553.453125 " transform="matrix(0.1,0,0,-0.1,5.277,114.775)"/>
<path style=" stroke:none;fill-rule:nonzero;fill:rgb(0%,0%,0%);fill-opacity:1;" d="M 62.054688 60.65625 L 67.589844 59.429688 L 62.054688 58.203125 "/>
<path style="fill:none;stroke-width:5;stroke-linecap:round;stroke-linejoin:round;stroke:rgb(0%,0%,0%);stroke-opacity:1;stroke-miterlimit:10;" d="M 567.776875 541.1875 L 623.128438 553.453125 L 567.776875 565.71875 L 567.776875 541.1875 Z M 567.776875 541.1875 " transform="matrix(0.1,0,0,-0.1,5.277,114.775)"/>
<path style="fill:none;stroke-width:5;stroke-linecap:round;stroke-linejoin:round;stroke:rgb(0%,0%,0%);stroke-opacity:1;stroke-dasharray:30,30;stroke-miterlimit:10;" d="M 623.128438 553.453125 L 623.128438 709.195312 " transform="matrix(0.1,0,0,-0.1,5.277,114.775)"/>
<path style="fill:none;stroke-width:5;stroke-linecap:round;stroke-linejoin:round;stroke:rgb(0%,0%,0%);stroke-opacity:1;stroke-dasharray:30,30;stroke-miterlimit:10;" d="M 289.144063 553.453125 L 163.870625 553.453125 " transform="matrix(0.1,0,0,-0.1,5.277,114.775)"/>
<path style="fill:none;stroke-width:5;stroke-linecap:round;stroke-linejoin:round;stroke:rgb(0%,0%,0%);stroke-opacity:1;stroke-miterlimit:10;" d="M 163.870625 553.453125 L 5.6675 553.453125 " transform="matrix(0.1,0,0,-0.1,5.277,114.775)"/>
<path style=" stroke:none;fill-rule:nonzero;fill:rgb(0%,0%,0%);fill-opacity:1;" d="M 11.378906 58.203125 L 5.84375 59.429688 L 11.378906 60.65625 "/>
<path style="fill:none;stroke-width:5;stroke-linecap:round;stroke-linejoin:round;stroke:rgb(0%,0%,0%);stroke-opacity:1;stroke-miterlimit:10;" d="M 61.019063 565.71875 L 5.6675 553.453125 L 61.019063 541.1875 L 61.019063 565.71875 Z M 61.019063 565.71875 " transform="matrix(0.1,0,0,-0.1,5.277,114.775)"/>
<path style="fill:none;stroke-width:5;stroke-linecap:round;stroke-linejoin:round;stroke:rgb(0%,0%,0%);stroke-opacity:1;stroke-miterlimit:10;" d="M 997.776875 553.453125 L 1281.253438 553.453125 " transform="matrix(0.1,0,0,-0.1,5.277,114.775)"/>
<path style=" stroke:none;fill-rule:nonzero;fill:rgb(0%,0%,0%);fill-opacity:1;" d="M 127.867188 60.65625 L 133.402344 59.429688 L 127.867188 58.203125 "/>
<path style="fill:none;stroke-width:5;stroke-linecap:round;stroke-linejoin:round;stroke:rgb(0%,0%,0%);stroke-opacity:1;stroke-miterlimit:10;" d="M 1225.901875 541.1875 L 1281.253438 553.453125 L 1225.901875 565.71875 L 1225.901875 541.1875 Z M 1225.901875 541.1875 " transform="matrix(0.1,0,0,-0.1,5.277,114.775)"/>
<path style="fill:none;stroke-width:5;stroke-linecap:round;stroke-linejoin:round;stroke:rgb(0%,0%,0%);stroke-opacity:1;stroke-miterlimit:10;" d="M 997.776875 553.453125 L 1366.019063 766.070312 " transform="matrix(0.1,0,0,-0.1,5.277,114.775)"/>
<path style=" stroke:none;fill-rule:nonzero;fill:rgb(0%,0%,0%);fill-opacity:1;" d="M 137.699219 42 L 141.878906 38.167969 L 136.472656 39.875 "/>
<path style="fill:none;stroke-width:5;stroke-linecap:round;stroke-linejoin:round;stroke:rgb(0%,0%,0%);stroke-opacity:1;stroke-miterlimit:10;" d="M 1324.222188 727.75 L 1366.019063 766.070312 L 1311.956563 749 L 1324.222188 727.75 Z M 1324.222188 727.75 " transform="matrix(0.1,0,0,-0.1,5.277,114.775)"/>
<path style="fill:none;stroke-width:3;stroke-linecap:round;stroke-linejoin:round;stroke:rgb(0%,0%,0%);stroke-opacity:1;stroke-miterlimit:10;" d="M 78.831563 272.28125 C 101.175313 250.054687 132.659688 239.585937 163.870625 243.921875 C 185.355 246.929687 205.276875 256.890625 220.550313 272.28125 " transform="matrix(0.1,0,0,-0.1,5.277,114.775)"/>
<path style=" stroke:none;fill-rule:nonzero;fill:rgb(0%,0%,0%);fill-opacity:1;" d="M 25.488281 89.703125 C 26.199219 89.082031 26.820313 88.355469 27.332031 87.546875 C 26.527344 88.0625 25.65625 88.457031 24.753906 88.722656 "/>
<path style="fill:none;stroke-width:3;stroke-linecap:round;stroke-linejoin:round;stroke:rgb(0%,0%,0%);stroke-opacity:1;stroke-miterlimit:10;" d="M 202.112813 250.71875 C 209.222188 256.929687 215.433125 264.195312 220.550313 272.28125 C 212.503438 267.125 203.7925 263.179687 194.769063 260.523437 L 202.112813 250.71875 Z M 202.112813 250.71875 " transform="matrix(0.1,0,0,-0.1,5.277,114.775)"/>
<path style="fill:none;stroke-width:3;stroke-linecap:round;stroke-linejoin:round;stroke:rgb(0%,0%,0%);stroke-opacity:1;stroke-miterlimit:10;" d="M 645.745625 2.984375 C 608.519063 2.984375 580.862813 37.515625 589.065938 73.84375 " transform="matrix(0.1,0,0,-0.1,5.277,114.775)"/>
<path style=" stroke:none;fill-rule:nonzero;fill:rgb(0%,0%,0%);fill-opacity:1;" d="M 64.863281 110.140625 C 64.425781 109.328125 64.179688 108.394531 64.183594 107.390625 C 63.753906 108.296875 63.585938 109.25 63.636719 110.167969 "/>
<path style="fill:none;stroke-width:3;stroke-linecap:round;stroke-linejoin:round;stroke:rgb(0%,0%,0%);stroke-opacity:1;stroke-miterlimit:10;" d="M 595.862813 46.34375 C 591.487813 54.46875 589.026875 63.804687 589.065938 73.84375 C 584.769063 64.78125 583.089375 55.25 583.597188 46.070312 L 595.862813 46.34375 Z M 595.862813 46.34375 " transform="matrix(0.1,0,0,-0.1,5.277,114.775)"/>
<path style="fill:none;stroke-width:3;stroke-linecap:round;stroke-linejoin:round;stroke:rgb(0%,0%,0%);stroke-opacity:1;stroke-miterlimit:10;" d="M 1222.269063 976.382812 C 1181.526875 976.382812 1143.753438 954.820312 1123.089375 919.664062 " transform="matrix(0.1,0,0,-0.1,5.277,114.775)"/>
<path style=" stroke:none;fill-rule:nonzero;fill:rgb(0%,0%,0%);fill-opacity:1;" d="M 118.785156 20.238281 C 118.285156 21.03125 117.882813 21.894531 117.585938 22.808594 C 118.238281 22.105469 118.972656 21.496094 119.757813 20.988281 "/>
<path style="fill:none;stroke-width:3;stroke-linecap:round;stroke-linejoin:round;stroke:rgb(0%,0%,0%);stroke-opacity:1;stroke-miterlimit:10;" d="M 1135.081563 945.367187 C 1130.081563 937.4375 1126.058125 928.804687 1123.089375 919.664062 C 1129.612813 926.695312 1136.956563 932.789062 1144.808125 937.867187 L 1135.081563 945.367187 Z M 1135.081563 945.367187 " transform="matrix(0.1,0,0,-0.1,5.277,114.775)"/>
<path style="fill:none;stroke-width:3;stroke-linecap:round;stroke-linejoin:round;stroke:rgb(0%,0%,0%);stroke-opacity:1;stroke-miterlimit:10;" d="M 839.612813 1118.101562 C 748.7925 1118.101562 710.276875 1002.515625 782.894063 948.023437 " transform="matrix(0.1,0,0,-0.1,5.277,114.775)"/>
<path style=" stroke:none;fill-rule:nonzero;fill:rgb(0%,0%,0%);fill-opacity:1;" d="M 81.175781 18.453125 C 81.859375 19.042969 82.65625 19.558594 83.566406 19.972656 C 82.917969 19.214844 82.410156 18.410156 82.042969 17.585938 "/>
<path style="fill:none;stroke-width:3;stroke-linecap:round;stroke-linejoin:round;stroke:rgb(0%,0%,0%);stroke-opacity:1;stroke-miterlimit:10;" d="M 758.987813 963.21875 C 765.82375 957.320312 773.7925 952.164062 782.894063 948.023437 C 776.409688 955.601562 771.331563 963.648437 767.659688 971.890625 L 758.987813 963.21875 Z M 758.987813 963.21875 " transform="matrix(0.1,0,0,-0.1,5.277,114.775)"/>
</g>
</g>
<g clip-path="url(#clip3)" clip-rule="nonzero">
<g style="fill:rgb(0%,0%,0%);fill-opacity:1;">
  <use xlink:href="#glyph0-1" x="47.797" y="79.493"/>
</g>
<g style="fill:rgb(0%,0%,0%);fill-opacity:1;">
  <use xlink:href="#glyph1-1" x="50.814" y="79.493"/>
</g>
<g style="fill:rgb(0%,0%,0%);fill-opacity:1;">
  <use xlink:href="#glyph1-2" x="54.885304" y="79.493"/>
</g>
<g style="fill:rgb(0%,0%,0%);fill-opacity:1;">
  <use xlink:href="#glyph1-3" x="58.274571" y="79.493"/>
</g>
<g style="fill:rgb(0%,0%,0%);fill-opacity:1;">
  <use xlink:href="#glyph1-2" x="62.478378" y="79.493"/>
</g>
<g style="fill:rgb(0%,0%,0%);fill-opacity:1;">
  <use xlink:href="#glyph1-4" x="65.867645" y="79.493"/>
</g>
<g style="fill:rgb(0%,0%,0%);fill-opacity:1;">
  <use xlink:href="#glyph0-2" x="69.889" y="79.493"/>
</g>
<g style="fill:rgb(0%,0%,0%);fill-opacity:1;">
  <use xlink:href="#glyph0-1" x="119.797" y="84.301"/>
</g>
<g style="fill:rgb(0%,0%,0%);fill-opacity:1;">
  <use xlink:href="#glyph1-1" x="122.814" y="84.301"/>
</g>
<g style="fill:rgb(0%,0%,0%);fill-opacity:1;">
  <use xlink:href="#glyph0-3" x="128.534" y="84.301"/>
</g>
<g style="fill:rgb(0%,0%,0%);fill-opacity:1;">
  <use xlink:href="#glyph0-4" x="135.942965" y="84.301"/>
</g>
<g style="fill:rgb(0%,0%,0%);fill-opacity:1;">
  <use xlink:href="#glyph1-1" x="141.116" y="84.301"/>
</g>
<g style="fill:rgb(0%,0%,0%);fill-opacity:1;">
  <use xlink:href="#glyph1-2" x="145.187304" y="84.301"/>
</g>
<g style="fill:rgb(0%,0%,0%);fill-opacity:1;">
  <use xlink:href="#glyph1-3" x="148.576571" y="84.301"/>
</g>
<g style="fill:rgb(0%,0%,0%);fill-opacity:1;">
  <use xlink:href="#glyph1-2" x="152.780378" y="84.301"/>
</g>
<g style="fill:rgb(0%,0%,0%);fill-opacity:1;">
  <use xlink:href="#glyph1-4" x="156.169645" y="84.301"/>
</g>
<g style="fill:rgb(0%,0%,0%);fill-opacity:1;">
  <use xlink:href="#glyph0-2" x="160.191" y="84.301"/>
</g>
<g style="fill:rgb(0%,0%,0%);fill-opacity:1;">
  <use xlink:href="#glyph0-1" x="24.893" y="7.777"/>
</g>
<g style="fill:rgb(0%,0%,0%);fill-opacity:1;">
  <use xlink:href="#glyph1-1" x="27.91" y="7.777"/>
</g>
<g style="fill:rgb(0%,0%,0%);fill-opacity:1;">
  <use xlink:href="#glyph1-2" x="31.981304" y="7.777"/>
</g>
<g style="fill:rgb(0%,0%,0%);fill-opacity:1;">
  <use xlink:href="#glyph1-3" x="35.370571" y="7.777"/>
</g>
<g style="fill:rgb(0%,0%,0%);fill-opacity:1;">
  <use xlink:href="#glyph0-3" x="41.223" y="7.777"/>
</g>
<g style="fill:rgb(0%,0%,0%);fill-opacity:1;">
  <use xlink:href="#glyph0-4" x="48.631965" y="7.777"/>
</g>
<g style="fill:rgb(0%,0%,0%);fill-opacity:1;">
  <use xlink:href="#glyph1-3" x="53.805" y="7.777"/>
</g>
<g style="fill:rgb(0%,0%,0%);fill-opacity:1;">
  <use xlink:href="#glyph1-2" x="58.008807" y="7.777"/>
</g>
<g style="fill:rgb(0%,0%,0%);fill-opacity:1;">
  <use xlink:href="#glyph1-4" x="61.398073" y="7.777"/>
</g>
<g style="fill:rgb(0%,0%,0%);fill-opacity:1;">
  <use xlink:href="#glyph0-2" x="65.416" y="7.777"/>
</g>
<g style="fill:rgb(0%,0%,0%);fill-opacity:1;">
  <use xlink:href="#glyph0-1" x="0.04" y="114.903"/>
</g>
<g style="fill:rgb(0%,0%,0%);fill-opacity:1;">
  <use xlink:href="#glyph1-1" x="3.057" y="114.903"/>
</g>
<g style="fill:rgb(0%,0%,0%);fill-opacity:1;">
  <use xlink:href="#glyph1-2" x="7.128304" y="114.903"/>
</g>
<g style="fill:rgb(0%,0%,0%);fill-opacity:1;">
  <use xlink:href="#glyph1-3" x="10.517571" y="114.903"/>
</g>
<g style="fill:rgb(0%,0%,0%);fill-opacity:1;">
  <use xlink:href="#glyph1-2" x="14.721378" y="114.903"/>
</g>
<g style="fill:rgb(0%,0%,0%);fill-opacity:1;">
  <use xlink:href="#glyph1-4" x="18.110645" y="114.903"/>
</g>
<g style="fill:rgb(0%,0%,0%);fill-opacity:1;">
  <use xlink:href="#glyph0-3" x="23.778" y="114.903"/>
</g>
<g style="fill:rgb(0%,0%,0%);fill-opacity:1;">
  <use xlink:href="#glyph0-4" x="31.186965" y="114.903"/>
</g>
<g style="fill:rgb(0%,0%,0%);fill-opacity:1;">
  <use xlink:href="#glyph1-4" x="36.361" y="114.903"/>
</g>
<g style="fill:rgb(0%,0%,0%);fill-opacity:1;">
  <use xlink:href="#glyph0-2" x="40.379" y="114.903"/>
</g>
<g style="fill:rgb(0%,0%,0%);fill-opacity:1;">
  <use xlink:href="#glyph0-4" x="77.473" y="88.721"/>
</g>
<g style="fill:rgb(0%,0%,0%);fill-opacity:1;">
  <use xlink:href="#glyph1-1" x="82.646" y="88.721"/>
</g>
<g style="fill:rgb(0%,0%,0%);fill-opacity:1;">
  <use xlink:href="#glyph0-4" x="47.797" y="25.765"/>
</g>
<g style="fill:rgb(0%,0%,0%);fill-opacity:1;">
  <use xlink:href="#glyph1-3" x="52.969" y="25.765"/>
</g>
<g style="fill:rgb(0%,0%,0%);fill-opacity:1;">
  <use xlink:href="#glyph0-4" x="36.458" y="97.354"/>
</g>
<g style="fill:rgb(0%,0%,0%);fill-opacity:1;">
  <use xlink:href="#glyph1-4" x="41.63" y="97.354"/>
</g>
<g style="fill:rgb(0%,0%,0%);fill-opacity:1;">
  <use xlink:href="#glyph0-5" x="32.251" y="56.665"/>
</g>
<g style="fill:rgb(0%,0%,0%);fill-opacity:1;">
  <use xlink:href="#glyph0-6" x="103.117" y="56.665"/>
</g>
<g style="fill:rgb(0%,0%,0%);fill-opacity:1;">
  <use xlink:href="#glyph0-7" x="70.757" y="116.78"/>
</g>
<g style="fill:rgb(0%,0%,0%);fill-opacity:1;">
  <use xlink:href="#glyph0-8" x="90.033" y="5.379"/>
</g>
<g style="fill:rgb(0%,0%,0%);fill-opacity:1;">
  <use xlink:href="#glyph0-9" x="128.584" y="19.268"/>
</g>
<g style="fill:rgb(0%,0%,0%);fill-opacity:1;">
  <use xlink:href="#glyph0-10" x="7.918" y="89.851"/>
</g>
<g style="fill:rgb(0%,0%,0%);fill-opacity:1;">
  <use xlink:href="#glyph2-1" x="0.688" y="61.83"/>
</g>
<g style="fill:rgb(0%,0%,0%);fill-opacity:1;">
  <use xlink:href="#glyph2-1" x="134.537" y="61.83"/>
</g>
<g style="fill:rgb(0%,0%,0%);fill-opacity:1;">
  <use xlink:href="#glyph3-1" x="138.559" y="59.369"/>
</g>
<g style="fill:rgb(0%,0%,0%);fill-opacity:1;">
  <use xlink:href="#glyph2-2" x="52.671" y="47.311"/>
</g>
<g style="fill:rgb(0%,0%,0%);fill-opacity:1;">
  <use xlink:href="#glyph1-5" x="51.043" y="56.927"/>
</g>
<g style="fill:rgb(0%,0%,0%);fill-opacity:1;">
  <use xlink:href="#glyph4-1" x="55.883" y="57.799"/>
</g>
<g style="fill:rgb(0%,0%,0%);fill-opacity:1;">
  <use xlink:href="#glyph2-2" x="138.728" y="36.539"/>
</g>
<g style="fill:rgb(0%,0%,0%);fill-opacity:1;">
  <use xlink:href="#glyph3-1" x="143.72" y="34.078"/>
</g>
</g>
</g>
</svg>
