<?xml version="1.0" encoding="UTF-8" standalone="no"?>
<svg xmlns="http://www.w3.org/2000/svg" xmlns:xlink="http://www.w3.org/1999/xlink" version="1.1" width="275.4pt" height="145.8pt" viewBox="0 0 159.13769 84.226439">
 <metadata id="metadata36627"/>
 <defs id="defs36235">
  <g id="g36237">
   <g id="glyph0-1">
    <path d="M 2.578125,1.546875 C 2.546875,1.5 2.5,1.46875 2.453125,1.4375 1.6875,0.75 1.21875,-0.3125 1.171875,-1.59375 c -0.03125,-0.875 0.125,-1.78125 0.53125,-2.5625 0.203125,-0.375 0.4375,-0.6875 0.75,-0.953125 C 2.5,-5.15625 2.546875,-5.1875 2.578125,-5.21875 l -0.25,0 c -0.15625,0 -0.140625,0 -0.25,0.078125 -0.359375,0.28125 -0.65625,0.65625 -0.890625,1.078125 -0.65625,1.234375 -0.703125,2.90625 -0.09375,4.25 0.21875,0.5 0.5625,0.921875 0.984375,1.28125 0.09375,0.0625 0.09375,0.078125 0.25,0.078125 l 0.25,0 z m 0,0" id="path36241"/>
   </g>
   <g id="glyph0-2">
    <path d="m 0.640625,-2.640625 c 0.125,-0.0625 0.21875,-0.140625 0.34375,-0.203125 C 1.203125,-2.9375 1.4375,-2.984375 1.6875,-3 1.75,-3.015625 1.828125,-3.015625 1.90625,-3.015625 c 0.28125,0.046875 0.515625,0.234375 0.59375,0.5 0.078125,0.203125 0.046875,0.453125 0.046875,0.65625 -0.359375,0 -0.734375,0.03125 -1.09375,0.125 -0.5,0.125 -1.125,0.375 -1.0625,1.015625 0.046875,0.28125 0.203125,0.5625 0.46875,0.703125 C 1.03125,0.0625 1.234375,0.0625 1.4375,0.046875 1.734375,0.015625 2.0625,-0.0625 2.3125,-0.25 c 0.09375,-0.0625 0.171875,-0.140625 0.25,-0.21875 l 0,0.46875 0.484375,0 0,-1.828125 c 0,-0.1875 0.03125,-0.390625 -0.015625,-0.59375 -0.0625,-0.484375 -0.5,-0.84375 -0.953125,-0.9375 -0.28125,-0.046875 -0.71875,0.015625 -0.953125,0.0625 -0.078125,0.03125 -0.46875,0.15625 -0.5,0.21875 -0.03125,0.03125 -0.015625,0.09375 -0.015625,0.125 0.015625,0.109375 0.03125,0.203125 0.03125,0.3125 z m 1.90625,1.015625 0,0.515625 c 0,0.140625 0,0.265625 -0.0625,0.390625 -0.078125,0.140625 -0.21875,0.25 -0.375,0.296875 -0.328125,0.125 -0.78125,0.140625 -1.0625,-0.09375 C 0.96875,-0.5625 0.90625,-0.640625 0.890625,-0.75 0.8125,-1.046875 1.078125,-1.28125 1.3125,-1.390625 1.640625,-1.546875 2.109375,-1.625 2.546875,-1.625 z m 0,0" id="path36244"/>
   </g>
   <g id="glyph0-3">
    <path d="m 0.4375,-5.21875 c 0.03125,0.03125 0.078125,0.0625 0.125,0.109375 0.859375,0.765625 1.328125,2 1.265625,3.515625 -0.015625,0.75 -0.203125,1.5 -0.5625,2.15625 C 1.078125,0.890625 0.84375,1.1875 0.5625,1.4375 0.515625,1.46875 0.46875,1.5 0.4375,1.546875 l 0.25,0 c 0.15625,0 0.140625,0 0.234375,-0.078125 0.375,-0.296875 0.671875,-0.671875 0.890625,-1.078125 0.671875,-1.25 0.71875,-2.90625 0.109375,-4.25 C 1.6875,-4.375 1.359375,-4.796875 0.9375,-5.140625 0.84375,-5.21875 0.84375,-5.21875 0.6875,-5.21875 l -0.25,0 z m 0,0" id="path36247"/>
   </g>
   <g id="glyph0-4">
    <path d="m 0.734375,-4.84375 0,4.84375 0.53125,0 0,-2.015625 1.03125,0 c 0.15625,0 0.328125,0 0.484375,0 0.765625,-0.0625 1.515625,-0.5 1.640625,-1.203125 C 4.5,-3.625 4.328125,-3.953125 4.140625,-4.1875 3.859375,-4.53125 3.421875,-4.765625 2.90625,-4.828125 2.65625,-4.84375 2.40625,-4.84375 2.171875,-4.84375 l -1.4375,0 z M 1.25,-2.421875 l 0,-2 1.046875,0 c 0.609375,0 1.171875,0.0625 1.46875,0.46875 0.234375,0.3125 0.234375,0.75 0,1.0625 C 3.6875,-2.78125 3.578125,-2.703125 3.46875,-2.625 3.109375,-2.421875 2.703125,-2.421875 2.328125,-2.421875 l -1.078125,0 z m 0,0" id="path36250"/>
   </g>
   <g id="glyph0-5">
    <path d="m 1.0625,-2.453125 0,0 0,-0.84375 -0.484375,0 0,3.296875 0.5,0 0,-1.3125 c 0,-0.265625 -0.03125,-0.546875 0.078125,-0.796875 0.125,-0.359375 0.453125,-0.59375 0.796875,-0.71875 0.15625,-0.046875 0.328125,-0.078125 0.5,-0.078125 l 0,-0.4375 C 2,-3.34375 1.5625,-3.140625 1.28125,-2.796875 1.203125,-2.6875 1.109375,-2.578125 1.0625,-2.453125 z m 0,0" id="path36253"/>
   </g>
   <g id="glyph0-6">
    <path d="M 0.703125,-2.78125 C 0.25,-2.234375 0.140625,-1.421875 0.5,-0.78125 0.78125,-0.28125 1.359375,0.125 2.109375,0.046875 2.75,-0.015625 3.28125,-0.484375 3.46875,-1 3.734375,-1.703125 3.53125,-2.53125 2.953125,-3.015625 2.796875,-3.140625 2.625,-3.21875 2.4375,-3.296875 1.71875,-3.53125 1.0625,-3.21875 0.703125,-2.78125 z M 2.25,-2.953125 c 0.109375,0.03125 0.203125,0.078125 0.296875,0.125 0.4375,0.25 0.546875,0.8125 0.515625,1.28125 -0.015625,0.328125 -0.09375,0.640625 -0.328125,0.875 C 2.34375,-0.25 1.53125,-0.234375 1.125,-0.671875 0.90625,-0.90625 0.828125,-1.21875 0.796875,-1.546875 0.765625,-2 0.859375,-2.390625 1.09375,-2.640625 c 0.265625,-0.28125 0.6875,-0.40625 1.15625,-0.3125 z m 0,0" id="path36256"/>
   </g>
   <g id="glyph0-7">
    <path d="m 0.578125,-4.84375 0,4.84375 0.515625,0 0,-0.46875 0,0 c 0.0625,0.109375 0.171875,0.203125 0.265625,0.28125 0.3125,0.25 0.828125,0.328125 1.28125,0.109375 0.203125,-0.109375 0.375,-0.28125 0.515625,-0.46875 C 3.84375,-1.5 3.421875,-3.09375 2.453125,-3.3125 c -0.125,-0.046875 -0.28125,-0.046875 -0.421875,-0.015625 -0.40625,0.046875 -0.71875,0.25 -0.953125,0.5 l 0,-2.015625 -0.5,0 z M 1.8125,-2.953125 c 0.328125,-0.03125 0.703125,0.109375 0.921875,0.375 0.171875,0.21875 0.234375,0.5 0.234375,0.765625 0.03125,0.375 -0.015625,0.78125 -0.25,1.078125 -0.203125,0.265625 -0.53125,0.375 -0.84375,0.40625 -0.265625,0 -0.5,-0.09375 -0.671875,-0.3125 C 1.171875,-0.6875 1.125,-0.75 1.09375,-0.8125 c 0,-0.046875 0,-0.09375 0,-0.125 l 0,-1.390625 c 0,-0.0625 -0.015625,-0.140625 0.015625,-0.203125 0.03125,-0.078125 0.09375,-0.125 0.15625,-0.1875 0.15625,-0.125 0.34375,-0.21875 0.546875,-0.234375 z m 0,0" id="path36259"/>
   </g>
   <g id="glyph0-8">
    <path d="m 0.78125,-0.578125 0,0.578125 0.578125,0 0,-0.578125 -0.578125,0 z m 0,0" id="path36262"/>
   </g>
   <g id="glyph0-9">
    <path d="M 1.828125,-4.6875 C 1.671875,-4.65625 1.5,-4.640625 1.359375,-4.5625 0.625,-4.28125 0.375,-3.34375 0.375,-2.40625 c 0,0.140625 0,0.28125 0,0.4375 0.015625,0.640625 0.171875,1.28125 0.53125,1.671875 0.3125,0.3125 0.765625,0.4375 1.1875,0.40625 0.265625,-0.03125 0.484375,-0.125 0.671875,-0.25 C 3.359375,-0.5625 3.5,-1.421875 3.5,-2.359375 3.5,-3.125 3.359375,-3.8125 2.984375,-4.234375 2.703125,-4.546875 2.265625,-4.71875 1.828125,-4.6875 z m 0.59375,0.515625 C 2.5,-4.125 2.5625,-4.078125 2.625,-4.015625 c 0.265625,0.25 0.34375,0.75 0.359375,1.21875 0,0.09375 0,0.1875 0,0.28125 l 0,0.359375 c 0,0.59375 -0.046875,1.171875 -0.3125,1.53125 -0.34375,0.453125 -1.09375,0.46875 -1.453125,0.015625 C 1.125,-0.703125 1.078125,-0.828125 1.03125,-0.9375 0.90625,-1.296875 0.875,-1.734375 0.875,-2.1875 l 0,-0.359375 c 0,-0.09375 0.015625,-0.171875 0.015625,-0.265625 0,-0.546875 0.140625,-1.09375 0.5,-1.328125 0.28125,-0.171875 0.703125,-0.21875 1.03125,-0.03125 z m 0,0" id="path36265"/>
   </g>
   <g id="glyph0-10">
    <path d="m 0.78125,-4.21875 0,0.390625 c 0.34375,0 0.6875,-0.0625 1,-0.203125 l 0,3.640625 -0.96875,0 0,0.390625 2.4375,0 0,-0.390625 -0.96875,0 0,-4.296875 c -0.03125,0 -0.09375,0 -0.125,0.015625 C 2.109375,-4.65625 2.0625,-4.59375 2.015625,-4.5625 1.734375,-4.328125 1.21875,-4.21875 0.78125,-4.21875 z m 0,0" id="path36268"/>
   </g>
   <g id="glyph0-11">
    <path d="m 0.625,-3.203125 c 0.109375,-0.40625 0.28125,-0.84375 0.71875,-1 0.15625,-0.0625 0.328125,-0.078125 0.515625,-0.0625 0.359375,0.03125 0.71875,0.171875 0.9375,0.484375 0.140625,0.203125 0.1875,0.453125 0.15625,0.703125 C 2.875,-2.40625 2.28125,-1.984375 1.796875,-1.609375 1.40625,-1.3125 0.59375,-0.59375 0.59375,-0.59375 l -0.140625,0.109375 c -0.0625,0.078125 -0.0625,0.0625 -0.0625,0.21875 l 0,0.265625 3.09375,0 0,-0.4375 -2.640625,0 c 0.265625,-0.234375 1.0625,-0.90625 1.296875,-1.078125 0.4375,-0.328125 0.921875,-0.640625 1.203125,-1.125 0.296875,-0.5625 0.109375,-1.28125 -0.375,-1.671875 -0.53125,-0.453125 -1.5,-0.515625 -2.09375,-0.078125 -0.21875,0.15625 -0.375,0.40625 -0.484375,0.65625 -0.015625,0.0625 -0.0625,0.125 -0.0625,0.1875 0.015625,0.03125 0.0625,0.0625 0.078125,0.109375 0.0625,0.078125 0.140625,0.171875 0.21875,0.234375 z m 0,0" id="path36271"/>
   </g>
   <g id="glyph0-12">
    <path d="m 0.59375,-3.8125 c 0.140625,0 0.265625,0 0.390625,0 0.328125,-0.25 0.625,-0.546875 0.953125,-0.78125 0.328125,0.234375 0.625,0.53125 0.953125,0.78125 0.109375,0 0.25,0 0.375,0 -0.375,-0.34375 -0.75,-0.703125 -1.140625,-1.03125 -0.140625,0 -0.265625,0 -0.390625,0.015625 C 1.34375,-4.5 0.96875,-4.140625 0.59375,-3.8125 z m 0,0" id="path36274"/>
   </g>
   <g id="glyph1-1">
    <path d="m 0.984375,-5.21875 c -0.140625,0.046875 -0.125,0.1875 -0.125,0.3125 l 0,6.15625 c 0,0.109375 -0.015625,0.21875 0.09375,0.28125 0.015625,0 0.03125,0.015625 0.046875,0.015625 0.015625,0 0.03125,0 0.0625,0 C 1.21875,1.5 1.1875,1.3125 1.1875,1.1875 l 0,-6.1875 c 0,-0.03125 0,-0.078125 -0.015625,-0.125 C 1.15625,-5.1875 1.0625,-5.234375 0.984375,-5.21875 z m 0,0" id="path36278"/>
   </g>
   <g id="glyph1-2">
    <path d="m 0.53125,-5.21875 c -0.015625,0 -0.03125,0 -0.046875,0.015625 -0.140625,0.09375 -0.03125,0.265625 0.015625,0.375 l 0.984375,2.4375 0.15625,0.375 c 0.03125,0.046875 0.078125,0.109375 0.078125,0.171875 0,0.03125 -0.21875,0.53125 -0.28125,0.6875 l -0.640625,1.5625 -0.21875,0.5625 c -0.0625,0.125 -0.125,0.234375 -0.15625,0.359375 -0.03125,0.109375 0.03125,0.21875 0.15625,0.21875 0.140625,-0.015625 0.1875,-0.1875 0.21875,-0.296875 0.25,-0.59375 1.0625,-2.53125 1.1875,-2.875 C 2,-1.6875 2.0625,-1.765625 2.0625,-1.84375 c 0,-0.0625 -0.171875,-0.453125 -0.234375,-0.578125 -0.09375,-0.25 -1.046875,-2.546875 -1.046875,-2.546875 -0.046875,-0.109375 -0.09375,-0.296875 -0.25,-0.25 z m 0,0" id="path36281"/>
   </g>
   <g id="glyph2-1">
    <path d="M 1.765625,-4.84375 1.65625,-4.3125 0.734375,0 1.125,0 c 0.03125,0 0.125,0.015625 0.140625,-0.015625 0.03125,-0.046875 0.03125,-0.09375 0.03125,-0.140625 0.03125,-0.09375 0.984375,-4.625 1,-4.6875 l -0.53125,0 z m 0,0" id="path36285"/>
   </g>
   <g id="glyph2-2">
    <path d="M 3.09375,-5.21875 C 2.953125,-5.1875 2.921875,-5 2.875,-4.890625 l -1.96875,5 -0.453125,1.125 C 0.4375,1.28125 0.40625,1.328125 0.40625,1.390625 c 0,0.09375 0.09375,0.15625 0.1875,0.15625 C 0.6875,1.53125 0.71875,1.46875 0.75,1.390625 0.78125,1.328125 3.21875,-4.84375 3.265625,-5 3.28125,-5.03125 3.296875,-5.078125 3.28125,-5.109375 3.25,-5.1875 3.15625,-5.234375 3.09375,-5.21875 z m 0,0" id="path36288"/>
   </g>
   <g id="glyph2-3">
    <path d="M 1.765625,-4.84375 0.734375,0 l 0.375,0 C 1.15625,0 1.21875,0.015625 1.265625,-0.015625 1.296875,-0.03125 1.296875,-0.09375 1.296875,-0.125 c 0.015625,-0.078125 0.375,-1.75 0.375,-1.75 0,-0.03125 0,-0.109375 0.046875,-0.125 0.015625,-0.03125 0.046875,-0.015625 0.078125,-0.015625 l 0.84375,0 c 0.21875,0 0.4375,0.015625 0.65625,-0.015625 0.390625,-0.03125 0.78125,-0.171875 1.109375,-0.390625 0.484375,-0.3125 0.90625,-0.875 0.75,-1.46875 C 5.0625,-4.28125 4.75,-4.546875 4.421875,-4.6875 4.0625,-4.84375 3.65625,-4.84375 3.265625,-4.84375 l -1.5,0 z m 0,2.421875 C 1.796875,-2.625 1.859375,-2.8125 1.890625,-3.015625 1.921875,-3.125 2.15625,-4.21875 2.15625,-4.28125 2.171875,-4.34375 2.171875,-4.421875 2.265625,-4.421875 l 1.1875,0 c 0.484375,0 1.171875,0.125 1.234375,0.734375 0.046875,0.5 -0.328125,0.921875 -0.765625,1.109375 -0.375,0.15625 -0.703125,0.15625 -1.171875,0.15625 l -0.984375,0 z m 0,0" id="path36291"/>
   </g>
   <g id="glyph3-1">
    <path d="m 1.59375,-3.828125 c 0.421875,0 0.703125,-0.0625 1.046875,-0.203125 L 1.875,-0.390625 l -0.96875,0 L 0.8125,0 3.25,0 l 0.09375,-0.390625 -0.96875,0 0.90625,-4.296875 c -0.125,0 -0.140625,0.015625 -0.25,0.09375 -0.296875,0.203125 -0.734375,0.359375 -1.203125,0.359375 -0.03125,0 -0.109375,0 -0.15625,0.03125 -0.015625,0.015625 -0.0625,0.28125 -0.078125,0.375 z m 0,0" id="path36295"/>
   </g>
   <g id="glyph3-2">
    <path d="M 1.296875,-3.203125 C 1.5,-3.671875 1.875,-4.15625 2.40625,-4.25 2.859375,-4.328125 3.453125,-4.1875 3.625,-3.71875 3.703125,-3.5 3.671875,-3.296875 3.609375,-3.078125 3.359375,-2.34375 2.5,-1.875 1.9375,-1.46875 c -0.421875,0.28125 -1.21875,0.875 -1.21875,0.875 l -0.15625,0.125 C 0.53125,-0.453125 0.5,-0.4375 0.46875,-0.40625 0.453125,-0.375 0.40625,-0.09375 0.390625,0 1.40625,0 2.484375,0.015625 3.46875,0 3.53125,-0.125 3.546875,-0.28125 3.578125,-0.4375 l -2.65625,0 c 0.515625,-0.34375 1,-0.71875 1.515625,-1.0625 0.53125,-0.34375 1.203125,-0.734375 1.546875,-1.265625 0.25,-0.40625 0.328125,-1 0.03125,-1.40625 C 3.84375,-4.421875 3.578125,-4.5625 3.25,-4.640625 2.609375,-4.78125 1.921875,-4.59375 1.46875,-4.109375 c -0.109375,0.125 -0.203125,0.25 -0.296875,0.390625 -0.03125,0.046875 -0.078125,0.109375 -0.078125,0.171875 0,0.03125 0.140625,0.28125 0.203125,0.34375 z m 0,0" id="path36298"/>
   </g>
  </g>
  <clipPath id="clip1">
   <path d="m -227,667 612,0 0,-792 -612,0 0,792 z m 0,0" id="path36301"/>
  </clipPath>
  <clipPath id="clip2">
   <path d="m 43.683594,183.80078 113.999996,0 0,-183.999999 -113.999996,0 0,183.999999 z m 0,0" id="path36304"/>
  </clipPath>
  <clipPath id="clip5">
   <path d="m 69.707031,71.859375 0,-24.097656 12.757813,0 0,24.097656 -12.757813,0 z m 0,0" id="path36307"/>
  </clipPath>
  <clipPath id="clip10">
   <path d="m 117.89453,71.859375 0,-24.097656 12.75781,0 0,24.097656 -12.75781,0 z m 0,0" id="path36310"/>
  </clipPath>
  <clipPath id="clip15">
   <path d="m 69.707031,182.41016 0,-24.09375 12.757813,0 0,24.09375 -12.757813,0 z m 0,0" id="path36313"/>
  </clipPath>
  <clipPath id="clip20">
   <path d="m 117.89453,182.41016 0,-24.09375 12.75781,0 0,24.09375 -12.75781,0 z m 0,0" id="path36316"/>
  </clipPath>
 </defs>
 <g transform="translate(1.0063291,1.4786487)" id="g37025">
  <path d="m 156.87109,71.85937 -110.550778,0 0,-70.86718" id="path36323" fill="none" stroke="#000000" stroke-linejoin="round" stroke-linecap="round" stroke-width="0.5" stroke-miterlimit="10"/>
  <path d="M 47.546875,6.527344 46.320313,0.992188 45.09375,6.527344" id="path36325"/>
  <path d="m 47.546875,6.52734 -1.226563,-5.53515 -1.226562,5.53515 2.453125,0 z m 0,0" id="path36327" fill="none" stroke="#000000" stroke-linejoin="round" stroke-linecap="round" stroke-width="0.5" stroke-miterlimit="10"/>
  <g clip-path="url(#clip5)" id="g36333">
   <path d="m 260.23031,1015.5591 127.57813,127.5781" transform="matrix(0.1,0,0,-0.1,43.684,183.802)" id="path36335" fill="none" stroke="#000000" stroke-linejoin="round" stroke-linecap="round" stroke-width="3" stroke-miterlimit="10"/>
   <path d="m 260.23031,1055.6763 127.57813,127.539" transform="matrix(0.1,0,0,-0.1,43.684,183.802)" id="path36337" fill="none" stroke="#000000" stroke-linejoin="round" stroke-linecap="round" stroke-width="3" stroke-miterlimit="10"/>
   <path d="m 260.23031,1095.7544 127.57813,127.539" transform="matrix(0.1,0,0,-0.1,43.684,183.802)" id="path36339" fill="none" stroke="#000000" stroke-linejoin="round" stroke-linecap="round" stroke-width="3" stroke-miterlimit="10"/>
   <path d="m 260.23031,1135.8325 127.57813,127.5781" transform="matrix(0.1,0,0,-0.1,43.684,183.802)" id="path36341" fill="none" stroke="#000000" stroke-linejoin="round" stroke-linecap="round" stroke-width="3" stroke-miterlimit="10"/>
   <path d="m 260.23031,1175.9106 127.57813,127.5782" transform="matrix(0.1,0,0,-0.1,43.684,183.802)" id="path36343" fill="none" stroke="#000000" stroke-linejoin="round" stroke-linecap="round" stroke-width="3" stroke-miterlimit="10"/>
   <path d="m 260.23031,1216.0278 127.57813,127.5391" transform="matrix(0.1,0,0,-0.1,43.684,183.802)" id="path36345" fill="none" stroke="#000000" stroke-linejoin="round" stroke-linecap="round" stroke-width="3" stroke-miterlimit="10"/>
   <path d="M 260.23031,1256.1059 387.80844,1383.645" transform="matrix(0.1,0,0,-0.1,43.684,183.802)" id="path36347" fill="none" stroke="#000000" stroke-linejoin="round" stroke-linecap="round" stroke-width="3" stroke-miterlimit="10"/>
   <path d="m 260.23031,1296.1841 127.57813,127.5781" transform="matrix(0.1,0,0,-0.1,43.684,183.802)" id="path36349" fill="none" stroke="#000000" stroke-linejoin="round" stroke-linecap="round" stroke-width="3" stroke-miterlimit="10"/>
   <path d="m 260.23031,1336.2622 127.57813,127.5781" transform="matrix(0.1,0,0,-0.1,43.684,183.802)" id="path36351" fill="none" stroke="#000000" stroke-linejoin="round" stroke-linecap="round" stroke-width="3" stroke-miterlimit="10"/>
  </g>
  <path d="m 69.707031,71.85937 0,-24.09765 12.757813,0 0,24.09765" id="path36357" fill="none" stroke="#000000" stroke-linejoin="round" stroke-linecap="round" stroke-width="0.5" stroke-miterlimit="10"/>
  <g clip-path="url(#clip10)" id="g36363">
   <path d="m 742.10531,1015.5591 127.57813,127.5781" transform="matrix(0.1,0,0,-0.1,43.684,183.802)" id="path36365" fill="none" stroke="#000000" stroke-linejoin="round" stroke-linecap="round" stroke-width="3" stroke-miterlimit="10"/>
   <path d="m 742.10531,1055.6763 127.57813,127.539" transform="matrix(0.1,0,0,-0.1,43.684,183.802)" id="path36367" fill="none" stroke="#000000" stroke-linejoin="round" stroke-linecap="round" stroke-width="3" stroke-miterlimit="10"/>
   <path d="m 742.10531,1095.7544 127.57813,127.539" transform="matrix(0.1,0,0,-0.1,43.684,183.802)" id="path36369" fill="none" stroke="#000000" stroke-linejoin="round" stroke-linecap="round" stroke-width="3" stroke-miterlimit="10"/>
   <path d="m 742.10531,1135.8325 127.57813,127.5781" transform="matrix(0.1,0,0,-0.1,43.684,183.802)" id="path36371" fill="none" stroke="#000000" stroke-linejoin="round" stroke-linecap="round" stroke-width="3" stroke-miterlimit="10"/>
   <path d="m 742.10531,1175.9106 127.57813,127.5782" transform="matrix(0.1,0,0,-0.1,43.684,183.802)" id="path36373" fill="none" stroke="#000000" stroke-linejoin="round" stroke-linecap="round" stroke-width="3" stroke-miterlimit="10"/>
   <path d="m 742.10531,1216.0278 127.57813,127.5391" transform="matrix(0.1,0,0,-0.1,43.684,183.802)" id="path36375" fill="none" stroke="#000000" stroke-linejoin="round" stroke-linecap="round" stroke-width="3" stroke-miterlimit="10"/>
   <path d="M 742.10531,1256.1059 869.68344,1383.645" transform="matrix(0.1,0,0,-0.1,43.684,183.802)" id="path36377" fill="none" stroke="#000000" stroke-linejoin="round" stroke-linecap="round" stroke-width="3" stroke-miterlimit="10"/>
   <path d="m 742.10531,1296.1841 127.57813,127.5781" transform="matrix(0.1,0,0,-0.1,43.684,183.802)" id="path36379" fill="none" stroke="#000000" stroke-linejoin="round" stroke-linecap="round" stroke-width="3" stroke-miterlimit="10"/>
   <path d="m 742.10531,1336.2622 127.57813,127.5781" transform="matrix(0.1,0,0,-0.1,43.684,183.802)" id="path36381" fill="none" stroke="#000000" stroke-linejoin="round" stroke-linecap="round" stroke-width="3" stroke-miterlimit="10"/>
  </g>
  <path d="m 117.89453,71.85937 0,-24.09765 12.75781,0 0,24.09765" id="path36387" fill="none" stroke="#000000" stroke-linejoin="round" stroke-linecap="round" stroke-width="0.5" stroke-miterlimit="10"/>
  <path d="m 46.320312,23.66797 110.550778,0" id="path36389" stroke-dasharray="4.5 4.5" fill="none" stroke="#000000" stroke-linejoin="round" stroke-linecap="round" stroke-width="0.3" stroke-miterlimit="10"/>
  <path d="m 46.320312,47.76172 110.550778,0" id="path36391" stroke-dasharray="4.5 4.5" fill="none" stroke="#000000" stroke-linejoin="round" stroke-linecap="round" stroke-width="0.3" stroke-miterlimit="10"/>
  <use transform="translate(5.667,5.642)" id="use36467" width="159" height="194" xlink:href="#glyph0-1"/>
  <use transform="translate(8.684,5.642)" id="use36469" width="159" height="194" xlink:href="#glyph0-2"/>
  <use transform="translate(12.321,5.642)" id="use36471" width="159" height="194" xlink:href="#glyph0-3"/>
  <use transform="translate(6.237,38.24)" id="use36475" width="159" height="194" xlink:href="#glyph1-1"/>
  <use transform="translate(9.53,38.24)" id="use36479" width="159" height="194" xlink:href="#glyph2-1"/>
  <use transform="translate(12.456,38.24)" id="use36483" width="159" height="194" xlink:href="#glyph1-2"/>
  <use transform="translate(70.877,80.18)" id="use36487" width="159" height="194" xlink:href="#glyph1-1"/>
  <use transform="translate(74.17,80.18)" id="use36491" width="159" height="194" xlink:href="#glyph3-1"/>
  <use transform="translate(78.81,80.18)" id="use36495" width="159" height="194" xlink:href="#glyph1-2"/>
  <use transform="translate(119.07,80.18)" id="use36499" width="159" height="194" xlink:href="#glyph1-1"/>
  <use transform="translate(122.36,80.18)" id="use36503" width="159" height="194" xlink:href="#glyph3-2"/>
  <use transform="translate(127,80.18)" id="use36507" width="159" height="194" xlink:href="#glyph1-2"/>
  <use transform="translate(24.682,6.223)" id="use36511" width="159" height="194" xlink:href="#glyph0-4"/>
  <use transform="translate(29.564,6.223)" id="use36513" width="159" height="194" xlink:href="#glyph0-5"/>
  <use transform="translate(32.12,6.223)" id="use36515" width="159" height="194" xlink:href="#glyph0-6"/>
  <use transform="translate(36,6.223)" id="use36517" width="159" height="194" xlink:href="#glyph0-7"/>
  <use transform="translate(39.828,6.223)" id="use36519" width="159" height="194" xlink:href="#glyph0-8"/>
  <use transform="translate(41.22,74.12)" id="use36523" width="159" height="194" xlink:href="#glyph0-9"/>
  <use transform="translate(33.638,49.579)" id="use36527" width="159" height="194" xlink:href="#glyph0-10"/>
  <use transform="translate(37.518,49.579)" id="use36531" width="159" height="194" xlink:href="#glyph2-2"/>
  <use transform="translate(41.22,49.579)" id="use36535" width="159" height="194" xlink:href="#glyph0-11"/>
  <use transform="translate(41.22,25.933)" id="use36539" width="159" height="194" xlink:href="#glyph0-10"/>
 </g>
</svg>
