<?xml version="1.0" encoding="UTF-8"?>
<svg xmlns="http://www.w3.org/2000/svg" xmlns:xlink="http://www.w3.org/1999/xlink" width="427pt" height="493pt" viewBox="0 0 247 285" version="1.1">
<defs>
<g>
<symbol overflow="visible" id="glyph0-0">
<path style="stroke:none;" d=""/>
</symbol>
<symbol overflow="visible" id="glyph0-1">
<path style="stroke:none;" d="M 1 -0.171875 C 1.359375 0.078125 1.859375 0.125 2.25 -0.046875 C 2.453125 -0.125 2.640625 -0.265625 2.796875 -0.4375 C 2.8125 -0.359375 2.84375 -0.296875 2.890625 -0.234375 C 3.078125 0.03125 3.5 0.140625 3.796875 -0.015625 C 4.078125 -0.171875 4.25 -0.5 4.34375 -0.796875 C 4.375 -0.90625 4.40625 -1 4.421875 -1.09375 L 4.046875 -1.09375 C 4.015625 -1.09375 3.9375 -1.109375 3.921875 -1.09375 C 3.90625 -1.078125 3.90625 -1.046875 3.890625 -1.03125 C 3.859375 -0.8125 3.765625 -0.4375 3.625 -0.34375 C 3.546875 -0.3125 3.453125 -0.359375 3.390625 -0.40625 C 3.203125 -0.5625 3.296875 -0.8125 3.328125 -1.015625 C 3.359375 -1.171875 3.765625 -3.03125 3.765625 -3.09375 C 3.765625 -3.21875 3.671875 -3.296875 3.5625 -3.296875 C 3.453125 -3.296875 3.34375 -3.21875 3.28125 -3.125 C 3.25 -3.046875 3.234375 -2.96875 3.21875 -2.90625 L 3.140625 -2.515625 C 3.015625 -1.875 2.890625 -1.1875 2.53125 -0.71875 C 2.453125 -0.59375 2.328125 -0.484375 2.1875 -0.421875 C 1.984375 -0.3125 1.734375 -0.3125 1.53125 -0.40625 C 1.296875 -0.515625 1.203125 -0.78125 1.21875 -1.015625 C 1.21875 -1.25 1.28125 -1.46875 1.328125 -1.6875 C 1.359375 -1.8125 1.625 -3.09375 1.625 -3.140625 C 1.625 -3.234375 1.578125 -3.328125 1.46875 -3.34375 C 1.34375 -3.359375 1.21875 -3.296875 1.15625 -3.171875 C 1.109375 -3.109375 1.09375 -3.03125 1.09375 -2.953125 C 0.859375 -1.921875 0.453125 0.109375 0.265625 0.9375 C 0.234375 1.03125 0.203125 1.15625 0.3125 1.234375 C 0.453125 1.34375 0.671875 1.234375 0.734375 1.09375 C 0.75 1.03125 1 -0.125 1 -0.171875 Z M 1 -0.171875 "/>
</symbol>
<symbol overflow="visible" id="glyph0-2">
<path style="stroke:none;" d="M 1.765625 -4.84375 L 0.75 0 L 2.203125 0 C 2.453125 0 2.703125 0.015625 2.96875 0 C 3.78125 -0.078125 4.578125 -0.484375 4.875 -1.109375 C 5.03125 -1.5 4.953125 -1.859375 4.625 -2.140625 C 4.359375 -2.359375 4.015625 -2.484375 3.671875 -2.53125 C 3.8125 -2.578125 3.9375 -2.59375 4.078125 -2.640625 C 4.59375 -2.8125 5.15625 -3.171875 5.21875 -3.703125 C 5.21875 -3.75 5.21875 -3.8125 5.21875 -3.875 C 5.140625 -4.28125 4.875 -4.484375 4.53125 -4.640625 C 4.125 -4.84375 3.75 -4.84375 3.21875 -4.84375 L 1.765625 -4.84375 Z M 1.828125 -2.703125 C 1.84375 -2.859375 2.09375 -3.921875 2.171875 -4.296875 C 2.1875 -4.359375 2.171875 -4.421875 2.265625 -4.421875 L 2.828125 -4.421875 C 3.3125 -4.421875 3.828125 -4.453125 4.296875 -4.21875 C 4.46875 -4.125 4.6875 -4 4.71875 -3.78125 C 4.78125 -3.46875 4.515625 -3.21875 4.28125 -3.0625 C 4.234375 -3.03125 4.1875 -3.015625 4.140625 -2.984375 C 3.828125 -2.828125 3.484375 -2.75 3.125 -2.71875 C 2.9375 -2.703125 2.75 -2.703125 2.5625 -2.703125 L 1.828125 -2.703125 Z M 1.34375 -0.40625 C 1.359375 -0.515625 1.4375 -0.859375 1.453125 -0.90625 C 1.484375 -1.09375 1.6875 -2.015625 1.71875 -2.171875 C 1.734375 -2.25 1.71875 -2.328125 1.8125 -2.328125 L 2.515625 -2.328125 C 2.671875 -2.328125 2.84375 -2.328125 2.984375 -2.328125 C 3.375 -2.3125 3.765625 -2.234375 4.09375 -2.015625 C 4.265625 -1.90625 4.453125 -1.734375 4.453125 -1.453125 C 4.453125 -1.046875 4.078125 -0.796875 3.75 -0.640625 C 3.515625 -0.515625 3.109375 -0.421875 2.8125 -0.421875 C 2.328125 -0.40625 1.828125 -0.40625 1.34375 -0.40625 Z M 1.34375 -0.40625 "/>
</symbol>
<symbol overflow="visible" id="glyph0-3">
<path style="stroke:none;" d="M 3.09375 -5.21875 C 2.953125 -5.1875 2.921875 -5 2.875 -4.890625 L 0.90625 0.109375 L 0.453125 1.234375 C 0.4375 1.28125 0.40625 1.328125 0.40625 1.390625 C 0.40625 1.484375 0.5 1.546875 0.59375 1.546875 C 0.6875 1.53125 0.71875 1.46875 0.75 1.390625 C 0.78125 1.328125 3.21875 -4.84375 3.265625 -5 C 3.28125 -5.03125 3.296875 -5.078125 3.28125 -5.109375 C 3.25 -5.1875 3.15625 -5.234375 3.09375 -5.21875 Z M 3.09375 -5.21875 "/>
</symbol>
<symbol overflow="visible" id="glyph0-4">
<path style="stroke:none;" d="M 0.21875 0 L 0.578125 0 L 0.71875 -0.015625 L 0.796875 -0.109375 C 1.0625 -0.53125 1.3125 -0.96875 1.609375 -1.375 L 1.671875 -1.390625 L 3.96875 -1.390625 C 4.0625 -0.9375 4.125 -0.453125 4.25 -0.015625 C 4.390625 0.03125 4.625 -0.015625 4.796875 0 C 4.78125 -0.140625 3.9375 -4.359375 3.890625 -4.609375 C 3.875 -4.65625 3.84375 -4.890625 3.8125 -4.90625 C 3.765625 -4.90625 3.71875 -4.90625 3.671875 -4.90625 L 3.40625 -4.90625 C 3.359375 -4.90625 3.296875 -4.921875 3.265625 -4.890625 C 3.21875 -4.859375 3.078125 -4.609375 3.078125 -4.609375 L 1.0625 -1.375 L 0.515625 -0.46875 C 0.40625 -0.328125 0.296875 -0.15625 0.21875 0 Z M 3.40625 -4.328125 C 3.546875 -3.484375 3.71875 -2.640625 3.875 -1.8125 L 1.859375 -1.8125 C 2.359375 -2.65625 2.890625 -3.484375 3.40625 -4.328125 Z M 3.40625 -4.328125 "/>
</symbol>
<symbol overflow="visible" id="glyph0-5">
<path style="stroke:none;" d="M 1.75 -4.828125 L 0.734375 0 C 1.921875 0 3.15625 0.015625 4.3125 0 C 4.359375 -0.125 4.390625 -0.28125 4.40625 -0.4375 L 1.359375 -0.4375 L 1.75 -2.296875 C 2.640625 -2.3125 3.609375 -2.28125 4.46875 -2.3125 C 4.515625 -2.421875 4.546875 -2.578125 4.578125 -2.703125 L 1.84375 -2.703125 C 1.953125 -3.28125 2.078125 -3.84375 2.1875 -4.40625 L 5.15625 -4.40625 L 5.234375 -4.828125 L 1.75 -4.828125 Z M 1.75 -4.828125 "/>
</symbol>
<symbol overflow="visible" id="glyph1-0">
<path style="stroke:none;" d=""/>
</symbol>
<symbol overflow="visible" id="glyph1-1">
<path style="stroke:none;" d="M 0.78125 -4.21875 L 0.78125 -3.828125 C 1.125 -3.828125 1.46875 -3.890625 1.78125 -4.03125 L 1.78125 -0.390625 L 0.8125 -0.390625 L 0.8125 0 L 3.25 0 L 3.25 -0.390625 L 2.28125 -0.390625 L 2.28125 -4.6875 C 2.25 -4.6875 2.1875 -4.6875 2.15625 -4.671875 C 2.109375 -4.65625 2.0625 -4.59375 2.015625 -4.5625 C 1.734375 -4.328125 1.21875 -4.21875 0.78125 -4.21875 Z M 0.78125 -4.21875 "/>
</symbol>
<symbol overflow="visible" id="glyph1-2">
<path style="stroke:none;" d="M 0.625 -3.203125 C 0.734375 -3.609375 0.90625 -4.046875 1.34375 -4.203125 C 1.5 -4.265625 1.671875 -4.28125 1.859375 -4.265625 C 2.21875 -4.234375 2.578125 -4.09375 2.796875 -3.78125 C 2.9375 -3.578125 2.984375 -3.328125 2.953125 -3.078125 C 2.875 -2.40625 2.28125 -1.984375 1.796875 -1.609375 C 1.40625 -1.3125 0.59375 -0.59375 0.59375 -0.59375 L 0.453125 -0.484375 C 0.390625 -0.40625 0.390625 -0.421875 0.390625 -0.265625 L 0.390625 0 L 3.484375 0 L 3.484375 -0.4375 L 0.84375 -0.4375 C 1.109375 -0.671875 1.90625 -1.34375 2.140625 -1.515625 C 2.578125 -1.84375 3.0625 -2.15625 3.34375 -2.640625 C 3.640625 -3.203125 3.453125 -3.921875 2.96875 -4.3125 C 2.4375 -4.765625 1.46875 -4.828125 0.875 -4.390625 C 0.65625 -4.234375 0.5 -3.984375 0.390625 -3.734375 C 0.375 -3.671875 0.328125 -3.609375 0.328125 -3.546875 C 0.34375 -3.515625 0.390625 -3.484375 0.40625 -3.4375 C 0.46875 -3.359375 0.546875 -3.265625 0.625 -3.203125 Z M 0.625 -3.203125 "/>
</symbol>
<symbol overflow="visible" id="glyph1-3">
<path style="stroke:none;" d="M 0.6875 -3.546875 L 0.6875 -3.546875 C 0.96875 -4.03125 1.515625 -4.34375 2.078125 -4.28125 C 2.484375 -4.265625 2.875 -4.03125 2.8125 -3.546875 C 2.765625 -3.15625 2.453125 -2.859375 2.078125 -2.75 C 1.875 -2.6875 1.515625 -2.671875 1.296875 -2.65625 L 1.296875 -2.265625 L 1.75 -2.265625 C 1.84375 -2.265625 1.9375 -2.28125 2.046875 -2.265625 C 2.296875 -2.25 2.546875 -2.15625 2.734375 -1.984375 C 3.046875 -1.6875 3.09375 -1.15625 2.90625 -0.78125 C 2.8125 -0.640625 2.703125 -0.515625 2.546875 -0.4375 C 2.1875 -0.21875 1.734375 -0.265625 1.34375 -0.390625 C 1.078125 -0.46875 0.828125 -0.609375 0.625 -0.796875 C 0.53125 -0.875 0.46875 -0.953125 0.390625 -1.03125 C 0.375 -0.953125 0.359375 -0.859375 0.34375 -0.78125 C 0.328125 -0.671875 0.3125 -0.640625 0.390625 -0.5625 L 0.515625 -0.4375 C 0.71875 -0.265625 0.953125 -0.125 1.203125 -0.015625 C 1.75 0.1875 2.390625 0.171875 2.890625 -0.140625 C 3.375 -0.46875 3.734375 -1.09375 3.453125 -1.6875 C 3.265625 -2.09375 2.921875 -2.328125 2.46875 -2.46875 C 2.734375 -2.59375 2.921875 -2.703125 3.09375 -2.953125 C 3.234375 -3.15625 3.390625 -3.46875 3.3125 -3.796875 C 3.25 -4.140625 2.96875 -4.40625 2.65625 -4.546875 C 2.203125 -4.75 1.65625 -4.71875 1.203125 -4.515625 C 0.96875 -4.421875 0.765625 -4.265625 0.59375 -4.078125 C 0.5625 -4.0625 0.453125 -3.921875 0.453125 -3.875 C 0.453125 -3.84375 0.625 -3.609375 0.6875 -3.546875 Z M 0.6875 -3.546875 "/>
</symbol>
<symbol overflow="visible" id="glyph1-4">
<path style="stroke:none;" d="M 0.21875 -1.21875 L 2.34375 -1.21875 L 2.34375 0 L 2.8125 0 L 2.8125 -1.21875 L 3.65625 -1.21875 L 3.65625 -1.640625 L 2.8125 -1.640625 L 2.8125 -4.640625 L 2.421875 -4.640625 C 2.375 -4.640625 2.296875 -4.65625 2.265625 -4.625 C 2.203125 -4.578125 2.109375 -4.40625 2.078125 -4.390625 L 1.671875 -3.78125 C 1.515625 -3.546875 0.375 -1.875 0.296875 -1.75 C 0.21875 -1.671875 0.21875 -1.640625 0.21875 -1.5 L 0.21875 -1.21875 Z M 2.359375 -4.1875 L 2.359375 -1.640625 L 0.71875 -1.640625 L 1.765625 -3.1875 C 1.953125 -3.515625 2.1875 -3.828125 2.359375 -4.1875 Z M 2.359375 -4.1875 "/>
</symbol>
<symbol overflow="visible" id="glyph1-5">
<path style="stroke:none;" d="M 0.65625 -4.578125 L 0.65625 -2.03125 L 0.953125 -2.03125 C 1 -2.03125 1.046875 -2.015625 1.09375 -2.046875 C 1.125 -2.0625 1.15625 -2.109375 1.171875 -2.140625 C 1.21875 -2.203125 1.265625 -2.265625 1.328125 -2.3125 C 1.625 -2.546875 2.09375 -2.625 2.453125 -2.453125 C 2.84375 -2.28125 2.953125 -1.828125 2.953125 -1.4375 C 2.953125 -1.1875 2.90625 -0.9375 2.78125 -0.734375 C 2.5 -0.3125 1.921875 -0.21875 1.453125 -0.328125 C 1.0625 -0.421875 0.78125 -0.640625 0.578125 -0.921875 L 0.5625 -0.921875 C 0.546875 -0.890625 0.34375 -0.609375 0.34375 -0.578125 C 0.34375 -0.546875 0.375 -0.53125 0.390625 -0.515625 C 0.625 -0.28125 0.84375 -0.109375 1.1875 0 C 1.828125 0.21875 2.578125 0.109375 3.0625 -0.390625 C 3.28125 -0.625 3.421875 -0.90625 3.46875 -1.21875 C 3.59375 -2.09375 2.953125 -3.015625 1.875 -2.921875 C 1.5625 -2.890625 1.359375 -2.765625 1.140625 -2.59375 L 1.140625 -4.15625 L 3.21875 -4.15625 L 3.21875 -4.578125 L 0.65625 -4.578125 Z M 0.65625 -4.578125 "/>
</symbol>
<symbol overflow="visible" id="glyph1-6">
<path style="stroke:none;" d="M 1.828125 -4.6875 C 1.671875 -4.65625 1.5 -4.640625 1.359375 -4.5625 C 0.625 -4.28125 0.375 -3.34375 0.375 -2.40625 C 0.375 -2.265625 0.375 -2.125 0.375 -1.96875 C 0.390625 -1.328125 0.546875 -0.6875 0.90625 -0.296875 C 1.21875 0.015625 1.671875 0.140625 2.09375 0.109375 C 2.359375 0.078125 2.578125 -0.015625 2.765625 -0.140625 C 3.359375 -0.5625 3.5 -1.421875 3.5 -2.359375 C 3.5 -3.125 3.359375 -3.8125 2.984375 -4.234375 C 2.703125 -4.546875 2.265625 -4.71875 1.828125 -4.6875 Z M 2.421875 -4.171875 C 2.5 -4.125 2.5625 -4.078125 2.625 -4.015625 C 2.890625 -3.765625 2.96875 -3.265625 2.984375 -2.796875 C 2.984375 -2.703125 2.984375 -2.609375 2.984375 -2.515625 L 2.984375 -2.15625 C 2.984375 -1.5625 2.9375 -0.984375 2.671875 -0.625 C 2.328125 -0.171875 1.578125 -0.15625 1.21875 -0.609375 C 1.125 -0.703125 1.078125 -0.828125 1.03125 -0.9375 C 0.90625 -1.296875 0.875 -1.734375 0.875 -2.1875 L 0.875 -2.546875 C 0.875 -2.640625 0.890625 -2.71875 0.890625 -2.8125 C 0.890625 -3.359375 1.03125 -3.90625 1.390625 -4.140625 C 1.671875 -4.3125 2.09375 -4.359375 2.421875 -4.171875 Z M 2.421875 -4.171875 "/>
</symbol>
<symbol overflow="visible" id="glyph2-0">
<path style="stroke:none;" d=""/>
</symbol>
<symbol overflow="visible" id="glyph2-1">
<path style="stroke:none;" d="M 0.734375 -2 C 0.59375 -1.953125 0.578125 -1.734375 0.71875 -1.6875 C 0.765625 -1.671875 0.8125 -1.671875 0.84375 -1.671875 L 4.78125 -1.671875 C 4.875 -1.671875 5.015625 -1.65625 5.09375 -1.71875 C 5.171875 -1.8125 5.125 -1.96875 5 -2 C 4.921875 -2.015625 4.828125 -2 4.734375 -2 L 0.859375 -2 C 0.828125 -2 0.78125 -2 0.734375 -2 Z M 0.734375 -2 "/>
</symbol>
<symbol overflow="visible" id="glyph3-0">
<path style="stroke:none;" d=""/>
</symbol>
<symbol overflow="visible" id="glyph3-1">
<path style="stroke:none;" d="M -0.59375 -5.09375 L 0.65625 -0.328125 C 1.71875 -0.859375 2.828125 -1.390625 3.859375 -1.9375 C 3.828125 -2.0625 3.796875 -2.21875 3.734375 -2.359375 L 1.015625 -1 L 0.53125 -2.828125 C 1.328125 -3.25 2.21875 -3.65625 2.96875 -4.0625 C 2.953125 -4.1875 2.90625 -4.34375 2.890625 -4.46875 L 0.453125 -3.25 C 0.28125 -3.8125 0.140625 -4.375 -0.015625 -4.921875 L 2.640625 -6.25 L 2.53125 -6.65625 L -0.59375 -5.09375 Z M -0.59375 -5.09375 "/>
</symbol>
<symbol overflow="visible" id="glyph3-2">
<path style="stroke:none;" d="M 0.203125 -0.09375 L 0.515625 -0.265625 L 0.640625 -0.34375 L 0.671875 -0.453125 C 0.71875 -0.9375 0.734375 -1.453125 0.828125 -1.953125 L 0.875 -2 L 2.921875 -3.03125 C 3.203125 -2.65625 3.484375 -2.25 3.796875 -1.921875 C 3.9375 -1.9375 4.140625 -2.09375 4.296875 -2.140625 C 4.21875 -2.265625 1.5625 -5.65625 1.421875 -5.859375 C 1.390625 -5.890625 1.25 -6.09375 1.203125 -6.09375 C 1.15625 -6.078125 1.125 -6.0625 1.078125 -6.03125 L 0.84375 -5.921875 C 0.796875 -5.890625 0.75 -5.875 0.734375 -5.84375 C 0.703125 -5.78125 0.6875 -5.5 0.6875 -5.5 L 0.34375 -1.703125 L 0.265625 -0.65625 C 0.21875 -0.484375 0.203125 -0.28125 0.203125 -0.09375 Z M 1.109375 -5.40625 C 1.609375 -4.703125 2.140625 -4.03125 2.65625 -3.359375 L 0.84375 -2.453125 C 0.921875 -3.4375 1.015625 -4.40625 1.109375 -5.40625 Z M 1.109375 -5.40625 "/>
</symbol>
<symbol overflow="visible" id="glyph3-3">
<path style="stroke:none;" d="M 0.8125 -0.609375 C 1.25 -0.546875 1.71875 -0.71875 2 -1.046875 C 2.125 -1.203125 2.234375 -1.421875 2.296875 -1.640625 C 2.359375 -1.59375 2.40625 -1.53125 2.46875 -1.5 C 2.765625 -1.34375 3.1875 -1.4375 3.390625 -1.71875 C 3.5625 -1.984375 3.578125 -2.359375 3.53125 -2.65625 C 3.5 -2.765625 3.484375 -2.859375 3.46875 -2.96875 L 3.140625 -2.796875 C 3.109375 -2.78125 3.015625 -2.75 3.015625 -2.734375 C 3.015625 -2.71875 3.03125 -2.6875 3.015625 -2.65625 C 3.09375 -2.453125 3.15625 -2.078125 3.078125 -1.9375 C 3.03125 -1.875 2.9375 -1.875 2.84375 -1.875 C 2.609375 -1.9375 2.59375 -2.1875 2.515625 -2.390625 C 2.46875 -2.546875 2 -4.390625 1.96875 -4.453125 C 1.921875 -4.5625 1.8125 -4.59375 1.71875 -4.546875 C 1.625 -4.5 1.546875 -4.375 1.53125 -4.265625 C 1.546875 -4.171875 1.5625 -4.109375 1.578125 -4.03125 L 1.6875 -3.65625 C 1.859375 -3.015625 2.046875 -2.359375 1.9375 -1.78125 C 1.921875 -1.625 1.859375 -1.484375 1.765625 -1.359375 C 1.640625 -1.171875 1.40625 -1.0625 1.1875 -1.046875 C 0.921875 -1.046875 0.734375 -1.234375 0.640625 -1.453125 C 0.53125 -1.671875 0.484375 -1.890625 0.4375 -2.109375 C 0.40625 -2.234375 0.0625 -3.5 0.046875 -3.546875 C 0 -3.625 -0.078125 -3.671875 -0.1875 -3.640625 C -0.296875 -3.609375 -0.375 -3.5 -0.390625 -3.359375 C -0.40625 -3.28125 -0.375 -3.1875 -0.34375 -3.125 C -0.09375 -2.109375 0.453125 -0.109375 0.65625 0.71875 C 0.671875 0.8125 0.703125 0.9375 0.828125 0.96875 C 1.015625 1 1.140625 0.8125 1.140625 0.65625 C 1.140625 0.59375 0.828125 -0.5625 0.8125 -0.609375 Z M 0.8125 -0.609375 "/>
</symbol>
<symbol overflow="visible" id="glyph3-4">
<path style="stroke:none;" d="M -0.59375 -5.125 L 0.671875 -0.328125 L 1.96875 -0.984375 C 2.1875 -1.09375 2.421875 -1.1875 2.65625 -1.328125 C 3.34375 -1.75 3.875 -2.484375 3.859375 -3.171875 C 3.828125 -3.59375 3.59375 -3.875 3.1875 -3.984375 C 2.828125 -4.0625 2.484375 -4.015625 2.140625 -3.90625 C 2.25 -4.015625 2.359375 -4.078125 2.453125 -4.1875 C 2.84375 -4.578125 3.1875 -5.15625 3.015625 -5.65625 C 3 -5.703125 2.96875 -5.75 2.9375 -5.8125 C 2.671875 -6.125 2.34375 -6.203125 1.96875 -6.1875 C 1.515625 -6.171875 1.1875 -6 0.703125 -5.765625 L -0.59375 -5.125 Z M 0.4375 -3.234375 C 0.375 -3.390625 0.125 -4.4375 0.015625 -4.8125 C 0 -4.875 -0.046875 -4.921875 0.046875 -4.96875 L 0.546875 -5.21875 C 0.984375 -5.4375 1.421875 -5.703125 1.953125 -5.6875 C 2.15625 -5.6875 2.390625 -5.671875 2.53125 -5.484375 C 2.734375 -5.25 2.59375 -4.890625 2.453125 -4.65625 C 2.421875 -4.59375 2.40625 -4.578125 2.359375 -4.53125 C 2.15625 -4.25 1.875 -4.015625 1.578125 -3.84375 C 1.421875 -3.734375 1.25 -3.65625 1.09375 -3.5625 L 0.4375 -3.234375 Z M 1.015625 -0.96875 C 0.984375 -1.078125 0.890625 -1.40625 0.890625 -1.46875 C 0.84375 -1.65625 0.609375 -2.546875 0.5625 -2.703125 C 0.546875 -2.796875 0.484375 -2.84375 0.578125 -2.890625 L 1.203125 -3.203125 C 1.34375 -3.28125 1.5 -3.34375 1.625 -3.421875 C 1.984375 -3.578125 2.359375 -3.6875 2.75 -3.625 C 2.953125 -3.609375 3.203125 -3.546875 3.328125 -3.296875 C 3.515625 -2.9375 3.28125 -2.546875 3.078125 -2.25 C 2.90625 -2.046875 2.59375 -1.765625 2.328125 -1.640625 C 1.890625 -1.40625 1.453125 -1.171875 1.015625 -0.96875 Z M 1.015625 -0.96875 "/>
</symbol>
<symbol overflow="visible" id="glyph4-0">
<path style="stroke:none;" d=""/>
</symbol>
<symbol overflow="visible" id="glyph4-1">
<path style="stroke:none;" d="M -0.421875 -3.65625 L -0.3125 -3.28125 L 0.46875 -0.234375 L 0.71875 -0.359375 C 0.734375 -0.375 0.796875 -0.390625 0.8125 -0.421875 C 0.8125 -0.453125 0.796875 -0.46875 0.796875 -0.515625 C 0.78125 -0.578125 -0.0625 -3.796875 -0.078125 -3.828125 L -0.421875 -3.65625 Z M -0.421875 -3.65625 "/>
</symbol>
<symbol overflow="visible" id="glyph5-0">
<path style="stroke:none;" d=""/>
</symbol>
<symbol overflow="visible" id="glyph5-1">
<path style="stroke:none;" d="M -0.8125 -2.59375 C -0.828125 -2.484375 -0.703125 -2.390625 -0.609375 -2.40625 C -0.5625 -2.421875 -0.515625 -2.453125 -0.484375 -2.46875 L 3.5 -4.46875 C 3.5625 -4.5 3.609375 -4.515625 3.640625 -4.5625 C 3.671875 -4.6875 3.546875 -4.828125 3.4375 -4.765625 C 3.3125 -4.734375 3.234375 -4.671875 3.15625 -4.625 L -0.625 -2.734375 C -0.71875 -2.6875 -0.78125 -2.671875 -0.8125 -2.59375 Z M -0.140625 -1.265625 C -0.15625 -1.15625 -0.046875 -1.0625 0.046875 -1.09375 C 0.09375 -1.109375 0.140625 -1.125 0.171875 -1.140625 L 4.15625 -3.140625 C 4.21875 -3.171875 4.265625 -3.1875 4.296875 -3.25 C 4.328125 -3.375 4.21875 -3.5 4.09375 -3.453125 C 3.96875 -3.421875 3.890625 -3.359375 3.8125 -3.3125 L 0.03125 -1.421875 C -0.0625 -1.375 -0.125 -1.34375 -0.140625 -1.265625 Z M -0.140625 -1.265625 "/>
</symbol>
<symbol overflow="visible" id="glyph5-2">
<path style="stroke:none;" d="M 1.546875 -3 L -0.28125 -2.09375 C -0.3125 -2.0625 -0.375 -2.046875 -0.421875 -2.015625 C -0.46875 -1.96875 -0.5 -1.890625 -0.46875 -1.84375 C -0.4375 -1.765625 -0.359375 -1.71875 -0.28125 -1.75 C -0.234375 -1.765625 -0.171875 -1.78125 -0.140625 -1.8125 L 1.6875 -2.71875 L 2.59375 -0.890625 C 2.625 -0.859375 2.625 -0.796875 2.671875 -0.75 C 2.71875 -0.71875 2.796875 -0.703125 2.859375 -0.71875 C 2.921875 -0.765625 2.96875 -0.828125 2.9375 -0.890625 C 2.921875 -0.953125 2.890625 -1 2.859375 -1.03125 L 1.953125 -2.859375 L 3.796875 -3.78125 C 3.828125 -3.796875 3.875 -3.8125 3.921875 -3.859375 C 3.96875 -3.890625 3.984375 -3.96875 3.953125 -4.046875 C 3.921875 -4.09375 3.859375 -4.140625 3.78125 -4.125 C 3.734375 -4.09375 3.6875 -4.078125 3.65625 -4.0625 L 1.8125 -3.140625 L 0.890625 -4.96875 C 0.875 -5 0.859375 -5.0625 0.828125 -5.109375 C 0.796875 -5.15625 0.703125 -5.1875 0.640625 -5.140625 C 0.578125 -5.125 0.546875 -5.046875 0.5625 -4.96875 C 0.5625 -4.90625 0.609375 -4.859375 0.625 -4.828125 L 1.546875 -3 Z M 1.546875 -3 "/>
</symbol>
<symbol overflow="visible" id="glyph6-0">
<path style="stroke:none;" d=""/>
</symbol>
<symbol overflow="visible" id="glyph6-1">
<path style="stroke:none;" d="M -0.15625 -5.125 L 0.6875 -0.265625 C 1.78125 -0.703125 2.9375 -1.140625 4.015625 -1.59375 C 4 -1.71875 3.96875 -1.875 3.9375 -2.03125 L 1.109375 -0.90625 L 0.78125 -2.78125 C 1.609375 -3.125 2.515625 -3.453125 3.3125 -3.796875 C 3.3125 -3.90625 3.28125 -4.0625 3.25 -4.203125 L 0.71875 -3.1875 C 0.609375 -3.765625 0.515625 -4.34375 0.40625 -4.90625 L 3.171875 -5.984375 L 3.078125 -6.40625 L -0.15625 -5.125 Z M -0.15625 -5.125 "/>
</symbol>
<symbol overflow="visible" id="glyph7-0">
<path style="stroke:none;" d=""/>
</symbol>
<symbol overflow="visible" id="glyph7-1">
<path style="stroke:none;" d="M -0.09375 -3.671875 L -0.03125 -3.296875 L 0.5 -0.203125 L 0.75 -0.296875 C 0.765625 -0.3125 0.828125 -0.3125 0.84375 -0.34375 C 0.84375 -0.390625 0.828125 -0.421875 0.828125 -0.453125 C 0.828125 -0.5 0.265625 -3.796875 0.265625 -3.8125 L -0.09375 -3.671875 Z M -0.09375 -3.671875 "/>
</symbol>
<symbol overflow="visible" id="glyph8-0">
<path style="stroke:none;" d=""/>
</symbol>
<symbol overflow="visible" id="glyph8-1">
<path style="stroke:none;" d="M 3.71875 -3.53125 L 0.65625 0.328125 C 1.71875 0.859375 2.828125 1.421875 3.859375 1.9375 C 3.953125 1.84375 4.046875 1.71875 4.140625 1.578125 L 1.421875 0.21875 L 2.59375 -1.265625 C 3.390625 -0.875 4.25 -0.4375 5.03125 -0.0625 C 5.109375 -0.15625 5.21875 -0.28125 5.296875 -0.375 L 2.859375 -1.59375 C 3.21875 -2.0625 3.578125 -2.5 3.921875 -2.953125 L 6.578125 -1.625 L 6.84375 -1.96875 L 3.71875 -3.53125 Z M 3.71875 -3.53125 "/>
</symbol>
<symbol overflow="visible" id="glyph8-2">
<path style="stroke:none;" d="M 0.203125 0.09375 L 0.515625 0.265625 L 0.640625 0.3125 L 0.765625 0.265625 C 1.1875 0 1.609375 -0.265625 2.046875 -0.515625 L 2.125 -0.5 L 4.171875 0.53125 C 4.046875 0.96875 3.890625 1.4375 3.796875 1.890625 C 3.90625 2 4.140625 2.0625 4.296875 2.140625 C 4.34375 2.015625 5.46875 -2.125 5.546875 -2.390625 C 5.546875 -2.421875 5.625 -2.65625 5.609375 -2.6875 C 5.5625 -2.703125 5.53125 -2.71875 5.484375 -2.75 L 5.25 -2.859375 C 5.203125 -2.890625 5.15625 -2.9375 5.109375 -2.90625 C 5.046875 -2.90625 4.8125 -2.75 4.8125 -2.75 L 1.5625 -0.765625 L 0.671875 -0.1875 C 0.5 -0.109375 0.328125 0 0.203125 0.09375 Z M 4.984375 -2.34375 C 4.734375 -1.515625 4.515625 -0.6875 4.28125 0.109375 L 2.46875 -0.796875 C 3.296875 -1.3125 4.140625 -1.8125 4.984375 -2.34375 Z M 4.984375 -2.34375 "/>
</symbol>
<symbol overflow="visible" id="glyph8-3">
<path style="stroke:none;" d="M 0.96875 0.296875 C 1.1875 0.671875 1.59375 0.9375 2.03125 0.953125 C 2.25 0.984375 2.484375 0.953125 2.703125 0.859375 C 2.671875 0.9375 2.6875 1 2.6875 1.09375 C 2.734375 1.40625 3.0625 1.6875 3.390625 1.6875 C 3.71875 1.671875 4.015625 1.453125 4.25 1.21875 C 4.3125 1.140625 4.390625 1.078125 4.4375 1 L 4.109375 0.828125 C 4.078125 0.8125 4.015625 0.78125 3.984375 0.765625 C 3.984375 0.78125 3.96875 0.8125 3.953125 0.8125 C 3.8125 1.015625 3.5625 1.296875 3.390625 1.3125 C 3.3125 1.3125 3.25 1.21875 3.21875 1.15625 C 3.109375 0.9375 3.3125 0.75 3.421875 0.578125 C 3.53125 0.453125 4.71875 -1.015625 4.75 -1.078125 C 4.796875 -1.1875 4.75 -1.3125 4.65625 -1.359375 C 4.5625 -1.40625 4.421875 -1.375 4.34375 -1.328125 C 4.265625 -1.265625 4.21875 -1.203125 4.171875 -1.15625 L 3.9375 -0.84375 C 3.546875 -0.328125 3.109375 0.234375 2.59375 0.5 C 2.453125 0.5625 2.296875 0.609375 2.140625 0.609375 C 1.921875 0.609375 1.6875 0.5 1.5625 0.328125 C 1.390625 0.109375 1.421875 -0.171875 1.546875 -0.359375 C 1.65625 -0.578125 1.796875 -0.734375 1.9375 -0.921875 C 2.03125 -1.015625 2.84375 -2.03125 2.859375 -2.078125 C 2.90625 -2.15625 2.890625 -2.265625 2.8125 -2.328125 C 2.703125 -2.390625 2.5625 -2.40625 2.453125 -2.328125 C 2.375 -2.28125 2.34375 -2.21875 2.3125 -2.15625 C 1.625 -1.328125 0.359375 0.296875 -0.1875 0.96875 C -0.265625 1.03125 -0.328125 1.125 -0.265625 1.25 C -0.203125 1.40625 0.046875 1.40625 0.171875 1.3125 C 0.203125 1.25 0.953125 0.34375 0.96875 0.296875 Z M 0.96875 0.296875 "/>
</symbol>
<symbol overflow="visible" id="glyph8-4">
<path style="stroke:none;" d="M 3.75 -3.53125 L 0.671875 0.328125 L 1.96875 0.984375 C 2.1875 1.09375 2.421875 1.21875 2.65625 1.328125 C 3.40625 1.625 4.3125 1.609375 4.859375 1.203125 C 5.171875 0.90625 5.25 0.5625 5.09375 0.171875 C 4.953125 -0.15625 4.703125 -0.421875 4.421875 -0.625 C 4.5625 -0.609375 4.671875 -0.546875 4.828125 -0.53125 C 5.375 -0.453125 6.03125 -0.53125 6.328125 -0.96875 C 6.34375 -1.015625 6.375 -1.0625 6.40625 -1.125 C 6.515625 -1.53125 6.375 -1.828125 6.125 -2.125 C 5.859375 -2.484375 5.53125 -2.65625 5.046875 -2.890625 L 3.75 -3.53125 Z M 2.84375 -1.609375 C 2.9375 -1.734375 3.625 -2.5625 3.859375 -2.875 C 3.90625 -2.90625 3.921875 -2.984375 4.015625 -2.9375 L 4.515625 -2.6875 C 4.953125 -2.46875 5.421875 -2.265625 5.734375 -1.84375 C 5.84375 -1.6875 5.984375 -1.484375 5.90625 -1.265625 C 5.828125 -0.96875 5.46875 -0.859375 5.203125 -0.8125 C 5.140625 -0.8125 5.09375 -0.828125 5.046875 -0.8125 C 4.6875 -0.8125 4.34375 -0.890625 4.015625 -1.03125 C 3.828125 -1.109375 3.65625 -1.1875 3.5 -1.28125 L 2.84375 -1.609375 Z M 1.390625 0.25 C 1.453125 0.140625 1.671875 -0.125 1.703125 -0.15625 C 1.8125 -0.3125 2.421875 -1.046875 2.5 -1.171875 C 2.546875 -1.234375 2.578125 -1.3125 2.671875 -1.265625 L 3.296875 -0.953125 C 3.4375 -0.875 3.59375 -0.8125 3.71875 -0.734375 C 4.046875 -0.546875 4.359375 -0.3125 4.5625 0.03125 C 4.671875 0.203125 4.765625 0.453125 4.640625 0.703125 C 4.453125 1.0625 4 1.109375 3.640625 1.09375 C 3.375 1.109375 2.96875 1.015625 2.703125 0.890625 C 2.265625 0.6875 1.828125 0.453125 1.390625 0.25 Z M 1.390625 0.25 "/>
</symbol>
<symbol overflow="visible" id="glyph9-0">
<path style="stroke:none;" d=""/>
</symbol>
<symbol overflow="visible" id="glyph9-1">
<path style="stroke:none;" d="M 2.671875 -2.53125 L 2.4375 -2.21875 L 0.46875 0.234375 L 0.71875 0.359375 C 0.734375 0.375 0.796875 0.421875 0.8125 0.390625 C 0.84375 0.359375 0.859375 0.34375 0.890625 0.328125 C 0.9375 0.265625 3 -2.328125 3.015625 -2.359375 L 2.671875 -2.53125 Z M 2.671875 -2.53125 "/>
</symbol>
<symbol overflow="visible" id="glyph10-0">
<path style="stroke:none;" d=""/>
</symbol>
<symbol overflow="visible" id="glyph10-1">
<path style="stroke:none;" d="M 1.59375 -2.1875 C 1.484375 -2.140625 1.484375 -1.984375 1.546875 -1.9375 C 1.59375 -1.890625 1.640625 -1.890625 1.671875 -1.875 L 5.65625 0.125 C 5.71875 0.15625 5.765625 0.171875 5.828125 0.1875 C 5.953125 0.125 5.984375 -0.046875 5.875 -0.109375 C 5.78125 -0.171875 5.671875 -0.203125 5.59375 -0.25 L 1.8125 -2.140625 C 1.71875 -2.1875 1.6875 -2.234375 1.59375 -2.1875 Z M 0.921875 -0.859375 C 0.8125 -0.8125 0.828125 -0.65625 0.890625 -0.625 C 0.9375 -0.578125 0.984375 -0.5625 1.015625 -0.546875 L 5 1.453125 C 5.0625 1.484375 5.109375 1.5 5.171875 1.5 C 5.296875 1.4375 5.3125 1.28125 5.21875 1.203125 C 5.125 1.140625 5.015625 1.109375 4.9375 1.0625 L 1.15625 -0.828125 C 1.0625 -0.875 1 -0.90625 0.921875 -0.859375 Z M 0.921875 -0.859375 "/>
</symbol>
<symbol overflow="visible" id="glyph11-0">
<path style="stroke:none;" d=""/>
</symbol>
<symbol overflow="visible" id="glyph11-1">
<path style="stroke:none;" d="M 1.546875 -1.453125 C 1.40625 -1.484375 1.296875 -1.28125 1.390625 -1.1875 C 1.4375 -1.15625 1.46875 -1.140625 1.5 -1.125 L 5.03125 0.640625 C 5.109375 0.6875 5.21875 0.765625 5.3125 0.75 C 5.4375 0.6875 5.453125 0.53125 5.359375 0.453125 C 5.3125 0.40625 5.203125 0.375 5.125 0.34375 L 1.65625 -1.390625 C 1.625 -1.40625 1.59375 -1.4375 1.546875 -1.453125 Z M 1.546875 -1.453125 "/>
</symbol>
<symbol overflow="visible" id="glyph12-0">
<path style="stroke:none;" d=""/>
</symbol>
<symbol overflow="visible" id="glyph12-1">
<path style="stroke:none;" d="M 3.40625 -3.84375 L 0.6875 0.265625 C 1.78125 0.703125 2.9375 1.171875 4.015625 1.59375 C 4.09375 1.5 4.1875 1.34375 4.25 1.21875 L 1.421875 0.09375 L 2.46875 -1.5 C 3.296875 -1.1875 4.203125 -0.796875 5 -0.515625 C 5.09375 -0.59375 5.1875 -0.71875 5.25 -0.828125 L 2.71875 -1.84375 C 3.015625 -2.328125 3.359375 -2.8125 3.65625 -3.28125 L 6.421875 -2.203125 L 6.640625 -2.5625 L 3.40625 -3.84375 Z M 3.40625 -3.84375 "/>
</symbol>
<symbol overflow="visible" id="glyph13-0">
<path style="stroke:none;" d=""/>
</symbol>
<symbol overflow="visible" id="glyph13-1">
<path style="stroke:none;" d="M 2.4375 -2.734375 L 2.25 -2.421875 L 0.5 0.203125 L 0.75 0.296875 C 0.765625 0.3125 0.828125 0.34375 0.84375 0.3125 C 0.875 0.296875 0.890625 0.265625 0.921875 0.234375 C 0.953125 0.1875 2.796875 -2.578125 2.796875 -2.59375 L 2.4375 -2.734375 Z M 2.4375 -2.734375 "/>
</symbol>
<symbol overflow="visible" id="glyph13-2">
<path style="stroke:none;" d="M 1.5625 -3.09375 L 1.015625 0.21875 C 1.015625 0.28125 0.984375 0.359375 1 0.4375 C 1.125 0.5 1.25 0.546875 1.359375 0.578125 L 1.4375 0.53125 L 4.734375 -1.828125 C 4.625 -1.875 4.5 -1.921875 4.390625 -1.96875 L 4.328125 -1.9375 L 2.234375 -0.4375 C 1.953125 -0.234375 1.671875 -0.046875 1.40625 0.171875 L 1.40625 0.171875 C 1.609375 -0.890625 1.75 -1.90625 1.9375 -2.9375 L 1.5625 -3.09375 Z M 1.5625 -3.09375 "/>
</symbol>
<symbol overflow="visible" id="glyph14-0">
<path style="stroke:none;" d=""/>
</symbol>
<symbol overflow="visible" id="glyph14-1">
<path style="stroke:none;" d="M -0.234375 -2.109375 C -0.34375 -2.015625 -0.265625 -1.8125 -0.109375 -1.84375 C -0.0625 -1.84375 -0.03125 -1.859375 0 -1.875 L 3.53125 -3.640625 C 3.609375 -3.6875 3.75 -3.734375 3.78125 -3.8125 C 3.8125 -3.9375 3.703125 -4.0625 3.578125 -4.015625 C 3.5 -4 3.421875 -3.9375 3.34375 -3.90625 L -0.125 -2.171875 C -0.15625 -2.15625 -0.1875 -2.125 -0.234375 -2.109375 Z M -0.234375 -2.109375 "/>
</symbol>
<symbol overflow="visible" id="glyph15-0">
<path style="stroke:none;" d=""/>
</symbol>
<symbol overflow="visible" id="glyph15-1">
<path style="stroke:none;" d="M -0.328125 -2.953125 C -0.34375 -2.9375 -0.359375 -2.90625 -0.375 -2.90625 C -0.46875 -2.8125 -0.421875 -2.6875 -0.40625 -2.5625 L -0.359375 -2.375 L -0.078125 -0.796875 C -0.078125 -0.75 -0.03125 -0.375 0 -0.328125 C 0.03125 -0.28125 0.09375 -0.3125 0.15625 -0.328125 C 0.171875 -0.34375 0.203125 -0.328125 0.21875 -0.34375 C 0.265625 -0.390625 0.234375 -0.453125 0.234375 -0.515625 L 0.234375 -0.984375 L 0.15625 -2.140625 C 0.140625 -2.265625 0.140625 -2.671875 0.125 -2.78125 C 0.09375 -3.015625 -0.1875 -3.046875 -0.328125 -2.953125 Z M -0.328125 -2.953125 "/>
</symbol>
<symbol overflow="visible" id="glyph16-0">
<path style="stroke:none;" d=""/>
</symbol>
<symbol overflow="visible" id="glyph16-1">
<path style="stroke:none;" d="M 2.171875 -2.015625 C 2.15625 -2.03125 2.109375 -2.03125 2.09375 -2.03125 C 1.96875 -2.0625 1.890625 -1.9375 1.8125 -1.875 L 1.671875 -1.71875 L 0.578125 -0.546875 C 0.546875 -0.5 0.28125 -0.25 0.28125 -0.203125 C 0.25 -0.15625 0.3125 -0.09375 0.34375 -0.078125 C 0.359375 -0.0625 0.390625 -0.046875 0.40625 -0.03125 C 0.453125 -0.015625 0.515625 -0.078125 0.546875 -0.109375 L 0.921875 -0.421875 L 1.8125 -1.171875 C 1.890625 -1.234375 2.234375 -1.484375 2.28125 -1.5625 C 2.46875 -1.734375 2.34375 -1.984375 2.171875 -2.015625 Z M 2.171875 -2.015625 "/>
</symbol>
</g>
<clipPath id="clip1">
  <path d="M -182 667 L 430 667 L 430 -125 L -182 -125 L -182 667 Z M -182 667 "/>
</clipPath>
<clipPath id="clip2">
  <path d="M 8.234375 285.800781 L 247.234375 285.800781 L 247.234375 -0.199219 L 8.234375 -0.199219 L 8.234375 285.800781 Z M 8.234375 285.800781 "/>
</clipPath>
<clipPath id="clip3">
  <path d="M -182 667 L 430 667 L 430 -125 L -182 -125 L -182 667 Z M -182 667 "/>
</clipPath>
</defs>
<g id="surface0">
<g clip-path="url(#clip1)" clip-rule="nonzero">
<g clip-path="url(#clip2)" clip-rule="nonzero">
<path style="fill:none;stroke-width:5;stroke-linecap:round;stroke-linejoin:round;stroke:rgb(0%,0%,0%);stroke-opacity:1;stroke-miterlimit:10;" d="M 26.39 1429.42625 L 2379.124375 1429.42625 " transform="matrix(0.1,0,0,-0.1,8.236,285.802)"/>
<path style=" stroke:none;fill-rule:nonzero;fill:rgb(0%,0%,0%);fill-opacity:1;" d="M 240.613281 144.085938 L 246.148438 142.859375 L 240.613281 141.632813 "/>
<path style="fill:none;stroke-width:5;stroke-linecap:round;stroke-linejoin:round;stroke:rgb(0%,0%,0%);stroke-opacity:1;stroke-miterlimit:10;" d="M 2323.772813 1417.160625 L 2379.124375 1429.42625 L 2323.772813 1441.691875 L 2323.772813 1417.160625 Z M 2323.772813 1417.160625 " transform="matrix(0.1,0,0,-0.1,8.236,285.802)"/>
<path style="fill:none;stroke-width:5;stroke-linecap:round;stroke-linejoin:round;stroke:rgb(0%,0%,0%);stroke-opacity:1;stroke-miterlimit:10;" d="M 26.39 12.121563 L 26.39 2846.77 " transform="matrix(0.1,0,0,-0.1,8.236,285.802)"/>
<path style=" stroke:none;fill-rule:nonzero;fill:rgb(0%,0%,0%);fill-opacity:1;" d="M 12.101563 6.660156 L 10.875 1.125 L 9.644531 6.660156 "/>
<path style="fill:none;stroke-width:5;stroke-linecap:round;stroke-linejoin:round;stroke:rgb(0%,0%,0%);stroke-opacity:1;stroke-miterlimit:10;" d="M 38.655625 2791.418438 L 26.39 2846.77 L 14.085313 2791.418438 L 38.655625 2791.418438 Z M 38.655625 2791.418438 " transform="matrix(0.1,0,0,-0.1,8.236,285.802)"/>
<path style="fill:none;stroke-width:5;stroke-linecap:round;stroke-linejoin:round;stroke:rgb(0%,0%,0%);stroke-opacity:1;stroke-miterlimit:10;" d="M 275.804063 1393.996563 L 275.804063 1464.895 " transform="matrix(0.1,0,0,-0.1,8.236,285.802)"/>
<path style="fill:none;stroke-width:5;stroke-linecap:round;stroke-linejoin:round;stroke:rgb(0%,0%,0%);stroke-opacity:1;stroke-miterlimit:10;" d="M 525.257188 1393.996563 L 525.257188 1464.895 " transform="matrix(0.1,0,0,-0.1,8.236,285.802)"/>
<path style="fill:none;stroke-width:5;stroke-linecap:round;stroke-linejoin:round;stroke:rgb(0%,0%,0%);stroke-opacity:1;stroke-miterlimit:10;" d="M 774.710313 1393.996563 L 774.710313 1464.895 " transform="matrix(0.1,0,0,-0.1,8.236,285.802)"/>
<path style="fill:none;stroke-width:5;stroke-linecap:round;stroke-linejoin:round;stroke:rgb(0%,0%,0%);stroke-opacity:1;stroke-miterlimit:10;" d="M 1024.163438 1393.996563 L 1024.163438 1464.895 " transform="matrix(0.1,0,0,-0.1,8.236,285.802)"/>
<path style="fill:none;stroke-width:5;stroke-linecap:round;stroke-linejoin:round;stroke:rgb(0%,0%,0%);stroke-opacity:1;stroke-miterlimit:10;" d="M 1273.616563 1393.996563 L 1273.616563 1464.895 " transform="matrix(0.1,0,0,-0.1,8.236,285.802)"/>
<path style="fill:none;stroke-width:5;stroke-linecap:round;stroke-linejoin:round;stroke:rgb(0%,0%,0%);stroke-opacity:1;stroke-miterlimit:10;" d="M 1523.069688 1393.996563 L 1523.069688 1464.895 " transform="matrix(0.1,0,0,-0.1,8.236,285.802)"/>
<path style="fill:none;stroke-width:5;stroke-linecap:round;stroke-linejoin:round;stroke:rgb(0%,0%,0%);stroke-opacity:1;stroke-miterlimit:10;" d="M 1772.522813 1393.996563 L 1772.522813 1464.895 " transform="matrix(0.1,0,0,-0.1,8.236,285.802)"/>
<path style="fill:none;stroke-width:5;stroke-linecap:round;stroke-linejoin:round;stroke:rgb(0%,0%,0%);stroke-opacity:1;stroke-miterlimit:10;" d="M 2021.975938 1393.996563 L 2021.975938 1464.895 " transform="matrix(0.1,0,0,-0.1,8.236,285.802)"/>
<path style="fill:none;stroke-width:5;stroke-linecap:round;stroke-linejoin:round;stroke:rgb(0%,0%,0%);stroke-opacity:1;stroke-miterlimit:10;" d="M 26.39 182.199688 L 111.429063 182.199688 " transform="matrix(0.1,0,0,-0.1,8.236,285.802)"/>
<path style="fill:none;stroke-width:5;stroke-linecap:round;stroke-linejoin:round;stroke:rgb(0%,0%,0%);stroke-opacity:1;stroke-miterlimit:10;" d="M 26.39 431.652813 L 111.429063 431.652813 " transform="matrix(0.1,0,0,-0.1,8.236,285.802)"/>
<path style="fill:none;stroke-width:5;stroke-linecap:round;stroke-linejoin:round;stroke:rgb(0%,0%,0%);stroke-opacity:1;stroke-miterlimit:10;" d="M 26.39 681.105938 L 111.429063 681.105938 " transform="matrix(0.1,0,0,-0.1,8.236,285.802)"/>
<path style="fill:none;stroke-width:5;stroke-linecap:round;stroke-linejoin:round;stroke:rgb(0%,0%,0%);stroke-opacity:1;stroke-miterlimit:10;" d="M 26.39 930.559063 L 111.429063 930.559063 " transform="matrix(0.1,0,0,-0.1,8.236,285.802)"/>
<path style="fill:none;stroke-width:5;stroke-linecap:round;stroke-linejoin:round;stroke:rgb(0%,0%,0%);stroke-opacity:1;stroke-miterlimit:10;" d="M 26.39 1179.973125 L 111.429063 1179.973125 " transform="matrix(0.1,0,0,-0.1,8.236,285.802)"/>
<path style="fill:none;stroke-width:5;stroke-linecap:round;stroke-linejoin:round;stroke:rgb(0%,0%,0%);stroke-opacity:1;stroke-miterlimit:10;" d="M 26.39 1678.879375 L 111.429063 1678.879375 " transform="matrix(0.1,0,0,-0.1,8.236,285.802)"/>
<path style="fill:none;stroke-width:5;stroke-linecap:round;stroke-linejoin:round;stroke:rgb(0%,0%,0%);stroke-opacity:1;stroke-miterlimit:10;" d="M 26.39 1928.3325 L 111.429063 1928.3325 " transform="matrix(0.1,0,0,-0.1,8.236,285.802)"/>
<path style="fill:none;stroke-width:5;stroke-linecap:round;stroke-linejoin:round;stroke:rgb(0%,0%,0%);stroke-opacity:1;stroke-miterlimit:10;" d="M 26.39 2177.785625 L 111.429063 2177.785625 " transform="matrix(0.1,0,0,-0.1,8.236,285.802)"/>
<path style="fill:none;stroke-width:5;stroke-linecap:round;stroke-linejoin:round;stroke:rgb(0%,0%,0%);stroke-opacity:1;stroke-miterlimit:10;" d="M 26.39 2427.23875 L 111.429063 2427.23875 " transform="matrix(0.1,0,0,-0.1,8.236,285.802)"/>
<path style="fill:none;stroke-width:3;stroke-linecap:round;stroke-linejoin:round;stroke:rgb(0%,0%,0%);stroke-opacity:1;stroke-dasharray:113.386,56.6928;stroke-miterlimit:10;" d="M 26.39 1179.973125 L 2021.975938 2180.8325 " transform="matrix(0.1,0,0,-0.1,8.236,285.802)"/>
<path style="fill:none;stroke-width:3;stroke-linecap:round;stroke-linejoin:round;stroke:rgb(0%,0%,0%);stroke-opacity:1;stroke-dasharray:113.386,56.6928;stroke-miterlimit:10;" d="M 26.39 1179.973125 L 2021.975938 179.152813 " transform="matrix(0.1,0,0,-0.1,8.236,285.802)"/>
<path style="fill:none;stroke-width:9;stroke-linecap:round;stroke-linejoin:round;stroke:rgb(0%,0%,0%);stroke-opacity:1;stroke-miterlimit:10;" d="M 26.39 1678.879375 L 2021.975938 2676.691875 " transform="matrix(0.1,0,0,-0.1,8.236,285.802)"/>
<path style="fill:none;stroke-width:9;stroke-linecap:round;stroke-linejoin:round;stroke:rgb(0%,0%,0%);stroke-opacity:1;stroke-miterlimit:10;" d="M 26.39 1678.879375 L 2021.975938 681.105938 " transform="matrix(0.1,0,0,-0.1,8.236,285.802)"/>
<path style="fill:none;stroke-width:9;stroke-linecap:round;stroke-linejoin:round;stroke:rgb(0%,0%,0%);stroke-opacity:1;stroke-miterlimit:10;" d="M 26.39 1678.879375 C 93.382188 1679.074688 160.179063 1682.395 225.92125 1688.840313 C 293.968125 1695.480938 360.569688 1705.402813 425.491563 1717.55125 C 493.850938 1730.324688 560.257188 1745.52 625.061875 1762.277813 C 693.225938 1779.895 759.593125 1799.230938 824.593125 1819.660625 C 892.48375 1840.949688 958.850938 1863.410625 1024.163438 1886.61375 C 1091.7025 1910.598125 1158.10875 1935.402813 1223.73375 1960.715313 C 1291.038438 1986.652813 1357.444688 2013.17625 1423.304063 2040.05125 C 1490.413438 2067.473125 1556.85875 2095.285625 1622.835313 2123.371563 C 1689.8275 2151.887188 1756.272813 2180.67625 1822.405625 2209.660625 C 1889.280625 2238.996563 1955.804063 2268.527813 2021.975938 2298.293438 " transform="matrix(0.1,0,0,-0.1,8.236,285.802)"/>
<path style="fill:none;stroke-width:9;stroke-linecap:round;stroke-linejoin:round;stroke:rgb(0%,0%,0%);stroke-opacity:1;stroke-miterlimit:10;" d="M 26.39 681.105938 C 93.382188 680.910625 160.179063 677.590313 225.92125 671.145 C 293.968125 664.504375 360.569688 654.5825 425.491563 642.434063 C 493.850938 629.660625 560.257188 614.465313 625.061875 597.7075 C 693.225938 580.090313 759.593125 560.754375 824.593125 540.324688 C 892.48375 519.035625 958.850938 496.574688 1024.163438 473.371563 C 1091.7025 449.387188 1158.10875 424.5825 1223.73375 399.27 C 1291.038438 373.3325 1357.444688 346.809063 1423.304063 319.934063 C 1490.413438 292.512188 1556.85875 264.699688 1622.835313 236.61375 C 1689.8275 208.098125 1756.272813 179.309063 1822.405625 150.324688 C 1889.280625 120.98875 1955.804063 91.4575 2021.975938 61.691875 " transform="matrix(0.1,0,0,-0.1,8.236,285.802)"/>
</g>
</g>
<g clip-path="url(#clip3)" clip-rule="nonzero">
<g style="fill:rgb(0%,0%,0%);fill-opacity:1;">
  <use xlink:href="#glyph0-1" x="219.24" y="151.001"/>
  <use xlink:href="#glyph0-2" x="223.892919" y="151.001"/>
</g>
<g style="fill:rgb(0%,0%,0%);fill-opacity:1;">
  <use xlink:href="#glyph0-3" x="229.547276" y="151.001"/>
</g>
<g style="fill:rgb(0%,0%,0%);fill-opacity:1;">
  <use xlink:href="#glyph0-4" x="232.820081" y="151.001"/>
</g>
<g style="fill:rgb(0%,0%,0%);fill-opacity:1;">
  <use xlink:href="#glyph1-1" x="58.738" y="152.615"/>
</g>
<g style="fill:rgb(0%,0%,0%);fill-opacity:1;">
  <use xlink:href="#glyph1-2" x="108.628" y="152.615"/>
</g>
<g style="fill:rgb(0%,0%,0%);fill-opacity:1;">
  <use xlink:href="#glyph1-3" x="158.517" y="152.615"/>
</g>
<g style="fill:rgb(0%,0%,0%);fill-opacity:1;">
  <use xlink:href="#glyph1-4" x="208.407" y="152.615"/>
</g>
<g style="fill:rgb(0%,0%,0%);fill-opacity:1;">
  <use xlink:href="#glyph0-5" x="1.578" y="14.55"/>
</g>
<path style="fill:none;stroke-width:0.339;stroke-linecap:butt;stroke-linejoin:miter;stroke:rgb(0%,0%,0%);stroke-opacity:1;stroke-miterlimit:10;" d="M 0.000125 -0.0010625 L 5.461063 -0.0010625 " transform="matrix(1,0,0,-1,1.578,17.663)"/>
<g style="fill:rgb(0%,0%,0%);fill-opacity:1;">
  <use xlink:href="#glyph0-4" x="1.798" y="24.631"/>
</g>
<g style="fill:rgb(0%,0%,0%);fill-opacity:1;">
  <use xlink:href="#glyph2-1" x="0.011" y="269.634"/>
</g>
<g style="fill:rgb(0%,0%,0%);fill-opacity:1;">
  <use xlink:href="#glyph1-5" x="5.774" y="269.634"/>
</g>
<g style="fill:rgb(0%,0%,0%);fill-opacity:1;">
  <use xlink:href="#glyph2-1" x="0.011" y="244.689"/>
</g>
<g style="fill:rgb(0%,0%,0%);fill-opacity:1;">
  <use xlink:href="#glyph1-4" x="5.774" y="244.689"/>
</g>
<g style="fill:rgb(0%,0%,0%);fill-opacity:1;">
  <use xlink:href="#glyph2-1" x="0.011" y="219.744"/>
</g>
<g style="fill:rgb(0%,0%,0%);fill-opacity:1;">
  <use xlink:href="#glyph1-3" x="5.774" y="219.744"/>
</g>
<g style="fill:rgb(0%,0%,0%);fill-opacity:1;">
  <use xlink:href="#glyph2-1" x="0.011" y="194.799"/>
</g>
<g style="fill:rgb(0%,0%,0%);fill-opacity:1;">
  <use xlink:href="#glyph1-2" x="5.774" y="194.799"/>
</g>
<g style="fill:rgb(0%,0%,0%);fill-opacity:1;">
  <use xlink:href="#glyph2-1" x="0.011" y="169.854"/>
</g>
<g style="fill:rgb(0%,0%,0%);fill-opacity:1;">
  <use xlink:href="#glyph1-1" x="5.774" y="169.854"/>
</g>
<g style="fill:rgb(0%,0%,0%);fill-opacity:1;">
  <use xlink:href="#glyph1-6" x="5.774" y="145.224"/>
</g>
<g style="fill:rgb(0%,0%,0%);fill-opacity:1;">
  <use xlink:href="#glyph1-1" x="5.774" y="120.279"/>
</g>
<g style="fill:rgb(0%,0%,0%);fill-opacity:1;">
  <use xlink:href="#glyph1-2" x="5.774" y="95.334"/>
</g>
<g style="fill:rgb(0%,0%,0%);fill-opacity:1;">
  <use xlink:href="#glyph1-3" x="5.774" y="70.389"/>
</g>
<g style="fill:rgb(0%,0%,0%);fill-opacity:1;">
  <use xlink:href="#glyph1-4" x="5.774" y="45.445"/>
</g>
<g style="fill:rgb(0%,0%,0%);fill-opacity:1;">
  <use xlink:href="#glyph3-1" x="116.539" y="60.57"/>
</g>
<g style="fill:rgb(0%,0%,0%);fill-opacity:1;">
  <use xlink:href="#glyph4-1" x="121.53281" y="59.251391"/>
</g>
<g style="fill:rgb(0%,0%,0%);fill-opacity:1;">
  <use xlink:href="#glyph5-1" x="125.214452" y="56.225773"/>
</g>
<g style="fill:rgb(0%,0%,0%);fill-opacity:1;">
  <use xlink:href="#glyph3-2" x="132.208102" y="52.723707"/>
</g>
<g style="fill:rgb(0%,0%,0%);fill-opacity:1;">
  <use xlink:href="#glyph5-2" x="138.169961" y="49.73831"/>
</g>
<g style="fill:rgb(0%,0%,0%);fill-opacity:1;">
  <use xlink:href="#glyph3-3" x="144.795242" y="46.420705"/>
  <use xlink:href="#glyph3-4" x="148.955417" y="44.3375"/>
</g>
<g style="fill:rgb(0%,0%,0%);fill-opacity:1;">
  <use xlink:href="#glyph6-1" x="129.909" y="85.452"/>
</g>
<g style="fill:rgb(0%,0%,0%);fill-opacity:1;">
  <use xlink:href="#glyph7-1" x="134.998746" y="84.5736"/>
</g>
<g style="fill:rgb(0%,0%,0%);fill-opacity:1;">
  <use xlink:href="#glyph7-1" x="136.942004" y="83.804215"/>
</g>
<g style="fill:rgb(0%,0%,0%);fill-opacity:1;">
  <use xlink:href="#glyph7-1" x="138.885261" y="83.034829"/>
</g>
<g style="fill:rgb(0%,0%,0%);fill-opacity:1;">
  <use xlink:href="#glyph8-1" x="116.646" y="166.346"/>
</g>
<g style="fill:rgb(0%,0%,0%);fill-opacity:1;">
  <use xlink:href="#glyph9-1" x="120.69333" y="169.554736"/>
</g>
<g style="fill:rgb(0%,0%,0%);fill-opacity:1;">
  <use xlink:href="#glyph9-1" x="122.562136" y="170.49054"/>
</g>
<g style="fill:rgb(0%,0%,0%);fill-opacity:1;">
  <use xlink:href="#glyph10-1" x="127.190121" y="171.625962"/>
</g>
<g style="fill:rgb(0%,0%,0%);fill-opacity:1;">
  <use xlink:href="#glyph8-2" x="134.182877" y="175.12758"/>
</g>
<g style="fill:rgb(0%,0%,0%);fill-opacity:1;">
  <use xlink:href="#glyph11-1" x="140.14563" y="178.113425"/>
</g>
<g style="fill:rgb(0%,0%,0%);fill-opacity:1;">
  <use xlink:href="#glyph8-3" x="146.770911" y="181.43103"/>
  <use xlink:href="#glyph8-4" x="150.931086" y="183.514235"/>
</g>
<g style="fill:rgb(0%,0%,0%);fill-opacity:1;">
  <use xlink:href="#glyph12-1" x="128.648" y="253.598"/>
</g>
<g style="fill:rgb(0%,0%,0%);fill-opacity:1;">
  <use xlink:href="#glyph13-1" x="132.959583" y="256.441828"/>
</g>
<g style="fill:rgb(0%,0%,0%);fill-opacity:1;">
  <use xlink:href="#glyph13-2" x="134.90284" y="257.211213"/>
</g>
<g style="fill:rgb(0%,0%,0%);fill-opacity:1;">
  <use xlink:href="#glyph14-1" x="123.794" y="119.927"/>
</g>
<g style="fill:rgb(0%,0%,0%);fill-opacity:1;">
  <use xlink:href="#glyph3-2" x="128.946698" y="117.34679"/>
</g>
<g style="fill:rgb(0%,0%,0%);fill-opacity:1;">
  <use xlink:href="#glyph5-2" x="134.909451" y="114.360945"/>
</g>
<g style="fill:rgb(0%,0%,0%);fill-opacity:1;">
  <use xlink:href="#glyph3-3" x="141.534732" y="111.04334"/>
</g>
<g style="fill:rgb(0%,0%,0%);fill-opacity:1;">
  <use xlink:href="#glyph15-1" x="144.591799" y="106.759272"/>
</g>
<g style="fill:rgb(0%,0%,0%);fill-opacity:1;">
  <use xlink:href="#glyph3-4" x="147.423275" y="108.094656"/>
</g>
<g style="fill:rgb(0%,0%,0%);fill-opacity:1;">
  <use xlink:href="#glyph11-1" x="121.973" y="219.187"/>
</g>
<g style="fill:rgb(0%,0%,0%);fill-opacity:1;">
  <use xlink:href="#glyph8-2" x="127.126592" y="221.767658"/>
</g>
<g style="fill:rgb(0%,0%,0%);fill-opacity:1;">
  <use xlink:href="#glyph11-1" x="133.088451" y="224.753055"/>
</g>
<g style="fill:rgb(0%,0%,0%);fill-opacity:1;">
  <use xlink:href="#glyph8-3" x="139.713732" y="228.07066"/>
</g>
<g style="fill:rgb(0%,0%,0%);fill-opacity:1;">
  <use xlink:href="#glyph16-1" x="144.975818" y="227.953521"/>
</g>
<g style="fill:rgb(0%,0%,0%);fill-opacity:1;">
  <use xlink:href="#glyph8-4" x="145.602275" y="231.019344"/>
</g>
</g>
</g>
</svg>
