<?xml version="1.0" encoding="UTF-8" standalone="no"?>
<svg xmlns="http://www.w3.org/2000/svg" xmlns:xlink="http://www.w3.org/1999/xlink" version="1.1" width="136.8pt" height="153.0pt" viewBox="0.0 0.0 79.078123 88.415418">
 <metadata id="metadata58121"/>
 <defs id="defs57593">
  <g id="g57595">
   <g id="glyph0-0">
   </g>
   <g id="glyph0-1">
    <path d="M 2.578125,1.546875 C 2.546875,1.5 2.5,1.46875 2.453125,1.4375 1.6875,0.75 1.21875,-0.3125 1.171875,-1.59375 c -0.03125,-0.875 0.125,-1.78125 0.53125,-2.5625 0.203125,-0.375 0.4375,-0.6875 0.75,-0.953125 C 2.5,-5.15625 2.546875,-5.1875 2.578125,-5.21875 l -0.25,0 c -0.15625,0 -0.140625,0 -0.25,0.078125 -0.359375,0.28125 -0.65625,0.65625 -0.890625,1.078125 -0.65625,1.234375 -0.703125,2.90625 -0.09375,4.25 0.21875,0.5 0.5625,0.921875 0.984375,1.28125 0.09375,0.0625 0.09375,0.078125 0.25,0.078125 l 0.25,0 z m 0,0" id="path57601"/>
   </g>
   <g id="glyph0-2">
    <path d="m 0.640625,-2.640625 c 0.125,-0.0625 0.21875,-0.140625 0.34375,-0.203125 C 1.203125,-2.9375 1.4375,-2.984375 1.6875,-3 1.75,-3.015625 1.828125,-3.015625 1.90625,-3.015625 c 0.28125,0.046875 0.515625,0.234375 0.59375,0.5 0.078125,0.203125 0.046875,0.453125 0.046875,0.65625 -0.359375,0 -0.734375,0.03125 -1.09375,0.125 -0.5,0.125 -1.125,0.375 -1.0625,1.015625 0.046875,0.28125 0.203125,0.5625 0.46875,0.703125 C 1.03125,0.0625 1.234375,0.0625 1.4375,0.046875 1.734375,0.015625 2.0625,-0.0625 2.3125,-0.25 c 0.09375,-0.0625 0.171875,-0.140625 0.25,-0.21875 l 0,0.46875 0.484375,0 0,-1.828125 c 0,-0.1875 0.03125,-0.390625 -0.015625,-0.59375 -0.0625,-0.484375 -0.5,-0.84375 -0.953125,-0.9375 -0.28125,-0.046875 -0.71875,0.015625 -0.953125,0.0625 -0.078125,0.03125 -0.46875,0.15625 -0.5,0.21875 -0.03125,0.03125 -0.015625,0.09375 -0.015625,0.125 0.015625,0.109375 0.03125,0.203125 0.03125,0.3125 z m 1.90625,1.015625 0,0.515625 c 0,0.140625 0,0.265625 -0.0625,0.390625 -0.078125,0.140625 -0.21875,0.25 -0.375,0.296875 -0.328125,0.125 -0.78125,0.140625 -1.0625,-0.09375 C 0.96875,-0.5625 0.90625,-0.640625 0.890625,-0.75 0.8125,-1.046875 1.078125,-1.28125 1.3125,-1.390625 1.640625,-1.546875 2.109375,-1.625 2.546875,-1.625 z m 0,0" id="path57604"/>
   </g>
   <g id="glyph0-3">
    <path d="m 0.4375,-5.21875 c 0.03125,0.03125 0.078125,0.0625 0.125,0.109375 0.859375,0.765625 1.328125,2 1.265625,3.515625 -0.015625,0.75 -0.203125,1.5 -0.5625,2.15625 C 1.078125,0.890625 0.84375,1.1875 0.5625,1.4375 0.515625,1.46875 0.46875,1.5 0.4375,1.546875 l 0.25,0 c 0.15625,0 0.140625,0 0.234375,-0.078125 0.375,-0.296875 0.671875,-0.671875 0.890625,-1.078125 0.671875,-1.25 0.71875,-2.90625 0.109375,-4.25 C 1.6875,-4.375 1.359375,-4.796875 0.9375,-5.140625 0.84375,-5.21875 0.84375,-5.21875 0.6875,-5.21875 l -0.25,0 z m 0,0" id="path57607"/>
   </g>
   <g id="glyph0-4">
    <path d="m 0.578125,-4.84375 0,4.84375 0.515625,0 0,-0.46875 0,0 c 0.0625,0.109375 0.171875,0.203125 0.265625,0.28125 0.3125,0.25 0.828125,0.328125 1.28125,0.109375 0.203125,-0.109375 0.375,-0.28125 0.515625,-0.46875 C 3.84375,-1.5 3.421875,-3.09375 2.453125,-3.3125 c -0.125,-0.046875 -0.28125,-0.046875 -0.421875,-0.015625 -0.40625,0.046875 -0.71875,0.25 -0.953125,0.5 l 0,-2.015625 -0.5,0 z M 1.8125,-2.953125 c 0.328125,-0.03125 0.703125,0.109375 0.921875,0.375 0.171875,0.21875 0.234375,0.5 0.234375,0.765625 0.03125,0.375 -0.015625,0.78125 -0.25,1.078125 -0.203125,0.265625 -0.53125,0.375 -0.84375,0.40625 -0.265625,0 -0.5,-0.09375 -0.671875,-0.3125 C 1.171875,-0.6875 1.125,-0.75 1.09375,-0.8125 c 0,-0.046875 0,-0.09375 0,-0.125 l 0,-1.390625 c 0,-0.0625 -0.015625,-0.140625 0.015625,-0.203125 0.03125,-0.078125 0.09375,-0.125 0.15625,-0.1875 0.15625,-0.125 0.34375,-0.21875 0.546875,-0.234375 z m 0,0" id="path57610"/>
   </g>
   <g id="glyph0-5">
    <path d="M 3.1875,-0.796875 C 3.125,-0.765625 3.078125,-0.71875 3.03125,-0.6875 2.9375,-0.625 2.84375,-0.5625 2.734375,-0.515625 2.3125,-0.3125 1.671875,-0.265625 1.296875,-0.5625 1.03125,-0.75 0.859375,-1.109375 0.84375,-1.5 0.8125,-1.953125 0.921875,-2.453125 1.296875,-2.75 1.5,-2.90625 1.765625,-3 2.140625,-2.96875 2.46875,-2.9375 2.65625,-2.890625 2.921875,-2.75 c 0.0625,0.03125 0.109375,0.078125 0.171875,0.09375 L 3.171875,-3.078125 C 3.015625,-3.15625 2.875,-3.234375 2.703125,-3.28125 c -0.40625,-0.140625 -1.03125,-0.125 -1.390625,0.046875 -0.34375,0.15625 -0.625,0.4375 -0.796875,0.765625 -0.25,0.5 -0.25,1.109375 0,1.625 0.09375,0.1875 0.21875,0.359375 0.390625,0.5 0.46875,0.4375 1.1875,0.484375 1.78125,0.28125 0.140625,-0.0625 0.265625,-0.125 0.390625,-0.203125 0.046875,-0.03125 0.109375,-0.0625 0.125,-0.09375 C 3.21875,-0.40625 3.1875,-0.796875 3.1875,-0.796875 z m 0,0" id="path57613"/>
   </g>
   <g id="glyph0-6">
    <path d="m 2.734375,-4.84375 0,2 0,0 C 2.703125,-2.90625 2.65625,-2.9375 2.609375,-2.984375 2.328125,-3.28125 1.734375,-3.46875 1.25,-3.25 1.078125,-3.171875 0.9375,-3.078125 0.8125,-2.9375 0.28125,-2.390625 0.1875,-1.484375 0.5,-0.8125 0.6875,-0.375 1.09375,0.03125 1.59375,0.0625 1.984375,0.078125 2.3125,-0.09375 2.515625,-0.28125 2.59375,-0.359375 2.65625,-0.4375 2.71875,-0.515625 l 0,0.515625 0.515625,0 0,-4.84375 -0.5,0 z M 1.9375,-2.953125 C 2.171875,-2.96875 2.40625,-2.90625 2.578125,-2.71875 2.625,-2.6875 2.671875,-2.625 2.703125,-2.5625 2.734375,-2.5 2.71875,-2.421875 2.71875,-2.34375 l 0,1.375 c 0,0.171875 -0.015625,0.171875 -0.125,0.296875 C 2.453125,-0.484375 2.25,-0.359375 2,-0.328125 1.640625,-0.3125 1.25,-0.46875 1.046875,-0.78125 0.90625,-0.984375 0.859375,-1.234375 0.84375,-1.484375 0.8125,-1.8125 0.84375,-2.1875 1.03125,-2.46875 1.234375,-2.78125 1.578125,-2.921875 1.9375,-2.953125 z m 0,0" id="path57616"/>
   </g>
   <g id="glyph0-7">
    <path d="M 3.140625,-0.796875 C 3.09375,-0.765625 3.046875,-0.71875 3,-0.6875 2.59375,-0.390625 1.875,-0.140625 1.328125,-0.53125 0.984375,-0.78125 0.78125,-1.15625 0.78125,-1.734375 l 2.421875,0 c 0,-0.515625 -0.125,-1 -0.421875,-1.296875 C 2.4375,-3.34375 1.90625,-3.4375 1.46875,-3.328125 1.28125,-3.28125 1.109375,-3.1875 0.953125,-3.0625 c -0.4375,0.34375 -0.65625,0.890625 -0.65625,1.453125 0.015625,0.78125 0.59375,1.5 1.375,1.640625 0.390625,0.078125 0.8125,-0.015625 1.171875,-0.1875 0.0625,-0.03125 0.296875,-0.15625 0.3125,-0.21875 0.03125,-0.03125 0,-0.328125 -0.015625,-0.421875 z m -0.359375,-1.25 -1.96875,0 c 0.09375,-0.3125 0.25,-0.609375 0.53125,-0.796875 0.34375,-0.21875 0.859375,-0.1875 1.15625,0.125 0.171875,0.1875 0.25,0.421875 0.28125,0.671875 z m 0,0" id="path57619"/>
   </g>
   <g id="glyph0-8">
    <path d="m 0.828125,-3.296875 -0.625,0 0,0.390625 0.625,0 0,2.90625 0.5,0 0,-2.90625 0.890625,0 0,-0.390625 -0.90625,0 0,-0.578125 c 0,-0.109375 -0.015625,-0.21875 0.015625,-0.3125 0.15625,-0.328125 0.703125,-0.359375 1.125,-0.265625 0.078125,0 0.15625,0.03125 0.234375,0.0625 l 0,-0.453125 C 2.1875,-4.921875 1.625,-4.953125 1.21875,-4.625 1.140625,-4.5625 1.078125,-4.5 1.03125,-4.4375 0.875,-4.25 0.828125,-4.0625 0.828125,-3.734375 l 0,0.4375 z m 0,0" id="path57622"/>
   </g>
   <g id="glyph1-0">
   </g>
   <g id="glyph1-1">
    <path d="m 0.640625,-2.796875 c 0.0625,0.125 0.140625,0.234375 0.21875,0.34375 C 0.90625,-2.375 1.4375,-1.59375 1.453125,-1.5625 c 0.03125,0.03125 0.0625,0.078125 0.0625,0.109375 C 1.515625,-1.40625 1.46875,-1.375 1.4375,-1.34375 1.171875,-1.09375 0.046875,-0.046875 0,0 0.15625,0 0.3125,0 0.453125,0 l 0.125,-0.125 1.109375,-1.09375 c 0.234375,0.40625 0.46875,0.8125 0.734375,1.203125 C 2.5625,0 2.71875,0 2.875,0 2.8125,-0.125 2,-1.296875 1.984375,-1.328125 1.96875,-1.359375 1.921875,-1.40625 1.9375,-1.4375 c 0,-0.046875 0.0625,-0.078125 0.078125,-0.109375 0.09375,-0.078125 0.1875,-0.171875 0.28125,-0.25 0.09375,-0.09375 1.03125,-0.96875 1.0625,-1 -0.15625,0 -0.3125,0 -0.453125,0 -0.390625,0.34375 -0.75,0.71875 -1.125,1.078125 -0.234375,-0.359375 -0.4375,-0.734375 -0.6875,-1.078125 -0.15625,0 -0.3125,0 -0.453125,0 z m 0,0" id="path57628"/>
   </g>
   <g id="glyph1-2">
    <path d="m 0.859375,-2.796875 -0.0625,0.328125 1.796875,0 -1.703125,1.625 C 0.671875,-0.640625 0.4375,-0.4375 0.234375,-0.21875 0.21875,-0.140625 0.203125,-0.078125 0.1875,0 1,0 1.859375,0.015625 2.640625,0 2.671875,-0.09375 2.6875,-0.21875 2.71875,-0.328125 l -1.90625,0 2.359375,-2.25 c 0.03125,-0.0625 0.03125,-0.140625 0.046875,-0.21875 l -2.359375,0 z m 0,0" id="path57631"/>
   </g>
   <g id="glyph1-3">
    <path d="m 0.375,-0.609375 -0.140625,0.375 c 0.109375,0.0625 0.234375,0.125 0.359375,0.171875 0.421875,0.140625 0.984375,0.15625 1.359375,-0.015625 0.28125,-0.125 0.5,-0.359375 0.5625,-0.65625 C 2.5625,-0.859375 2.5625,-1 2.53125,-1.109375 2.5,-1.21875 2.453125,-1.3125 2.375,-1.390625 2.15625,-1.59375 1.875,-1.625 1.59375,-1.6875 1.421875,-1.71875 1.21875,-1.734375 1.109375,-1.90625 c -0.125,-0.171875 0,-0.40625 0.15625,-0.515625 0.15625,-0.09375 0.40625,-0.125 0.640625,-0.109375 0.34375,0.015625 0.515625,0.078125 0.78125,0.234375 l 0.140625,-0.375 c -0.3125,-0.140625 -0.625,-0.21875 -1.078125,-0.1875 -0.328125,0.015625 -0.609375,0.125 -0.828125,0.3125 -0.234375,0.21875 -0.390625,0.640625 -0.1875,0.921875 0.203125,0.296875 0.5625,0.34375 0.875,0.40625 0.171875,0.03125 0.375,0.0625 0.484375,0.234375 0.140625,0.1875 -0.015625,0.453125 -0.1875,0.546875 -0.140625,0.09375 -0.328125,0.140625 -0.546875,0.140625 -0.234375,0 -0.453125,-0.046875 -0.65625,-0.125 C 0.59375,-0.484375 0.375,-0.609375 0.375,-0.609375 z m 0,0" id="path57634"/>
   </g>
   <g id="glyph1-4">
    <path d="m 1.390625,-2.234375 -0.015625,0 c 0.046875,-0.1875 0.09375,-0.359375 0.125,-0.5625 l -0.421875,0 L 0.484375,0 0.796875,0 C 0.859375,0 0.9375,0.015625 0.9375,-0.0625 0.953125,-0.09375 1.03125,-0.5 1.0625,-0.65625 1.109375,-0.859375 1.25,-1.59375 1.296875,-1.734375 1.375,-1.953125 1.484375,-2.171875 1.65625,-2.328125 1.78125,-2.421875 1.921875,-2.5 2.0625,-2.515625 2.34375,-2.53125 2.609375,-2.46875 2.703125,-2.28125 2.796875,-2.109375 2.71875,-1.90625 2.6875,-1.734375 L 2.328125,0 2.625,0 C 2.6875,0 2.765625,0.015625 2.765625,-0.0625 2.78125,-0.09375 2.859375,-0.5 2.890625,-0.65625 2.9375,-0.859375 3.078125,-1.59375 3.125,-1.734375 3.203125,-1.953125 3.3125,-2.171875 3.5,-2.328125 3.609375,-2.421875 3.75,-2.5 3.890625,-2.515625 4.171875,-2.53125 4.4375,-2.46875 4.53125,-2.28125 4.625,-2.109375 4.546875,-1.90625 4.515625,-1.734375 L 4.15625,0 4.46875,0 c 0.0625,0 0.125,0.015625 0.125,-0.0625 0.03125,-0.125 0.125,-0.5625 0.125,-0.5625 L 4.984375,-1.859375 C 5.03125,-2.09375 5.078125,-2.359375 4.9375,-2.578125 4.828125,-2.765625 4.609375,-2.8125 4.40625,-2.84375 3.984375,-2.890625 3.671875,-2.6875 3.453125,-2.5 3.359375,-2.421875 3.25,-2.328125 3.203125,-2.203125 3.1875,-2.25 3.203125,-2.296875 3.1875,-2.34375 3.1875,-2.453125 3.140625,-2.5625 3.0625,-2.65625 2.9375,-2.78125 2.75,-2.828125 2.578125,-2.84375 2.15625,-2.890625 1.84375,-2.6875 1.625,-2.5 1.546875,-2.421875 1.4375,-2.328125 1.390625,-2.234375 z m 0,0" id="path57637"/>
   </g>
   <g id="glyph1-5">
    <path d="m 1.421875,-2.390625 0.09375,-0.40625 -0.421875,0 -0.796875,3.78125 0.421875,0 0.296875,-1.375 c 0.0625,0.09375 0.125,0.1875 0.203125,0.265625 0.328125,0.265625 0.796875,0.1875 1.125,0 0.59375,-0.3125 0.953125,-0.984375 0.96875,-1.640625 0,-0.421875 -0.15625,-0.953125 -0.625,-1.0625 -0.484375,-0.09375 -1.03125,0.21875 -1.265625,0.4375 z M 2.46875,-2.421875 C 2.796875,-2.234375 2.890625,-1.84375 2.84375,-1.5 2.765625,-0.90625 2.265625,-0.3125 1.640625,-0.28125 1.421875,-0.265625 1.21875,-0.359375 1.125,-0.5625 1.109375,-0.609375 1.078125,-0.640625 1.078125,-0.6875 c 0,-0.0625 0.03125,-0.140625 0.046875,-0.203125 0.03125,-0.203125 0.234375,-1.1875 0.265625,-1.234375 0.03125,-0.0625 0.09375,-0.109375 0.140625,-0.15625 0.25,-0.1875 0.609375,-0.3125 0.9375,-0.140625 z m 0,0" id="path57640"/>
   </g>
   <g id="glyph1-6">
    <path d="m 3.203125,-4.109375 -0.09375,0.453125 -0.265625,1.234375 0,0 c -0.046875,-0.09375 -0.15625,-0.1875 -0.234375,-0.25 C 2.40625,-2.8125 2.140625,-2.859375 1.90625,-2.828125 1.5625,-2.78125 1.265625,-2.5625 1.078125,-2.359375 c -0.359375,0.375 -0.5625,0.890625 -0.546875,1.40625 0.015625,0.46875 0.265625,0.953125 0.8125,1 0.46875,0.015625 0.828125,-0.25 1.0625,-0.484375 L 2.3125,0 2.640625,0 C 2.671875,0 2.734375,0.015625 2.75,-0.015625 2.765625,-0.046875 2.765625,-0.09375 2.78125,-0.125 2.796875,-0.203125 3.609375,-4.0625 3.625,-4.109375 l -0.421875,0 z m -0.53125,1.78125 C 2.71875,-2.28125 2.75,-2.234375 2.765625,-2.171875 2.78125,-2.109375 2.75,-2.03125 2.734375,-1.984375 2.6875,-1.796875 2.5,-0.828125 2.5,-0.828125 2.46875,-0.6875 2.421875,-0.640625 2.3125,-0.546875 2.15625,-0.40625 1.96875,-0.296875 1.75,-0.28125 1.5,-0.265625 1.296875,-0.359375 1.15625,-0.46875 0.921875,-0.703125 0.9375,-1.0625 1,-1.34375 1.0625,-1.671875 1.203125,-2 1.453125,-2.21875 1.5625,-2.3125 1.671875,-2.375 1.8125,-2.4375 2.109375,-2.546875 2.46875,-2.5625 2.671875,-2.328125 z M 2.40625,-0.4375 c 0,0 0,0 0,0 0,0 0,0.015625 0,0 z m 0,0" id="path57643"/>
   </g>
   <g id="glyph2-0">
   </g>
   <g id="glyph2-1">
    <path d="m 0.65625,-3.59375 0,0.34375 c 0.296875,0 0.59375,-0.046875 0.859375,-0.171875 l 0,3.09375 -0.828125,0 0,0.328125 2.078125,0 0,-0.328125 -0.828125,0 0,-3.65625 c -0.03125,0 -0.078125,0 -0.109375,0.015625 C 1.78125,-3.953125 1.75,-3.90625 1.71875,-3.875 c -0.25,0.203125 -0.671875,0.28125 -1.0625,0.28125 z m 0,0" id="path57649"/>
   </g>
   <g id="glyph2-2">
    <path d="m 0.65625,-2.796875 0,0.5 0.5,0 0,-0.5 -0.5,0 z m 0,2.296875 0,0.5 0.15625,0 -0.15625,0.65625 0.25,0 C 1,0.4375 1.078125,0.21875 1.15625,0 c 0,-0.15625 0,-0.328125 0,-0.5 l -0.5,0 z m 0,0" id="path57652"/>
   </g>
   <g id="glyph2-3">
    <path d="m 0.375,-2.265625 c -0.0625,0.078125 -0.015625,0.1875 0.078125,0.203125 0.03125,0.015625 0.078125,0 0.125,0 l 3.78125,0 c 0.046875,0 0.09375,0 0.140625,-0.03125 0.078125,-0.078125 0.03125,-0.21875 -0.078125,-0.234375 -0.09375,-0.015625 -0.1875,0 -0.265625,0 l -3.59375,0 c -0.09375,0 -0.140625,0 -0.1875,0.0625 z M 0.375,-1 c -0.0625,0.0625 -0.015625,0.171875 0.078125,0.1875 0.03125,0.015625 0.078125,0.015625 0.125,0.015625 l 3.78125,0 c 0.046875,0 0.09375,0 0.140625,-0.03125 0.078125,-0.078125 0.03125,-0.21875 -0.078125,-0.25 -0.09375,0 -0.1875,0 -0.265625,0 l -3.59375,0 c -0.09375,0 -0.140625,0 -0.1875,0.078125 z m 0,0" id="path57655"/>
   </g>
   <g id="glyph2-4">
    <path d="M 1.5625,-3.984375 C 1.421875,-3.96875 1.28125,-3.9375 1.15625,-3.875 c -0.625,0.234375 -0.84375,1.03125 -0.84375,1.828125 0,0.125 0,0.25 0,0.375 C 0.34375,-1.125 0.46875,-0.59375 0.78125,-0.25 c 0.25,0.265625 0.640625,0.375 1,0.34375 C 2,0.0625 2.1875,-0.015625 2.34375,-0.125 c 0.515625,-0.34375 0.625,-1.078125 0.625,-1.875 0,-0.65625 -0.109375,-1.234375 -0.421875,-1.59375 -0.25,-0.265625 -0.625,-0.421875 -0.984375,-0.390625 z m 0.5,0.4375 c 0.0625,0.03125 0.109375,0.078125 0.171875,0.125 0.21875,0.21875 0.28125,0.65625 0.296875,1.046875 0,0.078125 0.015625,0.15625 0.015625,0.234375 l 0,0.3125 c 0,0.5 -0.046875,1 -0.28125,1.296875 C 1.96875,-0.140625 1.34375,-0.140625 1.03125,-0.515625 0.953125,-0.609375 0.90625,-0.703125 0.875,-0.796875 0.765625,-1.09375 0.75,-1.484375 0.75,-1.859375 l 0,-0.296875 c 0,-0.078125 0,-0.15625 0,-0.234375 0,-0.46875 0.125,-0.921875 0.4375,-1.125 0.234375,-0.140625 0.59375,-0.1875 0.875,-0.03125 z m 0,0" id="path57658"/>
   </g>
   <g id="glyph2-5">
    <path d="m 2.3125,-1.703125 -1.734375,0 c -0.046875,0 -0.09375,0 -0.125,0.015625 -0.0625,0.015625 -0.109375,0.0625 -0.109375,0.125 0,0.0625 0.046875,0.109375 0.109375,0.125 0.03125,0.015625 0.078125,0.015625 0.125,0.015625 l 1.734375,0 0,1.71875 c 0,0.046875 -0.015625,0.09375 0,0.140625 0.015625,0.046875 0.078125,0.09375 0.140625,0.09375 0.046875,0 0.109375,-0.046875 0.125,-0.09375 0.015625,-0.046875 0,-0.09375 0,-0.140625 l 0,-1.71875 1.734375,0 c 0.046875,0 0.078125,0 0.125,-0.015625 C 4.5,-1.453125 4.53125,-1.5 4.53125,-1.5625 4.53125,-1.625 4.5,-1.671875 4.4375,-1.6875 4.390625,-1.703125 4.359375,-1.703125 4.3125,-1.703125 l -1.734375,0 0,-1.71875 c 0,-0.046875 0.015625,-0.09375 0,-0.140625 C 2.5625,-3.625 2.5,-3.65625 2.453125,-3.65625 c -0.0625,0 -0.125,0.03125 -0.140625,0.09375 -0.015625,0.046875 0,0.09375 0,0.140625 l 0,1.71875 z m 0,0" id="path57661"/>
   </g>
   <g id="glyph2-6">
    <path d="M 0.53125,-2.71875 C 0.625,-3.0625 0.78125,-3.4375 1.140625,-3.578125 1.28125,-3.625 1.421875,-3.640625 1.578125,-3.625 c 0.3125,0.03125 0.625,0.15625 0.796875,0.40625 0.125,0.1875 0.171875,0.390625 0.140625,0.609375 C 2.4375,-2.046875 1.9375,-1.6875 1.515625,-1.375 1.203125,-1.109375 0.5,-0.5 0.5,-0.5 l -0.109375,0.09375 c -0.0625,0.0625 -0.0625,0.046875 -0.0625,0.171875 l 0,0.234375 2.625,0 0,-0.359375 -2.25,0 C 0.9375,-0.5625 1.609375,-1.140625 1.8125,-1.28125 2.1875,-1.5625 2.609375,-1.828125 2.84375,-2.25 3.09375,-2.71875 2.9375,-3.328125 2.53125,-3.671875 2.078125,-4.046875 1.25,-4.109375 0.75,-3.734375 0.5625,-3.59375 0.421875,-3.375 0.328125,-3.171875 0.3125,-3.125 0.265625,-3.0625 0.28125,-3.015625 c 0.015625,0.03125 0.046875,0.0625 0.0625,0.09375 0.0625,0.0625 0.125,0.140625 0.1875,0.203125 z m 0,0" id="path57664"/>
   </g>
   <g id="glyph2-7">
    <path d="m 0.578125,-3.015625 0.015625,0 c 0.234375,-0.40625 0.6875,-0.671875 1.171875,-0.625 0.34375,0.015625 0.671875,0.21875 0.625,0.625 -0.046875,0.328125 -0.3125,0.59375 -0.625,0.671875 -0.171875,0.0625 -0.46875,0.0625 -0.671875,0.078125 l 0,0.328125 0.390625,0 c 0.078125,0 0.171875,0 0.25,0 0.21875,0.03125 0.421875,0.109375 0.59375,0.25 0.265625,0.25 0.3125,0.703125 0.140625,1.015625 -0.078125,0.125 -0.171875,0.234375 -0.296875,0.3125 -0.3125,0.171875 -0.703125,0.140625 -1.03125,0.03125 -0.21875,-0.0625 -0.4375,-0.1875 -0.609375,-0.359375 -0.078125,-0.046875 -0.125,-0.125 -0.203125,-0.1875 -0.015625,0.0625 -0.03125,0.140625 -0.03125,0.21875 -0.03125,0.09375 -0.03125,0.109375 0.03125,0.171875 L 0.4375,-0.375 c 0.171875,0.15625 0.375,0.28125 0.59375,0.359375 0.453125,0.171875 1,0.15625 1.421875,-0.109375 C 2.875,-0.390625 3.171875,-0.9375 2.9375,-1.4375 2.78125,-1.78125 2.484375,-1.984375 2.09375,-2.09375 2.328125,-2.203125 2.484375,-2.296875 2.625,-2.5 2.75,-2.671875 2.875,-2.953125 2.8125,-3.234375 2.765625,-3.53125 2.515625,-3.75 2.25,-3.859375 1.875,-4.03125 1.40625,-4.015625 1.03125,-3.84375 0.828125,-3.75 0.65625,-3.625 0.5,-3.46875 c -0.015625,0.015625 -0.125,0.140625 -0.125,0.171875 0.015625,0.03125 0.15625,0.21875 0.203125,0.28125 z m 0,0" id="path57667"/>
   </g>
   <g id="glyph2-8">
    <path d="m 0.1875,-1.046875 1.796875,0 0,1.046875 0.40625,0 0,-1.046875 0.71875,0 0,-0.34375 -0.71875,0 0,-2.546875 -0.328125,0 c -0.046875,0 -0.109375,-0.015625 -0.140625,0 C 1.875,-3.890625 1.78125,-3.75 1.765625,-3.71875 l -0.34375,0.5 C 1.28125,-3.015625 0.3125,-1.59375 0.25,-1.484375 c -0.0625,0.0625 -0.0625,0.09375 -0.0625,0.21875 l 0,0.21875 z M 2,-3.5625 l 0,2.171875 -1.390625,0 L 1.5,-2.703125 C 1.65625,-2.984375 1.859375,-3.25 2,-3.5625 z m 0,0" id="path57670"/>
   </g>
   <g id="glyph3-0">
   </g>
   <g id="glyph3-1">
    <path d="M 0.625,-1.6875 C 0.5,-1.65625 0.484375,-1.46875 0.609375,-1.4375 0.65625,-1.421875 0.6875,-1.421875 0.71875,-1.421875 l 3.34375,0 c 0.078125,0 0.1875,0.015625 0.265625,-0.046875 C 4.40625,-1.546875 4.359375,-1.671875 4.25,-1.6875 4.1875,-1.71875 4.09375,-1.703125 4.015625,-1.703125 l -3.28125,0 c -0.03125,0 -0.078125,0 -0.109375,0.015625 z m 0,0" id="path57676"/>
   </g>
  </g>
  <clipPath id="clip1">
   <path d="m -221,667 612,0 0,-792 -612,0 0,792 z m 0,0" id="path57679"/>
  </clipPath>
  <clipPath id="clip2">
   <path d="m 0.625,291.80078 168,0 0,-291.999999 -168,0 0,291.999999 z m 0,0" id="path57682"/>
  </clipPath>
  <clipPath id="clip3">
   <path d="m 0.625,291.80078 167.88281,0 0,-291.476561 -167.88281,0 0,291.476561 z m 0,0" id="path57685"/>
  </clipPath>
 </defs>
 <g transform="translate(-90.0625,-107.36007)" id="g59068">
  <path d="m 128.41797,186.64453 0,-74.48828" id="path57713" fill="none" stroke="#000000" stroke-width="0.5"/>
  <path d="m 129.99219,113.24219 -1.59375,-5.9375 -1.58985,5.9375 3.1836,0" id="path57715"/>
  <path d="m 163.28906,146.84375 -73.210935,0" id="path57717" fill="none" stroke="#000000" stroke-width="0.5"/>
  <path d="m 162.20312,148.41406 5.9375,-1.58984 -5.9375,-1.58985 0,3.17969" id="path57719"/>
  <path d="m 119.56641,124.89062 c 0,0 -6.39063,5.86719 -3.37891,4.01563 l 6.57031,-6.29688 c 0,0 -9.71875,10.33594 -4.85937,6.71094 0,0 6.5039,-7.1914 7.59765,-6.84765 -0.26171,-0.082 -1.6914,1.55078 -1.86328,1.72656 -1.42578,1.42578 -2.63281,3.04687 -4.03906,4.48047 l -2.10547,2.48828 c 0,0 10.15235,-8.83203 10.92969,-8.83203 -0.42578,0.25781 -0.83984,0.52343 -1.25391,0.80078 -2.53515,1.70312 -5.25781,3.74609 -6.82422,6.42187 -0.19921,0.34375 -0.97656,1.58594 -0.77734,2.00391 0.13672,0.28516 0.61719,0.19531 1.07031,0.0195 0,0 10.27344,-10.33984 10.89063,-10.33984 0,0 0.88672,-0.6875 -0.54688,1.36718 0,0 -9.51953,9.10547 -6.57422,8.07813 0,0 8.76172,-7.66797 9.85938,-7.66797 0,0 -3.80078,4.14453 -5.33984,5.68359 0,0 -2.1211,3.35547 1.36718,0.54688 l 6.77735,-6.09375 c 0,0 -9.71875,11.09375 -4.85938,7.87109 0,0 8.625,-8.07812 6.77735,-4.99609 -1.10547,1.3125 -2.45313,2.73828 -3.15625,4.31641 -0.33204,0.74609 -0.14063,1.1289 0.67578,0.63281 1.05078,-0.63281 2.0039,-1.83985 2.91797,-2.66797 0.99609,-0.89844 1.99218,-1.78906 2.98437,-2.69141 -1.24609,1.13672 -2.49219,2.30078 -3.59766,3.57813 -0.20312,0.23047 -1.19921,1.19531 -0.91406,1.57031 0.45703,0.61328 3.20703,-2.21094 3.5586,-2.50781 0.13281,-0.11328 1.91015,-1.49219 1.91015,-1.20313 0,0.0937 -0.60156,0.54688 -0.67187,0.6211 -0.52735,0.54687 -2.03907,2.16406 -2.07032,2.95312 1.52735,-0.10547 2.25782,-2.3789 3.71094,-2.5039 0,0.66015 -0.80078,1.45703 -1.17187,1.9414" id="path57759" fill="none" stroke="#000000" stroke-linejoin="round" stroke-linecap="square" stroke-width="0.38"/>
  <path d="m 126.82031,140.13672 c 0,0 -2.53125,3.67187 -0.77343,1.91406 0,0 4.92968,-5.75 0.57031,0.57031 l 3.49219,-2.89453 c -0.65625,0.73047 -1.32032,1.48438 -1.86329,2.30469 -0.10937,0.16406 -0.58984,0.76562 -0.35156,0.95703 0.33203,0.26563 1.39844,-0.71875 1.58203,-0.875 0.3125,-0.27734 0.625,-0.55469 0.9336,-0.83203 0.43359,-0.38281 0.86328,-0.76172 1.29687,-1.14453 -0.60547,0.64453 -1.46875,1.41797 -1.80469,2.25 -0.17968,0.45312 -0.0742,0.52344 0.39454,0.38672 1.03125,-0.30469 1.5664,-1.48438 2.52734,-2 0.78906,-0.42578 0,0.80468 -0.13672,1.01172 -0.32031,0.48828 -1.05469,1.60937 -0.52734,2.14062" id="path57761" fill="none" stroke="#000000" stroke-linejoin="round" stroke-linecap="square" stroke-width="0.38"/>
  <path d="m 125.45313,155.05859 c 0,0 0.82031,-0.45312 2.32812,-2.32422 1.50391,-1.875 0.13672,-0.23046 0.13672,-0.23046 0,0 -4.29297,5.25 -1.37109,3.05859 0,0 3.69921,-3.74219 3.67968,-3.72656 -0.86328,0.92187 -1.75,1.86328 -2.48828,2.89843 -0.13281,0.19141 -0.65234,0.78125 -0.33984,0.95313 0.14844,0.0781 0.69531,-0.24609 0.78515,-0.32031 0.51954,-0.44141 1.00782,-1.12891 1.4961,-1.63282 0.3164,-0.32812 0.70312,-0.85937 1.13672,-1.03125 -0.11719,0.56641 -0.73828,1.17969 -1.07422,1.625 -0.22266,0.30079 -0.71485,0.61329 -0.8086,0.98438 -0.16796,0.64062 1.19141,-0.375 1.33204,-0.49219 0.41406,-0.33984 0.80078,-0.70703 1.22656,-1.03515 0.18359,-0.13672 0.8164,-0.71094 1.08984,-0.55469 0.40625,0.23828 -0.30078,1.38672 -0.42187,1.625 l -0.82032,1.07031" id="path57763" fill="none" stroke="#000000" stroke-linejoin="round" stroke-linecap="square" stroke-width="0.38"/>
  <path d="m 114.81641,163.78906 1.26953,-1.02734 -1.71485,2.98047 3.32032,-2.26172 c 0,0 -4.85938,5.23828 -1.16407,3.28515 0,0 4.65625,-3.48828 3.11719,-1.74218 -0.57422,0.65234 -1.13672,1.3164 -1.66406,2.00781 -0.16406,0.21484 -1.47656,1.83984 -0.66016,1.73047 0.33985,-0.0469 0.69532,-0.48438 0.94532,-0.69922 0.46484,-0.39844 0.92968,-0.78906 1.40625,-1.17188 0.48828,-0.39062 0.98828,-0.78125 1.51171,-1.1289 0.17188,-0.10938 0.75391,-0.57422 0.99219,-0.45703 0.17578,0.0859 0.0977,0.28125 0.0352,0.4375 0,0 -4.85938,4.82422 -3.01172,3.79687 0.83984,-0.63281 1.69141,-1.2539 2.54687,-1.86328 0.55079,-0.38672 1.09766,-0.78516 1.67188,-1.125 0.10156,-0.0625 0.44922,-0.32422 0.57422,-0.24609 0.35156,0.21875 -1.22266,1.32812 -1.39844,1.50781 -0.51562,0.54687 -1.02734,1.09375 -1.51953,1.66016 -0.37891,0.42968 -0.88281,0.91406 -1.12109,1.44531 -0.1836,0.40625 0.0156,0.41015 0.375,0.23047 l 6.77734,-5.57813 c 0,0 -7.59766,7.56641 -4.79297,5.92188 0,0 6.79688,-5.70313 6.8125,-5.71875 0.15234,-0.125 0.0703,0.26562 0.0703,0.26953 -0.0547,0.26953 -0.39453,0.57812 -0.5664,0.77734 -0.48438,0.56641 -1.01563,1.08985 -1.55078,1.60938 -1.17188,1.13281 -2.29688,2.16406 -3.15235,3.5625 -0.082,0.14062 -0.52734,0.75 -0.32812,0.90625 0.27343,0.21093 1.40625,-0.86719 1.55859,-0.9961 l 6.57031,-6.09375 c 0,0 -7.47656,8.98047 -3.90234,6.02344 3.15234,-2.60547 6.47266,-6.02344 6.47266,-6.02344 -0.0313,0.0273 -0.0625,0.0508 -0.0898,0.0781 -1.53125,1.32812 -3.04687,2.69531 -4.45312,4.16406 -0.41797,0.43359 -1.48828,1.3125 -1.53125,1.98438 -0.0156,0.23437 0.0313,0.26953 0.26562,0.30859 0.70703,0.11719 1.33594,-0.86719 1.75391,-1.28125 0.54687,-0.55078 1.09765,-1.09766 1.64844,-1.64844 1.60937,-1.61328 3.22265,-3.22656 4.83593,-4.83984 0,0 -6.91406,7.91015 -5.0664,7.1914 0,0 8.48828,-9.10546 7.80468,-7.76953 0,0 -6.46875,7.5625 -3.9375,6.05469 l 4.72266,-4.44531 c 0,0 -4.96094,4.99609 -3.07812,4.3789 0.96875,-0.3164 1.48437,-1.28906 2.18359,-1.96875 0.25,-0.24218 0.71094,-0.80078 1.10156,-0.80078" id="path57765" fill="none" stroke="#000000" stroke-linejoin="round" stroke-linecap="square" stroke-width="0.38"/>
  <use id="use57935" width="169" height="300" xlink:href="#glyph0-1" transform="translate(123.536,193.284)"/>
  <use id="use57937" width="169" height="300" xlink:href="#glyph0-6" transform="translate(126.55286,193.284)"/>
  <use id="use57939" width="169" height="300" xlink:href="#glyph0-3" transform="translate(130.37869,193.284)"/>
  <use id="use57943" width="169" height="300" xlink:href="#glyph1-1" transform="translate(163.019,144.117)"/>
  <use id="use57947" width="169" height="300" xlink:href="#glyph1-2" transform="translate(131.01801,112.068)"/>
  <use id="use57951" width="169" height="300" xlink:href="#glyph2-7" transform="translate(90.198997,182.306)"/>
  <use id="use57955" width="169" height="300" xlink:href="#glyph1-5" transform="translate(93.496147,182.306)"/>
  <use id="use57959" width="169" height="300" xlink:href="#glyph2-2" transform="translate(96.950546,182.306)"/>
  <use id="use57963" width="169" height="300" xlink:href="#glyph1-4" transform="translate(100.87075,182.306)"/>
  <use id="use57967" width="169" height="300" xlink:href="#glyph2-3" transform="translate(107.8484,182.306)"/>
  <use id="use57971" width="169" height="300" xlink:href="#glyph2-4" transform="translate(114.49576,182.306)"/>
  <use id="use57975" width="169" height="300" xlink:href="#glyph3-1" transform="translate(142.64,125.408)"/>
  <use id="use57979" width="169" height="300" xlink:href="#glyph2-5" transform="translate(134.41901,143.414)"/>
  <use id="use57983" width="169" height="300" xlink:href="#glyph3-1" transform="translate(134.41901,155.886)"/>
  <use id="use57987" width="169" height="300" xlink:href="#glyph2-5" transform="translate(138.955,173.29201)"/>
 </g>
</svg>
