<?xml version="1.0" encoding="UTF-8" standalone="no"?>
<!-- Created with Inkscape (http://www.inkscape.org/) -->

<svg
   xmlns:dc="http://purl.org/dc/elements/1.1/"
   xmlns:cc="http://creativecommons.org/ns#"
   xmlns:rdf="http://www.w3.org/1999/02/22-rdf-syntax-ns#"
   xmlns:svg="http://www.w3.org/2000/svg"
   xmlns="http://www.w3.org/2000/svg"
   xmlns:xlink="http://www.w3.org/1999/xlink"
   xmlns:sodipodi="http://sodipodi.sourceforge.net/DTD/sodipodi-0.dtd"
   xmlns:inkscape="http://www.inkscape.org/namespaces/inkscape"
   version="1.1"
   width="356.38181pt"
   height="175.36249pt"
   viewBox="0 0 252 124"
   id="svg2"
   inkscape:version="0.48.5 r10040"
   sodipodi:docname="f35-10_tc_big.svg">
  <sodipodi:namedview
     pagecolor="#ffffff"
     bordercolor="#666666"
     borderopacity="1"
     objecttolerance="10"
     gridtolerance="10"
     guidetolerance="10"
     inkscape:pageopacity="0"
     inkscape:pageshadow="2"
     inkscape:window-width="1130"
     inkscape:window-height="949"
     id="namedview260"
     showgrid="false"
     inkscape:zoom="2.0825397"
     inkscape:cx="222.73863"
     inkscape:cy="109.60155"
     inkscape:window-x="0"
     inkscape:window-y="0"
     inkscape:window-maximized="0"
     inkscape:current-layer="svg2" />
  <metadata
     id="metadata495">
    <rdf:RDF>
      <cc:Work
         rdf:about="">
        <dc:format>image/svg+xml</dc:format>
        <dc:type
           rdf:resource="http://purl.org/dc/dcmitype/StillImage" />
        <dc:title />
      </cc:Work>
    </rdf:RDF>
  </metadata>
  <defs
     id="defs4">
    <g
       id="g6">
      <symbol
         id="glyph0-0"
         style="overflow:visible">
        <path
           d=""
           id="path9"
           style="stroke:none" />
      </symbol>
      <symbol
         id="glyph0-1"
         style="overflow:visible">
        <path
           d="m 1.078125,-2.625 -0.015625,0 0,-0.671875 -0.484375,0 0,3.296875 0.515625,0 0,-1.53125 c 0,-0.34375 -0.03125,-0.671875 0.125,-0.984375 0.078125,-0.15625 0.203125,-0.296875 0.390625,-0.390625 0.125,-0.0625 0.265625,-0.0625 0.40625,-0.046875 C 2.25,-2.9375 2.484375,-2.875 2.609375,-2.6875 c 0.109375,0.15625 0.125,0.34375 0.125,0.53125 l 0,2.15625 0.5,0 0,-1.53125 C 3.234375,-1.875 3.21875,-2.203125 3.375,-2.515625 3.453125,-2.671875 3.578125,-2.8125 3.75,-2.90625 c 0.140625,-0.0625 0.28125,-0.0625 0.421875,-0.046875 0.21875,0.015625 0.46875,0.078125 0.59375,0.265625 0.109375,0.15625 0.125,0.34375 0.125,0.53125 l 0,2.15625 0.5,0 0,-1.875 c 0,-0.34375 0.03125,-0.734375 -0.140625,-1.046875 -0.140625,-0.25 -0.40625,-0.375 -0.6875,-0.40625 -0.140625,-0.015625 -0.28125,-0.03125 -0.40625,0 -0.296875,0.03125 -0.5625,0.203125 -0.75,0.421875 C 3.328125,-2.8125 3.25,-2.703125 3.21875,-2.609375 3.1875,-2.671875 3.1875,-2.734375 3.15625,-2.796875 3.03125,-3.125 2.75,-3.3125 2.328125,-3.34375 2.21875,-3.34375 2.109375,-3.359375 2,-3.328125 1.734375,-3.296875 1.515625,-3.171875 1.328125,-2.984375 1.21875,-2.890625 1.125,-2.75 1.078125,-2.625 z m 0,0"
           id="path12"
           style="stroke:none" />
      </symbol>
      <symbol
         id="glyph0-2"
         style="overflow:visible">
        <path
           d="m 0.65625,-4.578125 0,2.546875 0.296875,0 c 0.046875,0 0.09375,0.015625 0.140625,-0.015625 0.03125,-0.015625 0.0625,-0.0625 0.078125,-0.09375 0.046875,-0.0625 0.09375,-0.125 0.15625,-0.171875 0.296875,-0.234375 0.765625,-0.3125 1.125,-0.140625 0.390625,0.171875 0.5,0.625 0.5,1.015625 0,0.25 -0.046875,0.5 -0.171875,0.703125 C 2.5,-0.3125 1.921875,-0.21875 1.453125,-0.328125 1.0625,-0.421875 0.78125,-0.640625 0.578125,-0.921875 l -0.015625,0 c -0.015625,0.03125 -0.21875,0.3125 -0.21875,0.34375 0,0.03125 0.03125,0.046875 0.046875,0.0625 C 0.625,-0.28125 0.84375,-0.109375 1.1875,0 1.828125,0.21875 2.578125,0.109375 3.0625,-0.390625 3.28125,-0.625 3.421875,-0.90625 3.46875,-1.21875 3.59375,-2.09375 2.953125,-3.015625 1.875,-2.921875 1.5625,-2.890625 1.359375,-2.765625 1.140625,-2.59375 l 0,-1.5625 2.078125,0 0,-0.421875 -2.5625,0 z m 0,0"
           id="path15"
           style="stroke:none" />
      </symbol>
      <symbol
         id="glyph0-3"
         style="overflow:visible">
        <path
           d="M 1.828125,-4.6875 C 1.671875,-4.65625 1.5,-4.640625 1.359375,-4.5625 0.625,-4.28125 0.375,-3.34375 0.375,-2.40625 c 0,0.140625 0,0.28125 0,0.4375 0.015625,0.640625 0.171875,1.28125 0.53125,1.671875 0.3125,0.3125 0.765625,0.4375 1.1875,0.40625 0.265625,-0.03125 0.484375,-0.125 0.671875,-0.25 C 3.359375,-0.5625 3.5,-1.421875 3.5,-2.359375 3.5,-3.125 3.359375,-3.8125 2.984375,-4.234375 2.703125,-4.546875 2.265625,-4.71875 1.828125,-4.6875 z m 0.59375,0.515625 C 2.5,-4.125 2.5625,-4.078125 2.625,-4.015625 c 0.265625,0.25 0.34375,0.75 0.359375,1.21875 0,0.09375 0,0.1875 0,0.28125 l 0,0.359375 c 0,0.59375 -0.046875,1.171875 -0.3125,1.53125 -0.34375,0.453125 -1.09375,0.46875 -1.453125,0.015625 C 1.125,-0.703125 1.078125,-0.828125 1.03125,-0.9375 0.90625,-1.296875 0.875,-1.734375 0.875,-2.1875 l 0,-0.359375 c 0,-0.09375 0.015625,-0.171875 0.015625,-0.265625 0,-0.546875 0.140625,-1.09375 0.5,-1.328125 0.28125,-0.171875 0.703125,-0.21875 1.03125,-0.03125 z m 0,0"
           id="path18"
           style="stroke:none" />
      </symbol>
      <symbol
         id="glyph0-4"
         style="overflow:visible">
        <path
           d="m 0.90625,-2.328125 0,0 c 0,-0.59375 0.125,-1.28125 0.625,-1.671875 0.328125,-0.265625 0.796875,-0.390625 1.375,-0.234375 0.109375,0.015625 0.203125,0.0625 0.3125,0.09375 l 0,-0.28125 c 0,-0.03125 0,-0.09375 -0.015625,-0.109375 -0.046875,-0.0625 -0.46875,-0.125 -0.46875,-0.125 -0.625,-0.09375 -1.09375,0.078125 -1.453125,0.375 -0.453125,0.34375 -0.734375,0.875 -0.84375,1.4375 -0.046875,0.265625 -0.0625,0.546875 -0.046875,0.828125 0.03125,0.640625 0.125,1.15625 0.453125,1.578125 0.390625,0.53125 1.140625,0.703125 1.734375,0.421875 C 2.84375,-0.140625 3.0625,-0.375 3.21875,-0.609375 3.453125,-0.9375 3.5,-1.328125 3.484375,-1.71875 3.46875,-1.921875 3.421875,-2.125 3.359375,-2.3125 3.21875,-2.609375 2.96875,-2.953125 2.6875,-3.09375 2.546875,-3.140625 2.40625,-3.15625 2.25,-3.15625 1.875,-3.15625 1.515625,-3 1.21875,-2.75 1.125,-2.65625 0.953125,-2.453125 0.90625,-2.328125 z m 1.078125,-0.4375 c 0.234375,0 0.46875,0.03125 0.65625,0.203125 0.0625,0.046875 0.09375,0.109375 0.140625,0.15625 0.1875,0.25 0.1875,0.5625 0.1875,0.859375 0,0.46875 -0.046875,0.75 -0.3125,1.015625 -0.203125,0.203125 -0.46875,0.25 -0.75,0.25 C 1.609375,-0.296875 1.328125,-0.4375 1.15625,-0.671875 1.0625,-0.828125 1.015625,-1 0.96875,-1.171875 0.921875,-1.40625 0.890625,-1.65625 0.9375,-1.875 c 0.09375,-0.5 0.53125,-0.90625 1.046875,-0.890625 z m 0,0"
           id="path21"
           style="stroke:none" />
      </symbol>
      <symbol
         id="glyph0-5"
         style="overflow:visible">
        <path
           d="m 0.78125,-4.21875 0,0.390625 c 0.34375,0 0.6875,-0.0625 1,-0.203125 l 0,3.640625 -0.96875,0 0,0.390625 2.4375,0 0,-0.390625 -0.96875,0 0,-4.296875 c -0.03125,0 -0.09375,0 -0.125,0.015625 C 2.109375,-4.65625 2.0625,-4.59375 2.015625,-4.5625 1.734375,-4.328125 1.21875,-4.21875 0.78125,-4.21875 z m 0,0"
           id="path24"
           style="stroke:none" />
      </symbol>
      <symbol
         id="glyph0-6"
         style="overflow:visible">
        <path
           d="m 0.625,-3.203125 c 0.109375,-0.40625 0.28125,-0.84375 0.71875,-1 0.15625,-0.0625 0.328125,-0.078125 0.515625,-0.0625 0.359375,0.03125 0.71875,0.171875 0.9375,0.484375 0.140625,0.203125 0.1875,0.453125 0.15625,0.703125 C 2.875,-2.40625 2.28125,-1.984375 1.796875,-1.609375 1.40625,-1.3125 0.59375,-0.59375 0.59375,-0.59375 l -0.140625,0.109375 c -0.0625,0.078125 -0.0625,0.0625 -0.0625,0.21875 l 0,0.265625 3.09375,0 0,-0.4375 -2.640625,0 c 0.265625,-0.234375 1.0625,-0.90625 1.296875,-1.078125 0.4375,-0.328125 0.921875,-0.640625 1.203125,-1.125 0.296875,-0.5625 0.109375,-1.28125 -0.375,-1.671875 -0.53125,-0.453125 -1.5,-0.515625 -2.09375,-0.078125 -0.21875,0.15625 -0.375,0.40625 -0.484375,0.65625 -0.015625,0.0625 -0.0625,0.125 -0.0625,0.1875 0.015625,0.03125 0.0625,0.0625 0.078125,0.109375 0.0625,0.078125 0.140625,0.171875 0.21875,0.234375 z m 0,0"
           id="path27"
           style="stroke:none" />
      </symbol>
      <symbol
         id="glyph0-7"
         style="overflow:visible">
        <path
           d="m 0.6875,-3.546875 0,0 C 0.96875,-4.03125 1.515625,-4.34375 2.078125,-4.28125 2.484375,-4.265625 2.875,-4.03125 2.8125,-3.546875 2.765625,-3.15625 2.453125,-2.859375 2.078125,-2.75 1.875,-2.6875 1.515625,-2.671875 1.296875,-2.65625 l 0,0.390625 0.453125,0 c 0.09375,0 0.1875,-0.015625 0.296875,0 0.25,0.015625 0.5,0.109375 0.6875,0.28125 C 3.046875,-1.6875 3.09375,-1.15625 2.90625,-0.78125 2.8125,-0.640625 2.703125,-0.515625 2.546875,-0.4375 2.1875,-0.21875 1.734375,-0.265625 1.34375,-0.390625 1.078125,-0.46875 0.828125,-0.609375 0.625,-0.796875 0.53125,-0.875 0.46875,-0.953125 0.390625,-1.03125 0.375,-0.953125 0.359375,-0.859375 0.34375,-0.78125 0.328125,-0.671875 0.3125,-0.640625 0.390625,-0.5625 l 0.125,0.125 c 0.203125,0.171875 0.4375,0.3125 0.6875,0.421875 0.546875,0.203125 1.1875,0.1875 1.6875,-0.125 C 3.375,-0.46875 3.734375,-1.09375 3.453125,-1.6875 3.265625,-2.09375 2.921875,-2.328125 2.46875,-2.46875 c 0.265625,-0.125 0.453125,-0.234375 0.625,-0.484375 0.140625,-0.203125 0.296875,-0.515625 0.21875,-0.84375 -0.0625,-0.34375 -0.34375,-0.609375 -0.65625,-0.75 -0.453125,-0.203125 -1,-0.171875 -1.453125,0.03125 -0.234375,0.09375 -0.4375,0.25 -0.609375,0.4375 C 0.5625,-4.0625 0.453125,-3.921875 0.453125,-3.875 c 0,0.03125 0.171875,0.265625 0.234375,0.328125 z m 0,0"
           id="path30"
           style="stroke:none" />
      </symbol>
      <symbol
         id="glyph0-8"
         style="overflow:visible">
        <path
           d="m 0.21875,-1.21875 2.125,0 0,1.21875 0.46875,0 0,-1.21875 0.84375,0 0,-0.421875 -0.84375,0 0,-3 -0.390625,0 c -0.046875,0 -0.125,-0.015625 -0.15625,0.015625 -0.0625,0.046875 -0.15625,0.21875 -0.1875,0.234375 L 1.671875,-3.78125 C 1.515625,-3.546875 0.375,-1.875 0.296875,-1.75 0.21875,-1.671875 0.21875,-1.640625 0.21875,-1.5 l 0,0.28125 z m 2.140625,-2.96875 0,2.546875 -1.640625,0 1.046875,-1.546875 c 0.1875,-0.328125 0.421875,-0.640625 0.59375,-1 z m 0,0"
           id="path33"
           style="stroke:none" />
      </symbol>
      <symbol
         id="glyph0-9"
         style="overflow:visible">
        <path
           d="m 0.734375,-4.84375 0,4.84375 1.53125,0 c 0.625,0 0.9375,0.03125 1.453125,-0.21875 C 4.359375,-0.515625 4.875,-1.109375 5.03125,-1.875 5.234375,-2.84375 4.828125,-3.90625 4,-4.453125 3.703125,-4.640625 3.359375,-4.78125 3,-4.828125 2.71875,-4.84375 2.4375,-4.84375 2.15625,-4.84375 l -1.421875,0 z m 0.515625,4.4375 0,-4.015625 0.984375,0 c 0.1875,0 0.375,-0.015625 0.5625,0 0.5,0.046875 0.921875,0.25 1.21875,0.546875 C 4.375,-3.5 4.53125,-3 4.5625,-2.5 4.59375,-1.90625 4.40625,-1.296875 3.96875,-0.890625 3.6875,-0.640625 3.25,-0.453125 2.796875,-0.421875 2.609375,-0.40625 2.4375,-0.40625 2.25,-0.40625 l -1,0 z m 0,0"
           id="path36"
           style="stroke:none" />
      </symbol>
      <symbol
         id="glyph0-10"
         style="overflow:visible">
        <path
           d="M 0.703125,-2.78125 C 0.25,-2.234375 0.140625,-1.421875 0.5,-0.78125 0.78125,-0.28125 1.359375,0.125 2.109375,0.046875 2.75,-0.015625 3.28125,-0.484375 3.46875,-1 3.734375,-1.703125 3.53125,-2.53125 2.953125,-3.015625 2.796875,-3.140625 2.625,-3.21875 2.4375,-3.296875 1.71875,-3.53125 1.0625,-3.21875 0.703125,-2.78125 z M 2.25,-2.953125 c 0.109375,0.03125 0.203125,0.078125 0.296875,0.125 0.4375,0.25 0.546875,0.8125 0.515625,1.28125 -0.015625,0.328125 -0.09375,0.640625 -0.328125,0.875 C 2.34375,-0.25 1.53125,-0.234375 1.125,-0.671875 0.90625,-0.90625 0.828125,-1.21875 0.796875,-1.546875 0.765625,-2 0.859375,-2.390625 1.09375,-2.640625 c 0.265625,-0.28125 0.6875,-0.40625 1.15625,-0.3125 z m 0,0"
           id="path39"
           style="stroke:none" />
      </symbol>
      <symbol
         id="glyph0-11"
         style="overflow:visible">
        <path
           d="m 0.578125,-3.296875 0,2.375 c 0,0.296875 0.03125,0.546875 0.203125,0.75 0.25,0.296875 0.78125,0.265625 1.125,0.15625 C 2.25,-0.09375 2.625,-0.34375 2.734375,-0.59375 l 0.015625,0 0,0.59375 0.484375,0 0,-3.296875 -0.5,0 0,1.671875 c 0,0.40625 0.03125,0.75 -0.234375,1.03125 -0.25,0.234375 -0.578125,0.296875 -0.921875,0.265625 -0.140625,0 -0.3125,-0.015625 -0.40625,-0.140625 C 1.09375,-0.5625 1.09375,-0.703125 1.09375,-0.828125 l 0,-2.46875 -0.515625,0 z m 0,0"
           id="path42"
           style="stroke:none" />
      </symbol>
      <symbol
         id="glyph0-12"
         style="overflow:visible">
        <path
           d="m 0.578125,-4.84375 0,4.84375 0.515625,0 0,-0.46875 0,0 c 0.0625,0.109375 0.171875,0.203125 0.265625,0.28125 0.3125,0.25 0.828125,0.328125 1.28125,0.109375 0.203125,-0.109375 0.375,-0.28125 0.515625,-0.46875 C 3.84375,-1.5 3.421875,-3.09375 2.453125,-3.3125 c -0.125,-0.046875 -0.28125,-0.046875 -0.421875,-0.015625 -0.40625,0.046875 -0.71875,0.25 -0.953125,0.5 l 0,-2.015625 -0.5,0 z M 1.8125,-2.953125 c 0.328125,-0.03125 0.703125,0.109375 0.921875,0.375 0.171875,0.21875 0.234375,0.5 0.234375,0.765625 0.03125,0.375 -0.015625,0.78125 -0.25,1.078125 -0.203125,0.265625 -0.53125,0.375 -0.84375,0.40625 -0.265625,0 -0.5,-0.09375 -0.671875,-0.3125 C 1.171875,-0.6875 1.125,-0.75 1.09375,-0.8125 c 0,-0.046875 0,-0.09375 0,-0.125 l 0,-1.390625 c 0,-0.0625 -0.015625,-0.140625 0.015625,-0.203125 0.03125,-0.078125 0.09375,-0.125 0.15625,-0.1875 0.15625,-0.125 0.34375,-0.21875 0.546875,-0.234375 z m 0,0"
           id="path45"
           style="stroke:none" />
      </symbol>
      <symbol
         id="glyph0-13"
         style="overflow:visible">
        <path
           d="m 0.578125,-4.84375 0,4.84375 0.5,0 0,-4.84375 -0.5,0 z m 0,0"
           id="path48"
           style="stroke:none" />
      </symbol>
      <symbol
         id="glyph0-14"
         style="overflow:visible">
        <path
           d="M 3.140625,-0.796875 C 3.09375,-0.765625 3.046875,-0.71875 3,-0.6875 2.59375,-0.390625 1.875,-0.140625 1.328125,-0.53125 0.984375,-0.78125 0.78125,-1.15625 0.78125,-1.734375 l 2.421875,0 c 0,-0.515625 -0.125,-1 -0.421875,-1.296875 C 2.4375,-3.34375 1.90625,-3.4375 1.46875,-3.328125 1.28125,-3.28125 1.109375,-3.1875 0.953125,-3.0625 c -0.4375,0.34375 -0.65625,0.890625 -0.65625,1.453125 0.015625,0.78125 0.59375,1.5 1.375,1.640625 0.390625,0.078125 0.8125,-0.015625 1.171875,-0.1875 0.0625,-0.03125 0.296875,-0.15625 0.3125,-0.21875 0.03125,-0.03125 0,-0.328125 -0.015625,-0.421875 z m -0.359375,-1.25 -1.96875,0 c 0.09375,-0.3125 0.25,-0.609375 0.53125,-0.796875 0.34375,-0.21875 0.859375,-0.1875 1.15625,0.125 0.171875,0.1875 0.25,0.421875 0.28125,0.671875 z m 0,0"
           id="path51"
           style="stroke:none" />
      </symbol>
      <symbol
         id="glyph0-15"
         style="overflow:visible">
        <path
           d="m 1.078125,-2.625 -0.015625,0 0,-0.671875 -0.484375,0 0,3.296875 0.515625,0 0,-1.53125 c 0,-0.34375 -0.03125,-0.671875 0.125,-0.984375 0.078125,-0.15625 0.203125,-0.296875 0.390625,-0.390625 0.125,-0.0625 0.265625,-0.0625 0.40625,-0.046875 C 2.25,-2.9375 2.484375,-2.875 2.609375,-2.6875 c 0.109375,0.15625 0.125,0.34375 0.125,0.53125 l 0,2.15625 0.5,0 0,-1.875 c 0,-0.34375 0.046875,-0.734375 -0.140625,-1.046875 -0.140625,-0.25 -0.40625,-0.375 -0.6875,-0.40625 C 2.078125,-3.375 1.765625,-3.3125 1.484375,-3.125 c -0.15625,0.109375 -0.34375,0.328125 -0.40625,0.5 z m 0,0"
           id="path54"
           style="stroke:none" />
      </symbol>
      <symbol
         id="glyph0-16"
         style="overflow:visible">
        <path
           d="m 0.296875,-0.71875 c -0.015625,0.09375 -0.03125,0.203125 -0.0625,0.3125 0,0.03125 -0.03125,0.09375 0,0.125 0.015625,0.046875 0.09375,0.078125 0.140625,0.09375 0.3125,0.140625 0.578125,0.203125 0.984375,0.234375 0.5,0.046875 1.09375,-0.0625 1.34375,-0.5625 0.046875,-0.125 0.078125,-0.265625 0.078125,-0.40625 0,-0.09375 0,-0.1875 -0.03125,-0.265625 C 2.640625,-1.515625 2.359375,-1.734375 2.0625,-1.84375 1.890625,-1.90625 1.71875,-1.9375 1.546875,-1.96875 1.296875,-2.015625 0.984375,-2.046875 0.8125,-2.265625 0.671875,-2.421875 0.703125,-2.640625 0.84375,-2.796875 1.015625,-2.96875 1.28125,-3 1.609375,-2.984375 c 0.296875,0.015625 0.546875,0.078125 0.78125,0.1875 0.0625,0.015625 0.125,0.0625 0.1875,0.078125 L 2.65625,-3.140625 C 2.3125,-3.296875 2,-3.375 1.515625,-3.375 1.09375,-3.375 0.734375,-3.28125 0.5,-3.046875 c -0.234375,0.25 -0.3125,0.65625 -0.15625,0.96875 0.140625,0.265625 0.421875,0.4375 0.703125,0.53125 0.40625,0.109375 0.9375,0.09375 1.171875,0.390625 0.15625,0.171875 0.140625,0.4375 -0.03125,0.59375 -0.078125,0.09375 -0.203125,0.15625 -0.328125,0.171875 -0.53125,0.125 -1.109375,-0.078125 -1.4375,-0.25 -0.046875,-0.03125 -0.09375,-0.0625 -0.125,-0.078125 z m 0,0"
           id="path57"
           style="stroke:none" />
      </symbol>
      <symbol
         id="glyph0-17"
         style="overflow:visible">
        <path
           d="m 0.578125,-4.84375 0,0.5 0.5,0 0,-0.5 -0.5,0 z m 0,1.546875 0,3.296875 0.5,0 0,-3.296875 -0.5,0 z m 0,0"
           id="path60"
           style="stroke:none" />
      </symbol>
      <symbol
         id="glyph0-18"
         style="overflow:visible">
        <path
           d="m 0.84375,-4.234375 0,0.9375 -0.703125,0 0,0.390625 0.6875,0 0,1.984375 c 0,0.296875 0.015625,0.65625 0.265625,0.859375 0.140625,0.125 0.3125,0.125 0.484375,0.109375 C 1.96875,0.03125 2.3125,-0.09375 2.578125,-0.25 L 2.484375,-0.625 C 2.40625,-0.578125 2.328125,-0.515625 2.25,-0.46875 2.03125,-0.359375 1.640625,-0.265625 1.453125,-0.453125 1.28125,-0.640625 1.3125,-0.953125 1.3125,-1.1875 l 0,-1.71875 1.140625,0 0,-0.390625 -1.140625,0 0,-0.9375 -0.46875,0 z m 0,0"
           id="path63"
           style="stroke:none" />
      </symbol>
      <symbol
         id="glyph0-19"
         style="overflow:visible">
        <path
           d="M 0.109375,-3.296875 C 0.203125,-3.015625 0.34375,-2.75 0.453125,-2.46875 0.53125,-2.296875 1.5,-0.0625 1.5,-0.015625 1.515625,0.046875 1.390625,0.296875 1.390625,0.3125 1.3125,0.5 1.203125,0.71875 1,0.796875 0.796875,0.90625 0.34375,0.78125 0.1875,0.734375 l 0.03125,0.4375 c 0.171875,0.015625 0.515625,0.0625 0.671875,0.046875 0.515625,-0.046875 0.75,-0.5625 0.90625,-0.9375 l 0.21875,-0.515625 0.859375,-2.09375 0.265625,-0.625 C 3.1875,-3.0625 3.25,-3.171875 3.28125,-3.296875 l -0.34375,0 c -0.03125,0 -0.109375,0 -0.140625,0.015625 C 2.78125,-3.25 2.703125,-3.0625 2.703125,-3.0625 L 2.5,-2.546875 l -0.515625,1.25 c -0.09375,0.265625 -0.203125,0.515625 -0.265625,0.78125 -0.078125,-0.28125 -0.1875,-0.5625 -0.296875,-0.84375 l -0.71875,-1.71875 -0.0625,-0.140625 c -0.03125,-0.078125 -0.0625,-0.078125 -0.1875,-0.078125 l -0.34375,0 z m 0,0"
           id="path66"
           style="stroke:none" />
      </symbol>
      <symbol
         id="glyph0-20"
         style="overflow:visible">
        <path
           d="m 0.734375,-4.84375 0,4.84375 0.53125,0 0,-2.015625 1.03125,0 c 0.15625,0 0.328125,0 0.484375,0 0.765625,-0.0625 1.515625,-0.5 1.640625,-1.203125 C 4.5,-3.625 4.328125,-3.953125 4.140625,-4.1875 3.859375,-4.53125 3.421875,-4.765625 2.90625,-4.828125 2.65625,-4.84375 2.40625,-4.84375 2.171875,-4.84375 l -1.4375,0 z M 1.25,-2.421875 l 0,-2 1.046875,0 c 0.609375,0 1.171875,0.0625 1.46875,0.46875 0.234375,0.3125 0.234375,0.75 0,1.0625 C 3.6875,-2.78125 3.578125,-2.703125 3.46875,-2.625 3.109375,-2.421875 2.703125,-2.421875 2.328125,-2.421875 l -1.078125,0 z m 0,0"
           id="path69"
           style="stroke:none" />
      </symbol>
      <symbol
         id="glyph0-21"
         style="overflow:visible">
        <path
           d="m 2.96875,-2.25 0,0 c 0,0.59375 -0.09375,1.28125 -0.578125,1.6875 -0.0625,0.046875 -0.140625,0.09375 -0.21875,0.140625 -0.359375,0.171875 -0.8125,0.1875 -1.1875,0 C 0.90625,-0.46875 0.84375,-0.515625 0.75,-0.5625 L 0.5625,-0.203125 C 0.71875,-0.09375 0.890625,0 1.078125,0.046875 c 0.5,0.140625 1.03125,0.0625 1.4375,-0.234375 0.515625,-0.375 0.875,-1.03125 0.953125,-1.765625 C 3.484375,-2.15625 3.484375,-2.359375 3.484375,-2.5625 3.453125,-3.234375 3.3125,-3.84375 2.953125,-4.234375 2.84375,-4.359375 2.703125,-4.453125 2.5625,-4.546875 2.171875,-4.75 1.640625,-4.71875 1.25,-4.515625 0.96875,-4.375 0.734375,-4.125 0.578125,-3.875 c -0.140625,0.265625 -0.1875,0.5625 -0.1875,0.84375 0,0.328125 0.046875,0.625 0.1875,0.90625 0.125,0.25 0.328125,0.53125 0.609375,0.640625 0.140625,0.0625 0.28125,0.0625 0.4375,0.0625 0.390625,0 0.78125,-0.171875 1.0625,-0.453125 0.109375,-0.109375 0.21875,-0.234375 0.28125,-0.375 z M 1.859375,-4.296875 C 2.1875,-4.3125 2.515625,-4.1875 2.703125,-3.90625 2.8125,-3.75 2.875,-3.546875 2.90625,-3.359375 2.953125,-3.140625 2.96875,-2.90625 2.921875,-2.6875 2.84375,-2.25 2.46875,-1.84375 2,-1.8125 1.734375,-1.796875 1.453125,-1.8125 1.25,-2 0.984375,-2.203125 0.90625,-2.5 0.90625,-2.953125 c 0,-0.4375 0,-0.71875 0.234375,-1 C 1.296875,-4.15625 1.53125,-4.25 1.859375,-4.296875 z m 0,0"
           id="path72"
           style="stroke:none" />
      </symbol>
      <symbol
         id="glyph1-0"
         style="overflow:visible">
        <path
           d=""
           id="path75"
           style="stroke:none" />
      </symbol>
      <symbol
         id="glyph1-1"
         style="overflow:visible">
        <path
           d="m 1,-0.171875 c 0.359375,0.25 0.859375,0.296875 1.25,0.125 C 2.453125,-0.125 2.640625,-0.265625 2.796875,-0.4375 2.8125,-0.359375 2.84375,-0.296875 2.890625,-0.234375 3.078125,0.03125 3.5,0.140625 3.796875,-0.015625 4.078125,-0.171875 4.25,-0.5 4.34375,-0.796875 4.375,-0.90625 4.40625,-1 4.421875,-1.09375 l -0.375,0 c -0.03125,0 -0.109375,-0.015625 -0.125,0 -0.015625,0.015625 -0.015625,0.046875 -0.03125,0.0625 -0.03125,0.21875 -0.125,0.59375 -0.265625,0.6875 -0.078125,0.03125 -0.171875,-0.015625 -0.234375,-0.0625 -0.1875,-0.15625 -0.09375,-0.40625 -0.0625,-0.609375 0.03125,-0.15625 0.4375,-2.015625 0.4375,-2.078125 0,-0.125 -0.09375,-0.203125 -0.203125,-0.203125 -0.109375,0 -0.21875,0.078125 -0.28125,0.171875 C 3.25,-3.046875 3.234375,-2.96875 3.21875,-2.90625 L 3.140625,-2.515625 C 3.015625,-1.875 2.890625,-1.1875 2.53125,-0.71875 2.453125,-0.59375 2.328125,-0.484375 2.1875,-0.421875 1.984375,-0.3125 1.734375,-0.3125 1.53125,-0.40625 1.296875,-0.515625 1.203125,-0.78125 1.21875,-1.015625 1.21875,-1.25 1.28125,-1.46875 1.328125,-1.6875 1.359375,-1.8125 1.625,-3.09375 1.625,-3.140625 c 0,-0.09375 -0.046875,-0.1875 -0.15625,-0.203125 -0.125,-0.015625 -0.25,0.046875 -0.3125,0.171875 -0.046875,0.0625 -0.0625,0.140625 -0.0625,0.21875 -0.234375,1.03125 -0.640625,3.0625 -0.828125,3.890625 -0.03125,0.09375 -0.0625,0.21875 0.046875,0.296875 0.140625,0.109375 0.359375,0 0.421875,-0.140625 C 0.75,1.03125 1,-0.125 1,-0.171875 z m 0,0"
           id="path78"
           style="stroke:none" />
      </symbol>
      <symbol
         id="glyph1-2"
         style="overflow:visible">
        <path
           d="m 0.78125,-0.578125 0,0.578125 0.578125,0 0,-0.578125 -0.578125,0 z m 0,0"
           id="path81"
           style="stroke:none" />
      </symbol>
      <symbol
         id="glyph2-0"
         style="overflow:visible">
        <path
           d=""
           id="path84"
           style="stroke:none" />
      </symbol>
      <symbol
         id="glyph2-1"
         style="overflow:visible">
        <path
           d="m 0.796875,-2.15625 c -0.203125,0.15625 -0.203125,0.484375 0,0.625 0.125,0.09375 0.3125,0.109375 0.453125,0 0.21875,-0.140625 0.21875,-0.46875 0,-0.625 -0.125,-0.09375 -0.3125,-0.109375 -0.453125,0 z m 0,0"
           id="path87"
           style="stroke:none" />
      </symbol>
    </g>
    <clipPath
       id="clip1">
      <path
         d="m -180,667 612,0 0,-792 -612,0 0,792 z m 0,0"
         id="path90" />
    </clipPath>
    <clipPath
       id="clip2">
      <path
         d="m 22.867188,119.20703 206.929682,0 0,-119.011717 -206.929682,0 0,119.011717 z m 0,0"
         id="path93" />
    </clipPath>
    <clipPath
       id="clip3">
      <path
         d="m -180,667 612,0 0,-792 -612,0 0,792 z m 0,0"
         id="path96" />
    </clipPath>
  </defs>
  <g
     clip-path="url(#clip1)"
     id="g99">
    <g
       clip-path="url(#clip2)"
       id="g101">
      <path
         d="m 1911.489,990.65087 0,-953.89021 -1907.743974,0 0,953.89021"
         transform="matrix(0.107217,0,0,-0.107217,22.868,119.207)"
         id="path103"
         style="fill:none;stroke:#000000;stroke-width:7.5;stroke-linecap:butt;stroke-linejoin:miter;stroke-miterlimit:4;stroke-opacity:1" />
      <path
         d="m 1911.489,354.52975 -29.9844,0"
         transform="matrix(0.107217,0,0,-0.107217,22.868,119.207)"
         id="path105"
         style="fill:none;stroke:#000000;stroke-width:5;stroke-linecap:butt;stroke-linejoin:miter;stroke-miterlimit:4;stroke-opacity:1" />
      <path
         d="m 33.765863,272.48252 -30.020837,0"
         transform="matrix(0.107217,0,0,-0.107217,22.868,119.207)"
         id="path107"
         style="fill:none;stroke:#000000;stroke-width:5;stroke-linecap:butt;stroke-linejoin:miter;stroke-miterlimit:4;stroke-opacity:1" />
      <path
         d="m 110.9675,66.781496 0,-30.020836"
         transform="matrix(0.107217,0,0,-0.107217,22.868,119.207)"
         id="path109"
         style="fill:none;stroke:#000000;stroke-width:5;stroke-linecap:butt;stroke-linejoin:miter;stroke-miterlimit:4;stroke-opacity:1" />
      <path
         d="m 205.43841,88.42273 0,-51.66207"
         transform="matrix(0.107217,0,0,-0.107217,22.868,119.207)"
         id="path111"
         style="fill:none;stroke:#000000;stroke-width:5;stroke-linecap:butt;stroke-linejoin:miter;stroke-miterlimit:4;stroke-opacity:1" />
      <path
         d="m 299.90932,66.781496 0,-30.020836"
         transform="matrix(0.107217,0,0,-0.107217,22.868,119.207)"
         id="path113"
         style="fill:none;stroke:#000000;stroke-width:5;stroke-linecap:butt;stroke-linejoin:miter;stroke-miterlimit:4;stroke-opacity:1" />
      <path
         d="m 394.41666,66.781496 0,-30.020836"
         transform="matrix(0.107217,0,0,-0.107217,22.868,119.207)"
         id="path115"
         style="fill:none;stroke:#000000;stroke-width:5;stroke-linecap:butt;stroke-linejoin:miter;stroke-miterlimit:4;stroke-opacity:1" />
      <path
         d="m 488.88757,66.781496 0,-30.020836"
         transform="matrix(0.107217,0,0,-0.107217,22.868,119.207)"
         id="path117"
         style="fill:none;stroke:#000000;stroke-width:5;stroke-linecap:butt;stroke-linejoin:miter;stroke-miterlimit:4;stroke-opacity:1" />
      <path
         d="m 583.35848,66.781496 0,-30.020836"
         transform="matrix(0.107217,0,0,-0.107217,22.868,119.207)"
         id="path119"
         style="fill:none;stroke:#000000;stroke-width:5;stroke-linecap:butt;stroke-linejoin:miter;stroke-miterlimit:4;stroke-opacity:1" />
      <path
         d="m 677.86582,88.42273 0,-51.66207"
         transform="matrix(0.107217,0,0,-0.107217,22.868,119.207)"
         id="path121"
         style="fill:none;stroke:#000000;stroke-width:5;stroke-linecap:butt;stroke-linejoin:miter;stroke-miterlimit:4;stroke-opacity:1" />
      <path
         d="m 772.33673,66.781496 0,-30.020836"
         transform="matrix(0.107217,0,0,-0.107217,22.868,119.207)"
         id="path123"
         style="fill:none;stroke:#000000;stroke-width:5;stroke-linecap:butt;stroke-linejoin:miter;stroke-miterlimit:4;stroke-opacity:1" />
      <path
         d="m 866.84407,66.781496 0,-30.020836"
         transform="matrix(0.107217,0,0,-0.107217,22.868,119.207)"
         id="path125"
         style="fill:none;stroke:#000000;stroke-width:5;stroke-linecap:butt;stroke-linejoin:miter;stroke-miterlimit:4;stroke-opacity:1" />
      <path
         d="m 961.31498,66.781496 0,-30.020836"
         transform="matrix(0.107217,0,0,-0.107217,22.868,119.207)"
         id="path127"
         style="fill:none;stroke:#000000;stroke-width:5;stroke-linecap:butt;stroke-linejoin:miter;stroke-miterlimit:4;stroke-opacity:1" />
      <path
         d="m 1055.7859,66.781496 0,-30.020836"
         transform="matrix(0.107217,0,0,-0.107217,22.868,119.207)"
         id="path129"
         style="fill:none;stroke:#000000;stroke-width:5;stroke-linecap:butt;stroke-linejoin:miter;stroke-miterlimit:4;stroke-opacity:1" />
      <path
         d="m 1150.2932,88.42273 0,-51.66207"
         transform="matrix(0.107217,0,0,-0.107217,22.868,119.207)"
         id="path131"
         style="fill:none;stroke:#000000;stroke-width:5;stroke-linecap:butt;stroke-linejoin:miter;stroke-miterlimit:4;stroke-opacity:1" />
      <path
         d="m 1244.7641,66.781496 0,-30.020836"
         transform="matrix(0.107217,0,0,-0.107217,22.868,119.207)"
         id="path133"
         style="fill:none;stroke:#000000;stroke-width:5;stroke-linecap:butt;stroke-linejoin:miter;stroke-miterlimit:4;stroke-opacity:1" />
      <path
         d="m 1339.2715,66.781496 0,-30.020836"
         transform="matrix(0.107217,0,0,-0.107217,22.868,119.207)"
         id="path135"
         style="fill:none;stroke:#000000;stroke-width:5;stroke-linecap:butt;stroke-linejoin:miter;stroke-miterlimit:4;stroke-opacity:1" />
      <path
         d="m 1433.7424,66.781496 0,-30.020836"
         transform="matrix(0.107217,0,0,-0.107217,22.868,119.207)"
         id="path137"
         style="fill:none;stroke:#000000;stroke-width:5;stroke-linecap:butt;stroke-linejoin:miter;stroke-miterlimit:4;stroke-opacity:1" />
      <path
         d="m 1528.2133,66.781496 0,-30.020836"
         transform="matrix(0.107217,0,0,-0.107217,22.868,119.207)"
         id="path139"
         style="fill:none;stroke:#000000;stroke-width:5;stroke-linecap:butt;stroke-linejoin:miter;stroke-miterlimit:4;stroke-opacity:1" />
      <path
         d="m 1622.7206,36.76066 0,51.66207"
         transform="matrix(0.107217,0,0,-0.107217,22.868,119.207)"
         id="path141"
         style="fill:none;stroke:#000000;stroke-width:5;stroke-linecap:butt;stroke-linejoin:miter;stroke-miterlimit:4;stroke-opacity:1" />
      <path
         d="m 1717.1915,66.781496 0,-30.020836"
         transform="matrix(0.107217,0,0,-0.107217,22.868,119.207)"
         id="path143"
         style="fill:none;stroke:#000000;stroke-width:5;stroke-linecap:butt;stroke-linejoin:miter;stroke-miterlimit:4;stroke-opacity:1" />
      <path
         d="m 1811.6624,66.781496 0,-30.020836"
         transform="matrix(0.107217,0,0,-0.107217,22.868,119.207)"
         id="path145"
         style="fill:none;stroke:#000000;stroke-width:5;stroke-linecap:butt;stroke-linejoin:miter;stroke-miterlimit:4;stroke-opacity:1" />
      <path
         d="m 33.765863,510.20819 -30.020837,0"
         transform="matrix(0.107217,0,0,-0.107217,22.868,119.207)"
         id="path147"
         style="fill:none;stroke:#000000;stroke-width:5;stroke-linecap:butt;stroke-linejoin:miter;stroke-miterlimit:4;stroke-opacity:1" />
      <path
         d="m 33.765863,747.93387 -30.020837,0"
         transform="matrix(0.107217,0,0,-0.107217,22.868,119.207)"
         id="path149"
         style="fill:none;stroke:#000000;stroke-width:5;stroke-linecap:butt;stroke-linejoin:miter;stroke-miterlimit:4;stroke-opacity:1" />
      <path
         d="m 33.765863,988.68349 -30.020837,0"
         transform="matrix(0.107217,0,0,-0.107217,22.868,119.207)"
         id="path151"
         style="fill:none;stroke:#000000;stroke-width:5;stroke-linecap:butt;stroke-linejoin:miter;stroke-miterlimit:4;stroke-opacity:1" />
      <path
         d="m 1911.489,670.11286 -29.9844,0"
         transform="matrix(0.107217,0,0,-0.107217,22.868,119.207)"
         id="path153"
         style="fill:none;stroke:#000000;stroke-width:5;stroke-linecap:butt;stroke-linejoin:miter;stroke-miterlimit:4;stroke-opacity:1" />
      <path
         d="m 1911.489,987.66336 -29.9844,0"
         transform="matrix(0.107217,0,0,-0.107217,22.868,119.207)"
         id="path155"
         style="fill:none;stroke:#000000;stroke-width:5;stroke-linecap:butt;stroke-linejoin:miter;stroke-miterlimit:4;stroke-opacity:1" />
      <path
         d="m 3.745026,196.26457 c 0,0 304.944664,251.5338 496.873984,412.24 l 296.34646,256.34297 c 45.57775,47.36297 239.25583,224.60976 421.20253,28.63638 40.1857,-43.28247 71.6638,-94.54378 102.5591,-144.52993 89.2974,-144.27489 164.5316,-296.71079 254.0112,-440.91281 61.1711,-98.51498 131.0133,-208.797833 231.4592,-271.790583"
         transform="matrix(0.107217,0,0,-0.107217,22.868,119.207)"
         id="path157"
         style="fill:none;stroke:#000000;stroke-width:5;stroke-linecap:butt;stroke-linejoin:miter;stroke-miterlimit:4;stroke-opacity:1" />
      <path
         d="m 3.67216,228.76285 c 0,0 137.71694,52.09927 284.17782,394.16921 C 412.01383,912.90273 562.84667,1092.9185 756.19688,873.7372 955.52212,647.7794 1206.1815,2.513589 1619.806,40.112501"
         transform="matrix(0.107217,0,0,-0.107217,22.868,119.207)"
         id="path159"
         style="fill:none;stroke:#000000;stroke-width:5;stroke-linecap:butt;stroke-linejoin:miter;stroke-miterlimit:4;stroke-opacity:1" />
      <path
         d="m 962.8816,531.2665 98.2964,0 0,73.3033 -98.2964,0 0,-73.3033 z m 0,0"
         transform="matrix(0.107217,0,0,-0.107217,22.868,119.207)"
         id="path161"
         style="fill:none;stroke:#000000;stroke-width:5;stroke-linecap:butt;stroke-linejoin:miter;stroke-miterlimit:4;stroke-opacity:1" />
      <path
         d="m 962.8816,567.91815 98.2964,0"
         transform="matrix(0.107217,0,0,-0.107217,22.868,119.207)"
         id="path163"
         style="fill:none;stroke:#000000;stroke-width:5;stroke-linecap:butt;stroke-linejoin:miter;stroke-miterlimit:4;stroke-opacity:1" />
      <path
         d="m 962.8816,531.2665 98.2964,0 0,73.3033 -98.2964,0 0,-73.3033 z m 0,0"
         transform="matrix(0.107217,0,0,-0.107217,22.868,119.207)"
         id="path165"
         style="fill:none;stroke:#211e1e;stroke-width:5;stroke-linecap:butt;stroke-linejoin:miter;stroke-miterlimit:4;stroke-opacity:1" />
      <path
         d="m 962.8816,567.91815 98.2964,0"
         transform="matrix(0.107217,0,0,-0.107217,22.868,119.207)"
         id="path167"
         style="fill:none;stroke:#211e1e;stroke-width:5;stroke-linecap:butt;stroke-linejoin:miter;stroke-miterlimit:4;stroke-opacity:1" />
      <path
         d="m 1159.5472,232.91622 86.6378,0 0,103.32414 -86.6378,0 0,-103.32414 z m 0,0"
         transform="matrix(0.107217,0,0,-0.107217,22.868,119.207)"
         id="path169"
         style="fill:none;stroke:#000000;stroke-width:5;stroke-linecap:butt;stroke-linejoin:miter;stroke-miterlimit:4;stroke-opacity:1" />
      <path
         d="m 1159.5472,284.57829 86.6378,0"
         transform="matrix(0.107217,0,0,-0.107217,22.868,119.207)"
         id="path171"
         style="fill:none;stroke:#000000;stroke-width:5;stroke-linecap:butt;stroke-linejoin:miter;stroke-miterlimit:4;stroke-opacity:1" />
      <path
         d="m 1159.5472,232.91622 86.6378,0 0,103.32414 -86.6378,0 0,-103.32414 z m 0,0"
         transform="matrix(0.107217,0,0,-0.107217,22.868,119.207)"
         id="path173"
         style="fill:none;stroke:#211e1e;stroke-width:5;stroke-linecap:butt;stroke-linejoin:miter;stroke-miterlimit:4;stroke-opacity:1" />
      <path
         d="m 1159.5472,284.57829 86.6378,0"
         transform="matrix(0.107217,0,0,-0.107217,22.868,119.207)"
         id="path175"
         style="fill:none;stroke:#211e1e;stroke-width:5;stroke-linecap:butt;stroke-linejoin:miter;stroke-miterlimit:4;stroke-opacity:1" />
      <path
         d="m 1347.8697,21.240179 83.3224,0 0,226.686461 -83.3224,0 0,-226.686461 z m 0,0"
         transform="matrix(0.107217,0,0,-0.107217,22.868,119.207)"
         id="path177"
         style="fill:none;stroke:#000000;stroke-width:5;stroke-linecap:butt;stroke-linejoin:miter;stroke-miterlimit:4;stroke-opacity:1" />
      <path
         d="m 1347.8697,134.58341 83.3224,0"
         transform="matrix(0.107217,0,0,-0.107217,22.868,119.207)"
         id="path179"
         style="fill:none;stroke:#000000;stroke-width:5;stroke-linecap:butt;stroke-linejoin:miter;stroke-miterlimit:4;stroke-opacity:1" />
      <path
         d="m 1347.8697,21.240179 83.3224,0 0,226.686461 -83.3224,0 0,-226.686461 z m 0,0"
         transform="matrix(0.107217,0,0,-0.107217,22.868,119.207)"
         id="path181"
         style="fill:none;stroke:#211e1e;stroke-width:5;stroke-linecap:butt;stroke-linejoin:miter;stroke-miterlimit:4;stroke-opacity:1" />
      <path
         d="m 1347.8697,134.58341 83.3224,0"
         transform="matrix(0.107217,0,0,-0.107217,22.868,119.207)"
         id="path183"
         style="fill:none;stroke:#211e1e;stroke-width:5;stroke-linecap:butt;stroke-linejoin:miter;stroke-miterlimit:4;stroke-opacity:1" />
      <path
         d="m 1529.5249,27.907428 91.6655,0 0,63.35708 -91.6655,0 0,-63.35708 z m 0,0"
         transform="matrix(0.107217,0,0,-0.107217,22.868,119.207)"
         id="path185"
         style="fill:none;stroke:#000000;stroke-width:5;stroke-linecap:butt;stroke-linejoin:miter;stroke-miterlimit:4;stroke-opacity:1" />
      <path
         d="m 1529.5249,59.604184 91.6655,0"
         transform="matrix(0.107217,0,0,-0.107217,22.868,119.207)"
         id="path187"
         style="fill:none;stroke:#000000;stroke-width:5;stroke-linecap:butt;stroke-linejoin:miter;stroke-miterlimit:4;stroke-opacity:1" />
      <path
         d="m 1529.5249,27.907428 91.6655,0 0,63.35708 -91.6655,0 0,-63.35708 z m 0,0"
         transform="matrix(0.107217,0,0,-0.107217,22.868,119.207)"
         id="path189"
         style="fill:none;stroke:#211e1e;stroke-width:5;stroke-linecap:butt;stroke-linejoin:miter;stroke-miterlimit:4;stroke-opacity:1" />
      <path
         d="m 1529.5249,59.604184 91.6655,0"
         transform="matrix(0.107217,0,0,-0.107217,22.868,119.207)"
         id="path191"
         style="fill:none;stroke:#211e1e;stroke-width:5;stroke-linecap:butt;stroke-linejoin:miter;stroke-miterlimit:4;stroke-opacity:1" />
      <path
         d="m 776.19863,682.90087 89.98964,0 0,161.68989 -89.98964,0 0,-161.68989 z m 0,0"
         transform="matrix(0.107217,0,0,-0.107217,22.868,119.207)"
         id="path193"
         style="fill:none;stroke:#000000;stroke-width:5;stroke-linecap:butt;stroke-linejoin:miter;stroke-miterlimit:4;stroke-opacity:1" />
      <path
         d="m 776.19863,763.74581 89.98964,0"
         transform="matrix(0.107217,0,0,-0.107217,22.868,119.207)"
         id="path195"
         style="fill:none;stroke:#000000;stroke-width:5;stroke-linecap:butt;stroke-linejoin:miter;stroke-miterlimit:4;stroke-opacity:1" />
      <path
         d="m 776.19863,682.90087 89.98964,0 0,161.68989 -89.98964,0 0,-161.68989 z m 0,0"
         transform="matrix(0.107217,0,0,-0.107217,22.868,119.207)"
         id="path197"
         style="fill:none;stroke:#211e1e;stroke-width:5;stroke-linecap:butt;stroke-linejoin:miter;stroke-miterlimit:4;stroke-opacity:1" />
      <path
         d="m 776.19863,763.74581 89.98964,0"
         transform="matrix(0.107217,0,0,-0.107217,22.868,119.207)"
         id="path199"
         style="fill:none;stroke:#211e1e;stroke-width:5;stroke-linecap:butt;stroke-linejoin:miter;stroke-miterlimit:4;stroke-opacity:1" />
      <path
         d="m 589.51566,920.91801 86.67424,0 0,109.99139 -86.67424,0 0,-109.99139 z m 0,0"
         transform="matrix(0.107217,0,0,-0.107217,22.868,119.207)"
         id="path201"
         style="fill:none;stroke:#000000;stroke-width:5;stroke-linecap:butt;stroke-linejoin:miter;stroke-miterlimit:4;stroke-opacity:1" />
      <path
         d="m 589.51566,975.89548 86.67424,0"
         transform="matrix(0.107217,0,0,-0.107217,22.868,119.207)"
         id="path203"
         style="fill:none;stroke:#000000;stroke-width:5;stroke-linecap:butt;stroke-linejoin:miter;stroke-miterlimit:4;stroke-opacity:1" />
      <path
         d="m 589.51566,920.91801 86.67424,0 0,109.99139 -86.67424,0 0,-109.99139 z m 0,0"
         transform="matrix(0.107217,0,0,-0.107217,22.868,119.207)"
         id="path205"
         style="fill:none;stroke:#211e1e;stroke-width:5;stroke-linecap:butt;stroke-linejoin:miter;stroke-miterlimit:4;stroke-opacity:1" />
      <path
         d="m 589.51566,975.89548 86.67424,0"
         transform="matrix(0.107217,0,0,-0.107217,22.868,119.207)"
         id="path207"
         style="fill:none;stroke:#211e1e;stroke-width:5;stroke-linecap:butt;stroke-linejoin:miter;stroke-miterlimit:4;stroke-opacity:1" />
      <path
         d="m 394.52596,756.2406 94.98097,0 0,109.99139 -94.98097,0 0,-109.99139 z m 0,0"
         transform="matrix(0.107217,0,0,-0.107217,22.868,119.207)"
         id="path209"
         style="fill:none;stroke:#000000;stroke-width:5;stroke-linecap:butt;stroke-linejoin:miter;stroke-miterlimit:4;stroke-opacity:1" />
      <path
         d="m 394.52596,811.25451 94.98097,0"
         transform="matrix(0.107217,0,0,-0.107217,22.868,119.207)"
         id="path211"
         style="fill:none;stroke:#000000;stroke-width:5;stroke-linecap:butt;stroke-linejoin:miter;stroke-miterlimit:4;stroke-opacity:1" />
      <path
         d="m 394.52596,756.2406 94.98097,0 0,109.99139 -94.98097,0 0,-109.99139 z m 0,0"
         transform="matrix(0.107217,0,0,-0.107217,22.868,119.207)"
         id="path213"
         style="fill:none;stroke:#211e1e;stroke-width:5;stroke-linecap:butt;stroke-linejoin:miter;stroke-miterlimit:4;stroke-opacity:1" />
      <path
         d="m 394.52596,811.25451 94.98097,0"
         transform="matrix(0.107217,0,0,-0.107217,22.868,119.207)"
         id="path215"
         style="fill:none;stroke:#211e1e;stroke-width:5;stroke-linecap:butt;stroke-linejoin:miter;stroke-miterlimit:4;stroke-opacity:1" />
      <path
         d="m 207.84299,507.91291 90.02608,0 0,290.00711 -90.02608,0 0,-290.00711 z m 0,0"
         transform="matrix(0.107217,0,0,-0.107217,22.868,119.207)"
         id="path217"
         style="fill:none;stroke:#000000;stroke-width:5;stroke-linecap:butt;stroke-linejoin:miter;stroke-miterlimit:4;stroke-opacity:1" />
      <path
         d="m 207.84299,652.91646 90.02608,0"
         transform="matrix(0.107217,0,0,-0.107217,22.868,119.207)"
         id="path219"
         style="fill:none;stroke:#000000;stroke-width:5;stroke-linecap:butt;stroke-linejoin:miter;stroke-miterlimit:4;stroke-opacity:1" />
      <path
         d="m 207.84299,507.91291 90.02608,0 0,290.00711 -90.02608,0 0,-290.00711 z m 0,0"
         transform="matrix(0.107217,0,0,-0.107217,22.868,119.207)"
         id="path221"
         style="fill:none;stroke:#211e1e;stroke-width:5;stroke-linecap:butt;stroke-linejoin:miter;stroke-miterlimit:4;stroke-opacity:1" />
      <path
         d="m 207.84299,652.91646 90.02608,0"
         transform="matrix(0.107217,0,0,-0.107217,22.868,119.207)"
         id="path223"
         style="fill:none;stroke:#211e1e;stroke-width:5;stroke-linecap:butt;stroke-linejoin:miter;stroke-miterlimit:4;stroke-opacity:1" />
      <path
         d="m 211.8142,356.97077 c 0,-8.27031 -6.70369,-14.97399 -15.01042,-14.97399 -8.27031,0 -15.01042,6.70368 -15.01042,14.97399 0,8.30673 6.74011,15.01042 15.01042,15.01042 8.30673,0 15.01042,-6.70369 15.01042,-15.01042 z m 0,0"
         transform="matrix(0.107217,0,0,-0.107217,22.868,119.207)"
         id="path225"
         style="fill:none;stroke:#000000;stroke-width:5;stroke-linecap:butt;stroke-linejoin:miter;stroke-miterlimit:4;stroke-opacity:1" />
      <path
         d="m 50.285156,77.078125 c 0,0.886719 -0.71875,1.605469 -1.609375,1.605469 -0.886718,0 -1.605468,-0.71875 -1.605468,-1.605469 0,-0.890625 0.71875,-1.609375 1.605468,-1.609375 0.890625,0 1.609375,0.71875 1.609375,1.609375"
         id="path227"
         style="fill:#000000;fill-opacity:1;fill-rule:nonzero;stroke:none" />
      <path
         d="m 404.50862,606.24572 c 0,-8.2703 -6.70369,-14.97398 -14.97399,-14.97398 -8.30674,0 -15.01042,6.70368 -15.01042,14.97398 0,8.30674 6.70368,15.01042 15.01042,15.01042 8.2703,0 14.97399,-6.70368 14.97399,-15.01042 z m 0,0"
         transform="matrix(0.107217,0,0,-0.107217,22.868,119.207)"
         id="path229"
         style="fill:none;stroke:#000000;stroke-width:5;stroke-linecap:butt;stroke-linejoin:miter;stroke-miterlimit:4;stroke-opacity:1" />
      <path
         d="m 71.421875,51.703125 c 0,0.890625 -0.71875,1.609375 -1.609375,1.609375 -0.886719,0 -1.605469,-0.71875 -1.605469,-1.609375 0,-0.886719 0.71875,-1.605469 1.605469,-1.605469 0.890625,0 1.609375,0.71875 1.609375,1.605469"
         id="path231"
         style="fill:#000000;fill-opacity:1;fill-rule:nonzero;stroke:none" />
      <path
         d="m 592.8675,607.92164 c 0,-8.2703 -6.74011,-15.01042 -15.01041,-15.01042 -8.27031,0 -15.01042,6.74012 -15.01042,15.01042 0,8.27031 6.74011,15.01042 15.01042,15.01042 8.2703,0 15.01041,-6.74011 15.01041,-15.01042 z m 0,0"
         transform="matrix(0.107217,0,0,-0.107217,22.868,119.207)"
         id="path233"
         style="fill:none;stroke:#000000;stroke-width:5;stroke-linecap:butt;stroke-linejoin:miter;stroke-miterlimit:4;stroke-opacity:1" />
      <path
         d="m 791.17261,800.68893 c 0,-8.2703 -6.70368,-14.97399 -14.97398,-14.97399 -8.30674,0 -15.01042,6.70369 -15.01042,14.97399 0,8.30674 6.70368,15.01042 15.01042,15.01042 8.2703,0 14.97398,-6.70368 14.97398,-15.01042 z m 0,0"
         transform="matrix(0.107217,0,0,-0.107217,22.868,119.207)"
         id="path235"
         style="fill:none;stroke:#000000;stroke-width:5;stroke-linecap:butt;stroke-linejoin:miter;stroke-miterlimit:4;stroke-opacity:1" />
      <path
         d="m 1394.8683,648.87239 c 0,-8.2703 -6.7037,-14.97398 -14.974,-14.97398 -8.3067,0 -15.0104,6.70368 -15.0104,14.97398 0,8.30674 6.7037,15.01042 15.0104,15.01042 8.2703,0 14.974,-6.70368 14.974,-15.01042 z m 0,0"
         transform="matrix(0.107217,0,0,-0.107217,22.868,119.207)"
         id="path237"
         style="fill:none;stroke:#000000;stroke-width:5;stroke-linecap:butt;stroke-linejoin:miter;stroke-miterlimit:4;stroke-opacity:1" />
      <path
         d="m 1578.4909,332.88852 c 0,-8.2703 -6.7037,-15.01042 -15.0104,-15.01042 -8.2703,0 -14.974,6.74012 -14.974,15.01042 0,8.2703 6.7037,15.01042 14.974,15.01042 8.3067,0 15.0104,-6.74012 15.0104,-15.01042 z m 0,0"
         transform="matrix(0.107217,0,0,-0.107217,22.868,119.207)"
         id="path239"
         style="fill:none;stroke:#000000;stroke-width:5;stroke-linecap:butt;stroke-linejoin:miter;stroke-miterlimit:4;stroke-opacity:1" />
      <path
         d="m 987.94754,975.78618 c 0,-8.2703 -6.70368,-14.97398 -15.01042,-14.97398 -8.2703,0 -14.97399,6.70368 -14.97399,14.97398 0,8.30674 6.70369,15.01042 14.97399,15.01042 8.30674,0 15.01042,-6.70368 15.01042,-15.01042 z m 0,0"
         transform="matrix(0.107217,0,0,-0.107217,22.868,119.207)"
         id="path241"
         style="fill:none;stroke:#000000;stroke-width:5;stroke-linecap:butt;stroke-linejoin:miter;stroke-miterlimit:4;stroke-opacity:1" />
      <path
         d="m 1218.6781,975.78618 c 0,-8.2703 -6.7037,-14.97398 -14.974,-14.97398 -8.3068,0 -15.0104,6.70368 -15.0104,14.97398 0,8.30674 6.7036,15.01042 15.0104,15.01042 8.2703,0 14.974,-6.70368 14.974,-15.01042 z m 0,0"
         transform="matrix(0.107217,0,0,-0.107217,22.868,119.207)"
         id="path243"
         style="fill:none;stroke:#000000;stroke-width:5;stroke-linecap:butt;stroke-linejoin:miter;stroke-miterlimit:4;stroke-opacity:1" />
      <path
         d="m 158.07422,39.34375 c 0,0.890625 -0.71875,1.609375 -1.60938,1.609375 -0.88672,0 -1.60547,-0.71875 -1.60547,-1.609375 0,-0.886719 0.71875,-1.605469 1.60547,-1.605469 0.89063,0 1.60938,0.71875 1.60938,1.605469"
         id="path245"
         style="fill:#000000;fill-opacity:1;fill-rule:nonzero;stroke:none" />
      <path
         d="m 178.24609,64.824219 c 0,0.886719 -0.71875,1.609375 -1.60547,1.609375 -0.89062,0 -1.60937,-0.722656 -1.60937,-1.609375 0,-0.886719 0.71875,-1.609375 1.60937,-1.609375 0.88672,0 1.60547,0.722656 1.60547,1.609375"
         id="path247"
         style="fill:#000000;fill-opacity:1;fill-rule:nonzero;stroke:none" />
      <path
         d="m 203.5625,114.16016 c 0,0.89062 -0.71875,1.60937 -1.60547,1.60937 -0.89062,0 -1.60937,-0.71875 -1.60937,-1.60937 0,-0.88672 0.71875,-1.60547 1.60937,-1.60547 0.88672,0 1.60547,0.71875 1.60547,1.60547"
         id="path249"
         style="fill:#000000;fill-opacity:1;fill-rule:nonzero;stroke:none" />
      <path
         d="m 138.52734,14.449219 c 0,0.886719 -0.71875,1.605469 -1.60547,1.605469 -0.89062,0 -1.60937,-0.71875 -1.60937,-1.605469 0,-0.890625 0.71875,-1.609375 1.60937,-1.609375 0.88672,0 1.60547,0.71875 1.60547,1.609375"
         id="path251"
         style="fill:#000000;fill-opacity:1;fill-rule:nonzero;stroke:none" />
      <path
         d="m 111.49609,37.265625 c 0,0.886719 -0.71875,1.609375 -1.60546,1.609375 -0.89063,0 -1.60938,-0.722656 -1.60938,-1.609375 0,-0.886719 0.71875,-1.609375 1.60938,-1.609375 0.88671,0 1.60546,0.722656 1.60546,1.609375"
         id="path253"
         style="fill:#000000;fill-opacity:1;fill-rule:nonzero;stroke:none" />
      <path
         d="m 91.476563,39.105469 c 0,0.886719 -0.71875,1.605469 -1.609375,1.605469 -0.886719,0 -1.609375,-0.71875 -1.609375,-1.605469 0,-0.890625 0.722656,-1.609375 1.609375,-1.609375 0.890625,0 1.609375,0.71875 1.609375,1.609375"
         id="path255"
         style="fill:#000000;fill-opacity:1;fill-rule:nonzero;stroke:none" />
    </g>
  </g>
  <g
     transform="translate(3.1224802,0.08860273)"
     id="g259"
     style="fill:#000000;fill-opacity:1">
    <use
       id="use261"
       x="54.827"
       y="122.366"
       width="252"
       height="124"
       xlink:href="#glyph0-1" />
  </g>
  <g
     id="g267"
     style="fill:#000000;fill-opacity:1">
    <use
       id="use269"
       x="38.875999"
       y="122.366"
       width="252"
       height="124"
       xlink:href="#glyph0-2" />
    <use
       id="use271"
       x="42.755524"
       y="122.366"
       width="252"
       height="124"
       xlink:href="#glyph0-3" />
    <use
       id="use273"
       x="46.635052"
       y="122.366"
       width="252"
       height="124"
       xlink:href="#glyph0-3" />
  </g>
  <g
     id="g275"
     style="fill:#000000;fill-opacity:1">
    <use
       id="use277"
       x="89.615997"
       y="122.366"
       width="252"
       height="124"
       xlink:href="#glyph0-2" />
    <use
       id="use279"
       x="93.495522"
       y="122.366"
       width="252"
       height="124"
       xlink:href="#glyph0-2" />
    <use
       id="use281"
       x="97.375053"
       y="122.366"
       width="252"
       height="124"
       xlink:href="#glyph0-3" />
  </g>
  <g
     id="g283"
     style="fill:#000000;fill-opacity:1">
    <use
       id="use285"
       x="140.356"
       y="122.366"
       width="252"
       height="124"
       xlink:href="#glyph0-4" />
    <use
       id="use287"
       x="144.23552"
       y="122.366"
       width="252"
       height="124"
       xlink:href="#glyph0-3" />
    <use
       id="use289"
       x="148.11505"
       y="122.366"
       width="252"
       height="124"
       xlink:href="#glyph0-3" />
  </g>
  <g
     id="g291"
     style="fill:#000000;fill-opacity:1">
    <use
       id="use293"
       x="191.09599"
       y="122.366"
       width="252"
       height="124"
       xlink:href="#glyph0-4" />
    <use
       id="use295"
       x="194.97552"
       y="122.366"
       width="252"
       height="124"
       xlink:href="#glyph0-2" />
    <use
       id="use297"
       x="198.85506"
       y="122.366"
       width="252"
       height="124"
       xlink:href="#glyph0-3" />
  </g>
  <g
     id="g299"
     style="fill:#000000;fill-opacity:1">
    <use
       id="use301"
       x="18.138"
       y="117.527"
       width="252"
       height="124"
       xlink:href="#glyph0-3" />
  </g>
  <g
     id="g303"
     style="fill:#000000;fill-opacity:1">
    <use
       id="use305"
       x="8.2250004"
       y="92.297997"
       width="252"
       height="124"
       xlink:href="#glyph0-3" />
  </g>
  <g
     id="g307"
     style="fill:#000000;fill-opacity:1">
    <use
       id="use309"
       x="12.104"
       y="92.297997"
       width="252"
       height="124"
       xlink:href="#glyph1-2" />
  </g>
  <g
     id="g311"
     style="fill:#000000;fill-opacity:1">
    <use
       id="use313"
       x="14.259"
       y="92.297997"
       width="252"
       height="124"
       xlink:href="#glyph0-3" />
    <use
       id="use315"
       x="18.138525"
       y="92.297997"
       width="252"
       height="124"
       xlink:href="#glyph0-5" />
  </g>
  <g
     id="g317"
     style="fill:#000000;fill-opacity:1">
    <use
       id="use319"
       x="8.2250004"
       y="66.786003"
       width="252"
       height="124"
       xlink:href="#glyph0-3" />
  </g>
  <g
     id="g321"
     style="fill:#000000;fill-opacity:1">
    <use
       id="use323"
       x="12.104"
       y="66.786003"
       width="252"
       height="124"
       xlink:href="#glyph1-2" />
  </g>
  <g
     id="g325"
     style="fill:#000000;fill-opacity:1">
    <use
       id="use327"
       x="14.259"
       y="66.786003"
       width="252"
       height="124"
       xlink:href="#glyph0-3" />
    <use
       id="use329"
       x="18.138525"
       y="66.786003"
       width="252"
       height="124"
       xlink:href="#glyph0-6" />
  </g>
  <g
     id="g331"
     style="fill:#000000;fill-opacity:1">
    <use
       id="use333"
       x="8.2250004"
       y="41.275002"
       width="252"
       height="124"
       xlink:href="#glyph0-3" />
  </g>
  <g
     id="g335"
     style="fill:#000000;fill-opacity:1">
    <use
       id="use337"
       x="12.104"
       y="41.275002"
       width="252"
       height="124"
       xlink:href="#glyph1-2" />
  </g>
  <g
     id="g339"
     style="fill:#000000;fill-opacity:1">
    <use
       id="use341"
       x="14.259"
       y="41.275002"
       width="252"
       height="124"
       xlink:href="#glyph0-3" />
    <use
       id="use343"
       x="18.138525"
       y="41.275002"
       width="252"
       height="124"
       xlink:href="#glyph0-7" />
  </g>
  <g
     id="g345"
     style="fill:#000000;fill-opacity:1">
    <use
       id="use347"
       x="8.2250004"
       y="15.479"
       width="252"
       height="124"
       xlink:href="#glyph0-3" />
  </g>
  <g
     id="g349"
     style="fill:#000000;fill-opacity:1">
    <use
       id="use351"
       x="12.104"
       y="15.479"
       width="252"
       height="124"
       xlink:href="#glyph1-2" />
  </g>
  <g
     id="g353"
     style="fill:#000000;fill-opacity:1">
    <use
       id="use355"
       x="14.259"
       y="15.479"
       width="252"
       height="124"
       xlink:href="#glyph0-3" />
    <use
       id="use357"
       x="18.138525"
       y="15.479"
       width="252"
       height="124"
       xlink:href="#glyph0-8" />
  </g>
  <g
     id="g359"
     style="fill:#000000;fill-opacity:1">
    <use
       id="use361"
       x="229.51401"
       y="83.511002"
       width="252"
       height="124"
       xlink:href="#glyph0-3" />
  </g>
  <g
     id="g363"
     style="fill:#000000;fill-opacity:1">
    <use
       id="use365"
       x="233.39301"
       y="83.511002"
       width="252"
       height="124"
       xlink:href="#glyph1-2" />
  </g>
  <g
     id="g367"
     style="fill:#000000;fill-opacity:1">
    <use
       id="use369"
       x="235.548"
       y="83.511002"
       width="252"
       height="124"
       xlink:href="#glyph0-3" />
    <use
       id="use371"
       x="239.42752"
       y="83.511002"
       width="252"
       height="124"
       xlink:href="#glyph0-5" />
  </g>
  <g
     id="g373"
     style="fill:#000000;fill-opacity:1">
    <use
       id="use375"
       x="229.51401"
       y="49.778999"
       width="252"
       height="124"
       xlink:href="#glyph0-3" />
  </g>
  <g
     id="g377"
     style="fill:#000000;fill-opacity:1">
    <use
       id="use379"
       x="233.39301"
       y="49.778999"
       width="252"
       height="124"
       xlink:href="#glyph1-2" />
  </g>
  <g
     id="g381"
     style="fill:#000000;fill-opacity:1">
    <use
       id="use383"
       x="235.548"
       y="49.778999"
       width="252"
       height="124"
       xlink:href="#glyph0-3" />
    <use
       id="use385"
       x="239.42752"
       y="49.778999"
       width="252"
       height="124"
       xlink:href="#glyph0-6" />
  </g>
  <g
     id="g387"
     style="fill:#000000;fill-opacity:1">
    <use
       id="use389"
       x="229.51401"
       y="15.763"
       width="252"
       height="124"
       xlink:href="#glyph0-3" />
  </g>
  <g
     id="g391"
     style="fill:#000000;fill-opacity:1">
    <use
       id="use393"
       x="233.39301"
       y="15.763"
       width="252"
       height="124"
       xlink:href="#glyph1-2" />
  </g>
  <g
     id="g395"
     style="fill:#000000;fill-opacity:1">
    <use
       id="use397"
       x="235.548"
       y="15.763"
       width="252"
       height="124"
       xlink:href="#glyph0-3" />
    <use
       id="use399"
       x="239.42752"
       y="15.763"
       width="252"
       height="124"
       xlink:href="#glyph0-7" />
  </g>
  <g
     id="g401"
     style="fill:#000000;fill-opacity:1">
    <use
       id="use403"
       x="-0.597"
       y="5.381"
       width="252"
       height="124"
       xlink:href="#glyph0-9" />
    <use
       id="use405"
       x="4.9311309"
       y="5.381"
       width="252"
       height="124"
       xlink:href="#glyph0-10" />
    <use
       id="use407"
       x="8.8106556"
       y="5.381"
       width="252"
       height="124"
       xlink:href="#glyph0-11" />
    <use
       id="use409"
       x="12.636483"
       y="5.381"
       width="252"
       height="124"
       xlink:href="#glyph0-12" />
    <use
       id="use411"
       x="16.462311"
       y="5.381"
       width="252"
       height="124"
       xlink:href="#glyph0-13" />
    <use
       id="use413"
       x="18.133232"
       y="5.381"
       width="252"
       height="124"
       xlink:href="#glyph0-14" />
  </g>
  <g
     id="g415"
     style="fill:#000000;fill-opacity:1">
    <use
       id="use417"
       x="24.035856"
       y="5.381"
       width="252"
       height="124"
       xlink:href="#glyph0-9" />
    <use
       id="use419"
       x="29.563988"
       y="5.381"
       width="252"
       height="124"
       xlink:href="#glyph0-14" />
    <use
       id="use421"
       x="33.011833"
       y="5.381"
       width="252"
       height="124"
       xlink:href="#glyph0-15" />
    <use
       id="use423"
       x="36.837662"
       y="5.381"
       width="252"
       height="124"
       xlink:href="#glyph0-16" />
    <use
       id="use425"
       x="39.811989"
       y="5.381"
       width="252"
       height="124"
       xlink:href="#glyph0-17" />
    <use
       id="use427"
       x="41.48291"
       y="5.381"
       width="252"
       height="124"
       xlink:href="#glyph0-18" />
  </g>
  <g
     id="g429"
     style="fill:#000000;fill-opacity:1">
    <use
       id="use431"
       x="44.075069"
       y="5.381"
       width="252"
       height="124"
       xlink:href="#glyph0-19" />
  </g>
  <g
     id="g433"
     style="fill:#000000;fill-opacity:1">
    <use
       id="use435"
       x="32.768002"
       y="13.351"
       width="252"
       height="124"
       xlink:href="#glyph0-20" />
  </g>
  <g
     id="g437"
     style="fill:#000000;fill-opacity:1">
    <use
       id="use439"
       x="37.650002"
       y="13.351"
       width="252"
       height="124"
       xlink:href="#glyph2-1" />
  </g>
  <g
     id="g441"
     style="fill:#000000;fill-opacity:1">
    <use
       id="use443"
       x="39.708"
       y="13.351"
       width="252"
       height="124"
       xlink:href="#glyph0-2" />
    <use
       id="use445"
       x="43.587524"
       y="13.351"
       width="252"
       height="124"
       xlink:href="#glyph0-8" />
  </g>
  <g
     id="g447"
     style="fill:#000000;fill-opacity:1">
    <use
       id="use449"
       x="203.78101"
       y="5.381"
       width="252"
       height="124"
       xlink:href="#glyph0-9" />
    <use
       id="use451"
       x="209.30913"
       y="5.381"
       width="252"
       height="124"
       xlink:href="#glyph0-10" />
    <use
       id="use453"
       x="213.18866"
       y="5.381"
       width="252"
       height="124"
       xlink:href="#glyph0-11" />
    <use
       id="use455"
       x="217.01448"
       y="5.381"
       width="252"
       height="124"
       xlink:href="#glyph0-12" />
    <use
       id="use457"
       x="220.84032"
       y="5.381"
       width="252"
       height="124"
       xlink:href="#glyph0-13" />
    <use
       id="use459"
       x="222.51123"
       y="5.381"
       width="252"
       height="124"
       xlink:href="#glyph0-14" />
  </g>
  <use
     id="use463"
     style="fill:#000000;fill-opacity:1"
     x="228.41385"
     y="5.381"
     width="252"
     height="124"
     xlink:href="#glyph0-9" />
  <use
     id="use465"
     style="fill:#000000;fill-opacity:1"
     x="233.94199"
     y="5.381"
     width="252"
     height="124"
     xlink:href="#glyph0-14" />
  <use
     id="use467"
     style="fill:#000000;fill-opacity:1"
     x="237.38983"
     y="5.381"
     width="252"
     height="124"
     xlink:href="#glyph0-15" />
  <use
     id="use469"
     style="fill:#000000;fill-opacity:1"
     x="241.21567"
     y="5.381"
     width="252"
     height="124"
     xlink:href="#glyph0-16" />
  <use
     id="use471"
     style="fill:#000000;fill-opacity:1"
     x="244.18999"
     y="5.381"
     width="252"
     height="124"
     xlink:href="#glyph0-17" />
  <use
     id="use473"
     style="fill:#000000;fill-opacity:1"
     x="245.86092"
     y="5.381"
     width="252"
     height="124"
     xlink:href="#glyph0-18" />
  <g
     id="g475"
     style="fill:#000000;fill-opacity:1">
    <use
       id="use477"
       x="248.45306"
       y="5.381"
       width="252"
       height="124"
       xlink:href="#glyph0-19" />
  </g>
  <g
     id="g479"
     style="fill:#000000;fill-opacity:1">
    <use
       id="use481"
       x="203.78101"
       y="13.351"
       width="252"
       height="124"
       xlink:href="#glyph0-20" />
  </g>
  <g
     id="g483"
     style="fill:#000000;fill-opacity:1">
    <use
       id="use485"
       x="208.66299"
       y="13.351"
       width="252"
       height="124"
       xlink:href="#glyph2-1" />
  </g>
  <g
     id="g487"
     style="fill:#000000;fill-opacity:1">
    <use
       id="use489"
       x="210.72099"
       y="13.351"
       width="252"
       height="124"
       xlink:href="#glyph0-2" />
    <use
       id="use491"
       x="214.60052"
       y="13.351"
       width="252"
       height="124"
       xlink:href="#glyph0-21" />
  </g>
  <use
     transform="translate(-182.94577,117.0736)"
     id="use3808"
     style="fill:#000000;fill-opacity:1"
     x="237.38983"
     y="5.381"
     width="252"
     height="124"
     xlink:href="#glyph0-15" />
</svg>
