<?xml version="1.0" encoding="UTF-8" standalone="no"?>
<!-- Created with Inkscape (http://www.inkscape.org/) -->
<svg xmlns:dc="http://purl.org/dc/elements/1.1/" xmlns:cc="http://creativecommons.org/ns#" xmlns:rdf="http://www.w3.org/1999/02/22-rdf-syntax-ns#" xmlns:svg="http://www.w3.org/2000/svg" xmlns="http://www.w3.org/2000/svg" xmlns:xlink="http://www.w3.org/1999/xlink" version="1.1" width="297.5pt" height="218.9pt" viewBox="0 0 214.62796 157.90656" id="svg17625">
  <metadata id="metadata18023">
    <rdf:RDF>
      <cc:Work rdf:about="">
        <dc:format>image/svg+xml</dc:format>
        <dc:type rdf:resource="http://purl.org/dc/dcmitype/StillImage"/>
        <dc:title/>
      </cc:Work>
    </rdf:RDF>
  </metadata>
  <defs id="defs17627">
    <g id="g17629">
      <g id="glyph0-0"/>
      <g id="glyph0-1">
        <path d="M 2.578125,1.546875 C 2.546875,1.5 2.5,1.46875 2.453125,1.4375 1.6875,0.75 1.21875,-0.3125 1.171875,-1.59375 c -0.03125,-0.875 0.125,-1.78125 0.53125,-2.5625 0.203125,-0.375 0.4375,-0.6875 0.75,-0.953125 C 2.5,-5.15625 2.546875,-5.1875 2.578125,-5.21875 l -0.25,0 c -0.15625,0 -0.140625,0 -0.25,0.078125 -0.359375,0.28125 -0.65625,0.65625 -0.890625,1.078125 -0.65625,1.234375 -0.703125,2.90625 -0.09375,4.25 0.21875,0.5 0.5625,0.921875 0.984375,1.28125 0.09375,0.0625 0.09375,0.078125 0.25,0.078125 l 0.25,0 z m 0,0" id="path17633"/>
      </g>
      <g id="glyph0-2">
        <path d="m 0.640625,-2.640625 c 0.125,-0.0625 0.21875,-0.140625 0.34375,-0.203125 C 1.203125,-2.9375 1.4375,-2.984375 1.6875,-3 1.75,-3.015625 1.828125,-3.015625 1.90625,-3.015625 c 0.28125,0.046875 0.515625,0.234375 0.59375,0.5 0.078125,0.203125 0.046875,0.453125 0.046875,0.65625 -0.359375,0 -0.734375,0.03125 -1.09375,0.125 -0.5,0.125 -1.125,0.375 -1.0625,1.015625 0.046875,0.28125 0.203125,0.5625 0.46875,0.703125 C 1.03125,0.0625 1.234375,0.0625 1.4375,0.046875 1.734375,0.015625 2.0625,-0.0625 2.3125,-0.25 c 0.09375,-0.0625 0.171875,-0.140625 0.25,-0.21875 l 0,0.46875 0.484375,0 0,-1.828125 c 0,-0.1875 0.03125,-0.390625 -0.015625,-0.59375 -0.0625,-0.484375 -0.5,-0.84375 -0.953125,-0.9375 -0.28125,-0.046875 -0.71875,0.015625 -0.953125,0.0625 -0.078125,0.03125 -0.46875,0.15625 -0.5,0.21875 -0.03125,0.03125 -0.015625,0.09375 -0.015625,0.125 0.015625,0.109375 0.03125,0.203125 0.03125,0.3125 z m 1.90625,1.015625 0,0.515625 c 0,0.140625 0,0.265625 -0.0625,0.390625 -0.078125,0.140625 -0.21875,0.25 -0.375,0.296875 -0.328125,0.125 -0.78125,0.140625 -1.0625,-0.09375 C 0.96875,-0.5625 0.90625,-0.640625 0.890625,-0.75 0.8125,-1.046875 1.078125,-1.28125 1.3125,-1.390625 1.640625,-1.546875 2.109375,-1.625 2.546875,-1.625 z m 0,0" id="path17636"/>
      </g>
      <g id="glyph0-3">
        <path d="m 0.4375,-5.21875 c 0.03125,0.03125 0.078125,0.0625 0.125,0.109375 0.859375,0.765625 1.328125,2 1.265625,3.515625 -0.015625,0.75 -0.203125,1.5 -0.5625,2.15625 C 1.078125,0.890625 0.84375,1.1875 0.5625,1.4375 0.515625,1.46875 0.46875,1.5 0.4375,1.546875 l 0.25,0 c 0.15625,0 0.140625,0 0.234375,-0.078125 0.375,-0.296875 0.671875,-0.671875 0.890625,-1.078125 0.671875,-1.25 0.71875,-2.90625 0.109375,-4.25 C 1.6875,-4.375 1.359375,-4.796875 0.9375,-5.140625 0.84375,-5.21875 0.84375,-5.21875 0.6875,-5.21875 l -0.25,0 z m 0,0" id="path17639"/>
      </g>
      <g id="glyph0-4">
        <path d="M 1.828125,-4.6875 C 1.671875,-4.65625 1.5,-4.640625 1.359375,-4.5625 0.625,-4.28125 0.375,-3.34375 0.375,-2.40625 c 0,0.140625 0,0.28125 0,0.4375 0.015625,0.640625 0.171875,1.28125 0.53125,1.671875 0.3125,0.3125 0.765625,0.4375 1.1875,0.40625 0.265625,-0.03125 0.484375,-0.125 0.671875,-0.25 C 3.359375,-0.5625 3.5,-1.421875 3.5,-2.359375 3.5,-3.125 3.359375,-3.8125 2.984375,-4.234375 2.703125,-4.546875 2.265625,-4.71875 1.828125,-4.6875 z m 0.59375,0.515625 C 2.5,-4.125 2.5625,-4.078125 2.625,-4.015625 c 0.265625,0.25 0.34375,0.75 0.359375,1.21875 0,0.09375 0,0.1875 0,0.28125 l 0,0.359375 c 0,0.59375 -0.046875,1.171875 -0.3125,1.53125 -0.34375,0.453125 -1.09375,0.46875 -1.453125,0.015625 C 1.125,-0.703125 1.078125,-0.828125 1.03125,-0.9375 0.90625,-1.296875 0.875,-1.734375 0.875,-2.1875 l 0,-0.359375 c 0,-0.09375 0.015625,-0.171875 0.015625,-0.265625 0,-0.546875 0.140625,-1.09375 0.5,-1.328125 0.28125,-0.171875 0.703125,-0.21875 1.03125,-0.03125 z m 0,0" id="path17642"/>
      </g>
      <g id="glyph0-5">
        <path d="m 0.78125,-4.21875 0,0.390625 c 0.34375,0 0.6875,-0.0625 1,-0.203125 l 0,3.640625 -0.96875,0 0,0.390625 2.4375,0 0,-0.390625 -0.96875,0 0,-4.296875 c -0.03125,0 -0.09375,0 -0.125,0.015625 C 2.109375,-4.65625 2.0625,-4.59375 2.015625,-4.5625 1.734375,-4.328125 1.21875,-4.21875 0.78125,-4.21875 z m 0,0" id="path17645"/>
      </g>
      <g id="glyph0-6">
        <path d="m 0.4375,-2.671875 c -0.0625,0.09375 0,0.21875 0.09375,0.25 0.046875,0.015625 0.09375,0 0.140625,0 l 4.453125,0 c 0.0625,0 0.109375,0 0.171875,-0.03125 0.078125,-0.09375 0.03125,-0.265625 -0.09375,-0.28125 -0.109375,-0.015625 -0.21875,0 -0.3125,0 l -4.21875,0 C 0.5625,-2.734375 0.5,-2.75 0.4375,-2.671875 z m 0,1.484375 c -0.0625,0.09375 0,0.21875 0.09375,0.234375 C 0.578125,-0.9375 0.625,-0.9375 0.671875,-0.9375 l 4.453125,0 c 0.0625,0 0.109375,0 0.171875,-0.046875 0.078125,-0.09375 0.03125,-0.25 -0.09375,-0.28125 -0.109375,-0.015625 -0.21875,0 -0.3125,0 l -4.234375,0 c -0.09375,0 -0.171875,0 -0.21875,0.078125 z m 0,0" id="path17648"/>
      </g>
      <g id="glyph0-7">
        <path d="m 0.578125,-4.84375 0,4.84375 0.515625,0 0,-0.46875 0,0 c 0.0625,0.109375 0.171875,0.203125 0.265625,0.28125 0.3125,0.25 0.828125,0.328125 1.28125,0.109375 0.203125,-0.109375 0.375,-0.28125 0.515625,-0.46875 C 3.84375,-1.5 3.421875,-3.09375 2.453125,-3.3125 c -0.125,-0.046875 -0.28125,-0.046875 -0.421875,-0.015625 -0.40625,0.046875 -0.71875,0.25 -0.953125,0.5 l 0,-2.015625 -0.5,0 z M 1.8125,-2.953125 c 0.328125,-0.03125 0.703125,0.109375 0.921875,0.375 0.171875,0.21875 0.234375,0.5 0.234375,0.765625 0.03125,0.375 -0.015625,0.78125 -0.25,1.078125 -0.203125,0.265625 -0.53125,0.375 -0.84375,0.40625 -0.265625,0 -0.5,-0.09375 -0.671875,-0.3125 C 1.171875,-0.6875 1.125,-0.75 1.09375,-0.8125 c 0,-0.046875 0,-0.09375 0,-0.125 l 0,-1.390625 c 0,-0.0625 -0.015625,-0.140625 0.015625,-0.203125 0.03125,-0.078125 0.09375,-0.125 0.15625,-0.1875 0.15625,-0.125 0.34375,-0.21875 0.546875,-0.234375 z m 0,0" id="path17651"/>
      </g>
      <g id="glyph1-0"/>
      <g id="glyph1-1">
        <path d="m 1.59375,-2.453125 -0.015625,0 C 1.640625,-2.71875 1.703125,-3 1.75,-3.296875 l -0.46875,0 L 0.578125,0 0.9375,0 C 0.96875,0 1.046875,0.015625 1.078125,-0.015625 1.09375,-0.03125 1.09375,-0.109375 1.109375,-0.140625 1.21875,-0.578125 1.375,-1.40625 1.46875,-1.78125 c 0.171875,-0.6875 0.921875,-1.125 1.59375,-1.125 l 0.09375,-0.4375 c -0.46875,0 -0.890625,0.203125 -1.234375,0.515625 -0.09375,0.078125 -0.28125,0.265625 -0.328125,0.375 z m 0,0" id="path17655"/>
      </g>
      <g id="glyph1-2">
        <path d="m 3.359375,-0.796875 c -0.109375,0.0625 -0.203125,0.125 -0.3125,0.1875 -0.28125,0.140625 -0.578125,0.234375 -0.890625,0.25 -0.21875,0.015625 -0.453125,0 -0.640625,-0.125 -0.390625,-0.265625 -0.421875,-0.78125 -0.3125,-1.25 0.140625,-0.53125 0.5,-1.046875 1.0625,-1.1875 C 2.4375,-2.96875 2.609375,-2.96875 2.78125,-2.96875 c 0.296875,0.015625 0.515625,0.078125 0.734375,0.21875 0.046875,0.046875 0.09375,0.078125 0.15625,0.09375 l 0.15625,-0.421875 C 3.46875,-3.28125 3.140625,-3.40625 2.5625,-3.375 c -0.515625,0.046875 -0.90625,0.28125 -1.21875,0.5625 -0.546875,0.5 -1.046875,1.625 -0.421875,2.40625 0.0625,0.078125 0.125,0.140625 0.203125,0.203125 0.453125,0.34375 1.078125,0.296875 1.609375,0.125 C 2.84375,-0.125 3.21875,-0.28125 3.296875,-0.375 c 0.03125,-0.046875 0.0625,-0.40625 0.0625,-0.421875 z m 0,0" id="path17658"/>
      </g>
      <g id="glyph1-3">
        <path d="m 0.84375,-3.296875 -0.078125,0.390625 0.671875,0 C 1.421875,-2.703125 1.359375,-2.5 1.3125,-2.3125 1.25,-2 0.96875,-0.78125 0.96875,-0.484375 c 0,0.109375 0.015625,0.21875 0.0625,0.328125 C 1.109375,0 1.25,0.0625 1.46875,0.0625 1.734375,0.0625 2.015625,0 2.265625,-0.09375 2.328125,-0.109375 2.59375,-0.21875 2.625,-0.25 c 0.015625,-0.03125 0,-0.078125 0,-0.09375 C 2.625,-0.4375 2.609375,-0.53125 2.609375,-0.625 2.46875,-0.546875 2.40625,-0.484375 2.21875,-0.421875 2,-0.359375 1.671875,-0.265625 1.546875,-0.484375 1.4375,-0.640625 1.5,-0.875 1.546875,-1.046875 1.5625,-1.203125 1.921875,-2.84375 1.9375,-2.90625 l 1.140625,0 0.078125,-0.390625 -1.140625,0 0.203125,-0.9375 c -0.15625,0 -0.328125,0 -0.46875,0.015625 -0.109375,0.28125 -0.109375,0.640625 -0.21875,0.921875 l -0.046875,0 -0.640625,0 z m 0,0" id="path17661"/>
      </g>
      <g id="glyph1-4">
        <path d="m 0.8125,-3.296875 c 0.140625,0.859375 0.3125,1.6875 0.46875,2.515625 0.0625,0.265625 0.0625,0.578125 0.15625,0.796875 C 1.609375,0.015625 1.796875,0.03125 1.953125,0 L 2,-0.0625 3.984375,-3.296875 c -0.171875,0 -0.34375,0 -0.484375,0.015625 L 2.25,-1.25 1.8125,-0.515625 1.421875,-2.578125 C 1.375,-2.796875 1.359375,-3.0625 1.296875,-3.28125 1.140625,-3.296875 0.96875,-3.296875 0.8125,-3.296875 z m 0,0" id="path17664"/>
      </g>
      <g id="glyph2-0"/>
      <g id="glyph2-1">
        <path d="m 0.546875,-3.015625 0,0.28125 c 0.25,0 0.5,-0.046875 0.734375,-0.140625 l 0,2.59375 -0.703125,0 0,0.28125 1.75,0 0,-0.28125 -0.6875,0 0,-3.0625 c -0.03125,0 -0.078125,-0.015625 -0.09375,0 C 1.5,-3.328125 1.46875,-3.296875 1.4375,-3.265625 c -0.203125,0.171875 -0.5625,0.25 -0.890625,0.25 z m 0,0" id="path17668"/>
      </g>
      <g id="glyph2-2">
        <path d="M 0.4375,-2.28125 C 0.515625,-2.578125 0.65625,-2.890625 0.953125,-3 c 0.125,-0.046875 0.25,-0.0625 0.375,-0.046875 0.25,0.015625 0.515625,0.125 0.671875,0.34375 0.109375,0.140625 0.140625,0.328125 0.109375,0.5 C 2.046875,-1.71875 1.625,-1.421875 1.28125,-1.15625 1,-0.9375 0.421875,-0.421875 0.421875,-0.421875 L 0.328125,-0.34375 C 0.28125,-0.296875 0.28125,-0.296875 0.28125,-0.1875 L 0.28125,0 2.5,0 l 0,-0.3125 -1.90625,0 C 0.796875,-0.484375 1.359375,-0.953125 1.53125,-1.078125 1.84375,-1.3125 2.1875,-1.546875 2.390625,-1.890625 2.609375,-2.28125 2.46875,-2.8125 2.125,-3.078125 c -0.375,-0.328125 -1.078125,-0.375 -1.5,-0.0625 -0.15625,0.109375 -0.265625,0.296875 -0.34375,0.46875 -0.015625,0.046875 -0.046875,0.09375 -0.046875,0.125 0.015625,0.03125 0.046875,0.0625 0.0625,0.078125 0.046875,0.0625 0.09375,0.125 0.140625,0.1875 z m 0,0" id="path17671"/>
      </g>
      <g id="glyph3-0"/>
      <g id="glyph3-1">
        <path d="m -3.296875,-0.90625 0.390625,0.078125 0,-0.609375 L 0,-0.828125 0,-1.1875 C 0,-1.265625 0.015625,-1.34375 -0.078125,-1.34375 -0.125,-1.359375 -2.859375,-1.9375 -2.90625,-1.9375 l 0,-0.90625 -0.390625,-0.0625 0,0.90625 c -0.1875,-0.0625 -0.390625,-0.09375 -0.59375,-0.140625 -0.09375,-0.015625 -0.1875,-0.03125 -0.28125,-0.078125 -0.296875,-0.171875 -0.390625,-0.6875 -0.296875,-1.140625 0.015625,-0.078125 0.046875,-0.171875 0.078125,-0.25 l -0.453125,-0.09375 c -0.046875,0.265625 -0.0625,0.546875 -0.046875,0.796875 0.078125,0.546875 0.421875,1.03125 0.875,1.21875 0.140625,0.046875 0.484375,0.109375 0.609375,0.140625 0.0625,0 0.109375,0.015625 0.109375,0.09375 l 0,0.546875 z m 0,0" id="path17675"/>
      </g>
      <g id="glyph3-2">
        <path d="m -3.296875,-0.84375 0.390625,0.078125 0,-0.671875 c 0.203125,0.015625 0.40625,0.078125 0.59375,0.125 0.3125,0.0625 1.53125,0.34375 1.828125,0.34375 0.109375,0 0.21875,-0.015625 0.328125,-0.0625 C 0,-1.109375 0.0625,-1.25 0.0625,-1.46875 0.0625,-1.734375 0,-2.015625 -0.09375,-2.265625 -0.109375,-2.328125 -0.21875,-2.59375 -0.25,-2.625 c -0.03125,-0.015625 -0.078125,0 -0.09375,0 -0.09375,0 -0.1875,0.015625 -0.28125,0.015625 0.078125,0.140625 0.140625,0.203125 0.203125,0.390625 0.0625,0.21875 0.15625,0.546875 -0.0625,0.671875 -0.15625,0.109375 -0.390625,0.046875 -0.5625,0 -0.15625,-0.015625 -1.796875,-0.375 -1.859375,-0.390625 l 0,-1.140625 -0.390625,-0.078125 0,1.140625 -0.9375,-0.203125 c 0,0.15625 0,0.328125 0.015625,0.46875 0.28125,0.109375 0.640625,0.109375 0.921875,0.21875 l 0,0.046875 0,0.640625 z m 0,0" id="path17678"/>
      </g>
      <g id="glyph3-3">
        <path d="m -2.453125,-1.59375 0,0.015625 C -2.71875,-1.640625 -3,-1.703125 -3.296875,-1.75 l 0,0.46875 L 0,-0.578125 0,-0.9375 C 0,-0.96875 0.015625,-1.046875 -0.015625,-1.078125 -0.03125,-1.09375 -0.109375,-1.09375 -0.140625,-1.109375 -0.578125,-1.21875 -1.40625,-1.375 -1.78125,-1.46875 c -0.6875,-0.171875 -1.125,-0.921875 -1.125,-1.59375 l -0.4375,-0.09375 c 0,0.46875 0.203125,0.890625 0.515625,1.234375 0.078125,0.09375 0.265625,0.28125 0.375,0.328125 z m 0,0" id="path17681"/>
      </g>
      <g id="glyph3-4">
        <path d="m -0.796875,-3.359375 c 0.0625,0.109375 0.125,0.203125 0.1875,0.3125 0.140625,0.28125 0.234375,0.578125 0.25,0.890625 0.015625,0.21875 0,0.453125 -0.125,0.640625 -0.265625,0.390625 -0.78125,0.421875 -1.25,0.3125 -0.53125,-0.140625 -1.046875,-0.5 -1.1875,-1.0625 C -2.96875,-2.4375 -2.96875,-2.609375 -2.96875,-2.78125 c 0.015625,-0.296875 0.078125,-0.515625 0.21875,-0.734375 0.046875,-0.046875 0.078125,-0.09375 0.09375,-0.15625 l -0.421875,-0.15625 C -3.28125,-3.46875 -3.40625,-3.140625 -3.375,-2.5625 c 0.046875,0.515625 0.28125,0.90625 0.5625,1.21875 0.5,0.546875 1.625,1.046875 2.40625,0.421875 0.078125,-0.0625 0.140625,-0.125 0.203125,-0.203125 0.34375,-0.453125 0.296875,-1.078125 0.125,-1.609375 C -0.125,-2.84375 -0.28125,-3.21875 -0.375,-3.296875 c -0.046875,-0.03125 -0.40625,-0.0625 -0.421875,-0.0625 z m 0,0" id="path17684"/>
      </g>
      <g id="glyph4-0"/>
      <g id="glyph4-1">
        <path d="M 1.546875,-2.578125 C 1.5,-2.546875 1.46875,-2.5 1.4375,-2.453125 c -0.6875,0.765625 -1.75,1.234375 -3.03125,1.28125 -0.875,0.03125 -1.78125,-0.125 -2.5625,-0.53125 -0.375,-0.203125 -0.6875,-0.4375 -0.953125,-0.75 C -5.15625,-2.5 -5.1875,-2.546875 -5.21875,-2.578125 l 0,0.25 c 0,0.15625 0,0.140625 0.078125,0.25 0.28125,0.359375 0.65625,0.65625 1.078125,0.890625 1.234375,0.65625 2.90625,0.703125 4.25,0.09375 0.5,-0.21875 0.921875,-0.5625 1.28125,-0.984375 0.0625,-0.09375 0.078125,-0.09375 0.078125,-0.25 l 0,-0.25 z m 0,0" id="path17688"/>
      </g>
      <g id="glyph4-2">
        <path d="m -5.21875,-0.4375 c 0.03125,-0.03125 0.0625,-0.078125 0.109375,-0.125 0.765625,-0.859375 2,-1.328125 3.515625,-1.265625 0.75,0.015625 1.5,0.203125 2.15625,0.5625 0.328125,0.1875 0.625,0.421875 0.875,0.703125 0.03125,0.046875 0.0625,0.09375 0.109375,0.125 l 0,-0.25 c 0,-0.15625 0,-0.140625 -0.078125,-0.234375 -0.296875,-0.375 -0.671875,-0.671875 -1.078125,-0.890625 -1.25,-0.671875 -2.90625,-0.71875 -4.25,-0.109375 -0.515625,0.234375 -0.9375,0.5625 -1.28125,0.984375 -0.078125,0.09375 -0.078125,0.09375 -0.078125,0.25 l 0,0.25 z m 0,0" id="path17691"/>
      </g>
      <g id="glyph5-0"/>
      <g id="glyph5-1">
        <path d="m -2,-0.734375 c 0.046875,0.140625 0.265625,0.15625 0.3125,0.015625 0.015625,-0.046875 0.015625,-0.09375 0.015625,-0.125 l 0,-3.9375 c 0,-0.09375 0.015625,-0.234375 -0.046875,-0.3125 C -1.8125,-5.171875 -1.96875,-5.125 -2,-5 c -0.015625,0.078125 0,0.171875 0,0.265625 l 0,3.875 c 0,0.03125 0,0.078125 0,0.125 z m 0,0" id="path17695"/>
      </g>
      <g id="glyph6-0">
        <path d="m 0,0 0,-3.484375 -4.875,0 L -4.875,0 0,0 z m -2.75,-1.734375 -1.78125,1.171875 0,-2.359375 1.78125,1.1875 z m 0.3125,-0.21875 -1.78125,-1.1875 3.5625,0 -1.78125,1.1875 z m 2.09375,1.390625 -1.78125,-1.171875 1.78125,-1.1875 0,2.359375 z m -3.875,0.21875 1.78125,-1.1875 1.78125,1.1875 -3.5625,0 z m 0,0" id="path17698"/>
      </g>
      <g id="glyph6-1">
        <path d="m 0.265625,-0.453125 -5.046875,-1.953125 0,0.46875 L 0.265625,0 l 0,-0.453125 z m 0,0" id="path17701"/>
      </g>
      <g id="glyph7-0"/>
      <g id="glyph7-1">
        <path d="m 0.734375,-2 c -0.140625,0.046875 -0.15625,0.265625 -0.015625,0.3125 0.046875,0.015625 0.09375,0.015625 0.125,0.015625 l 3.9375,0 c 0.09375,0 0.234375,0.015625 0.3125,-0.046875 C 5.171875,-1.8125 5.125,-1.96875 5,-2 4.921875,-2.015625 4.828125,-2 4.734375,-2 l -3.875,0 c -0.03125,0 -0.078125,0 -0.125,0 z m 0,0" id="path17705"/>
      </g>
      <g id="glyph8-0">
        <path d="m 0,0 3.484375,0 0,-4.875 L 0,-4.875 0,0 z M 1.734375,-2.75 0.5625,-4.53125 l 2.359375,0 -1.1875,1.78125 z m 0.21875,0.3125 1.1875,-1.78125 0,3.5625 -1.1875,-1.78125 z M 0.5625,-0.34375 1.734375,-2.125 l 1.1875,1.78125 -2.359375,0 z m -0.21875,-3.875 1.1875,1.78125 -1.1875,1.78125 0,-3.5625 z m 0,0" id="path17708"/>
      </g>
      <g id="glyph8-1">
        <path d="m 0.453125,0.265625 1.953125,-5.046875 -0.46875,0 L 0,0.265625 l 0.453125,0 z m 0,0" id="path17711"/>
      </g>
    </g>
    <clipPath id="clip1">
      <path d="m -32,305 280.84766,0 0,-315.101563 -280.84766,0 L -32,305 z m 0,0" id="path17714"/>
    </clipPath>
  </defs>
  <g transform="translate(-0.26565,-0.9317053)" id="g18386">
    <path d="m 205.87891,123.78516 0,-1.82813 6.82812,1.82813 -6.82812,1.83203 0,-1.83203 z m 0,0" id="path17719" style="fill:#231f20"/>
    <path d="m 205.87891,123.78516 0,-1.82813 6.82812,1.82813 -6.82812,1.83203 0,-1.83203 m -188.78125,0 188.78125,0" id="path17721" style="fill:none;stroke:#231f20;stroke-width:0.368;stroke-miterlimit:10"/>
    <path d="m 205.87891,123.78516 0,-1.82813 6.82812,1.82813 -6.82812,1.83203 0,-1.83203 z m 0,0" id="path17723" style="fill:#231f20"/>
    <path d="m 205.87891,123.78516 0,-1.82813 6.82812,1.82813 -6.82812,1.83203 0,-1.83203" id="path17725" style="fill:none;stroke:#231f20;stroke-width:0.56300002;stroke-miterlimit:10"/>
    <path d="m 17.097656,8.730469 -1.832031,0 1.832031,-6.832031 1.828125,6.832031 -1.828125,0 z m 0,0" id="path17727" style="fill:#231f20"/>
    <path d="m 17.097656,8.7304688 -1.832031,0 1.832031,-6.8320318 1.828125,6.8320318 -1.828125,0 m 0,115.0546912 0,-115.0546913" id="path17729" style="fill:none;stroke:#231f20;stroke-width:0.56300002;stroke-miterlimit:10"/>
    <path d="m 17.097656,8.730469 -1.832031,0 1.832031,-6.832031 1.828125,6.832031 -1.828125,0 z m 0,0" id="path17731" style="fill:#231f20"/>
    <path d="m 17.097656,8.7304688 -1.832031,0 1.832031,-6.8320318 1.828125,6.8320318 -1.828125,0" id="path17733" style="fill:none;stroke:#231f20;stroke-width:0.56300002;stroke-miterlimit:10"/>
    <path d="m 39.84375,9.3632813 0.632812,3.0976557 0.632813,2.957032 0.632812,2.746093 0.632813,2.675782 0.636719,2.464843 0.632812,2.394532 0.632813,2.324218 0.632812,2.179688 0.632813,2.042969 0.636718,1.972656 0.632813,1.898437 0.632812,1.832032 0.632813,1.761718 0.636719,1.6875 0.632812,1.621094 0.636719,1.550781 0.628906,1.476563 0.636719,1.480469 0.632812,1.335937 0.632813,1.339844 0.636719,1.335937 0.628906,1.195313 0.636719,1.269531 0.632812,1.125 0.632813,1.128906 0.636718,1.054688 0.628907,1.054687 0.636718,1.058594 0.632813,0.984375 0.632812,0.984375 0.5625,0.917969 0.636719,0.914062 0.632813,0.84375 0.632812,0.847657 0.632813,0.84375 0.632812,0.84375 0.636719,0.773437 0.632812,0.707031 0.632813,0.773438 0.632812,0.703125 0.636719,0.703125 0.632813,0.707031 0.632812,0.703125 0.636719,0.632813 0.632812,0.636718 0.632813,0.632813 0.632812,0.5625 0.636719,0.632812 0.632813,0.5625 0.632812,0.5625 0.632813,0.566407 0.636718,0.492187 0.632813,0.5625 0.632812,0.492188 0.632813,0.492187 0.636719,0.492188 0.632812,0.492187 0.632813,0.496094 0.632812,0.421875 0.632813,0.492187 0.636718,0.421875 0.632813,0.421875 0.632812,0.421875 0.632813,0.421875 0.632812,0.425782 0.636719,0.351562 0.632813,0.421875 0.632812,0.421875 0.632813,0.355469 0.632812,0.351562 0.636719,0.351563 0.632812,0.351562 0.632813,0.351563 0.632812,0.355469 0.566407,0.351562 0.632812,0.351563 0.632813,0.28125 0.632812,0.351562 0.636719,0.28125 0.632812,0.351563 0.632813,0.28125 0.632812,0.285156 0.632813,0.28125 0.636719,0.351562 0.632812,0.28125 0.632813,0.28125 0.636718,0.210938 0.632813,0.28125 0.636719,0.28125 0.632812,0.28125 0.632813,0.210937 0.632812,0.28125 0.632813,0.285157 0.636718,0.207031 0.632813,0.210937 0.63281,0.285157 0.63282,0.207031 0.63281,0.214844 0.63672,0.28125 0.63281,0.210937 0.63281,0.210938 0.63281,0.210937 0.63672,0.210938 0.63282,0.210937 0.63281,0.210938 0.63281,0.214843 0.63281,0.207032 0.63672,0.214843 0.63281,0.210938 0.63282,0.140625 0.63281,0.210937 0.63672,0.210938 0.63281,0.140625 0.63281,0.210937 0.63282,0.210938 0.63281,0.140625 0.63672,0.210937 0.63281,0.140625 0.5625,0.214844 0.63672,0.136719 0.63281,0.140625 0.63281,0.214844 0.63672,0.136718 0.63281,0.144532 0.63282,0.207031 0.63281,0.144531 0.63281,0.140625 0.63672,0.140625 0.63281,0.140625 0.63672,0.210938 0.63281,0.140625 0.63282,0.140625 0.63281,0.140625 0.63281,0.140625 0.63672,0.140625 0.63281,0.140625 0.63282,0.140625 0.63281,0.140621 0.63281,0.14063 0.63672,0.14062 0.63281,0.14063 0.63281,0.0703 0.63282,0.14062 0.63671,0.14063 0.63282,0.14062 0.63281,0.14063 0.63281,0.0703 0.63281,0.14062 0.63672,0.14454 0.63282,0.0664 0.63281,0.14062 0.63281,0.14063 0.63672,0.0703 0.63281,0.14453 0.63281,0.14062 0.63282,0.0703 0.63281,0.13672 0.63672,0.0703 0.63281,0.14063 0.63281,0.14062 0.63282,0.0703 0.63281,0.14453 0.5664,0.0664 0.63282,0.14453 0.63281,0.0703 0.63672,0.0703 0.63281,0.14063 0.63281,0.0703 0.63282,0.14062 0.63281,0.0703 0.63672,0.0664 0.63281,0.14453 0.63281,0.0703 0.63281,0.0664 0.63282,0.14453 0.63672,0.0703 0.63281,0.0703 0.63281,0.13672 0.63281,0.0703 0.63282,0.0703 0.63671,0.0703 0.63282,0.14063 0.63281,0.0703 0.63672,0.0703 0.63281,0.0703 0.63672,0.0703 0.63281,0.14453 0.63281,0.0664 0.63282,0.0703 0.63672,0.0703 0.63281,0.0703 0.63281,0.0703 0.63281,0.14453 0.63282,0.0664 0.63671,0.0703 0.63282,0.0742 0.63281,0.0664 0.63281,0.0703 0.63281,0.0703 0.63672,0.0703 0.63282,0.0703 0.63281,0.0703 0.63281,0.0703 0.63672,0.0703 0.63281,0.0703 0.63281,0.0703 0.5625,0.0703 0.63672,0.0703 0.63282,0.0703 0.63281,0.0703 0.63281,0.0703 0.63672,0.0703 0.63281,0.0703 0.63281,0.0703 0.63282,0.0703 0.63281,0.0703 0.63672,0.0703 0.63281,0.0703 0.63281,0.0703 0.63282,0 0.63281,0.0703 0.63672,0.0703 0.63281,0.0703 0.63281,0.0703 0.63281,0.0703 0.63672,0.0703 0.63282,0.0703 0.63281,0 0.63281,0.0703 0.63281,0.0703 0.63672,0.0703 0.63281,0.0703 0.63672,0.0703 0.62891,0 0.63672,0.0703 0.63281,0.0703 0.63281,0.0703 0.63672,0.0703 0.63281,0 0.63282,0.0703 0.63672,0.0703 0.63281,0.0703 0.63281,0 0.63281,0.0703 0.63282,0.0703 0.63671,0.0703 0.63282,0 0.63281,0.0703 0.63281,0.0703 0.63281,0 0.56641,0.0703 0.63281,0.0703 0.63282,0.0703 0.63281,0 0.63672,0.0703 0.63281,0.0703 0.63281,0 0.63281,0.0703 0.63672,0.0703 0.63282,0 0.63281,0.0664 0.63281,0.0703 0.63672,0 0.63281,0.0742" id="path17735" style="fill:none;stroke:#231f20;stroke-width:0.368;stroke-linecap:round;stroke-miterlimit:10;stroke-dasharray:6, 3"/>
    <path d="m 141.02734,123.71484 0.63282,-0.0703 0.63281,-0.21094 0.5625,-0.35156 0.63672,-0.35156 0.63281,-0.49609 0.63281,-0.49219 0.63281,-0.5625 0.63282,-0.70313 0.63672,-0.70312 0.63281,-0.70313 0.63281,-0.84765 0.63281,-0.77344 0.63672,-0.84766 0.63281,-0.84375 0.63282,-0.91406 0.63281,-0.84766 0.63672,-0.84375 0.63281,-0.84765 0.63281,-0.84375 0.63282,-0.77344 0.63281,-0.70312 0.63672,-0.70704 0.63281,-0.70312 0.63672,-0.5625 0.6289,-0.5625 0.63672,-0.42578 0.63282,-0.42188 0.63671,-0.35156 0.63282,-0.21094 0.63281,-0.21093 0.63281,-0.0703 0.63672,0 0.63281,0.0703 0.63282,0.49218 0.63281,0.98438 0.63281,1.55078 0.63672,1.97266 0.63281,2.32421 0.63281,2.60547 0.63282,2.88672 0.63281,3.02735 0.42578,2.11328" id="path17737" style="fill:none;stroke:#231f20;stroke-width:0.50999999;stroke-linecap:round;stroke-miterlimit:10"/>
    <path d="m 47.445312,123.64453 0.636719,-0.49219 0.632813,-0.84765 0.632812,-1.19531 0.632813,-1.40625 0.636718,-1.69141 L 51.25,116.11328 51.882812,114 l 0.632813,-2.25391 0.632812,-2.32421 0.636719,-2.53516 0.632813,-2.53516 0.632812,-2.60547 0.632813,-2.675777 0.632812,-2.605469 0.636719,-2.605469 0.632812,-2.535156 0.632813,-2.460938 0.632812,-2.328125 0.566407,-2.25 0.632812,-2.042968 0.632813,-1.972657 0.632812,-1.757812 0.636719,-1.550781 0.632812,-1.40625 0.632813,-1.125 0.632812,-0.988282 0.632813,-0.703125 0.636719,-0.566406 0.632812,-0.277344 0.632813,-0.07422 0.632812,0.144531 0.636719,0.421875 0.632812,0.632812 0.632813,1.761719 0.632812,3.238281 0.632813,4.578125 0.636719,5.632813 0.632812,6.617187 0.632813,7.394536 0.632812,7.8164 0.632813,8.09766 0.425781,5.63281" id="path17739" style="fill:none;stroke:#231f20;stroke-width:0.50999999;stroke-linecap:round;stroke-miterlimit:10"/>
    <path d="m 75.089844,111.04688 16.25,0" id="path17741" style="fill:none;stroke:#231f20;stroke-width:0.368"/>
    <path d="m 90.347656,112.48438 5.421875,-1.45313 -5.421875,-1.45312 0,2.90625" id="path17743" style="fill:#231f20"/>
    <path d="m 73.78125,146.54297 0,-9.83203" id="path17745" style="fill:none;stroke:#231f20;stroke-width:0.368"/>
    <path d="m 167.35937,136.71094 0,9.83203" id="path17747" style="fill:none;stroke:#231f20;stroke-width:0.368"/>
    <path d="m 78.210937,141.62891 84.890623,0" id="path17749" style="fill:none;stroke:#231f20;stroke-width:0.368"/>
    <path d="m 161.94141,143.08203 5.42187,-1.45312 -5.42187,-1.45313 0,2.90625 z m 0,0" id="path17751" style="fill:#231f20"/>
    <path d="m 79.203125,140.17578 -5.421875,1.45313 5.421875,1.45312 0,-2.90625 z m 0,0" id="path17753" style="fill:#231f20"/>
    <path d="m 46.453125,96.347656 4.761719,2.75" id="path17755" style="fill:none;stroke:#231f20;stroke-width:0.368"/>
    <path d="m 49.640625,99.84375 5.421875,1.45313 -3.972656,-3.968755 -1.449219,2.515625 z m 0,0" id="path17757" style="fill:#231f20"/>
    <path d="m 139.42578,113.73828 5.16797,1.88281" id="path17759" style="fill:none;stroke:#231f20;stroke-width:0.368"/>
    <path d="m 143.17187,116.62891 5.58985,0.48828 -4.59766,-3.21875 -0.99219,2.73047" id="path17761" style="fill:#231f20"/>
    <use transform="translate(110.3662,157.2998)" id="use17765" style="fill:#231f20" x="0" y="0" width="218" height="295" xlink:href="#glyph0-1"/>
    <use transform="translate(113.38586,157.2998)" id="use17767" style="fill:#231f20" x="0" y="0" width="218" height="295" xlink:href="#glyph0-2"/>
    <use transform="translate(117.02618,157.2998)" id="use17769" style="fill:#231f20" x="0" y="0" width="218" height="295" xlink:href="#glyph0-3"/>
    <use transform="translate(211.73736,128.71419)" id="use17773" style="fill:#231f20" x="0" y="0" width="218" height="295" xlink:href="#glyph1-1"/>
    <use transform="translate(12.251808,129.99737)" id="use17777" style="fill:#231f20" x="0" y="0" width="218" height="295" xlink:href="#glyph0-4"/>
    <use transform="translate(70.76199,128.71419)" id="use17781" style="fill:#231f20" x="0" y="0" width="218" height="295" xlink:href="#glyph1-1"/>
    <use transform="translate(73.3193,129.5889)" id="use17785" style="fill:#231f20" x="0" y="0" width="218" height="295" xlink:href="#glyph2-1"/>
    <use transform="translate(164.3032,128.7168)" id="use17789" style="fill:#231f20" x="0" y="0" width="218" height="295" xlink:href="#glyph1-1"/>
    <use transform="translate(166.8633,129.5889)" id="use17793" style="fill:#231f20" x="0" y="0" width="218" height="295" xlink:href="#glyph2-2"/>
    <use transform="translate(5.4844,82.9268)" id="use17797" style="fill:#231f20" x="0" y="0" width="218" height="295" xlink:href="#glyph3-1"/>
    <use transform="translate(5.4844,78.986603)" id="use17801" style="fill:#231f20" x="0" y="0" width="218" height="295" xlink:href="#glyph4-1"/>
    <use transform="translate(5.4844,75.966948)" id="use17805" style="fill:#231f20" x="0" y="0" width="218" height="295" xlink:href="#glyph3-2"/>
    <use transform="translate(5.4844,70.994628)" id="use17809" style="fill:#231f20" x="0" y="0" width="218" height="295" xlink:href="#glyph5-1"/>
    <use transform="translate(5.4844,63.58845)" id="use17813" style="fill:#231f20" x="0" y="0" width="218" height="295" xlink:href="#glyph3-3"/>
    <use transform="translate(5.4844,60.22011)" id="use17817" style="fill:#231f20" x="0" y="0" width="218" height="295" xlink:href="#glyph6-1"/>
    <use transform="translate(5.4844,57.828094)" id="use17821" style="fill:#231f20" x="0" y="0" width="218" height="295" xlink:href="#glyph3-4"/>
    <use transform="translate(5.4844,52.45129)" id="use17825" style="fill:#231f20" x="0" y="0" width="218" height="295" xlink:href="#glyph4-2"/>
    <path d="m 8.5976563,82.925781 0,-33.492187" id="path17827" style="fill:none;stroke:#231f20;stroke-width:0.33899999;stroke-miterlimit:10"/>
    <use transform="translate(15.5645,67.8638)" id="use17831" style="fill:#231f20" x="0" y="0" width="218" height="295" xlink:href="#glyph3-3"/>
    <path d="m 101.8125,147.96094 37.26953,0 0,-12.75782 -37.26953,0 0,12.75782 z m 0,0" id="path17833" style="fill:#ffffff"/>
    <use transform="translate(104.7993,143.4219)" id="use17837" style="fill:#231f20" x="0" y="0" width="218" height="295" xlink:href="#glyph1-2"/>
    <use transform="translate(108.85805,143.4219)" id="use17841" style="fill:#231f20" x="0" y="0" width="218" height="295" xlink:href="#glyph0-1"/>
    <use transform="translate(111.87771,143.4219)" id="use17845" style="fill:#231f20" x="0" y="0" width="218" height="295" xlink:href="#glyph1-3"/>
    <use transform="translate(114.6802,144.2939)" id="use17849" style="fill:#231f20" x="0" y="0" width="218" height="295" xlink:href="#glyph2-2"/>
    <use transform="translate(119.5952,143.4219)" id="use17853" style="fill:#231f20" x="0" y="0" width="218" height="295" xlink:href="#glyph7-1"/>
    <use transform="translate(127.00835,143.4219)" id="use17857" style="fill:#231f20" x="0" y="0" width="218" height="295" xlink:href="#glyph1-3"/>
    <use transform="translate(129.8071,144.2939)" id="use17861" style="fill:#231f20" x="0" y="0" width="218" height="295" xlink:href="#glyph2-1"/>
    <use transform="translate(133.0762,143.4219)" id="use17865" style="fill:#231f20" x="0" y="0" width="218" height="295" xlink:href="#glyph0-3"/>
    <use transform="translate(111.00412,89.56324)" id="use17869" style="fill:#231f20" x="0" y="0" width="218" height="295" xlink:href="#glyph0-5"/>
    <use transform="translate(114.88156,89.56324)" id="use17873" style="fill:#231f20" x="0" y="0" width="218" height="295" xlink:href="#glyph8-1"/>
    <use transform="translate(117.27357,89.56324)" id="use17877" style="fill:#231f20" x="0" y="0" width="218" height="295" xlink:href="#glyph1-1"/>
    <use transform="translate(39.25767,98.18983)" id="use17881" style="fill:#231f20" x="0" y="0" width="218" height="295" xlink:href="#glyph1-3"/>
    <use transform="translate(42.0596,99.064)" id="use17885" style="fill:#231f20" x="0" y="0" width="218" height="295" xlink:href="#glyph2-1"/>
    <use transform="translate(132.2334,115.4829)" id="use17889" style="fill:#231f20" x="0" y="0" width="218" height="295" xlink:href="#glyph1-3"/>
    <use transform="translate(135.0352,116.355)" id="use17893" style="fill:#231f20" x="0" y="0" width="218" height="295" xlink:href="#glyph2-2"/>
    <use transform="translate(78.2822,108.1328)" id="use17897" style="fill:#231f20" x="0" y="0" width="218" height="295" xlink:href="#glyph1-4"/>
    <use transform="translate(82.4874,108.1328)" id="use17901" style="fill:#231f20" x="0" y="0" width="218" height="295" xlink:href="#glyph0-6"/>
    <use transform="translate(88.24776,108.1328)" id="use17905" style="fill:#231f20" x="0" y="0" width="218" height="295" xlink:href="#glyph1-2"/>
  </g>
</svg>
