<?xml version="1.0" encoding="UTF-8"?>
<svg xmlns="http://www.w3.org/2000/svg" xmlns:xlink="http://www.w3.org/1999/xlink" width="213pt" height="309pt" viewBox="0 0 154 223" version="1.1">
<defs>
<g>
<symbol overflow="visible" id="glyph0-0">
<path style="stroke:none;" d=""/>
</symbol>
<symbol overflow="visible" id="glyph0-1">
<path style="stroke:none;" d="M 2.578125 1.546875 C 2.546875 1.5 2.5 1.46875 2.453125 1.4375 C 1.6875 0.75 1.21875 -0.3125 1.171875 -1.59375 C 1.140625 -2.46875 1.296875 -3.375 1.703125 -4.15625 C 1.90625 -4.53125 2.140625 -4.84375 2.453125 -5.109375 C 2.5 -5.15625 2.546875 -5.1875 2.578125 -5.21875 L 2.328125 -5.21875 C 2.171875 -5.21875 2.1875 -5.21875 2.078125 -5.140625 C 1.71875 -4.859375 1.421875 -4.484375 1.1875 -4.0625 C 0.53125 -2.828125 0.484375 -1.15625 1.09375 0.1875 C 1.3125 0.6875 1.65625 1.109375 2.078125 1.46875 C 2.171875 1.53125 2.171875 1.546875 2.328125 1.546875 L 2.578125 1.546875 Z M 2.578125 1.546875 "/>
</symbol>
<symbol overflow="visible" id="glyph0-2">
<path style="stroke:none;" d="M 0.640625 -2.640625 C 0.765625 -2.703125 0.859375 -2.78125 0.984375 -2.84375 C 1.203125 -2.9375 1.4375 -2.984375 1.6875 -3 C 1.75 -3.015625 1.828125 -3.015625 1.90625 -3.015625 C 2.1875 -2.96875 2.421875 -2.78125 2.5 -2.515625 C 2.578125 -2.3125 2.546875 -2.0625 2.546875 -1.859375 C 2.1875 -1.859375 1.8125 -1.828125 1.453125 -1.734375 C 0.953125 -1.609375 0.328125 -1.359375 0.390625 -0.71875 C 0.4375 -0.4375 0.59375 -0.15625 0.859375 -0.015625 C 1.03125 0.0625 1.234375 0.0625 1.4375 0.046875 C 1.734375 0.015625 2.0625 -0.0625 2.3125 -0.25 C 2.40625 -0.3125 2.484375 -0.390625 2.5625 -0.46875 L 2.5625 0 L 3.046875 0 L 3.046875 -1.828125 C 3.046875 -2.015625 3.078125 -2.21875 3.03125 -2.421875 C 2.96875 -2.90625 2.53125 -3.265625 2.078125 -3.359375 C 1.796875 -3.40625 1.359375 -3.34375 1.125 -3.296875 C 1.046875 -3.265625 0.65625 -3.140625 0.625 -3.078125 C 0.59375 -3.046875 0.609375 -2.984375 0.609375 -2.953125 C 0.625 -2.84375 0.640625 -2.75 0.640625 -2.640625 Z M 2.546875 -1.625 L 2.546875 -1.109375 C 2.546875 -0.96875 2.546875 -0.84375 2.484375 -0.71875 C 2.40625 -0.578125 2.265625 -0.46875 2.109375 -0.421875 C 1.78125 -0.296875 1.328125 -0.28125 1.046875 -0.515625 C 0.96875 -0.5625 0.90625 -0.640625 0.890625 -0.75 C 0.8125 -1.046875 1.078125 -1.28125 1.3125 -1.390625 C 1.640625 -1.546875 2.109375 -1.625 2.546875 -1.625 Z M 2.546875 -1.625 "/>
</symbol>
<symbol overflow="visible" id="glyph0-3">
<path style="stroke:none;" d="M 0.4375 -5.21875 C 0.46875 -5.1875 0.515625 -5.15625 0.5625 -5.109375 C 1.421875 -4.34375 1.890625 -3.109375 1.828125 -1.59375 C 1.8125 -0.84375 1.625 -0.09375 1.265625 0.5625 C 1.078125 0.890625 0.84375 1.1875 0.5625 1.4375 C 0.515625 1.46875 0.46875 1.5 0.4375 1.546875 L 0.6875 1.546875 C 0.84375 1.546875 0.828125 1.546875 0.921875 1.46875 C 1.296875 1.171875 1.59375 0.796875 1.8125 0.390625 C 2.484375 -0.859375 2.53125 -2.515625 1.921875 -3.859375 C 1.6875 -4.375 1.359375 -4.796875 0.9375 -5.140625 C 0.84375 -5.21875 0.84375 -5.21875 0.6875 -5.21875 L 0.4375 -5.21875 Z M 0.4375 -5.21875 "/>
</symbol>
<symbol overflow="visible" id="glyph0-4">
<path style="stroke:none;" d="M 0.578125 -4.84375 L 0.578125 0 L 1.09375 0 L 1.09375 -0.46875 L 1.09375 -0.46875 C 1.15625 -0.359375 1.265625 -0.265625 1.359375 -0.1875 C 1.671875 0.0625 2.1875 0.140625 2.640625 -0.078125 C 2.84375 -0.1875 3.015625 -0.359375 3.15625 -0.546875 C 3.84375 -1.5 3.421875 -3.09375 2.453125 -3.3125 C 2.328125 -3.359375 2.171875 -3.359375 2.03125 -3.328125 C 1.625 -3.28125 1.3125 -3.078125 1.078125 -2.828125 L 1.078125 -4.84375 L 0.578125 -4.84375 Z M 1.8125 -2.953125 C 2.140625 -2.984375 2.515625 -2.84375 2.734375 -2.578125 C 2.90625 -2.359375 2.96875 -2.078125 2.96875 -1.8125 C 3 -1.4375 2.953125 -1.03125 2.71875 -0.734375 C 2.515625 -0.46875 2.1875 -0.359375 1.875 -0.328125 C 1.609375 -0.328125 1.375 -0.421875 1.203125 -0.640625 C 1.171875 -0.6875 1.125 -0.75 1.09375 -0.8125 C 1.09375 -0.859375 1.09375 -0.90625 1.09375 -0.9375 L 1.09375 -2.328125 C 1.09375 -2.390625 1.078125 -2.46875 1.109375 -2.53125 C 1.140625 -2.609375 1.203125 -2.65625 1.265625 -2.71875 C 1.421875 -2.84375 1.609375 -2.9375 1.8125 -2.953125 Z M 1.8125 -2.953125 "/>
</symbol>
<symbol overflow="visible" id="glyph1-0">
<path style="stroke:none;" d=""/>
</symbol>
<symbol overflow="visible" id="glyph1-1">
<path style="stroke:none;" d="M 0.75 -3.296875 C 0.828125 -3.140625 0.921875 -3.015625 1.015625 -2.875 C 1.078125 -2.796875 1.6875 -1.875 1.71875 -1.84375 C 1.734375 -1.8125 1.796875 -1.75 1.796875 -1.703125 C 1.796875 -1.65625 1.71875 -1.609375 1.6875 -1.578125 C 1.375 -1.296875 0.046875 -0.046875 0 0 C 0.1875 0 0.375 0 0.53125 0 L 0.6875 -0.140625 L 1.984375 -1.4375 C 2.265625 -0.953125 2.53125 -0.46875 2.84375 -0.015625 C 3.015625 0 3.203125 0 3.390625 0 C 3.296875 -0.140625 2.359375 -1.53125 2.328125 -1.5625 C 2.3125 -1.609375 2.265625 -1.65625 2.265625 -1.6875 C 2.28125 -1.734375 2.34375 -1.78125 2.375 -1.8125 C 2.484375 -1.921875 2.59375 -2.015625 2.703125 -2.125 C 2.8125 -2.21875 3.921875 -3.25 3.953125 -3.296875 C 3.765625 -3.296875 3.59375 -3.296875 3.421875 -3.28125 C 2.96875 -2.875 2.546875 -2.4375 2.09375 -2.03125 C 1.828125 -2.453125 1.578125 -2.890625 1.28125 -3.28125 C 1.109375 -3.296875 0.921875 -3.296875 0.75 -3.296875 Z M 0.75 -3.296875 "/>
</symbol>
<symbol overflow="visible" id="glyph1-2">
<path style="stroke:none;" d="M 0.8125 -3.296875 C 0.828125 -3.1875 0.84375 -3.09375 0.875 -3 C 1.015625 -2.3125 1.515625 -0.078125 1.515625 0 C 1.5 0.03125 1.328125 0.296875 1.328125 0.296875 C 1.15625 0.578125 0.9375 0.875 0.515625 0.828125 C 0.421875 0.828125 0.328125 0.8125 0.234375 0.796875 C 0.171875 0.78125 0.09375 0.75 0.03125 0.734375 L -0.015625 1.171875 C 0.203125 1.203125 0.578125 1.25 0.796875 1.1875 C 1.234375 1.0625 1.546875 0.59375 1.75 0.265625 L 2.09375 -0.28125 C 2.28125 -0.59375 3.875 -3.125 3.984375 -3.296875 C 3.8125 -3.296875 3.640625 -3.296875 3.5 -3.28125 C 3.328125 -3.03125 3.1875 -2.78125 3.03125 -2.53125 C 2.625 -1.859375 2.1875 -1.234375 1.828125 -0.515625 L 1.828125 -0.515625 C 1.734375 -1.515625 1.484375 -2.359375 1.296875 -3.296875 L 0.8125 -3.296875 Z M 0.8125 -3.296875 "/>
</symbol>
<symbol overflow="visible" id="glyph1-3">
<path style="stroke:none;" d="M 1.75 -4.828125 L 0.734375 0 C 1.921875 0 3.15625 0.015625 4.3125 0 C 4.359375 -0.125 4.390625 -0.28125 4.40625 -0.4375 L 1.359375 -0.4375 L 1.75 -2.296875 C 2.640625 -2.3125 3.609375 -2.28125 4.46875 -2.3125 C 4.515625 -2.421875 4.546875 -2.578125 4.578125 -2.703125 L 1.84375 -2.703125 C 1.953125 -3.28125 2.078125 -3.84375 2.1875 -4.40625 L 5.15625 -4.40625 L 5.234375 -4.828125 L 1.75 -4.828125 Z M 1.75 -4.828125 "/>
</symbol>
<symbol overflow="visible" id="glyph2-0">
<path style="stroke:none;" d=""/>
</symbol>
<symbol overflow="visible" id="glyph2-1">
<path style="stroke:none;" d="M 0.640625 0 L 3.1875 0 C 3.484375 -0.015625 3.828125 0.03125 4.09375 -0.015625 C 4.171875 -0.203125 4.1875 -0.453125 4.234375 -0.671875 C 3.375 -0.65625 2.484375 -0.65625 1.625 -0.640625 C 1.703125 -1.03125 1.796875 -1.40625 1.875 -1.796875 L 1.9375 -2.09375 C 1.9375 -2.125 1.9375 -2.1875 1.96875 -2.203125 C 2 -2.234375 2.078125 -2.21875 2.125 -2.21875 L 4.265625 -2.21875 L 4.390625 -2.78125 L 2.078125 -2.78125 L 2.375 -4.203125 L 4.890625 -4.1875 L 5.03125 -4.8125 L 2.546875 -4.8125 C 2.265625 -4.796875 1.921875 -4.84375 1.671875 -4.796875 L 1.640625 -4.703125 L 0.640625 0 Z M 0.640625 0 "/>
</symbol>
<symbol overflow="visible" id="glyph3-0">
<path style="stroke:none;" d=""/>
</symbol>
<symbol overflow="visible" id="glyph3-1">
<path style="stroke:none;" d="M 0.578125 -2.359375 C 0.59375 -2.28125 0.609375 -2.21875 0.625 -2.140625 C 0.71875 -1.65625 1.078125 -0.0625 1.078125 0 C 1.078125 0.015625 0.953125 0.21875 0.953125 0.21875 C 0.828125 0.40625 0.671875 0.625 0.375 0.59375 C 0.296875 0.59375 0.234375 0.578125 0.171875 0.5625 C 0.125 0.5625 0.0625 0.53125 0.015625 0.53125 L -0.015625 0.84375 C 0.15625 0.859375 0.421875 0.890625 0.5625 0.84375 C 0.875 0.765625 1.109375 0.421875 1.25 0.1875 L 1.5 -0.203125 C 1.640625 -0.421875 2.78125 -2.234375 2.84375 -2.359375 C 2.71875 -2.359375 2.609375 -2.359375 2.5 -2.34375 C 2.375 -2.171875 2.28125 -1.984375 2.15625 -1.8125 C 1.875 -1.328125 1.5625 -0.875 1.3125 -0.359375 L 1.3125 -0.359375 C 1.234375 -1.078125 1.0625 -1.6875 0.9375 -2.359375 L 0.578125 -2.359375 Z M 0.578125 -2.359375 "/>
</symbol>
</g>
<clipPath id="clip1">
  <path d="M -228 667 L 384 667 L 384 -125 L -228 -125 L -228 667 Z M -228 667 "/>
</clipPath>
<clipPath id="clip2">
  <path d="M 9.042969 222.800781 L 155.042969 222.800781 L 155.042969 -0.199219 L 9.042969 -0.199219 L 9.042969 222.800781 Z M 9.042969 222.800781 "/>
</clipPath>
<clipPath id="clip3">
  <path d="M -228 667 L 384 667 L 384 -125 L -228 -125 L -228 667 Z M -228 667 "/>
</clipPath>
</defs>
<g id="surface0">
<g clip-path="url(#clip1)" clip-rule="nonzero">
<g clip-path="url(#clip2)" clip-rule="nonzero">
<path style="fill:none;stroke-width:14;stroke-linecap:butt;stroke-linejoin:round;stroke:rgb(0%,0%,0%);stroke-opacity:1;stroke-miterlimit:10;" d="M 21.825625 1365.910625 L 1110.614688 1365.910625 L 1110.614688 1873.605938 L 21.825625 1873.605938 L 21.825625 1365.910625 Z M 21.825625 1365.910625 " transform="matrix(0.1,0,0,-0.1,9.044,222.802)"/>
<path style="fill:none;stroke-width:5;stroke-linecap:round;stroke-linejoin:round;stroke:rgb(0%,0%,0%);stroke-opacity:1;stroke-miterlimit:10;" d="M 1103.544375 1370.441875 L 1443.700625 1370.441875 " transform="matrix(0.1,0,0,-0.1,9.044,222.802)"/>
<path style=" stroke:none;fill-rule:nonzero;fill:rgb(0%,0%,0%);fill-opacity:1;" d="M 147.878906 86.984375 L 153.414063 85.757813 L 147.878906 84.527344 "/>
<path style="fill:none;stroke-width:5;stroke-linecap:round;stroke-linejoin:round;stroke:rgb(0%,0%,0%);stroke-opacity:1;stroke-miterlimit:10;" d="M 1388.349063 1358.17625 L 1443.700625 1370.441875 L 1388.349063 1382.746563 L 1388.349063 1358.17625 Z M 1388.349063 1358.17625 " transform="matrix(0.1,0,0,-0.1,9.044,222.802)"/>
<path style="fill:none;stroke-width:5;stroke-linecap:round;stroke-linejoin:round;stroke:rgb(0%,0%,0%);stroke-opacity:1;stroke-miterlimit:10;" d="M 26.356875 1866.535625 L 26.356875 2220.871563 " transform="matrix(0.1,0,0,-0.1,9.044,222.802)"/>
<path style=" stroke:none;fill-rule:nonzero;fill:rgb(0%,0%,0%);fill-opacity:1;" d="M 12.910156 6.25 L 11.679688 0.714844 L 10.453125 6.25 "/>
<path style="fill:none;stroke-width:5;stroke-linecap:round;stroke-linejoin:round;stroke:rgb(0%,0%,0%);stroke-opacity:1;stroke-miterlimit:10;" d="M 38.661563 2165.52 L 26.356875 2220.871563 L 14.09125 2165.52 L 38.661563 2165.52 Z M 38.661563 2165.52 " transform="matrix(0.1,0,0,-0.1,9.044,222.802)"/>
<path style="fill:none;stroke-width:5;stroke-linecap:round;stroke-linejoin:round;stroke:rgb(0%,0%,0%);stroke-opacity:1;stroke-miterlimit:10;" d="M 345.263125 1370.441875 L 345.263125 1646.848125 " transform="matrix(0.1,0,0,-0.1,9.044,222.802)"/>
<path style=" stroke:none;fill-rule:nonzero;fill:rgb(0%,0%,0%);fill-opacity:1;" d="M 44.796875 63.652344 L 43.570313 58.117188 L 42.34375 63.652344 "/>
<path style="fill:none;stroke-width:5;stroke-linecap:round;stroke-linejoin:round;stroke:rgb(0%,0%,0%);stroke-opacity:1;stroke-miterlimit:10;" d="M 357.52875 1591.496563 L 345.263125 1646.848125 L 332.9975 1591.496563 L 357.52875 1591.496563 Z M 357.52875 1591.496563 " transform="matrix(0.1,0,0,-0.1,9.044,222.802)"/>
<path style="fill:none;stroke-width:5;stroke-linecap:round;stroke-linejoin:round;stroke:rgb(0%,0%,0%);stroke-opacity:1;stroke-miterlimit:10;" d="M 246.044375 1370.441875 L 246.044375 1646.848125 " transform="matrix(0.1,0,0,-0.1,9.044,222.802)"/>
<path style=" stroke:none;fill-rule:nonzero;fill:rgb(0%,0%,0%);fill-opacity:1;" d="M 34.875 63.652344 L 33.648438 58.117188 L 32.421875 63.652344 "/>
<path style="fill:none;stroke-width:5;stroke-linecap:round;stroke-linejoin:round;stroke:rgb(0%,0%,0%);stroke-opacity:1;stroke-miterlimit:10;" d="M 258.31 1591.496563 L 246.044375 1646.848125 L 233.77875 1591.496563 L 258.31 1591.496563 Z M 258.31 1591.496563 " transform="matrix(0.1,0,0,-0.1,9.044,222.802)"/>
<path style="fill:none;stroke-width:5;stroke-linecap:round;stroke-linejoin:round;stroke:rgb(0%,0%,0%);stroke-opacity:1;stroke-miterlimit:10;" d="M 345.263125 1646.848125 L 345.263125 1866.535625 " transform="matrix(0.1,0,0,-0.1,9.044,222.802)"/>
<path style="fill:none;stroke-width:5;stroke-linecap:round;stroke-linejoin:round;stroke:rgb(0%,0%,0%);stroke-opacity:1;stroke-miterlimit:10;" d="M 246.044375 1646.848125 L 246.044375 1866.535625 " transform="matrix(0.1,0,0,-0.1,9.044,222.802)"/>
<path style="fill:none;stroke-width:5;stroke-linecap:round;stroke-linejoin:round;stroke:rgb(0%,0%,0%);stroke-opacity:1;stroke-miterlimit:10;" d="M 883.856875 1866.535625 L 883.856875 1590.168438 " transform="matrix(0.1,0,0,-0.1,9.044,222.802)"/>
<path style=" stroke:none;fill-rule:nonzero;fill:rgb(0%,0%,0%);fill-opacity:1;" d="M 96.203125 58.253906 L 97.429688 63.785156 L 98.65625 58.253906 "/>
<path style="fill:none;stroke-width:5;stroke-linecap:round;stroke-linejoin:round;stroke:rgb(0%,0%,0%);stroke-opacity:1;stroke-miterlimit:10;" d="M 871.59125 1645.480938 L 883.856875 1590.168438 L 896.1225 1645.480938 L 871.59125 1645.480938 Z M 871.59125 1645.480938 " transform="matrix(0.1,0,0,-0.1,9.044,222.802)"/>
<path style="fill:none;stroke-width:5;stroke-linecap:round;stroke-linejoin:round;stroke:rgb(0%,0%,0%);stroke-opacity:1;stroke-miterlimit:10;" d="M 784.638125 1866.535625 L 784.638125 1590.168438 " transform="matrix(0.1,0,0,-0.1,9.044,222.802)"/>
<path style=" stroke:none;fill-rule:nonzero;fill:rgb(0%,0%,0%);fill-opacity:1;" d="M 86.28125 58.253906 L 87.507813 63.785156 L 88.734375 58.253906 "/>
<path style="fill:none;stroke-width:5;stroke-linecap:round;stroke-linejoin:round;stroke:rgb(0%,0%,0%);stroke-opacity:1;stroke-miterlimit:10;" d="M 772.3725 1645.480938 L 784.638125 1590.168438 L 796.90375 1645.480938 L 772.3725 1645.480938 Z M 772.3725 1645.480938 " transform="matrix(0.1,0,0,-0.1,9.044,222.802)"/>
<path style="fill:none;stroke-width:5;stroke-linecap:round;stroke-linejoin:round;stroke:rgb(0%,0%,0%);stroke-opacity:1;stroke-miterlimit:10;" d="M 883.856875 1590.168438 L 883.856875 1370.441875 " transform="matrix(0.1,0,0,-0.1,9.044,222.802)"/>
<path style="fill:none;stroke-width:5;stroke-linecap:round;stroke-linejoin:round;stroke:rgb(0%,0%,0%);stroke-opacity:1;stroke-miterlimit:10;" d="M 784.638125 1590.168438 L 784.638125 1370.441875 " transform="matrix(0.1,0,0,-0.1,9.044,222.802)"/>
<path style="fill:none;stroke-width:5;stroke-linecap:round;stroke-linejoin:round;stroke:rgb(0%,0%,0%);stroke-opacity:1;stroke-miterlimit:10;" d="M 26.356875 548.410625 L 1443.700625 548.410625 " transform="matrix(0.1,0,0,-0.1,9.044,222.802)"/>
<path style=" stroke:none;fill-rule:nonzero;fill:rgb(0%,0%,0%);fill-opacity:1;" d="M 147.878906 169.1875 L 153.414063 167.960938 L 147.878906 166.734375 "/>
<path style="fill:none;stroke-width:5;stroke-linecap:round;stroke-linejoin:round;stroke:rgb(0%,0%,0%);stroke-opacity:1;stroke-miterlimit:10;" d="M 1388.349063 536.145 L 1443.700625 548.410625 L 1388.349063 560.67625 L 1388.349063 536.145 Z M 1388.349063 536.145 " transform="matrix(0.1,0,0,-0.1,9.044,222.802)"/>
<path style="fill:none;stroke-width:5;stroke-linecap:round;stroke-linejoin:round;stroke:rgb(0%,0%,0%);stroke-opacity:1;stroke-miterlimit:10;" d="M 26.356875 9.816875 L 26.356875 1143.684063 " transform="matrix(0.1,0,0,-0.1,9.044,222.802)"/>
<path style=" stroke:none;fill-rule:nonzero;fill:rgb(0%,0%,0%);fill-opacity:1;" d="M 12.910156 113.96875 L 11.679688 108.433594 L 10.453125 113.96875 "/>
<path style="fill:none;stroke-width:5;stroke-linecap:round;stroke-linejoin:round;stroke:rgb(0%,0%,0%);stroke-opacity:1;stroke-miterlimit:10;" d="M 38.661563 1088.3325 L 26.356875 1143.684063 L 14.09125 1088.3325 L 38.661563 1088.3325 Z M 38.661563 1088.3325 " transform="matrix(0.1,0,0,-0.1,9.044,222.802)"/>
<path style="fill:none;stroke-width:5;stroke-linecap:round;stroke-linejoin:round;stroke:rgb(0%,0%,0%);stroke-opacity:1;stroke-miterlimit:10;" d="M 1103.544375 520.05125 L 1103.544375 576.77 " transform="matrix(0.1,0,0,-0.1,9.044,222.802)"/>
<path style="fill:none;stroke-width:5;stroke-linecap:round;stroke-linejoin:round;stroke:rgb(0%,0%,0%);stroke-opacity:1;stroke-miterlimit:10;" d="M 26.356875 548.410625 C 47.645938 594.191875 70.067813 639.42625 93.700625 683.996563 C 114.481875 723.293438 136.200625 762.121563 161.005313 798.9575 C 180.145938 827.355938 201.27875 854.699688 228.349063 875.754375 C 247.958438 891.027813 270.81 902.746563 295.65375 902.746563 C 320.536563 902.746563 343.349063 891.066875 362.9975 875.754375 C 390.02875 854.699688 411.161563 827.355938 430.302188 798.9575 C 455.185 762.121563 476.981875 723.371563 497.645938 683.996563 C 521.083438 639.309063 542.9975 593.879375 564.950625 548.410625 C 586.90375 502.980938 608.817813 457.512188 632.294375 412.824688 C 652.919375 373.449688 674.71625 334.699688 699.599063 297.86375 C 718.77875 269.465313 739.8725 242.121563 766.90375 221.066875 C 786.552188 205.793438 809.364688 194.074688 834.2475 194.074688 C 859.09125 194.074688 881.942813 205.793438 901.552188 221.066875 C 928.6225 242.121563 949.755313 269.465313 968.895938 297.86375 C 993.739688 334.73875 1015.419375 373.527813 1036.200625 412.824688 C 1059.833438 457.434063 1082.255313 502.629375 1103.544375 548.410625 " transform="matrix(0.1,0,0,-0.1,9.044,222.802)"/>
</g>
</g>
<g clip-path="url(#clip3)" clip-rule="nonzero">
<g style="fill:rgb(0%,0%,0%);fill-opacity:1;">
  <use xlink:href="#glyph0-1" x="60.617" y="93.67"/>
  <use xlink:href="#glyph0-2" x="63.633866" y="93.67"/>
  <use xlink:href="#glyph0-3" x="67.270703" y="93.67"/>
</g>
<g style="fill:rgb(0%,0%,0%);fill-opacity:1;">
  <use xlink:href="#glyph1-1" x="148.739" y="91.733"/>
</g>
<g style="fill:rgb(0%,0%,0%);fill-opacity:1;">
  <use xlink:href="#glyph1-2" x="14.43" y="4.749"/>
</g>
<g style="fill:rgb(0%,0%,0%);fill-opacity:1;">
  <use xlink:href="#glyph2-1" x="45.044" y="56.125"/>
</g>
<g style="fill:rgb(0%,0%,0%);fill-opacity:1;">
  <use xlink:href="#glyph0-1" x="60.523" y="215.56"/>
  <use xlink:href="#glyph0-4" x="63.539866" y="215.56"/>
  <use xlink:href="#glyph0-3" x="67.365693" y="215.56"/>
</g>
<g style="fill:rgb(0%,0%,0%);fill-opacity:1;">
  <use xlink:href="#glyph1-1" x="148.739" y="173.938"/>
</g>
<g style="fill:rgb(0%,0%,0%);fill-opacity:1;">
  <use xlink:href="#glyph1-3" x="0.204" y="112.971"/>
</g>
<g style="fill:rgb(0%,0%,0%);fill-opacity:1;">
  <use xlink:href="#glyph3-1" x="5.26" y="113.843"/>
</g>
</g>
</g>
</svg>
