<?xml version="1.0" encoding="UTF-8"?>
<svg xmlns="http://www.w3.org/2000/svg" xmlns:xlink="http://www.w3.org/1999/xlink" width="373.3523804664971pt" height="156.97770542341357pt" viewBox="0 0 264 111" version="1.1">
<defs>
<g>
<symbol overflow="visible" id="glyph0-0">
<path style="stroke:none;" d=""/>
</symbol>
<symbol overflow="visible" id="glyph0-1">
<path style="stroke:none;" d="M 0.65625 -3.59375 L 0.65625 -3.25 C 0.953125 -3.25 1.25 -3.296875 1.515625 -3.421875 L 1.515625 -0.328125 L 0.6875 -0.328125 L 0.6875 0 L 2.765625 0 L 2.765625 -0.328125 L 1.9375 -0.328125 L 1.9375 -3.984375 C 1.90625 -3.984375 1.859375 -3.984375 1.828125 -3.96875 C 1.78125 -3.953125 1.75 -3.90625 1.71875 -3.875 C 1.46875 -3.671875 1.046875 -3.59375 0.65625 -3.59375 Z M 0.65625 -3.59375 "/>
</symbol>
<symbol overflow="visible" id="glyph0-2">
<path style="stroke:none;" d="M 0.53125 -2.71875 C 0.625 -3.0625 0.78125 -3.4375 1.140625 -3.578125 C 1.28125 -3.625 1.421875 -3.640625 1.578125 -3.625 C 1.890625 -3.59375 2.203125 -3.46875 2.375 -3.21875 C 2.5 -3.03125 2.546875 -2.828125 2.515625 -2.609375 C 2.4375 -2.046875 1.9375 -1.6875 1.515625 -1.375 C 1.203125 -1.109375 0.5 -0.5 0.5 -0.5 L 0.390625 -0.40625 C 0.328125 -0.34375 0.328125 -0.359375 0.328125 -0.234375 L 0.328125 0 L 2.953125 0 L 2.953125 -0.359375 L 0.703125 -0.359375 C 0.9375 -0.5625 1.609375 -1.140625 1.8125 -1.28125 C 2.1875 -1.5625 2.609375 -1.828125 2.84375 -2.25 C 3.09375 -2.71875 2.9375 -3.328125 2.53125 -3.671875 C 2.078125 -4.046875 1.25 -4.109375 0.75 -3.734375 C 0.5625 -3.59375 0.421875 -3.375 0.328125 -3.171875 C 0.3125 -3.125 0.265625 -3.0625 0.28125 -3.015625 C 0.296875 -2.984375 0.328125 -2.953125 0.34375 -2.921875 C 0.40625 -2.859375 0.46875 -2.78125 0.53125 -2.71875 Z M 0.53125 -2.71875 "/>
</symbol>
<symbol overflow="visible" id="glyph0-3">
<path style="stroke:none;" d="M 0.1875 -1.046875 L 1.984375 -1.046875 L 1.984375 0 L 2.390625 0 L 2.390625 -1.046875 L 3.109375 -1.046875 L 3.109375 -1.390625 L 2.390625 -1.390625 L 2.390625 -3.9375 L 2.0625 -3.9375 C 2.015625 -3.9375 1.953125 -3.953125 1.921875 -3.9375 C 1.875 -3.890625 1.78125 -3.75 1.765625 -3.71875 L 1.421875 -3.21875 C 1.28125 -3.015625 0.3125 -1.59375 0.25 -1.484375 C 0.1875 -1.421875 0.1875 -1.390625 0.1875 -1.265625 L 0.1875 -1.046875 Z M 2 -3.5625 L 2 -1.390625 L 0.609375 -1.390625 L 1.5 -2.703125 C 1.65625 -2.984375 1.859375 -3.25 2 -3.5625 Z M 2 -3.5625 "/>
</symbol>
<symbol overflow="visible" id="glyph0-4">
<path style="stroke:none;" d="M 1.203125 -2.109375 L 1.203125 -2.09375 C 0.8125 -2 0.4375 -1.71875 0.3125 -1.34375 C 0.1875 -0.96875 0.34375 -0.5625 0.625 -0.296875 C 0.90625 -0.015625 1.3125 0.09375 1.703125 0.09375 C 2.234375 0.078125 2.78125 -0.234375 2.953125 -0.765625 C 3.015625 -0.9375 3.03125 -1.125 2.984375 -1.3125 C 2.875 -1.71875 2.5 -2 2.078125 -2.09375 C 2.140625 -2.125 2.203125 -2.125 2.265625 -2.15625 C 2.484375 -2.25 2.703125 -2.390625 2.8125 -2.59375 C 3.046875 -2.96875 2.859375 -3.4375 2.53125 -3.6875 C 2.1875 -3.96875 1.71875 -4.03125 1.296875 -3.9375 C 0.9375 -3.859375 0.578125 -3.625 0.4375 -3.28125 C 0.390625 -3.171875 0.359375 -3.03125 0.359375 -2.890625 C 0.40625 -2.578125 0.640625 -2.34375 0.90625 -2.203125 C 1 -2.15625 1.09375 -2.109375 1.203125 -2.109375 Z M 1.78125 -3.640625 C 1.984375 -3.625 2.203125 -3.578125 2.34375 -3.421875 C 2.578125 -3.171875 2.578125 -2.734375 2.34375 -2.5 C 2.203125 -2.34375 1.984375 -2.28125 1.78125 -2.265625 C 1.5 -2.25 1.15625 -2.28125 0.9375 -2.5 C 0.703125 -2.734375 0.703125 -3.203125 0.96875 -3.453125 C 1.171875 -3.625 1.46875 -3.671875 1.78125 -3.640625 Z M 1.53125 -1.9375 C 1.859375 -1.953125 2.21875 -1.875 2.421875 -1.609375 C 2.640625 -1.3125 2.640625 -0.78125 2.375 -0.484375 C 2.21875 -0.34375 2 -0.265625 1.796875 -0.25 C 1.5 -0.21875 1.140625 -0.265625 0.90625 -0.5 C 0.65625 -0.78125 0.609375 -1.359375 0.921875 -1.671875 C 1.078125 -1.828125 1.3125 -1.90625 1.53125 -1.9375 Z M 1.53125 -1.9375 "/>
</symbol>
<symbol overflow="visible" id="glyph0-5">
<path style="stroke:none;" d="M 0.765625 -1.96875 L 0.765625 -1.96875 C 0.765625 -2.484375 0.875 -3.078125 1.296875 -3.40625 C 1.578125 -3.625 1.96875 -3.71875 2.46875 -3.59375 C 2.5625 -3.578125 2.640625 -3.546875 2.734375 -3.53125 L 2.734375 -3.765625 C 2.734375 -3.796875 2.734375 -3.828125 2.71875 -3.859375 C 2.6875 -3.90625 2.328125 -3.96875 2.328125 -3.96875 C 1.796875 -4.03125 1.390625 -3.890625 1.078125 -3.640625 C 0.703125 -3.34375 0.46875 -2.890625 0.375 -2.421875 C 0.328125 -2.1875 0.3125 -1.953125 0.328125 -1.71875 C 0.359375 -1.171875 0.4375 -0.734375 0.71875 -0.375 C 1.046875 0.078125 1.6875 0.21875 2.1875 -0.015625 C 2.40625 -0.125 2.59375 -0.3125 2.734375 -0.515625 C 2.9375 -0.796875 2.984375 -1.125 2.953125 -1.453125 C 2.9375 -1.640625 2.90625 -1.796875 2.84375 -1.96875 C 2.734375 -2.21875 2.53125 -2.515625 2.28125 -2.625 C 2.171875 -2.671875 2.046875 -2.6875 1.90625 -2.6875 C 1.59375 -2.671875 1.28125 -2.546875 1.046875 -2.328125 C 0.953125 -2.25 0.8125 -2.09375 0.765625 -1.96875 Z M 1.6875 -2.34375 C 1.890625 -2.34375 2.09375 -2.328125 2.25 -2.171875 C 2.296875 -2.125 2.328125 -2.09375 2.359375 -2.046875 C 2.515625 -1.828125 2.515625 -1.5625 2.515625 -1.328125 C 2.515625 -0.921875 2.484375 -0.6875 2.25 -0.453125 C 2.078125 -0.28125 1.859375 -0.234375 1.609375 -0.25 C 1.375 -0.25 1.125 -0.375 0.984375 -0.578125 C 0.90625 -0.703125 0.859375 -0.859375 0.828125 -1 C 0.78125 -1.203125 0.765625 -1.40625 0.796875 -1.59375 C 0.875 -2.015625 1.25 -2.359375 1.6875 -2.34375 Z M 1.6875 -2.34375 "/>
</symbol>
<symbol overflow="visible" id="glyph0-6">
<path style="stroke:none;" d="M 0.578125 -3.015625 L 0.59375 -3.015625 C 0.828125 -3.421875 1.28125 -3.6875 1.765625 -3.640625 C 2.109375 -3.625 2.4375 -3.421875 2.390625 -3.015625 C 2.34375 -2.6875 2.078125 -2.421875 1.765625 -2.34375 C 1.59375 -2.28125 1.296875 -2.28125 1.09375 -2.265625 L 1.09375 -1.9375 L 1.484375 -1.9375 C 1.5625 -1.9375 1.65625 -1.9375 1.734375 -1.9375 C 1.953125 -1.90625 2.15625 -1.828125 2.328125 -1.6875 C 2.59375 -1.4375 2.640625 -0.984375 2.46875 -0.671875 C 2.390625 -0.546875 2.296875 -0.4375 2.171875 -0.359375 C 1.859375 -0.1875 1.46875 -0.21875 1.140625 -0.328125 C 0.921875 -0.390625 0.703125 -0.515625 0.53125 -0.6875 C 0.453125 -0.734375 0.40625 -0.8125 0.328125 -0.875 C 0.3125 -0.8125 0.296875 -0.734375 0.296875 -0.65625 C 0.265625 -0.5625 0.265625 -0.546875 0.328125 -0.484375 L 0.4375 -0.375 C 0.609375 -0.21875 0.8125 -0.09375 1.03125 -0.015625 C 1.484375 0.15625 2.03125 0.140625 2.453125 -0.125 C 2.875 -0.390625 3.171875 -0.9375 2.9375 -1.4375 C 2.78125 -1.78125 2.484375 -1.984375 2.09375 -2.09375 C 2.328125 -2.203125 2.484375 -2.296875 2.625 -2.5 C 2.75 -2.671875 2.875 -2.953125 2.8125 -3.234375 C 2.765625 -3.53125 2.515625 -3.75 2.25 -3.859375 C 1.875 -4.03125 1.40625 -4.015625 1.03125 -3.84375 C 0.828125 -3.75 0.65625 -3.625 0.5 -3.46875 C 0.484375 -3.453125 0.375 -3.328125 0.375 -3.296875 C 0.390625 -3.265625 0.53125 -3.078125 0.578125 -3.015625 Z M 0.578125 -3.015625 "/>
</symbol>
<symbol overflow="visible" id="glyph0-7">
<path style="stroke:none;" d="M 0.5625 -3.890625 L 0.5625 -1.734375 L 0.8125 -1.734375 C 0.84375 -1.734375 0.890625 -1.71875 0.921875 -1.734375 C 0.953125 -1.75 0.984375 -1.796875 1 -1.828125 C 1.03125 -1.875 1.078125 -1.921875 1.125 -1.96875 C 1.390625 -2.171875 1.78125 -2.234375 2.078125 -2.09375 C 2.421875 -1.9375 2.515625 -1.5625 2.515625 -1.21875 C 2.515625 -1.015625 2.46875 -0.796875 2.359375 -0.625 C 2.125 -0.265625 1.625 -0.1875 1.234375 -0.28125 C 0.90625 -0.359375 0.671875 -0.546875 0.484375 -0.78125 L 0.484375 -0.78125 C 0.46875 -0.765625 0.296875 -0.515625 0.296875 -0.484375 C 0.296875 -0.46875 0.3125 -0.453125 0.328125 -0.4375 C 0.53125 -0.234375 0.71875 -0.09375 1.015625 0 C 1.546875 0.1875 2.203125 0.09375 2.59375 -0.328125 C 2.78125 -0.53125 2.90625 -0.78125 2.953125 -1.046875 C 3.046875 -1.78125 2.5 -2.5625 1.59375 -2.484375 C 1.328125 -2.453125 1.15625 -2.34375 0.96875 -2.203125 L 0.96875 -3.53125 L 2.734375 -3.53125 L 2.734375 -3.890625 L 0.5625 -3.890625 Z M 0.5625 -3.890625 "/>
</symbol>
<symbol overflow="visible" id="glyph0-8">
<path style="stroke:none;" d="M 1.5625 -3.984375 C 1.421875 -3.96875 1.28125 -3.9375 1.15625 -3.875 C 0.53125 -3.640625 0.3125 -2.84375 0.3125 -2.046875 C 0.3125 -1.921875 0.3125 -1.796875 0.3125 -1.671875 C 0.34375 -1.125 0.46875 -0.59375 0.78125 -0.25 C 1.03125 0.015625 1.421875 0.125 1.78125 0.09375 C 2 0.0625 2.1875 -0.015625 2.34375 -0.125 C 2.859375 -0.46875 2.96875 -1.203125 2.96875 -2 C 2.96875 -2.65625 2.859375 -3.234375 2.546875 -3.59375 C 2.296875 -3.859375 1.921875 -4.015625 1.5625 -3.984375 Z M 2.0625 -3.546875 C 2.125 -3.515625 2.171875 -3.46875 2.234375 -3.421875 C 2.453125 -3.203125 2.515625 -2.765625 2.53125 -2.375 C 2.53125 -2.296875 2.546875 -2.21875 2.546875 -2.140625 L 2.546875 -1.828125 C 2.546875 -1.328125 2.5 -0.828125 2.265625 -0.53125 C 1.96875 -0.140625 1.34375 -0.140625 1.03125 -0.515625 C 0.953125 -0.609375 0.90625 -0.703125 0.875 -0.796875 C 0.765625 -1.09375 0.75 -1.484375 0.75 -1.859375 L 0.75 -2.15625 C 0.75 -2.234375 0.75 -2.3125 0.75 -2.390625 C 0.75 -2.859375 0.875 -3.3125 1.1875 -3.515625 C 1.421875 -3.65625 1.78125 -3.703125 2.0625 -3.546875 Z M 2.0625 -3.546875 "/>
</symbol>
<symbol overflow="visible" id="glyph0-9">
<path style="stroke:none;" d="M 2.515625 -1.90625 L 2.515625 -1.90625 C 2.515625 -1.40625 2.4375 -0.828125 2.03125 -0.484375 C 1.96875 -0.4375 1.90625 -0.390625 1.84375 -0.359375 C 1.546875 -0.203125 1.15625 -0.203125 0.828125 -0.359375 C 0.765625 -0.390625 0.703125 -0.4375 0.640625 -0.46875 L 0.46875 -0.171875 C 0.609375 -0.078125 0.765625 0 0.921875 0.046875 C 1.34375 0.15625 1.78125 0.09375 2.140625 -0.15625 C 2.578125 -0.484375 2.890625 -1.03125 2.953125 -1.65625 C 2.96875 -1.828125 2.953125 -2 2.953125 -2.171875 C 2.9375 -2.75 2.8125 -3.265625 2.515625 -3.59375 C 2.421875 -3.703125 2.296875 -3.796875 2.171875 -3.859375 C 1.84375 -4.03125 1.390625 -4.015625 1.0625 -3.84375 C 0.828125 -3.71875 0.625 -3.5 0.5 -3.28125 C 0.359375 -3.0625 0.328125 -2.8125 0.328125 -2.5625 C 0.328125 -2.296875 0.359375 -2.046875 0.484375 -1.8125 C 0.609375 -1.59375 0.78125 -1.359375 1 -1.265625 C 1.125 -1.203125 1.25 -1.203125 1.375 -1.203125 C 1.71875 -1.203125 2.046875 -1.34375 2.28125 -1.59375 C 2.375 -1.6875 2.46875 -1.78125 2.515625 -1.90625 Z M 1.578125 -3.640625 C 1.859375 -3.671875 2.140625 -3.5625 2.296875 -3.328125 C 2.390625 -3.1875 2.4375 -3.015625 2.46875 -2.84375 C 2.5 -2.671875 2.515625 -2.46875 2.484375 -2.28125 C 2.40625 -1.90625 2.09375 -1.5625 1.6875 -1.53125 C 1.46875 -1.515625 1.234375 -1.546875 1.0625 -1.6875 C 0.828125 -1.875 0.765625 -2.125 0.765625 -2.5 C 0.765625 -2.890625 0.78125 -3.109375 0.96875 -3.359375 C 1.09375 -3.53125 1.296875 -3.609375 1.578125 -3.640625 Z M 1.578125 -3.640625 "/>
</symbol>
<symbol overflow="visible" id="glyph1-0">
<path style="stroke:none;" d=""/>
</symbol>
<symbol overflow="visible" id="glyph1-1">
<path style="stroke:none;" d="M 1.78125 -4.84375 L 0.75 0 L 1.109375 0 C 1.140625 0 1.21875 0.015625 1.234375 -0.015625 C 1.25 -0.046875 1.296875 -0.328125 1.328125 -0.40625 C 1.375 -0.703125 1.953125 -3.40625 1.953125 -3.40625 C 2.015625 -3.75 2.109375 -4.0625 2.171875 -4.40625 L 2.171875 -4.40625 L 3.75 0 C 4 -0.015625 4.28125 0.03125 4.484375 -0.015625 L 4.515625 -0.125 L 5.515625 -4.84375 L 5.03125 -4.84375 L 4.09375 -0.421875 L 2.625 -4.515625 C 2.59375 -4.625 2.5625 -4.734375 2.5 -4.828125 L 2.4375 -4.84375 L 1.78125 -4.84375 Z M 1.78125 -4.84375 "/>
</symbol>
<symbol overflow="visible" id="glyph2-0">
<path style="stroke:none;" d=""/>
</symbol>
<symbol overflow="visible" id="glyph2-1">
<path style="stroke:none;" d="M 2.578125 1.546875 C 2.546875 1.5 2.5 1.46875 2.453125 1.4375 C 1.6875 0.75 1.21875 -0.3125 1.171875 -1.59375 C 1.140625 -2.46875 1.296875 -3.375 1.703125 -4.15625 C 1.90625 -4.53125 2.140625 -4.84375 2.453125 -5.109375 C 2.5 -5.15625 2.546875 -5.1875 2.578125 -5.21875 L 2.328125 -5.21875 C 2.171875 -5.21875 2.1875 -5.21875 2.078125 -5.140625 C 1.71875 -4.859375 1.421875 -4.484375 1.1875 -4.0625 C 0.53125 -2.828125 0.484375 -1.15625 1.09375 0.1875 C 1.3125 0.6875 1.65625 1.109375 2.078125 1.46875 C 2.171875 1.53125 2.171875 1.546875 2.328125 1.546875 L 2.578125 1.546875 Z M 2.578125 1.546875 "/>
</symbol>
<symbol overflow="visible" id="glyph2-2">
<path style="stroke:none;" d="M 4.515625 -0.796875 C 4.125 -0.578125 3.875 -0.375 3.296875 -0.359375 C 3.09375 -0.359375 2.875 -0.34375 2.671875 -0.390625 C 2.109375 -0.5 1.640625 -0.890625 1.375 -1.390625 C 0.890625 -2.28125 1.125 -3.5 1.953125 -4.125 C 2.09375 -4.21875 2.234375 -4.3125 2.390625 -4.375 C 2.859375 -4.53125 3.421875 -4.515625 3.890625 -4.34375 C 4.0625 -4.265625 4.21875 -4.1875 4.375 -4.109375 C 4.40625 -4.28125 4.453125 -4.46875 4.46875 -4.640625 C 4.328125 -4.703125 4.171875 -4.75 4 -4.78125 C 3.671875 -4.859375 3.171875 -4.921875 2.796875 -4.890625 C 2.078125 -4.828125 1.46875 -4.421875 1.109375 -3.9375 C 0.640625 -3.34375 0.484375 -2.546875 0.65625 -1.8125 C 0.953125 -0.6875 1.90625 0.125 3.28125 0.046875 C 3.734375 0.03125 4.015625 -0.0625 4.375 -0.234375 C 4.40625 -0.265625 4.53125 -0.3125 4.546875 -0.34375 C 4.5625 -0.390625 4.515625 -0.6875 4.515625 -0.796875 Z M 4.515625 -0.796875 "/>
</symbol>
<symbol overflow="visible" id="glyph2-3">
<path style="stroke:none;" d="M 1 -4.03125 C 0.265625 -3.125 0.234375 -1.75 0.96875 -0.84375 C 1.28125 -0.4375 1.703125 -0.140625 2.234375 0.015625 C 3.71875 0.421875 4.921875 -0.546875 5.25 -1.65625 C 5.53125 -2.578125 5.25 -3.640625 4.53125 -4.3125 C 4.171875 -4.640625 3.65625 -4.90625 3.046875 -4.9375 C 2.125 -5.015625 1.421875 -4.53125 1 -4.03125 Z M 3.484375 -4.453125 C 3.96875 -4.296875 4.359375 -3.96875 4.59375 -3.53125 C 4.734375 -3.265625 4.796875 -2.96875 4.828125 -2.671875 C 4.890625 -1.84375 4.546875 -0.9375 3.796875 -0.53125 C 3.421875 -0.328125 2.96875 -0.234375 2.484375 -0.34375 C 2.15625 -0.421875 1.859375 -0.59375 1.640625 -0.796875 C 1.21875 -1.1875 1 -1.765625 0.96875 -2.328125 C 0.90625 -3.34375 1.421875 -4.109375 2.140625 -4.390625 C 2.5625 -4.5625 3.03125 -4.59375 3.484375 -4.453125 Z M 3.484375 -4.453125 "/>
</symbol>
<symbol overflow="visible" id="glyph2-4">
<path style="stroke:none;" d="M 0.734375 -4.84375 L 0.734375 0 L 1.265625 0 L 1.265625 -4.84375 L 0.734375 -4.84375 Z M 0.734375 -4.84375 "/>
</symbol>
<symbol overflow="visible" id="glyph2-5">
<path style="stroke:none;" d="M 0.75 -4.84375 L 0.75 0 L 1.234375 0 L 1.234375 -4.40625 L 1.234375 -4.40625 L 1.4375 -4.0625 L 3.015625 -1.3125 C 3.265625 -0.875 3.5 -0.4375 3.75 -0.015625 C 3.96875 0.03125 4.25 -0.015625 4.484375 0 L 4.484375 -4.84375 L 4 -4.84375 L 4 -0.421875 L 2.1875 -3.59375 C 1.953125 -4 1.734375 -4.4375 1.484375 -4.828125 C 1.28125 -4.859375 0.984375 -4.828125 0.75 -4.84375 Z M 0.75 -4.84375 "/>
</symbol>
<symbol overflow="visible" id="glyph2-6">
<path style="stroke:none;" d="M 0.28125 -4.8125 L 0.28125 -4.40625 L 2.421875 -4.40625 L 2.421875 0 L 2.953125 0 L 2.953125 -4.40625 L 5.078125 -4.40625 L 5.078125 -4.8125 L 0.28125 -4.8125 Z M 0.28125 -4.8125 "/>
</symbol>
<symbol overflow="visible" id="glyph2-7">
<path style="stroke:none;" d="M 0.4375 -0.90625 C 0.421875 -0.84375 0.328125 -0.40625 0.34375 -0.375 C 0.359375 -0.359375 0.390625 -0.34375 0.40625 -0.328125 L 0.578125 -0.25 C 1.234375 0.09375 2.359375 0.296875 3.109375 -0.125 C 3.5 -0.328125 3.875 -0.765625 3.875 -1.296875 C 3.875 -2.015625 3.296875 -2.453125 2.796875 -2.625 C 2.65625 -2.671875 2.140625 -2.78125 2.046875 -2.796875 C 1.6875 -2.875 1.296875 -2.96875 1.046875 -3.265625 C 1.015625 -3.3125 0.984375 -3.359375 0.96875 -3.421875 C 0.765625 -3.875 1.125 -4.265625 1.546875 -4.421875 C 2 -4.59375 2.578125 -4.546875 2.984375 -4.375 C 3.09375 -4.328125 3.21875 -4.265625 3.3125 -4.1875 C 3.375 -4.15625 3.4375 -4.109375 3.5 -4.0625 C 3.53125 -4.1875 3.546875 -4.328125 3.5625 -4.453125 C 3.578125 -4.546875 3.625 -4.609375 3.515625 -4.640625 L 3.34375 -4.71875 C 2.578125 -5.03125 1.546875 -5.078125 0.890625 -4.515625 C 0.796875 -4.453125 0.71875 -4.359375 0.640625 -4.265625 C 0.4375 -3.984375 0.34375 -3.546875 0.546875 -3.15625 C 0.71875 -2.8125 1.015625 -2.578125 1.390625 -2.4375 C 1.546875 -2.390625 1.6875 -2.359375 1.84375 -2.328125 C 2 -2.28125 2.5625 -2.171875 2.65625 -2.125 C 2.921875 -2.03125 3.1875 -1.859375 3.3125 -1.59375 C 3.375 -1.484375 3.390625 -1.375 3.390625 -1.203125 C 3.34375 -0.78125 2.96875 -0.5 2.59375 -0.390625 C 1.984375 -0.21875 1.296875 -0.40625 0.84375 -0.640625 C 0.703125 -0.71875 0.578125 -0.828125 0.4375 -0.90625 Z M 0.4375 -0.90625 "/>
</symbol>
<symbol overflow="visible" id="glyph2-8">
<path style="stroke:none;" d="M 0.734375 -4.828125 L 0.734375 0 L 4.328125 0 L 4.328125 -0.4375 L 1.265625 -0.4375 L 1.265625 -2.296875 L 4 -2.296875 L 4 -2.703125 L 1.265625 -2.703125 L 1.265625 -4.40625 L 4.203125 -4.40625 L 4.203125 -4.828125 L 0.734375 -4.828125 Z M 0.734375 -4.828125 "/>
</symbol>
<symbol overflow="visible" id="glyph2-9">
<path style="stroke:none;" d="M 0.4375 -5.21875 C 0.46875 -5.1875 0.515625 -5.15625 0.5625 -5.109375 C 1.421875 -4.34375 1.890625 -3.109375 1.828125 -1.59375 C 1.8125 -0.84375 1.625 -0.09375 1.265625 0.5625 C 1.078125 0.890625 0.84375 1.1875 0.5625 1.4375 C 0.515625 1.46875 0.46875 1.5 0.4375 1.546875 L 0.6875 1.546875 C 0.84375 1.546875 0.828125 1.546875 0.921875 1.46875 C 1.296875 1.171875 1.59375 0.796875 1.8125 0.390625 C 2.484375 -0.859375 2.53125 -2.515625 1.921875 -3.859375 C 1.6875 -4.375 1.359375 -4.796875 0.9375 -5.140625 C 0.84375 -5.21875 0.84375 -5.21875 0.6875 -5.21875 L 0.4375 -5.21875 Z M 0.4375 -5.21875 "/>
</symbol>
<symbol overflow="visible" id="glyph2-10">
<path style="stroke:none;" d="M 0.734375 -4.828125 L 0.734375 0 L 1.265625 0 L 1.265625 -2.203125 L 3.78125 -2.203125 L 3.78125 -2.625 L 1.265625 -2.625 L 1.265625 -4.40625 L 4.109375 -4.40625 L 4.109375 -4.828125 L 0.734375 -4.828125 Z M 0.734375 -4.828125 "/>
</symbol>
<symbol overflow="visible" id="glyph2-11">
<path style="stroke:none;" d="M 0.734375 -4.84375 L 0.734375 0 L 1.25 0 L 1.25 -2.21875 L 2.28125 -2.21875 C 2.421875 -2.21875 2.546875 -2.234375 2.65625 -2.203125 C 2.78125 -2.03125 2.90625 -1.859375 3.03125 -1.671875 C 3.421875 -1.125 3.8125 -0.5625 4.21875 -0.015625 C 4.390625 0 4.578125 0 4.75 0 L 4.46875 -0.390625 L 3.125 -2.28125 C 3.25 -2.296875 3.390625 -2.328125 3.515625 -2.390625 C 4.015625 -2.5625 4.578125 -2.96875 4.53125 -3.5625 C 4.515625 -3.796875 4.453125 -3.9375 4.328125 -4.109375 C 4.015625 -4.515625 3.484375 -4.765625 2.875 -4.828125 C 2.625 -4.84375 2.390625 -4.84375 2.125 -4.84375 L 0.734375 -4.84375 Z M 1.25 -2.609375 L 1.25 -4.421875 L 2.296875 -4.421875 C 2.640625 -4.421875 3 -4.421875 3.34375 -4.328125 C 3.671875 -4.203125 4 -3.96875 4.046875 -3.59375 C 4.0625 -3.359375 3.96875 -3.140625 3.8125 -2.984375 C 3.6875 -2.875 3.546875 -2.796875 3.390625 -2.734375 C 3.046875 -2.609375 2.6875 -2.609375 2.328125 -2.609375 L 1.25 -2.609375 Z M 1.25 -2.609375 "/>
</symbol>
<symbol overflow="visible" id="glyph2-12">
<path style="stroke:none;" d="M 0.21875 0 L 0.578125 0 C 0.625 0 0.6875 0.015625 0.71875 -0.015625 C 0.75 -0.03125 0.75 -0.0625 0.765625 -0.09375 C 0.875 -0.34375 1.21875 -1.203125 1.265625 -1.296875 C 1.28125 -1.359375 1.296875 -1.390625 1.375 -1.390625 L 3.046875 -1.390625 C 3.234375 -1.390625 3.421875 -1.40625 3.609375 -1.390625 C 3.6875 -1.390625 3.703125 -1.296875 3.734375 -1.234375 C 3.8125 -1.03125 4.1875 -0.125 4.203125 -0.0625 C 4.234375 0.015625 4.296875 0 4.40625 0 L 4.796875 0 C 4.625 -0.453125 4.4375 -0.890625 4.25 -1.34375 L 2.8125 -4.828125 C 2.796875 -4.859375 2.796875 -4.90625 2.765625 -4.90625 C 2.71875 -4.90625 2.671875 -4.90625 2.625 -4.90625 L 2.375 -4.90625 C 2.328125 -4.90625 2.265625 -4.921875 2.234375 -4.890625 C 2.203125 -4.875 2.1875 -4.84375 2.1875 -4.8125 L 0.765625 -1.34375 L 0.40625 -0.484375 C 0.34375 -0.328125 0.265625 -0.171875 0.21875 0 Z M 2.484375 -4.328125 C 2.796875 -3.46875 3.15625 -2.640625 3.5 -1.8125 L 1.46875 -1.8125 C 1.796875 -2.640625 2.15625 -3.46875 2.46875 -4.328125 L 2.484375 -4.328125 Z M 2.484375 -4.328125 "/>
</symbol>
<symbol overflow="visible" id="glyph2-13">
<path style="stroke:none;" d="M 0.734375 -4.84375 L 0.734375 0 L 1.265625 0 L 1.265625 -2.3125 L 3.984375 -2.3125 L 3.984375 0 L 4.515625 0 L 4.515625 -4.84375 L 3.984375 -4.84375 L 3.984375 -2.71875 L 1.265625 -2.71875 L 1.265625 -4.84375 L 0.734375 -4.84375 Z M 0.734375 -4.84375 "/>
</symbol>
<symbol overflow="visible" id="glyph2-14">
<path style="stroke:none;" d="M 0.734375 -4.84375 L 0.734375 0 L 2.265625 0 C 2.890625 0 3.203125 0.03125 3.71875 -0.21875 C 4.359375 -0.515625 4.875 -1.109375 5.03125 -1.875 C 5.234375 -2.84375 4.828125 -3.90625 4 -4.453125 C 3.703125 -4.640625 3.359375 -4.78125 3 -4.828125 C 2.71875 -4.84375 2.4375 -4.84375 2.15625 -4.84375 L 0.734375 -4.84375 Z M 1.25 -0.40625 L 1.25 -4.421875 L 2.234375 -4.421875 C 2.421875 -4.421875 2.609375 -4.4375 2.796875 -4.421875 C 3.296875 -4.375 3.71875 -4.171875 4.015625 -3.875 C 4.375 -3.5 4.53125 -3 4.5625 -2.5 C 4.59375 -1.90625 4.40625 -1.296875 3.96875 -0.890625 C 3.6875 -0.640625 3.25 -0.453125 2.796875 -0.421875 C 2.609375 -0.40625 2.4375 -0.40625 2.25 -0.40625 L 1.25 -0.40625 Z M 1.25 -0.40625 "/>
</symbol>
<symbol overflow="visible" id="glyph2-15">
<path style="stroke:none;" d="M 0.4375 -4.53125 L 0.578125 -4.125 C 0.640625 -4.140625 0.6875 -4.1875 0.734375 -4.21875 C 1.046875 -4.390625 1.3125 -4.5 1.796875 -4.5 C 2.109375 -4.5 2.390625 -4.46875 2.5625 -4.296875 C 2.6875 -4.15625 2.75 -3.921875 2.6875 -3.6875 C 2.625 -3.421875 2.40625 -3.34375 2.21875 -3.171875 C 1.796875 -2.796875 1.5 -2.3125 1.484375 -1.578125 L 1.484375 -1.359375 C 1.484375 -1.34375 1.484375 -1.296875 1.5 -1.28125 C 1.515625 -1.265625 1.578125 -1.265625 1.609375 -1.265625 L 1.8125 -1.265625 C 1.859375 -1.265625 1.890625 -1.265625 1.9375 -1.265625 C 1.953125 -1.28125 1.953125 -1.3125 1.953125 -1.34375 L 1.953125 -1.734375 C 2.015625 -2.21875 2.265625 -2.578125 2.5625 -2.859375 C 2.6875 -2.96875 2.828125 -3.046875 2.953125 -3.15625 C 3.328125 -3.546875 3.3125 -4.203125 2.90625 -4.5625 C 2.640625 -4.78125 2.328125 -4.84375 1.921875 -4.890625 C 1.390625 -4.921875 0.875 -4.796875 0.4375 -4.53125 Z M 1.421875 -0.578125 L 1.421875 0 L 2.015625 0 L 2.015625 -0.578125 L 1.421875 -0.578125 Z M 1.421875 -0.578125 "/>
</symbol>
<symbol overflow="visible" id="glyph3-0">
<path style="stroke:none;" d=""/>
</symbol>
<symbol overflow="visible" id="glyph3-1">
<path style="stroke:none;" d="M 0.65625 -0.5 L 0.65625 0 L 1.15625 0 L 1.15625 -0.5 L 0.65625 -0.5 Z M 0.65625 -0.5 "/>
</symbol>
</g>
<clipPath id="clip1">
  <path d="M -175 667 L 437 667 L 437 -125 L -175 -125 L -175 667 Z M -175 667 "/>
</clipPath>
<clipPath id="clip2">
  <path d="M 45.492188 94.1875 L 263.761719 94.1875 L 263.761719 -0.199219 L 45.492188 -0.199219 L 45.492188 94.1875 Z M 45.492188 94.1875 "/>
</clipPath>
<clipPath id="clip3">
  <path d="M -175 667 L 437 667 L 437 -125 L -175 -125 L -175 667 Z M -175 667 "/>
</clipPath>
</defs>
<g id="surface0">
<g clip-path="url(#clip1)" clip-rule="nonzero">
<g clip-path="url(#clip2)" clip-rule="nonzero">
<path style="fill:none;stroke-width:5;stroke-linecap:butt;stroke-linejoin:miter;stroke:rgb(0%,0%,0%);stroke-opacity:1;stroke-miterlimit:10;" d="M 2.982643 9.00657 L 65.975236 9.00657 " transform="matrix(0.0655459,0,0,-0.0655459,45.492,94.188)"/>
<path style="fill:none;stroke-width:5;stroke-linecap:butt;stroke-linejoin:miter;stroke:rgb(0%,0%,0%);stroke-opacity:1;stroke-miterlimit:10;" d="M 2.982643 132.011976 L 34.508737 132.011976 M 2.982643 255.017381 L 34.508737 255.017381 M 2.982643 378.022786 L 34.508737 378.022786 M 2.982643 501.028192 L 34.508737 501.028192 M 2.982643 624.510362 L 65.975236 624.510362 " transform="matrix(0.0655459,0,0,-0.0655459,45.492,94.188)"/>
<path style="fill:none;stroke-width:5;stroke-linecap:butt;stroke-linejoin:miter;stroke:rgb(0%,0%,0%);stroke-opacity:1;stroke-miterlimit:10;" d="M 2.982643 747.515768 L 34.508737 747.515768 M 2.982643 870.521173 L 34.508737 870.521173 M 2.982643 993.526578 L 34.508737 993.526578 M 2.982643 1116.472388 L 34.508737 1116.472388 M 2.982643 1239.477793 L 65.975236 1239.477793 " transform="matrix(0.0655459,0,0,-0.0655459,45.492,94.188)"/>
<path style="fill:none;stroke-width:5;stroke-linecap:butt;stroke-linejoin:miter;stroke:rgb(0%,0%,0%);stroke-opacity:1;stroke-miterlimit:10;" d="M 2.982643 9.00657 L 2.982643 71.999164 " transform="matrix(0.0655459,0,0,-0.0655459,45.492,94.188)"/>
<path style="fill:none;stroke-width:5;stroke-linecap:butt;stroke-linejoin:miter;stroke:rgb(0%,0%,0%);stroke-opacity:1;stroke-miterlimit:10;" d="M 248.993453 9.00657 L 248.993453 71.999164 " transform="matrix(0.0655459,0,0,-0.0655459,45.492,94.188)"/>
<path style="fill:none;stroke-width:5;stroke-linecap:butt;stroke-linejoin:miter;stroke:rgb(0%,0%,0%);stroke-opacity:1;stroke-miterlimit:10;" d="M 495.004264 9.00657 L 495.004264 71.999164 " transform="matrix(0.0655459,0,0,-0.0655459,45.492,94.188)"/>
<path style="fill:none;stroke-width:5;stroke-linecap:butt;stroke-linejoin:miter;stroke:rgb(0%,0%,0%);stroke-opacity:1;stroke-miterlimit:10;" d="M 741.49184 9.00657 L 741.49184 71.999164 " transform="matrix(0.0655459,0,0,-0.0655459,45.492,94.188)"/>
<path style="fill:none;stroke-width:5;stroke-linecap:butt;stroke-linejoin:miter;stroke:rgb(0%,0%,0%);stroke-opacity:1;stroke-miterlimit:10;" d="M 987.502651 9.00657 L 987.502651 71.999164 " transform="matrix(0.0655459,0,0,-0.0655459,45.492,94.188)"/>
<path style="fill:none;stroke-width:5;stroke-linecap:butt;stroke-linejoin:miter;stroke:rgb(0%,0%,0%);stroke-opacity:1;stroke-miterlimit:10;" d="M 1233.513462 9.00657 L 1233.513462 71.999164 " transform="matrix(0.0655459,0,0,-0.0655459,45.492,94.188)"/>
<path style="fill:none;stroke-width:5;stroke-linecap:butt;stroke-linejoin:miter;stroke:rgb(0%,0%,0%);stroke-opacity:1;stroke-miterlimit:10;" d="M 1479.524272 9.00657 L 1479.524272 71.999164 " transform="matrix(0.0655459,0,0,-0.0655459,45.492,94.188)"/>
<path style="fill:none;stroke-width:5;stroke-linecap:butt;stroke-linejoin:miter;stroke:rgb(0%,0%,0%);stroke-opacity:1;stroke-miterlimit:10;" d="M 1726.011848 9.00657 L 1726.011848 71.999164 " transform="matrix(0.0655459,0,0,-0.0655459,45.492,94.188)"/>
<path style="fill:none;stroke-width:5;stroke-linecap:butt;stroke-linejoin:miter;stroke:rgb(0%,0%,0%);stroke-opacity:1;stroke-miterlimit:10;" d="M 1972.022659 9.00657 L 1972.022659 71.999164 " transform="matrix(0.0655459,0,0,-0.0655459,45.492,94.188)"/>
<path style="fill:none;stroke-width:5;stroke-linecap:butt;stroke-linejoin:miter;stroke:rgb(0%,0%,0%);stroke-opacity:1;stroke-miterlimit:10;" d="M 2217.973874 9.00657 L 2217.973874 71.999164 " transform="matrix(0.0655459,0,0,-0.0655459,45.492,94.188)"/>
<path style="fill:none;stroke-width:5;stroke-linecap:butt;stroke-linejoin:miter;stroke:rgb(0%,0%,0%);stroke-opacity:1;stroke-miterlimit:10;" d="M 2463.984685 9.00657 L 2463.984685 71.999164 " transform="matrix(0.0655459,0,0,-0.0655459,45.492,94.188)"/>
<path style="fill:none;stroke-width:5;stroke-linecap:butt;stroke-linejoin:miter;stroke:rgb(0%,0%,0%);stroke-opacity:1;stroke-miterlimit:10;" d="M 2710.472261 9.00657 L 2710.472261 71.999164 " transform="matrix(0.0655459,0,0,-0.0655459,45.492,94.188)"/>
<path style="fill:none;stroke-width:5;stroke-linecap:butt;stroke-linejoin:miter;stroke:rgb(0%,0%,0%);stroke-opacity:1;stroke-miterlimit:10;" d="M 2956.483071 9.00657 L 2956.483071 71.999164 " transform="matrix(0.0655459,0,0,-0.0655459,45.492,94.188)"/>
<path style="fill:none;stroke-width:5;stroke-linecap:butt;stroke-linejoin:miter;stroke:rgb(0%,0%,0%);stroke-opacity:1;stroke-miterlimit:10;" d="M 2.982643 1436.500986 L 2.982643 9.00657 L 3322.996271 9.00657 M 2.982643 624.510362 L 2956.483071 624.510362 " transform="matrix(0.0655459,0,0,-0.0655459,45.492,94.188)"/>
<path style=" stroke:none;fill-rule:nonzero;fill:rgb(0%,0%,0%);fill-opacity:1;" d="M 244.75 45.816406 L 245.308594 46.734375 L 248.160156 43.78125 L 244.195313 44.898438 L 244.75 45.816406 "/>
<path style="fill:none;stroke-width:5;stroke-linecap:butt;stroke-linejoin:miter;stroke:rgb(0%,0%,0%);stroke-opacity:1;stroke-dasharray:40,20;stroke-miterlimit:10;" d="M 3039.976566 737.980465 L 3048.498743 723.975489 L 3092.003562 769.029794 L 3031.513985 751.985441 L 3039.976566 737.980465 M 2845.992751 621.470984 L 3039.976566 737.980465 " transform="matrix(0.0655459,0,0,-0.0655459,45.492,94.188)"/>
<path style="fill-rule:nonzero;fill:rgb(0%,0%,0%);fill-opacity:1;stroke-width:5;stroke-linecap:butt;stroke-linejoin:miter;stroke:rgb(0%,0%,0%);stroke-opacity:1;stroke-miterlimit:10;" d="M 3039.976566 737.980465 L 3048.498743 723.975489 L 3092.003562 769.029794 L 3031.513985 751.985441 L 3039.976566 737.980465 " transform="matrix(0.0655459,0,0,-0.0655459,45.492,94.188)"/>
<path style=" stroke:none;fill-rule:nonzero;fill:rgb(0%,0%,0%);fill-opacity:1;" d="M 244.75 61.085938 L 244.195313 62.003906 L 248.160156 63.121094 L 245.308594 60.167969 L 244.75 61.085938 "/>
<path style="fill:none;stroke-width:5;stroke-linecap:butt;stroke-linejoin:miter;stroke:rgb(0%,0%,0%);stroke-opacity:1;stroke-dasharray:40,20;stroke-miterlimit:10;" d="M 3039.976566 505.0211 L 3031.513985 491.016124 L 3092.003562 473.97177 L 3048.498743 519.026076 L 3039.976566 505.0211 M 2845.992751 621.470984 L 3039.976566 505.0211 " transform="matrix(0.0655459,0,0,-0.0655459,45.492,94.188)"/>
<path style="fill-rule:nonzero;fill:rgb(0%,0%,0%);fill-opacity:1;stroke-width:5;stroke-linecap:butt;stroke-linejoin:miter;stroke:rgb(0%,0%,0%);stroke-opacity:1;stroke-miterlimit:10;" d="M 3039.976566 505.0211 L 3031.513985 491.016124 L 3092.003562 473.97177 L 3048.498743 519.026076 L 3039.976566 505.0211 " transform="matrix(0.0655459,0,0,-0.0655459,45.492,94.188)"/>
<path style="fill:none;stroke-width:7.5;stroke-linecap:butt;stroke-linejoin:miter;stroke:rgb(0%,0%,0%);stroke-opacity:1;stroke-miterlimit:10;" d="M 2.982643 9.00657 L 248.993453 9.00657 L 392.976525 419.024588 L 495.004264 316.520084 L 574.504851 501.028192 L 638.987336 419.024588 L 693.994113 536.487599 L 741.49184 470.515223 L 782.970407 419.024588 L 820.515662 378.022786 L 854.485178 344.47044 L 885.474911 316.520084 L 914.021224 292.979805 L 940.004924 272.478904 L 964.498733 255.017381 L 987.502651 239.522514 L 1009.016678 298.5222 L 1029.517579 351.02596 L 1048.528588 397.510561 L 1066.526472 378.022786 L 1083.987995 360.501668 L 1100.495988 400.490343 L 1116.527216 383.505585 L 1131.485722 368.010718 L 1146.027059 402.99336 L 1159.972439 434.99622 L 1173.50065 419.024588 L 1186.015735 448.524431 L 1198.471224 433.506329 L 1210.509544 460.02639 L 1222.488268 485.473729 L 1233.513462 470.515223 L 1244.47906 456.510247 L 1255.027488 443.518397 L 1265.516321 431.003312 L 1275.528389 453.470869 L 1285.004096 441.492145 L 1294.479803 429.990186 L 1304.015106 419.024588 L 1313.014048 409.01252 L 1321.476629 428.97706 L 1329.998806 419.024588 L 1338.520983 438.512363 L 1346.506799 428.500295 L 1354.492615 446.498179 L 1362.478431 464.019298 L 1369.987482 480.527291 L 1377.496533 470.515223 L 1385.005584 460.97992 L 1391.978274 451.980978 L 1399.01056 443.518397 L 1405.98325 458.476903 L 1413.015536 450.014322 L 1419.511461 442.028506 L 1426.007386 456.510247 L 1432.503311 448.524431 L 1438.522471 462.529407 L 1445.018396 454.483995 L 1450.97796 446.974944 L 1456.99712 460.02639 L 1462.479919 452.994104 L 1468.499079 465.509189 L 1473.981878 458.476903 L 1479.524272 451.027448 L 1485.483837 463.482937 L 1490.48987 474.984896 L 1495.97267 486.486855 L 1501.515064 479.514165 L 1506.521098 490.479763 L 1511.527132 501.028192 L 1516.47357 494.472671 L 1521.479604 487.499981 L 1526.485638 497.988814 L 1531.491672 491.492889 L 1536.020941 484.996964 L 1541.026975 495.009032 L 1545.496648 504.484739 L 1550.025917 514.020042 L 1554.49559 507.524117 L 1559.024859 501.028192 L 1563.494532 510.503899 L 1568.023801 519.502841 L 1572.016709 513.006916 L 1576.486382 522.005858 L 1580.47929 515.509933 L 1584.472198 523.972514 L 1589.001467 532.494691 L 1592.994375 526.475531 L 1596.987283 534.520943 L 1600.980191 528.501783 L 1703.00793 563.00766 L 1781.972156 583.50856 L 1846.991002 583.50856 L 1901.521014 595.010519 L 1949.018741 619.027563 L 1990.974073 628.980035 L 2028.519328 624.510362 L 2062.012079 628.026505 L 2093.001812 634.52243 L 2121.488529 624.510362 L 2148.00859 615.51142 L 2172.502399 602.51957 L 2195.029552 601.029679 L 2216.483983 592.984268 L 2236.984884 594.474159 L 2255.995894 600.493318 L 2274.470543 595.487284 L 2291.991662 601.029679 L 2308.499654 605.499352 L 2323.994521 606.512478 L 2339.012623 600.493318 L 2353.494364 601.506444 L 2367.49934 599.003427 L 2381.027551 601.506444 L 2394.019401 601.029679 L 2406.47489 583.50856 L 2418.51321 598.526662 L 2430.015169 599.003427 L 2441.517128 596.023645 L 2452.482726 590.481251 L 2462.971559 600.016553 L 2472.983627 598.526662 L 2482.995695 600.493318 L 2493.007762 600.016553 L 2502.48347 597.513536 L 2511.482412 596.023645 L 2520.481354 598.526662 L 2529.480295 601.506444 L 2538.002472 606.512478 L 2545.988288 610.028621 L 2554.510465 607.525604 L 2562.496281 606.989243 L 2570.005332 607.525604 L 2577.991148 609.49226 L 2585.500199 612.472042 L 2592.472889 611.518512 L 2599.98194 610.982151 L 2607.014226 611.995277 L 2613.510151 619.027563 L 2620.482841 620.517454 L 2626.978766 624.510362 L 2633.474691 624.987127 L 2639.970616 628.026505 L 2646.526137 627.013379 L 2652.485701 627.013379 L 2658.504861 628.50327 L 2664.524021 624.987127 L 2670.483585 627.490144 L 2676.02598 624.987127 L 2681.985544 623.497236 L 2687.527938 621.470984 L 2693.010738 622.007345 L 2698.493537 625.523488 L 2703.499571 623.020471 L 2708.98237 622.48411 L 2713.988404 619.027563 L 2719.471203 619.981093 L 2724.477237 622.007345 L 2729.483271 622.48411 L 2739.018573 622.48411 L 2744.024607 623.020471 L 2748.49428 622.48411 L 2753.023549 623.020471 L 2757.493222 626.477018 L 2762.022491 625.523488 L 2766.492164 626.477018 L 2771.021433 626.477018 L 2775.491106 627.490144 L 2780.020375 627.013379 L 2784.013283 627.013379 L 2788.006191 626.000253 L 2792.475864 624.987127 L 2796.528368 625.523488 L 2800.521276 623.974001 L 2804.514184 625.523488 L 2808.507092 624.510362 L 2812.5 623.497236 L 2816.492908 623.020471 L 2820.009051 623.020471 L 2824.001959 621.470984 L 2827.518102 623.020471 L 2831.51101 623.020471 L 2835.027153 623.497236 L 2839.020061 623.974001 L 2842.476608 623.020471 L 2845.992751 621.470984 " transform="matrix(0.0655459,0,0,-0.0655459,45.492,94.188)"/>
<path style="fill:none;stroke-width:5;stroke-linecap:butt;stroke-linejoin:miter;stroke:rgb(0%,0%,0%);stroke-opacity:1;stroke-miterlimit:10;" d="M 2.982643 1436.500986 L 2.982643 9.00657 L 3322.996271 9.00657 " transform="matrix(0.0655459,0,0,-0.0655459,45.492,94.188)"/>
</g>
</g>
<g clip-path="url(#clip3)" clip-rule="nonzero">
<g style="fill:rgb(0%,0%,0%);fill-opacity:1;">
  <use xlink:href="#glyph0-1" x="44.552" y="99.212"/>
</g>
<g style="fill:rgb(0%,0%,0%);fill-opacity:1;">
  <use xlink:href="#glyph0-2" x="60.426" y="99.212"/>
</g>
<g style="fill:rgb(0%,0%,0%);fill-opacity:1;">
  <use xlink:href="#glyph0-3" x="76.442" y="99.212"/>
</g>
<g style="fill:rgb(0%,0%,0%);fill-opacity:1;">
  <use xlink:href="#glyph0-4" x="92.883" y="99.212"/>
</g>
<g style="fill:rgb(0%,0%,0%);fill-opacity:1;">
  <use xlink:href="#glyph0-1" x="107.108" y="99.212"/>
  <use xlink:href="#glyph0-5" x="110.405596" y="99.212"/>
</g>
<g style="fill:rgb(0%,0%,0%);fill-opacity:1;">
  <use xlink:href="#glyph0-6" x="123.266" y="99.212"/>
  <use xlink:href="#glyph0-2" x="126.563596" y="99.212"/>
</g>
<g style="fill:rgb(0%,0%,0%);fill-opacity:1;">
  <use xlink:href="#glyph0-5" x="139.423" y="99.212"/>
  <use xlink:href="#glyph0-3" x="142.720596" y="99.212"/>
</g>
<g style="fill:rgb(0%,0%,0%);fill-opacity:1;">
  <use xlink:href="#glyph0-1" x="153.932" y="99.212"/>
  <use xlink:href="#glyph0-2" x="157.229596" y="99.212"/>
  <use xlink:href="#glyph0-4" x="160.527192" y="99.212"/>
</g>
<g style="fill:rgb(0%,0%,0%);fill-opacity:1;">
  <use xlink:href="#glyph0-2" x="169.806" y="99.212"/>
  <use xlink:href="#glyph0-7" x="173.103596" y="99.212"/>
  <use xlink:href="#glyph0-5" x="176.401192" y="99.212"/>
</g>
<g style="fill:rgb(0%,0%,0%);fill-opacity:1;">
  <use xlink:href="#glyph0-7" x="185.963" y="99.212"/>
  <use xlink:href="#glyph0-1" x="189.260596" y="99.212"/>
  <use xlink:href="#glyph0-2" x="192.558192" y="99.212"/>
</g>
<g style="fill:rgb(0%,0%,0%);fill-opacity:1;">
  <use xlink:href="#glyph0-1" x="200.472" y="99.212"/>
  <use xlink:href="#glyph0-8" x="203.769596" y="99.212"/>
  <use xlink:href="#glyph0-2" x="207.067192" y="99.212"/>
  <use xlink:href="#glyph0-3" x="210.364789" y="99.212"/>
</g>
<g style="fill:rgb(0%,0%,0%);fill-opacity:1;">
  <use xlink:href="#glyph0-2" x="216.63" y="99.212"/>
  <use xlink:href="#glyph0-8" x="219.927596" y="99.212"/>
  <use xlink:href="#glyph0-3" x="223.225192" y="99.212"/>
  <use xlink:href="#glyph0-4" x="226.522789" y="99.212"/>
</g>
<g style="fill:rgb(0%,0%,0%);fill-opacity:1;">
  <use xlink:href="#glyph0-3" x="232.646" y="99.212"/>
  <use xlink:href="#glyph0-8" x="235.943596" y="99.212"/>
  <use xlink:href="#glyph0-9" x="239.241192" y="99.212"/>
  <use xlink:href="#glyph0-5" x="242.538789" y="99.212"/>
</g>
<g style="fill:rgb(0%,0%,0%);fill-opacity:1;">
  <use xlink:href="#glyph1-1" x="110.981" y="109.34"/>
</g>
<g style="fill:rgb(0%,0%,0%);fill-opacity:1;">
  <use xlink:href="#glyph2-1" x="119.198" y="109.34"/>
  <use xlink:href="#glyph2-2" x="122.214866" y="109.34"/>
  <use xlink:href="#glyph2-3" x="127.171843" y="109.34"/>
  <use xlink:href="#glyph2-4" x="132.974045" y="109.34"/>
  <use xlink:href="#glyph2-5" x="134.979012" y="109.34"/>
</g>
<g style="fill:rgb(0%,0%,0%);fill-opacity:1;">
  <use xlink:href="#glyph2-6" x="142.688548" y="109.34"/>
  <use xlink:href="#glyph2-3" x="148.059071" y="109.34"/>
  <use xlink:href="#glyph2-7" x="153.861273" y="109.34"/>
  <use xlink:href="#glyph2-7" x="158.171779" y="109.34"/>
  <use xlink:href="#glyph2-8" x="162.482284" y="109.34"/>
  <use xlink:href="#glyph2-7" x="167.131717" y="109.34"/>
  <use xlink:href="#glyph2-9" x="171.442223" y="109.34"/>
</g>
<g style="fill:rgb(0%,0%,0%);fill-opacity:1;">
  <use xlink:href="#glyph0-8" x="38.78" y="95.566"/>
</g>
<g style="fill:rgb(0%,0%,0%);fill-opacity:1;">
  <use xlink:href="#glyph0-8" x="36.215" y="55.314"/>
</g>
<g style="fill:rgb(0%,0%,0%);fill-opacity:1;">
  <use xlink:href="#glyph3-1" x="39.51215" y="55.314"/>
</g>
<g style="fill:rgb(0%,0%,0%);fill-opacity:1;">
  <use xlink:href="#glyph0-7" x="41.34475" y="55.314"/>
</g>
<g style="fill:rgb(0%,0%,0%);fill-opacity:1;">
  <use xlink:href="#glyph0-1" x="36.215" y="15.062"/>
</g>
<g style="fill:rgb(0%,0%,0%);fill-opacity:1;">
  <use xlink:href="#glyph3-1" x="39.51215" y="15.062"/>
</g>
<g style="fill:rgb(0%,0%,0%);fill-opacity:1;">
  <use xlink:href="#glyph0-8" x="41.34475" y="15.062"/>
</g>
<g style="fill:rgb(0%,0%,0%);fill-opacity:1;">
  <use xlink:href="#glyph2-10" x="-0.055" y="39.956"/>
  <use xlink:href="#glyph2-11" x="4.378942" y="39.956"/>
  <use xlink:href="#glyph2-12" x="9.35963" y="39.956"/>
</g>
<g style="fill:rgb(0%,0%,0%);fill-opacity:1;">
  <use xlink:href="#glyph2-2" x="14.165276" y="39.956"/>
  <use xlink:href="#glyph2-6" x="19.122253" y="39.956"/>
  <use xlink:href="#glyph2-4" x="24.492776" y="39.956"/>
  <use xlink:href="#glyph2-3" x="26.497744" y="39.956"/>
  <use xlink:href="#glyph2-5" x="32.299945" y="39.956"/>
</g>
<g style="fill:rgb(0%,0%,0%);fill-opacity:1;">
  <use xlink:href="#glyph2-13" x="6.368" y="47.926"/>
  <use xlink:href="#glyph2-8" x="11.622758" y="47.926"/>
  <use xlink:href="#glyph2-12" x="16.272191" y="47.926"/>
  <use xlink:href="#glyph2-14" x="21.294024" y="47.926"/>
  <use xlink:href="#glyph2-7" x="26.822155" y="47.926"/>
</g>
<g style="fill:rgb(0%,0%,0%);fill-opacity:1;">
  <use xlink:href="#glyph2-15" x="249.87" y="46.153"/>
</g>
<g style="fill:rgb(0%,0%,0%);fill-opacity:1;">
  <use xlink:href="#glyph2-15" x="249.87" y="65.995"/>
</g>
</g>
</g>
</svg>
