<?xml version="1.0" encoding="UTF-8"?>
<svg xmlns="http://www.w3.org/2000/svg" xmlns:xlink="http://www.w3.org/1999/xlink" width="243pt" height="175pt" viewBox="0 0 175 126" version="1.1">
<defs>
<g>
<symbol overflow="visible" id="glyph0-0">
<path style="stroke:none;" d=""/>
</symbol>
<symbol overflow="visible" id="glyph0-1">
<path style="stroke:none;" d="M 1.703125 -4.84375 L 1.546875 -4.078125 L 2.3125 -4.078125 C 2.359375 -4.328125 2.40625 -4.578125 2.453125 -4.84375 L 1.703125 -4.84375 Z M 1.375 -3.296875 C 1.359375 -3.171875 1.328125 -3.0625 1.3125 -2.953125 C 1.109375 -2.0625 0.765625 -0.34375 0.640625 0.234375 C 0.609375 0.34375 0.609375 0.484375 0.53125 0.578125 C 0.375 0.734375 0 0.78125 -0.265625 0.671875 C -0.34375 0.65625 -0.40625 0.609375 -0.46875 0.578125 L -0.671875 1.03125 C -0.5625 1.09375 -0.421875 1.140625 -0.28125 1.171875 C 0.21875 1.296875 0.859375 1.265625 1.171875 0.796875 C 1.3125 0.609375 1.359375 0.390625 1.40625 0.15625 C 1.53125 -0.453125 2.125 -3.234375 2.125 -3.296875 L 1.375 -3.296875 Z M 1.375 -3.296875 "/>
</symbol>
<symbol overflow="visible" id="glyph0-2">
<path style="stroke:none;" d="M 1.765625 -2.578125 L 1.75 -2.578125 C 1.8125 -2.828125 1.859375 -3.078125 1.90625 -3.328125 L 1.171875 -3.328125 C 0.953125 -2.203125 0.703125 -1.109375 0.46875 0 L 1.1875 0 C 1.234375 0 1.265625 -0.015625 1.265625 -0.078125 C 1.28125 -0.125 1.546875 -1.359375 1.578125 -1.578125 C 1.640625 -1.859375 1.6875 -2.140625 1.828125 -2.390625 C 2 -2.671875 2.265625 -2.921875 2.609375 -2.90625 C 2.78125 -2.90625 2.96875 -2.84375 3 -2.65625 C 3.046875 -2.5 2.984375 -2.3125 2.953125 -2.140625 C 2.8125 -1.421875 2.640625 -0.703125 2.5 0 L 3.203125 0 C 3.25 0 3.296875 -0.015625 3.296875 -0.0625 C 3.296875 -0.109375 3.390625 -0.5625 3.421875 -0.734375 L 3.75 -2.234375 C 3.8125 -2.5 3.875 -2.828125 3.734375 -3.078125 C 3.609375 -3.28125 3.359375 -3.34375 3.140625 -3.359375 C 3.015625 -3.359375 2.875 -3.359375 2.75 -3.34375 C 2.4375 -3.265625 2.15625 -3.078125 1.953125 -2.84375 C 1.875 -2.75 1.8125 -2.671875 1.765625 -2.578125 Z M 1.75 -2.5625 C 1.75 -2.5625 1.75 -2.5625 1.75 -2.5625 C 1.75 -2.5625 1.75 -2.5625 1.75 -2.5625 Z M 1.75 -2.5625 "/>
</symbol>
<symbol overflow="visible" id="glyph1-0">
<path style="stroke:none;" d=""/>
</symbol>
<symbol overflow="visible" id="glyph1-1">
<path style="stroke:none;" d="M 4.515625 -0.796875 C 4.125 -0.578125 3.875 -0.375 3.296875 -0.359375 C 3.09375 -0.359375 2.875 -0.34375 2.671875 -0.390625 C 2.109375 -0.5 1.640625 -0.890625 1.375 -1.390625 C 0.890625 -2.28125 1.125 -3.5 1.953125 -4.125 C 2.09375 -4.21875 2.234375 -4.3125 2.390625 -4.375 C 2.859375 -4.53125 3.421875 -4.515625 3.890625 -4.34375 C 4.0625 -4.265625 4.21875 -4.1875 4.375 -4.109375 C 4.40625 -4.28125 4.453125 -4.46875 4.46875 -4.640625 C 4.328125 -4.703125 4.171875 -4.75 4 -4.78125 C 3.671875 -4.859375 3.171875 -4.921875 2.796875 -4.890625 C 2.078125 -4.828125 1.46875 -4.421875 1.109375 -3.9375 C 0.640625 -3.34375 0.484375 -2.546875 0.65625 -1.8125 C 0.953125 -0.6875 1.90625 0.125 3.28125 0.046875 C 3.734375 0.03125 4.015625 -0.0625 4.375 -0.234375 C 4.40625 -0.265625 4.53125 -0.3125 4.546875 -0.34375 C 4.5625 -0.390625 4.515625 -0.6875 4.515625 -0.796875 Z M 4.515625 -0.796875 "/>
</symbol>
<symbol overflow="visible" id="glyph1-2">
<path style="stroke:none;" d="M 0.734375 -4.84375 L 0.734375 0 L 3.890625 0 L 3.890625 -0.40625 L 1.265625 -0.40625 L 1.265625 -4.84375 L 0.734375 -4.84375 Z M 0.734375 -4.84375 "/>
</symbol>
<symbol overflow="visible" id="glyph1-3">
<path style="stroke:none;" d="M 1 -4.03125 C 0.265625 -3.125 0.234375 -1.75 0.96875 -0.84375 C 1.28125 -0.4375 1.703125 -0.140625 2.234375 0.015625 C 3.71875 0.421875 4.921875 -0.546875 5.25 -1.65625 C 5.53125 -2.578125 5.25 -3.640625 4.53125 -4.3125 C 4.171875 -4.640625 3.65625 -4.90625 3.046875 -4.9375 C 2.125 -5.015625 1.421875 -4.53125 1 -4.03125 Z M 3.484375 -4.453125 C 3.96875 -4.296875 4.359375 -3.96875 4.59375 -3.53125 C 4.734375 -3.265625 4.796875 -2.96875 4.828125 -2.671875 C 4.890625 -1.84375 4.546875 -0.9375 3.796875 -0.53125 C 3.421875 -0.328125 2.96875 -0.234375 2.484375 -0.34375 C 2.15625 -0.421875 1.859375 -0.59375 1.640625 -0.796875 C 1.21875 -1.1875 1 -1.765625 0.96875 -2.328125 C 0.90625 -3.34375 1.421875 -4.109375 2.140625 -4.390625 C 2.5625 -4.5625 3.03125 -4.59375 3.484375 -4.453125 Z M 3.484375 -4.453125 "/>
</symbol>
<symbol overflow="visible" id="glyph1-4">
<path style="stroke:none;" d="M 0.4375 -0.90625 C 0.421875 -0.84375 0.328125 -0.40625 0.34375 -0.375 C 0.359375 -0.359375 0.390625 -0.34375 0.40625 -0.328125 L 0.578125 -0.25 C 1.234375 0.09375 2.359375 0.296875 3.109375 -0.125 C 3.5 -0.328125 3.875 -0.765625 3.875 -1.296875 C 3.875 -2.015625 3.296875 -2.453125 2.796875 -2.625 C 2.65625 -2.671875 2.140625 -2.78125 2.046875 -2.796875 C 1.6875 -2.875 1.296875 -2.96875 1.046875 -3.265625 C 1.015625 -3.3125 0.984375 -3.359375 0.96875 -3.421875 C 0.765625 -3.875 1.125 -4.265625 1.546875 -4.421875 C 2 -4.59375 2.578125 -4.546875 2.984375 -4.375 C 3.09375 -4.328125 3.21875 -4.265625 3.3125 -4.1875 C 3.375 -4.15625 3.4375 -4.109375 3.5 -4.0625 C 3.53125 -4.1875 3.546875 -4.328125 3.5625 -4.453125 C 3.578125 -4.546875 3.625 -4.609375 3.515625 -4.640625 L 3.34375 -4.71875 C 2.578125 -5.03125 1.546875 -5.078125 0.890625 -4.515625 C 0.796875 -4.453125 0.71875 -4.359375 0.640625 -4.265625 C 0.4375 -3.984375 0.34375 -3.546875 0.546875 -3.15625 C 0.71875 -2.8125 1.015625 -2.578125 1.390625 -2.4375 C 1.546875 -2.390625 1.6875 -2.359375 1.84375 -2.328125 C 2 -2.28125 2.5625 -2.171875 2.65625 -2.125 C 2.921875 -2.03125 3.1875 -1.859375 3.3125 -1.59375 C 3.375 -1.484375 3.390625 -1.375 3.390625 -1.203125 C 3.34375 -0.78125 2.96875 -0.5 2.59375 -0.390625 C 1.984375 -0.21875 1.296875 -0.40625 0.84375 -0.640625 C 0.703125 -0.71875 0.578125 -0.828125 0.4375 -0.90625 Z M 0.4375 -0.90625 "/>
</symbol>
<symbol overflow="visible" id="glyph1-5">
<path style="stroke:none;" d="M 0.734375 -4.828125 L 0.734375 0 L 4.328125 0 L 4.328125 -0.4375 L 1.265625 -0.4375 L 1.265625 -2.296875 L 4 -2.296875 L 4 -2.703125 L 1.265625 -2.703125 L 1.265625 -4.40625 L 4.203125 -4.40625 L 4.203125 -4.828125 L 0.734375 -4.828125 Z M 0.734375 -4.828125 "/>
</symbol>
<symbol overflow="visible" id="glyph1-6">
<path style="stroke:none;" d="M 0.734375 -4.84375 L 0.734375 0 L 2.265625 0 C 2.890625 0 3.203125 0.03125 3.71875 -0.21875 C 4.359375 -0.515625 4.875 -1.109375 5.03125 -1.875 C 5.234375 -2.84375 4.828125 -3.90625 4 -4.453125 C 3.703125 -4.640625 3.359375 -4.78125 3 -4.828125 C 2.71875 -4.84375 2.4375 -4.84375 2.15625 -4.84375 L 0.734375 -4.84375 Z M 1.25 -0.40625 L 1.25 -4.421875 L 2.234375 -4.421875 C 2.421875 -4.421875 2.609375 -4.4375 2.796875 -4.421875 C 3.296875 -4.375 3.71875 -4.171875 4.015625 -3.875 C 4.375 -3.5 4.53125 -3 4.5625 -2.5 C 4.59375 -1.90625 4.40625 -1.296875 3.96875 -0.890625 C 3.6875 -0.640625 3.25 -0.453125 2.796875 -0.421875 C 2.609375 -0.40625 2.4375 -0.40625 2.25 -0.40625 L 1.25 -0.40625 Z M 1.25 -0.40625 "/>
</symbol>
<symbol overflow="visible" id="glyph1-7">
<path style="stroke:none;" d="M 0.734375 -4.84375 L 0.734375 -1.78125 C 0.734375 -1.640625 0.734375 -1.5 0.75 -1.359375 C 0.8125 -0.953125 1.015625 -0.625 1.28125 -0.390625 C 1.84375 0.125 2.703125 0.265625 3.390625 -0.0625 C 3.75 -0.234375 4.078125 -0.5625 4.25 -0.921875 C 4.375 -1.21875 4.390625 -1.40625 4.390625 -1.8125 L 4.390625 -4.84375 L 3.890625 -4.84375 L 3.890625 -1.765625 C 3.890625 -1.5 3.875 -1.21875 3.75 -0.96875 C 3.671875 -0.8125 3.5625 -0.65625 3.40625 -0.546875 C 2.8125 -0.109375 1.765625 -0.28125 1.4375 -0.875 C 1.28125 -1.15625 1.265625 -1.46875 1.265625 -1.78125 L 1.265625 -4.84375 L 0.734375 -4.84375 Z M 0.734375 -4.84375 "/>
</symbol>
<symbol overflow="visible" id="glyph1-8">
<path style="stroke:none;" d="M 0.734375 -4.84375 L 0.734375 0 L 1.25 0 L 1.25 -2.21875 L 2.28125 -2.21875 C 2.421875 -2.21875 2.546875 -2.234375 2.65625 -2.203125 C 2.78125 -2.03125 2.90625 -1.859375 3.03125 -1.671875 C 3.421875 -1.125 3.8125 -0.5625 4.21875 -0.015625 C 4.390625 0 4.578125 0 4.75 0 L 4.46875 -0.390625 L 3.125 -2.28125 C 3.25 -2.296875 3.390625 -2.328125 3.515625 -2.390625 C 4.015625 -2.5625 4.578125 -2.96875 4.53125 -3.5625 C 4.515625 -3.796875 4.453125 -3.9375 4.328125 -4.109375 C 4.015625 -4.515625 3.484375 -4.765625 2.875 -4.828125 C 2.625 -4.84375 2.390625 -4.84375 2.125 -4.84375 L 0.734375 -4.84375 Z M 1.25 -2.609375 L 1.25 -4.421875 L 2.296875 -4.421875 C 2.640625 -4.421875 3 -4.421875 3.34375 -4.328125 C 3.671875 -4.203125 4 -3.96875 4.046875 -3.59375 C 4.0625 -3.359375 3.96875 -3.140625 3.8125 -2.984375 C 3.6875 -2.875 3.546875 -2.796875 3.390625 -2.734375 C 3.046875 -2.609375 2.6875 -2.609375 2.328125 -2.609375 L 1.25 -2.609375 Z M 1.25 -2.609375 "/>
</symbol>
<symbol overflow="visible" id="glyph1-9">
<path style="stroke:none;" d="M 0.734375 -4.828125 L 0.734375 0 L 1.265625 0 L 1.265625 -2.203125 L 3.78125 -2.203125 L 3.78125 -2.625 L 1.265625 -2.625 L 1.265625 -4.40625 L 4.109375 -4.40625 L 4.109375 -4.828125 L 0.734375 -4.828125 Z M 0.734375 -4.828125 "/>
</symbol>
<symbol overflow="visible" id="glyph1-10">
<path style="stroke:none;" d="M 0.21875 0 L 0.578125 0 C 0.625 0 0.6875 0.015625 0.71875 -0.015625 C 0.75 -0.03125 0.75 -0.0625 0.765625 -0.09375 C 0.875 -0.34375 1.21875 -1.203125 1.265625 -1.296875 C 1.28125 -1.359375 1.296875 -1.390625 1.375 -1.390625 L 3.046875 -1.390625 C 3.234375 -1.390625 3.421875 -1.40625 3.609375 -1.390625 C 3.6875 -1.390625 3.703125 -1.296875 3.734375 -1.234375 C 3.8125 -1.03125 4.1875 -0.125 4.203125 -0.0625 C 4.234375 0.015625 4.296875 0 4.40625 0 L 4.796875 0 C 4.625 -0.453125 4.4375 -0.890625 4.25 -1.34375 L 2.8125 -4.828125 C 2.796875 -4.859375 2.796875 -4.90625 2.765625 -4.90625 C 2.71875 -4.90625 2.671875 -4.90625 2.625 -4.90625 L 2.375 -4.90625 C 2.328125 -4.90625 2.265625 -4.921875 2.234375 -4.890625 C 2.203125 -4.875 2.1875 -4.84375 2.1875 -4.8125 L 0.765625 -1.34375 L 0.40625 -0.484375 C 0.34375 -0.328125 0.265625 -0.171875 0.21875 0 Z M 2.484375 -4.328125 C 2.796875 -3.46875 3.15625 -2.640625 3.5 -1.8125 L 1.46875 -1.8125 C 1.796875 -2.640625 2.15625 -3.46875 2.46875 -4.328125 L 2.484375 -4.328125 Z M 2.484375 -4.328125 "/>
</symbol>
<symbol overflow="visible" id="glyph2-0">
<path style="stroke:none;" d=""/>
</symbol>
<symbol overflow="visible" id="glyph2-1">
<path style="stroke:none;" d="M 0.625 -0.90625 L 0.421875 -0.375 C 0.59375 -0.265625 0.78125 -0.15625 0.984375 -0.078125 C 1.703125 0.1875 2.5625 0.203125 3.25 -0.1875 C 3.71875 -0.453125 4.125 -0.90625 4.171875 -1.46875 C 4.171875 -1.5625 4.171875 -1.671875 4.15625 -1.765625 C 4.0625 -2.1875 3.71875 -2.484375 3.359375 -2.625 C 2.75 -2.828125 1.859375 -2.796875 1.6875 -3.421875 C 1.59375 -3.8125 1.9375 -4.140625 2.25 -4.328125 C 2.578125 -4.484375 2.9375 -4.546875 3.296875 -4.515625 C 3.671875 -4.5 3.953125 -4.390625 4.203125 -4.1875 C 4.265625 -4.15625 4.3125 -4.109375 4.359375 -4.0625 C 4.421875 -4.1875 4.46875 -4.328125 4.515625 -4.453125 C 4.546875 -4.53125 4.609375 -4.609375 4.5 -4.640625 C 4.109375 -4.859375 3.640625 -4.96875 3.03125 -4.9375 C 2.375 -4.90625 1.640625 -4.546875 1.3125 -3.9375 C 1.25 -3.8125 1.203125 -3.65625 1.1875 -3.5 C 1.125 -2.890625 1.609375 -2.546875 2 -2.40625 C 2.125 -2.359375 2.265625 -2.328125 2.390625 -2.3125 C 2.578125 -2.265625 2.984375 -2.171875 3.125 -2.125 C 3.34375 -2.046875 3.546875 -1.875 3.640625 -1.65625 C 3.8125 -1.1875 3.40625 -0.6875 3 -0.515625 C 2.265625 -0.140625 1.328125 -0.359375 0.796875 -0.78125 C 0.734375 -0.828125 0.6875 -0.875 0.625 -0.90625 Z M 0.625 -0.90625 "/>
</symbol>
</g>
<clipPath id="clip1">
  <path d="M -218 666 L 394 666 L 394 -126 L -218 -126 L -218 666 Z M -218 666 "/>
</clipPath>
<clipPath id="clip2">
  <path d="M 0.726563 125.753906 L 156.632813 125.753906 L 156.632813 -1.199219 L 0.726563 -1.199219 L 0.726563 125.753906 Z M 0.726563 125.753906 "/>
</clipPath>
<clipPath id="clip3">
  <path d="M -218 666 L 394 666 L 394 -126 L -218 -126 L -218 666 Z M -218 666 "/>
</clipPath>
</defs>
<g id="surface0">
<g clip-path="url(#clip1)" clip-rule="nonzero">
<g clip-path="url(#clip2)" clip-rule="nonzero">
<path style="fill:none;stroke-width:10;stroke-linecap:butt;stroke-linejoin:miter;stroke:rgb(0%,0%,0%);stroke-opacity:1;stroke-miterlimit:4;" d="M 652.162762 1035.904537 C 588.567563 1051.75949 522.201256 1060.283281 457.799279 1057.336785 C 442.751104 1056.635239 427.808162 1055.337378 413.040606 1053.33797 " transform="matrix(0.111361,0,0,-0.111361,0.726,125.754)"/>
<path style="fill:none;stroke-width:10;stroke-linecap:butt;stroke-linejoin:miter;stroke:rgb(0%,0%,0%);stroke-opacity:1;stroke-miterlimit:4;" d="M 874.938881 947.825363 C 857.575603 956.980546 840.072016 965.820033 822.393042 974.343824 C 793.945327 988.023982 763.533283 1000.757053 731.7883 1011.946721 " transform="matrix(0.111361,0,0,-0.111361,0.726,125.754)"/>
<path style="fill:none;stroke-width:10;stroke-linecap:butt;stroke-linejoin:miter;stroke:rgb(0%,0%,0%);stroke-opacity:1;stroke-miterlimit:4;" d="M 1132.40648 787.030884 C 1106.589565 807.410813 1078.80832 826.001797 1050.535993 844.136777 C 1026.297558 859.676034 1001.918814 874.934672 977.259451 889.80746 C 971.296305 893.420425 965.298082 896.998312 959.264781 900.541123 " transform="matrix(0.111361,0,0,-0.111361,0.726,125.754)"/>
<path style="fill:none;stroke-width:10;stroke-linecap:butt;stroke-linejoin:miter;stroke:rgb(0%,0%,0%);stroke-opacity:1;stroke-miterlimit:4;" d="M 1265.209249 586.318405 C 1262.192599 601.156115 1258.158706 615.748284 1253.037416 630.024757 C 1235.393519 679.343483 1206.665186 718.805478 1171.798321 752.690179 " transform="matrix(0.111361,0,0,-0.111361,0.726,125.754)"/>
<path style="fill:none;stroke-width:10;stroke-linecap:butt;stroke-linejoin:miter;stroke:rgb(0%,0%,0%);stroke-opacity:1;stroke-miterlimit:4;" d="M 1239.146794 378.415073 C 1244.233006 387.675488 1248.863214 397.286676 1252.967261 407.248638 C 1257.211618 417.59645 1259.982727 428.751041 1262.543372 439.625013 C 1268.997601 467.160716 1272.154561 495.573353 1271.803787 523.915836 " transform="matrix(0.111361,0,0,-0.111361,0.726,125.754)"/>
<path style="fill:none;stroke-width:10;stroke-linecap:butt;stroke-linejoin:miter;stroke:rgb(0%,0%,0%);stroke-opacity:1;stroke-miterlimit:4;" d="M 975.680972 179.45646 C 1057.586536 210.675283 1149.454062 259.608158 1209.225832 333.937019 " transform="matrix(0.111361,0,0,-0.111361,0.726,125.754)"/>
<path style="fill:none;stroke-width:10;stroke-linecap:butt;stroke-linejoin:miter;stroke:rgb(0%,0%,0%);stroke-opacity:1;stroke-miterlimit:4;" d="M 723.229431 117.159122 C 747.853716 120.947474 772.267538 125.47245 796.295508 130.59374 C 796.295508 130.59374 835.301499 136.276267 890.969221 151.745369 " transform="matrix(0.111361,0,0,-0.111361,0.726,125.754)"/>
<path style="fill:none;stroke-width:10;stroke-linecap:butt;stroke-linejoin:miter;stroke:rgb(0%,0%,0%);stroke-opacity:1;stroke-miterlimit:4;" d="M 473.969928 112.914766 C 534.302934 103.759583 596.214421 103.549119 657.494516 109.091337 " transform="matrix(0.111361,0,0,-0.111361,0.726,125.754)"/>
<path style="fill:none;stroke-width:10;stroke-linecap:butt;stroke-linejoin:miter;stroke:rgb(0%,0%,0%);stroke-opacity:1;stroke-miterlimit:4;" d="M 255.964325 201.800719 C 290.164721 174.405324 329.556562 152.867844 374.174925 137.328587 C 384.452583 133.750699 394.800395 130.523585 405.218362 127.612167 " transform="matrix(0.111361,0,0,-0.111361,0.726,125.754)"/>
<path style="fill:none;stroke-width:10;stroke-linecap:butt;stroke-linejoin:miter;stroke:rgb(0%,0%,0%);stroke-opacity:1;stroke-miterlimit:4;" d="M 117.128254 425.909777 C 121.968926 407.108328 127.791763 388.587498 134.737074 370.452519 C 142.103313 351.230142 150.732336 332.498848 160.939839 314.60941 C 177.285875 285.846 196.192555 260.029086 217.730035 237.158667 " transform="matrix(0.111361,0,0,-0.111361,0.726,125.754)"/>
<path style="fill:none;stroke-width:10;stroke-linecap:butt;stroke-linejoin:miter;stroke:rgb(0%,0%,0%);stroke-opacity:1;stroke-miterlimit:4;" d="M 96.608017 710.562306 C 91.135953 634.725119 92.644278 557.835613 105.166885 482.840283 " transform="matrix(0.111361,0,0,-0.111361,0.726,125.754)"/>
<path style="fill:none;stroke-width:10;stroke-linecap:butt;stroke-linejoin:miter;stroke:rgb(0%,0%,0%);stroke-opacity:1;stroke-miterlimit:4;" d="M 190.720492 946.28196 C 141.647308 895.910915 115.163924 837.752703 103.483173 771.070699 " transform="matrix(0.111361,0,0,-0.111361,0.726,125.754)"/>
<path style="fill:none;stroke-width:10;stroke-linecap:butt;stroke-linejoin:miter;stroke:rgb(0%,0%,0%);stroke-opacity:1;stroke-miterlimit:4;" d="M 335.168935 1035.658996 C 299.10944 1023.767781 264.909044 1006.755276 233.584988 983.639316 " transform="matrix(0.111361,0,0,-0.111361,0.726,125.754)"/>
<path style="fill:none;stroke-width:5;stroke-linecap:butt;stroke-linejoin:miter;stroke:rgb(0%,0%,0%);stroke-opacity:1;stroke-miterlimit:4;" d="M 705.199684 989.11138 C 718.24845 994.337902 731.437526 1000.371202 744.837066 1007.246359 " transform="matrix(0.111361,0,0,-0.111361,0.726,125.754)"/>
<path style="fill:none;stroke-width:5;stroke-linecap:butt;stroke-linejoin:miter;stroke:rgb(0%,0%,0%);stroke-opacity:1;stroke-miterlimit:4;" d="M 416.513262 981.183903 C 478.705367 959.576268 566.784541 945.299795 668.33341 976.09769 " transform="matrix(0.111361,0,0,-0.111361,0.726,125.754)"/>
<path style="fill:none;stroke-width:5;stroke-linecap:butt;stroke-linejoin:miter;stroke:rgb(0%,0%,0%);stroke-opacity:1;stroke-miterlimit:4;" d="M 319.840142 1030.22201 C 319.840142 1030.22201 339.518524 1014.928294 374.280157 998.441949 " transform="matrix(0.111361,0,0,-0.111361,0.726,125.754)"/>
<path style="fill:none;stroke-width:5;stroke-linecap:butt;stroke-linejoin:miter;stroke:rgb(0%,0%,0%);stroke-opacity:1;stroke-miterlimit:4;" d="M 866.41509 726.557568 C 946.742175 740.974351 1024.157841 769.106369 1091.716778 816.881692 " transform="matrix(0.111361,0,0,-0.111361,0.726,125.754)"/>
<path style="fill:none;stroke-width:5;stroke-linecap:butt;stroke-linejoin:miter;stroke:rgb(0%,0%,0%);stroke-opacity:1;stroke-miterlimit:4;" d="M 654.653252 716.209756 C 709.654505 712.807255 766.093928 713.40357 821.76165 719.96303 " transform="matrix(0.111361,0,0,-0.111361,0.726,125.754)"/>
<path style="fill:none;stroke-width:5;stroke-linecap:butt;stroke-linejoin:miter;stroke:rgb(0%,0%,0%);stroke-opacity:1;stroke-miterlimit:4;" d="M 391.573281 748.305512 C 442.330176 736.414298 494.069237 728.521899 545.948608 724.242464 C 565.591912 722.628907 585.129985 721.155659 604.703135 719.717489 " transform="matrix(0.111361,0,0,-0.111361,0.726,125.754)"/>
<path style="fill:none;stroke-width:5;stroke-linecap:butt;stroke-linejoin:miter;stroke:rgb(0%,0%,0%);stroke-opacity:1;stroke-miterlimit:4;" d="M 131.720423 861.885905 C 169.639017 827.510122 220.255603 804.885245 267.294302 786.609956 C 291.88351 777.068923 316.893646 768.650364 342.219478 761.284124 " transform="matrix(0.111361,0,0,-0.111361,0.726,125.754)"/>
<path style="fill:none;stroke-width:5;stroke-linecap:butt;stroke-linejoin:miter;stroke:rgb(0%,0%,0%);stroke-opacity:1;stroke-miterlimit:4;" d="M 93.626444 626.83272 C 138.630657 591.36954 195.596241 568.569276 249.159323 550.013369 C 302.932869 531.317152 358.460281 517.707148 414.478777 507.745187 C 450.468117 501.361113 486.702998 496.520441 523.113266 492.977631 C 638.447526 481.752885 754.90426 471.124455 871.115452 477.438374 C 997.253529 484.278453 1139.211482 506.763021 1239.46249 590.071679 C 1246.513033 595.929593 1253.318035 602.103203 1259.842418 608.627586 " transform="matrix(0.111361,0,0,-0.111361,0.726,125.754)"/>
<path style="fill:none;stroke-width:5;stroke-linecap:butt;stroke-linejoin:miter;stroke:rgb(0%,0%,0%);stroke-opacity:1;stroke-miterlimit:4;" d="M 148.522464 338.356762 C 148.522464 338.356762 584.217974 172.61638 1131.073541 260.976173 " transform="matrix(0.111361,0,0,-0.111361,0.726,125.754)"/>
<path style="fill:none;stroke-width:5;stroke-linecap:butt;stroke-linejoin:miter;stroke:rgb(0%,0%,0%);stroke-opacity:1;stroke-miterlimit:4;" d="M 364.037577 1003.528162 C 328.855015 939.617268 275.46732 809.620684 275.46732 609.329133 C 275.46732 310.575517 381.85686 134.767942 381.85686 134.767942 " transform="matrix(0.111361,0,0,-0.111361,0.726,125.754)"/>
<path style="fill:none;stroke-width:5;stroke-linecap:butt;stroke-linejoin:miter;stroke:rgb(0%,0%,0%);stroke-opacity:1;stroke-miterlimit:4;" d="M 613.998627 1044.428328 C 569.310109 972.063797 540.862395 887.211737 522.762493 804.674781 C 512.905763 759.530258 506.521689 713.649111 503.961044 667.522423 C 502.593028 642.512287 502.31241 617.431996 503.22442 592.386783 C 506.205993 508.060883 518.798755 421.910961 534.653708 338.953077 C 540.371312 308.926883 546.650154 278.970843 554.928404 249.540964 C 559.067529 234.843563 563.662659 220.251394 568.959336 205.904766 C 581.973025 170.511741 598.98553 130.137734 630.309585 107.021774 " transform="matrix(0.111361,0,0,-0.111361,0.726,125.754)"/>
<path style="fill:none;stroke-width:5;stroke-linecap:butt;stroke-linejoin:miter;stroke:rgb(0%,0%,0%);stroke-opacity:1;stroke-miterlimit:4;" d="M 854.874649 958.208252 C 827.4091 948.702296 811.589224 911.239708 801.978036 887.001273 C 784.71999 843.610617 775.880503 796.922691 769.566583 750.866157 C 764.655757 715.192513 761.60403 679.238251 759.639699 643.283988 C 752.448847 512.375394 756.131966 373.925174 801.522031 248.874495 C 815.237266 211.131288 833.4424 173.949319 860.311635 143.747738 " transform="matrix(0.111361,0,0,-0.111361,0.726,125.754)"/>
<path style="fill:none;stroke-width:5;stroke-linecap:butt;stroke-linejoin:miter;stroke:rgb(0%,0%,0%);stroke-opacity:1;stroke-miterlimit:4;" d="M 1050.535993 844.136777 C 1002.059123 786.118874 984.625691 699.127096 976.838524 626.552102 C 974.453265 604.348152 973.120327 582.038971 972.664321 559.694712 C 971.541847 503.921758 978.136385 452.743934 992.553167 398.724846 C 1006.689331 345.793156 1025.946785 280.829942 1069.723292 244.279365 C 1075.195355 239.684234 1081.123424 235.650342 1087.542575 232.528459 " transform="matrix(0.111361,0,0,-0.111361,0.726,125.754)"/>
<path style=" stroke:none;fill-rule:nonzero;fill:rgb(0%,0%,0%);fill-opacity:1;" d="M 29.035156 22.820313 C 29.035156 23.511719 28.472656 24.070313 27.78125 24.070313 C 27.089844 24.070313 26.53125 23.511719 26.53125 22.820313 C 26.53125 22.128906 27.089844 21.566406 27.78125 21.566406 C 28.472656 21.566406 29.035156 22.128906 29.035156 22.820313 "/>
<path style=" stroke:none;fill-rule:nonzero;fill:rgb(0%,0%,0%);fill-opacity:1;" d="M 52.144531 30.195313 C 52.144531 30.886719 51.582031 31.449219 50.890625 31.449219 C 50.199219 31.449219 49.636719 30.886719 49.636719 30.195313 C 49.636719 29.503906 50.199219 28.945313 50.890625 28.945313 C 51.582031 28.945313 52.144531 29.503906 52.144531 30.195313 "/>
<path style=" stroke:none;fill-rule:nonzero;fill:rgb(0%,0%,0%);fill-opacity:1;" d="M 76.226563 32.007813 C 76.226563 32.699219 75.664063 33.257813 74.972656 33.257813 C 74.28125 33.257813 73.71875 32.699219 73.71875 32.007813 C 73.71875 31.316406 74.28125 30.753906 74.972656 30.753906 C 75.664063 30.753906 76.226563 31.316406 76.226563 32.007813 "/>
<path style=" stroke:none;fill-rule:nonzero;fill:rgb(0%,0%,0%);fill-opacity:1;" d="M 101.839844 33.675781 C 101.839844 34.367188 101.277344 34.929688 100.585938 34.929688 C 99.894531 34.929688 99.332031 34.367188 99.332031 33.675781 C 99.332031 32.984375 99.894531 32.421875 100.585938 32.421875 C 101.277344 32.421875 101.839844 32.984375 101.839844 33.675781 "/>
<path style=" stroke:none;fill-rule:nonzero;fill:rgb(0%,0%,0%);fill-opacity:1;" d="M 123.96875 47.320313 C 123.96875 48.011719 123.410156 48.570313 122.71875 48.570313 C 122.027344 48.570313 121.464844 48.011719 121.464844 47.320313 C 121.464844 46.625 122.027344 46.066406 122.71875 46.066406 C 123.410156 46.066406 123.96875 46.625 123.96875 47.320313 "/>
<path style=" stroke:none;fill-rule:nonzero;fill:rgb(0%,0%,0%);fill-opacity:1;" d="M 99.890625 58.59375 C 99.890625 59.285156 99.328125 59.847656 98.636719 59.847656 C 97.945313 59.847656 97.382813 59.285156 97.382813 58.59375 C 97.382813 57.902344 97.945313 57.339844 98.636719 57.339844 C 99.328125 57.339844 99.890625 57.902344 99.890625 58.59375 "/>
<path style=" stroke:none;fill-rule:nonzero;fill:rgb(0%,0%,0%);fill-opacity:1;" d="M 103.089844 85.738281 C 103.089844 86.429688 102.53125 86.992188 101.839844 86.992188 C 101.144531 86.992188 100.585938 86.429688 100.585938 85.738281 C 100.585938 85.046875 101.144531 84.484375 101.839844 84.484375 C 102.53125 84.484375 103.089844 85.046875 103.089844 85.738281 "/>
<path style=" stroke:none;fill-rule:nonzero;fill:rgb(0%,0%,0%);fill-opacity:1;" d="M 106.015625 104.25 C 106.015625 104.945313 105.453125 105.503906 104.761719 105.503906 C 104.070313 105.503906 103.507813 104.945313 103.507813 104.25 C 103.507813 103.558594 104.070313 103 104.761719 103 C 105.453125 103 106.015625 103.558594 106.015625 104.25 "/>
<path style=" stroke:none;fill-rule:nonzero;fill:rgb(0%,0%,0%);fill-opacity:1;" d="M 126.058594 82.816406 C 126.058594 83.507813 125.5 84.066406 124.804688 84.066406 C 124.113281 84.066406 123.554688 83.507813 123.554688 82.816406 C 123.554688 82.125 124.113281 81.5625 124.804688 81.5625 C 125.5 81.5625 126.058594 82.125 126.058594 82.816406 "/>
<path style=" stroke:none;fill-rule:nonzero;fill:rgb(0%,0%,0%);fill-opacity:1;" d="M 140.992188 66.234375 C 140.992188 66.925781 140.429688 67.488281 139.738281 67.488281 C 139.046875 67.488281 138.484375 66.925781 138.484375 66.234375 C 138.484375 65.542969 139.046875 64.980469 139.738281 64.980469 C 140.429688 64.980469 140.992188 65.542969 140.992188 66.234375 "/>
<path style=" stroke:none;fill-rule:nonzero;fill:rgb(0%,0%,0%);fill-opacity:1;" d="M 77.476563 60.820313 C 77.476563 61.511719 76.917969 62.074219 76.226563 62.074219 C 75.535156 62.074219 74.972656 61.511719 74.972656 60.820313 C 74.972656 60.128906 75.535156 59.566406 76.226563 59.566406 C 76.917969 59.566406 77.476563 60.128906 77.476563 60.820313 "/>
<path style=" stroke:none;fill-rule:nonzero;fill:rgb(0%,0%,0%);fill-opacity:1;" d="M 50.613281 57.0625 C 50.613281 57.753906 50.050781 58.316406 49.359375 58.316406 C 48.667969 58.316406 48.105469 57.753906 48.105469 57.0625 C 48.105469 56.371094 48.667969 55.808594 49.359375 55.808594 C 50.050781 55.808594 50.613281 56.371094 50.613281 57.0625 "/>
<path style=" stroke:none;fill-rule:nonzero;fill:rgb(0%,0%,0%);fill-opacity:1;" d="M 24.71875 51.355469 C 24.71875 52.046875 24.160156 52.609375 23.46875 52.609375 C 22.777344 52.609375 22.214844 52.046875 22.214844 51.355469 C 22.214844 50.664063 22.777344 50.101563 23.46875 50.101563 C 24.160156 50.101563 24.71875 50.664063 24.71875 51.355469 "/>
<path style=" stroke:none;fill-rule:nonzero;fill:rgb(0%,0%,0%);fill-opacity:1;" d="M 26.113281 77.246094 C 26.113281 77.9375 25.550781 78.5 24.859375 78.5 C 24.167969 78.5 23.605469 77.9375 23.605469 77.246094 C 23.605469 76.554688 24.167969 75.992188 24.859375 75.992188 C 25.550781 75.992188 26.113281 76.554688 26.113281 77.246094 "/>
<path style=" stroke:none;fill-rule:nonzero;fill:rgb(0%,0%,0%);fill-opacity:1;" d="M 51.726563 84.902344 C 51.726563 85.59375 51.164063 86.15625 50.472656 86.15625 C 49.78125 86.15625 49.21875 85.59375 49.21875 84.902344 C 49.21875 84.210938 49.78125 83.648438 50.472656 83.648438 C 51.164063 83.648438 51.726563 84.210938 51.726563 84.902344 "/>
<path style=" stroke:none;fill-rule:nonzero;fill:rgb(0%,0%,0%);fill-opacity:1;" d="M 78.171875 87.824219 C 78.171875 88.519531 77.613281 89.078125 76.921875 89.078125 C 76.230469 89.078125 75.667969 88.519531 75.667969 87.824219 C 75.667969 87.132813 76.230469 86.574219 76.921875 86.574219 C 77.613281 86.574219 78.171875 87.132813 78.171875 87.824219 "/>
<path style=" stroke:none;fill-rule:nonzero;fill:rgb(0%,0%,0%);fill-opacity:1;" d="M 79.84375 108.984375 C 79.84375 109.675781 79.28125 110.238281 78.589844 110.238281 C 77.898438 110.238281 77.339844 109.675781 77.339844 108.984375 C 77.339844 108.292969 77.898438 107.730469 78.589844 107.730469 C 79.28125 107.730469 79.84375 108.292969 79.84375 108.984375 "/>
<path style=" stroke:none;fill-rule:nonzero;fill:rgb(0%,0%,0%);fill-opacity:1;" d="M 52.976563 108.289063 C 52.976563 108.980469 52.417969 109.542969 51.726563 109.542969 C 51.035156 109.542969 50.472656 108.980469 50.472656 108.289063 C 50.472656 107.597656 51.035156 107.035156 51.726563 107.035156 C 52.417969 107.035156 52.976563 107.597656 52.976563 108.289063 "/>
<path style=" stroke:none;fill-rule:nonzero;fill:rgb(0%,0%,0%);fill-opacity:1;" d="M 33.488281 100.074219 C 33.488281 100.765625 32.929688 101.328125 32.238281 101.328125 C 31.546875 101.328125 30.984375 100.765625 30.984375 100.074219 C 30.984375 99.382813 31.546875 98.824219 32.238281 98.824219 C 32.929688 98.824219 33.488281 99.382813 33.488281 100.074219 "/>
<path style="fill:none;stroke-width:5;stroke-linecap:butt;stroke-linejoin:miter;stroke:rgb(0%,0%,0%);stroke-opacity:1;stroke-miterlimit:4;" d="M 450.468117 858.097554 L 373.543533 1046.252349 " transform="matrix(0.111361,0,0,-0.111361,0.726,125.754)"/>
<path style=" stroke:none;fill-rule:nonzero;fill:rgb(0%,0%,0%);fill-opacity:1;" d="M 44.222656 9.660156 L 40.441406 4.683594 L 41.226563 10.882813 L 44.222656 9.660156 "/>
<path style="fill:none;stroke-width:5;stroke-linecap:butt;stroke-linejoin:miter;stroke:rgb(0%,0%,0%);stroke-opacity:1;stroke-miterlimit:4;" d="M 242.950635 924.323552 L 112.954052 1090.590094 " transform="matrix(0.111361,0,0,-0.111361,0.726,125.754)"/>
<path style=" stroke:none;fill-rule:nonzero;fill:rgb(0%,0%,0%);fill-opacity:1;" d="M 15.242188 4.191406 L 10.25 0.429688 L 12.695313 6.183594 L 15.242188 4.191406 "/>
<path style="fill:none;stroke-width:5;stroke-linecap:butt;stroke-linejoin:miter;stroke:rgb(0%,0%,0%);stroke-opacity:1;stroke-miterlimit:4;" d="M 204.225264 668.08366 L 37.958722 768.930982 " transform="matrix(0.111361,0,0,-0.111361,0.726,125.754)"/>
<path style=" stroke:none;fill-rule:nonzero;fill:rgb(0%,0%,0%);fill-opacity:1;" d="M 6.726563 39.332031 L 0.726563 37.585938 L 5.046875 42.097656 L 6.726563 39.332031 "/>
<path style="fill:none;stroke-width:5;stroke-linecap:butt;stroke-linejoin:miter;stroke:rgb(0%,0%,0%);stroke-opacity:1;stroke-miterlimit:4;" d="M 216.712793 435.59112 L 62.968858 450.569139 " transform="matrix(0.111361,0,0,-0.111361,0.726,125.754)"/>
<path style=" stroke:none;fill-rule:nonzero;fill:rgb(0%,0%,0%);fill-opacity:1;" d="M 8.992188 74.09375 L 2.824219 75.117188 L 8.675781 77.3125 L 8.992188 74.09375 "/>
<path style="fill:none;stroke-width:5;stroke-linecap:butt;stroke-linejoin:miter;stroke:rgb(0%,0%,0%);stroke-opacity:1;stroke-miterlimit:4;" d="M 282.973868 230.599206 L 147.961227 200.573012 " transform="matrix(0.111361,0,0,-0.111361,0.726,125.754)"/>
<path style=" stroke:none;fill-rule:nonzero;fill:rgb(0%,0%,0%);fill-opacity:1;" d="M 17.933594 101.617188 L 12.390625 104.507813 L 18.636719 104.777344 L 17.933594 101.617188 "/>
<path style="fill:none;stroke-width:5;stroke-linecap:butt;stroke-linejoin:miter;stroke:rgb(0%,0%,0%);stroke-opacity:1;stroke-miterlimit:4;" d="M 457.974665 156.831582 L 409.638105 53.914697 " transform="matrix(0.111361,0,0,-0.111361,0.726,125.754)"/>
<path style=" stroke:none;fill-rule:nonzero;fill:rgb(0%,0%,0%);fill-opacity:1;" d="M 45.367188 118.070313 L 44.261719 124.222656 L 48.292969 119.449219 L 45.367188 118.070313 "/>
<path style="fill:none;stroke-width:5;stroke-linecap:butt;stroke-linejoin:miter;stroke:rgb(0%,0%,0%);stroke-opacity:1;stroke-miterlimit:4;" d="M 699.20146 150.587817 L 684.644369 43.917658 " transform="matrix(0.111361,0,0,-0.111361,0.726,125.754)"/>
<path style=" stroke:none;fill-rule:nonzero;fill:rgb(0%,0%,0%);fill-opacity:1;" d="M 75.535156 119.554688 L 76.320313 125.753906 L 78.738281 119.992188 L 75.535156 119.554688 "/>
<path style="fill:none;stroke-width:5;stroke-linecap:butt;stroke-linejoin:miter;stroke:rgb(0%,0%,0%);stroke-opacity:1;stroke-miterlimit:4;" d="M 934.219568 193.101541 L 956.283208 67.244083 " transform="matrix(0.111361,0,0,-0.111361,0.726,125.754)"/>
<path style=" stroke:none;fill-rule:nonzero;fill:rgb(0%,0%,0%);fill-opacity:1;" d="M 105.457031 117.453125 L 108.09375 123.121094 L 108.640625 116.894531 L 105.457031 117.453125 "/>
<path style="fill:none;stroke-width:5;stroke-linecap:butt;stroke-linejoin:miter;stroke:rgb(0%,0%,0%);stroke-opacity:1;stroke-miterlimit:4;" d="M 1114.201346 385.570848 L 1291.306783 345.582692 " transform="matrix(0.111361,0,0,-0.111361,0.726,125.754)"/>
<path style=" stroke:none;fill-rule:nonzero;fill:rgb(0%,0%,0%);fill-opacity:1;" d="M 143.097656 88.585938 L 149.34375 88.335938 L 143.808594 85.429688 L 143.097656 88.585938 "/>
<path style="fill:none;stroke-width:5;stroke-linecap:butt;stroke-linejoin:miter;stroke:rgb(0%,0%,0%);stroke-opacity:1;stroke-miterlimit:4;" d="M 1248.301977 534.474112 L 1357.006621 643.213833 " transform="matrix(0.111361,0,0,-0.111361,0.726,125.754)"/>
<path style=" stroke:none;fill-rule:nonzero;fill:rgb(0%,0%,0%);fill-opacity:1;" d="M 152.195313 56.035156 L 155.320313 50.625 L 149.90625 53.75 L 152.195313 56.035156 "/>
<path style="fill:none;stroke-width:5;stroke-linecap:butt;stroke-linejoin:miter;stroke:rgb(0%,0%,0%);stroke-opacity:1;stroke-miterlimit:4;" d="M 1095.470052 704.318541 L 1215.855447 835.998836 " transform="matrix(0.111361,0,0,-0.111361,0.726,125.754)"/>
<path style=" stroke:none;fill-rule:nonzero;fill:rgb(0%,0%,0%);fill-opacity:1;" d="M 136.5625 34.546875 L 139.441406 29.003906 L 134.171875 32.363281 L 136.5625 34.546875 "/>
<path style="fill:none;stroke-width:5;stroke-linecap:butt;stroke-linejoin:miter;stroke:rgb(0%,0%,0%);stroke-opacity:1;stroke-miterlimit:4;" d="M 666.719853 841.821673 L 699.622388 1035.588841 " transform="matrix(0.111361,0,0,-0.111361,0.726,125.754)"/>
<path style=" stroke:none;fill-rule:nonzero;fill:rgb(0%,0%,0%);fill-opacity:1;" d="M 80.027344 11.785156 L 79.445313 5.5625 L 76.839844 11.242188 L 80.027344 11.785156 "/>
<path style="fill:none;stroke-width:5;stroke-linecap:butt;stroke-linejoin:miter;stroke:rgb(0%,0%,0%);stroke-opacity:1;stroke-miterlimit:4;" d="M 907.981726 908.924604 L 896.721903 826.843653 L 996.306441 1007.246359 " transform="matrix(0.111361,0,0,-0.111361,0.726,125.754)"/>
<path style=" stroke:none;fill-rule:nonzero;fill:rgb(0%,0%,0%);fill-opacity:1;" d="M 112.539063 15.324219 L 114.039063 9.257813 L 109.707031 13.761719 L 112.539063 15.324219 "/>
<path style=" stroke:none;fill-rule:nonzero;fill:rgb(0%,0%,0%);fill-opacity:1;" d="M 103.269531 25.847656 L 102.488281 19.644531 L 100.066406 25.40625 L 103.269531 25.847656 "/>
<path style="fill:none;stroke-width:5;stroke-linecap:butt;stroke-linejoin:miter;stroke:rgb(0%,0%,0%);stroke-opacity:1;stroke-miterlimit:4;" d="M 879.218315 603.085368 L 855.962046 683.587839 " transform="matrix(0.111361,0,0,-0.111361,0.726,125.754)"/>
<path style=" stroke:none;fill-rule:nonzero;fill:rgb(0%,0%,0%);fill-opacity:1;" d="M 97.878906 50.269531 L 94.722656 44.875 L 94.761719 51.125 L 97.878906 50.269531 "/>
<path style="fill:none;stroke-width:5;stroke-linecap:butt;stroke-linejoin:miter;stroke:rgb(0%,0%,0%);stroke-opacity:1;stroke-miterlimit:4;" d="M 677.979676 583.09129 L 642.270955 680.921962 " transform="matrix(0.111361,0,0,-0.111361,0.726,125.754)"/>
<path style=" stroke:none;fill-rule:nonzero;fill:rgb(0%,0%,0%);fill-opacity:1;" d="M 74.136719 50.386719 L 70.472656 45.324219 L 71.113281 51.539063 L 74.136719 50.386719 "/>
<path style="fill:none;stroke-width:5;stroke-linecap:butt;stroke-linejoin:miter;stroke:rgb(0%,0%,0%);stroke-opacity:1;stroke-miterlimit:4;" d="M 436.717804 616.835681 L 381.295623 728.907749 " transform="matrix(0.111361,0,0,-0.111361,0.726,125.754)"/>
<path style=" stroke:none;fill-rule:nonzero;fill:rgb(0%,0%,0%);fill-opacity:1;" d="M 45.109375 44.863281 L 40.984375 40.167969 L 42.210938 46.296875 L 45.109375 44.863281 "/>
<path style="fill:none;stroke-width:5;stroke-linecap:butt;stroke-linejoin:miter;stroke:rgb(0%,0%,0%);stroke-opacity:1;stroke-miterlimit:4;" d="M 446.714843 366.839554 L 391.292662 440.572101 " transform="matrix(0.111361,0,0,-0.111361,0.726,125.754)"/>
<path style=" stroke:none;fill-rule:nonzero;fill:rgb(0%,0%,0%);fill-opacity:1;" d="M 46.242188 76.613281 L 41.324219 72.757813 L 43.65625 78.554688 L 46.242188 76.613281 "/>
<path style="fill:none;stroke-width:5;stroke-linecap:butt;stroke-linejoin:miter;stroke:rgb(0%,0%,0%);stroke-opacity:1;stroke-miterlimit:4;" d="M 684.223441 340.601711 L 638.587835 386.20224 " transform="matrix(0.111361,0,0,-0.111361,0.726,125.754)"/>
<path style=" stroke:none;fill-rule:nonzero;fill:rgb(0%,0%,0%);fill-opacity:1;" d="M 73.75 82.394531 L 68.339844 79.269531 L 71.460938 84.683594 L 73.75 82.394531 "/>
<path style="fill:none;stroke-width:5;stroke-linecap:butt;stroke-linejoin:miter;stroke:rgb(0%,0%,0%);stroke-opacity:1;stroke-miterlimit:4;" d="M 907.981726 359.333005 L 873.991793 393.28786 " transform="matrix(0.111361,0,0,-0.111361,0.726,125.754)"/>
<path style=" stroke:none;fill-rule:nonzero;fill:rgb(0%,0%,0%);fill-opacity:1;" d="M 99.964844 81.605469 L 94.554688 78.480469 L 97.679688 83.894531 L 99.964844 81.605469 "/>
<path style="fill:none;stroke-width:5;stroke-linecap:butt;stroke-linejoin:miter;stroke:rgb(0%,0%,0%);stroke-opacity:1;stroke-miterlimit:4;" d="M 1253.668808 409.142813 C 1252.33587 409.002504 1250.967854 408.932349 1249.634915 408.932349 C 1211.891709 408.932349 1181.304277 465.266541 1181.304277 534.75473 C 1181.304277 598.630547 1207.156269 651.386851 1240.655119 659.524791 " transform="matrix(0.111361,0,0,-0.111361,0.726,125.754)"/>
<path style="fill:none;stroke-width:3.8;stroke-linecap:butt;stroke-linejoin:miter;stroke:rgb(13.730068%,12.159915%,12.54902%);stroke-opacity:1;stroke-miterlimit:4;" d="M 1084.98193 343.022047 C 1120.05926 334.919184 1204.139619 212.674691 1212.13725 221.724642 C 1219.36318 229.932737 1198.913097 249.155113 1211.926786 256.942281 C 1228.869136 267.009474 1264.648012 220.356626 1275.416752 209.587886 " transform="matrix(0.111361,0,0,-0.111361,0.726,125.754)"/>
<path style=" stroke:none;fill-rule:nonzero;fill:rgb(13.730068%,12.159915%,12.54902%);fill-opacity:1;" d="M 123.515625 87.136719 L 118.953125 85.816406 L 122.246094 89.242188 L 123.515625 87.136719 "/>
</g>
</g>
<g clip-path="url(#clip3)" clip-rule="nonzero">
<g style="fill:rgb(0%,0%,0%);fill-opacity:1;">
  <use xlink:href="#glyph0-1" x="115.53" y="11.373"/>
</g>
<g style="fill:rgb(0%,0%,0%);fill-opacity:1;">
  <use xlink:href="#glyph0-2" x="100.478" y="18.321"/>
</g>
<g style="fill:rgb(0%,0%,0%);fill-opacity:1;">
  <use xlink:href="#glyph1-1" x="143.474" y="104.637"/>
  <use xlink:href="#glyph1-2" x="148.430977" y="104.637"/>
  <use xlink:href="#glyph1-3" x="152.649429" y="104.637"/>
  <use xlink:href="#glyph1-4" x="158.45163" y="104.637"/>
  <use xlink:href="#glyph1-5" x="162.762136" y="104.637"/>
  <use xlink:href="#glyph1-6" x="167.411569" y="104.637"/>
</g>
<g style="fill:rgb(0%,0%,0%);fill-opacity:1;">
  <use xlink:href="#glyph1-4" x="141.892" y="112.608"/>
  <use xlink:href="#glyph1-7" x="146.202506" y="112.608"/>
  <use xlink:href="#glyph1-8" x="151.340802" y="112.608"/>
  <use xlink:href="#glyph1-9" x="156.32149" y="112.608"/>
</g>
<g style="fill:rgb(0%,0%,0%);fill-opacity:1;">
  <use xlink:href="#glyph1-10" x="160.106868" y="112.608"/>
</g>
<g style="fill:rgb(0%,0%,0%);fill-opacity:1;">
  <use xlink:href="#glyph1-1" x="164.912514" y="112.608"/>
  <use xlink:href="#glyph1-5" x="169.869491" y="112.608"/>
</g>
<g style="fill:rgb(0%,0%,0%);fill-opacity:1;">
  <use xlink:href="#glyph2-1" x="155.752" y="120.578"/>
</g>
</g>
</g>
</svg>
