<?xml version="1.0" encoding="UTF-8" standalone="no"?>
<!-- Created with Inkscape (http://www.inkscape.org/) -->
<svg xmlns:dc="http://purl.org/dc/elements/1.1/" xmlns:cc="http://creativecommons.org/ns#" xmlns:rdf="http://www.w3.org/1999/02/22-rdf-syntax-ns#" xmlns:svg="http://www.w3.org/2000/svg" xmlns="http://www.w3.org/2000/svg" xmlns:xlink="http://www.w3.org/1999/xlink" version="1.1" width="246.6pt" height="115.4pt" viewBox="0 0 177.94088 83.226707" id="svg63358">
  <defs id="defs63360">
    <g id="g63362">
      <g id="glyph0-0"/>
      <g id="glyph0-1">
        <path d="M 2.578125,1.546875 C 2.546875,1.5 2.5,1.46875 2.453125,1.4375 1.6875,0.75 1.21875,-0.3125 1.171875,-1.59375 c -0.03125,-0.875 0.125,-1.78125 0.53125,-2.5625 0.203125,-0.375 0.4375,-0.6875 0.75,-0.953125 C 2.5,-5.15625 2.546875,-5.1875 2.578125,-5.21875 l -0.25,0 c -0.15625,0 -0.140625,0 -0.25,0.078125 -0.359375,0.28125 -0.65625,0.65625 -0.890625,1.078125 -0.65625,1.234375 -0.703125,2.90625 -0.09375,4.25 0.21875,0.5 0.5625,0.921875 0.984375,1.28125 0.09375,0.0625 0.09375,0.078125 0.25,0.078125 l 0.25,0 z m 0,0" id="path63366"/>
      </g>
      <g id="glyph0-2">
        <path d="m 0.640625,-2.640625 c 0.125,-0.0625 0.21875,-0.140625 0.34375,-0.203125 C 1.203125,-2.9375 1.4375,-2.984375 1.6875,-3 1.75,-3.015625 1.828125,-3.015625 1.90625,-3.015625 c 0.28125,0.046875 0.515625,0.234375 0.59375,0.5 0.078125,0.203125 0.046875,0.453125 0.046875,0.65625 -0.359375,0 -0.734375,0.03125 -1.09375,0.125 -0.5,0.125 -1.125,0.375 -1.0625,1.015625 0.046875,0.28125 0.203125,0.5625 0.46875,0.703125 C 1.03125,0.0625 1.234375,0.0625 1.4375,0.046875 1.734375,0.015625 2.0625,-0.0625 2.3125,-0.25 c 0.09375,-0.0625 0.171875,-0.140625 0.25,-0.21875 l 0,0.46875 0.484375,0 0,-1.828125 c 0,-0.1875 0.03125,-0.390625 -0.015625,-0.59375 -0.0625,-0.484375 -0.5,-0.84375 -0.953125,-0.9375 -0.28125,-0.046875 -0.71875,0.015625 -0.953125,0.0625 -0.078125,0.03125 -0.46875,0.15625 -0.5,0.21875 -0.03125,0.03125 -0.015625,0.09375 -0.015625,0.125 0.015625,0.109375 0.03125,0.203125 0.03125,0.3125 z m 1.90625,1.015625 0,0.515625 c 0,0.140625 0,0.265625 -0.0625,0.390625 -0.078125,0.140625 -0.21875,0.25 -0.375,0.296875 -0.328125,0.125 -0.78125,0.140625 -1.0625,-0.09375 C 0.96875,-0.5625 0.90625,-0.640625 0.890625,-0.75 0.8125,-1.046875 1.078125,-1.28125 1.3125,-1.390625 1.640625,-1.546875 2.109375,-1.625 2.546875,-1.625 z m 0,0" id="path63369"/>
      </g>
      <g id="glyph0-3">
        <path d="m 0.4375,-5.21875 c 0.03125,0.03125 0.078125,0.0625 0.125,0.109375 0.859375,0.765625 1.328125,2 1.265625,3.515625 -0.015625,0.75 -0.203125,1.5 -0.5625,2.15625 C 1.078125,0.890625 0.84375,1.1875 0.5625,1.4375 0.515625,1.46875 0.46875,1.5 0.4375,1.546875 l 0.25,0 c 0.15625,0 0.140625,0 0.234375,-0.078125 0.375,-0.296875 0.671875,-0.671875 0.890625,-1.078125 0.671875,-1.25 0.71875,-2.90625 0.109375,-4.25 C 1.6875,-4.375 1.359375,-4.796875 0.9375,-5.140625 0.84375,-5.21875 0.84375,-5.21875 0.6875,-5.21875 l -0.25,0 z m 0,0" id="path63372"/>
      </g>
      <g id="glyph0-4">
        <path d="m 0.578125,-4.84375 0,4.84375 0.515625,0 0,-0.46875 0,0 c 0.0625,0.109375 0.171875,0.203125 0.265625,0.28125 0.3125,0.25 0.828125,0.328125 1.28125,0.109375 0.203125,-0.109375 0.375,-0.28125 0.515625,-0.46875 C 3.84375,-1.5 3.421875,-3.09375 2.453125,-3.3125 c -0.125,-0.046875 -0.28125,-0.046875 -0.421875,-0.015625 -0.40625,0.046875 -0.71875,0.25 -0.953125,0.5 l 0,-2.015625 -0.5,0 z M 1.8125,-2.953125 c 0.328125,-0.03125 0.703125,0.109375 0.921875,0.375 0.171875,0.21875 0.234375,0.5 0.234375,0.765625 0.03125,0.375 -0.015625,0.78125 -0.25,1.078125 -0.203125,0.265625 -0.53125,0.375 -0.84375,0.40625 -0.265625,0 -0.5,-0.09375 -0.671875,-0.3125 C 1.171875,-0.6875 1.125,-0.75 1.09375,-0.8125 c 0,-0.046875 0,-0.09375 0,-0.125 l 0,-1.390625 c 0,-0.0625 -0.015625,-0.140625 0.015625,-0.203125 0.03125,-0.078125 0.09375,-0.125 0.15625,-0.1875 0.15625,-0.125 0.34375,-0.21875 0.546875,-0.234375 z m 0,0" id="path63375"/>
      </g>
      <g id="glyph0-5">
        <path d="M 3.1875,-0.796875 C 3.125,-0.765625 3.078125,-0.71875 3.03125,-0.6875 2.9375,-0.625 2.84375,-0.5625 2.734375,-0.515625 2.3125,-0.3125 1.671875,-0.265625 1.296875,-0.5625 1.03125,-0.75 0.859375,-1.109375 0.84375,-1.5 0.8125,-1.953125 0.921875,-2.453125 1.296875,-2.75 1.5,-2.90625 1.765625,-3 2.140625,-2.96875 2.46875,-2.9375 2.65625,-2.890625 2.921875,-2.75 c 0.0625,0.03125 0.109375,0.078125 0.171875,0.09375 L 3.171875,-3.078125 C 3.015625,-3.15625 2.875,-3.234375 2.703125,-3.28125 c -0.40625,-0.140625 -1.03125,-0.125 -1.390625,0.046875 -0.34375,0.15625 -0.625,0.4375 -0.796875,0.765625 -0.25,0.5 -0.25,1.109375 0,1.625 0.09375,0.1875 0.21875,0.359375 0.390625,0.5 0.46875,0.4375 1.1875,0.484375 1.78125,0.28125 0.140625,-0.0625 0.265625,-0.125 0.390625,-0.203125 0.046875,-0.03125 0.109375,-0.0625 0.125,-0.09375 C 3.21875,-0.40625 3.1875,-0.796875 3.1875,-0.796875 z m 0,0" id="path63378"/>
      </g>
      <g id="glyph1-0"/>
      <g id="glyph1-1">
        <path d="M 0.640625,0 1.40625,0 C 1.5,0 1.484375,-0.03125 1.515625,-0.140625 1.546875,-0.25 1.5625,-0.359375 1.59375,-0.46875 l 0.25,-1.203125 C 1.875,-1.78125 1.890625,-1.890625 1.90625,-2 1.921875,-2.03125 1.921875,-2.078125 1.9375,-2.109375 1.984375,-2.140625 2.046875,-2.125 2.09375,-2.125 l 1.953125,0 0.125,-0.5625 -2.109375,0 0.3125,-1.515625 2.40625,0.015625 0.140625,-0.625 -2.40625,0 c -0.28125,0.015625 -0.609375,-0.03125 -0.84375,0.015625 l -0.03125,0.09375 -1,4.703125 z m 0,0" id="path63382"/>
      </g>
    </g>
    <clipPath id="clip1">
      <path d="m -216,666 612,0 0,-792 -612,0 0,792 z m 0,0" id="path63385"/>
    </clipPath>
    <clipPath id="clip2">
      <path d="m 12.472656,294.80078 167.000004,0 0,-295.999999 -167.000004,0 0,295.999999 z m 0,0" id="path63388"/>
    </clipPath>
    <clipPath id="clip5">
      <path d="m 114.53125,41.644531 c 0,-4.886718 -1.9375,-9.574218 -5.39453,-13.027343 -3.45703,-3.457032 -8.14063,-5.398438 -13.027345,-5.398438 -4.886719,0 -9.574219,1.941406 -13.03125,5.398438 -3.453125,3.453125 -5.394531,8.140625 -5.394531,13.027343 0,4.886719 1.941406,9.574219 5.394531,13.03125 3.457031,3.453125 8.144531,5.394532 13.03125,5.394532 4.886715,0 9.570315,-1.941407 13.027345,-5.394532 3.45703,-3.457031 5.39453,-8.144531 5.39453,-13.03125 z m 0,0" id="path63391"/>
    </clipPath>
    <clipPath id="clip10">
      <path d="m 114.53125,140.85937 c 0,-4.88671 -1.9375,-9.57421 -5.39453,-13.03124 -3.45703,-3.45313 -8.14063,-5.39454 -13.027345,-5.39454 -4.886719,0 -9.574219,1.94141 -13.03125,5.39454 -3.453125,3.45703 -5.394531,8.14453 -5.394531,13.03124 0,4.88672 1.941406,9.57032 5.394531,13.02735 3.457031,3.45312 8.144531,5.39453 13.03125,5.39453 4.886715,0 9.570315,-1.94141 13.027345,-5.39453 3.45703,-3.45703 5.39453,-8.14063 5.39453,-13.02735 z m 0,0" id="path63394"/>
    </clipPath>
    <clipPath id="clip15">
      <path d="m 114.53125,254.24219 c 0,-4.88672 -1.9375,-9.57032 -5.39453,-13.02735 -3.45703,-3.45312 -8.14063,-5.39453 -13.027345,-5.39453 -4.886719,0 -9.574219,1.94141 -13.03125,5.39453 -3.453125,3.45703 -5.394531,8.14063 -5.394531,13.02735 0,4.88672 1.941406,9.57422 5.394531,13.03125 3.457031,3.45312 8.144531,5.39453 13.03125,5.39453 4.886715,0 9.570315,-1.94141 13.027345,-5.39453 3.45703,-3.45703 5.39453,-8.14453 5.39453,-13.03125 z m 0,0" id="path63397"/>
    </clipPath>
  </defs>
  <g transform="translate(-0.62955178,-0.10282258)" id="g64262">
    <path d="m 13.902344,1.96094 2.835937,-0.01563 2.835938,-0.01562 2.832031,-0.01953 2.835938,-0.01954 2.835937,-0.02343 2.832031,-0.02344 2.835938,-0.02734 2.832031,-0.03125 2.835938,-0.03907 0,0" id="path63404" style="fill:none;stroke:#000000;stroke-width:0.5;stroke-linecap:round;stroke-linejoin:round;stroke-miterlimit:10"/>
    <path d="m 35.277344,2.71875 1.378906,-0.320312 2.757813,-0.652344 0,0 0,0 -2.773438,-0.578125 -1.386719,-0.289063" id="path63406"/>
    <path d="m 35.277344,2.71875 1.378906,-0.32031 2.757813,-0.65235 0,0 0,0 -2.773438,-0.57812 -1.386719,-0.28906 0.02344,1.83984 z m 0,0" id="path63408" style="fill:none;stroke:#000000;stroke-width:0.5;stroke-linecap:round;stroke-linejoin:round;stroke-miterlimit:10"/>
    <path d="M 39.414063,1.74609 42.25,1.70703 45.082031,1.66016 47.917969,1.60937 50.75,1.55469 53.585938,1.49219 56.417969,1.42187 59.253906,1.34375 62.085938,1.25781 64.917969,1.16406 67.75,1.0625 70.585937,0.96094 73.417969,0.85156 76.25,0.73828 79.082031,0.63281 81.914062,0.53125 C 82.859375,0.49609 83.804687,0.46875 84.75,0.44141 85.691406,0.41016 86.636719,0.38672 87.582031,0.36328 88.527344,0.33984 89.472656,0.32031 90.414062,0.30469 91.359375,0.28906 92.304687,0.27734 93.25,0.26953 94.195312,0.26173 95.140625,0.25781 96.085937,0.25781 l 0.02344,0 0.02344,0 c 0.945313,0 1.886719,0.0039 2.832032,0.01172 0.945312,0.0078 1.890621,0.01953 2.835931,0.03516 0.94531,0.01562 1.89063,0.03515 2.83203,0.05859 0.94532,0.02344 1.89063,0.04688 2.83594,0.07813 0.94531,0.02734 1.88672,0.05468 2.83203,0.08984 l 2.83203,0.10156 2.83594,0.10547 2.83203,0.11328 2.83203,0.10938 2.83203,0.10156 2.83205,0.10156 2.83202,0.09375 2.83593,0.08594 2.83204,0.07812 2.83593,0.07032 2.83203,0.0625 2.83594,0.05468 2.83203,0.05079 2.83594,0.04687 2.83203,0.03906 2.83594,0.03907 1.41797,0.01562" id="path63410" style="fill:none;stroke:#000000;stroke-width:0.5;stroke-linecap:round;stroke-linejoin:round;stroke-miterlimit:10"/>
    <path d="m 152.89062,2.667969 0,0 2.77735,-0.578125 1.38672,-0.289063 -1.37891,-0.324218 -2.76172,-0.648438 0,0" id="path63412"/>
    <path d="m 152.89063,2.66797 0,0 2.77734,-0.57813 1.38672,-0.28906 -1.37891,-0.32422 -2.76172,-0.64844 0,0 -0.0234,1.83985 z m 0,0" id="path63414" style="fill:none;stroke:#000000;stroke-width:0.5;stroke-linecap:round;stroke-linejoin:round;stroke-miterlimit:10"/>
    <path d="m 157.05469,1.80078 1.41797,0.01563 2.83203,0.02734 2.83594,0.02344 2.83593,0.02343 2.83203,0.01954 2.83594,0.01953 2.83203,0.01562 2.83594,0.01563" id="path63416" style="fill:none;stroke:#000000;stroke-width:0.5;stroke-linecap:round;stroke-linejoin:round;stroke-miterlimit:10"/>
    <path d="m 13.902344,15.1875 2.835937,-0.01172 2.835938,-0.01562 2.832031,-0.01563 2.835938,-0.01953 2.835937,-0.01953 2.832031,-0.02735 2.835938,-0.02734 2.832031,-0.03516 2.835938,-0.03906 0,0" id="path63418" style="fill:none;stroke:#000000;stroke-width:0.5;stroke-linecap:round;stroke-linejoin:round;stroke-miterlimit:10"/>
    <path d="m 35.277344,15.953125 1.378906,-0.324219 2.757813,-0.652343 0,0 0,0 -2.777344,-0.574219 -1.382813,-0.292969" id="path63420"/>
    <path d="m 35.277344,15.95312 1.378906,-0.32421 2.757813,-0.65235 0,0 0,0 -2.777344,-0.57422 -1.382813,-0.29297 0.02344,1.84375 z m 0,0" id="path63422" style="fill:none;stroke:#000000;stroke-width:0.5;stroke-linecap:round;stroke-linejoin:round;stroke-miterlimit:10"/>
    <path d="M 39.414063,14.97656 42.25,14.92969 45.082031,14.875 47.917969,14.8125 c 0.941406,-0.02344 1.886719,-0.04688 2.832031,-0.07422 0.945313,-0.02734 1.890625,-0.05859 2.832031,-0.08984 0.945313,-0.03125 1.890625,-0.06641 2.835938,-0.10547 0.941406,-0.03906 1.886719,-0.07813 2.832031,-0.125 0.941406,-0.04688 1.886719,-0.09375 2.828125,-0.14844 0.945313,-0.05469 1.886719,-0.11328 2.828125,-0.17187 0.945312,-0.06641 1.886719,-0.13282 2.828125,-0.20313 0.941406,-0.07422 1.886719,-0.15234 2.824219,-0.23437 0.941406,-0.08204 1.882812,-0.17188 2.824218,-0.26172 0.941407,-0.08985 1.878907,-0.1875 2.820313,-0.28516 0.941406,-0.09766 1.878906,-0.19922 2.820312,-0.30078 0.9375,-0.09766 1.878907,-0.20313 2.816407,-0.30078 0.941406,-0.09766 1.878906,-0.19141 2.820312,-0.28125 0.941406,-0.08985 1.882813,-0.17188 2.824219,-0.2461 0.941406,-0.07421 1.886719,-0.14062 2.828125,-0.19531 0.945312,-0.05469 1.886719,-0.09375 2.832031,-0.125 0.945313,-0.02734 1.890625,-0.04297 2.835938,-0.04297 l 0.128906,0 0,0 0.128906,0 c 0.945313,0 1.890625,0.01563 2.832031,0.04297 0.945308,0.03125 1.890628,0.07031 2.832028,0.125 0.94532,0.05469 1.88672,0.1211 2.82813,0.19531 0.9414,0.07422 1.88281,0.15625 2.82422,0.2461 0.9414,0.08984 1.88281,0.18359 2.82031,0.28125 0.94141,0.09765 1.87891,0.20312 2.82031,0.30078 0.9375,0.10156 1.87891,0.20312 2.81641,0.30078 0.94141,0.09766 1.88281,0.19531 2.82031,0.28516 0.94141,0.08984 1.88281,0.17968 2.82422,0.26172 0.94141,0.08203 1.88281,0.16015 2.82422,0.23437 0.94141,0.07031 1.88672,0.13672 2.82812,0.20313 0.94141,0.05859 1.88672,0.11718 2.82813,0.17187 0.94531,0.05469 1.88672,0.10156 2.83203,0.14844 0.94141,0.04687 1.88672,0.08594 2.83203,0.125 0.94141,0.03906 1.88672,0.07422 2.83203,0.10547 0.94532,0.03125 1.89063,0.0625 2.83203,0.08984 0.94532,0.02734 1.89063,0.05078 2.83594,0.07422 l 2.83203,0.0625 2.83594,0.05469 2.83203,0.04687 2.83594,0.03906 1.41797,0.01563" id="path63424" style="fill:none;stroke:#000000;stroke-width:0.5;stroke-linecap:round;stroke-linejoin:round;stroke-miterlimit:10"/>
    <path d="m 152.89062,15.898438 0,0 2.77344,-0.574219 1.39063,-0.292969 -1.37891,-0.320312 -2.76172,-0.652344 0,0" id="path63426"/>
    <path d="m 152.89063,15.89844 0,0 2.77343,-0.57422 1.39063,-0.29297 -1.37891,-0.32031 -2.76172,-0.65235 0,0 -0.0234,1.83985 z m 0,0" id="path63428" style="fill:none;stroke:#000000;stroke-width:0.5;stroke-linecap:round;stroke-linejoin:round;stroke-miterlimit:10"/>
    <path d="m 157.05469,15.03125 1.41797,0.01953 2.83203,0.02734 2.83594,0.02735 2.83593,0.01953 2.83203,0.01953 2.83594,0.01563 2.83203,0.01562 2.83594,0.01172" id="path63430" style="fill:none;stroke:#000000;stroke-width:0.5;stroke-linecap:round;stroke-linejoin:round;stroke-miterlimit:10"/>
    <path d="m 13.902344,28.41797 2.835937,-0.0078 2.835938,-0.01172 2.832031,-0.0078 2.835938,-0.01171 2.835937,-0.01563 2.832031,-0.01562 2.835938,-0.01954 2.835937,-0.02343 2.832032,-0.02735 0,0" id="path63432" style="fill:none;stroke:#000000;stroke-width:0.5;stroke-linecap:round;stroke-linejoin:round;stroke-miterlimit:10"/>
    <path d="m 35.273438,29.234375 1.378906,-0.316406 2.761719,-0.640625 0,0 0,-0.0039 -2.773438,-0.582032 -1.386719,-0.296875" id="path63434"/>
    <path d="m 35.273437,29.23437 1.378907,-0.3164 2.761719,-0.64063 0,0 0,-0.0039 -2.773438,-0.58203 -1.386719,-0.29688 0.01953,1.83984 z m 0,0" id="path63436" style="fill:none;stroke:#000000;stroke-width:0.5;stroke-linecap:round;stroke-linejoin:round;stroke-miterlimit:10"/>
    <path d="M 39.414063,28.27734 42.25,28.24219 45.082031,28.19922 c 0.945313,-0.01563 1.890625,-0.03125 2.835938,-0.05078 0.945312,-0.01953 1.890625,-0.04297 2.832031,-0.06641 0.945313,-0.02344 1.890625,-0.05078 2.835938,-0.08203 0.945312,-0.03125 1.886718,-0.0625 2.832031,-0.10547 0.945312,-0.03906 1.886719,-0.08203 2.832031,-0.13672 0.941406,-0.05078 1.886719,-0.10937 2.828125,-0.17969 0.941406,-0.07031 1.882812,-0.14843 2.824219,-0.24218 0.941406,-0.09375 1.878906,-0.19922 2.816406,-0.32813 0.933594,-0.125 1.871094,-0.26953 2.796875,-0.4414 0.929687,-0.17188 1.855469,-0.36719 2.773437,-0.58985 0.917969,-0.22265 1.828125,-0.47656 2.734375,-0.7539 0.902344,-0.27735 1.796875,-0.57813 2.6875,-0.89454 0.890625,-0.3164 1.777344,-0.64843 2.660157,-0.97265 0.886718,-0.32813 1.773437,-0.65625 2.667968,-0.96485 0.894532,-0.30859 1.792969,-0.60156 2.699219,-0.86328 0.90625,-0.26172 1.824219,-0.49609 2.746094,-0.69531 0.925781,-0.19531 1.859375,-0.35547 2.796875,-0.47656 0.9375,-0.11719 1.878906,-0.19531 2.824219,-0.22266 0.332031,-0.01172 0.667968,-0.01953 1.003906,-0.01953 l 0,0 c 0.332031,0 0.667969,0.0078 1.003906,0.01953 0.941406,0.02735 1.886719,0.10547 2.824219,0.22266 0.9375,0.12109 1.86719,0.28125 2.79297,0.47656 0.92187,0.19922 1.83984,0.43359 2.74609,0.69531 0.91016,0.26172 1.8086,0.55469 2.69922,0.86328 0.89453,0.3086 1.78125,0.63672 2.66797,0.96485 0.88672,0.32422 1.76953,0.65625 2.66406,0.97265 0.88672,0.31641 1.78125,0.61719 2.6875,0.89454 0.90235,0.27734 1.8125,0.53125 2.73047,0.7539 0.91797,0.22266 1.84375,0.41797 2.77344,0.58985 0.92969,0.17187 1.86328,0.3164 2.80078,0.4414 0.93359,0.12891 1.875,0.23438 2.8125,0.32813 0.94141,0.09375 1.88281,0.17187 2.82813,0.24218 0.9414,0.07032 1.88281,0.12891 2.82812,0.17969 0.94141,0.05469 1.88672,0.09766 2.83203,0.13672 0.94141,0.04297 1.88672,0.07422 2.83203,0.10547 0.94141,0.03125 1.88672,0.05859 2.83203,0.08203 0.94532,0.02344 1.89063,0.04688 2.83594,0.06641 0.94141,0.01953 1.88672,0.03515 2.83203,0.05078 l 2.83594,0.04297 2.83203,0.03515 2.83594,0.02735 1.41797,0.01172" id="path63438" style="fill:none;stroke:#000000;stroke-width:0.5;stroke-linecap:round;stroke-linejoin:round;stroke-miterlimit:10"/>
    <path d="m 152.89453,29.195313 0,0 2.77344,-0.585938 1.38672,-0.292969 -1.38282,-0.320312 -2.76171,-0.640625 0,0" id="path63440"/>
    <path d="m 152.89453,29.19531 0,0 2.77344,-0.58594 1.38672,-0.29296 -1.38281,-0.32032 -2.76172,-0.64062 0,0 -0.0156,1.83984 z m 0,0" id="path63442" style="fill:none;stroke:#000000;stroke-width:0.5;stroke-linecap:round;stroke-linejoin:round;stroke-miterlimit:10"/>
    <path d="m 157.05469,28.31641 1.41797,0.01171 2.83203,0.01954 2.83594,0.01562 2.83203,0.01563 2.83593,0.01171 2.83594,0.0078 2.83203,0.01172 2.83594,0.0078" id="path63444" style="fill:none;stroke:#000000;stroke-width:0.5;stroke-linecap:round;stroke-linejoin:round;stroke-miterlimit:10"/>
    <path d="m 13.902344,41.64453 25.511719,0" id="path63446" style="fill:none;stroke:#000000;stroke-width:0.5;stroke-linecap:round;stroke-linejoin:round;stroke-miterlimit:10"/>
    <path d="m 35.265625,42.566406 4.148438,-0.921875 -4.148438,-0.917968" id="path63448"/>
    <path d="m 35.265625,42.56641 4.148438,-0.92188 -4.148438,-0.91797 0,1.83985 z m 0,0" id="path63450" style="fill:none;stroke:#000000;stroke-width:0.5;stroke-linecap:round;stroke-linejoin:round;stroke-miterlimit:10"/>
    <path d="m 39.414063,41.64453 38.269531,0" id="path63452" style="fill:none;stroke:#000000;stroke-width:0.5;stroke-linecap:round;stroke-linejoin:round;stroke-miterlimit:10"/>
    <path d="m 114.53125,41.64453 42.52344,0" id="path63454" style="fill:none;stroke:#000000;stroke-width:0.5;stroke-linecap:round;stroke-linejoin:round;stroke-miterlimit:10"/>
    <path d="m 152.90234,42.566406 4.15235,-0.921875 -4.15235,-0.917968" id="path63456"/>
    <path d="m 152.90234,42.56641 4.15235,-0.92188 -4.15235,-0.91797 0,1.83985 z m 0,0" id="path63458" style="fill:none;stroke:#000000;stroke-width:0.5;stroke-linecap:round;stroke-linejoin:round;stroke-miterlimit:10"/>
    <path d="m 157.05469,41.64453 21.25781,0" id="path63460" style="fill:none;stroke:#000000;stroke-width:0.5;stroke-linecap:round;stroke-linejoin:round;stroke-miterlimit:10"/>
    <path d="m 13.902344,54.875 2.835937,0.0078 2.835938,0.0078 2.832031,0.01172 2.835938,0.01172 2.835937,0.01172 2.832031,0.01953 2.835938,0.01953 2.835937,0.02344 2.832032,0.02734 0,0" id="path63462" style="fill:none;stroke:#000000;stroke-width:0.5;stroke-linecap:round;stroke-linejoin:round;stroke-miterlimit:10"/>
    <path d="m 35.253906,55.894531 1.386719,-0.292968 2.773438,-0.585938 0,0 0,0 L 36.652344,54.375 35.273438,54.054688" id="path63464"/>
    <path d="m 35.253906,55.89453 1.386719,-0.29297 2.773438,-0.58594 0,0 0,0 -2.761719,-0.64062 -1.378907,-0.32031 -0.01953,1.83984 z m 0,0" id="path63466" style="fill:none;stroke:#000000;stroke-width:0.5;stroke-linecap:round;stroke-linejoin:round;stroke-miterlimit:10"/>
    <path d="m 39.414063,55.01562 2.835937,0.03516 2.832031,0.03906 c 0.945313,0.01563 1.890625,0.03516 2.835938,0.05469 0.945312,0.01563 1.890625,0.03906 2.832031,0.0625 0.945313,0.02344 1.890625,0.05078 2.835938,0.08203 0.945312,0.03125 1.886718,0.06641 2.832031,0.10547 0.945312,0.03906 1.886719,0.08594 2.832031,0.13672 0.941406,0.05469 1.886719,0.11328 2.828125,0.18359 0.941406,0.06641 1.882812,0.14453 2.824219,0.23828 0.941406,0.09375 1.878906,0.20313 2.816406,0.32813 0.933594,0.125 1.871094,0.27344 2.796875,0.44141 0.929687,0.17187 1.855469,0.36718 2.773437,0.58984 0.917969,0.22656 1.828125,0.47656 2.734375,0.75391 0.902344,0.27734 1.796875,0.58203 2.6875,0.89843 0.890625,0.31641 1.777344,0.64453 2.660157,0.97266 0.886718,0.32812 1.773437,0.65234 2.667968,0.96094 0.894532,0.30859 1.792969,0.60156 2.699219,0.86328 0.90625,0.26562 1.824219,0.5 2.746094,0.69531 0.925781,0.19922 1.859375,0.35938 2.796875,0.47656 0.9375,0.1211 1.878906,0.19532 2.824219,0.22657 0.332031,0.01171 0.667968,0.01562 1.003906,0.01562 l 0,0 c 0.332031,0 0.667969,-0.0039 1.003906,-0.01562 C 98.054687,63.12891 99,63.05469 99.9375,62.93359 c 0.9375,-0.11718 1.86719,-0.27734 2.79297,-0.47656 0.92187,-0.19531 1.83984,-0.42969 2.74609,-0.69531 0.91016,-0.26172 1.8086,-0.55469 2.69922,-0.86328 0.89453,-0.3086 1.78125,-0.63282 2.66797,-0.96094 0.88672,-0.32813 1.76953,-0.65625 2.66406,-0.97266 0.88672,-0.3164 1.78125,-0.62109 2.6875,-0.89843 0.90235,-0.27735 1.8125,-0.52735 2.73047,-0.75391 0.91797,-0.22266 1.84375,-0.41797 2.77344,-0.58984 0.92969,-0.16797 1.86328,-0.31641 2.80078,-0.44141 0.93359,-0.125 1.875,-0.23438 2.8125,-0.32813 0.94141,-0.09375 1.88281,-0.17187 2.82813,-0.23828 0.9414,-0.07031 1.88281,-0.1289 2.82812,-0.18359 0.94141,-0.05078 1.88672,-0.09766 2.83203,-0.13672 0.94141,-0.03906 1.88672,-0.07422 2.83203,-0.10547 0.94141,-0.03125 1.88672,-0.05859 2.83203,-0.08203 0.94532,-0.02344 1.89063,-0.04687 2.83594,-0.0625 0.94141,-0.01953 1.88672,-0.03906 2.83203,-0.05469 l 2.83594,-0.03906 2.83203,-0.03516 2.83594,-0.02734 1.41797,-0.01172" id="path63468" style="fill:none;stroke:#000000;stroke-width:0.5;stroke-linecap:round;stroke-linejoin:round;stroke-miterlimit:10"/>
    <path d="m 152.91016,55.933594 0,0 2.76171,-0.640625 1.38282,-0.316406 -1.38672,-0.296875 -2.77344,-0.585938 0,0" id="path63470"/>
    <path d="m 152.91016,55.93359 0,0 2.76172,-0.64062 1.38281,-0.31641 -1.38672,-0.29687 -2.77344,-0.58594 0,0 0.0156,1.83984 z m 0,0" id="path63472" style="fill:none;stroke:#000000;stroke-width:0.5;stroke-linecap:round;stroke-linejoin:round;stroke-miterlimit:10"/>
    <path d="m 157.05469,54.97656 1.41797,-0.01172 2.83203,-0.01953 2.83594,-0.01953 2.83203,-0.01172 2.83593,-0.01172 2.83594,-0.01172 2.83203,-0.0078 2.83594,-0.0078" id="path63474" style="fill:none;stroke:#000000;stroke-width:0.5;stroke-linecap:round;stroke-linejoin:round;stroke-miterlimit:10"/>
    <path d="m 13.902344,68.10156 2.835937,0.01172 2.835938,0.01563 2.832031,0.01953 2.835938,0.01562 2.835937,0.02344 2.832031,0.02734 2.835938,0.02735 2.832031,0.03125 2.835938,0.03906 0,0" id="path63476" style="fill:none;stroke:#000000;stroke-width:0.5;stroke-linecap:round;stroke-linejoin:round;stroke-miterlimit:10"/>
    <path d="m 35.253906,69.179688 1.382813,-0.289063 2.777344,-0.574219 0,-0.0039 0,0 -2.757813,-0.648437 -1.378906,-0.324219" id="path63478"/>
    <path d="m 35.253906,69.17969 1.382813,-0.28907 2.777344,-0.57421 0,-0.0039 0,0 -2.757813,-0.64844 -1.378906,-0.32422 -0.02344,1.83985 z m 0,0" id="path63480" style="fill:none;stroke:#000000;stroke-width:0.5;stroke-linecap:round;stroke-linejoin:round;stroke-miterlimit:10"/>
    <path d="m 39.414063,68.3125 2.835937,0.04687 2.832031,0.05469 2.835938,0.0625 c 0.941406,0.02344 1.886719,0.05078 2.832031,0.07813 0.945313,0.02734 1.890625,0.05468 2.832031,0.08593 0.945313,0.03516 1.890625,0.07032 2.835938,0.10547 0.941406,0.03907 1.886719,0.08203 2.832031,0.125 0.941406,0.04688 1.886719,0.09766 2.828125,0.14844 0.945313,0.05469 1.886719,0.11328 2.828125,0.17578 0.945312,0.0625 1.886719,0.12891 2.828125,0.20313 0.941406,0.07422 1.886719,0.14843 2.824219,0.23437 0.941406,0.08203 1.882812,0.16797 2.824218,0.26172 0.941407,0.08984 1.878907,0.18359 2.820313,0.28516 0.941406,0.09765 1.878906,0.19922 2.820312,0.29687 0.9375,0.10156 1.878907,0.20313 2.816407,0.30078 0.941406,0.09766 1.878906,0.19532 2.820312,0.28516 0.941406,0.08594 1.882813,0.17187 2.824219,0.24609 0.941406,0.07422 1.886719,0.13672 2.828125,0.19141 0.945312,0.05469 1.886719,0.09766 2.832031,0.125 0.945313,0.02734 1.890625,0.04297 2.835938,0.04687 l 0.128906,0 0.128906,0 c 0.945313,-0.0039 1.890625,-0.01953 2.832031,-0.04687 0.945308,-0.02734 1.890628,-0.07031 2.832028,-0.125 0.94532,-0.05469 1.88672,-0.11719 2.82813,-0.19141 0.9414,-0.07422 1.88281,-0.16015 2.82422,-0.24609 0.9414,-0.08984 1.88281,-0.1875 2.82031,-0.28516 0.94141,-0.09765 1.87891,-0.19922 2.82031,-0.30078 0.9375,-0.09765 1.87891,-0.19922 2.81641,-0.29687 0.94141,-0.10157 1.88281,-0.19532 2.82031,-0.28516 0.94141,-0.09375 1.88281,-0.17969 2.82422,-0.26172 0.94141,-0.08594 1.88281,-0.16015 2.82422,-0.23437 0.94141,-0.07422 1.88672,-0.14063 2.82812,-0.20313 0.94141,-0.0625 1.88672,-0.12109 2.82813,-0.17578 0.94531,-0.05078 1.88672,-0.10156 2.83203,-0.14844 0.94141,-0.04297 1.88672,-0.08593 2.83203,-0.125 0.94141,-0.03515 1.88672,-0.07031 2.83203,-0.10547 0.94532,-0.03125 1.89063,-0.05859 2.83203,-0.08593 0.94532,-0.02735 1.89063,-0.05469 2.83594,-0.07813 l 2.83203,-0.0625 2.83594,-0.05469 2.83203,-0.04687 2.83594,-0.03906 1.41797,-0.01563" id="path63482" style="fill:none;stroke:#000000;stroke-width:0.5;stroke-linecap:round;stroke-linejoin:round;stroke-miterlimit:10"/>
    <path d="m 152.91406,69.234375 0,0 2.76172,-0.652344 1.37891,-0.324218 -1.39063,-0.289063 -2.77344,-0.574219 0,0" id="path63484"/>
    <path d="m 152.91406,69.23437 0,0 2.76172,-0.65234 1.37891,-0.32422 -1.39063,-0.28906 -2.77343,-0.57422 0,0 0.0234,1.83984 z m 0,0" id="path63486" style="fill:none;stroke:#000000;stroke-width:0.5;stroke-linecap:round;stroke-linejoin:round;stroke-miterlimit:10"/>
    <path d="m 157.05469,68.25781 1.41797,-0.01562 2.83203,-0.02735 2.83594,-0.02734 2.83593,-0.02344 2.83203,-0.01562 2.83594,-0.01953 2.83203,-0.01563 2.83594,-0.01172" id="path63488" style="fill:none;stroke:#000000;stroke-width:0.5;stroke-linecap:round;stroke-linejoin:round;stroke-miterlimit:10"/>
    <path d="m 13.902344,81.33203 2.835937,0.01172 2.835938,0.01562 2.832031,0.01954 2.835938,0.01953 2.835937,0.02343 2.832031,0.02344 2.835938,0.03125 2.832031,0.03125 2.835938,0.03516 0,0" id="path63490" style="fill:none;stroke:#000000;stroke-width:0.5;stroke-linecap:round;stroke-linejoin:round;stroke-miterlimit:10"/>
    <path d="m 35.253906,82.414063 1.386719,-0.292969 2.773438,-0.578125 0,0 0,0 -2.757813,-0.648438 -1.378906,-0.324218" id="path63492"/>
    <path d="m 35.253906,82.41406 1.386719,-0.29297 2.773438,-0.57812 0,0 0,0 -2.757813,-0.64844 -1.378906,-0.32422 -0.02344,1.84375 z m 0,0" id="path63494" style="fill:none;stroke:#000000;stroke-width:0.5;stroke-linecap:round;stroke-linejoin:round;stroke-miterlimit:10"/>
    <path d="m 39.414063,81.54297 2.835937,0.04297 2.832031,0.04297 2.835938,0.05078 2.832031,0.05468 2.835938,0.06641 2.832031,0.07031 2.835937,0.07813 2.832032,0.08594 2.832031,0.09375 2.832031,0.09765 2.835937,0.10547 2.832032,0.10938 2.832031,0.10937 2.832031,0.10938 2.832031,0.10156 c 0.945313,0.03125 1.890625,0.0625 2.835938,0.08984 0.941406,0.02735 1.886719,0.05469 2.832031,0.07813 0.945313,0.01953 1.890625,0.03906 2.832031,0.05468 0.945313,0.01954 1.890625,0.03125 2.835938,0.03907 0.945312,0.0078 1.890625,0.01172 2.835937,0.01172 l 0.02344,0 0.02344,0 c 0.945313,0 1.886719,-0.0039 2.832032,-0.01172 0.945312,-0.0078 1.890621,-0.01953 2.835931,-0.03907 0.94531,-0.01562 1.89063,-0.03515 2.83203,-0.05468 0.94532,-0.02344 1.89063,-0.05078 2.83594,-0.07813 0.94531,-0.02734 1.88672,-0.05859 2.83203,-0.08984 l 2.83203,-0.10156 2.83594,-0.10938 2.83203,-0.10937 2.83203,-0.10938 2.83203,-0.10547 2.83205,-0.09765 2.83202,-0.09375 2.83593,-0.08594 2.83204,-0.07813 2.83593,-0.07031 2.83203,-0.06641 2.83594,-0.05468 2.83203,-0.05078 2.83594,-0.04297 2.83203,-0.04297 2.83594,-0.03516 1.41797,-0.01562" id="path63496" style="fill:none;stroke:#000000;stroke-width:0.5;stroke-linecap:round;stroke-linejoin:round;stroke-miterlimit:10"/>
    <path d="m 152.91406,82.460938 0,0 2.76172,-0.648438 1.37891,-0.320312 -1.38672,-0.292969 -2.77735,-0.578125 0,0" id="path63498"/>
    <path d="m 152.91406,82.46094 0,0 2.76172,-0.64844 1.37891,-0.32031 -1.38672,-0.29297 -2.77734,-0.57813 0,0 0.0234,1.83985 z m 0,0" id="path63500" style="fill:none;stroke:#000000;stroke-width:0.5;stroke-linecap:round;stroke-linejoin:round;stroke-miterlimit:10"/>
    <path d="m 157.05469,81.49219 1.41797,-0.01563 2.83203,-0.03125 2.83594,-0.02344 2.83593,-0.02343 2.83203,-0.01953 2.83594,-0.01954 2.83203,-0.01562 2.83594,-0.01172" id="path63502" style="fill:none;stroke:#000000;stroke-width:0.5;stroke-linecap:round;stroke-linejoin:round;stroke-miterlimit:10"/>
    <g clip-path="url(#clip5)" id="g63508">
      <path d="m 696.07125,2391.2622 280.625,280.625" transform="matrix(0.1,0,0,-0.1,12.471,294.802)" id="path63510" style="fill:none;stroke:#000000;stroke-width:3;stroke-linecap:round;stroke-linejoin:round;stroke-miterlimit:10"/>
      <path d="m 723.14156,2364.1919 280.58594,280.625" transform="matrix(0.1,0,0,-0.1,12.471,294.802)" id="path63512" style="fill:none;stroke:#000000;stroke-width:3;stroke-linecap:round;stroke-linejoin:round;stroke-miterlimit:10"/>
      <path d="m 669.00094,2418.3325 280.625,280.5859" transform="matrix(0.1,0,0,-0.1,12.471,294.802)" id="path63514" style="fill:none;stroke:#000000;stroke-width:3;stroke-linecap:round;stroke-linejoin:round;stroke-miterlimit:10"/>
      <path d="m 750.17281,2337.1216 280.62499,280.625" transform="matrix(0.1,0,0,-0.1,12.471,294.802)" id="path63516" style="fill:none;stroke:#000000;stroke-width:3;stroke-linecap:round;stroke-linejoin:round;stroke-miterlimit:10"/>
      <path d="m 641.93062,2445.3638 280.625,280.625" transform="matrix(0.1,0,0,-0.1,12.471,294.802)" id="path63518" style="fill:none;stroke:#000000;stroke-width:3;stroke-linecap:round;stroke-linejoin:round;stroke-miterlimit:10"/>
      <path d="m 777.24312,2310.0903 280.62498,280.625" transform="matrix(0.1,0,0,-0.1,12.471,294.802)" id="path63520" style="fill:none;stroke:#000000;stroke-width:3;stroke-linecap:round;stroke-linejoin:round;stroke-miterlimit:10"/>
      <path d="m 614.89937,2472.4341 280.58594,280.625" transform="matrix(0.1,0,0,-0.1,12.471,294.802)" id="path63522" style="fill:none;stroke:#000000;stroke-width:3;stroke-linecap:round;stroke-linejoin:round;stroke-miterlimit:10"/>
      <path d="m 804.31344,2283.02 280.62496,280.625" transform="matrix(0.1,0,0,-0.1,12.471,294.802)" id="path63524" style="fill:none;stroke:#000000;stroke-width:3;stroke-linecap:round;stroke-linejoin:round;stroke-miterlimit:10"/>
      <path d="m 587.82906,2499.5044 280.625,280.625" transform="matrix(0.1,0,0,-0.1,12.471,294.802)" id="path63526" style="fill:none;stroke:#000000;stroke-width:3;stroke-linecap:round;stroke-linejoin:round;stroke-miterlimit:10"/>
    </g>
    <path d="m 114.53125,41.64453 c 0,-4.88672 -1.9375,-9.57422 -5.39453,-13.02734 -3.45703,-3.45703 -8.14063,-5.39844 -13.027345,-5.39844 -4.886719,0 -9.574219,1.94141 -13.03125,5.39844 -3.453125,3.45312 -5.394531,8.14062 -5.394531,13.02734 0,4.88672 1.941406,9.57422 5.394531,13.03125 3.457031,3.45313 8.144531,5.39453 13.03125,5.39453 4.886715,0 9.570315,-1.9414 13.027345,-5.39453 3.45703,-3.45703 5.39453,-8.14453 5.39453,-13.03125 z m 0,0" id="path63532" style="fill:none;stroke:#000000;stroke-width:0.5;stroke-linecap:round;stroke-linejoin:round;stroke-miterlimit:10"/>
    <use transform="translate(-0.035,43.508)" id="use63728" x="0" y="0" width="179" height="295" xlink:href="#glyph0-1"/>
    <use transform="translate(2.981866,43.508)" id="use63730" x="0" y="0" width="179" height="295" xlink:href="#glyph0-2"/>
    <use transform="translate(6.618703,43.508)" id="use63732" x="0" y="0" width="179" height="295" xlink:href="#glyph0-3"/>
  </g>
</svg>
