<?xml version="1.0" encoding="UTF-8" standalone="no"?>
<svg xmlns="http://www.w3.org/2000/svg" xmlns:xlink="http://www.w3.org/1999/xlink" version="1.1" width="436.3pt" height="121.8pt" viewBox="0 0 252.15082 70.37715">
 <metadata id="metadata24318"/>
 <defs id="defs24060">
  <g id="g24062">
   <g id="glyph0-0">
   </g>
   <g id="glyph0-1">
    <path d="M 2.578125,1.546875 C 2.546875,1.5 2.5,1.46875 2.453125,1.4375 1.6875,0.75 1.21875,-0.3125 1.171875,-1.59375 c -0.03125,-0.875 0.125,-1.78125 0.53125,-2.5625 0.203125,-0.375 0.4375,-0.6875 0.75,-0.953125 C 2.5,-5.15625 2.546875,-5.1875 2.578125,-5.21875 l -0.25,0 c -0.15625,0 -0.140625,0 -0.25,0.078125 -0.359375,0.28125 -0.65625,0.65625 -0.890625,1.078125 -0.65625,1.234375 -0.703125,2.90625 -0.09375,4.25 0.21875,0.5 0.5625,0.921875 0.984375,1.28125 0.09375,0.0625 0.09375,0.078125 0.25,0.078125 l 0.25,0 z m 0,0" id="path24068"/>
   </g>
   <g id="glyph0-2">
    <path d="m 0.640625,-2.640625 c 0.125,-0.0625 0.21875,-0.140625 0.34375,-0.203125 C 1.203125,-2.9375 1.4375,-2.984375 1.6875,-3 1.75,-3.015625 1.828125,-3.015625 1.90625,-3.015625 c 0.28125,0.046875 0.515625,0.234375 0.59375,0.5 0.078125,0.203125 0.046875,0.453125 0.046875,0.65625 -0.359375,0 -0.734375,0.03125 -1.09375,0.125 -0.5,0.125 -1.125,0.375 -1.0625,1.015625 0.046875,0.28125 0.203125,0.5625 0.46875,0.703125 C 1.03125,0.0625 1.234375,0.0625 1.4375,0.046875 1.734375,0.015625 2.0625,-0.0625 2.3125,-0.25 c 0.09375,-0.0625 0.171875,-0.140625 0.25,-0.21875 l 0,0.46875 0.484375,0 0,-1.828125 c 0,-0.1875 0.03125,-0.390625 -0.015625,-0.59375 -0.0625,-0.484375 -0.5,-0.84375 -0.953125,-0.9375 -0.28125,-0.046875 -0.71875,0.015625 -0.953125,0.0625 -0.078125,0.03125 -0.46875,0.15625 -0.5,0.21875 -0.03125,0.03125 -0.015625,0.09375 -0.015625,0.125 0.015625,0.109375 0.03125,0.203125 0.03125,0.3125 z m 1.90625,1.015625 0,0.515625 c 0,0.140625 0,0.265625 -0.0625,0.390625 -0.078125,0.140625 -0.21875,0.25 -0.375,0.296875 -0.328125,0.125 -0.78125,0.140625 -1.0625,-0.09375 C 0.96875,-0.5625 0.90625,-0.640625 0.890625,-0.75 0.8125,-1.046875 1.078125,-1.28125 1.3125,-1.390625 1.640625,-1.546875 2.109375,-1.625 2.546875,-1.625 z m 0,0" id="path24071"/>
   </g>
   <g id="glyph0-3">
    <path d="m 0.4375,-5.21875 c 0.03125,0.03125 0.078125,0.0625 0.125,0.109375 0.859375,0.765625 1.328125,2 1.265625,3.515625 -0.015625,0.75 -0.203125,1.5 -0.5625,2.15625 C 1.078125,0.890625 0.84375,1.1875 0.5625,1.4375 0.515625,1.46875 0.46875,1.5 0.4375,1.546875 l 0.25,0 c 0.15625,0 0.140625,0 0.234375,-0.078125 0.375,-0.296875 0.671875,-0.671875 0.890625,-1.078125 0.671875,-1.25 0.71875,-2.90625 0.109375,-4.25 C 1.6875,-4.375 1.359375,-4.796875 0.9375,-5.140625 0.84375,-5.21875 0.84375,-5.21875 0.6875,-5.21875 l -0.25,0 z m 0,0" id="path24074"/>
   </g>
   <g id="glyph0-4">
    <path d="m 0.578125,-4.84375 0,4.84375 0.515625,0 0,-0.46875 0,0 c 0.0625,0.109375 0.171875,0.203125 0.265625,0.28125 0.3125,0.25 0.828125,0.328125 1.28125,0.109375 0.203125,-0.109375 0.375,-0.28125 0.515625,-0.46875 C 3.84375,-1.5 3.421875,-3.09375 2.453125,-3.3125 c -0.125,-0.046875 -0.28125,-0.046875 -0.421875,-0.015625 -0.40625,0.046875 -0.71875,0.25 -0.953125,0.5 l 0,-2.015625 -0.5,0 z M 1.8125,-2.953125 c 0.328125,-0.03125 0.703125,0.109375 0.921875,0.375 0.171875,0.21875 0.234375,0.5 0.234375,0.765625 0.03125,0.375 -0.015625,0.78125 -0.25,1.078125 -0.203125,0.265625 -0.53125,0.375 -0.84375,0.40625 -0.265625,0 -0.5,-0.09375 -0.671875,-0.3125 C 1.171875,-0.6875 1.125,-0.75 1.09375,-0.8125 c 0,-0.046875 0,-0.09375 0,-0.125 l 0,-1.390625 c 0,-0.0625 -0.015625,-0.140625 0.015625,-0.203125 0.03125,-0.078125 0.09375,-0.125 0.15625,-0.1875 0.15625,-0.125 0.34375,-0.21875 0.546875,-0.234375 z m 0,0" id="path24077"/>
   </g>
   <g id="glyph1-0">
   </g>
   <g id="glyph1-1">
    <path d="M 0.625,-0.90625 0.421875,-0.375 c 0.171875,0.109375 0.359375,0.21875 0.5625,0.296875 C 1.703125,0.1875 2.5625,0.203125 3.25,-0.1875 c 0.46875,-0.265625 0.875,-0.71875 0.921875,-1.28125 0,-0.09375 0,-0.203125 -0.015625,-0.296875 C 4.0625,-2.1875 3.71875,-2.484375 3.359375,-2.625 2.75,-2.828125 1.859375,-2.796875 1.6875,-3.421875 1.59375,-3.8125 1.9375,-4.140625 2.25,-4.328125 c 0.328125,-0.15625 0.6875,-0.21875 1.046875,-0.1875 0.375,0.015625 0.65625,0.125 0.90625,0.328125 0.0625,0.03125 0.109375,0.078125 0.15625,0.125 0.0625,-0.125 0.109375,-0.265625 0.15625,-0.390625 C 4.546875,-4.53125 4.609375,-4.609375 4.5,-4.640625 4.109375,-4.859375 3.640625,-4.96875 3.03125,-4.9375 2.375,-4.90625 1.640625,-4.546875 1.3125,-3.9375 1.25,-3.8125 1.203125,-3.65625 1.1875,-3.5 1.125,-2.890625 1.609375,-2.546875 2,-2.40625 c 0.125,0.046875 0.265625,0.078125 0.390625,0.09375 0.1875,0.046875 0.59375,0.140625 0.734375,0.1875 0.21875,0.078125 0.421875,0.25 0.515625,0.46875 C 3.8125,-1.1875 3.40625,-0.6875 3,-0.515625 2.265625,-0.140625 1.328125,-0.359375 0.796875,-0.78125 0.734375,-0.828125 0.6875,-0.875 0.625,-0.90625 z m 0,0" id="path24083"/>
   </g>
   <g id="glyph2-0">
   </g>
   <g id="glyph2-1">
    <path d="m -3.359375,-2.890625 1.234375,-1.75 3.0625,3.296875 0.234375,-0.3125 C 1.1875,-1.6875 1.25,-1.734375 1.234375,-1.796875 1.21875,-1.8125 1.1875,-1.84375 1.171875,-1.859375 L 1.03125,-2.03125 c -0.5,-0.515625 -2.828125,-3.015625 -2.859375,-3.046875 0.390625,-0.578125 0.875,-1.1875 1.203125,-1.734375 -0.0625,-0.109375 -0.1875,-0.21875 -0.25,-0.3125 l -2.078125,2.953125 c -0.203125,0.328125 -0.5,0.65625 -0.65625,0.984375 0.0625,0.109375 0.15625,0.203125 0.25,0.296875 z m 0,0" id="path24089"/>
   </g>
   <g id="glyph3-0">
   </g>
   <g id="glyph3-1">
    <path d="m -0.0625,-5.015625 c 0,0.109375 0.046875,0.6875 0.046875,0.875 L 0.125,-2.296875 c 0.015625,0.296875 0,0.5625 0.078125,0.828125 0.140625,0.546875 0.484375,0.875 0.875,0.984375 0.75,0.25 1.53125,-0.109375 2.03125,-0.671875 0.109375,-0.125 0.21875,-0.265625 0.3125,-0.4375 0.203125,-0.375 0.3125,-0.78125 0.25,-1.265625 0,-0.15625 -0.1875,-2.609375 -0.1875,-2.609375 L 3.46875,-5.8125 c 0,-0.0625 0,-0.140625 -0.015625,-0.21875 L 2.96875,-5.890625 c 0,0.109375 0.046875,0.703125 0.046875,0.875 l 0.125,1.734375 C 3.1875,-2.796875 3.28125,-2.21875 3.046875,-1.734375 2.8125,-1.25 2.3125,-0.90625 1.765625,-0.84375 1.453125,-0.8125 1.140625,-0.875 0.921875,-1.125 0.625,-1.46875 0.671875,-1.96875 0.640625,-2.390625 l -0.125,-1.78125 C 0.5,-4.3125 0.453125,-5.03125 0.4375,-5.171875 l -0.5,0.15625 z m 0,0" id="path24095"/>
   </g>
  </g>
  <clipPath id="clip1">
   <path d="m -180,667 612,0 0,-792 -612,0 0,792 z m 0,0" id="path24098"/>
  </clipPath>
  <clipPath id="clip2">
   <path d="m -0.375,244.80078 252,0 0,-244.999999 -252,0 0,244.999999 z m 0,0" id="path24101"/>
  </clipPath>
  <clipPath id="clip3">
   <path d="m -89.375,254.80078 461,0 0,-305.292968 -461,0 0,305.292968 z m 0,0" id="path24104"/>
  </clipPath>
  <clipPath id="clip7">
   <path d="m -89.375,-50.492188 461,0 0,305.292968 -461,0 0,-305.292968 z m 0,0" id="path24116"/>
  </clipPath>
 </defs>
 <g transform="translate(-27.34375,-181.88514)" id="g25083">
  <path d="m 114.53906,243.22635 -72.30078,0 0,-36.81641 72.30078,0 0,36.81641 z m 0,0" id="path24220" stroke-dasharray="3 2" fill="none" stroke="#211e1e" stroke-width="0.5"/>
  <path d="m 31.179688,224.82791 c 0,0.91797 -0.742188,1.66016 -1.660157,1.66016 -0.921875,0 -1.664062,-0.74219 -1.664062,-1.66016 0,-0.92188 0.746094,-1.66406 1.664062,-1.66406 0.917969,0 1.660157,0.74218 1.660157,1.66406" id="path24222" fill="#211e1e"/>
  <path d="m 31.179687,224.82791 c 0,0.91797 -0.742187,1.66016 -1.660156,1.66016 -0.921875,0 -1.664062,-0.74219 -1.664062,-1.66016 0,-0.92188 0.746094,-1.66406 1.664062,-1.66406 0.917969,0 1.660156,0.74218 1.660156,1.66406 l 0,0 z m 0,0" id="path24224" fill="none" stroke="#211e1e"/>
  <path d="m 128.88281,224.82791 c 0,0.91797 -0.74609,1.66016 -1.66406,1.66016 -0.92187,0 -1.66406,-0.74219 -1.66406,-1.66016 0,-0.92188 0.74219,-1.66406 1.66406,-1.66406 0.91797,0 1.66406,0.74218 1.66406,1.66406" id="path24226" fill="#211e1e"/>
  <path d="m 128.88281,224.82791 c 0,0.91797 -0.74609,1.66016 -1.66406,1.66016 -0.92187,0 -1.66406,-0.74219 -1.66406,-1.66016 0,-0.92188 0.74219,-1.66406 1.66406,-1.66406 0.91797,0 1.66406,0.74218 1.66406,1.66406 z m 0,0" id="path24228" fill="none" stroke="#211e1e"/>
  <path d="m 127.23828,224.824 c 0,0 -11.10547,-0.85937 -26.76562,-6.96875 -1.94141,-0.75781 -3.898441,-1.47265 -5.87891,-2.13281 -7.808594,-2.59766 -15.363281,-4.12109 -23.503906,-2.44922 -5.058594,1.03906 -9.984375,2.71094 -14.789063,4.58203 -15.65625,6.10938 -26.761719,6.96875 -26.761719,6.96875" id="path24230" fill="none" stroke="#211e1e" stroke-width="0.5"/>
  <path d="m 29.519531,224.82791 c 0,0 11.105469,0.85547 26.765625,6.96484 6.65625,2.59766 14.03125,5.32813 21.296875,5.36328 7.84375,0.0391 15.429688,-2.47265 22.679689,-5.28515 0.0664,-0.0273 0.12891,-0.0508 0.19531,-0.0781 15.65625,-6.10937 26.76172,-6.96484 26.76172,-6.96484" id="path24232" fill="none" stroke="#211e1e" stroke-width="0.5"/>
  <path d="m 78.402344,223.57791 0,7.39062" id="path24234" fill="none" stroke="#211e1e" stroke-width="0.5"/>
  <path d="m 79.992188,224.67557 -1.605469,-6.00782 -1.613281,6.00782 3.222656,0" id="path24236" fill="#211e1e"/>
  <path d="m 79.992187,224.67557 -1.605468,-6.00782 -1.613281,6.00782 3.222656,0 -0.0039,0 z m 0,0" id="path24238" fill="none" stroke="#211e1e"/>
  <path d="m 214,218.80838 -69.4375,20.14453 -10.25781,-35.35547 69.4375,-20.14453 L 214,218.80838 z m 0,0" id="path24240" stroke-dasharray="3 2" fill="none" stroke="#211e1e" stroke-width="0.5"/>
  <path d="m 222.64844,197.14041 c 0.2539,0.88281 -0.25391,1.80469 -1.13672,2.05859 -0.88281,0.25782 -1.80469,-0.25 -2.0586,-1.13281 -0.25781,-0.88281 0.2461,-1.80469 1.13282,-2.0625 0.8789,-0.25391 1.80468,0.25781 2.0625,1.13672" id="path24242" fill="#211e1e"/>
  <path d="m 222.64844,197.14041 c 0.2539,0.88281 -0.25391,1.80469 -1.13672,2.05859 -0.88281,0.25782 -1.80469,-0.25 -2.0586,-1.13281 -0.25781,-0.88281 0.2461,-1.80469 1.13282,-2.0625 0.8789,-0.25391 1.80468,0.25781 2.0625,1.13672 z m 0,0" id="path24244" fill="none" stroke="#211e1e"/>
  <path d="m 221.07031,197.59744 c 0,0 -10.91015,2.26953 -27.64844,0.76563 -2.07812,-0.1875 -4.15625,-0.32813 -6.24218,-0.41016 -8.22266,-0.32031 -15.89844,0.32031 -23.25391,4.19531 -4.57031,2.41016 -8.83594,5.38281 -12.92578,8.51953 -13.33594,10.23047 -23.76172,14.15235 -23.76172,14.15235" id="path24246" fill="none" stroke="#211e1e" stroke-width="0.5"/>
  <path d="m 127.21875,224.82791 c 0,0 10.90625,-2.27344 27.64453,-0.76953 7.12109,0.64062 14.96094,1.20703 21.94922,-0.78516 7.54687,-2.14844 14.13281,-6.67187 20.3125,-11.39453 0.0508,-0.043 0.10937,-0.082 0.16406,-0.125 13.33203,-10.23047 23.76172,-14.15234 23.76172,-14.15234" id="path24248" fill="none" stroke="#211e1e" stroke-width="0.5"/>
  <path d="m 173.0625,209.53494 2.05859,7.09766" id="path24250" fill="none" stroke="#211e1e" stroke-width="0.5"/>
  <path d="m 174.89844,210.14822 -3.22266,-5.32422 0.125,6.21875 3.09766,-0.89453 z m 0,0" id="path24252" fill="#211e1e" stroke="#211e1e"/>
  <path d="m 151.46875,212.45682 4.40234,-5.24219 -6.43359,2.33984 2.03125,2.90235 z m 0,0" id="path24254" fill="#211e1e" stroke="#211e1e"/>
  <path d="m 196.72266,214.23025 4.39843,-5.24218 -6.43359,2.33984 2.03516,2.90234 z m 0,0" id="path24256" fill="#211e1e" stroke="#211e1e"/>
  <path d="m 154.81641,222.47244 6.53125,2.04688 -6.67969,1.48828 0.14844,-3.53516" id="path24258" fill="#211e1e"/>
  <path d="m 154.81641,222.47244 6.53125,2.04688 -6.67969,1.48828 0.14844,-3.53516 0,0 z m 0,0" id="path24260" fill="none" stroke="#211e1e"/>
  <path d="m 189.39844,196.42166 6.53125,2.04687 -6.67969,1.48829 0.14844,-3.53516 z m 0,0" id="path24262" fill="#211e1e" stroke="#211e1e"/>
  <path d="m 56.390625,219.61307 5.695313,-3.79688 -6.828125,0.4375 1.132812,3.35547" id="path24264" fill="#211e1e"/>
  <path d="m 56.390625,219.61307 5.695312,-3.79688 -6.828125,0.4375 1.132813,3.35547 0,0.004 z m 0,0" id="path24266" fill="none" stroke="#211e1e"/>
  <path d="m 96.773438,234.85916 5.691402,-3.79688 -6.828121,0.44141 1.136719,3.35547" id="path24268" fill="#211e1e"/>
  <path d="m 96.773437,234.85916 5.691403,-3.79688 -6.828121,0.44141 1.136718,3.35547 0,0 z m 0,0" id="path24270" fill="none" stroke="#211e1e"/>
  <path d="m 56.453125,230.14822 5.691406,3.79688 -6.828125,-0.44141 1.136719,-3.35547 z m 0,0" id="path24272" fill="#211e1e" stroke="#211e1e"/>
  <path d="m 97.601563,215.03494 5.695317,3.79688 -6.82813,-0.44141 1.132813,-3.35156" id="path24274" fill="#211e1e"/>
  <path d="m 97.601562,215.03494 5.695318,3.79688 -6.82813,-0.44141 1.132812,-3.35156 0,-0.004 z m 0,0" id="path24276" fill="none" stroke="#211e1e"/>
  <use transform="translate(54.787998,187.54201)" id="use24302" width="251" height="252" xlink:href="#glyph0-1"/>
  <use transform="translate(57.804867,187.54201)" id="use24304" width="251" height="252" xlink:href="#glyph0-4"/>
  <use transform="translate(61.630692,187.54201)" id="use24306" width="251" height="252" xlink:href="#glyph0-3"/>
  <use transform="translate(76.255997,251.629)" id="use24310" width="251" height="252" xlink:href="#glyph1-1"/>
  <use transform="translate(179.59599,237.98399)" id="use24314" width="251" height="252" xlink:href="#glyph3-1"/>
 </g>
</svg>
