<?xml version="1.0" encoding="UTF-8"?>
<svg xmlns="http://www.w3.org/2000/svg" xmlns:xlink="http://www.w3.org/1999/xlink" width="287pt" height="258pt" viewBox="0 0 166 149" version="1.1">
<defs>
<g>
<symbol overflow="visible" id="glyph0-0">
<path style="stroke:none;" d=""/>
</symbol>
<symbol overflow="visible" id="glyph0-1">
<path style="stroke:none;" d="M 1.75 -4.84375 L 0.734375 0 C 1.765625 0 2.875 0.015625 3.875 0 C 3.9375 -0.125 3.9375 -0.265625 3.96875 -0.40625 L 1.359375 -0.40625 L 2.28125 -4.84375 L 1.75 -4.84375 Z M 1.75 -4.84375 "/>
</symbol>
<symbol overflow="visible" id="glyph0-2">
<path style="stroke:none;" d="M 1.625 -4.84375 L 0.609375 0 C 0.765625 0 0.90625 0 1.046875 -0.015625 L 1.078125 -0.09375 C 1.140625 -0.4375 1.21875 -0.796875 1.296875 -1.125 L 1.390625 -1.21875 L 2.0625 -1.734375 C 2.34375 -1.15625 2.625 -0.578125 2.9375 -0.015625 C 3.09375 0 3.296875 0 3.46875 0 L 2.4375 -2.046875 C 2.96875 -2.453125 3.46875 -2.875 4 -3.28125 L 4 -3.296875 C 3.796875 -3.296875 3.59375 -3.296875 3.40625 -3.28125 L 3.328125 -3.234375 L 1.421875 -1.734375 L 2.078125 -4.84375 L 1.625 -4.84375 Z M 1.625 -4.84375 "/>
</symbol>
<symbol overflow="visible" id="glyph1-0">
<path style="stroke:none;" d=""/>
</symbol>
<symbol overflow="visible" id="glyph1-1">
<path style="stroke:none;" d="M 0.578125 -2.359375 C 0.59375 -2.28125 0.609375 -2.21875 0.625 -2.140625 C 0.71875 -1.65625 1.078125 -0.0625 1.078125 0 C 1.078125 0.015625 0.953125 0.21875 0.953125 0.21875 C 0.828125 0.40625 0.671875 0.625 0.375 0.59375 C 0.296875 0.59375 0.234375 0.578125 0.171875 0.5625 C 0.125 0.5625 0.0625 0.53125 0.015625 0.53125 L -0.015625 0.84375 C 0.15625 0.859375 0.421875 0.890625 0.5625 0.84375 C 0.875 0.765625 1.109375 0.421875 1.25 0.1875 L 1.5 -0.203125 C 1.640625 -0.421875 2.78125 -2.234375 2.84375 -2.359375 C 2.71875 -2.359375 2.609375 -2.359375 2.5 -2.34375 C 2.375 -2.171875 2.28125 -1.984375 2.15625 -1.8125 C 1.875 -1.328125 1.5625 -0.875 1.3125 -0.359375 L 1.3125 -0.359375 C 1.234375 -1.078125 1.0625 -1.6875 0.9375 -2.359375 L 0.578125 -2.359375 Z M 0.578125 -2.359375 "/>
</symbol>
<symbol overflow="visible" id="glyph1-2">
<path style="stroke:none;" d="M 0.53125 -2.359375 C 0.59375 -2.25 0.65625 -2.15625 0.734375 -2.0625 C 0.765625 -2 1.203125 -1.34375 1.21875 -1.3125 C 1.25 -1.296875 1.28125 -1.25 1.28125 -1.21875 C 1.28125 -1.1875 1.234375 -1.15625 1.203125 -1.125 C 0.984375 -0.921875 0.03125 -0.03125 0 0 C 0.140625 0 0.265625 0 0.390625 0 L 0.484375 -0.09375 L 1.421875 -1.03125 C 1.609375 -0.6875 1.8125 -0.34375 2.03125 -0.015625 C 2.15625 0 2.296875 0 2.421875 0 C 2.359375 -0.09375 1.6875 -1.09375 1.671875 -1.125 C 1.65625 -1.140625 1.625 -1.1875 1.625 -1.21875 C 1.625 -1.25 1.6875 -1.28125 1.703125 -1.296875 C 1.78125 -1.375 1.859375 -1.4375 1.9375 -1.515625 C 2.015625 -1.578125 2.796875 -2.328125 2.828125 -2.359375 C 2.703125 -2.359375 2.5625 -2.359375 2.4375 -2.34375 C 2.125 -2.0625 1.8125 -1.75 1.5 -1.453125 C 1.3125 -1.75 1.125 -2.0625 0.921875 -2.34375 C 0.796875 -2.359375 0.65625 -2.359375 0.53125 -2.359375 Z M 0.53125 -2.359375 "/>
</symbol>
<symbol overflow="visible" id="glyph2-0">
<path style="stroke:none;" d=""/>
</symbol>
<symbol overflow="visible" id="glyph2-1">
<path style="stroke:none;" d="M 1.546875 -4.84375 L 0.515625 0 L 1.125 0 C 1.1875 0 1.1875 -0.03125 1.203125 -0.09375 C 1.25 -0.328125 1.3125 -0.59375 1.359375 -0.8125 C 1.375 -0.890625 1.390625 -0.96875 1.40625 -1.0625 C 1.421875 -1.125 1.5 -1.171875 1.546875 -1.21875 C 1.609375 -1.265625 1.90625 -1.53125 1.953125 -1.546875 L 2.015625 -1.40625 C 2.234375 -0.9375 2.421875 -0.453125 2.65625 0 C 2.90625 0.015625 3.171875 0 3.421875 0 L 2.765625 -1.484375 C 2.6875 -1.671875 2.578125 -1.828125 2.53125 -2.03125 L 2.625 -2.140625 L 3.953125 -3.28125 L 3.953125 -3.296875 C 3.671875 -3.28125 3.375 -3.296875 3.09375 -3.28125 L 2.953125 -3.171875 L 1.640625 -2.03125 C 1.828125 -2.96875 2.046875 -3.890625 2.234375 -4.84375 L 1.546875 -4.84375 Z M 1.546875 -4.84375 "/>
</symbol>
</g>
<clipPath id="clip1">
  <path d="M -223 666 L 389 666 L 389 -126 L -223 -126 L -223 666 Z M -223 666 "/>
</clipPath>
<clipPath id="clip2">
  <path d="M 0.105469 148.800781 L 167.105469 148.800781 L 167.105469 -1.199219 L 0.105469 -1.199219 L 0.105469 148.800781 Z M 0.105469 148.800781 "/>
</clipPath>
<clipPath id="clip3">
  <path d="M -223 666 L 389 666 L 389 -126 L -223 -126 L -223 666 Z M -223 666 "/>
</clipPath>
</defs>
<g id="surface0">
<g clip-path="url(#clip1)" clip-rule="nonzero">
<g clip-path="url(#clip2)" clip-rule="nonzero">
<path style="fill:none;stroke-width:5;stroke-linecap:butt;stroke-linejoin:round;stroke:rgb(0%,0%,0%);stroke-opacity:1;stroke-miterlimit:10;" d="M 136.381875 279.42625 L 1383.608438 279.42625 L 1383.608438 1356.61375 L 136.381875 1356.61375 L 136.381875 279.42625 Z M 136.381875 279.42625 " transform="matrix(0.1,0,0,-0.1,0.104,148.802)"/>
<path style="fill:none;stroke-width:3;stroke-linecap:round;stroke-linejoin:round;stroke:rgb(0%,0%,0%);stroke-opacity:1;stroke-miterlimit:10;" d="M 1567.86625 279.42625 L 1567.86625 1356.61375 " transform="matrix(0.1,0,0,-0.1,0.104,148.802)"/>
<path style="fill:none;stroke-width:3;stroke-linecap:round;stroke-linejoin:round;stroke:rgb(0%,0%,0%);stroke-opacity:1;stroke-miterlimit:10;" d="M 1482.827188 279.42625 L 1652.905313 279.42625 " transform="matrix(0.1,0,0,-0.1,0.104,148.802)"/>
<path style="fill:none;stroke-width:3;stroke-linecap:round;stroke-linejoin:round;stroke:rgb(0%,0%,0%);stroke-opacity:1;stroke-miterlimit:10;" d="M 1482.827188 1356.61375 L 1652.905313 1356.61375 " transform="matrix(0.1,0,0,-0.1,0.104,148.802)"/>
<path style="fill:none;stroke-width:3;stroke-linecap:round;stroke-linejoin:round;stroke:rgb(0%,0%,0%);stroke-opacity:1;stroke-miterlimit:10;" d="M 136.381875 95.2075 L 1383.608438 95.2075 " transform="matrix(0.1,0,0,-0.1,0.104,148.802)"/>
<path style="fill:none;stroke-width:3;stroke-linecap:round;stroke-linejoin:round;stroke:rgb(0%,0%,0%);stroke-opacity:1;stroke-miterlimit:10;" d="M 136.381875 10.168437 L 136.381875 180.246562 " transform="matrix(0.1,0,0,-0.1,0.104,148.802)"/>
<path style="fill:none;stroke-width:3;stroke-linecap:round;stroke-linejoin:round;stroke:rgb(0%,0%,0%);stroke-opacity:1;stroke-miterlimit:10;" d="M 1383.608438 10.168437 L 1383.608438 180.246562 " transform="matrix(0.1,0,0,-0.1,0.104,148.802)"/>
<path style="fill:none;stroke-width:3;stroke-linecap:round;stroke-linejoin:round;stroke:rgb(0%,0%,0%);stroke-opacity:1;stroke-dasharray:30.7498,30.7498;stroke-miterlimit:10;" d="M 314.545938 279.42625 L 314.545938 1356.61375 " transform="matrix(0.1,0,0,-0.1,0.104,148.802)"/>
<path style="fill:none;stroke-width:3;stroke-linecap:round;stroke-linejoin:round;stroke:rgb(0%,0%,0%);stroke-opacity:1;stroke-dasharray:30.7498,30.7498;stroke-miterlimit:10;" d="M 492.71 279.42625 L 492.71 1356.61375 " transform="matrix(0.1,0,0,-0.1,0.104,148.802)"/>
<path style="fill:none;stroke-width:3;stroke-linecap:round;stroke-linejoin:round;stroke:rgb(0%,0%,0%);stroke-opacity:1;stroke-dasharray:30.7498,30.7498;stroke-miterlimit:10;" d="M 670.913125 279.42625 L 670.913125 1356.61375 " transform="matrix(0.1,0,0,-0.1,0.104,148.802)"/>
<path style="fill:none;stroke-width:3;stroke-linecap:round;stroke-linejoin:round;stroke:rgb(0%,0%,0%);stroke-opacity:1;stroke-dasharray:30.7498,30.7498;stroke-miterlimit:10;" d="M 849.077188 279.42625 L 849.077188 1356.61375 " transform="matrix(0.1,0,0,-0.1,0.104,148.802)"/>
<path style="fill:none;stroke-width:3;stroke-linecap:round;stroke-linejoin:round;stroke:rgb(0%,0%,0%);stroke-opacity:1;stroke-dasharray:30.7498,30.7498;stroke-miterlimit:10;" d="M 1027.24125 279.42625 L 1027.24125 1356.61375 " transform="matrix(0.1,0,0,-0.1,0.104,148.802)"/>
<path style="fill:none;stroke-width:3;stroke-linecap:round;stroke-linejoin:round;stroke:rgb(0%,0%,0%);stroke-opacity:1;stroke-dasharray:30.7498,30.7498;stroke-miterlimit:10;" d="M 1205.444375 279.42625 L 1205.444375 1356.61375 " transform="matrix(0.1,0,0,-0.1,0.104,148.802)"/>
<path style="fill:none;stroke-width:3;stroke-linecap:round;stroke-linejoin:round;stroke:rgb(0%,0%,0%);stroke-opacity:1;stroke-dasharray:30.45,30.45;stroke-miterlimit:10;" d="M 136.381875 548.723125 L 1383.608438 548.723125 " transform="matrix(0.1,0,0,-0.1,0.104,148.802)"/>
<path style="fill:none;stroke-width:3;stroke-linecap:round;stroke-linejoin:round;stroke:rgb(0%,0%,0%);stroke-opacity:1;stroke-dasharray:30.45,30.45;stroke-miterlimit:10;" d="M 136.381875 818.02 L 1383.608438 818.02 " transform="matrix(0.1,0,0,-0.1,0.104,148.802)"/>
<path style="fill:none;stroke-width:3;stroke-linecap:round;stroke-linejoin:round;stroke:rgb(0%,0%,0%);stroke-opacity:1;stroke-dasharray:30.45,30.45;stroke-miterlimit:10;" d="M 136.381875 1087.316875 L 1383.608438 1087.316875 " transform="matrix(0.1,0,0,-0.1,0.104,148.802)"/>
<path style="fill:none;stroke-width:3;stroke-linecap:round;stroke-linejoin:round;stroke:rgb(0%,0%,0%);stroke-opacity:1;stroke-miterlimit:10;" d="M 136.381875 1370.793437 L 136.381875 1484.152812 " transform="matrix(0.1,0,0,-0.1,0.104,148.802)"/>
<path style="fill:none;stroke-width:3;stroke-linecap:round;stroke-linejoin:round;stroke:rgb(0%,0%,0%);stroke-opacity:1;stroke-miterlimit:10;" d="M 1383.608438 1370.793437 L 1383.608438 1484.152812 " transform="matrix(0.1,0,0,-0.1,0.104,148.802)"/>
<path style="fill:none;stroke-width:3;stroke-linecap:round;stroke-linejoin:round;stroke:rgb(0%,0%,0%);stroke-opacity:1;stroke-miterlimit:10;" d="M 136.381875 1441.652812 L 1383.608438 1441.652812 " transform="matrix(0.1,0,0,-0.1,0.104,148.802)"/>
<path style=" stroke:none;fill-rule:nonzero;fill:rgb(0%,0%,0%);fill-opacity:1;" d="M 134.316406 5.558594 L 138.464844 4.636719 L 134.316406 3.71875 "/>
<path style="fill:none;stroke-width:3;stroke-linecap:round;stroke-linejoin:round;stroke:rgb(0%,0%,0%);stroke-opacity:1;stroke-miterlimit:10;" d="M 1342.124063 1432.434062 L 1383.608438 1441.652812 L 1342.124063 1450.8325 L 1342.124063 1432.434062 Z M 1342.124063 1432.434062 " transform="matrix(0.1,0,0,-0.1,0.104,148.802)"/>
<path style=" stroke:none;fill-rule:nonzero;fill:rgb(0%,0%,0%);fill-opacity:1;" d="M 17.890625 3.71875 L 13.742188 4.636719 L 17.890625 5.558594 "/>
<path style="fill:none;stroke-width:3;stroke-linecap:round;stroke-linejoin:round;stroke:rgb(0%,0%,0%);stroke-opacity:1;stroke-miterlimit:10;" d="M 177.86625 1450.8325 L 136.381875 1441.652812 L 177.86625 1432.434062 L 177.86625 1450.8325 Z M 177.86625 1450.8325 " transform="matrix(0.1,0,0,-0.1,0.104,148.802)"/>
<path style="fill:none;stroke-width:3;stroke-linecap:round;stroke-linejoin:round;stroke:rgb(0%,0%,0%);stroke-opacity:1;stroke-miterlimit:10;" d="M 122.202188 279.42625 L 8.80375 279.42625 " transform="matrix(0.1,0,0,-0.1,0.104,148.802)"/>
<path style="fill:none;stroke-width:3;stroke-linecap:round;stroke-linejoin:round;stroke:rgb(0%,0%,0%);stroke-opacity:1;stroke-miterlimit:10;" d="M 122.202188 1356.61375 L 8.80375 1356.61375 " transform="matrix(0.1,0,0,-0.1,0.104,148.802)"/>
<path style="fill:none;stroke-width:3;stroke-linecap:round;stroke-linejoin:round;stroke:rgb(0%,0%,0%);stroke-opacity:1;stroke-miterlimit:10;" d="M 51.342813 279.42625 L 51.342813 1356.61375 " transform="matrix(0.1,0,0,-0.1,0.104,148.802)"/>
<path style=" stroke:none;fill-rule:nonzero;fill:rgb(0%,0%,0%);fill-opacity:1;" d="M 6.15625 17.292969 L 5.238281 13.140625 L 4.316406 17.292969 "/>
<path style="fill:none;stroke-width:3;stroke-linecap:round;stroke-linejoin:round;stroke:rgb(0%,0%,0%);stroke-opacity:1;stroke-miterlimit:10;" d="M 60.5225 1315.090312 L 51.342813 1356.61375 L 42.124063 1315.090312 L 60.5225 1315.090312 Z M 60.5225 1315.090312 " transform="matrix(0.1,0,0,-0.1,0.104,148.802)"/>
<path style=" stroke:none;fill-rule:nonzero;fill:rgb(0%,0%,0%);fill-opacity:1;" d="M 4.316406 116.707031 L 5.238281 120.859375 L 6.15625 116.707031 "/>
<path style="fill:none;stroke-width:3;stroke-linecap:round;stroke-linejoin:round;stroke:rgb(0%,0%,0%);stroke-opacity:1;stroke-miterlimit:10;" d="M 42.124063 320.949687 L 51.342813 279.42625 L 60.5225 320.949687 L 42.124063 320.949687 Z M 42.124063 320.949687 " transform="matrix(0.1,0,0,-0.1,0.104,148.802)"/>
<path style="fill:none;stroke-width:5;stroke-linecap:round;stroke-linejoin:round;stroke:rgb(0%,0%,0%);stroke-opacity:1;stroke-miterlimit:10;" d="M 136.381875 95.2075 C 142.163125 86.340312 148.100625 77.55125 154.194375 68.918437 C 159.8975 60.8325 165.717813 52.824687 172.006875 45.2075 C 177.514688 38.527812 183.335 32.121562 189.819375 26.379375 C 195.249063 21.61375 201.069375 17.316875 207.631875 14.309062 C 213.256875 11.730937 219.2725 10.168437 225.444375 10.168437 C 231.61625 10.168437 237.670938 11.730937 243.295938 14.309062 C 249.819375 17.316875 255.67875 21.61375 261.108438 26.379375 C 267.592813 32.121562 273.413125 38.527812 278.920938 45.2075 C 285.21 52.824687 291.030313 60.8325 296.733438 68.918437 C 302.827188 77.55125 308.764688 86.340312 314.545938 95.2075 L 314.545938 95.2075 C 320.327188 104.035625 326.264688 112.824687 332.358438 121.4575 C 338.061563 129.543437 343.920938 137.55125 350.170938 145.168437 C 355.67875 151.848125 361.538125 158.254375 368.0225 163.996562 C 373.413125 168.762187 379.2725 173.059062 385.835 176.066875 C 391.420938 178.645 397.475625 180.246562 403.6475 180.246562 C 409.819375 180.246562 415.835 178.645 421.46 176.066875 C 428.0225 173.059062 433.881875 168.762187 439.2725 163.996562 C 445.756875 158.254375 451.577188 151.848125 457.085 145.168437 C 463.374063 137.55125 469.194375 129.543437 474.8975 121.4575 C 480.99125 112.824687 486.967813 104.035625 492.71 95.2075 L 492.71 95.2075 C 498.49125 86.340312 504.42875 77.55125 510.561563 68.918437 C 516.225625 60.8325 522.085 52.824687 528.374063 45.2075 C 533.842813 38.527812 539.702188 32.121562 546.186563 26.379375 C 551.577188 21.61375 557.436563 17.316875 563.999063 14.309062 C 569.624063 11.730937 575.639688 10.168437 581.811563 10.168437 C 587.983438 10.168437 594.038125 11.730937 599.624063 14.309062 C 606.186563 17.316875 612.045938 21.61375 617.436563 26.379375 C 623.920938 32.121562 629.780313 38.527812 635.288125 45.2075 C 641.538125 52.824687 647.3975 60.8325 653.100625 68.918437 C 659.194375 77.55125 665.131875 86.340312 670.913125 95.2075 L 670.913125 95.2075 C 676.694375 104.035625 682.631875 112.824687 688.725625 121.4575 C 694.42875 129.543437 700.249063 137.55125 706.538125 145.168437 C 712.045938 151.848125 717.86625 158.254375 724.350625 163.996562 C 729.780313 168.762187 735.600625 173.059062 742.163125 176.066875 C 747.788125 178.645 753.80375 180.246562 759.975625 180.246562 C 766.1475 180.246562 772.202188 178.645 777.827188 176.066875 C 784.350625 173.059062 790.21 168.762187 795.639688 163.996562 C 802.124063 158.254375 807.944375 151.848125 813.452188 145.168437 C 819.74125 137.55125 825.561563 129.543437 831.264688 121.4575 C 837.358438 112.824687 843.295938 104.035625 849.077188 95.2075 L 849.077188 95.2075 C 854.858438 86.340312 860.795938 77.55125 866.889688 68.918437 C 872.592813 60.8325 878.452188 52.824687 884.702188 45.2075 C 890.21 38.527812 896.069375 32.121562 902.55375 26.379375 C 907.944375 21.61375 913.80375 17.316875 920.36625 14.309062 C 925.952188 11.730937 932.006875 10.168437 938.17875 10.168437 C 944.350625 10.168437 950.36625 11.730937 955.99125 14.309062 C 962.55375 17.316875 968.413125 21.61375 973.80375 26.379375 C 980.288125 32.121562 986.1475 38.527812 991.61625 45.2075 C 997.905313 52.824687 1003.764688 60.8325 1009.42875 68.918437 C 1015.5225 77.55125 1021.499063 86.340312 1027.24125 95.2075 L 1027.24125 95.2075 C 1033.0225 104.035625 1038.999063 112.824687 1045.092813 121.4575 C 1050.756875 129.543437 1056.61625 137.55125 1062.905313 145.168437 C 1068.374063 151.848125 1074.233438 158.254375 1080.717813 163.996562 C 1086.108438 168.762187 1091.967813 173.059062 1098.530313 176.066875 C 1104.155313 178.645 1110.170938 180.246562 1116.342813 180.246562 C 1122.514688 180.246562 1128.569375 178.645 1134.155313 176.066875 C 1140.717813 173.059062 1146.577188 168.762187 1151.967813 163.996562 C 1158.452188 158.254375 1164.311563 151.848125 1169.819375 145.168437 C 1176.108438 137.55125 1181.92875 129.543437 1187.631875 121.4575 C 1193.725625 112.824687 1199.663125 104.035625 1205.444375 95.2075 L 1205.444375 95.2075 C 1211.225625 86.340312 1217.163125 77.55125 1223.256875 68.918437 C 1228.96 60.8325 1234.780313 52.824687 1241.069375 45.2075 C 1246.577188 38.527812 1252.3975 32.121562 1258.881875 26.379375 C 1264.311563 21.61375 1270.131875 17.316875 1276.694375 14.309062 C 1282.319375 11.730937 1288.374063 10.168437 1294.545938 10.168437 C 1300.717813 10.168437 1306.733438 11.730937 1312.358438 14.309062 C 1318.881875 17.316875 1324.74125 21.61375 1330.170938 26.379375 C 1336.655313 32.121562 1342.475625 38.527812 1347.983438 45.2075 C 1354.2725 52.824687 1360.092813 60.8325 1365.795938 68.918437 C 1371.889688 77.55125 1377.827188 86.340312 1383.608438 95.2075 " transform="matrix(0.1,0,0,-0.1,0.104,148.802)"/>
<path style="fill:none;stroke-width:5;stroke-linecap:round;stroke-linejoin:round;stroke:rgb(0%,0%,0%);stroke-opacity:1;stroke-miterlimit:10;" d="M 1567.86625 279.42625 C 1556.655313 290.324687 1545.835 301.535625 1535.327188 313.098125 C 1525.561563 323.840312 1516.108438 334.895 1507.749063 346.77 C 1500.327188 357.277812 1493.842813 368.410625 1489.311563 380.441875 C 1485.249063 391.184062 1482.827188 402.55125 1482.827188 414.074687 C 1482.827188 425.598125 1485.249063 436.965312 1489.311563 447.746562 C 1493.842813 459.777812 1500.36625 470.910625 1507.749063 481.418437 C 1516.069375 493.293437 1525.5225 504.348125 1535.327188 515.05125 C 1545.874063 526.574687 1556.850625 537.668437 1567.86625 548.723125 C 1578.842813 559.816875 1589.858438 570.871562 1600.405313 582.395 C 1610.249063 593.098125 1619.663125 604.152812 1627.983438 616.066875 C 1635.36625 626.574687 1641.889688 637.7075 1646.420938 649.699687 C 1650.483438 660.480937 1652.905313 671.848125 1652.905313 683.371562 C 1652.905313 694.895 1650.483438 706.262187 1646.420938 717.043437 C 1641.889688 729.074687 1635.405313 740.2075 1627.983438 750.715312 C 1619.624063 762.590312 1610.170938 773.605937 1600.405313 784.348125 C 1589.8975 795.910625 1579.077188 807.121562 1567.86625 818.02 L 1567.86625 818.02 C 1556.655313 828.918437 1545.835 840.129375 1535.327188 851.691875 C 1525.561563 862.434062 1516.108438 873.449687 1507.749063 885.36375 C 1500.327188 895.8325 1493.842813 906.965312 1489.311563 918.996562 C 1485.249063 929.777812 1482.827188 941.145 1482.827188 952.668437 C 1482.827188 964.191875 1485.249063 975.559062 1489.311563 986.340312 C 1493.842813 998.3325 1500.36625 1009.465312 1507.749063 1019.973125 C 1516.069375 1031.887187 1525.5225 1042.941875 1535.327188 1053.645 C 1545.874063 1065.168437 1556.850625 1076.223125 1567.86625 1087.316875 C 1578.842813 1098.371562 1589.858438 1109.465312 1600.405313 1120.98875 C 1610.249063 1131.691875 1619.663125 1142.746562 1627.983438 1154.621562 C 1635.36625 1165.129375 1641.889688 1176.262187 1646.420938 1188.293437 C 1650.483438 1199.074687 1652.905313 1210.441875 1652.905313 1221.965312 C 1652.905313 1233.48875 1650.483438 1244.855937 1646.420938 1255.637187 C 1641.889688 1267.629375 1635.405313 1278.762187 1627.983438 1289.27 C 1619.624063 1301.145 1610.170938 1312.199687 1600.405313 1322.941875 C 1589.8975 1334.504375 1579.077188 1345.715312 1567.86625 1356.61375 " transform="matrix(0.1,0,0,-0.1,0.104,148.802)"/>
<path style="fill:none;stroke-width:5;stroke-linecap:round;stroke-linejoin:round;stroke:rgb(0%,0%,0%);stroke-opacity:1;stroke-miterlimit:10;" d="M 492.71 548.723125 L 670.913125 818.02 " transform="matrix(0.1,0,0,-0.1,0.104,148.802)"/>
<path style=" stroke:none;fill-rule:nonzero;fill:rgb(0%,0%,0%);fill-opacity:1;" d="M 65.671875 70.96875 L 67.195313 67 L 64.136719 69.953125 "/>
<path style="fill:none;stroke-width:5;stroke-linecap:round;stroke-linejoin:round;stroke:rgb(0%,0%,0%);stroke-opacity:1;stroke-miterlimit:10;" d="M 655.67875 778.3325 L 670.913125 818.02 L 640.327188 788.48875 L 655.67875 778.3325 Z M 655.67875 778.3325 " transform="matrix(0.1,0,0,-0.1,0.104,148.802)"/>
<path style="fill:none;stroke-width:5;stroke-linecap:round;stroke-linejoin:round;stroke:rgb(0%,0%,0%);stroke-opacity:1;stroke-miterlimit:10;" d="M 628.374063 548.723125 L 670.913125 548.723125 " transform="matrix(0.1,0,0,-0.1,0.104,148.802)"/>
<path style=" stroke:none;fill-rule:nonzero;fill:rgb(0%,0%,0%);fill-opacity:1;" d="M 63.042969 94.847656 L 67.195313 93.929688 L 63.042969 93.007813 "/>
<path style="fill:none;stroke-width:5;stroke-linecap:round;stroke-linejoin:round;stroke:rgb(0%,0%,0%);stroke-opacity:1;stroke-miterlimit:10;" d="M 629.389688 539.543437 L 670.913125 548.723125 L 629.389688 557.941875 L 629.389688 539.543437 Z M 629.389688 539.543437 " transform="matrix(0.1,0,0,-0.1,0.104,148.802)"/>
<path style="fill:none;stroke-width:5;stroke-linecap:round;stroke-linejoin:round;stroke:rgb(0%,0%,0%);stroke-opacity:1;stroke-miterlimit:10;" d="M 492.71 775.52 L 492.71 818.02 " transform="matrix(0.1,0,0,-0.1,0.104,148.802)"/>
<path style=" stroke:none;fill-rule:nonzero;fill:rgb(0%,0%,0%);fill-opacity:1;" d="M 50.296875 71.152344 L 49.375 67 L 48.457031 71.152344 "/>
<path style="fill:none;stroke-width:5;stroke-linecap:round;stroke-linejoin:round;stroke:rgb(0%,0%,0%);stroke-opacity:1;stroke-miterlimit:10;" d="M 501.92875 776.496562 L 492.71 818.02 L 483.530313 776.496562 L 501.92875 776.496562 Z M 501.92875 776.496562 " transform="matrix(0.1,0,0,-0.1,0.104,148.802)"/>
</g>
</g>
<g clip-path="url(#clip3)" clip-rule="nonzero">
<path style=" stroke:none;fill-rule:nonzero;fill:rgb(100%,100%,100%);fill-opacity:1;" d="M -1.855469 73.425781 L 12.269531 73.425781 L 12.269531 60.902344 L -1.855469 60.902344 L -1.855469 73.425781 Z M -1.855469 73.425781 "/>
<g style="fill:rgb(0%,0%,0%);fill-opacity:1;">
  <use xlink:href="#glyph0-1" x="1.132" y="68.735"/>
</g>
<g style="fill:rgb(0%,0%,0%);fill-opacity:1;">
  <use xlink:href="#glyph1-1" x="5.781" y="69.606"/>
</g>
<path style=" stroke:none;fill-rule:nonzero;fill:rgb(100%,100%,100%);fill-opacity:1;" d="M 69.054688 10.648438 L 83.089844 10.648438 L 83.089844 -1.042969 L 69.054688 -1.042969 L 69.054688 10.648438 Z M 69.054688 10.648438 "/>
<g style="fill:rgb(0%,0%,0%);fill-opacity:1;">
  <use xlink:href="#glyph0-1" x="72.044" y="6.788"/>
</g>
<g style="fill:rgb(0%,0%,0%);fill-opacity:1;">
  <use xlink:href="#glyph1-2" x="76.694" y="7.659"/>
</g>
<g style="fill:rgb(0%,0%,0%);fill-opacity:1;">
  <use xlink:href="#glyph0-2" x="54.847" y="100.354"/>
</g>
<g style="fill:rgb(0%,0%,0%);fill-opacity:1;">
  <use xlink:href="#glyph1-2" x="58.458" y="101.225"/>
</g>
<g style="fill:rgb(0%,0%,0%);fill-opacity:1;">
  <use xlink:href="#glyph0-2" x="40.899" y="82.199"/>
</g>
<g style="fill:rgb(0%,0%,0%);fill-opacity:1;">
  <use xlink:href="#glyph1-1" x="44.51" y="83.071"/>
</g>
<g style="fill:rgb(0%,0%,0%);fill-opacity:1;">
  <use xlink:href="#glyph2-1" x="59.915" y="83.05"/>
</g>
</g>
</g>
</svg>
