<?xml version="1.0" encoding="UTF-8"?>
<svg xmlns="http://www.w3.org/2000/svg" xmlns:xlink="http://www.w3.org/1999/xlink" width="255pt" height="197pt" viewBox="0 0 184 142" version="1.1">
<defs>
<g>
<symbol overflow="visible" id="glyph0-0">
<path style="stroke:none;" d=""/>
</symbol>
<symbol overflow="visible" id="glyph0-1">
<path style="stroke:none;" d="M 1.671875 -4.84375 L 0.640625 0 C 0.90625 -0.015625 1.25 0.03125 1.484375 -0.015625 L 1.515625 -0.125 L 2.515625 -4.84375 L 1.671875 -4.84375 Z M 1.671875 -4.84375 "/>
</symbol>
<symbol overflow="visible" id="glyph0-2">
<path style="stroke:none;" d="M 1.734375 -2.453125 L 1.71875 -2.453125 C 1.78125 -2.734375 1.84375 -3.03125 1.90625 -3.328125 L 1.1875 -3.328125 C 0.96875 -2.203125 0.703125 -1.109375 0.484375 0 L 1.171875 0 C 1.21875 0 1.25 -0.015625 1.25 -0.0625 C 1.3125 -0.4375 1.515625 -1.296875 1.546875 -1.453125 C 1.59375 -1.671875 1.625 -1.875 1.734375 -2.0625 C 1.9375 -2.4375 2.34375 -2.71875 2.828125 -2.78125 C 2.84375 -2.78125 2.890625 -2.796875 2.90625 -2.796875 C 2.953125 -2.796875 2.984375 -2.8125 2.984375 -2.859375 C 3.015625 -3 3.078125 -3.25 3.09375 -3.359375 C 2.671875 -3.359375 2.328125 -3.15625 2.046875 -2.859375 C 1.921875 -2.75 1.8125 -2.59375 1.734375 -2.453125 Z M 1.71875 -2.4375 C 1.71875 -2.4375 1.71875 -2.4375 1.71875 -2.4375 C 1.71875 -2.4375 1.71875 -2.421875 1.71875 -2.4375 Z M 1.71875 -2.4375 "/>
</symbol>
<symbol overflow="visible" id="glyph0-3">
<path style="stroke:none;" d="M 1.671875 -4.84375 L 0.640625 0 L 2.328125 0 C 2.53125 0 2.75 0 2.953125 0 C 3.609375 -0.0625 4.1875 -0.296875 4.515625 -0.75 C 4.78125 -1.125 4.953125 -1.734375 4.609375 -2.125 C 4.40625 -2.375 4.109375 -2.46875 3.765625 -2.53125 C 3.875 -2.5625 3.96875 -2.578125 4.0625 -2.609375 C 4.328125 -2.703125 4.578125 -2.828125 4.765625 -3.03125 C 5.09375 -3.390625 5.21875 -3.984375 4.90625 -4.375 C 4.8125 -4.5 4.671875 -4.59375 4.53125 -4.65625 C 4.15625 -4.84375 3.71875 -4.84375 3.296875 -4.84375 L 1.671875 -4.84375 Z M 2.03125 -2.734375 L 2.359375 -4.3125 L 3.03125 -4.3125 C 3.484375 -4.3125 3.9375 -4.3125 4.15625 -4.046875 C 4.453125 -3.75 4.21875 -3.265625 3.9375 -3.046875 C 3.59375 -2.75 3.109375 -2.734375 2.6875 -2.734375 L 2.03125 -2.734375 Z M 1.5625 -0.515625 C 1.578125 -0.65625 1.90625 -2.15625 1.90625 -2.15625 C 1.921875 -2.21875 1.921875 -2.296875 2 -2.296875 L 2.953125 -2.296875 C 3.328125 -2.28125 3.8125 -2.203125 3.953125 -1.8125 C 4.109375 -1.46875 3.9375 -1.0625 3.703125 -0.84375 C 3.578125 -0.75 3.4375 -0.671875 3.28125 -0.625 C 3 -0.515625 2.703125 -0.515625 2.40625 -0.515625 L 1.5625 -0.515625 Z M 1.5625 -0.515625 "/>
</symbol>
</g>
<clipPath id="clip1">
  <path d="M -214 666 L 398 666 L 398 -126 L -214 -126 L -214 666 Z M -214 666 "/>
</clipPath>
<clipPath id="clip2">
  <path d="M -0.875 142.800781 L 184.125 142.800781 L 184.125 -1.199219 L -0.875 -1.199219 L -0.875 142.800781 Z M -0.875 142.800781 "/>
</clipPath>
<clipPath id="clip3">
  <path d="M -214 666 L 398 666 L 398 -126 L -214 -126 L -214 666 Z M -214 666 "/>
</clipPath>
</defs>
<g id="surface0">
<g clip-path="url(#clip1)" clip-rule="nonzero">
<g clip-path="url(#clip2)" clip-rule="nonzero">
<path style="fill:none;stroke-width:5;stroke-linecap:butt;stroke-linejoin:round;stroke:rgb(0%,0%,0%);stroke-opacity:1;stroke-miterlimit:10;" d="M 1607.939688 230.910625 C 1607.939688 215.871562 1613.213125 204.660625 1622.627188 199.699687 C 1632.002188 194.73875 1644.736563 196.4575 1658.056875 204.465312 C 1671.338125 212.434062 1684.0725 226.105937 1693.486563 242.355937 C 1702.861563 258.605937 1708.135 276.184062 1708.135 291.223125 C 1708.174063 306.223125 1702.861563 317.434062 1693.486563 322.395 C 1684.0725 327.355937 1671.338125 325.637187 1658.056875 317.629375 C 1644.736563 309.660625 1632.002188 296.027812 1622.627188 279.73875 C 1613.213125 263.48875 1607.939688 245.910625 1607.939688 230.910625 Z M 1607.939688 230.910625 " transform="matrix(0.1,0,0,-0.1,-0.876,142.802)"/>
<path style="fill:none;stroke-width:5;stroke-linecap:round;stroke-linejoin:round;stroke:rgb(0%,0%,0%);stroke-opacity:1;stroke-miterlimit:10;" d="M 1694.580313 321.77 L 171.26 1238.566875 " transform="matrix(0.1,0,0,-0.1,-0.876,142.802)"/>
<path style="fill:none;stroke-width:5;stroke-linecap:round;stroke-linejoin:round;stroke:rgb(0%,0%,0%);stroke-opacity:1;stroke-miterlimit:10;" d="M 1621.494375 200.324687 L 98.174063 1117.121562 " transform="matrix(0.1,0,0,-0.1,-0.876,142.802)"/>
<path style="fill:none;stroke-width:5;stroke-linecap:round;stroke-linejoin:round;stroke:rgb(0%,0%,0%);stroke-opacity:1;stroke-miterlimit:10;" d="M 171.26 1238.566875 L 170.127188 1239.152812 C 160.752188 1244.11375 147.97875 1242.434062 134.6975 1234.42625 C 121.41625 1226.418437 108.681875 1212.785625 99.267813 1196.535625 C 89.85375 1180.246562 84.580313 1162.668437 84.580313 1147.668437 C 84.580313 1133.254375 89.463125 1122.355937 98.174063 1117.121562 " transform="matrix(0.1,0,0,-0.1,-0.876,142.802)"/>
<path style="fill:none;stroke-width:5;stroke-linecap:round;stroke-linejoin:round;stroke:rgb(0%,0%,0%);stroke-opacity:1;stroke-dasharray:24.0001,24.0001;stroke-miterlimit:10;" d="M 98.174063 1117.121562 L 99.267813 1116.496562 C 108.681875 1111.535625 121.41625 1113.254375 134.6975 1121.223125 C 147.97875 1129.230937 160.752188 1142.86375 170.127188 1159.152812 C 179.54125 1175.402812 184.814688 1192.980937 184.814688 1207.980937 C 184.814688 1222.395 179.931875 1233.293437 171.26 1238.566875 " transform="matrix(0.1,0,0,-0.1,-0.876,142.802)"/>
<path style="fill:none;stroke-width:5;stroke-linecap:round;stroke-linejoin:round;stroke:rgb(0%,0%,0%);stroke-opacity:1;stroke-dasharray:24.0001,24.0001;stroke-miterlimit:10;" d="M 100.400625 1198.48875 L 1658.056875 261.066875 " transform="matrix(0.1,0,0,-0.1,-0.876,142.802)"/>
<path style="fill:none;stroke-width:5;stroke-linecap:round;stroke-linejoin:round;stroke:rgb(0%,0%,0%);stroke-opacity:1;stroke-miterlimit:10;" d="M 1658.056875 261.066875 L 1838.4475 152.473125 " transform="matrix(0.1,0,0,-0.1,-0.876,142.802)"/>
<path style="fill:none;stroke-width:5;stroke-linecap:round;stroke-linejoin:round;stroke:rgb(0%,0%,0%);stroke-opacity:1;stroke-miterlimit:10;" d="M 100.400625 1198.48875 L 14.424063 1250.2075 " transform="matrix(0.1,0,0,-0.1,-0.876,142.802)"/>
<path style="fill:none;stroke-width:25;stroke-linecap:round;stroke-linejoin:round;stroke:rgb(100%,100%,100%);stroke-opacity:1;stroke-miterlimit:10;" d="M 1247.158438 930.559062 C 1247.158438 1035.598125 1210.205313 1114.152812 1144.424063 1148.879375 C 1078.642813 1183.566875 989.424062 1171.574687 896.377187 1115.598125 C 803.369375 1059.621562 714.111562 964.191875 648.330312 850.324687 C 582.549062 736.418437 545.595937 613.410625 545.595937 508.3325 L 545.595937 508.3325 " transform="matrix(0.1,0,0,-0.1,-0.876,142.802)"/>
<path style=" stroke:none;fill-rule:nonzero;fill:rgb(100%,100%,100%);fill-opacity:1;" d="M 52.785156 86.371094 C 52.988281 88.304688 53.285156 90.175781 53.683594 91.96875 L 53.683594 91.96875 L 53.683594 91.96875 C 54.082031 90.175781 54.601563 88.351563 55.234375 86.515625 "/>
<path style="fill:none;stroke-width:25;stroke-linecap:round;stroke-linejoin:round;stroke:rgb(100%,100%,100%);stroke-opacity:1;stroke-miterlimit:10;" d="M 536.611562 564.309062 C 538.642812 544.973125 541.611562 526.262187 545.595937 508.3325 L 545.595937 508.3325 L 545.595937 508.3325 C 549.580312 526.262187 554.775625 544.504375 561.10375 562.86375 L 536.611562 564.309062 Z M 536.611562 564.309062 " transform="matrix(0.1,0,0,-0.1,-0.876,142.802)"/>
<path style="fill:none;stroke-width:5;stroke-linecap:round;stroke-linejoin:round;stroke:rgb(0%,0%,0%);stroke-opacity:1;stroke-miterlimit:10;" d="M 1170.47875 637.199687 C 1219.892813 736.77 1247.158438 840.285625 1247.158438 930.559062 L 1247.158438 930.559062 " transform="matrix(0.1,0,0,-0.1,-0.876,142.802)"/>
<path style=" stroke:none;fill-rule:nonzero;fill:rgb(0%,0%,0%);fill-opacity:1;" d="M 124.738281 55.34375 C 124.535156 53.410156 124.234375 51.539063 123.839844 49.746094 L 123.839844 49.746094 L 123.839844 49.746094 C 123.441406 51.539063 122.921875 53.363281 122.289063 55.199219 "/>
<path style="fill:none;stroke-width:5;stroke-linecap:round;stroke-linejoin:round;stroke:rgb(0%,0%,0%);stroke-opacity:1;stroke-miterlimit:10;" d="M 1256.142813 874.5825 C 1254.111563 893.918437 1251.10375 912.629375 1247.158438 930.559062 L 1247.158438 930.559062 L 1247.158438 930.559062 C 1243.174063 912.629375 1237.97875 894.387187 1231.650625 876.027812 L 1256.142813 874.5825 Z M 1256.142813 874.5825 " transform="matrix(0.1,0,0,-0.1,-0.876,142.802)"/>
<path style="fill:none;stroke-width:5;stroke-linecap:round;stroke-linejoin:round;stroke:rgb(0%,0%,0%);stroke-opacity:1;stroke-miterlimit:10;" d="M 1247.158438 930.559062 C 1247.158438 1035.598125 1210.205313 1114.152812 1144.424063 1148.879375 C 1078.642813 1183.566875 989.424062 1171.574687 896.377187 1115.598125 C 803.369375 1059.621562 714.111562 964.191875 648.330312 850.324687 C 582.549062 736.418437 545.595937 613.410625 545.595937 508.3325 L 545.595937 508.3325 " transform="matrix(0.1,0,0,-0.1,-0.876,142.802)"/>
<path style=" stroke:none;fill-rule:nonzero;fill:rgb(0%,0%,0%);fill-opacity:1;" d="M 52.785156 86.371094 C 52.988281 88.304688 53.285156 90.175781 53.683594 91.96875 L 53.683594 91.96875 L 53.683594 91.96875 C 54.082031 90.175781 54.601563 88.351563 55.234375 86.515625 "/>
<path style="fill:none;stroke-width:5;stroke-linecap:round;stroke-linejoin:round;stroke:rgb(0%,0%,0%);stroke-opacity:1;stroke-miterlimit:10;" d="M 536.611562 564.309062 C 538.642812 544.973125 541.611562 526.262187 545.595937 508.3325 L 545.595937 508.3325 L 545.595937 508.3325 C 549.580312 526.262187 554.775625 544.504375 561.10375 562.86375 L 536.611562 564.309062 Z M 536.611562 564.309062 " transform="matrix(0.1,0,0,-0.1,-0.876,142.802)"/>
<path style="fill:none;stroke-width:5;stroke-linecap:round;stroke-linejoin:round;stroke:rgb(0%,0%,0%);stroke-opacity:1;stroke-miterlimit:10;" d="M 545.595937 508.3325 C 545.595937 403.254375 582.549062 324.73875 648.330312 290.012187 C 714.111562 255.324687 803.330312 267.277812 896.377187 323.254375 C 968.76 366.848125 1038.877188 434.309062 1097.392813 515.754375 " transform="matrix(0.1,0,0,-0.1,-0.876,142.802)"/>
<path style="fill:none;stroke-width:25;stroke-linecap:round;stroke-linejoin:round;stroke:rgb(100%,100%,100%);stroke-opacity:1;stroke-miterlimit:10;" d="M 1447.588125 1051.184062 C 1447.588125 1216.262187 1389.54125 1339.699687 1286.142813 1394.230937 C 1182.783438 1448.762187 1042.588125 1429.973125 896.377187 1342.004375 C 750.205312 1254.035625 609.970937 1104.035625 506.611563 925.090312 C 403.213125 746.145 345.16625 552.824687 345.16625 387.7075 L 345.16625 387.7075 " transform="matrix(0.1,0,0,-0.1,-0.876,142.802)"/>
<path style=" stroke:none;fill-rule:nonzero;fill:rgb(100%,100%,100%);fill-opacity:1;" d="M 32.625 98.453125 C 32.898438 100.359375 33.238281 102.21875 33.640625 104.03125 L 33.640625 104.03125 L 33.640625 104.03125 C 34.039063 102.21875 34.519531 100.390625 35.078125 98.546875 "/>
<path style="fill:none;stroke-width:25;stroke-linecap:round;stroke-linejoin:round;stroke:rgb(100%,100%,100%);stroke-opacity:1;stroke-miterlimit:10;" d="M 335.01 443.48875 C 337.744375 424.42625 341.142813 405.8325 345.16625 387.7075 L 345.16625 387.7075 L 345.16625 387.7075 C 349.150625 405.8325 353.955313 424.11375 359.54125 442.55125 L 335.01 443.48875 Z M 335.01 443.48875 " transform="matrix(0.1,0,0,-0.1,-0.876,142.802)"/>
<path style="fill:none;stroke-width:5;stroke-linecap:round;stroke-linejoin:round;stroke:rgb(0%,0%,0%);stroke-opacity:1;stroke-miterlimit:10;" d="M 1308.525625 554.11375 C 1397.861563 721.4575 1447.588125 898.410625 1447.588125 1051.184062 L 1447.588125 1051.184062 " transform="matrix(0.1,0,0,-0.1,-0.876,142.802)"/>
<path style=" stroke:none;fill-rule:nonzero;fill:rgb(0%,0%,0%);fill-opacity:1;" d="M 144.898438 43.261719 C 144.621094 41.355469 144.285156 39.496094 143.882813 37.683594 L 143.882813 37.683594 L 143.882813 37.683594 C 143.480469 39.496094 143 41.324219 142.445313 43.167969 "/>
<path style="fill:none;stroke-width:5;stroke-linecap:round;stroke-linejoin:round;stroke:rgb(0%,0%,0%);stroke-opacity:1;stroke-miterlimit:10;" d="M 1457.744375 995.402812 C 1454.970938 1014.465312 1451.611563 1033.059062 1447.588125 1051.184062 L 1447.588125 1051.184062 L 1447.588125 1051.184062 C 1443.564688 1033.059062 1438.76 1014.777812 1433.213125 996.340312 L 1457.744375 995.402812 Z M 1457.744375 995.402812 " transform="matrix(0.1,0,0,-0.1,-0.876,142.802)"/>
<path style="fill:none;stroke-width:5;stroke-linecap:round;stroke-linejoin:round;stroke:rgb(0%,0%,0%);stroke-opacity:1;stroke-miterlimit:10;" d="M 1447.588125 1051.184062 C 1447.588125 1216.262187 1389.54125 1339.699687 1286.142813 1394.230937 C 1182.783438 1448.762187 1042.588125 1429.973125 896.377187 1342.004375 C 750.205312 1254.035625 609.970937 1104.035625 506.611563 925.090312 C 403.213125 746.145 345.16625 552.824687 345.16625 387.7075 L 345.16625 387.7075 " transform="matrix(0.1,0,0,-0.1,-0.876,142.802)"/>
<path style=" stroke:none;fill-rule:nonzero;fill:rgb(0%,0%,0%);fill-opacity:1;" d="M 32.625 98.453125 C 32.898438 100.359375 33.238281 102.21875 33.640625 104.03125 L 33.640625 104.03125 L 33.640625 104.03125 C 34.039063 102.21875 34.519531 100.390625 35.078125 98.546875 "/>
<path style="fill:none;stroke-width:5;stroke-linecap:round;stroke-linejoin:round;stroke:rgb(0%,0%,0%);stroke-opacity:1;stroke-miterlimit:10;" d="M 335.01 443.48875 C 337.744375 424.42625 341.142813 405.8325 345.16625 387.7075 L 345.16625 387.7075 L 345.16625 387.7075 C 349.150625 405.8325 353.955313 424.11375 359.54125 442.55125 L 335.01 443.48875 Z M 335.01 443.48875 " transform="matrix(0.1,0,0,-0.1,-0.876,142.802)"/>
<path style="fill:none;stroke-width:5;stroke-linecap:round;stroke-linejoin:round;stroke:rgb(0%,0%,0%);stroke-opacity:1;stroke-miterlimit:10;" d="M 345.16625 387.7075 C 345.16625 222.590312 403.213125 99.191875 506.5725 44.660625 C 609.970937 -9.909688 750.16625 8.918437 896.377187 96.887187 C 1019.85375 171.223125 1139.0725 289.777812 1235.439688 432.668437 " transform="matrix(0.1,0,0,-0.1,-0.876,142.802)"/>
<path style="fill:none;stroke-width:5;stroke-linecap:round;stroke-linejoin:round;stroke:rgb(0%,0%,0%);stroke-opacity:1;stroke-miterlimit:10;" d="M 896.377187 719.42625 L 1229.970938 1042.629375 " transform="matrix(0.1,0,0,-0.1,-0.876,142.802)"/>
<path style=" stroke:none;fill-rule:nonzero;fill:rgb(0%,0%,0%);fill-opacity:1;" d="M 119 43.269531 L 122.121094 38.539063 L 117.292969 41.507813 "/>
<path style="fill:none;stroke-width:5;stroke-linecap:round;stroke-linejoin:round;stroke:rgb(0%,0%,0%);stroke-opacity:1;stroke-miterlimit:10;" d="M 1198.76 995.324687 L 1229.970938 1042.629375 L 1181.689688 1012.941875 L 1198.76 995.324687 Z M 1198.76 995.324687 " transform="matrix(0.1,0,0,-0.1,-0.876,142.802)"/>
<path style="fill:none;stroke-width:5;stroke-linecap:round;stroke-linejoin:round;stroke:rgb(0%,0%,0%);stroke-opacity:1;stroke-miterlimit:10;" d="M 1229.970938 1042.629375 L 1118.213125 1363.918437 " transform="matrix(0.1,0,0,-0.1,-0.876,142.802)"/>
<path style=" stroke:none;fill-rule:nonzero;fill:rgb(0%,0%,0%);fill-opacity:1;" d="M 113.921875 11.234375 L 110.945313 6.410156 L 111.605469 12.042969 "/>
<path style="fill:none;stroke-width:5;stroke-linecap:round;stroke-linejoin:round;stroke:rgb(0%,0%,0%);stroke-opacity:1;stroke-miterlimit:10;" d="M 1147.97875 1315.67625 L 1118.213125 1363.918437 L 1124.814688 1307.590312 L 1147.97875 1315.67625 Z M 1147.97875 1315.67625 " transform="matrix(0.1,0,0,-0.1,-0.876,142.802)"/>
<path style=" stroke:none;fill-rule:nonzero;fill:rgb(0%,0%,0%);fill-opacity:1;" d="M 89.894531 70.859375 C 89.894531 70.558594 89.777344 70.269531 89.5625 70.054688 C 89.351563 69.84375 89.0625 69.722656 88.761719 69.722656 C 88.460938 69.722656 88.171875 69.84375 87.960938 70.054688 C 87.746094 70.269531 87.628906 70.558594 87.628906 70.859375 C 87.628906 71.160156 87.746094 71.445313 87.960938 71.660156 C 88.171875 71.871094 88.460938 71.992188 88.761719 71.992188 C 89.0625 71.992188 89.351563 71.871094 89.5625 71.660156 C 89.777344 71.445313 89.894531 71.160156 89.894531 70.859375 "/>
<path style="fill:none;stroke-width:5;stroke-linecap:round;stroke-linejoin:round;stroke:rgb(0%,0%,0%);stroke-opacity:1;stroke-miterlimit:10;" d="M 1397.470938 224.855937 L 1577.861563 116.30125 " transform="matrix(0.1,0,0,-0.1,-0.876,142.802)"/>
<path style=" stroke:none;fill-rule:nonzero;fill:rgb(0%,0%,0%);fill-opacity:1;" d="M 151.535156 129.371094 L 156.910156 131.171875 L 152.800781 127.265625 "/>
<path style="fill:none;stroke-width:5;stroke-linecap:round;stroke-linejoin:round;stroke:rgb(0%,0%,0%);stroke-opacity:1;stroke-miterlimit:10;" d="M 1524.111563 134.309062 L 1577.861563 116.30125 L 1536.767813 155.36375 L 1524.111563 134.309062 Z M 1524.111563 134.309062 " transform="matrix(0.1,0,0,-0.1,-0.876,142.802)"/>
</g>
</g>
<g clip-path="url(#clip3)" clip-rule="nonzero">
<g style="fill:rgb(0%,0%,0%);fill-opacity:1;">
  <use xlink:href="#glyph0-1" x="142.333" y="130.354"/>
</g>
<path style=" stroke:none;fill-rule:nonzero;fill:rgb(100%,100%,100%);fill-opacity:1;" d="M 100.789063 59.421875 L 110.058594 59.421875 L 110.058594 50.152344 L 100.789063 50.152344 L 100.789063 59.421875 Z M 100.789063 59.421875 "/>
<g style="fill:rgb(0%,0%,0%);fill-opacity:1;">
  <use xlink:href="#glyph0-2" x="103.778" y="56.433"/>
</g>
<g style="fill:rgb(0%,0%,0%);fill-opacity:1;">
  <use xlink:href="#glyph0-3" x="117.329" y="21.763"/>
</g>
</g>
</g>
</svg>
