<?xml version="1.0" encoding="UTF-8" standalone="no"?>
<!-- Created with Inkscape (http://www.inkscape.org/) -->
<svg xmlns:dc="http://purl.org/dc/elements/1.1/" xmlns:cc="http://creativecommons.org/ns#" xmlns:rdf="http://www.w3.org/1999/02/22-rdf-syntax-ns#" xmlns:svg="http://www.w3.org/2000/svg" xmlns="http://www.w3.org/2000/svg" xmlns:xlink="http://www.w3.org/1999/xlink" version="1.1" width="242.1pt" height="134.6pt" viewBox="0 0 174.69613 97.087902" id="svg35444">
  <defs id="defs35446">
    <g id="g35448">
      <g id="glyph0-0"/>
      <g id="glyph0-1">
        <path d="M 2.578125,1.546875 C 2.546875,1.5 2.5,1.46875 2.453125,1.4375 1.6875,0.75 1.21875,-0.3125 1.171875,-1.59375 c -0.03125,-0.875 0.125,-1.78125 0.53125,-2.5625 0.203125,-0.375 0.4375,-0.6875 0.75,-0.953125 C 2.5,-5.15625 2.546875,-5.1875 2.578125,-5.21875 l -0.25,0 c -0.15625,0 -0.140625,0 -0.25,0.078125 -0.359375,0.28125 -0.65625,0.65625 -0.890625,1.078125 -0.65625,1.234375 -0.703125,2.90625 -0.09375,4.25 0.21875,0.5 0.5625,0.921875 0.984375,1.28125 0.09375,0.0625 0.09375,0.078125 0.25,0.078125 l 0.25,0 z m 0,0" id="path35452"/>
      </g>
      <g id="glyph0-2">
        <path d="m 0.640625,-2.640625 c 0.125,-0.0625 0.21875,-0.140625 0.34375,-0.203125 C 1.203125,-2.9375 1.4375,-2.984375 1.6875,-3 1.75,-3.015625 1.828125,-3.015625 1.90625,-3.015625 c 0.28125,0.046875 0.515625,0.234375 0.59375,0.5 0.078125,0.203125 0.046875,0.453125 0.046875,0.65625 -0.359375,0 -0.734375,0.03125 -1.09375,0.125 -0.5,0.125 -1.125,0.375 -1.0625,1.015625 0.046875,0.28125 0.203125,0.5625 0.46875,0.703125 C 1.03125,0.0625 1.234375,0.0625 1.4375,0.046875 1.734375,0.015625 2.0625,-0.0625 2.3125,-0.25 c 0.09375,-0.0625 0.171875,-0.140625 0.25,-0.21875 l 0,0.46875 0.484375,0 0,-1.828125 c 0,-0.1875 0.03125,-0.390625 -0.015625,-0.59375 -0.0625,-0.484375 -0.5,-0.84375 -0.953125,-0.9375 -0.28125,-0.046875 -0.71875,0.015625 -0.953125,0.0625 -0.078125,0.03125 -0.46875,0.15625 -0.5,0.21875 -0.03125,0.03125 -0.015625,0.09375 -0.015625,0.125 0.015625,0.109375 0.03125,0.203125 0.03125,0.3125 z m 1.90625,1.015625 0,0.515625 c 0,0.140625 0,0.265625 -0.0625,0.390625 -0.078125,0.140625 -0.21875,0.25 -0.375,0.296875 -0.328125,0.125 -0.78125,0.140625 -1.0625,-0.09375 C 0.96875,-0.5625 0.90625,-0.640625 0.890625,-0.75 0.8125,-1.046875 1.078125,-1.28125 1.3125,-1.390625 1.640625,-1.546875 2.109375,-1.625 2.546875,-1.625 z m 0,0" id="path35455"/>
      </g>
      <g id="glyph0-3">
        <path d="m 0.4375,-5.21875 c 0.03125,0.03125 0.078125,0.0625 0.125,0.109375 0.859375,0.765625 1.328125,2 1.265625,3.515625 -0.015625,0.75 -0.203125,1.5 -0.5625,2.15625 C 1.078125,0.890625 0.84375,1.1875 0.5625,1.4375 0.515625,1.46875 0.46875,1.5 0.4375,1.546875 l 0.25,0 c 0.15625,0 0.140625,0 0.234375,-0.078125 0.375,-0.296875 0.671875,-0.671875 0.890625,-1.078125 0.671875,-1.25 0.71875,-2.90625 0.109375,-4.25 C 1.6875,-4.375 1.359375,-4.796875 0.9375,-5.140625 0.84375,-5.21875 0.84375,-5.21875 0.6875,-5.21875 l -0.25,0 z m 0,0" id="path35458"/>
      </g>
      <g id="glyph0-4">
        <path d="m 0.578125,-4.84375 0,4.84375 0.515625,0 0,-0.46875 0,0 c 0.0625,0.109375 0.171875,0.203125 0.265625,0.28125 0.3125,0.25 0.828125,0.328125 1.28125,0.109375 0.203125,-0.109375 0.375,-0.28125 0.515625,-0.46875 C 3.84375,-1.5 3.421875,-3.09375 2.453125,-3.3125 c -0.125,-0.046875 -0.28125,-0.046875 -0.421875,-0.015625 -0.40625,0.046875 -0.71875,0.25 -0.953125,0.5 l 0,-2.015625 -0.5,0 z M 1.8125,-2.953125 c 0.328125,-0.03125 0.703125,0.109375 0.921875,0.375 0.171875,0.21875 0.234375,0.5 0.234375,0.765625 0.03125,0.375 -0.015625,0.78125 -0.25,1.078125 -0.203125,0.265625 -0.53125,0.375 -0.84375,0.40625 -0.265625,0 -0.5,-0.09375 -0.671875,-0.3125 C 1.171875,-0.6875 1.125,-0.75 1.09375,-0.8125 c 0,-0.046875 0,-0.09375 0,-0.125 l 0,-1.390625 c 0,-0.0625 -0.015625,-0.140625 0.015625,-0.203125 0.03125,-0.078125 0.09375,-0.125 0.15625,-0.1875 0.15625,-0.125 0.34375,-0.21875 0.546875,-0.234375 z m 0,0" id="path35461"/>
      </g>
      <g id="glyph0-5">
        <path d="M 3.1875,-0.796875 C 3.125,-0.765625 3.078125,-0.71875 3.03125,-0.6875 2.9375,-0.625 2.84375,-0.5625 2.734375,-0.515625 2.3125,-0.3125 1.671875,-0.265625 1.296875,-0.5625 1.03125,-0.75 0.859375,-1.109375 0.84375,-1.5 0.8125,-1.953125 0.921875,-2.453125 1.296875,-2.75 1.5,-2.90625 1.765625,-3 2.140625,-2.96875 2.46875,-2.9375 2.65625,-2.890625 2.921875,-2.75 c 0.0625,0.03125 0.109375,0.078125 0.171875,0.09375 L 3.171875,-3.078125 C 3.015625,-3.15625 2.875,-3.234375 2.703125,-3.28125 c -0.40625,-0.140625 -1.03125,-0.125 -1.390625,0.046875 -0.34375,0.15625 -0.625,0.4375 -0.796875,0.765625 -0.25,0.5 -0.25,1.109375 0,1.625 0.09375,0.1875 0.21875,0.359375 0.390625,0.5 0.46875,0.4375 1.1875,0.484375 1.78125,0.28125 0.140625,-0.0625 0.265625,-0.125 0.390625,-0.203125 0.046875,-0.03125 0.109375,-0.0625 0.125,-0.09375 C 3.21875,-0.40625 3.1875,-0.796875 3.1875,-0.796875 z m 0,0" id="path35464"/>
      </g>
      <g id="glyph0-6">
        <path d="m 2.734375,-4.84375 0,2 0,0 C 2.703125,-2.90625 2.65625,-2.9375 2.609375,-2.984375 2.328125,-3.28125 1.734375,-3.46875 1.25,-3.25 1.078125,-3.171875 0.9375,-3.078125 0.8125,-2.9375 0.28125,-2.390625 0.1875,-1.484375 0.5,-0.8125 0.6875,-0.375 1.09375,0.03125 1.59375,0.0625 1.984375,0.078125 2.3125,-0.09375 2.515625,-0.28125 2.59375,-0.359375 2.65625,-0.4375 2.71875,-0.515625 l 0,0.515625 0.515625,0 0,-4.84375 -0.5,0 z M 1.9375,-2.953125 C 2.171875,-2.96875 2.40625,-2.90625 2.578125,-2.71875 2.625,-2.6875 2.671875,-2.625 2.703125,-2.5625 2.734375,-2.5 2.71875,-2.421875 2.71875,-2.34375 l 0,1.375 c 0,0.171875 -0.015625,0.171875 -0.125,0.296875 C 2.453125,-0.484375 2.25,-0.359375 2,-0.328125 1.640625,-0.3125 1.25,-0.46875 1.046875,-0.78125 0.90625,-0.984375 0.859375,-1.234375 0.84375,-1.484375 0.8125,-1.8125 0.84375,-2.1875 1.03125,-2.46875 1.234375,-2.78125 1.578125,-2.921875 1.9375,-2.953125 z m 0,0" id="path35467"/>
      </g>
      <g id="glyph1-0"/>
      <g id="glyph1-1">
        <path d="M 0.21875,0 0.578125,0 0.71875,-0.015625 0.796875,-0.109375 C 1.0625,-0.53125 1.3125,-0.96875 1.609375,-1.375 l 0.0625,-0.015625 2.296875,0 C 4.0625,-0.9375 4.125,-0.453125 4.25,-0.015625 4.390625,0.03125 4.625,-0.015625 4.796875,0 4.78125,-0.140625 3.9375,-4.359375 3.890625,-4.609375 3.875,-4.65625 3.84375,-4.890625 3.8125,-4.90625 c -0.046875,0 -0.09375,0 -0.140625,0 l -0.265625,0 c -0.046875,0 -0.109375,-0.015625 -0.140625,0.015625 -0.046875,0.03125 -0.1875,0.28125 -0.1875,0.28125 L 1.0625,-1.375 0.515625,-0.46875 C 0.40625,-0.328125 0.296875,-0.15625 0.21875,0 z m 3.1875,-4.328125 c 0.140625,0.84375 0.3125,1.6875 0.46875,2.515625 l -2.015625,0 c 0.5,-0.84375 1.03125,-1.671875 1.546875,-2.515625 z m 0,0" id="path35471"/>
      </g>
      <g id="glyph2-0"/>
      <g id="glyph2-1">
        <path d="m 0.734375,-2 c -0.140625,0.046875 -0.15625,0.265625 -0.015625,0.3125 0.046875,0.015625 0.09375,0.015625 0.125,0.015625 l 3.9375,0 c 0.09375,0 0.234375,0.015625 0.3125,-0.046875 C 5.171875,-1.8125 5.125,-1.96875 5,-2 4.921875,-2.015625 4.828125,-2 4.734375,-2 l -3.875,0 c -0.03125,0 -0.078125,0 -0.125,0 z m 0,0" id="path35475"/>
      </g>
      <g id="glyph3-0"/>
      <g id="glyph3-1">
        <path d="M 1.65625,-4.84375 0.640625,0 l 0.75,0 C 1.40625,0 1.4375,0 1.453125,-0.015625 1.484375,-0.03125 1.484375,-0.0625 1.484375,-0.09375 1.5,-0.171875 1.890625,-2.03125 1.921875,-2.109375 c 0,-0.046875 0.015625,-0.078125 0.0625,-0.078125 0.078125,-0.015625 0.140625,0 0.21875,0 l 0.59375,0 c 0.109375,0 0.109375,0.03125 0.140625,0.140625 l 0.59375,1.59375 0.109375,0.3125 C 3.671875,-0.0625 3.671875,0 3.78125,0 l 0.765625,0 -0.875,-2.265625 C 3.78125,-2.265625 3.890625,-2.3125 4,-2.34375 4.578125,-2.53125 5.109375,-3.015625 5.109375,-3.765625 5.109375,-4 5.046875,-4.21875 4.90625,-4.390625 4.84375,-4.46875 4.78125,-4.515625 4.703125,-4.5625 4.3125,-4.828125 3.8125,-4.84375 3.359375,-4.84375 l -1.703125,0 z m 0.375,2.203125 C 2.140625,-3.203125 2.265625,-3.75 2.375,-4.3125 l 0.921875,0 c 0.34375,0 0.71875,0.015625 0.90625,0.234375 0.171875,0.203125 0.125,0.515625 0.0625,0.75 -0.0625,0.140625 -0.125,0.25 -0.203125,0.359375 -0.28125,0.265625 -0.671875,0.328125 -1.1875,0.328125 l -0.84375,0 z m 0,0" id="path35479"/>
      </g>
    </g>
    <clipPath id="clip1">
      <path d="m -16,225 433.14844,0 0,-253.316406 -433.14844,0 L -16,225 z m 0,0" id="path35482"/>
    </clipPath>
    <clipPath id="clip3">
      <path d="m -16,-28.316406 433.14844,0 0,253.316406 L -16,225 -16,-28.316406 z m 0,0" id="path35485"/>
    </clipPath>
  </defs>
  <g transform="translate(-172.51906,-0.08346946)" id="g36090">
    <g clip-path="url(#clip1)" id="g35552">
      <g clip-path="url(#clip3)" id="g35554">
        <path d="M -0.00194375,9.5625e-4 30.255869,7.543925" transform="matrix(1,0,0,-1,259.8496,44.4658)" id="path35556" style="fill:none;stroke:#000000;stroke-width:0.5;stroke-linecap:round;stroke-linejoin:round;stroke-miterlimit:10"/>
        <path d="m 285.03125,39.453125 5.07422,-2.53125 -5.66797,0.148438" id="path35558"/>
        <path d="M 9.5e-4,-0.001425 5.075169,2.529825 -0.5928,2.381387 9.5e-4,-0.001425 z m 0,0" transform="matrix(1,0,0,-1,285.0303,39.4517)" id="path35560" style="fill:none;stroke:#000000;stroke-width:0.5;stroke-linecap:round;stroke-linejoin:round;stroke-miterlimit:10"/>
        <path d="M -0.00194375,9.5625e-4 -30.25585,-7.545919" transform="matrix(1,0,0,-1,259.8496,44.4658)" id="path35562" style="fill:none;stroke:#000000;stroke-width:0.5;stroke-linecap:round;stroke-linejoin:round;stroke-miterlimit:10"/>
        <path d="m 234.66797,49.480469 -5.07422,2.527344 5.66797,-0.148438" id="path35564"/>
        <path d="M -9.3125e-4,-9.6875e-4 -5.07515,-2.528312 0.592819,-2.379875 -9.3125e-4,-9.6875e-4 z m 0,0" transform="matrix(1,0,0,-1,234.6689,49.4795)" id="path35566" style="fill:none;stroke:#000000;stroke-width:0.5;stroke-linecap:round;stroke-linejoin:round;stroke-miterlimit:10"/>
        <path d="m -0.00194375,0.00190625 141.73437375,0" transform="matrix(1,0,0,-1,172.7246,67.6855)" id="path35568" style="fill:none;stroke:#000000;stroke-width:0.5;stroke-linecap:round;stroke-linejoin:round;stroke-miterlimit:10"/>
        <path d="m 9.75e-4,9.5625e-4 141.730465,0" transform="matrix(1,0,0,-1,188.9834,44.4658)" id="path35570" style="fill:none;stroke:#000000;stroke-width:0.5;stroke-linecap:round;stroke-linejoin:round;stroke-miterlimit:10"/>
        <path d="m -1.25e-5,-4.9375e-4 141.7304725,0" transform="matrix(1,0,0,-1,205.2422,21.2456)" id="path35572" style="fill:none;stroke:#000000;stroke-width:0.5;stroke-linecap:round;stroke-linejoin:round;stroke-miterlimit:10"/>
        <path d="M -0.0019375,0.00146875 61.783219,88.235844" transform="matrix(1,0,0,-1,183.6035,88.5835)" id="path35574" style="fill:none;stroke:#000000;stroke-width:0.5;stroke-linecap:round;stroke-linejoin:round;stroke-miterlimit:10"/>
        <path d="M -9.6875e-4,0.00146875 61.780281,88.235844" transform="matrix(1,0,0,-1,228.958,88.5835)" id="path35576" style="fill:none;stroke:#000000;stroke-width:0.5;stroke-linecap:round;stroke-linejoin:round;stroke-miterlimit:10"/>
        <path d="M 0,0.00146875 61.78125,88.235844" transform="matrix(1,0,0,-1,274.3125,88.5835)" id="path35578" style="fill:none;stroke:#000000;stroke-width:0.5;stroke-linecap:round;stroke-linejoin:round;stroke-miterlimit:10"/>
        <path d="M -3.125e-5,-0.001425 -2.410187,-4.1733 c -0.46875,-0.8125 -0.191407,-1.855469 0.625,-2.324219 0.8125,-0.46875 1.851562,-0.191406 2.320312,0.625 0.472656,0.8125 0.191406,1.851563 -0.6210937,2.320313 C -0.898469,-3.07955 -1.937531,-3.3608 -2.410187,-4.1733" transform="matrix(1,0,0,-1,209.2305,58.7017)" id="path35580" style="fill:none;stroke:#000000;stroke-width:0.5;stroke-linecap:round;stroke-linejoin:round;stroke-miterlimit:10"/>
        <path d="M -1.25e-5,5.3125e-4 2.410144,4.172406 c 0.46875,0.8125 0.191406,1.855469 -0.625,2.324219 -0.8125,0.46875 -1.8515627,0.191406 -2.320313,-0.625 -0.472656,-0.8125 -0.191406,-1.851563 0.621094,-2.320313 0.8125,-0.46875 1.855469,-0.191406 2.324219,0.621094" transform="matrix(1,0,0,-1,187.2422,76.6685)" id="path35582" style="fill:none;stroke:#000000;stroke-width:0.5;stroke-linecap:round;stroke-linejoin:round;stroke-miterlimit:10"/>
        <path d="M 9.375e-4,-0.001425 -2.409219,-4.1733 c -0.46875,-0.8125 -0.191406,-1.855469 0.621094,-2.324219 0.8125,-0.46875 1.8554688,-0.191406 2.324219,0.625 0.46875,0.8125 0.191406,1.851563 -0.621094,2.320313 C -0.901406,-3.07955 -1.940469,-3.3608 -2.409219,-4.1733" transform="matrix(1,0,0,-1,254.585,58.7017)" id="path35584" style="fill:none;stroke:#000000;stroke-width:0.5;stroke-linecap:round;stroke-linejoin:round;stroke-miterlimit:10"/>
        <path d="M 9.5625e-4,5.3125e-4 2.411113,4.172406 c 0.46875,0.8125 0.191406,1.855469 -0.625,2.324219 -0.8125,0.46875 -1.851563,0.191406 -2.320313,-0.625 C -1.006856,5.059125 -0.729512,4.020062 0.0868938,3.551312 0.899394,3.082562 1.938456,3.359906 2.411113,4.172406" transform="matrix(1,0,0,-1,232.5967,76.6685)" id="path35586" style="fill:none;stroke:#000000;stroke-width:0.5;stroke-linecap:round;stroke-linejoin:round;stroke-miterlimit:10"/>
        <path d="M -0.001,-0.001425 -2.40725,-4.1733 c -0.472656,-0.8125 -0.191406,-1.855469 0.621094,-2.324219 0.8125,-0.46875 1.8515623,-0.191406 2.320312,0.625 0.472657,0.8125 0.195313,1.851563 -0.6210935,2.320313 C -0.899437,-3.07955 -1.9385,-3.3608 -2.40725,-4.1733" transform="matrix(1,0,0,-1,299.9385,58.7017)" id="path35588" style="fill:none;stroke:#000000;stroke-width:0.5;stroke-linecap:round;stroke-linejoin:round;stroke-miterlimit:10"/>
        <path d="M -9.8125e-4,5.3125e-4 2.409175,4.172406 c 0.472656,0.8125 0.191406,1.855469 -0.621094,2.324219 -0.8125,0.46875 -1.8554685,0.191406 -2.324218,-0.625 C -1.004887,5.059125 -0.727544,4.020062 0.0888625,3.551312 0.901363,3.082562 1.940425,3.359906 2.409175,4.172406" transform="matrix(1,0,0,-1,277.9502,76.6685)" id="path35590" style="fill:none;stroke:#000000;stroke-width:0.5;stroke-linecap:round;stroke-linejoin:round;stroke-miterlimit:10"/>
        <path d="M -1.875e-5,9.3125e-4 -2.406269,-4.17485 c -0.472656,-0.8125 -0.195312,-1.851562 0.621094,-2.320312 0.8125,-0.472657 1.8515625,-0.191407 2.320312,0.621093 0.472657,0.8125 0.195313,1.851563 -0.6210933,2.324219 -0.8124997,0.46875 -1.8515627,0.191406 -2.3203127,-0.625" transform="matrix(1,0,0,-1,225.4883,35.4814)" id="path35592" style="fill:none;stroke:#000000;stroke-width:0.5;stroke-linecap:round;stroke-linejoin:round;stroke-miterlimit:10"/>
        <path d="M 0.00190625,-5.1875e-4 2.408156,4.171356 C 2.880812,4.987762 2.599562,6.026825 1.787062,6.495575 0.974562,6.964325 -0.0684063,6.686981 -0.537156,5.874481 -1.005906,5.058075 -0.728563,4.019012 0.0878437,3.550262 0.896437,3.081512 1.939406,3.358856 2.408156,4.171356" transform="matrix(1,0,0,-1,203.502,53.4487)" id="path35594" style="fill:none;stroke:#000000;stroke-width:0.5;stroke-linecap:round;stroke-linejoin:round;stroke-miterlimit:10"/>
        <path d="M 0.00191875,9.3125e-4 -2.408237,-4.17485 c -0.472657,-0.8125 -0.191407,-1.851562 0.621093,-2.320312 0.8125,-0.472657 1.855469,-0.191407 2.324219,0.621093 0.46875,0.8125 0.191406,1.851563 -0.625,2.324219 -0.8125,0.46875 -1.851562,0.191406 -2.320312,-0.625" transform="matrix(1,0,0,-1,316.1973,35.4814)" id="path35596" style="fill:none;stroke:#000000;stroke-width:0.5;stroke-linecap:round;stroke-linejoin:round;stroke-miterlimit:10"/>
        <path d="M 9.375e-4,-5.1875e-4 2.407188,4.171356 C 2.879844,4.987762 2.6025,6.026825 1.786094,6.495575 0.973594,6.964325 -0.0654687,6.686981 -0.534219,5.874481 -1.006875,5.058075 -0.729531,4.019012 0.086875,3.550262 0.899375,3.081512 1.938438,3.358856 2.407188,4.171356" transform="matrix(1,0,0,-1,294.21,53.4487)" id="path35598" style="fill:none;stroke:#000000;stroke-width:0.5;stroke-linecap:round;stroke-linejoin:round;stroke-miterlimit:10"/>
        <path d="M -0.00190625,-1.875e-5 -2.408156,-4.171894 c -0.472656,-0.816406 -0.191406,-1.855469 0.621094,-2.324219 0.8125,-0.46875 1.851562,-0.191406 2.324218,0.621094 0.46875,0.8125 0.191407,1.855469 -0.6249997,2.324219 -0.8125003,0.46875 -1.8515623,0.191406 -2.3203123,-0.621094" transform="matrix(1,0,0,-1,241.748,12.2617)" id="path35600" style="fill:none;stroke:#000000;stroke-width:0.5;stroke-linecap:round;stroke-linejoin:round;stroke-miterlimit:10"/>
        <path d="M 0.00101875,-9.6875e-4 2.407269,4.174813 C 2.879925,4.987313 2.598675,6.026375 1.786175,6.495125 0.973675,6.967781 -0.0653875,6.686531 -0.538044,5.874031 -1.006794,5.061531 -0.72945,4.022469 0.0869563,3.549813 0.899456,3.081063 1.938519,3.358406 2.407269,4.174813" transform="matrix(1,0,0,-1,219.7607,30.2295)" id="path35602" style="fill:none;stroke:#000000;stroke-width:0.5;stroke-linecap:round;stroke-linejoin:round;stroke-miterlimit:10"/>
        <path d="M -9.375e-4,-1.875e-5 -2.411094,-4.171894 c -0.46875,-0.816406 -0.191406,-1.855469 0.625,-2.324219 0.8125,-0.46875 1.8515627,-0.191406 2.320313,0.621094 0.472656,0.8125 0.195312,1.855469 -0.621094,2.324219 -0.8125,0.46875 -1.851563,0.191406 -2.324219,-0.621094" transform="matrix(1,0,0,-1,287.1025,12.2617)" id="path35604" style="fill:none;stroke:#000000;stroke-width:0.5;stroke-linecap:round;stroke-linejoin:round;stroke-miterlimit:10"/>
        <path d="M -0.00101875,-9.6875e-4 2.409137,4.174813 c 0.46875,0.8125 0.191407,1.851562 -0.621093,2.320312 -0.8125,0.472656 -1.855469,0.191406 -2.324219,-0.621094 -0.46875,-0.8125 -0.191406,-1.851562 0.6210937,-2.324218 0.8164063,-0.46875 1.8554683,-0.191407 2.3242183,0.625" transform="matrix(1,0,0,-1,265.1143,30.2295)" id="path35606" style="fill:none;stroke:#000000;stroke-width:0.5;stroke-linecap:round;stroke-linejoin:round;stroke-miterlimit:10"/>
        <path d="M 3.125e-5,-1.875e-5 -2.410125,-4.171894 c -0.46875,-0.816406 -0.191406,-1.855469 0.625,-2.324219 0.8125,-0.46875 1.8515625,-0.191406 2.320313,0.621094 0.472656,0.8125 0.191406,1.855469 -0.6210942,2.324219 -0.8124998,0.46875 -1.8554688,0.191406 -2.3242188,-0.621094" transform="matrix(1,0,0,-1,332.457,12.2617)" id="path35608" style="fill:none;stroke:#000000;stroke-width:0.5;stroke-linecap:round;stroke-linejoin:round;stroke-miterlimit:10"/>
        <path d="M -5e-5,-9.6875e-4 2.410106,4.174813 c 0.46875,0.8125 0.191407,1.851562 -0.625,2.320312 C 0.972606,6.967781 -0.0664562,6.686531 -0.535206,5.874031 -1.007862,5.061531 -0.726612,4.022469 0.0858875,3.549813 0.898388,3.081063 1.93745,3.358406 2.410106,4.174813" transform="matrix(1,0,0,-1,310.4688,30.2295)" id="path35610" style="fill:none;stroke:#000000;stroke-width:0.5;stroke-linecap:round;stroke-linejoin:round;stroke-miterlimit:10"/>
        <path d="M -5e-5,9.3125e-4 -2.410206,-4.17485 c -0.46875,-0.8125 -0.191407,-1.851562 0.625,-2.320312 0.808593,-0.472657 1.8515622,-0.191407 2.320312,0.621093 0.472656,0.8125 0.191406,1.851563 -0.6210935,2.324219 -0.8125005,0.46875 -1.8554685,0.191406 -2.3242185,-0.625" transform="matrix(1,0,0,-1,270.8438,35.4814)" id="path35612" style="fill:none;stroke:#ffffff;stroke-width:1.5;stroke-linecap:round;stroke-linejoin:round;stroke-miterlimit:10"/>
        <path d="M -3.125e-5,-5.1875e-4 2.410125,4.171356 c 0.46875,0.816406 0.191406,1.855469 -0.625,2.324219 -0.8125,0.46875 -1.8515625,0.191406 -2.320313,-0.621094 C -1.007844,5.058075 -0.726594,4.019012 0.0859062,3.550262 0.898406,3.081512 1.941375,3.358856 2.410125,4.171356" transform="matrix(1,0,0,-1,248.8555,53.4487)" id="path35614" style="fill:none;stroke:#ffffff;stroke-width:1.5;stroke-linecap:round;stroke-linejoin:round;stroke-miterlimit:10"/>
        <path d="M -5e-5,9.3125e-4 -2.410206,-4.17485 c -0.46875,-0.8125 -0.191407,-1.851562 0.625,-2.320312 0.808593,-0.472657 1.8515622,-0.191407 2.320312,0.621093 0.472656,0.8125 0.191406,1.851563 -0.6210935,2.324219 -0.8125005,0.46875 -1.8554685,0.191406 -2.3242185,-0.625" transform="matrix(1,0,0,-1,270.8438,35.4814)" id="path35616" style="fill:none;stroke:#000000;stroke-width:0.5;stroke-linecap:round;stroke-linejoin:round;stroke-miterlimit:10"/>
        <path d="M -3.125e-5,-5.1875e-4 2.410125,4.171356 c 0.46875,0.816406 0.191406,1.855469 -0.625,2.324219 -0.8125,0.46875 -1.8515625,0.191406 -2.320313,-0.621094 C -1.007844,5.058075 -0.726594,4.019012 0.0859062,3.550262 0.898406,3.081512 1.941375,3.358856 2.410125,4.171356" transform="matrix(1,0,0,-1,248.8555,53.4487)" id="path35618" style="fill:none;stroke:#000000;stroke-width:0.5;stroke-linecap:round;stroke-linejoin:round;stroke-miterlimit:10"/>
        <path d="m 261.26562,44.464844 c 0,-0.375 -0.14843,-0.734375 -0.41406,-1 -0.26562,-0.265625 -0.625,-0.417969 -1.0039,-0.417969 -0.375,0 -0.73438,0.152344 -1,0.417969 -0.26563,0.265625 -0.41797,0.625 -0.41797,1 0,0.378906 0.15234,0.738281 0.41797,1.003906 0.26562,0.265625 0.625,0.414063 1,0.414063 0.3789,0 0.73828,-0.148438 1.0039,-0.414063 0.26563,-0.265625 0.41406,-0.625 0.41406,-1.003906" id="path35620"/>
      </g>
    </g>
    <g clip-path="url(#clip1)" id="g35622">
      <g id="g35624">
        <use transform="translate(255.1094,95.6245)" id="use35626" x="0" y="0" width="348" height="209" xlink:href="#glyph0-1"/>
        <use transform="translate(258.12905,95.6245)" id="use35628" x="0" y="0" width="348" height="209" xlink:href="#glyph0-4"/>
        <use transform="translate(261.95767,95.6245)" id="use35630" x="0" y="0" width="348" height="209" xlink:href="#glyph0-3"/>
      </g>
      <g id="g35632">
        <use transform="translate(255.01874,41.640314)" id="use35634" x="0" y="0" width="348" height="209" xlink:href="#glyph1-1"/>
      </g>
      <g id="g35636">
        <use transform="translate(217.47878,54.235)" id="use35638" x="0" y="0" width="348" height="209" xlink:href="#glyph2-1"/>
      </g>
      <g id="g35640">
        <use transform="translate(223.23913,54.235)" id="use35642" x="0" y="0" width="348" height="209" xlink:href="#glyph3-1"/>
      </g>
      <g id="g35644">
        <use transform="translate(291.50566,39.527253)" id="use35646" x="0" y="0" width="348" height="209" xlink:href="#glyph3-1"/>
      </g>
    </g>
  </g>
</svg>
