<?xml version="1.0" encoding="UTF-8"?>
<svg xmlns="http://www.w3.org/2000/svg" xmlns:xlink="http://www.w3.org/1999/xlink" width="298pt" height="372pt" viewBox="0 0 215 268" version="1.1">
<defs>
<g>
<symbol overflow="visible" id="glyph0-0">
<path style="stroke:none;" d=""/>
</symbol>
<symbol overflow="visible" id="glyph0-1">
<path style="stroke:none;" d="M 2.578125 1.546875 C 2.546875 1.5 2.5 1.46875 2.453125 1.4375 C 1.6875 0.75 1.21875 -0.3125 1.171875 -1.59375 C 1.140625 -2.46875 1.296875 -3.375 1.703125 -4.15625 C 1.90625 -4.53125 2.140625 -4.84375 2.453125 -5.109375 C 2.5 -5.15625 2.546875 -5.1875 2.578125 -5.21875 L 2.328125 -5.21875 C 2.171875 -5.21875 2.1875 -5.21875 2.078125 -5.140625 C 1.71875 -4.859375 1.421875 -4.484375 1.1875 -4.0625 C 0.53125 -2.828125 0.484375 -1.15625 1.09375 0.1875 C 1.3125 0.6875 1.65625 1.109375 2.078125 1.46875 C 2.171875 1.53125 2.171875 1.546875 2.328125 1.546875 L 2.578125 1.546875 Z M 2.578125 1.546875 "/>
</symbol>
<symbol overflow="visible" id="glyph0-2">
<path style="stroke:none;" d="M 0.640625 -2.640625 C 0.765625 -2.703125 0.859375 -2.78125 0.984375 -2.84375 C 1.203125 -2.9375 1.4375 -2.984375 1.6875 -3 C 1.75 -3.015625 1.828125 -3.015625 1.90625 -3.015625 C 2.1875 -2.96875 2.421875 -2.78125 2.5 -2.515625 C 2.578125 -2.3125 2.546875 -2.0625 2.546875 -1.859375 C 2.1875 -1.859375 1.8125 -1.828125 1.453125 -1.734375 C 0.953125 -1.609375 0.328125 -1.359375 0.390625 -0.71875 C 0.4375 -0.4375 0.59375 -0.15625 0.859375 -0.015625 C 1.03125 0.0625 1.234375 0.0625 1.4375 0.046875 C 1.734375 0.015625 2.0625 -0.0625 2.3125 -0.25 C 2.40625 -0.3125 2.484375 -0.390625 2.5625 -0.46875 L 2.5625 0 L 3.046875 0 L 3.046875 -1.828125 C 3.046875 -2.015625 3.078125 -2.21875 3.03125 -2.421875 C 2.96875 -2.90625 2.53125 -3.265625 2.078125 -3.359375 C 1.796875 -3.40625 1.359375 -3.34375 1.125 -3.296875 C 1.046875 -3.265625 0.65625 -3.140625 0.625 -3.078125 C 0.59375 -3.046875 0.609375 -2.984375 0.609375 -2.953125 C 0.625 -2.84375 0.640625 -2.75 0.640625 -2.640625 Z M 2.546875 -1.625 L 2.546875 -1.109375 C 2.546875 -0.96875 2.546875 -0.84375 2.484375 -0.71875 C 2.40625 -0.578125 2.265625 -0.46875 2.109375 -0.421875 C 1.78125 -0.296875 1.328125 -0.28125 1.046875 -0.515625 C 0.96875 -0.5625 0.90625 -0.640625 0.890625 -0.75 C 0.8125 -1.046875 1.078125 -1.28125 1.3125 -1.390625 C 1.640625 -1.546875 2.109375 -1.625 2.546875 -1.625 Z M 2.546875 -1.625 "/>
</symbol>
<symbol overflow="visible" id="glyph0-3">
<path style="stroke:none;" d="M 0.4375 -5.21875 C 0.46875 -5.1875 0.515625 -5.15625 0.5625 -5.109375 C 1.421875 -4.34375 1.890625 -3.109375 1.828125 -1.59375 C 1.8125 -0.84375 1.625 -0.09375 1.265625 0.5625 C 1.078125 0.890625 0.84375 1.1875 0.5625 1.4375 C 0.515625 1.46875 0.46875 1.5 0.4375 1.546875 L 0.6875 1.546875 C 0.84375 1.546875 0.828125 1.546875 0.921875 1.46875 C 1.296875 1.171875 1.59375 0.796875 1.8125 0.390625 C 2.484375 -0.859375 2.53125 -2.515625 1.921875 -3.859375 C 1.6875 -4.375 1.359375 -4.796875 0.9375 -5.140625 C 0.84375 -5.21875 0.84375 -5.21875 0.6875 -5.21875 L 0.4375 -5.21875 Z M 0.4375 -5.21875 "/>
</symbol>
<symbol overflow="visible" id="glyph0-4">
<path style="stroke:none;" d="M 0.21875 0 L 0.578125 0 C 0.625 0 0.6875 0.015625 0.71875 -0.015625 C 0.75 -0.03125 0.75 -0.0625 0.765625 -0.09375 C 0.875 -0.34375 1.21875 -1.203125 1.265625 -1.296875 C 1.28125 -1.359375 1.296875 -1.390625 1.375 -1.390625 L 3.046875 -1.390625 C 3.234375 -1.390625 3.421875 -1.40625 3.609375 -1.390625 C 3.6875 -1.390625 3.703125 -1.296875 3.734375 -1.234375 C 3.8125 -1.03125 4.1875 -0.125 4.203125 -0.0625 C 4.234375 0.015625 4.296875 0 4.40625 0 L 4.796875 0 C 4.625 -0.453125 4.4375 -0.890625 4.25 -1.34375 L 2.8125 -4.828125 C 2.796875 -4.859375 2.796875 -4.90625 2.765625 -4.90625 C 2.71875 -4.90625 2.671875 -4.90625 2.625 -4.90625 L 2.375 -4.90625 C 2.328125 -4.90625 2.265625 -4.921875 2.234375 -4.890625 C 2.203125 -4.875 2.1875 -4.84375 2.1875 -4.8125 L 0.765625 -1.34375 L 0.40625 -0.484375 C 0.34375 -0.328125 0.265625 -0.171875 0.21875 0 Z M 2.484375 -4.328125 C 2.796875 -3.46875 3.15625 -2.640625 3.5 -1.8125 L 1.46875 -1.8125 C 1.796875 -2.640625 2.15625 -3.46875 2.46875 -4.328125 L 2.484375 -4.328125 Z M 2.484375 -4.328125 "/>
</symbol>
<symbol overflow="visible" id="glyph0-5">
<path style="stroke:none;" d="M 0.734375 -4.84375 L 0.734375 0 L 1.25 0 L 1.25 -2.21875 L 2.28125 -2.21875 C 2.421875 -2.21875 2.546875 -2.234375 2.65625 -2.203125 C 2.78125 -2.03125 2.90625 -1.859375 3.03125 -1.671875 C 3.421875 -1.125 3.8125 -0.5625 4.21875 -0.015625 C 4.390625 0 4.578125 0 4.75 0 L 4.46875 -0.390625 L 3.125 -2.28125 C 3.25 -2.296875 3.390625 -2.328125 3.515625 -2.390625 C 4.015625 -2.5625 4.578125 -2.96875 4.53125 -3.5625 C 4.515625 -3.796875 4.453125 -3.9375 4.328125 -4.109375 C 4.015625 -4.515625 3.484375 -4.765625 2.875 -4.828125 C 2.625 -4.84375 2.390625 -4.84375 2.125 -4.84375 L 0.734375 -4.84375 Z M 1.25 -2.609375 L 1.25 -4.421875 L 2.296875 -4.421875 C 2.640625 -4.421875 3 -4.421875 3.34375 -4.328125 C 3.671875 -4.203125 4 -3.96875 4.046875 -3.59375 C 4.0625 -3.359375 3.96875 -3.140625 3.8125 -2.984375 C 3.6875 -2.875 3.546875 -2.796875 3.390625 -2.734375 C 3.046875 -2.609375 2.6875 -2.609375 2.328125 -2.609375 L 1.25 -2.609375 Z M 1.25 -2.609375 "/>
</symbol>
<symbol overflow="visible" id="glyph0-6">
<path style="stroke:none;" d="M 0.734375 -4.828125 L 0.734375 0 L 4.328125 0 L 4.328125 -0.4375 L 1.265625 -0.4375 L 1.265625 -2.296875 L 4 -2.296875 L 4 -2.703125 L 1.265625 -2.703125 L 1.265625 -4.40625 L 4.203125 -4.40625 L 4.203125 -4.828125 L 0.734375 -4.828125 Z M 0.734375 -4.828125 "/>
</symbol>
<symbol overflow="visible" id="glyph0-7">
<path style="stroke:none;" d="M 0.578125 -4.84375 L 0.578125 0 L 1.09375 0 L 1.09375 -0.46875 L 1.09375 -0.46875 C 1.15625 -0.359375 1.265625 -0.265625 1.359375 -0.1875 C 1.671875 0.0625 2.1875 0.140625 2.640625 -0.078125 C 2.84375 -0.1875 3.015625 -0.359375 3.15625 -0.546875 C 3.84375 -1.5 3.421875 -3.09375 2.453125 -3.3125 C 2.328125 -3.359375 2.171875 -3.359375 2.03125 -3.328125 C 1.625 -3.28125 1.3125 -3.078125 1.078125 -2.828125 L 1.078125 -4.84375 L 0.578125 -4.84375 Z M 1.8125 -2.953125 C 2.140625 -2.984375 2.515625 -2.84375 2.734375 -2.578125 C 2.90625 -2.359375 2.96875 -2.078125 2.96875 -1.8125 C 3 -1.4375 2.953125 -1.03125 2.71875 -0.734375 C 2.515625 -0.46875 2.1875 -0.359375 1.875 -0.328125 C 1.609375 -0.328125 1.375 -0.421875 1.203125 -0.640625 C 1.171875 -0.6875 1.125 -0.75 1.09375 -0.8125 C 1.09375 -0.859375 1.09375 -0.90625 1.09375 -0.9375 L 1.09375 -2.328125 C 1.09375 -2.390625 1.078125 -2.46875 1.109375 -2.53125 C 1.140625 -2.609375 1.203125 -2.65625 1.265625 -2.71875 C 1.421875 -2.84375 1.609375 -2.9375 1.8125 -2.953125 Z M 1.8125 -2.953125 "/>
</symbol>
<symbol overflow="visible" id="glyph0-8">
<path style="stroke:none;" d="M 0.625 -3.203125 C 0.734375 -3.609375 0.90625 -4.046875 1.34375 -4.203125 C 1.5 -4.265625 1.671875 -4.28125 1.859375 -4.265625 C 2.21875 -4.234375 2.578125 -4.09375 2.796875 -3.78125 C 2.9375 -3.578125 2.984375 -3.328125 2.953125 -3.078125 C 2.875 -2.40625 2.28125 -1.984375 1.796875 -1.609375 C 1.40625 -1.3125 0.59375 -0.59375 0.59375 -0.59375 L 0.453125 -0.484375 C 0.390625 -0.40625 0.390625 -0.421875 0.390625 -0.265625 L 0.390625 0 L 3.484375 0 L 3.484375 -0.4375 L 0.84375 -0.4375 C 1.109375 -0.671875 1.90625 -1.34375 2.140625 -1.515625 C 2.578125 -1.84375 3.0625 -2.15625 3.34375 -2.640625 C 3.640625 -3.203125 3.453125 -3.921875 2.96875 -4.3125 C 2.4375 -4.765625 1.46875 -4.828125 0.875 -4.390625 C 0.65625 -4.234375 0.5 -3.984375 0.390625 -3.734375 C 0.375 -3.671875 0.328125 -3.609375 0.328125 -3.546875 C 0.34375 -3.515625 0.390625 -3.484375 0.40625 -3.4375 C 0.46875 -3.359375 0.546875 -3.265625 0.625 -3.203125 Z M 0.625 -3.203125 "/>
</symbol>
<symbol overflow="visible" id="glyph0-9">
<path style="stroke:none;" d="M 0.4375 -2.671875 C 0.375 -2.578125 0.4375 -2.453125 0.53125 -2.421875 C 0.578125 -2.40625 0.625 -2.421875 0.671875 -2.421875 L 5.125 -2.421875 C 5.1875 -2.421875 5.234375 -2.421875 5.296875 -2.453125 C 5.375 -2.546875 5.328125 -2.71875 5.203125 -2.734375 C 5.09375 -2.75 4.984375 -2.734375 4.890625 -2.734375 L 0.671875 -2.734375 C 0.5625 -2.734375 0.5 -2.75 0.4375 -2.671875 Z M 0.4375 -1.1875 C 0.375 -1.09375 0.4375 -0.96875 0.53125 -0.953125 C 0.578125 -0.9375 0.625 -0.9375 0.671875 -0.9375 L 5.125 -0.9375 C 5.1875 -0.9375 5.234375 -0.9375 5.296875 -0.984375 C 5.375 -1.078125 5.328125 -1.234375 5.203125 -1.265625 C 5.09375 -1.28125 4.984375 -1.265625 4.890625 -1.265625 L 0.65625 -1.265625 C 0.5625 -1.265625 0.484375 -1.265625 0.4375 -1.1875 Z M 0.4375 -1.1875 "/>
</symbol>
<symbol overflow="visible" id="glyph1-0">
<path style="stroke:none;" d=""/>
</symbol>
<symbol overflow="visible" id="glyph1-1">
<path style="stroke:none;" d="M 0.21875 0 L 0.578125 0 L 0.71875 -0.015625 L 0.796875 -0.109375 C 1.0625 -0.53125 1.3125 -0.96875 1.609375 -1.375 L 1.671875 -1.390625 L 3.96875 -1.390625 C 4.0625 -0.9375 4.125 -0.453125 4.25 -0.015625 C 4.390625 0.03125 4.625 -0.015625 4.796875 0 C 4.78125 -0.140625 3.9375 -4.359375 3.890625 -4.609375 C 3.875 -4.65625 3.84375 -4.890625 3.8125 -4.90625 C 3.765625 -4.90625 3.71875 -4.90625 3.671875 -4.90625 L 3.40625 -4.90625 C 3.359375 -4.90625 3.296875 -4.921875 3.265625 -4.890625 C 3.21875 -4.859375 3.078125 -4.609375 3.078125 -4.609375 L 1.0625 -1.375 L 0.515625 -0.46875 C 0.40625 -0.328125 0.296875 -0.15625 0.21875 0 Z M 3.40625 -4.328125 C 3.546875 -3.484375 3.71875 -2.640625 3.875 -1.8125 L 1.859375 -1.8125 C 2.359375 -2.65625 2.890625 -3.484375 3.40625 -4.328125 Z M 3.40625 -4.328125 "/>
</symbol>
<symbol overflow="visible" id="glyph1-2">
<path style="stroke:none;" d="M 1.765625 -4.84375 L 0.75 0 L 2.203125 0 C 2.453125 0 2.703125 0.015625 2.96875 0 C 3.78125 -0.078125 4.578125 -0.484375 4.875 -1.109375 C 5.03125 -1.5 4.953125 -1.859375 4.625 -2.140625 C 4.359375 -2.359375 4.015625 -2.484375 3.671875 -2.53125 C 3.8125 -2.578125 3.9375 -2.59375 4.078125 -2.640625 C 4.59375 -2.8125 5.15625 -3.171875 5.21875 -3.703125 C 5.21875 -3.75 5.21875 -3.8125 5.21875 -3.875 C 5.140625 -4.28125 4.875 -4.484375 4.53125 -4.640625 C 4.125 -4.84375 3.75 -4.84375 3.21875 -4.84375 L 1.765625 -4.84375 Z M 1.828125 -2.703125 C 1.84375 -2.859375 2.09375 -3.921875 2.171875 -4.296875 C 2.1875 -4.359375 2.171875 -4.421875 2.265625 -4.421875 L 2.828125 -4.421875 C 3.3125 -4.421875 3.828125 -4.453125 4.296875 -4.21875 C 4.46875 -4.125 4.6875 -4 4.71875 -3.78125 C 4.78125 -3.46875 4.515625 -3.21875 4.28125 -3.0625 C 4.234375 -3.03125 4.1875 -3.015625 4.140625 -2.984375 C 3.828125 -2.828125 3.484375 -2.75 3.125 -2.71875 C 2.9375 -2.703125 2.75 -2.703125 2.5625 -2.703125 L 1.828125 -2.703125 Z M 1.34375 -0.40625 C 1.359375 -0.515625 1.4375 -0.859375 1.453125 -0.90625 C 1.484375 -1.09375 1.6875 -2.015625 1.71875 -2.171875 C 1.734375 -2.25 1.71875 -2.328125 1.8125 -2.328125 L 2.515625 -2.328125 C 2.671875 -2.328125 2.84375 -2.328125 2.984375 -2.328125 C 3.375 -2.3125 3.765625 -2.234375 4.09375 -2.015625 C 4.265625 -1.90625 4.453125 -1.734375 4.453125 -1.453125 C 4.453125 -1.046875 4.078125 -0.796875 3.75 -0.640625 C 3.515625 -0.515625 3.109375 -0.421875 2.8125 -0.421875 C 2.328125 -0.40625 1.828125 -0.40625 1.34375 -0.40625 Z M 1.34375 -0.40625 "/>
</symbol>
<symbol overflow="visible" id="glyph1-3">
<path style="stroke:none;" d="M 4.609375 -2.296875 L 3.09375 -2.296875 L 2.984375 -2.28125 C 2.9375 -2.15625 2.90625 -2.015625 2.890625 -1.875 L 4.015625 -1.875 C 3.984375 -1.703125 3.8125 -0.953125 3.8125 -0.90625 C 3.796875 -0.828125 3.75 -0.578125 3.71875 -0.546875 C 3.671875 -0.5 3.59375 -0.5 3.546875 -0.484375 C 3.25 -0.40625 2.796875 -0.328125 2.484375 -0.359375 C 1.890625 -0.390625 1.46875 -0.71875 1.234375 -1.171875 C 1.015625 -1.640625 1.03125 -2.1875 1.1875 -2.671875 C 1.46875 -3.515625 2.1875 -4.265625 3.09375 -4.453125 C 3.6875 -4.5625 4.328125 -4.390625 4.671875 -4.125 C 4.71875 -4.078125 4.765625 -4.046875 4.828125 -4 L 5.03125 -4.546875 C 4.875 -4.625 4.71875 -4.703125 4.546875 -4.75 C 4.046875 -4.921875 3.359375 -4.9375 2.828125 -4.796875 C 1.828125 -4.515625 1 -3.703125 0.671875 -2.71875 C 0.5 -2.1875 0.46875 -1.578125 0.703125 -1.046875 C 0.859375 -0.671875 1.15625 -0.359375 1.5 -0.171875 C 2.265625 0.234375 3.234375 0.03125 3.953125 -0.1875 C 4 -0.21875 4.15625 -0.265625 4.1875 -0.296875 C 4.203125 -0.328125 4.203125 -0.40625 4.21875 -0.453125 L 4.609375 -2.296875 Z M 4.609375 -2.296875 "/>
</symbol>
<symbol overflow="visible" id="glyph1-4">
<path style="stroke:none;" d="M 1.765625 -4.84375 L 0.734375 0 L 2.109375 0 C 2.390625 0 2.65625 0.015625 2.9375 0 C 4.484375 -0.171875 5.703125 -1.578125 5.640625 -3.015625 C 5.609375 -4.0625 4.890625 -4.734375 3.953125 -4.828125 C 3.75 -4.84375 3.515625 -4.84375 3.296875 -4.84375 L 1.765625 -4.84375 Z M 1.34375 -0.40625 C 1.359375 -0.515625 1.390625 -0.609375 1.40625 -0.703125 C 1.453125 -0.9375 1.5 -1.15625 1.546875 -1.375 C 1.65625 -1.890625 2.046875 -3.703125 2.125 -4.140625 L 2.171875 -4.34375 C 2.1875 -4.390625 2.1875 -4.421875 2.265625 -4.421875 L 2.96875 -4.421875 C 3.25 -4.421875 3.53125 -4.453125 3.8125 -4.40625 C 4.125 -4.375 4.453125 -4.25 4.6875 -4.03125 C 4.78125 -3.953125 4.84375 -3.875 4.90625 -3.78125 C 5.09375 -3.4375 5.171875 -3.078125 5.109375 -2.546875 C 5.03125 -2 4.765625 -1.453125 4.359375 -1.0625 C 4.09375 -0.8125 3.75 -0.625 3.40625 -0.515625 C 3.046875 -0.40625 2.78125 -0.40625 2.359375 -0.40625 L 1.34375 -0.40625 Z M 1.34375 -0.40625 "/>
</symbol>
<symbol overflow="visible" id="glyph2-0">
<path style="stroke:none;" d=""/>
</symbol>
<symbol overflow="visible" id="glyph2-1">
<path style="stroke:none;" d="M 2.875 5.703125 C 2.75 5.484375 2.640625 5.234375 2.515625 5.015625 C 2.4375 4.84375 1.53125 3.03125 1.5 3 C 1.4375 2.921875 1.34375 3.015625 1.28125 3.0625 L 0.703125 3.453125 C 0.640625 3.5 0.5 3.546875 0.515625 3.65625 C 0.53125 3.734375 0.625 3.75 0.671875 3.703125 C 0.75 3.671875 1.09375 3.421875 1.09375 3.421875 C 1.21875 3.71875 1.375 3.984375 1.515625 4.265625 L 2.515625 6.265625 C 2.546875 6.328125 2.578125 6.421875 2.640625 6.453125 C 2.671875 6.46875 2.71875 6.453125 2.75 6.453125 C 2.875 6.453125 2.921875 6.3125 2.96875 6.203125 L 6.28125 -0.03125 C 6.328125 -0.109375 6.34375 -0.1875 6.296875 -0.265625 C 6.234375 -0.328125 6.125 -0.34375 6.0625 -0.28125 C 6 -0.234375 5.984375 -0.15625 5.953125 -0.09375 L 5.359375 1.03125 L 3.75 4.046875 L 3.15625 5.171875 C 3.0625 5.359375 2.953125 5.53125 2.875 5.703125 Z M 2.875 5.703125 "/>
</symbol>
</g>
<clipPath id="clip1">
  <path d="M -51 283 L 270.050781 283 L 270.050781 -40.746094 L -51 -40.746094 L -51 283 Z M -51 283 "/>
</clipPath>
<clipPath id="clip2">
  <path d="M -51 283 L 270.050781 283 L 270.050781 -40.746094 L -51 -40.746094 L -51 283 Z M -51 283 "/>
</clipPath>
<clipPath id="clip3">
  <path d="M -51 -40.746094 L 270.050781 -40.746094 L 270.050781 283 L -51 283 L -51 -40.746094 Z M -51 -40.746094 "/>
</clipPath>
<clipPath id="clip4">
  <path d="M -51 283 L 270.050781 283 L 270.050781 -40.746094 L -51 -40.746094 L -51 283 Z M -51 283 "/>
</clipPath>
<clipPath id="clip5">
  <path d="M -51 283 L 270.050781 283 L 270.050781 -40.746094 L -51 -40.746094 L -51 283 Z M -51 283 "/>
</clipPath>
<clipPath id="clip6">
  <path d="M -51 -40.746094 L 270.050781 -40.746094 L 270.050781 283 L -51 283 L -51 -40.746094 Z M -51 -40.746094 "/>
</clipPath>
<clipPath id="clip7">
  <path d="M -51 283 L 270.050781 283 L 270.050781 -40.746094 L -51 -40.746094 L -51 283 Z M -51 283 "/>
</clipPath>
<clipPath id="clip8">
  <path d="M -51 283 L 270.050781 283 L 270.050781 -40.746094 L -51 -40.746094 L -51 283 Z M -51 283 "/>
</clipPath>
<clipPath id="clip9">
  <path d="M -51 -40.746094 L 270.050781 -40.746094 L 270.050781 283 L -51 283 L -51 -40.746094 Z M -51 -40.746094 "/>
</clipPath>
<clipPath id="clip10">
  <path d="M -51 283 L 270.050781 283 L 270.050781 -40.746094 L -51 -40.746094 L -51 283 Z M -51 283 "/>
</clipPath>
<clipPath id="clip11">
  <path d="M -51 283 L 270.050781 283 L 270.050781 -40.746094 L -51 -40.746094 L -51 283 Z M -51 283 "/>
</clipPath>
<clipPath id="clip12">
  <path d="M -51 -40.746094 L 270.050781 -40.746094 L 270.050781 283 L -51 283 L -51 -40.746094 Z M -51 -40.746094 "/>
</clipPath>
<clipPath id="clip13">
  <path d="M -51 283 L 270.050781 283 L 270.050781 -40.746094 L -51 -40.746094 L -51 283 Z M -51 283 "/>
</clipPath>
<clipPath id="clip14">
  <path d="M -51 283 L 270.050781 283 L 270.050781 -40.746094 L -51 -40.746094 L -51 283 Z M -51 283 "/>
</clipPath>
<clipPath id="clip15">
  <path d="M -51 -40.746094 L 270.050781 -40.746094 L 270.050781 283 L -51 283 L -51 -40.746094 Z M -51 -40.746094 "/>
</clipPath>
<clipPath id="clip16">
  <path d="M -51 283 L 270.050781 283 L 270.050781 -40.746094 L -51 -40.746094 L -51 283 Z M -51 283 "/>
</clipPath>
<clipPath id="clip17">
  <path d="M -51 283 L 270.050781 283 L 270.050781 -40.746094 L -51 -40.746094 L -51 283 Z M -51 283 "/>
</clipPath>
<clipPath id="clip18">
  <path d="M -51 -40.746094 L 270.050781 -40.746094 L 270.050781 283 L -51 283 L -51 -40.746094 Z M -51 -40.746094 "/>
</clipPath>
<clipPath id="clip19">
  <path d="M -51 283 L 270.050781 283 L 270.050781 -40.746094 L -51 -40.746094 L -51 283 Z M -51 283 "/>
</clipPath>
<clipPath id="clip20">
  <path d="M -51 283 L 270.050781 283 L 270.050781 -40.746094 L -51 -40.746094 L -51 283 Z M -51 283 "/>
</clipPath>
<clipPath id="clip21">
  <path d="M -51 -40.746094 L 270.050781 -40.746094 L 270.050781 283 L -51 283 L -51 -40.746094 Z M -51 -40.746094 "/>
</clipPath>
<clipPath id="clip22">
  <path d="M -51 283 L 270.050781 283 L 270.050781 -40.746094 L -51 -40.746094 L -51 283 Z M -51 283 "/>
</clipPath>
<clipPath id="clip23">
  <path d="M -51 283 L 270.050781 283 L 270.050781 -40.746094 L -51 -40.746094 L -51 283 Z M -51 283 "/>
</clipPath>
<clipPath id="clip24">
  <path d="M -51 -40.746094 L 270.050781 -40.746094 L 270.050781 283 L -51 283 L -51 -40.746094 Z M -51 -40.746094 "/>
</clipPath>
<clipPath id="clip25">
  <path d="M -51 283 L 270.050781 283 L 270.050781 -40.746094 L -51 -40.746094 L -51 283 Z M -51 283 "/>
</clipPath>
<clipPath id="clip26">
  <path d="M -51 283 L 270.050781 283 L 270.050781 -40.746094 L -51 -40.746094 L -51 283 Z M -51 283 "/>
</clipPath>
<clipPath id="clip27">
  <path d="M -51 -40.746094 L 270.050781 -40.746094 L 270.050781 283 L -51 283 L -51 -40.746094 Z M -51 -40.746094 "/>
</clipPath>
<clipPath id="clip28">
  <path d="M -51 283 L 270.050781 283 L 270.050781 -40.746094 L -51 -40.746094 L -51 283 Z M -51 283 "/>
</clipPath>
<clipPath id="clip29">
  <path d="M -51 283 L 270.050781 283 L 270.050781 -40.746094 L -51 -40.746094 L -51 283 Z M -51 283 "/>
</clipPath>
<clipPath id="clip30">
  <path d="M -51 -40.746094 L 270.050781 -40.746094 L 270.050781 283 L -51 283 L -51 -40.746094 Z M -51 -40.746094 "/>
</clipPath>
<clipPath id="clip31">
  <path d="M -51 283 L 270.050781 283 L 270.050781 -40.746094 L -51 -40.746094 L -51 283 Z M -51 283 "/>
</clipPath>
</defs>
<g id="surface0">
<g clip-path="url(#clip1)" clip-rule="nonzero">
<path style="fill:none;stroke-width:0.5;stroke-linecap:butt;stroke-linejoin:miter;stroke:rgb(13.730068%,12.159915%,12.54902%);stroke-opacity:1;stroke-miterlimit:4;" d="M -0.00045625 -0.00195 L -69.195769 -6.330075 L -63.727019 63.876956 L 5.233919 68.298831 L -0.00045625 -0.00195 Z M -0.00045625 -0.00195 " transform="matrix(1,0,0,-1,127.9028,85.7168)"/>
<path style="fill:none;stroke-width:0.75;stroke-linecap:butt;stroke-linejoin:miter;stroke:rgb(13.730068%,12.159915%,12.54902%);stroke-opacity:1;stroke-dasharray:3,2;stroke-miterlimit:4;" d="M 181.886719 193.375 L 112.304688 193.375 L 112.304688 265.285156 L 181.886719 265.285156 L 181.886719 193.375 Z M 181.886719 193.375 " transform="matrix(1,0,0,-1,-51,283)"/>
<path style="fill:none;stroke-width:0.75;stroke-linecap:butt;stroke-linejoin:miter;stroke:rgb(13.730068%,12.159915%,12.54902%);stroke-opacity:1;stroke-miterlimit:4;" d="M -0.00143125 -0.0014375 L -7.337369 -0.0014375 L -16.661588 -30.231906 L -13.435025 -63.317844 L -4.931119 -63.317844 " transform="matrix(1,0,0,-1,63.9819,24.3345)"/>
<path style="fill:none;stroke-width:0.75;stroke-linecap:butt;stroke-linejoin:miter;stroke:rgb(13.730068%,12.159915%,12.54902%);stroke-opacity:1;stroke-miterlimit:4;" d="M -0.00004375 0.0009375 L -0.1602 -6.862344 L 33.55855 -12.780312 L 62.242144 -2.737344 L 62.242144 5.743125 " transform="matrix(1,0,0,-1,62.7227,91.7275)"/>
<path style="fill:none;stroke-width:0.75;stroke-linecap:butt;stroke-linejoin:miter;stroke:rgb(13.730068%,12.159915%,12.54902%);stroke-opacity:1;stroke-miterlimit:4;" d="M -0.00004375 -0.00098125 L 6.679644 0.545894 L 19.410112 30.315425 L 13.851519 64.745112 L 4.507769 64.745112 " transform="matrix(1,0,0,-1,127.9727,84.6123)"/>
<path style="fill:none;stroke-width:0.75;stroke-linecap:butt;stroke-linejoin:miter;stroke:rgb(13.730068%,12.159915%,12.54902%);stroke-opacity:1;stroke-miterlimit:4;" d="M 0.0010125 0.0004625 L -0.174769 7.277806 L 28.161169 17.676244 L 62.411169 11.223119 L 62.411169 4.5864 " transform="matrix(1,0,0,-1,67.7568,21.5864)"/>
<path style="fill:none;stroke-width:0.75;stroke-linecap:butt;stroke-linejoin:miter;stroke:rgb(13.730068%,12.159915%,12.54902%);stroke-opacity:1;stroke-miterlimit:4;" d="M -0.00194375 0.000025 L 8.029306 0.000025 " transform="matrix(1,0,0,-1,55.7246,27.2344)"/>
<path style="fill:none;stroke-width:0.75;stroke-linecap:butt;stroke-linejoin:miter;stroke:rgb(13.730068%,12.159915%,12.54902%);stroke-opacity:1;stroke-miterlimit:4;" d="M 0.000525 0.000025 L 8.914587 -0.445287 " transform="matrix(1,0,0,-1,54.5151,30.9844)"/>
<path style="fill:none;stroke-width:0.75;stroke-linecap:butt;stroke-linejoin:miter;stroke:rgb(13.730068%,12.159915%,12.54902%);stroke-opacity:1;stroke-miterlimit:4;" d="M -0.00190625 -0.0009375 L 9.826219 -0.44625 " transform="matrix(1,0,0,-1,53.248,35.5225)"/>
<path style="fill:none;stroke-width:0.75;stroke-linecap:butt;stroke-linejoin:miter;stroke:rgb(13.730068%,12.159915%,12.54902%);stroke-opacity:1;stroke-miterlimit:4;" d="M -0.00190625 0.00195 L 10.947312 -0.638675 " transform="matrix(1,0,0,-1,51.748,40.2207)"/>
<path style="fill:none;stroke-width:0.75;stroke-linecap:butt;stroke-linejoin:miter;stroke:rgb(13.730068%,12.159915%,12.54902%);stroke-opacity:1;stroke-miterlimit:4;" d="M -0.001475 -0.0010125 L 11.928213 -1.043981 " transform="matrix(1,0,0,-1,50.3921,44.6318)"/>
<path style="fill:none;stroke-width:0.75;stroke-linecap:butt;stroke-linejoin:miter;stroke:rgb(13.730068%,12.159915%,12.54902%);stroke-opacity:1;stroke-miterlimit:4;" d="M -0.0000125 -0.00004375 L 13.246081 -1.246138 " transform="matrix(1,0,0,-1,48.6797,49.4648)"/>
<path style="fill:none;stroke-width:0.75;stroke-linecap:butt;stroke-linejoin:miter;stroke:rgb(13.730068%,12.159915%,12.54902%);stroke-opacity:1;stroke-miterlimit:4;" d="M 0.0015125 -0.00000625 L 13.989794 -1.164069 " transform="matrix(1,0,0,-1,47.3188,54.5664)"/>
<path style="fill:none;stroke-width:0.75;stroke-linecap:butt;stroke-linejoin:miter;stroke:rgb(13.730068%,12.159915%,12.54902%);stroke-opacity:1;stroke-miterlimit:4;" d="M -0.00149375 0.0010125 L 13.299287 -0.893519 " transform="matrix(1,0,0,-1,47.8179,59.6807)"/>
<path style="fill:none;stroke-width:0.75;stroke-linecap:butt;stroke-linejoin:miter;stroke:rgb(13.730068%,12.159915%,12.54902%);stroke-opacity:1;stroke-miterlimit:4;" d="M 0.00001875 -0.0009875 L 12.421894 -1.0088 " transform="matrix(1,0,0,-1,48.3242,64.8662)"/>
<path style="fill:none;stroke-width:0.75;stroke-linecap:butt;stroke-linejoin:miter;stroke:rgb(13.730068%,12.159915%,12.54902%);stroke-opacity:1;stroke-miterlimit:4;" d="M -0.0005 0.001 L 11.542469 -1.018531 " transform="matrix(1,0,0,-1,48.813,69.876)"/>
<path style="fill:none;stroke-width:0.75;stroke-linecap:butt;stroke-linejoin:miter;stroke:rgb(13.730068%,12.159915%,12.54902%);stroke-opacity:1;stroke-miterlimit:4;" d="M -0.00193125 -0.001 L 10.697287 -0.751 " transform="matrix(1,0,0,-1,49.2949,74.8115)"/>
<path style="fill:none;stroke-width:0.75;stroke-linecap:butt;stroke-linejoin:miter;stroke:rgb(13.730068%,12.159915%,12.54902%);stroke-opacity:1;stroke-miterlimit:4;" d="M -0.00150625 0.00195 L 9.775837 -0.650394 " transform="matrix(1,0,0,-1,49.8101,80.0957)"/>
<path style="fill:none;stroke-width:0.75;stroke-linecap:butt;stroke-linejoin:miter;stroke:rgb(13.730068%,12.159915%,12.54902%);stroke-opacity:1;stroke-miterlimit:4;" d="M 0.0004625 -0.00093125 L 8.449681 -0.26265 " transform="matrix(1,0,0,-1,50.7261,85.7686)"/>
</g>
<g clip-path="url(#clip2)" clip-rule="nonzero">
<g clip-path="url(#clip3)" clip-rule="nonzero">
<path style=" stroke:none;fill-rule:nonzero;fill:rgb(13.730068%,12.159915%,12.54902%);fill-opacity:1;" d="M 96.019531 99.769531 C 95.128906 99.773438 94.398438 99.054688 94.394531 98.164063 C 94.390625 97.273438 95.109375 96.546875 95.996094 96.542969 C 96.886719 96.535156 97.617188 97.25 97.621094 98.144531 C 97.628906 99.035156 96.910156 99.761719 96.019531 99.769531 "/>
<path style="fill:none;stroke-width:1;stroke-linecap:butt;stroke-linejoin:miter;stroke:rgb(13.730068%,12.159915%,12.54902%);stroke-opacity:1;stroke-miterlimit:4;" d="M 0.0010125 0.001 L -31.202112 0.001 " transform="matrix(1,0,0,-1,96.0068,98.126)"/>
<path style=" stroke:none;fill-rule:nonzero;fill:rgb(13.730068%,12.159915%,12.54902%);fill-opacity:1;" d="M 66.40625 95.808594 L 57.65625 98.15625 L 66.40625 100.5 L 66.40625 95.808594 Z M 66.40625 95.808594 "/>
<path style=" stroke:none;fill-rule:nonzero;fill:rgb(13.730068%,12.159915%,12.54902%);fill-opacity:1;" d="M 53.515625 54.933594 C 53.519531 55.824219 52.800781 56.550781 51.910156 56.558594 C 51.019531 56.5625 50.289063 55.84375 50.285156 54.953125 C 50.28125 54.0625 50.996094 53.335938 51.890625 53.332031 C 52.78125 53.324219 53.507813 54.042969 53.515625 54.933594 "/>
<path style="fill:none;stroke-width:1;stroke-linecap:butt;stroke-linejoin:miter;stroke:rgb(13.730068%,12.159915%,12.54902%);stroke-opacity:1;stroke-miterlimit:4;" d="M -0.00100625 -0.0000125 L -0.00100625 -31.199231 " transform="matrix(1,0,0,-1,51.8721,54.9453)"/>
<path style=" stroke:none;fill-rule:nonzero;fill:rgb(13.730068%,12.159915%,12.54902%);fill-opacity:1;" d="M 49.554688 84.546875 L 51.902344 93.292969 L 54.246094 84.546875 L 49.554688 84.546875 Z M 49.554688 84.546875 "/>
<path style="fill:none;stroke-width:0.75;stroke-linecap:butt;stroke-linejoin:miter;stroke:rgb(13.730068%,12.159915%,12.54902%);stroke-opacity:1;stroke-miterlimit:4;" d="M 0.001925 0.00101875 L 0.001925 -7.866169 " transform="matrix(1,0,0,-1,66.5137,91.4268)"/>
<path style="fill:none;stroke-width:0.75;stroke-linecap:butt;stroke-linejoin:miter;stroke:rgb(13.730068%,12.159915%,12.54902%);stroke-opacity:1;stroke-miterlimit:4;" d="M 0.00050625 -0.00000625 L 0.00050625 -9.031256 " transform="matrix(1,0,0,-1,71.0659,91.0664)"/>
<path style="fill:none;stroke-width:0.75;stroke-linecap:butt;stroke-linejoin:miter;stroke:rgb(13.730068%,12.159915%,12.54902%);stroke-opacity:1;stroke-miterlimit:4;" d="M -0.00143125 -0.00095 L -0.00143125 -10.215794 " transform="matrix(1,0,0,-1,75.4819,90.7178)"/>
<path style="fill:none;stroke-width:0.75;stroke-linecap:butt;stroke-linejoin:miter;stroke:rgb(13.730068%,12.159915%,12.54902%);stroke-opacity:1;stroke-miterlimit:4;" d="M 0.00191875 0.00001875 L 0.00191875 -11.554669 " transform="matrix(1,0,0,-1,80.7598,90.3008)"/>
<path style="fill:none;stroke-width:0.75;stroke-linecap:butt;stroke-linejoin:miter;stroke:rgb(13.730068%,12.159915%,12.54902%);stroke-opacity:1;stroke-miterlimit:4;" d="M 0.00191875 0.001 L 0.00191875 -12.920875 " transform="matrix(1,0,0,-1,86.1348,89.876)"/>
<path style="fill:none;stroke-width:0.75;stroke-linecap:butt;stroke-linejoin:miter;stroke:rgb(13.730068%,12.159915%,12.54902%);stroke-opacity:1;stroke-miterlimit:4;" d="M 0.00003125 -0.001 L 0.00003125 -14.008813 " transform="matrix(1,0,0,-1,90.8945,89.624)"/>
<path style="fill:none;stroke-width:0.75;stroke-linecap:butt;stroke-linejoin:miter;stroke:rgb(13.730068%,12.159915%,12.54902%);stroke-opacity:1;stroke-miterlimit:4;" d="M 0.00195 -0.000975 L 0.00195 -15.899413 " transform="matrix(1,0,0,-1,96.2793,88.6084)"/>
<path style="fill:none;stroke-width:0.75;stroke-linecap:butt;stroke-linejoin:miter;stroke:rgb(13.730068%,12.159915%,12.54902%);stroke-opacity:1;stroke-miterlimit:4;" d="M -0.0005125 0.001 L -0.0005125 -14.416969 " transform="matrix(1,0,0,-1,100.8677,88.1885)"/>
<path style="fill:none;stroke-width:0.75;stroke-linecap:butt;stroke-linejoin:miter;stroke:rgb(13.730068%,12.159915%,12.54902%);stroke-opacity:1;stroke-miterlimit:4;" d="M -0.00001875 -0.0019375 L -0.00001875 -13.279281 " transform="matrix(1,0,0,-1,105.4258,87.7715)"/>
<path style="fill:none;stroke-width:0.75;stroke-linecap:butt;stroke-linejoin:miter;stroke:rgb(13.730068%,12.159915%,12.54902%);stroke-opacity:1;stroke-miterlimit:4;" d="M -0.00150625 -0.00093125 L -0.00150625 -12.297806 " transform="matrix(1,0,0,-1,109.5601,87.3936)"/>
<path style="fill:none;stroke-width:0.75;stroke-linecap:butt;stroke-linejoin:miter;stroke:rgb(13.730068%,12.159915%,12.54902%);stroke-opacity:1;stroke-miterlimit:4;" d="M -0.0014625 0.00098125 L -0.0014625 -10.991206 " transform="matrix(1,0,0,-1,114.3999,86.9502)"/>
<path style="fill:none;stroke-width:0.75;stroke-linecap:butt;stroke-linejoin:miter;stroke:rgb(13.730068%,12.159915%,12.54902%);stroke-opacity:1;stroke-miterlimit:4;" d="M 0.0015125 -0.00101875 L 0.0015125 6.9482 " transform="matrix(1,0,0,-1,118.9438,96.5732)"/>
<path style="fill:none;stroke-width:0.75;stroke-linecap:butt;stroke-linejoin:miter;stroke:rgb(13.730068%,12.159915%,12.54902%);stroke-opacity:1;stroke-miterlimit:4;" d="M 0.0009625 -0.0009375 L 0.11815 9.346719 " transform="matrix(1,0,0,-1,122.6631,95.2725)"/>
<path style="fill:none;stroke-width:0.38;stroke-linecap:butt;stroke-linejoin:miter;stroke:rgb(13.730068%,12.159915%,12.54902%);stroke-opacity:1;stroke-miterlimit:4;" d="M 0.00146875 -0.00096875 L -15.834469 10.88575 " transform="matrix(1,0,0,-1,136.354,99.667)"/>
<path style=" stroke:none;fill-rule:nonzero;fill:rgb(13.730068%,12.159915%,12.54902%);fill-opacity:1;" d="M 121.851563 88.273438 L 117.527344 86.738281 L 120.507813 90.230469 L 121.851563 88.273438 Z M 121.851563 88.273438 "/>
<path style=" stroke:none;fill-rule:nonzero;fill:rgb(13.730068%,12.159915%,12.54902%);fill-opacity:1;" d="M 96.746094 6.769531 C 97.636719 6.757813 98.367188 7.472656 98.375 8.363281 C 98.386719 9.253906 97.671875 9.988281 96.78125 9.996094 C 95.890625 10.003906 95.15625 9.289063 95.148438 8.398438 C 95.140625 7.507813 95.855469 6.777344 96.746094 6.769531 "/>
<path style="fill:none;stroke-width:1;stroke-linecap:butt;stroke-linejoin:miter;stroke:rgb(13.730068%,12.159915%,12.54902%);stroke-opacity:1;stroke-miterlimit:4;" d="M 0.001925 0.00098125 L 31.197238 0.00098125 " transform="matrix(1,0,0,-1,96.7637,8.6377)"/>
<path style=" stroke:none;fill-rule:nonzero;fill:rgb(13.730068%,12.159915%,12.54902%);fill-opacity:1;" d="M 143.023438 55.289063 C 143.023438 54.398438 142.300781 53.675781 141.40625 53.675781 C 140.515625 53.675781 139.792969 54.398438 139.792969 55.289063 C 139.792969 56.179688 140.515625 56.902344 141.40625 56.902344 C 142.300781 56.902344 143.023438 56.179688 143.023438 55.289063 "/>
<path style="fill:none;stroke-width:1;stroke-linecap:butt;stroke-linejoin:miter;stroke:rgb(13.730068%,12.159915%,12.54902%);stroke-opacity:1;stroke-miterlimit:4;" d="M -0.00195 -0.0009625 L -0.00195 31.202163 " transform="matrix(1,0,0,-1,141.4082,55.2881)"/>
<path style=" stroke:none;fill-rule:nonzero;fill:rgb(13.730068%,12.159915%,12.54902%);fill-opacity:1;" d="M 143.75 25.699219 L 141.457031 16.9375 L 139.0625 25.671875 L 143.75 25.699219 "/>
<path style=" stroke:none;fill-rule:nonzero;fill:rgb(13.730068%,12.159915%,12.54902%);fill-opacity:1;" d="M 125.71875 10.929688 L 134.480469 8.636719 L 125.746094 6.242188 L 125.71875 10.929688 "/>
<path style="fill:none;stroke-width:0.5;stroke-linecap:butt;stroke-linejoin:miter;stroke:rgb(13.730068%,12.159915%,12.54902%);stroke-opacity:1;stroke-miterlimit:4;" d="M -0.00195 -0.0000125 L -0.00195 8.585925 " transform="matrix(1,0,0,-1,72.4082,21.2578)"/>
<path style="fill:none;stroke-width:0.75;stroke-linecap:butt;stroke-linejoin:miter;stroke:rgb(13.730068%,12.159915%,12.54902%);stroke-opacity:1;stroke-miterlimit:4;" d="M -0.001 0.0005375 L -0.001 9.988819 " transform="matrix(1,0,0,-1,77.251,20.9146)"/>
<path style="fill:none;stroke-width:0.75;stroke-linecap:butt;stroke-linejoin:miter;stroke:rgb(13.730068%,12.159915%,12.54902%);stroke-opacity:1;stroke-miterlimit:4;" d="M -0.001475 0.00190625 L -0.001475 11.451125 " transform="matrix(1,0,0,-1,82.2671,20.5605)"/>
<path style="fill:none;stroke-width:0.75;stroke-linecap:butt;stroke-linejoin:miter;stroke:rgb(13.730068%,12.159915%,12.54902%);stroke-opacity:1;stroke-miterlimit:4;" d="M -0.00146875 -0.00003125 L -0.00146875 12.609344 " transform="matrix(1,0,0,-1,86.396,20.2695)"/>
<path style="fill:none;stroke-width:0.75;stroke-linecap:butt;stroke-linejoin:miter;stroke:rgb(13.730068%,12.159915%,12.54902%);stroke-opacity:1;stroke-miterlimit:4;" d="M -0.0000125 0.00046875 L -0.0000125 13.965312 " transform="matrix(1,0,0,-1,90.8047,19.9575)"/>
<path style="fill:none;stroke-width:0.75;stroke-linecap:butt;stroke-linejoin:miter;stroke:rgb(13.730068%,12.159915%,12.54902%);stroke-opacity:1;stroke-miterlimit:4;" d="M 0.0000375 0.00098125 L 0.0000375 15.516606 " transform="matrix(1,0,0,-1,95.3359,19.6377)"/>
<path style="fill:none;stroke-width:0.75;stroke-linecap:butt;stroke-linejoin:miter;stroke:rgb(13.730068%,12.159915%,12.54902%);stroke-opacity:1;stroke-miterlimit:4;" d="M -0.0000375 0.0000125 L -0.0000375 14.777356 " transform="matrix(1,0,0,-1,100.0391,19.3047)"/>
<path style="fill:none;stroke-width:0.75;stroke-linecap:butt;stroke-linejoin:miter;stroke:rgb(13.730068%,12.159915%,12.54902%);stroke-opacity:1;stroke-miterlimit:4;" d="M -0.00000625 0.00093125 L -0.00000625 13.629838 " transform="matrix(1,0,0,-1,104.6211,18.9814)"/>
<path style="fill:none;stroke-width:0.75;stroke-linecap:butt;stroke-linejoin:miter;stroke:rgb(13.730068%,12.159915%,12.54902%);stroke-opacity:1;stroke-miterlimit:4;" d="M 0.0014375 -0.00191875 L 0.0014375 12.357456 " transform="matrix(1,0,0,-1,109.522,18.6348)"/>
<path style="fill:none;stroke-width:0.75;stroke-linecap:butt;stroke-linejoin:miter;stroke:rgb(13.730068%,12.159915%,12.54902%);stroke-opacity:1;stroke-miterlimit:4;" d="M 0.00093125 0.00004375 L 0.00093125 11.2227 " transform="matrix(1,0,0,-1,113.5811,18.3477)"/>
<path style="fill:none;stroke-width:0.75;stroke-linecap:butt;stroke-linejoin:miter;stroke:rgb(13.730068%,12.159915%,12.54902%);stroke-opacity:1;stroke-miterlimit:4;" d="M 0.00101875 0.00045625 L 0.00101875 9.656706 " transform="matrix(1,0,0,-1,118.5107,17.7153)"/>
<path style="fill:none;stroke-width:0.75;stroke-linecap:butt;stroke-linejoin:miter;stroke:rgb(13.730068%,12.159915%,12.54902%);stroke-opacity:1;stroke-miterlimit:4;" d="M -0.0014625 0.00045625 L -0.0014625 8.9028 " transform="matrix(1,0,0,-1,122.5249,17.7153)"/>
<path style="fill:none;stroke-width:0.75;stroke-linecap:butt;stroke-linejoin:miter;stroke:rgb(13.730068%,12.159915%,12.54902%);stroke-opacity:1;stroke-miterlimit:4;" d="M -0.00190625 0.00100625 L -0.00190625 7.938506 " transform="matrix(1,0,0,-1,126.498,17.4346)"/>
<path style="fill:none;stroke-width:0.75;stroke-linecap:butt;stroke-linejoin:miter;stroke:rgb(13.730068%,12.159915%,12.54902%);stroke-opacity:1;stroke-miterlimit:4;" d="M 0.00001875 0.00141875 L 0.00001875 7.204544 " transform="matrix(1,0,0,-1,129.2617,17.2397)"/>
<path style="fill:none;stroke-width:0.75;stroke-linecap:butt;stroke-linejoin:miter;stroke:rgb(13.730068%,12.159915%,12.54902%);stroke-opacity:1;stroke-miterlimit:4;" d="M 0.00000625 -0.00148125 L 9.445319 -1.16945 " transform="matrix(1,0,0,-1,132.3789,21.2993)"/>
<path style="fill:none;stroke-width:0.75;stroke-linecap:butt;stroke-linejoin:miter;stroke:rgb(13.730068%,12.159915%,12.54902%);stroke-opacity:1;stroke-miterlimit:4;" d="M -0.001025 0.00100625 L 10.897413 -1.049775 " transform="matrix(1,0,0,-1,132.0479,26.0596)"/>
<path style="fill:none;stroke-width:0.75;stroke-linecap:butt;stroke-linejoin:miter;stroke:rgb(13.730068%,12.159915%,12.54902%);stroke-opacity:1;stroke-miterlimit:4;" d="M 0.00141875 -0.00144375 L 12.087356 -0.931131 " transform="matrix(1,0,0,-1,131.6978,31.0884)"/>
<path style="fill:none;stroke-width:0.75;stroke-linecap:butt;stroke-linejoin:miter;stroke:rgb(13.730068%,12.159915%,12.54902%);stroke-opacity:1;stroke-miterlimit:4;" d="M -0.00005 0.0000125 L 13.24995 -0.828113 " transform="matrix(1,0,0,-1,131.3438,36.1797)"/>
<path style="fill:none;stroke-width:0.75;stroke-linecap:butt;stroke-linejoin:miter;stroke:rgb(13.730068%,12.159915%,12.54902%);stroke-opacity:1;stroke-miterlimit:4;" d="M -0.00194375 -0.0014375 L 14.5254 -0.798312 " transform="matrix(1,0,0,-1,130.9746,41.8345)"/>
<path style="fill:none;stroke-width:0.75;stroke-linecap:butt;stroke-linejoin:miter;stroke:rgb(13.730068%,12.159915%,12.54902%);stroke-opacity:1;stroke-miterlimit:4;" d="M -0.001 0.00100625 L 15.682594 -1.135713 " transform="matrix(1,0,0,-1,130.626,46.4971)"/>
<path style="fill:none;stroke-width:0.75;stroke-linecap:butt;stroke-linejoin:miter;stroke:rgb(13.730068%,12.159915%,12.54902%);stroke-opacity:1;stroke-miterlimit:4;" d="M -0.0019125 0.0009375 L 17.017619 -1.577188 " transform="matrix(1,0,0,-1,130.2441,51.9775)"/>
<path style="fill:none;stroke-width:0.75;stroke-linecap:butt;stroke-linejoin:miter;stroke:rgb(13.730068%,12.159915%,12.54902%);stroke-opacity:1;stroke-miterlimit:4;" d="M 0.0015125 0.00096875 L 15.294481 -1.518563 " transform="matrix(1,0,0,-1,129.8188,58.083)"/>
<path style="fill:none;stroke-width:0.75;stroke-linecap:butt;stroke-linejoin:miter;stroke:rgb(13.730068%,12.159915%,12.54902%);stroke-opacity:1;stroke-miterlimit:4;" d="M 0.0000125 -0.00093125 L 13.410169 -1.426712 " transform="matrix(1,0,0,-1,129.4453,63.4561)"/>
<path style="fill:none;stroke-width:0.75;stroke-linecap:butt;stroke-linejoin:miter;stroke:rgb(13.730068%,12.159915%,12.54902%);stroke-opacity:1;stroke-miterlimit:4;" d="M -0.000025 0.00191875 L 11.582006 -0.912144 " transform="matrix(1,0,0,-1,129.0469,69.1777)"/>
<path style="fill:none;stroke-width:0.75;stroke-linecap:butt;stroke-linejoin:miter;stroke:rgb(13.730068%,12.159915%,12.54902%);stroke-opacity:1;stroke-miterlimit:4;" d="M 0.00191875 -0.00093125 L 9.822231 -0.809525 " transform="matrix(1,0,0,-1,128.6973,74.2061)"/>
<path style="fill:none;stroke-width:0.75;stroke-linecap:butt;stroke-linejoin:miter;stroke:rgb(13.730068%,12.159915%,12.54902%);stroke-opacity:1;stroke-miterlimit:4;" d="M 0.0009375 0.00094375 L 7.965781 -0.799838 " transform="matrix(1,0,0,-1,128.335,79.4111)"/>
<path style="fill:none;stroke-width:0.5;stroke-linecap:butt;stroke-linejoin:miter;stroke:rgb(13.730068%,12.159915%,12.54902%);stroke-opacity:1;stroke-miterlimit:4;" d="M -0.0004625 0.00100625 L 1.210475 0.00100625 " transform="matrix(1,0,0,-1,108.6489,23.1846)"/>
<path style="fill:none;stroke-width:0.5;stroke-linecap:butt;stroke-linejoin:miter;stroke:rgb(13.730068%,12.159915%,12.54902%);stroke-opacity:1;stroke-miterlimit:4;" d="M 0.00195 -0.00005 L 0.755856 -0.00005 " transform="matrix(1,0,0,-1,103.9668,28.0937)"/>
<path style="fill:none;stroke-width:0.5;stroke-linecap:butt;stroke-linejoin:miter;stroke:rgb(13.730068%,12.159915%,12.54902%);stroke-opacity:1;stroke-miterlimit:4;" d="M -0.00143125 -0.00004375 L 0.756381 -0.00004375 " transform="matrix(1,0,0,-1,100.9819,26.2773)"/>
<path style="fill:none;stroke-width:0.5;stroke-linecap:butt;stroke-linejoin:miter;stroke:rgb(13.730068%,12.159915%,12.54902%);stroke-opacity:1;stroke-miterlimit:4;" d="M 0.00145 -0.0019125 L 0.755356 -0.0019125 " transform="matrix(1,0,0,-1,101.6548,23.3184)"/>
<path style="fill:none;stroke-width:0.5;stroke-linecap:butt;stroke-linejoin:miter;stroke:rgb(13.730068%,12.159915%,12.54902%);stroke-opacity:1;stroke-miterlimit:4;" d="M -0.000025 -0.0014625 L 0.757788 -0.0014625 " transform="matrix(1,0,0,-1,114.2969,26.4126)"/>
<path style="fill:none;stroke-width:0.5;stroke-linecap:butt;stroke-linejoin:miter;stroke:rgb(13.730068%,12.159915%,12.54902%);stroke-opacity:1;stroke-miterlimit:4;" d="M 0.00003125 -0.00144375 L 0.757844 -0.00144375 " transform="matrix(1,0,0,-1,97.082,23.5884)"/>
<path style="fill:none;stroke-width:0.5;stroke-linecap:butt;stroke-linejoin:miter;stroke:rgb(13.730068%,12.159915%,12.54902%);stroke-opacity:1;stroke-miterlimit:4;" d="M -0.00053125 0.0015125 L 0.757281 0.0015125 " transform="matrix(1,0,0,-1,94.106,21.3687)"/>
<path style="fill:none;stroke-width:0.5;stroke-linecap:butt;stroke-linejoin:miter;stroke:rgb(13.730068%,12.159915%,12.54902%);stroke-opacity:1;stroke-miterlimit:4;" d="M 0.00046875 0.00148125 L 0.758281 0.00148125 " transform="matrix(1,0,0,-1,84.355,26.9507)"/>
<path style="fill:none;stroke-width:0.5;stroke-linecap:butt;stroke-linejoin:miter;stroke:rgb(13.730068%,12.159915%,12.54902%);stroke-opacity:1;stroke-miterlimit:4;" d="M -0.000525 -0.00141875 L 0.757288 -0.00141875 " transform="matrix(1,0,0,-1,79.1099,24.2603)"/>
<path style="fill:none;stroke-width:0.5;stroke-linecap:butt;stroke-linejoin:miter;stroke:rgb(13.730068%,12.159915%,12.54902%);stroke-opacity:1;stroke-miterlimit:4;" d="M -0.00191875 0.00003125 L 0.755894 0.00003125 " transform="matrix(1,0,0,-1,73.8652,25.6055)"/>
<path style="fill:none;stroke-width:0.5;stroke-linecap:butt;stroke-linejoin:miter;stroke:rgb(13.730068%,12.159915%,12.54902%);stroke-opacity:1;stroke-miterlimit:4;" d="M -0.00044375 0.00050625 L 0.757369 0.00050625 " transform="matrix(1,0,0,-1,94.6606,29.3716)"/>
<path style="fill:none;stroke-width:0.5;stroke-linecap:butt;stroke-linejoin:miter;stroke:rgb(13.730068%,12.159915%,12.54902%);stroke-opacity:1;stroke-miterlimit:4;" d="M -0.0019125 -0.00100625 L 0.7559 -0.00100625 " transform="matrix(1,0,0,-1,93.1816,26.8154)"/>
<path style="fill:none;stroke-width:0.5;stroke-linecap:butt;stroke-linejoin:miter;stroke:rgb(13.730068%,12.159915%,12.54902%);stroke-opacity:1;stroke-miterlimit:4;" d="M -0.00004375 -0.001475 L 0.757769 -0.001475 " transform="matrix(1,0,0,-1,90.2227,23.8579)"/>
<path style="fill:none;stroke-width:0.5;stroke-linecap:butt;stroke-linejoin:miter;stroke:rgb(13.730068%,12.159915%,12.54902%);stroke-opacity:1;stroke-miterlimit:4;" d="M -0.0000125 0.00190625 L 0.7578 0.00190625 " transform="matrix(1,0,0,-1,79.8672,32.0605)"/>
<path style="fill:none;stroke-width:0.5;stroke-linecap:butt;stroke-linejoin:miter;stroke:rgb(13.730068%,12.159915%,12.54902%);stroke-opacity:1;stroke-miterlimit:4;" d="M -0.00190625 0.000475 L 0.755906 0.000475 " transform="matrix(1,0,0,-1,87.9355,34.0786)"/>
<path style="fill:none;stroke-width:0.5;stroke-linecap:butt;stroke-linejoin:miter;stroke:rgb(13.730068%,12.159915%,12.54902%);stroke-opacity:1;stroke-miterlimit:4;" d="M -0.001475 0.000525 L 0.756337 0.000525 " transform="matrix(1,0,0,-1,94.3921,35.4224)"/>
<path style="fill:none;stroke-width:0.5;stroke-linecap:butt;stroke-linejoin:miter;stroke:rgb(13.730068%,12.159915%,12.54902%);stroke-opacity:1;stroke-miterlimit:4;" d="M -0.0000375 0.00191875 L 0.757775 0.00191875 " transform="matrix(1,0,0,-1,101.7891,40.8027)"/>
<path style="fill:none;stroke-width:0.5;stroke-linecap:butt;stroke-linejoin:miter;stroke:rgb(13.730068%,12.159915%,12.54902%);stroke-opacity:1;stroke-miterlimit:4;" d="M -0.00191875 0.00191875 L 0.755894 0.00191875 " transform="matrix(1,0,0,-1,96.6777,40.8027)"/>
<path style="fill:none;stroke-width:0.5;stroke-linecap:butt;stroke-linejoin:miter;stroke:rgb(13.730068%,12.159915%,12.54902%);stroke-opacity:1;stroke-miterlimit:4;" d="M -0.00191875 -0.0009875 L 0.755894 -0.0009875 " transform="matrix(1,0,0,-1,96.6777,45.2412)"/>
<path style="fill:none;stroke-width:0.5;stroke-linecap:butt;stroke-linejoin:miter;stroke:rgb(13.730068%,12.159915%,12.54902%);stroke-opacity:1;stroke-miterlimit:4;" d="M -0.0019125 0.00001875 L 0.7559 0.00001875 " transform="matrix(1,0,0,-1,94.6191,47.3008)"/>
<path style="fill:none;stroke-width:0.5;stroke-linecap:butt;stroke-linejoin:miter;stroke:rgb(13.730068%,12.159915%,12.54902%);stroke-opacity:1;stroke-miterlimit:4;" d="M 0.000025 -0.0019375 L 0.757837 -0.0019375 " transform="matrix(1,0,0,-1,88.3906,43.8965)"/>
<path style="fill:none;stroke-width:0.5;stroke-linecap:butt;stroke-linejoin:miter;stroke:rgb(13.730068%,12.159915%,12.54902%);stroke-opacity:1;stroke-miterlimit:4;" d="M 0.00001875 0.0004625 L 0.757831 0.0004625 " transform="matrix(1,0,0,-1,76.8242,42.1489)"/>
<path style="fill:none;stroke-width:0.5;stroke-linecap:butt;stroke-linejoin:miter;stroke:rgb(13.730068%,12.159915%,12.54902%);stroke-opacity:1;stroke-miterlimit:4;" d="M 0.00050625 -0.001475 L 0.758319 -0.001475 " transform="matrix(1,0,0,-1,74.9409,38.9204)"/>
<path style="fill:none;stroke-width:0.5;stroke-linecap:butt;stroke-linejoin:miter;stroke:rgb(13.730068%,12.159915%,12.54902%);stroke-opacity:1;stroke-miterlimit:4;" d="M -0.00095625 0.0004875 L 0.756856 0.0004875 " transform="matrix(1,0,0,-1,68.2158,32.1958)"/>
<path style="fill:none;stroke-width:0.5;stroke-linecap:butt;stroke-linejoin:miter;stroke:rgb(13.730068%,12.159915%,12.54902%);stroke-opacity:1;stroke-miterlimit:4;" d="M 0.00193125 -0.00145 L 0.755837 -0.00145 " transform="matrix(1,0,0,-1,69.8301,35.1548)"/>
<path style="fill:none;stroke-width:0.5;stroke-linecap:butt;stroke-linejoin:miter;stroke:rgb(13.730068%,12.159915%,12.54902%);stroke-opacity:1;stroke-miterlimit:4;" d="M -0.000975 -0.0015125 L 0.756837 -0.0015125 " transform="matrix(1,0,0,-1,68.7041,38.3813)"/>
<path style="fill:none;stroke-width:0.5;stroke-linecap:butt;stroke-linejoin:miter;stroke:rgb(13.730068%,12.159915%,12.54902%);stroke-opacity:1;stroke-miterlimit:4;" d="M -0.00194375 0.000025 L 0.755869 0.000025 " transform="matrix(1,0,0,-1,67.2246,26.5469)"/>
<path style="fill:none;stroke-width:0.5;stroke-linecap:butt;stroke-linejoin:miter;stroke:rgb(13.730068%,12.159915%,12.54902%);stroke-opacity:1;stroke-miterlimit:4;" d="M 0.00149375 0.0009625 L 0.7554 0.0009625 " transform="matrix(1,0,0,-1,65.7446,46.5869)"/>
<path style="fill:none;stroke-width:0.5;stroke-linecap:butt;stroke-linejoin:miter;stroke:rgb(13.730068%,12.159915%,12.54902%);stroke-opacity:1;stroke-miterlimit:4;" d="M 0.00146875 0.001025 L 0.755375 0.001025 " transform="matrix(1,0,0,-1,72.604,47.7979)"/>
<path style="fill:none;stroke-width:0.5;stroke-linecap:butt;stroke-linejoin:miter;stroke:rgb(13.730068%,12.159915%,12.54902%);stroke-opacity:1;stroke-miterlimit:4;" d="M 0.00001875 -0.00005 L 0.757831 -0.00005 " transform="matrix(1,0,0,-1,81.2617,48.4687)"/>
<path style="fill:none;stroke-width:0.5;stroke-linecap:butt;stroke-linejoin:miter;stroke:rgb(13.730068%,12.159915%,12.54902%);stroke-opacity:1;stroke-miterlimit:4;" d="M 0.00001875 -0.00100625 L 0.757831 -0.00100625 " transform="matrix(1,0,0,-1,81.2617,54.2529)"/>
<path style="fill:none;stroke-width:0.5;stroke-linecap:butt;stroke-linejoin:miter;stroke:rgb(13.730068%,12.159915%,12.54902%);stroke-opacity:1;stroke-miterlimit:4;" d="M -0.00051875 0.00001875 L 0.897919 0.00001875 " transform="matrix(1,0,0,-1,70.3638,54.9258)"/>
<path style="fill:none;stroke-width:0.5;stroke-linecap:butt;stroke-linejoin:miter;stroke:rgb(13.730068%,12.159915%,12.54902%);stroke-opacity:1;stroke-miterlimit:4;" d="M -0.000525 0.00094375 L 0.897913 0.00094375 " transform="matrix(1,0,0,-1,65.6099,53.8486)"/>
<path style="fill:none;stroke-width:0.5;stroke-linecap:butt;stroke-linejoin:miter;stroke:rgb(13.730068%,12.159915%,12.54902%);stroke-opacity:1;stroke-miterlimit:4;" d="M -0.0009875 0.00195 L 0.89745 0.00195 " transform="matrix(1,0,0,-1,71.2588,61.7832)"/>
<path style="fill:none;stroke-width:0.5;stroke-linecap:butt;stroke-linejoin:miter;stroke:rgb(13.730068%,12.159915%,12.54902%);stroke-opacity:1;stroke-miterlimit:4;" d="M 0.00194375 0.00095625 L 1.431631 0.344706 " transform="matrix(1,0,0,-1,74.5879,64.7783)"/>
<path style="fill:none;stroke-width:0.5;stroke-linecap:butt;stroke-linejoin:miter;stroke:rgb(13.730068%,12.159915%,12.54902%);stroke-opacity:1;stroke-miterlimit:4;" d="M 0.000975 0.00195 L 1.434569 0.3457 " transform="matrix(1,0,0,-1,64.1709,69.0957)"/>
<path style="fill:none;stroke-width:0.5;stroke-linecap:butt;stroke-linejoin:miter;stroke:rgb(13.730068%,12.159915%,12.54902%);stroke-opacity:1;stroke-miterlimit:4;" d="M -0.000025 0.00099375 L 1.433569 0.344744 " transform="matrix(1,0,0,-1,72.1719,72.4424)"/>
<path style="fill:none;stroke-width:0.5;stroke-linecap:butt;stroke-linejoin:miter;stroke:rgb(13.730068%,12.159915%,12.54902%);stroke-opacity:1;stroke-miterlimit:4;" d="M -0.0009625 -0.00190625 L 1.432631 0.34575 " transform="matrix(1,0,0,-1,81.5869,75.9395)"/>
<path style="fill:none;stroke-width:0.5;stroke-linecap:butt;stroke-linejoin:miter;stroke:rgb(13.730068%,12.159915%,12.54902%);stroke-opacity:1;stroke-miterlimit:4;" d="M -0.0009625 -0.0019125 L 1.432631 0.345744 " transform="matrix(1,0,0,-1,81.5869,81.3184)"/>
<path style="fill:none;stroke-width:0.5;stroke-linecap:butt;stroke-linejoin:miter;stroke:rgb(13.730068%,12.159915%,12.54902%);stroke-opacity:1;stroke-miterlimit:4;" d="M 0.000025 -0.00095625 L 1.433619 0.342794 " transform="matrix(1,0,0,-1,93.7656,84.7217)"/>
<path style="fill:none;stroke-width:0.5;stroke-linecap:butt;stroke-linejoin:miter;stroke:rgb(13.730068%,12.159915%,12.54902%);stroke-opacity:1;stroke-miterlimit:4;" d="M -0.0000125 0.0000125 L 0.648425 0.156262 " transform="matrix(1,0,0,-1,94.9297,80.0547)"/>
<path style="fill:none;stroke-width:0.5;stroke-linecap:butt;stroke-linejoin:miter;stroke:rgb(13.730068%,12.159915%,12.54902%);stroke-opacity:1;stroke-miterlimit:4;" d="M 0.00193125 -0.0009375 L 1.435525 0.342813 " transform="matrix(1,0,0,-1,99.7676,84.7725)"/>
<path style="fill:none;stroke-width:0.5;stroke-linecap:butt;stroke-linejoin:miter;stroke:rgb(13.730068%,12.159915%,12.54902%);stroke-opacity:1;stroke-miterlimit:4;" d="M -0.00004375 0.00195 L 0.628862 0.37695 " transform="matrix(1,0,0,-1,101.0977,79.0957)"/>
<path style="fill:none;stroke-width:0.5;stroke-linecap:butt;stroke-linejoin:miter;stroke:rgb(13.730068%,12.159915%,12.54902%);stroke-opacity:1;stroke-miterlimit:4;" d="M 0.001925 0.00094375 L 0.279269 0.700162 " transform="matrix(1,0,0,-1,104.6387,76.9736)"/>
<path style="fill:none;stroke-width:0.5;stroke-linecap:butt;stroke-linejoin:miter;stroke:rgb(13.730068%,12.159915%,12.54902%);stroke-opacity:1;stroke-miterlimit:4;" d="M -0.00101875 0.00003125 L 0.741169 0.828156 " transform="matrix(1,0,0,-1,95.0518,67.6055)"/>
<path style="fill:none;stroke-width:0.5;stroke-linecap:butt;stroke-linejoin:miter;stroke:rgb(13.730068%,12.159915%,12.54902%);stroke-opacity:1;stroke-miterlimit:4;" d="M 0.0000125 0.00000625 L -0.0117063 1.472662 " transform="matrix(1,0,0,-1,90.2578,75.6836)"/>
<path style="fill:none;stroke-width:0.5;stroke-linecap:butt;stroke-linejoin:miter;stroke:rgb(13.730068%,12.159915%,12.54902%);stroke-opacity:1;stroke-miterlimit:4;" d="M 0.00141875 -0.00093125 L -0.0103 1.292038 " transform="matrix(1,0,0,-1,87.9478,68.4561)"/>
<path style="fill:none;stroke-width:0.5;stroke-linecap:butt;stroke-linejoin:miter;stroke:rgb(13.730068%,12.159915%,12.54902%);stroke-opacity:1;stroke-miterlimit:4;" d="M 0.00050625 0.00004375 L -0.00730625 0.921919 " transform="matrix(1,0,0,-1,87.9409,61.0977)"/>
<path style="fill:none;stroke-width:0.5;stroke-linecap:butt;stroke-linejoin:miter;stroke:rgb(13.730068%,12.159915%,12.54902%);stroke-opacity:1;stroke-miterlimit:4;" d="M 0.00094375 -0.00000625 L -0.00686875 0.828119 " transform="matrix(1,0,0,-1,89.9639,55.0664)"/>
<path style="fill:none;stroke-width:0.5;stroke-linecap:butt;stroke-linejoin:miter;stroke:rgb(13.730068%,12.159915%,12.54902%);stroke-opacity:1;stroke-miterlimit:4;" d="M -0.00191875 0.00001875 L -0.00973125 1.015644 " transform="matrix(1,0,0,-1,98.3027,63.3633)"/>
<path style="fill:none;stroke-width:0.5;stroke-linecap:butt;stroke-linejoin:miter;stroke:rgb(13.730068%,12.159915%,12.54902%);stroke-opacity:1;stroke-miterlimit:4;" d="M -0.0000125 -0.0010125 L -0.0117312 1.1943 " transform="matrix(1,0,0,-1,103.6172,68.6318)"/>
<path style="fill:none;stroke-width:0.5;stroke-linecap:butt;stroke-linejoin:miter;stroke:rgb(13.730068%,12.159915%,12.54902%);stroke-opacity:1;stroke-miterlimit:4;" d="M -0.00001875 0.00099375 L -0.00783125 0.829119 " transform="matrix(1,0,0,-1,109.8633,77.1924)"/>
<path style="fill:none;stroke-width:0.5;stroke-linecap:butt;stroke-linejoin:miter;stroke:rgb(13.730068%,12.159915%,12.54902%);stroke-opacity:1;stroke-miterlimit:4;" d="M -0.00004375 -0.0000125 L -0.00785625 0.730456 " transform="matrix(1,0,0,-1,114.0977,82.3203)"/>
<path style="fill:none;stroke-width:0.5;stroke-linecap:butt;stroke-linejoin:miter;stroke:rgb(13.730068%,12.159915%,12.54902%);stroke-opacity:1;stroke-miterlimit:4;" d="M 0.0004625 -0.001925 L -0.0112563 1.474638 " transform="matrix(1,0,0,-1,125.6011,80.2637)"/>
<path style="fill:none;stroke-width:0.5;stroke-linecap:butt;stroke-linejoin:miter;stroke:rgb(13.730068%,12.159915%,12.54902%);stroke-opacity:1;stroke-miterlimit:4;" d="M -0.00004375 0.000975 L -0.00785625 0.918944 " transform="matrix(1,0,0,-1,122.0352,75.1416)"/>
<path style="fill:none;stroke-width:0.5;stroke-linecap:butt;stroke-linejoin:miter;stroke:rgb(13.730068%,12.159915%,12.54902%);stroke-opacity:1;stroke-miterlimit:4;" d="M 0.00194375 -0.00099375 L -0.0136813 1.475569 " transform="matrix(1,0,0,-1,125.3379,71.0576)"/>
<path style="fill:none;stroke-width:0.5;stroke-linecap:butt;stroke-linejoin:miter;stroke:rgb(13.730068%,12.159915%,12.54902%);stroke-opacity:1;stroke-miterlimit:4;" d="M 0.0004875 0.00093125 L -0.007325 0.922806 " transform="matrix(1,0,0,-1,118.6792,67.4189)"/>
<path style="fill:none;stroke-width:0.5;stroke-linecap:butt;stroke-linejoin:miter;stroke:rgb(13.730068%,12.159915%,12.54902%);stroke-opacity:1;stroke-miterlimit:4;" d="M -0.001925 0.001 L -0.400362 0.96975 " transform="matrix(1,0,0,-1,124.0488,64.6885)"/>
<path style="fill:none;stroke-width:0.5;stroke-linecap:butt;stroke-linejoin:miter;stroke:rgb(13.730068%,12.159915%,12.54902%);stroke-opacity:1;stroke-miterlimit:4;" d="M 0.00100625 -0.0000125 L -0.389619 0.800769 " transform="matrix(1,0,0,-1,108.6279,51.1953)"/>
<path style="fill:none;stroke-width:0.5;stroke-linecap:butt;stroke-linejoin:miter;stroke:rgb(13.730068%,12.159915%,12.54902%);stroke-opacity:1;stroke-miterlimit:4;" d="M 0.0000125 0.0009375 L 0.640637 0.770469 " transform="matrix(1,0,0,-1,117.2578,47.54)"/>
<path style="fill:none;stroke-width:0.5;stroke-linecap:butt;stroke-linejoin:miter;stroke:rgb(13.730068%,12.159915%,12.54902%);stroke-opacity:1;stroke-miterlimit:4;" d="M -0.00000625 0.000025 L 0.59765 0.656275 " transform="matrix(1,0,0,-1,119.7461,45.2969)"/>
<path style="fill:none;stroke-width:0.5;stroke-linecap:butt;stroke-linejoin:miter;stroke:rgb(13.730068%,12.159915%,12.54902%);stroke-opacity:1;stroke-miterlimit:4;" d="M -0.0000125 -0.00000625 L 0.808581 0.882806 " transform="matrix(1,0,0,-1,122.6797,49.4414)"/>
<path style="fill:none;stroke-width:0.5;stroke-linecap:butt;stroke-linejoin:miter;stroke:rgb(13.730068%,12.159915%,12.54902%);stroke-opacity:1;stroke-miterlimit:4;" d="M 0.00148125 0.0010125 L -0.279769 1.008825 " transform="matrix(1,0,0,-1,106.6118,54.3057)"/>
<path style="fill:none;stroke-width:0.5;stroke-linecap:butt;stroke-linejoin:miter;stroke:rgb(13.730068%,12.159915%,12.54902%);stroke-opacity:1;stroke-miterlimit:4;" d="M -0.0000125 0.00100625 L -0.269544 0.969756 " transform="matrix(1,0,0,-1,113.4297,58.9971)"/>
<path style="fill:none;stroke-width:0.5;stroke-linecap:butt;stroke-linejoin:miter;stroke:rgb(13.730068%,12.159915%,12.54902%);stroke-opacity:1;stroke-miterlimit:4;" d="M 0.0005375 0.0009375 L -0.393994 1.422812 " transform="matrix(1,0,0,-1,111.2729,61.04)"/>
<path style="fill:none;stroke-width:0.5;stroke-linecap:butt;stroke-linejoin:miter;stroke:rgb(13.730068%,12.159915%,12.54902%);stroke-opacity:1;stroke-miterlimit:4;" d="M 0.000525 0.00004375 L 0.633338 1.328169 " transform="matrix(1,0,0,-1,110.1401,65.2227)"/>
<path style="fill:none;stroke-width:0.5;stroke-linecap:butt;stroke-linejoin:miter;stroke:rgb(13.730068%,12.159915%,12.54902%);stroke-opacity:1;stroke-miterlimit:4;" d="M -0.00193125 0.0009625 L 0.509788 1.071275 " transform="matrix(1,0,0,-1,104.6699,58.0869)"/>
<path style="fill:none;stroke-width:0.5;stroke-linecap:butt;stroke-linejoin:miter;stroke:rgb(13.730068%,12.159915%,12.54902%);stroke-opacity:1;stroke-miterlimit:4;" d="M -0.00005 0.000975 L 0.511669 1.071288 " transform="matrix(1,0,0,-1,115.7188,65.9541)"/>
<path style="fill:none;stroke-width:0.5;stroke-linecap:butt;stroke-linejoin:miter;stroke:rgb(13.730068%,12.159915%,12.54902%);stroke-opacity:1;stroke-miterlimit:4;" d="M -0.00000625 0.00093125 L 0.386712 0.817337 " transform="matrix(1,0,0,-1,121.0586,54.0439)"/>
<path style="fill:none;stroke-width:0.5;stroke-linecap:butt;stroke-linejoin:miter;stroke:rgb(13.730068%,12.159915%,12.54902%);stroke-opacity:1;stroke-miterlimit:4;" d="M -0.0015125 -0.00146875 L 0.385206 0.814938 " transform="matrix(1,0,0,-1,127.0562,40.2915)"/>
<path style="fill:none;stroke-width:0.5;stroke-linecap:butt;stroke-linejoin:miter;stroke:rgb(13.730068%,12.159915%,12.54902%);stroke-opacity:1;stroke-miterlimit:4;" d="M -0.000025 0.00145 L 0.386694 0.81395 " transform="matrix(1,0,0,-1,124.1719,37.4077)"/>
<path style="fill:none;stroke-width:0.5;stroke-linecap:butt;stroke-linejoin:miter;stroke:rgb(13.730068%,12.159915%,12.54902%);stroke-opacity:1;stroke-miterlimit:4;" d="M -0.0015 -0.00094375 L 1.432094 0.342806 " transform="matrix(1,0,0,-1,67.564,79.7139)"/>
<path style="fill:none;stroke-width:0.5;stroke-linecap:butt;stroke-linejoin:miter;stroke:rgb(13.730068%,12.159915%,12.54902%);stroke-opacity:1;stroke-miterlimit:4;" d="M 0.00001875 -0.00146875 L -74.249981 -74.247562 " transform="matrix(1,0,0,-1,133.1367,17.4165)"/>
<path style="fill:none;stroke-width:0.5;stroke-linecap:butt;stroke-linejoin:miter;stroke:rgb(13.730068%,12.159915%,12.54902%);stroke-opacity:1;stroke-miterlimit:4;" d="M 0.0000125 -0.00191875 L 63.894544 -63.892544 " transform="matrix(1,0,0,-1,64.0078,21.8223)"/>
</g>
</g>
<g clip-path="url(#clip4)" clip-rule="nonzero">
<g style="fill:rgb(13.730068%,12.159915%,12.54902%);fill-opacity:1;">
  <use xlink:href="#glyph0-1" x="14.73" y="56.3232"/>
  <use xlink:href="#glyph0-2" x="17.749655" y="56.3232"/>
  <use xlink:href="#glyph0-3" x="21.389979" y="56.3232"/>
</g>
<g style="fill:rgb(13.730068%,12.159915%,12.54902%);fill-opacity:1;">
  <use xlink:href="#glyph0-4" x="137.503749" y="102.259621"/>
  <use xlink:href="#glyph0-5" x="142.524885" y="102.259621"/>
  <use xlink:href="#glyph0-6" x="147.504178" y="102.259621"/>
  <use xlink:href="#glyph0-4" x="152.155703" y="102.259621"/>
</g>
<g style="fill:rgb(13.730068%,12.159915%,12.54902%);fill-opacity:1;">
  <use xlink:href="#glyph1-1" x="159.631616" y="102.259621"/>
</g>
</g>
<g clip-path="url(#clip5)" clip-rule="nonzero">
<g clip-path="url(#clip6)" clip-rule="nonzero">
<path style=" stroke:none;fill-rule:nonzero;fill:rgb(100%,100%,100%);fill-opacity:1;" d="M 74.886719 43.59375 L 85.886719 43.59375 L 85.886719 32.773438 L 74.886719 32.773438 L 74.886719 43.59375 Z M 74.886719 43.59375 "/>
</g>
</g>
<g clip-path="url(#clip7)" clip-rule="nonzero">
<g style="fill:rgb(13.730068%,12.159915%,12.54902%);fill-opacity:1;">
  <use xlink:href="#glyph1-1" x="77.875" y="40.605"/>
</g>
</g>
<g clip-path="url(#clip8)" clip-rule="nonzero">
<g clip-path="url(#clip9)" clip-rule="nonzero">
<path style=" stroke:none;fill-rule:nonzero;fill:rgb(100%,100%,100%);fill-opacity:1;" d="M 109.011719 41.183594 L 120.640625 41.183594 L 120.640625 30.363281 L 109.011719 30.363281 L 109.011719 41.183594 Z M 109.011719 41.183594 "/>
</g>
</g>
<g clip-path="url(#clip10)" clip-rule="nonzero">
<g style="fill:rgb(13.730068%,12.159915%,12.54902%);fill-opacity:1;">
  <use xlink:href="#glyph1-2" x="112" y="38.1958"/>
</g>
<g style="fill:rgb(13.730068%,12.159915%,12.54902%);fill-opacity:1;">
  <use xlink:href="#glyph1-3" x="43.036092" y="91.203654"/>
</g>
<g style="fill:rgb(13.730068%,12.159915%,12.54902%);fill-opacity:1;">
  <use xlink:href="#glyph1-3" x="127.405124" y="4.874984"/>
</g>
<g style="fill:rgb(13.730068%,12.159915%,12.54902%);fill-opacity:1;">
  <use xlink:href="#glyph1-3" x="144.874493" y="24.018065"/>
</g>
<g style="fill:rgb(13.730068%,12.159915%,12.54902%);fill-opacity:1;">
  <use xlink:href="#glyph1-3" x="59.940583" y="106.657595"/>
</g>
</g>
<g clip-path="url(#clip11)" clip-rule="nonzero">
<g clip-path="url(#clip12)" clip-rule="nonzero">
<path style="fill:none;stroke-width:0.5;stroke-linecap:butt;stroke-linejoin:miter;stroke:rgb(13.730068%,12.159915%,12.54902%);stroke-opacity:1;stroke-miterlimit:4;" d="M -0.0015125 0.00148125 L 67.783644 -68.8618 L -9.146044 -144.447738 L -74.509325 -76.662581 L -0.0015125 -0.002425 L -0.0015125 0.00148125 Z M -0.0015125 0.00148125 " transform="matrix(1,0,0,-1,93.0562,122.5132)"/>
<path style="fill:none;stroke-width:0.5;stroke-linecap:butt;stroke-linejoin:bevel;stroke:rgb(13.730068%,12.159915%,12.54902%);stroke-opacity:1;stroke-miterlimit:4;" d="M -0.0015 -0.00194375 L 7.486781 71.7129 L 78.900844 72.919931 L 74.205531 3.478525 L 0.00240625 -0.00194375 L -0.0015 -0.00194375 Z M -0.0015 -0.00194375 " transform="matrix(1,0,0,-1,49.5015,231.3379)"/>
<path style="fill:none;stroke-width:0.5;stroke-linecap:butt;stroke-linejoin:round;stroke:rgb(13.730068%,12.159915%,12.54902%);stroke-opacity:1;stroke-miterlimit:4;" d="M -0.00044375 -0.0019375 L -71.930131 -66.748031 " transform="matrix(1,0,0,-1,124.9106,161.334)"/>
<path style=" stroke:none;fill-rule:nonzero;fill:rgb(13.730068%,12.159915%,12.54902%);fill-opacity:1;" d="M 52.714844 226.222656 L 49.5 231.335938 L 54.839844 228.515625 L 52.714844 226.222656 Z M 52.714844 226.222656 "/>
<path style=" stroke:none;fill-rule:nonzero;fill:rgb(13.730068%,12.159915%,12.54902%);fill-opacity:1;" d="M 125.179688 163.191406 L 128.390625 158.078125 L 123.054688 160.898438 L 125.179688 163.191406 Z M 125.179688 163.191406 "/>
<path style="fill:none;stroke-width:0.5;stroke-linecap:butt;stroke-linejoin:bevel;stroke:rgb(13.730068%,12.159915%,12.54902%);stroke-opacity:1;stroke-miterlimit:4;" d="M -0.0014375 -0.00001875 L 8.252469 -7.984394 " transform="matrix(1,0,0,-1,58.9155,134.3242)"/>
<path style=" stroke:none;fill-rule:nonzero;fill:rgb(13.730068%,12.159915%,12.54902%);fill-opacity:1;" d="M 65.332031 142.683594 L 70.621094 145.59375 L 67.496094 140.429688 L 65.332031 142.683594 Z M 65.332031 142.683594 "/>
<path style="fill:none;stroke-width:0.5;stroke-linecap:butt;stroke-linejoin:bevel;stroke:rgb(13.730068%,12.159915%,12.54902%);stroke-opacity:1;stroke-miterlimit:4;" d="M 0.0004625 -0.0014625 L 8.195775 8.080569 " transform="matrix(1,0,0,-1,111.4761,141.2251)"/>
<path style=" stroke:none;fill-rule:nonzero;fill:rgb(13.730068%,12.159915%,12.54902%);fill-opacity:1;" d="M 120.050781 134.984375 L 122.960938 129.695313 L 117.792969 132.820313 L 120.050781 134.984375 Z M 120.050781 134.984375 "/>
<path style="fill:none;stroke-width:0.5;stroke-linecap:butt;stroke-linejoin:bevel;stroke:rgb(13.730068%,12.159915%,12.54902%);stroke-opacity:1;stroke-miterlimit:4;" d="M -0.00044375 0.00095 L 7.987837 8.254856 " transform="matrix(1,0,0,-1,141.8481,172.0322)"/>
<path style=" stroke:none;fill-rule:nonzero;fill:rgb(13.730068%,12.159915%,12.54902%);fill-opacity:1;" d="M 150.210938 165.617188 L 153.121094 160.324219 L 147.957031 163.453125 L 150.210938 165.617188 Z M 150.210938 165.617188 "/>
<path style="fill:none;stroke-width:0.5;stroke-linecap:butt;stroke-linejoin:bevel;stroke:rgb(13.730068%,12.159915%,12.54902%);stroke-opacity:1;stroke-miterlimit:4;" d="M -0.00145 -0.00146875 L 8.256362 -7.985844 " transform="matrix(1,0,0,-1,29.5952,164.854)"/>
<path style=" stroke:none;fill-rule:nonzero;fill:rgb(13.730068%,12.159915%,12.54902%);fill-opacity:1;" d="M 36.011719 173.214844 L 41.304688 176.125 L 38.175781 170.957031 L 36.011719 173.214844 Z M 36.011719 173.214844 "/>
<path style="fill:none;stroke-width:0.5;stroke-linecap:butt;stroke-linejoin:miter;stroke:rgb(13.730068%,12.159915%,12.54902%);stroke-opacity:1;stroke-miterlimit:4;" d="M -0.001425 0.0000125 L -7.614706 7.613294 " transform="matrix(1,0,0,-1,145.7983,227.9297)"/>
<path style=" stroke:none;fill-rule:nonzero;fill:rgb(13.730068%,12.159915%,12.54902%);fill-opacity:1;" d="M 140.03125 219.976563 L 134.800781 216.957031 L 137.816406 222.1875 L 140.027344 219.976563 "/>
<path style="fill:none;stroke-width:0.5;stroke-linecap:butt;stroke-linejoin:miter;stroke:rgb(13.730068%,12.159915%,12.54902%);stroke-opacity:1;stroke-miterlimit:4;" d="M 0.001425 -0.0019375 L -7.529825 7.236344 " transform="matrix(1,0,0,-1,118.4517,254.334)"/>
<path style=" stroke:none;fill-rule:nonzero;fill:rgb(13.730068%,12.159915%,12.54902%);fill-opacity:1;" d="M 112.753906 246.714844 L 107.453125 243.828125 L 110.601563 248.980469 L 112.753906 246.714844 Z M 112.753906 246.714844 "/>
<path style="fill:none;stroke-width:0.5;stroke-linecap:butt;stroke-linejoin:miter;stroke:rgb(13.730068%,12.159915%,12.54902%);stroke-opacity:1;stroke-miterlimit:4;" d="M -0.00146875 0.00193125 L -8.560063 -9.064475 " transform="matrix(1,0,0,-1,36.021,217.2949)"/>
<path style=" stroke:none;fill-rule:nonzero;fill:rgb(13.730068%,12.159915%,12.54902%);fill-opacity:1;" d="M 27.058594 224.527344 L 24.222656 229.855469 L 29.34375 226.660156 L 27.058594 224.527344 Z M 27.058594 224.527344 "/>
<path style="fill:none;stroke-width:0.5;stroke-linecap:butt;stroke-linejoin:miter;stroke:rgb(13.730068%,12.159915%,12.54902%);stroke-opacity:1;stroke-miterlimit:4;" d="M -0.0015125 -0.00194375 L -9.157763 -9.150381 " transform="matrix(1,0,0,-1,64.9937,247.3379)"/>
<path style=" stroke:none;fill-rule:nonzero;fill:rgb(13.730068%,12.159915%,12.54902%);fill-opacity:1;" d="M 55.496094 254.644531 L 52.476563 259.871094 L 57.707031 256.855469 L 55.496094 254.644531 Z M 55.496094 254.644531 "/>
</g>
</g>
<g clip-path="url(#clip13)" clip-rule="nonzero">
<g style="fill:rgb(13.730068%,12.159915%,12.54902%);fill-opacity:1;">
  <use xlink:href="#glyph0-1" x="-0.0605" y="201.1699"/>
  <use xlink:href="#glyph0-7" x="2.959155" y="201.1699"/>
  <use xlink:href="#glyph0-3" x="6.787772" y="201.1699"/>
</g>
</g>
<g clip-path="url(#clip14)" clip-rule="nonzero">
<g clip-path="url(#clip15)" clip-rule="nonzero">
<path style=" stroke:none;fill-rule:nonzero;fill:rgb(100%,100%,100%);fill-opacity:1;" d="M 82.742188 200.203125 L 94.753906 200.203125 L 94.753906 189.382813 L 82.742188 189.382813 L 82.742188 200.203125 Z M 82.742188 200.203125 "/>
</g>
</g>
<g clip-path="url(#clip16)" clip-rule="nonzero">
<g style="fill:rgb(13.730068%,12.159915%,12.54902%);fill-opacity:1;">
  <use xlink:href="#glyph1-4" x="85.7285" y="197.2163"/>
</g>
<g style="fill:rgb(13.730068%,12.159915%,12.54902%);fill-opacity:1;">
  <use xlink:href="#glyph2-1" x="36.486498" y="146.663224"/>
</g>
</g>
<g clip-path="url(#clip17)" clip-rule="nonzero">
<g clip-path="url(#clip18)" clip-rule="nonzero">
<path style="fill:none;stroke-width:0.314;stroke-linecap:butt;stroke-linejoin:miter;stroke:rgb(13.730068%,12.159915%,12.54902%);stroke-opacity:1;stroke-miterlimit:10;" d="M 0.00045625 0.00099375 L 3.879363 0.00099375 " transform="matrix(1,0,0,-1,42.6597,146.5049)"/>
</g>
</g>
<g clip-path="url(#clip19)" clip-rule="nonzero">
<g style="fill:rgb(13.730068%,12.159915%,12.54902%);fill-opacity:1;">
  <use xlink:href="#glyph0-8" x="42.6592" y="152.395"/>
</g>
<g style="fill:rgb(13.730068%,12.159915%,12.54902%);fill-opacity:1;">
  <use xlink:href="#glyph1-3" x="46.536633" y="152.395"/>
</g>
<g style="fill:rgb(13.730068%,12.159915%,12.54902%);fill-opacity:1;">
  <use xlink:href="#glyph2-1" x="130.166442" y="142.129566"/>
</g>
</g>
<g clip-path="url(#clip20)" clip-rule="nonzero">
<g clip-path="url(#clip21)" clip-rule="nonzero">
<path style="fill:none;stroke-width:0.314;stroke-linecap:butt;stroke-linejoin:miter;stroke:rgb(13.730068%,12.159915%,12.54902%);stroke-opacity:1;stroke-miterlimit:10;" d="M -0.00045 0.00145 L 3.878456 0.00145 " transform="matrix(1,0,0,-1,136.3442,141.9702)"/>
</g>
</g>
<g clip-path="url(#clip22)" clip-rule="nonzero">
<g style="fill:rgb(13.730068%,12.159915%,12.54902%);fill-opacity:1;">
  <use xlink:href="#glyph0-8" x="136.3437" y="147.8599"/>
</g>
<g style="fill:rgb(13.730068%,12.159915%,12.54902%);fill-opacity:1;">
  <use xlink:href="#glyph1-3" x="140.221133" y="147.8599"/>
</g>
<g style="fill:rgb(13.730068%,12.159915%,12.54902%);fill-opacity:1;">
  <use xlink:href="#glyph2-1" x="124.216262" y="238.079951"/>
</g>
</g>
<g clip-path="url(#clip23)" clip-rule="nonzero">
<g clip-path="url(#clip24)" clip-rule="nonzero">
<path style="fill:none;stroke-width:0.314;stroke-linecap:butt;stroke-linejoin:miter;stroke:rgb(13.730068%,12.159915%,12.54902%);stroke-opacity:1;stroke-miterlimit:10;" d="M -0.000475 0.001925 L 3.878431 0.001925 " transform="matrix(1,0,0,-1,130.3911,237.9238)"/>
</g>
</g>
<g clip-path="url(#clip25)" clip-rule="nonzero">
<g style="fill:rgb(13.730068%,12.159915%,12.54902%);fill-opacity:1;">
  <use xlink:href="#glyph0-8" x="130.3906" y="243.813"/>
</g>
<g style="fill:rgb(13.730068%,12.159915%,12.54902%);fill-opacity:1;">
  <use xlink:href="#glyph1-3" x="134.268033" y="243.813"/>
</g>
<g style="fill:rgb(13.730068%,12.159915%,12.54902%);fill-opacity:1;">
  <use xlink:href="#glyph2-1" x="30.672234" y="241.762703"/>
</g>
</g>
<g clip-path="url(#clip26)" clip-rule="nonzero">
<g clip-path="url(#clip27)" clip-rule="nonzero">
<path style="fill:none;stroke-width:0.314;stroke-linecap:butt;stroke-linejoin:miter;stroke:rgb(13.730068%,12.159915%,12.54902%);stroke-opacity:1;stroke-miterlimit:10;" d="M -0.00044375 0.00193125 L 3.878462 0.00193125 " transform="matrix(1,0,0,-1,36.8481,241.6074)"/>
</g>
</g>
<g clip-path="url(#clip28)" clip-rule="nonzero">
<g style="fill:rgb(13.730068%,12.159915%,12.54902%);fill-opacity:1;">
  <use xlink:href="#glyph0-8" x="36.8477" y="247.498"/>
</g>
<g style="fill:rgb(13.730068%,12.159915%,12.54902%);fill-opacity:1;">
  <use xlink:href="#glyph1-3" x="40.725133" y="247.498"/>
</g>
<g style="fill:rgb(13.730068%,12.159915%,12.54902%);fill-opacity:1;">
  <use xlink:href="#glyph0-4" x="169.677669" y="208.807358"/>
  <use xlink:href="#glyph0-5" x="174.698805" y="208.807358"/>
  <use xlink:href="#glyph0-6" x="179.678098" y="208.807358"/>
</g>
<g style="fill:rgb(13.730068%,12.159915%,12.54902%);fill-opacity:1;">
  <use xlink:href="#glyph0-4" x="184.329622" y="208.807358"/>
</g>
<g style="fill:rgb(13.730068%,12.159915%,12.54902%);fill-opacity:1;">
  <use xlink:href="#glyph0-9" x="191.408029" y="208.807358"/>
</g>
<g style="fill:rgb(13.730068%,12.159915%,12.54902%);fill-opacity:1;">
  <use xlink:href="#glyph2-1" x="199.232633" y="203.074894"/>
</g>
</g>
<g clip-path="url(#clip29)" clip-rule="nonzero">
<g clip-path="url(#clip30)" clip-rule="nonzero">
<path style="fill:none;stroke-width:0.314;stroke-linecap:butt;stroke-linejoin:miter;stroke:rgb(13.730068%,12.159915%,12.54902%);stroke-opacity:1;stroke-miterlimit:10;" d="M 0.00145 0.00003125 L 3.880356 0.00003125 " transform="matrix(1,0,0,-1,205.4048,202.918)"/>
</g>
</g>
<g clip-path="url(#clip31)" clip-rule="nonzero">
<g style="fill:rgb(13.730068%,12.159915%,12.54902%);fill-opacity:1;">
  <use xlink:href="#glyph0-8" x="205.4043" y="208.8081"/>
</g>
<g style="fill:rgb(13.730068%,12.159915%,12.54902%);fill-opacity:1;">
  <use xlink:href="#glyph1-1" x="209.281733" y="208.8081"/>
</g>
</g>
</g>
</svg>
