<?xml version="1.0" encoding="UTF-8" standalone="no"?>
<!-- Created with Inkscape (http://www.inkscape.org/) -->
<svg xmlns:dc="http://purl.org/dc/elements/1.1/" xmlns:cc="http://creativecommons.org/ns#" xmlns:rdf="http://www.w3.org/1999/02/22-rdf-syntax-ns#" xmlns:svg="http://www.w3.org/2000/svg" xmlns="http://www.w3.org/2000/svg" xmlns:xlink="http://www.w3.org/1999/xlink" version="1.1" width="212.8pt" height="161.0pt" viewBox="0 0 153.51226 116.12647" id="svg11807">
  <defs id="defs11809">
    <g id="g11811">
      <g id="glyph0-0"/>
      <g id="glyph0-1">
        <path d="M 2.578125,1.546875 C 2.546875,1.5 2.5,1.46875 2.453125,1.4375 1.6875,0.75 1.21875,-0.3125 1.171875,-1.59375 c -0.03125,-0.875 0.125,-1.78125 0.53125,-2.5625 0.203125,-0.375 0.4375,-0.6875 0.75,-0.953125 C 2.5,-5.15625 2.546875,-5.1875 2.578125,-5.21875 l -0.25,0 c -0.15625,0 -0.140625,0 -0.25,0.078125 -0.359375,0.28125 -0.65625,0.65625 -0.890625,1.078125 -0.65625,1.234375 -0.703125,2.90625 -0.09375,4.25 0.21875,0.5 0.5625,0.921875 0.984375,1.28125 0.09375,0.0625 0.09375,0.078125 0.25,0.078125 l 0.25,0 z m 0,0" id="path11815"/>
      </g>
      <g id="glyph0-2">
        <path d="m 0.640625,-2.640625 c 0.125,-0.0625 0.21875,-0.140625 0.34375,-0.203125 C 1.203125,-2.9375 1.4375,-2.984375 1.6875,-3 1.75,-3.015625 1.828125,-3.015625 1.90625,-3.015625 c 0.28125,0.046875 0.515625,0.234375 0.59375,0.5 0.078125,0.203125 0.046875,0.453125 0.046875,0.65625 -0.359375,0 -0.734375,0.03125 -1.09375,0.125 -0.5,0.125 -1.125,0.375 -1.0625,1.015625 0.046875,0.28125 0.203125,0.5625 0.46875,0.703125 C 1.03125,0.0625 1.234375,0.0625 1.4375,0.046875 1.734375,0.015625 2.0625,-0.0625 2.3125,-0.25 c 0.09375,-0.0625 0.171875,-0.140625 0.25,-0.21875 l 0,0.46875 0.484375,0 0,-1.828125 c 0,-0.1875 0.03125,-0.390625 -0.015625,-0.59375 -0.0625,-0.484375 -0.5,-0.84375 -0.953125,-0.9375 -0.28125,-0.046875 -0.71875,0.015625 -0.953125,0.0625 -0.078125,0.03125 -0.46875,0.15625 -0.5,0.21875 -0.03125,0.03125 -0.015625,0.09375 -0.015625,0.125 0.015625,0.109375 0.03125,0.203125 0.03125,0.3125 z m 1.90625,1.015625 0,0.515625 c 0,0.140625 0,0.265625 -0.0625,0.390625 -0.078125,0.140625 -0.21875,0.25 -0.375,0.296875 -0.328125,0.125 -0.78125,0.140625 -1.0625,-0.09375 C 0.96875,-0.5625 0.90625,-0.640625 0.890625,-0.75 0.8125,-1.046875 1.078125,-1.28125 1.3125,-1.390625 1.640625,-1.546875 2.109375,-1.625 2.546875,-1.625 z m 0,0" id="path11818"/>
      </g>
      <g id="glyph0-3">
        <path d="m 0.4375,-5.21875 c 0.03125,0.03125 0.078125,0.0625 0.125,0.109375 0.859375,0.765625 1.328125,2 1.265625,3.515625 -0.015625,0.75 -0.203125,1.5 -0.5625,2.15625 C 1.078125,0.890625 0.84375,1.1875 0.5625,1.4375 0.515625,1.46875 0.46875,1.5 0.4375,1.546875 l 0.25,0 c 0.15625,0 0.140625,0 0.234375,-0.078125 0.375,-0.296875 0.671875,-0.671875 0.890625,-1.078125 0.671875,-1.25 0.71875,-2.90625 0.109375,-4.25 C 1.6875,-4.375 1.359375,-4.796875 0.9375,-5.140625 0.84375,-5.21875 0.84375,-5.21875 0.6875,-5.21875 l -0.25,0 z m 0,0" id="path11821"/>
      </g>
      <g id="glyph0-4">
        <path d="m 0.578125,-4.84375 0,4.84375 0.515625,0 0,-0.46875 0,0 c 0.0625,0.109375 0.171875,0.203125 0.265625,0.28125 0.3125,0.25 0.828125,0.328125 1.28125,0.109375 0.203125,-0.109375 0.375,-0.28125 0.515625,-0.46875 C 3.84375,-1.5 3.421875,-3.09375 2.453125,-3.3125 c -0.125,-0.046875 -0.28125,-0.046875 -0.421875,-0.015625 -0.40625,0.046875 -0.71875,0.25 -0.953125,0.5 l 0,-2.015625 -0.5,0 z M 1.8125,-2.953125 c 0.328125,-0.03125 0.703125,0.109375 0.921875,0.375 0.171875,0.21875 0.234375,0.5 0.234375,0.765625 0.03125,0.375 -0.015625,0.78125 -0.25,1.078125 -0.203125,0.265625 -0.53125,0.375 -0.84375,0.40625 -0.265625,0 -0.5,-0.09375 -0.671875,-0.3125 C 1.171875,-0.6875 1.125,-0.75 1.09375,-0.8125 c 0,-0.046875 0,-0.09375 0,-0.125 l 0,-1.390625 c 0,-0.0625 -0.015625,-0.140625 0.015625,-0.203125 0.03125,-0.078125 0.09375,-0.125 0.15625,-0.1875 0.15625,-0.125 0.34375,-0.21875 0.546875,-0.234375 z m 0,0" id="path11824"/>
      </g>
      <g id="glyph0-5">
        <path d="M 3.1875,-0.796875 C 3.125,-0.765625 3.078125,-0.71875 3.03125,-0.6875 2.9375,-0.625 2.84375,-0.5625 2.734375,-0.515625 2.3125,-0.3125 1.671875,-0.265625 1.296875,-0.5625 1.03125,-0.75 0.859375,-1.109375 0.84375,-1.5 0.8125,-1.953125 0.921875,-2.453125 1.296875,-2.75 1.5,-2.90625 1.765625,-3 2.140625,-2.96875 2.46875,-2.9375 2.65625,-2.890625 2.921875,-2.75 c 0.0625,0.03125 0.109375,0.078125 0.171875,0.09375 L 3.171875,-3.078125 C 3.015625,-3.15625 2.875,-3.234375 2.703125,-3.28125 c -0.40625,-0.140625 -1.03125,-0.125 -1.390625,0.046875 -0.34375,0.15625 -0.625,0.4375 -0.796875,0.765625 -0.25,0.5 -0.25,1.109375 0,1.625 0.09375,0.1875 0.21875,0.359375 0.390625,0.5 0.46875,0.4375 1.1875,0.484375 1.78125,0.28125 0.140625,-0.0625 0.265625,-0.125 0.390625,-0.203125 0.046875,-0.03125 0.109375,-0.0625 0.125,-0.09375 C 3.21875,-0.40625 3.1875,-0.796875 3.1875,-0.796875 z m 0,0" id="path11827"/>
      </g>
      <g id="glyph0-6">
        <path d="m 2.734375,-4.84375 0,2 0,0 C 2.703125,-2.90625 2.65625,-2.9375 2.609375,-2.984375 2.328125,-3.28125 1.734375,-3.46875 1.25,-3.25 1.078125,-3.171875 0.9375,-3.078125 0.8125,-2.9375 0.28125,-2.390625 0.1875,-1.484375 0.5,-0.8125 0.6875,-0.375 1.09375,0.03125 1.59375,0.0625 1.984375,0.078125 2.3125,-0.09375 2.515625,-0.28125 2.59375,-0.359375 2.65625,-0.4375 2.71875,-0.515625 l 0,0.515625 0.515625,0 0,-4.84375 -0.5,0 z M 1.9375,-2.953125 C 2.171875,-2.96875 2.40625,-2.90625 2.578125,-2.71875 2.625,-2.6875 2.671875,-2.625 2.703125,-2.5625 2.734375,-2.5 2.71875,-2.421875 2.71875,-2.34375 l 0,1.375 c 0,0.171875 -0.015625,0.171875 -0.125,0.296875 C 2.453125,-0.484375 2.25,-0.359375 2,-0.328125 1.640625,-0.3125 1.25,-0.46875 1.046875,-0.78125 0.90625,-0.984375 0.859375,-1.234375 0.84375,-1.484375 0.8125,-1.8125 0.84375,-2.1875 1.03125,-2.46875 1.234375,-2.78125 1.578125,-2.921875 1.9375,-2.953125 z m 0,0" id="path11830"/>
      </g>
    </g>
    <clipPath id="clip1">
      <path d="m -23,138 380.29687,0 0,-157.078125 -380.29687,0 L -23,138 z m 0,0" id="path11833"/>
    </clipPath>
    <clipPath id="clip2">
      <path d="m -23,-19.078125 380.29687,0 0,157.078125 L -23,138 -23,-19.078125 z m 0,0" id="path11836"/>
    </clipPath>
  </defs>
  <g transform="translate(-176.56,-0.5732)" id="g12922">
    <g clip-path="url(#clip1)" id="g12129">
      <g clip-path="url(#clip2)" id="g12131">
        <path d="m -9.8125e-4,9.75e-4 c 0,-4.390625 -14.44921875,-7.949219 -32.27343775,-7.949219 -17.828125,0 -32.28125,3.558594 -32.28125,7.949219 0,4.390625 14.453125,7.949219 32.28125,7.949219 17.824219,0 32.27343775,-3.558594 32.27343775,-7.949219 z m 0,0" transform="matrix(1,0,0,-1,241.5127,10.5791)" id="path12133" style="fill:none;stroke:#231f20;stroke-width:0.5"/>
        <path d="m -0.0019125,9.75e-4 c 0,-3.859375 -12.7070315,-6.988281 -28.3789065,-6.988281 -15.675781,0 -28.382812,3.128906 -28.382812,6.988281 0,3.859375 12.707031,6.988281 28.382812,6.988281 15.671875,0 28.3789065,-3.128906 28.3789065,-6.988281 z m 0,0" transform="matrix(1,0,0,-1,237.6191,10.5791)" id="path12135" style="fill:none;stroke:#231f20;stroke-width:0.47600001"/>
        <path d="M -9.8125e-4,9.75e-4 0.26855,-84.081056 c -0.2460937,-5.9375 -14.4375,-9.492188 -32.261719,-9.492188 -17.828125,0 -32.277343,3.554688 -32.597656,8.167969 l 0,85.632812" transform="matrix(1,0,0,-1,241.5127,10.5791)" id="path12137" style="fill:none;stroke:#231f20;stroke-width:0.5"/>
        <path d="m -9.375e-4,9.4375e-4 c 3.2031255,0 6.1718755,0.01953125 9.3007815,-0.74218775 2.359375,-0.578125 4.5,-2.0625 6.917969,-2.429687 C 22.30375,-4.0889 27.483438,0.836881 33.288125,5.0986" transform="matrix(1,0,0,-1,206.415,21.7861)" id="path12139" style="fill:none;stroke:#231f20;stroke-width:0.5"/>
        <path d="m -9.75e-4,-0.00194375 c 0,0 10.382813,4.54296875 23.230469,-2.59375025 10.640625,-4.410156 29.425781,-11.449219 41.625,3.734375" transform="matrix(1,0,0,-1,176.7666,27.5879)" id="path12141" style="fill:none;stroke:#231f20;stroke-width:0.5"/>
        <path d="M -0.001025,-1.25e-5 C 1.456006,0.796862 3.04585,1.343737 4.651319,1.742175 15.690381,4.496081 25.530225,-2.394544 35.905225,-5.046888 46.491162,-7.750013 53.901319,-6.761731 64.467725,2.2578" transform="matrix(1,0,0,-1,176.9229,41.1328)" id="path12143" style="fill:none;stroke:#231f20;stroke-width:0.5"/>
        <path d="M -0.001025,9.375e-4 C 11.299756,6.067344 21.905225,-1.335 32.67085,-4.448281 c 3.464844,-1 7.03125,-1.722657 10.636719,-1.902344 7.929687,-0.40625 15.496093,2.132812 21.160156,7.796875" transform="matrix(1,0,0,-1,176.9229,53.79)" id="path12145" style="fill:none;stroke:#231f20;stroke-width:0.5"/>
        <path d="M -0.001025,3.125e-5 C 6.491162,2.054719 14.745069,1.109406 20.573194,-2.3945 c 5.273437,-3.167969 11.386718,-4.964844 17.542968,-5.882812 2.839844,-0.421875 5.738282,-1.035157 8.511719,-0.285157 5.296875,1.433594 9.824219,4.492188 14.96875,6.171875 1.117188,0.363282 2.25,0.683594 3.40625,0.898438" transform="matrix(1,0,0,-1,176.9229,74.3555)" id="path12147" style="fill:none;stroke:#231f20;stroke-width:0.5"/>
        <path d="m 0.0010125,0.0010125 c 0,0 10.3789065,3.0625005 23.2265625,-4.0703125 10.640625,-4.414062 20.242188,-10.128906 34.929688,0.132813 0,0 3.214843,2.035156 4.480468,2.035156" transform="matrix(1,0,0,-1,176.5068,86.2432)" id="path12149" style="fill:none;stroke:#231f20;stroke-width:0.5"/>
        <path d="M -9.5625e-4,-9.3125e-4 C 3.124044,0.838912 7.7217,1.366256 12.854512,1.366256 c 2.078125,0 4.074219,-0.085937 5.917969,-0.246094" transform="matrix(1,0,0,-1,193.9658,7.5811)" id="path12151" style="fill:none;stroke:#231f20;stroke-width:0.5"/>
        <path d="m 194.44141,6.246094 -3.95313,2.28125 4.56641,0 -0.61328,-2.28125 z m 0,0" id="path12153" style="fill:#231f20"/>
        <path d="M -9.4375e-4,9.5e-4 C 10.948275,4.383762 22.084994,-2.268581 32.456087,-5.170925 c 2.765625,-0.773438 5.550782,-1.527344 8.394532,-1.953125 5.683593,-0.851563 11.242187,-1.035156 23.71875,5.835937" transform="matrix(1,0,0,-1,177.2861,63.5322)" id="path12155" style="fill:none;stroke:#231f20;stroke-width:0.5"/>
        <path d="m -0.0019125,-3.75e-5 c 0,0 10.0781245,4.2382815 18.6054685,-4.2851565" transform="matrix(1,0,0,-1,179.9941,99.3984)" id="path12157" style="fill:none;stroke:#231f20;stroke-width:0.5"/>
        <path d="m 9.5e-4,-9.8125e-4 3.796875,0" transform="matrix(1,0,0,-1,179.6553,89.0498)" id="path12159" style="fill:none;stroke:#231f20;stroke-width:0.5"/>
        <path d="M -0.001,0.00100625 4.881812,-1.6279" transform="matrix(1,0,0,-1,188.876,90.4971)" id="path12161" style="fill:none;stroke:#231f20;stroke-width:0.5"/>
        <path d="m 9.5625e-4,-9.8125e-4 4.69921875,0" transform="matrix(1,0,0,-1,182.9092,94.1123)" id="path12163" style="fill:none;stroke:#231f20;stroke-width:0.5"/>
        <path d="M -0.001025,-0.00100625 5.424756,-1.446319" transform="matrix(1,0,0,-1,201.1729,95.3779)" id="path12165" style="fill:none;stroke:#231f20;stroke-width:0.5"/>
        <path d="M -3.125e-5,0.0019375 1.8945,-1.8965" transform="matrix(1,0,0,-1,197.918,97.7285)" id="path12167" style="fill:none;stroke:#231f20;stroke-width:0.5"/>
        <path d="m 0.00100625,2.5e-5 5.78515575,0" transform="matrix(1,0,0,-1,209.1279,101.7969)" id="path12169" style="fill:none;stroke:#231f20;stroke-width:0.5"/>
        <path d="m 9.75e-4,0.001025 4.15625,0" transform="matrix(1,0,0,-1,214.7334,97.5479)" id="path12171" style="fill:none;stroke:#231f20;stroke-width:0.5"/>
        <path d="M 9.75e-4,-0.0019125 5.243162,2.34965" transform="matrix(1,0,0,-1,224.8584,97.0059)" id="path12173" style="fill:none;stroke:#231f20;stroke-width:0.5"/>
        <path d="M 9.3125e-4,-0.001 C 0.907181,-0.001 4.883744,0.362281 4.883744,0.362281" transform="matrix(1,0,0,-1,220.5186,102.249)" id="path12175" style="fill:none;stroke:#231f20;stroke-width:0.5"/>
        <path d="M 0.00101875,-9.375e-4 6.329144,2.170937" transform="matrix(1,0,0,-1,229.1982,89.7725)" id="path12177" style="fill:none;stroke:#231f20;stroke-width:0.5"/>
        <path d="m -0.0019375,9.9375e-4 5.4257815,0" transform="matrix(1,0,0,-1,216.541,91.9424)" id="path12179" style="fill:none;stroke:#231f20;stroke-width:0.5"/>
        <path d="M 0.001025,-0.0010125 3.614306,-2.71195" transform="matrix(1,0,0,-1,207.1396,88.5068)" id="path12181" style="fill:none;stroke:#231f20;stroke-width:0.5"/>
        <path d="M 9.375e-4,0.001925 3.797812,-1.626981" transform="matrix(1,0,0,-1,195.0225,83.9863)" id="path12183" style="fill:none;stroke:#231f20;stroke-width:0.5"/>
        <path d="M -9.6875e-4,-0.00101875 4.69825,-0.903363" transform="matrix(1,0,0,-1,183.2705,81.6357)" id="path12185" style="fill:none;stroke:#231f20;stroke-width:0.5"/>
        <path d="M 0.00195,-0.00194375 3.978512,-1.083975" transform="matrix(1,0,0,-1,188.1543,77.8379)" id="path12187" style="fill:none;stroke:#231f20;stroke-width:0.5"/>
        <path d="m 9.5e-4,2.5e-5 5.425781,0" transform="matrix(1,0,0,-1,179.6553,77.2969)" id="path12189" style="fill:none;stroke:#231f20;stroke-width:0.5"/>
        <path d="m -9.9375e-4,-6.25e-6 c 0,0 2.35156275,-1.44531275 4.15624975,-1.44531275" transform="matrix(1,0,0,-1,200.6299,81.8164)" id="path12191" style="fill:none;stroke:#231f20;stroke-width:0.5"/>
        <path d="m 9.8125e-4,0.00193125 5.24218775,0" transform="matrix(1,0,0,-1,212.9248,85.7949)" id="path12193" style="fill:none;stroke:#231f20;stroke-width:0.5"/>
        <path d="M -9.8125e-4,-9.375e-4 5.967769,1.807656" transform="matrix(1,0,0,-1,225.7627,84.71)" id="path12195" style="fill:none;stroke:#231f20;stroke-width:0.5"/>
        <path d="M -0.001025,-1.25e-5 1.717725,1.718738" transform="matrix(1,0,0,-1,234.9854,93.5703)" id="path12197" style="fill:none;stroke:#231f20;stroke-width:0.5"/>
        <path d="M 4.375e-5,-1.875e-5 3.976606,1.445294" transform="matrix(1,0,0,-1,235.5273,81.6367)" id="path12199" style="fill:none;stroke:#231f20;stroke-width:0.5"/>
        <path d="m 0.0010125,-9.3125e-4 4.5195315,0" transform="matrix(1,0,0,-1,183.6318,71.3311)" id="path12201" style="fill:none;stroke:#231f20;stroke-width:0.5"/>
        <path d="M 4.375e-5,-0.00100625 4.703169,0.362275" transform="matrix(1,0,0,-1,178.0273,66.6279)" id="path12203" style="fill:none;stroke:#231f20;stroke-width:0.5"/>
        <path d="M -0.0019375,9.75e-4 3.435563,-1.084963" transform="matrix(1,0,0,-1,187.791,66.2666)" id="path12205" style="fill:none;stroke:#231f20;stroke-width:0.5"/>
        <path d="M 9.5e-4,0 4.883762,-0.902344" transform="matrix(1,0,0,-1,194.8428,73.5)" id="path12207" style="fill:none;stroke:#231f20;stroke-width:0.5"/>
        <path d="M 9.3125e-4,-4.375e-5 4.157181,-1.265669" transform="matrix(1,0,0,-1,200.2686,69.3398)" id="path12209" style="fill:none;stroke:#231f20;stroke-width:0.5"/>
        <path d="m 0.001025,-0.0019125 c 0,0 3.070313,-1.2617185 5.242188,-1.2617185" transform="matrix(1,0,0,-1,207.1396,76.7559)" id="path12211" style="fill:none;stroke:#231f20;stroke-width:0.5"/>
        <path d="m -9.5e-4,-9.4375e-4 c 0,0 3.433594,-0.53906225 4.339844,-1.44531225" transform="matrix(1,0,0,-1,210.0322,72.7764)" id="path12213" style="fill:none;stroke:#231f20;stroke-width:0.5"/>
        <path d="m 9.625e-4,-0.00190625 4.5195315,0" transform="matrix(1,0,0,-1,223.4131,75.127)" id="path12215" style="fill:none;stroke:#231f20;stroke-width:0.5"/>
        <path d="M -9.9375e-4,0.00190625 5.061506,1.990188" transform="matrix(1,0,0,-1,234.4424,71.873)" id="path12217" style="fill:none;stroke:#231f20;stroke-width:0.5"/>
        <path d="m -9.3125e-4,-9.6875e-4 4.51953125,0" transform="matrix(1,0,0,-1,218.1689,79.1045)" id="path12219" style="fill:none;stroke:#231f20;stroke-width:0.5"/>
        <path d="M -9.9375e-4,-3.125e-5 7.233381,2.710906" transform="matrix(1,0,0,-1,229.3799,78.0195)" id="path12221" style="fill:none;stroke:#231f20;stroke-width:0.5"/>
        <path d="M -9.75e-4,6.25e-6 3.7959,1.085944" transform="matrix(1,0,0,-1,180.0166,56.6836)" id="path12223" style="fill:none;stroke:#231f20;stroke-width:0.5"/>
        <path d="M -9.3125e-4,0.00101875 4.338912,-0.905231" transform="matrix(1,0,0,-1,189.4189,56.8643)" id="path12225" style="fill:none;stroke:#231f20;stroke-width:0.5"/>
        <path d="m 9.75e-4,9.3125e-4 2.351562,0" transform="matrix(1,0,0,-1,185.9834,60.4814)" id="path12227" style="fill:none;stroke:#231f20;stroke-width:0.5"/>
        <path d="M 2.5e-5,-9.9375e-4 3.7969,-0.903337" transform="matrix(1,0,0,-1,203.7031,60.1201)" id="path12229" style="fill:none;stroke:#231f20;stroke-width:0.5"/>
        <path d="M 0.001025,9.6875e-4 3.977588,-1.084969" transform="matrix(1,0,0,-1,207.1396,64.458)" id="path12231" style="fill:none;stroke:#231f20;stroke-width:0.5"/>
        <path d="m -9.375e-4,-6.25e-6 2.3515625,0" transform="matrix(1,0,0,-1,196.29,61.5664)" id="path12233" style="fill:none;stroke:#231f20;stroke-width:0.5"/>
        <path d="m -0.00195,-0.00194375 3.800781,0" transform="matrix(1,0,0,-1,220.1582,67.7129)" id="path12235" style="fill:none;stroke:#231f20;stroke-width:0.5"/>
        <path d="M -0.00194375,-0.00101875 4.158213,1.987262" transform="matrix(1,0,0,-1,233.5371,66.4482)" id="path12237" style="fill:none;stroke:#231f20;stroke-width:0.5"/>
        <path d="M 9.9375e-4,-6.25e-6 4.157244,1.085931" transform="matrix(1,0,0,-1,227.9326,61.5664)" id="path12239" style="fill:none;stroke:#231f20;stroke-width:0.5"/>
        <path d="m 9.5e-4,9.4375e-4 c 0,0 2.984375,0.99609325 3.976562,0" transform="matrix(1,0,0,-1,179.6553,50.5361)" id="path12241" style="fill:none;stroke:#231f20;stroke-width:0.5"/>
        <path d="M 0.00191875,9.8125e-4 3.072231,0.360356" transform="matrix(1,0,0,-1,180.1973,44.3877)" id="path12243" style="fill:none;stroke:#231f20;stroke-width:0.5"/>
        <path d="M 0.001,9.8125e-4 3.797875,-1.264644" transform="matrix(1,0,0,-1,187.249,44.3877)" id="path12245" style="fill:none;stroke:#231f20;stroke-width:0.5"/>
        <path d="m 9.3125e-4,-3.125e-5 c 0,0 3.61718775,0 3.61718775,-0.72265675" transform="matrix(1,0,0,-1,191.7686,49.2695)" id="path12247" style="fill:none;stroke:#231f20;stroke-width:0.5"/>
        <path d="M -9.4375e-4,9.3125e-4 4.3389,-2.350631" transform="matrix(1,0,0,-1,198.0986,46.9189)" id="path12249" style="fill:none;stroke:#231f20;stroke-width:0.5"/>
        <path d="M 9.9375e-4,9.3125e-4 3.618181,-1.2686" transform="matrix(1,0,0,-1,204.2451,51.9814)" id="path12251" style="fill:none;stroke:#231f20;stroke-width:0.5"/>
        <path d="M -0.00191875,9.4375e-4 C 1.084019,9.4375e-4 5.60355,0.360319 5.60355,0.360319" transform="matrix(1,0,0,-1,209.4902,50.5361)" id="path12253" style="fill:none;stroke:#231f20;stroke-width:0.5"/>
        <path d="M -0.001,0 4.34275,0" transform="matrix(1,0,0,-1,212.5635,54.875)" id="path12255" style="fill:none;stroke:#231f20;stroke-width:0.5"/>
        <path d="m -0.0010125,9.4375e-4 3.9765625,0" transform="matrix(1,0,0,-1,221.2432,55.5986)" id="path12257" style="fill:none;stroke:#231f20;stroke-width:0.5"/>
        <path d="m 0.001025,-4.375e-5 c 0,0 5.425781,0.36328075 5.425781,1.80859375" transform="matrix(1,0,0,-1,227.3896,49.0898)" id="path12259" style="fill:none;stroke:#231f20;stroke-width:0.5"/>
        <path d="m 9.5625e-4,-1.25e-5 c 0,0 2.80078175,0.9921875 3.79687475,1.9882815" transform="matrix(1,0,0,-1,235.3467,51.2578)" id="path12261" style="fill:none;stroke:#231f20;stroke-width:0.5"/>
        <path d="M 9.6875e-4,-0.00190625 3.618156,0.904344" transform="matrix(1,0,0,-1,179.292,36.252)" id="path12263" style="fill:none;stroke:#231f20;stroke-width:0.5"/>
        <path d="m -9.6875e-4,-0.001025 4.16015675,0" transform="matrix(1,0,0,-1,183.2705,30.8271)" id="path12265" style="fill:none;stroke:#231f20;stroke-width:0.5"/>
        <path d="M 0.00194375,2.5e-5 3.978506,-1.628881" transform="matrix(1,0,0,-1,191.5879,34.9844)" id="path12267" style="fill:none;stroke:#231f20;stroke-width:0.5"/>
        <path d="M 9.375e-4,-9.3125e-4 3.344687,-1.719681" transform="matrix(1,0,0,-1,198.46,34.0811)" id="path12269" style="fill:none;stroke:#231f20;stroke-width:0.5"/>
        <path d="M -9.4375e-4,3.75e-5 4.522494,-0.902306" transform="matrix(1,0,0,-1,208.2236,38.6016)" id="path12271" style="fill:none;stroke:#231f20;stroke-width:0.5"/>
        <path d="M -9.6875e-4,0.00100625 5.424813,-1.268525" transform="matrix(1,0,0,-1,212.0205,43.1221)" id="path12273" style="fill:none;stroke:#231f20;stroke-width:0.5"/>
        <path d="m 9.875e-4,-1.25e-5 4.6992185,0" transform="matrix(1,0,0,-1,219.6162,41.1328)" id="path12275" style="fill:none;stroke:#231f20;stroke-width:0.5"/>
        <path d="M -9.875e-4,0.00191875 3.795887,0.904263" transform="matrix(1,0,0,-1,227.5713,43.3027)" id="path12277" style="fill:none;stroke:#231f20;stroke-width:0.5"/>
        <path d="M -9.8125e-4,-0.001025 3.979487,1.807569" transform="matrix(1,0,0,-1,230.8252,35.8896)" id="path12279" style="fill:none;stroke:#231f20;stroke-width:0.5"/>
        <path d="m 9.6875e-4,-0.001025 c 0,0 3.07421825,0.726562 4.33984325,0.726562" transform="matrix(1,0,0,-1,179.292,20.7021)" id="path12281" style="fill:none;stroke:#231f20;stroke-width:0.5"/>
        <path d="M -0.0019375,9.375e-4 3.61525,-0.905312" transform="matrix(1,0,0,-1,187.791,19.9775)" id="path12283" style="fill:none;stroke:#231f20;stroke-width:0.5"/>
        <path d="m -0.0010125,3.75e-5 2.1718745,0" transform="matrix(1,0,0,-1,189.0557,23.4141)" id="path12285" style="fill:none;stroke:#231f20;stroke-width:0.5"/>
        <path d="m -0.001925,9.875e-4 c 0,0 2.714844,-1.4492185 3.617188,-1.4492185" transform="matrix(1,0,0,-1,197.7363,22.5088)" id="path12287" style="fill:none;stroke:#231f20;stroke-width:0.5"/>
        <path d="m 9.875e-4,-9.4375e-4 c 0,0 3.7968745,-2.71093725 4.5195315,-2.71093725" transform="matrix(1,0,0,-1,195.9287,25.4014)" id="path12289" style="fill:none;stroke:#231f20;stroke-width:0.5"/>
        <path d="M 9.5625e-4,0.00195 3.977519,-1.447269" transform="matrix(1,0,0,-1,206.5967,25.2207)" id="path12291" style="fill:none;stroke:#231f20;stroke-width:0.5"/>
        <path d="m -0.00190625,0.00190625 c 0,0 4.33984425,-1.62890625 5.06640625,-1.62890625" transform="matrix(1,0,0,-1,205.873,29.5605)" id="path12293" style="fill:none;stroke:#231f20;stroke-width:0.5"/>
        <path d="m 9.875e-4,-9.9375e-4 4.3398435,0" transform="matrix(1,0,0,-1,216.1787,27.9326)" id="path12295" style="fill:none;stroke:#231f20;stroke-width:0.5"/>
        <path d="m -9.4375e-4,-9.375e-4 c 0,0 3.52734375,-0.9921875 4.52343775,0" transform="matrix(1,0,0,-1,218.3486,32.2725)" id="path12297" style="fill:none;stroke:#231f20;stroke-width:0.5"/>
        <path d="m 9.9375e-4,-0.00100625 c 0,0 3.70703125,0.45312525 4.33984325,1.08593725" transform="matrix(1,0,0,-1,227.9326,27.7529)" id="path12299" style="fill:none;stroke:#231f20;stroke-width:0.5"/>
        <path d="m -9.375e-4,-0.001 c 0,0 1.7187495,1.175781 2.8945315,2.351562" transform="matrix(1,0,0,-1,235.165,24.499)" id="path12301" style="fill:none;stroke:#231f20;stroke-width:0.5"/>
        <path d="M 0.00101875,9.375e-4 C 0.723675,9.375e-4 2.805706,0.270469 3.438519,0.903281" transform="matrix(1,0,0,-1,229.1982,30.1025)" id="path12303" style="fill:none;stroke:#231f20;stroke-width:0.5"/>
        <path d="m -9.375e-4,-0.00194375 16.4570315,0" transform="matrix(1,0,0,-1,205.9775,62.6504)" id="path12305" style="fill:none;stroke:#231f20;stroke-width:0.5"/>
        <path d="m 207.05469,64.207031 -5.88282,-1.574218 5.88282,-1.574219 0,3.152344" id="path12307" style="fill:#231f20"/>
      </g>
    </g>
    <g clip-path="url(#clip1)" id="g12309">
      <g id="g12311" style="fill:#231f20">
        <use transform="translate(204.0757,115.1528)" id="use12313" x="0" y="0" width="331" height="117" xlink:href="#glyph0-1"/>
        <use transform="translate(207.09536,115.1528)" id="use12315" x="0" y="0" width="331" height="117" xlink:href="#glyph0-5"/>
        <use transform="translate(210.54041,115.1528)" id="use12317" x="0" y="0" width="331" height="117" xlink:href="#glyph0-3"/>
      </g>
    </g>
    <g clip-path="url(#clip1)" id="g12319">
      <g clip-path="url(#clip2)" id="g12321">
        <path d="m 9.4375e-4,9.75e-4 c 0,-4.390625 -14.45312475,-7.949219 -32.27734375,-7.949219 -17.828125,0 -32.28125,3.558594 -32.28125,7.949219 0,4.390625 14.453125,7.949219 32.28125,7.949219 17.824219,0 32.27734375,-3.558594 32.27734375,-7.949219 z m 0,0" transform="matrix(1,0,0,-1,329.4014,10.5791)" id="path12323" style="fill:none;stroke:#231f20;stroke-width:0.5"/>
        <path d="M 0.0019125,-0.00101875 C 2.935506,0.838825 6.564413,1.522419 10.665975,1.995075" transform="matrix(1,0,0,-1,272.6934,2.8232)" id="path12325" style="fill:none;stroke:#231f20;stroke-width:0.5"/>
        <path d="m -9.375e-4,9.75e-4 c 0,-3.898438 -12.8320315,-7.0625 -28.6640625,-7.0625 -15.828125,0 -28.664062,3.164062 -28.664062,7.0625 0,3.898437 12.835937,7.058594 28.664062,7.058594 15.832031,0 28.6640625,-3.160157 28.6640625,-7.058594 z m 0,0" transform="matrix(1,0,0,-1,325.79,10.5791)" id="path12327" style="fill:none;stroke:#231f20;stroke-width:0.48100001"/>
        <path d="M -9.5e-4,0.00101875 0.522488,-84.545856 c -0.246094,-5.9375 -14.699219,-9.496094 -32.523438,-9.496094 -17.824219,0 -32.277344,3.558594 -32.597656,8.171875 l 0,85.632813" transform="matrix(1,0,0,-1,329.4072,10.1143)" id="path12329" style="fill:none;stroke:#231f20;stroke-width:0.5"/>
        <path d="M -9.5e-4,-0.00191875 C -5.493138,0.271519 -11.520481,-0.216762 -17.020481,-2.072231" transform="matrix(1,0,0,-1,293.1572,6.7598)" id="path12331" style="fill:none;stroke:#231f20;stroke-width:0.5"/>
        <path d="m 292.40625,5.554688 4.35156,1.394531 -4.46484,0.964844 0.11328,-2.359375 z m 0,0" id="path12333" style="fill:#231f20"/>
        <path d="m 273.42187,1.265625 -3.55468,2.867188 4.51562,-0.707032 -0.96094,-2.160156" id="path12335" style="fill:#231f20"/>
        <path d="m -9.4375e-4,-0.0010125 c 0.55468775,0 0.55468775,-0.6210935 1.10546875,-0.6210935 0.492187,0 0.492187,0.6210935 0.980469,0.6210935 0.507812,0 0.507812,-0.6210935 1.015625,-0.6210935 0.519531,0 0.519531,0.6210935 1.042968,0.6210935 0.539063,0 0.539063,-0.6210935 1.082032,-0.6210935 0.5625,0 0.5625,0.6210935 1.125,0.6210935 0.496093,0 0.496093,-0.6210935 0.992187,-0.6210935 0.511719,0 0.511719,0.6210935 1.027344,0.6210935 0.535156,0 0.535156,-0.6210935 1.070312,-0.6210935 0.554688,0 0.554688,0.6210935 1.117188,0.6210935 0.488281,0 0.488281,-0.6210935 0.976562,-0.6210935 0.507813,0 2.507813,0.6210935 3.019532,0.6210935 0.535156,0 -0.535157,0 0,0 0.484375,0 0.484375,-0.6210935 0.96875,-0.6210935 0.515625,0 0.515625,0.6210935 1.027343,0.6210935 0.542969,0 0.542969,-0.6210935 1.085938,-0.6210935 0.464844,0 0.464844,0.6210935 0.933594,0.6210935 0.496093,0 0.496093,-0.6210935 0.996093,-0.6210935 0.53125,0 0.53125,0.6210935 1.066407,0.6210935 0.449218,0 0.449218,-0.6210935 0.902343,-0.6210935 0.488282,0 0.488282,0.6210935 0.976563,0.6210935 0.535156,0 0.535156,-0.6210935 1.070312,-0.6210935 0.449219,0 0.449219,0.6210935 0.898438,0.6210935 0.5,0 0.5,-0.6210935 0.996094,-0.6210935 0.410156,0 0.410156,0.6210935 0.820312,0.6210935 0.460938,0 0.460938,-0.6210935 0.921875,-0.6210935 0.542969,0 0.542969,0.6210935 1.082031,0.6210935 0.460938,0 0.460938,-0.6210935 0.925782,-0.6210935 0.371093,0 0.371093,0.6210935 0.742187,0.6210935 0.453125,0 0.453125,-0.6210935 0.90625,-0.6210935 0.136719,0 0.136719,0.6210935 0.273438,0.6210935" transform="matrix(1,0,0,-1,283.3486,50.5693)" id="path12337" style="fill:none;stroke:#231f20;stroke-width:0.25"/>
        <path d="m 3.75e-5,9.4375e-4 c 0.4921875,0 0.4921875,-0.30078175 0.9804685,-0.30078175 0.507813,0 0.507813,0.30078175 1.015625,0.30078175 0.527344,0 0.527344,-0.30078175 1.050782,-0.30078175 0.542968,0 0.542968,0.30078175 1.082031,0.30078175 0.480469,0 0.480469,-0.30078175 0.957031,-0.30078175 0.492188,0 0.492188,0.30078175 0.988281,0.30078175 0.511719,0 0.511719,-0.30078175 1.023438,-0.30078175 0.53125,0 0.53125,0.30078175 1.066406,0.30078175 0.464844,0 0.464844,-0.30078175 0.925781,-0.30078175 0.484375,0 0.484375,0.30078175 0.96875,0.30078175 0.5,0 0.5,-0.30078175 1.003907,-0.30078175 0.527343,0 0.527343,0.30078175 1.054687,0.30078175 0.457031,0 0.457031,-0.30078175 0.910156,-0.30078175 0.480469,0 0.480469,0.30078175 0.957032,0.30078175 0.5,0 0.5,-0.30078175 1.003906,-0.30078175 0.53125,0 0.53125,0.30078175 1.0625,0.30078175 0.453125,0 0.453125,-0.30078175 0.910156,-0.30078175 0.484375,0 0.484375,0.30078175 0.964844,0.30078175 0.515625,0 0.515625,-0.30078175 1.03125,-0.30078175 0.433594,0 0.433594,0.30078175 0.867187,0.30078175 0.46875,0 0.46875,-0.30078175 0.933594,-0.30078175 0.507813,0 0.507813,0.30078175 1.011719,0.30078175 0.421875,0 0.421875,-0.30078175 0.839844,-0.30078175 0.464843,0 0.464843,0.30078175 0.921875,0.30078175 0.515625,0 0.515625,-0.30078175 1.027343,-0.30078175 0.421875,0 0.421875,0.30078175 0.851563,0.30078175 0.484375,0 0.484375,-0.30078175 0.964844,-0.30078175 0.394531,0 0.394531,0.30078175 0.789062,0.30078175 0.464844,0 0.464844,-0.30078175 0.929688,-0.30078175 0.378906,0 0.378906,0.30078175 0.753906,0.30078175 0.460937,0 0.460937,-0.30078175 0.914062,-0.30078175 0.105469,0 0.105469,0.30078175 0.207032,0.30078175" transform="matrix(1,0,0,-1,272.5234,62.7861)" id="path12339" style="fill:none;stroke:#231f20;stroke-width:0.25"/>
        <path d="m 9.5e-4,-0.00190625 c 0.488281,0 0.488281,-0.29687475 0.980469,-0.29687475 0.511719,0 0.511719,0.29687475 1.015625,0.29687475 0.523437,0 0.523437,-0.29687475 1.050781,-0.29687475 0.542969,0 0.542969,0.29687475 1.085938,0.29687475 0.476562,0 0.476562,-0.29687475 0.953125,-0.29687475 0.492187,0 0.492187,0.29687475 0.984375,0.29687475 0.511718,0 0.511718,-0.29687475 1.023437,-0.29687475 0.535156,0 0.535156,0.29687475 1.066406,0.29687475 0.464844,0 0.464844,-0.29687475 0.929688,-0.29687475 0.480469,0 0.480469,0.29687475 0.964844,0.29687475 0.503906,0 0.503906,-0.29687475 1.007812,-0.29687475 0.523438,0 0.523438,0.29687475 1.054688,0.29687475 0.453125,0 0.453125,-0.29687475 0.910156,-0.29687475 0.476562,0 0.476562,0.29687475 0.953125,0.29687475 0.503906,0 0.503906,-0.29687475 1.003906,-0.29687475 0.535156,0 0.535156,0.29687475 1.066406,0.29687475 0.453125,0 0.453125,-0.29687475 0.90625,-0.29687475 0.484375,0 0.484375,0.29687475 0.96875,0.29687475 0.511719,0 0.511719,-0.29687475 1.03125,-0.29687475 0.433594,0 0.433594,0.29687475 0.867188,0.29687475 0.464844,0 0.464844,-0.29687475 0.933594,-0.29687475 0.503906,0 0.503906,0.29687475 1.011718,0.29687475 0.421875,0 0.421875,-0.29687475 0.839844,-0.29687475 0.460938,0 0.460938,0.29687475 0.921875,0.29687475 0.511719,0 0.511719,-0.29687475 1.023438,-0.29687475 0.425781,0 0.425781,0.29687475 0.851562,0.29687475 0.484375,0 0.484375,-0.29687475 0.96875,-0.29687475 0.394531,0 0.394531,0.29687475 0.785156,0.29687475 0.464844,0 0.464844,-0.29687475 0.9375,-0.29687475 0.375,0 0.375,0.29687475 0.75,0.29687475 0.457032,0 0.457032,-0.29687475 0.914063,-0.29687475 0.101562,0 0.101562,0.29687475 0.207031,0.29687475" transform="matrix(1,0,0,-1,296.0303,37.502)" id="path12341" style="fill:none;stroke:#231f20;stroke-width:0.25"/>
        <path d="M -3.125e-5,-6.25e-6 C 0.414031,-6.25e-6 0.414031,-0.300787 0.828094,-0.300787 c 0.433593,0 0.433593,0.30078075 0.863281,0.30078075 0.445312,0 0.445312,-0.30078075 0.886719,-0.30078075 0.464843,0 0.464843,0.30078075 0.921875,0.30078075 0.40625,0 0.40625,-0.30078075 0.8125,-0.30078075 0.417968,0 0.417968,0.30078075 0.832031,0.30078075 0.4375,0 0.4375,-0.30078075 0.871094,-0.30078075 0.453125,0 0.453125,0.30078075 0.902343,0.30078075 0.394532,0 0.394532,-0.30078075 0.785157,-0.30078075 0.410156,0 0.410156,0.30078075 0.820312,0.30078075 0.425781,0 0.425781,-0.30078075 0.855469,-0.30078075 0.445312,0 0.445312,0.30078075 0.894531,0.30078075 0.382813,0 0.382813,-0.30078075 0.773438,-0.30078075 0.402343,0 0.402343,0.30078075 0.804687,0.30078075 0.425781,0 0.425781,-0.30078075 0.851563,-0.30078075 0.453125,0 0.453125,0.30078075 0.90625,0.30078075 0.382812,0 0.382812,-0.30078075 0.765625,-0.30078075 0.414062,0 0.414062,0.30078075 0.820312,0.30078075 0.4375,0 0.4375,-0.30078075 0.875,-0.30078075 0.367188,0 0.367188,0.30078075 0.738281,0.30078075 0.394532,0 0.394532,-0.30078075 0.789063,-0.30078075 0.429687,0 0.429687,0.30078075 0.859375,0.30078075 0.359375,0 0.359375,-0.30078075 0.714844,-0.30078075 0.386718,0 0.386718,0.30078075 0.777343,0.30078075 0.433594,0 0.433594,-0.30078075 0.871094,-0.30078075 0.359375,0 0.359375,0.30078075 0.71875,0.30078075 0.414063,0 0.414063,-0.30078075 0.824219,-0.30078075 0.332031,0 0.332031,0.30078075 0.664062,0.30078075 0.394532,0 0.394532,-0.30078075 0.792969,-0.30078075 0.316406,0 0.316406,0.30078075 0.636719,0.30078075 0.390625,0 0.390625,-0.30078075 0.777344,-0.30078075 0.08594,0 0.08594,0.30078075 0.175781,0.30078075" transform="matrix(1,0,0,-1,264.6055,67.8789)" id="path12343" style="fill:none;stroke:#231f20;stroke-width:0.25"/>
        <path d="m -9.3125e-4,-9.875e-4 c 0.41796925,0 0.41796925,-0.3007815 0.83593725,-0.3007815 0.429688,0 0.429688,0.3007815 0.859375,0.3007815 0.445313,0 0.445313,-0.3007815 0.886719,-0.3007815 0.460938,0 0.460938,0.3007815 0.921875,0.3007815 0.402344,0 0.402344,-0.3007815 0.808594,-0.3007815 0.421875,0 0.421875,0.3007815 0.835937,0.3007815 0.433594,0 0.433594,-0.3007815 0.871094,-0.3007815 0.449219,0 0.449219,0.3007815 0.902344,0.3007815 0.394531,0 0.394531,-0.3007815 0.789062,-0.3007815 0.40625,0 0.40625,0.3007815 0.816407,0.3007815 0.429687,0 8.324218,-0.3007815 8.75,-0.3007815 0.449218,0 0.449218,0.3007815 0.894531,0.3007815 0.386719,0 0.386719,-0.3007815 0.773437,-0.3007815 0.40625,0 0.40625,0.3007815 0.808594,0.3007815 0.425781,0 0.425781,-0.3007815 0.851563,-0.3007815 0.449218,0 0.449218,0.3007815 0.902343,0.3007815 0.386719,0 0.386719,-0.3007815 0.769532,-0.3007815 0.410156,0 0.410156,0.3007815 0.816406,0.3007815 0.4375,0 0.4375,-0.3007815 0.875,-0.3007815 0.371094,0 0.371094,0.3007815 0.738281,0.3007815 0.394531,0 0.394531,-0.3007815 0.792969,-0.3007815 0.429687,0 0.429687,0.3007815 0.855469,0.3007815 0.355468,0 0.355468,-0.3007815 0.714843,-0.3007815 0.390625,0 0.390625,0.3007815 0.78125,0.3007815 0.433594,0 0.433594,-0.3007815 0.867188,-0.3007815 0.359375,0 0.359375,0.3007815 0.722656,0.3007815 0.410156,0 0.410156,-0.3007815 0.820313,-0.3007815 0.332031,0 0.332031,0.3007815 0.664062,0.3007815 0.394531,0 0.394531,-0.3007815 0.792969,-0.3007815 0.320312,0 0.320312,0.3007815 0.640625,0.3007815 0.386719,0 0.386719,-0.3007815 0.773437,-0.3007815 0.08594,0 0.08594,0.3007815 0.175782,0.3007815" transform="matrix(1,0,0,-1,289.7314,44.8662)" id="path12345" style="fill:none;stroke:#231f20;stroke-width:0.25"/>
        <path d="m -3.125e-5,-4.375e-5 c 0.34375025,0 0.34375025,-0.30078125 0.68750025,-0.30078125 0.359375,0 0.359375,0.30078125 0.710937,0.30078125 0.371094,0 0.371094,-0.30078125 0.734375,-0.30078125 0.378906,0 0.378906,0.30078125 0.761719,0.30078125 0.332031,0 0.332031,-0.30078125 0.667969,-0.30078125 0.34375,0 0.34375,0.30078125 0.691406,0.30078125 0.355469,0 0.355469,-0.30078125 0.71875,-0.30078125 0.371094,0 0.371094,0.30078125 0.746094,0.30078125 0.324218,0 0.324218,-0.30078125 0.648437,-0.30078125 0.339844,0 0.339844,0.30078125 0.675781,0.30078125 0.355469,0 0.355469,-0.30078125 0.703125,-0.30078125 0.371094,0 0.371094,0.30078125 0.742188,0.30078125 0.320312,0 0.320312,-0.30078125 0.640625,-0.30078125 0.332031,0 0.332031,0.30078125 0.667969,0.30078125 0.351562,0 0.351562,-0.30078125 0.703125,-0.30078125 0.375,0 0.375,0.30078125 0.746093,0.30078125 0.320313,0 0.320313,-0.30078125 0.636719,-0.30078125 0.339844,0 0.339844,0.30078125 0.675781,0.30078125 0.359375,0 0.359375,-0.30078125 0.722657,-0.30078125 0.304687,0 0.304687,0.30078125 0.613281,0.30078125 0.324219,0 0.324219,-0.30078125 0.652344,-0.30078125 0.355468,0 0.355468,0.30078125 0.707031,0.30078125 0.296875,0 0.296875,-0.30078125 0.589844,-0.30078125 0.324218,0 0.324218,0.30078125 0.644531,0.30078125 0.359375,0 0.359375,-0.30078125 0.71875,-0.30078125 0.296875,0 0.296875,0.30078125 0.59375,0.30078125 0.339844,0 0.339844,-0.30078125 0.679687,-0.30078125 0.277344,0 0.277344,0.30078125 0.550782,0.30078125 0.328125,0 0.328125,-0.30078125 0.652343,-0.30078125 0.265625,0 0.265625,0.30078125 0.53125,0.30078125 0.320313,0 0.320313,-0.30078125 0.640625,-0.30078125 0.07031,0 0.07031,0.30078125 0.140625,0.30078125" transform="matrix(1,0,0,-1,264.6055,74.0898)" id="path12347" style="fill:none;stroke:#231f20;stroke-width:0.25"/>
        <path d="m -3.125e-5,9.5e-4 c 0.34375025,0 0.34375025,-0.300781 0.68750025,-0.300781 0.359375,0 0.359375,0.300781 0.710937,0.300781 0.371094,0 0.371094,-0.300781 0.734375,-0.300781 0.378906,0 0.378906,0.300781 0.761719,0.300781 0.332031,0 0.332031,-0.300781 0.667969,-0.300781 0.34375,0 0.34375,0.300781 0.691406,0.300781 0.355469,0 0.355469,-0.300781 0.71875,-0.300781 0.371094,0 0.371094,0.300781 0.746094,0.300781 0.324218,0 0.324218,-0.300781 0.648437,-0.300781 0.339844,0 0.339844,0.300781 0.675781,0.300781 0.355469,0 0.355469,-0.300781 0.703125,-0.300781 0.371094,0 0.371094,0.300781 0.742188,0.300781 0.320312,0 0.320312,-0.300781 0.640625,-0.300781 0.332031,0 0.332031,0.300781 0.667969,0.300781 0.351562,0 0.351562,-0.300781 0.703125,-0.300781 0.375,0 0.375,0.300781 0.746093,0.300781 0.320313,0 0.320313,-0.300781 0.636719,-0.300781 0.339844,0 0.339844,0.300781 0.675781,0.300781 0.359375,0 0.359375,-0.300781 0.722657,-0.300781 0.304687,0 0.304687,0.300781 0.613281,0.300781 0.324219,0 0.324219,-0.300781 0.652344,-0.300781" transform="matrix(1,0,0,-1,264.6055,78.1572)" id="path12349" style="fill:none;stroke:#231f20;stroke-width:0.25"/>
        <path d="m -3.125e-5,0.00190625 c 0.34375025,0 0.34375025,-0.30078125 0.68750025,-0.30078125 0.359375,0 0.359375,0.30078125 0.710937,0.30078125 0.371094,0 0.371094,-0.30078125 0.734375,-0.30078125 0.378906,0 0.378906,0.30078125 0.761719,0.30078125 0.332031,0 0.332031,-0.30078125 0.667969,-0.30078125 0.34375,0 0.34375,0.30078125 0.691406,0.30078125 0.355469,0 0.355469,-0.30078125 0.71875,-0.30078125 0.371094,0 0.371094,0.30078125 0.746094,0.30078125 0.324218,0 0.324218,-0.30078125 0.648437,-0.30078125 0.339844,0 0.339844,0.30078125 0.675781,0.30078125 0.355469,0 0.355469,-0.30078125 0.703125,-0.30078125" transform="matrix(1,0,0,-1,264.6055,82.498)" id="path12351" style="fill:none;stroke:#231f20;stroke-width:0.25"/>
        <path d="m -3.125e-5,0.0019375 c 0.34375025,0 0.34375025,-0.3007815 0.68750025,-0.3007815 0.359375,0 0.359375,0.3007815 0.710937,0.3007815 0.371094,0 0.371094,-0.3007815 0.734375,-0.3007815 0.378906,0 0.378906,0.3007815 0.761719,0.3007815 0.332031,0 0.332031,-0.3007815 0.667969,-0.3007815 0.34375,0 0.34375,0.3007815 0.691406,0.3007815 0.355469,0 0.355469,-0.3007815 0.71875,-0.3007815" transform="matrix(1,0,0,-1,264.6055,85.916)" id="path12353" style="fill:none;stroke:#231f20;stroke-width:0.25"/>
        <path d="m -3.125e-5,-0.001025 c 0.34375025,0 0.34375025,-0.300781 0.68750025,-0.300781 0.359375,0 0.359375,0.300781 0.710937,0.300781 0.371094,0 0.371094,-0.300781 0.734375,-0.300781" transform="matrix(1,0,0,-1,264.6055,89.5771)" id="path12355" style="fill:none;stroke:#231f20;stroke-width:0.25"/>
        <path d="M -0.0010125,-3.75e-5 C 0.16305,-3.75e-5 0.4443,-0.230506 0.8193,-0.222694 1.041956,-0.214881 1.291956,0.0234 1.577112,0.0312125 1.854456,0.039025 2.166956,-0.187538 2.498987,-0.175819 2.760706,-0.168006 3.026331,0.0741812 3.315394,0.0859 3.60055,0.0976187 3.905237,-0.125038 4.217737,-0.109413 4.526331,-0.0976938 4.831019,0.1484 5.16305,0.164025 5.409144,0.175744 5.670862,-0.0469125 5.928675,-0.0312875 6.182581,-0.0195688 6.432581,0.226525 6.6943,0.238244 6.963831,0.253869 7.241175,0.0351187 7.514612,0.0507437 7.784144,0.0663687 8.049769,0.316369 8.327112,0.3359 8.608362,0.351525 8.905237,0.136681 9.190394,0.156212 c 0.285156,0.015625 0.558593,0.269532 0.851562,0.289063 0.289063,0.023437 0.601563,-0.1875 0.894531,-0.167969 0.296875,0.023438 0.578125,0.277344 0.878907,0.304688 0.300781,0.023437 0.621093,-0.183594 0.921875,-0.15625 0.308593,0.027343 0.589843,0.285156 0.894531,0.3125 0.203125,0.023437 0.429687,-0.191407 0.636719,-0.171875 0.203125,0.019531 0.386718,0.273437 0.589843,0.296875 0.207032,0.023437 0.4375,-0.1875 0.640625,-0.167969 0.207032,0.023437 0.390625,0.28125 0.59375,0.300781 0.207032,0.027344 0.441407,-0.179687 0.644532,-0.15625 0.207031,0.023438 0.382812,0.28125 0.589843,0.308594 0.203125,0.027344 0.441407,-0.175781 0.644532,-0.144531 0.207031,0.027343 0.375,0.289062 0.578125,0.316406 0.203125,0.03125 0.441406,-0.167969 0.640625,-0.136719 0.203125,0.03125 0.367187,0.296875 0.566406,0.328125 0.300781,0.050781 0.636719,-0.125 0.925781,-0.070312 0.199219,0.039062 0.347656,0.304687 0.535156,0.34375 0.195313,0.039062 0.433594,-0.144532 0.621094,-0.101563 0.1875,0.042969 0.320313,0.3125 0.5,0.355469 0.183594,0.046875 0.421875,-0.132813 0.59375,-0.085938 0.148438,0.042969 0.222656,0.308594 0.363281,0.347657" transform="matrix(1,0,0,-1,303.3682,31.9609)" id="path12357" style="fill:none;stroke:#231f20;stroke-width:0.25"/>
        <path d="M 9.75e-4,0.00193125 C 0.418944,0.0058375 0.305662,-0.232444 0.844725,-0.220725 1.067381,-0.216819 1.321287,0.0331812 1.618162,0.0409937 1.907225,0.0527125 2.239256,-0.17385 2.590819,-0.158225 2.868162,-0.146506 3.153319,0.103494 3.461912,0.115212 3.770506,0.130837 4.106444,-0.0918188 4.442381,-0.0722875 4.692381,-0.0605688 4.938475,0.189431 5.2041,0.205056 5.469725,0.220681 5.754881,-0.001975 6.032225,0.0175562 6.309569,0.0331812 6.575194,0.287087 6.864256,0.306619 7.149412,0.32615 7.461912,0.111306 7.758787,0.134744 8.059569,0.154275 8.340819,0.415994 8.649412,0.439431 8.958006,0.466775 9.286131,0.255837 9.598631,0.279275 c 0.316406,0.03125 0.613281,0.296875 0.933594,0.324219 0.324219,0.035156 0.675781,-0.171875 1,-0.136719 0.328125,0.035156 0.632812,0.308594 0.964844,0.347656 0.222656,0.027344 0.472656,-0.183594 0.695312,-0.15625 0.226563,0.027344 0.421875,0.292969 0.644531,0.320313 0.230469,0.03125 0.488282,-0.171875 0.714844,-0.140625 0.226563,0.03125 0.417969,0.300781 0.644531,0.335937 0.230469,0.035156 0.496094,-0.164062 0.722657,-0.128906 0.230468,0.039062 0.417968,0.308594 0.644531,0.351562 0.230469,0.039063 0.5,-0.152343 0.726562,-0.109375 0.230469,0.042969 0.410157,0.320313 0.632813,0.367188 0.230469,0.046875 0.507812,-0.136719 0.726562,-0.085938 0.226563,0.050782 0.398438,0.335938 0.617188,0.390625 0.222656,0.054688 0.503906,-0.117187 0.71875,-0.058593 0.222656,0.0625 0.371094,0.355468 0.578125,0.414062 0.214844,0.070313 0.5,-0.089844 0.703125,-0.015625 0.207031,0.070313 0.328125,0.371094 0.519531,0.449219 0.203125,0.078125 0.488281,-0.054688 0.671875,0.03125 0.1875,0.089844 0.257813,0.394531 0.421875,0.488281 0.175781,0.101563 0.464844,0.00781 0.613281,0.113281 0.148438,0.109375 0.125,0.402344 0.242188,0.515625" transform="matrix(1,0,0,-1,305.6709,27.4824)" id="path12359" style="fill:none;stroke:#231f20;stroke-width:0.25"/>
        <path d="M -0.00101875,-9.6875e-4 C 0.315388,0.0146563 0.233356,-0.157219 0.639606,-0.141594 0.819294,-0.133781 1.034138,0.0459063 1.284138,0.057625 1.463825,0.0654375 1.674763,-0.0947187 1.8857,-0.083 c 0.214844,0.0117188 0.429688,0.191406 0.667969,0.203125 0.234375,0.015625 0.488281,-0.140625 0.746094,-0.125 0.171875,0.0078125 0.339843,0.1875 0.519531,0.195313 0.179687,0.011718 0.371094,-0.1445317 0.558594,-0.132813 0.1875,0.0117188 0.367187,0.1875 0.5625,0.203125 C 5.1357,0.272469 5.342731,0.116219 5.54195,0.131844 5.745075,0.143563 5.936481,0.32325 6.143513,0.338875 6.350544,0.350594 6.569294,0.202156 6.780231,0.213875 6.995075,0.2295 7.194294,0.413094 7.409138,0.428719 7.627888,0.44825 7.858356,0.295906 8.077106,0.311531 8.299763,0.331063 8.506794,0.514656 8.72945,0.534188 8.956013,0.553719 9.1982,0.405281 9.424763,0.428719 9.651325,0.44825 9.866169,0.63575 10.092731,0.655281 10.3232,0.678719 10.569294,0.534188 10.799763,0.557625 c 0.234375,0.019531 0.449218,0.214844 0.675781,0.238281 0.238281,0.027344 0.484375,-0.113281 0.714844,-0.089843 0.238281,0.027343 0.449218,0.226562 0.675781,0.253906 0.117187,0.015625 0.257812,-0.136719 0.371094,-0.121094 0.117187,0.015625 0.210937,0.199219 0.324218,0.214844 0.117188,0.019531 0.257813,-0.132813 0.371094,-0.117188 0.117188,0.019532 0.203125,0.203125 0.316406,0.222657 0.113282,0.019531 0.253907,-0.128907 0.367188,-0.109375 0.113281,0.015625 0.195312,0.203125 0.304687,0.222656 0.113282,0.023437 0.253907,-0.125 0.359375,-0.101563 0.113282,0.019532 0.183594,0.207032 0.285157,0.230469 0.21875,0.050781 0.457031,-0.066406 0.640625,-0.015625 0.09766,0.027344 0.144531,0.214844 0.234375,0.246094 0.09375,0.027344 0.238281,-0.097656 0.320312,-0.070313 0.03125,0.015625 0,0.183594 0.02734,0.195313" transform="matrix(1,0,0,-1,309.7393,22.2295)" id="path12361" style="fill:none;stroke:#231f20;stroke-width:0.25"/>
        <path d="M -9.3125e-4,0.001925 C 0.67485,1.341769 3.983444,0.544894 5.221725,0.665988 6.088913,0.748019 8.944381,2.044894 9.210006,0.556613 c 1.5,-0.132813 1.839844,0.8125 3.304688,0.910156 1.453125,0.09375 2.636719,-0.21875 4.132812,-0.363281 3.117188,-0.3125 6.484375,-0.023438 9.691407,-0.191407 -0.04297,-0.21875 0.08203,-0.542968 0.03906,-0.761718 1.136719,-0.0937505 1.945313,0.277343 3.011719,0.378906 1.09375,0.109375 2.253906,0 3.355469,0" transform="matrix(1,0,0,-1,276.9189,58.6113)" id="path12363" style="fill:none;stroke:#231f20;stroke-width:0.25"/>
      </g>
    </g>
    <g clip-path="url(#clip1)" id="g12365">
      <g id="g12367" style="fill:#231f20">
        <use transform="translate(292.2192,115.1528)" id="use12369" x="0" y="0" width="331" height="117" xlink:href="#glyph0-1"/>
        <use transform="translate(295.23886,115.1528)" id="use12371" x="0" y="0" width="331" height="117" xlink:href="#glyph0-6"/>
        <use transform="translate(299.06747,115.1528)" id="use12373" x="0" y="0" width="331" height="117" xlink:href="#glyph0-3"/>
      </g>
    </g>
  </g>
</svg>
