<?xml version="1.0" encoding="UTF-8"?>
<svg xmlns="http://www.w3.org/2000/svg" xmlns:xlink="http://www.w3.org/1999/xlink" width="238pt" height="301pt" viewBox="0 0 172 217" version="1.1">
<defs>
<g>
<symbol overflow="visible" id="glyph0-0">
<path style="stroke:none;" d=""/>
</symbol>
<symbol overflow="visible" id="glyph0-1">
<path style="stroke:none;" d="M 2.578125 1.546875 C 2.546875 1.5 2.5 1.46875 2.453125 1.4375 C 1.6875 0.75 1.21875 -0.3125 1.171875 -1.59375 C 1.140625 -2.46875 1.296875 -3.375 1.703125 -4.15625 C 1.90625 -4.53125 2.140625 -4.84375 2.453125 -5.109375 C 2.5 -5.15625 2.546875 -5.1875 2.578125 -5.21875 L 2.328125 -5.21875 C 2.171875 -5.21875 2.1875 -5.21875 2.078125 -5.140625 C 1.71875 -4.859375 1.421875 -4.484375 1.1875 -4.0625 C 0.53125 -2.828125 0.484375 -1.15625 1.09375 0.1875 C 1.3125 0.6875 1.65625 1.109375 2.078125 1.46875 C 2.171875 1.53125 2.171875 1.546875 2.328125 1.546875 L 2.578125 1.546875 Z M 2.578125 1.546875 "/>
</symbol>
<symbol overflow="visible" id="glyph0-2">
<path style="stroke:none;" d="M 0.640625 -2.640625 C 0.765625 -2.703125 0.859375 -2.78125 0.984375 -2.84375 C 1.203125 -2.9375 1.4375 -2.984375 1.6875 -3 C 1.75 -3.015625 1.828125 -3.015625 1.90625 -3.015625 C 2.1875 -2.96875 2.421875 -2.78125 2.5 -2.515625 C 2.578125 -2.3125 2.546875 -2.0625 2.546875 -1.859375 C 2.1875 -1.859375 1.8125 -1.828125 1.453125 -1.734375 C 0.953125 -1.609375 0.328125 -1.359375 0.390625 -0.71875 C 0.4375 -0.4375 0.59375 -0.15625 0.859375 -0.015625 C 1.03125 0.0625 1.234375 0.0625 1.4375 0.046875 C 1.734375 0.015625 2.0625 -0.0625 2.3125 -0.25 C 2.40625 -0.3125 2.484375 -0.390625 2.5625 -0.46875 L 2.5625 0 L 3.046875 0 L 3.046875 -1.828125 C 3.046875 -2.015625 3.078125 -2.21875 3.03125 -2.421875 C 2.96875 -2.90625 2.53125 -3.265625 2.078125 -3.359375 C 1.796875 -3.40625 1.359375 -3.34375 1.125 -3.296875 C 1.046875 -3.265625 0.65625 -3.140625 0.625 -3.078125 C 0.59375 -3.046875 0.609375 -2.984375 0.609375 -2.953125 C 0.625 -2.84375 0.640625 -2.75 0.640625 -2.640625 Z M 2.546875 -1.625 L 2.546875 -1.109375 C 2.546875 -0.96875 2.546875 -0.84375 2.484375 -0.71875 C 2.40625 -0.578125 2.265625 -0.46875 2.109375 -0.421875 C 1.78125 -0.296875 1.328125 -0.28125 1.046875 -0.515625 C 0.96875 -0.5625 0.90625 -0.640625 0.890625 -0.75 C 0.8125 -1.046875 1.078125 -1.28125 1.3125 -1.390625 C 1.640625 -1.546875 2.109375 -1.625 2.546875 -1.625 Z M 2.546875 -1.625 "/>
</symbol>
<symbol overflow="visible" id="glyph0-3">
<path style="stroke:none;" d="M 0.4375 -5.21875 C 0.46875 -5.1875 0.515625 -5.15625 0.5625 -5.109375 C 1.421875 -4.34375 1.890625 -3.109375 1.828125 -1.59375 C 1.8125 -0.84375 1.625 -0.09375 1.265625 0.5625 C 1.078125 0.890625 0.84375 1.1875 0.5625 1.4375 C 0.515625 1.46875 0.46875 1.5 0.4375 1.546875 L 0.6875 1.546875 C 0.84375 1.546875 0.828125 1.546875 0.921875 1.46875 C 1.296875 1.171875 1.59375 0.796875 1.8125 0.390625 C 2.484375 -0.859375 2.53125 -2.515625 1.921875 -3.859375 C 1.6875 -4.375 1.359375 -4.796875 0.9375 -5.140625 C 0.84375 -5.21875 0.84375 -5.21875 0.6875 -5.21875 L 0.4375 -5.21875 Z M 0.4375 -5.21875 "/>
</symbol>
<symbol overflow="visible" id="glyph0-4">
<path style="stroke:none;" d="M 0.578125 -4.84375 L 0.578125 0 L 1.09375 0 L 1.09375 -0.46875 L 1.09375 -0.46875 C 1.15625 -0.359375 1.265625 -0.265625 1.359375 -0.1875 C 1.671875 0.0625 2.1875 0.140625 2.640625 -0.078125 C 2.84375 -0.1875 3.015625 -0.359375 3.15625 -0.546875 C 3.84375 -1.5 3.421875 -3.09375 2.453125 -3.3125 C 2.328125 -3.359375 2.171875 -3.359375 2.03125 -3.328125 C 1.625 -3.28125 1.3125 -3.078125 1.078125 -2.828125 L 1.078125 -4.84375 L 0.578125 -4.84375 Z M 1.8125 -2.953125 C 2.140625 -2.984375 2.515625 -2.84375 2.734375 -2.578125 C 2.90625 -2.359375 2.96875 -2.078125 2.96875 -1.8125 C 3 -1.4375 2.953125 -1.03125 2.71875 -0.734375 C 2.515625 -0.46875 2.1875 -0.359375 1.875 -0.328125 C 1.609375 -0.328125 1.375 -0.421875 1.203125 -0.640625 C 1.171875 -0.6875 1.125 -0.75 1.09375 -0.8125 C 1.09375 -0.859375 1.09375 -0.90625 1.09375 -0.9375 L 1.09375 -2.328125 C 1.09375 -2.390625 1.078125 -2.46875 1.109375 -2.53125 C 1.140625 -2.609375 1.203125 -2.65625 1.265625 -2.71875 C 1.421875 -2.84375 1.609375 -2.9375 1.8125 -2.953125 Z M 1.8125 -2.953125 "/>
</symbol>
<symbol overflow="visible" id="glyph1-0">
<path style="stroke:none;" d=""/>
</symbol>
<symbol overflow="visible" id="glyph1-1">
<path style="stroke:none;" d="M 0.21875 0 L 0.578125 0 L 0.71875 -0.015625 L 0.796875 -0.109375 C 1.0625 -0.53125 1.3125 -0.96875 1.609375 -1.375 L 1.671875 -1.390625 L 3.96875 -1.390625 C 4.0625 -0.9375 4.125 -0.453125 4.25 -0.015625 C 4.390625 0.03125 4.625 -0.015625 4.796875 0 C 4.78125 -0.140625 3.9375 -4.359375 3.890625 -4.609375 C 3.875 -4.65625 3.84375 -4.890625 3.8125 -4.90625 C 3.765625 -4.90625 3.71875 -4.90625 3.671875 -4.90625 L 3.40625 -4.90625 C 3.359375 -4.90625 3.296875 -4.921875 3.265625 -4.890625 C 3.21875 -4.859375 3.078125 -4.609375 3.078125 -4.609375 L 1.0625 -1.375 L 0.515625 -0.46875 C 0.40625 -0.328125 0.296875 -0.15625 0.21875 0 Z M 3.40625 -4.328125 C 3.546875 -3.484375 3.71875 -2.640625 3.875 -1.8125 L 1.859375 -1.8125 C 2.359375 -2.65625 2.890625 -3.484375 3.40625 -4.328125 Z M 3.40625 -4.328125 "/>
</symbol>
<symbol overflow="visible" id="glyph1-2">
<path style="stroke:none;" d="M 1.765625 -4.84375 L 0.75 0 L 2.203125 0 C 2.453125 0 2.703125 0.015625 2.96875 0 C 3.78125 -0.078125 4.578125 -0.484375 4.875 -1.109375 C 5.03125 -1.5 4.953125 -1.859375 4.625 -2.140625 C 4.359375 -2.359375 4.015625 -2.484375 3.671875 -2.53125 C 3.8125 -2.578125 3.9375 -2.59375 4.078125 -2.640625 C 4.59375 -2.8125 5.15625 -3.171875 5.21875 -3.703125 C 5.21875 -3.75 5.21875 -3.8125 5.21875 -3.875 C 5.140625 -4.28125 4.875 -4.484375 4.53125 -4.640625 C 4.125 -4.84375 3.75 -4.84375 3.21875 -4.84375 L 1.765625 -4.84375 Z M 1.828125 -2.703125 C 1.84375 -2.859375 2.09375 -3.921875 2.171875 -4.296875 C 2.1875 -4.359375 2.171875 -4.421875 2.265625 -4.421875 L 2.828125 -4.421875 C 3.3125 -4.421875 3.828125 -4.453125 4.296875 -4.21875 C 4.46875 -4.125 4.6875 -4 4.71875 -3.78125 C 4.78125 -3.46875 4.515625 -3.21875 4.28125 -3.0625 C 4.234375 -3.03125 4.1875 -3.015625 4.140625 -2.984375 C 3.828125 -2.828125 3.484375 -2.75 3.125 -2.71875 C 2.9375 -2.703125 2.75 -2.703125 2.5625 -2.703125 L 1.828125 -2.703125 Z M 1.34375 -0.40625 C 1.359375 -0.515625 1.4375 -0.859375 1.453125 -0.90625 C 1.484375 -1.09375 1.6875 -2.015625 1.71875 -2.171875 C 1.734375 -2.25 1.71875 -2.328125 1.8125 -2.328125 L 2.515625 -2.328125 C 2.671875 -2.328125 2.84375 -2.328125 2.984375 -2.328125 C 3.375 -2.3125 3.765625 -2.234375 4.09375 -2.015625 C 4.265625 -1.90625 4.453125 -1.734375 4.453125 -1.453125 C 4.453125 -1.046875 4.078125 -0.796875 3.75 -0.640625 C 3.515625 -0.515625 3.109375 -0.421875 2.8125 -0.421875 C 2.328125 -0.40625 1.828125 -0.40625 1.34375 -0.40625 Z M 1.34375 -0.40625 "/>
</symbol>
<symbol overflow="visible" id="glyph1-3">
<path style="stroke:none;" d="M 4.15625 -0.796875 C 4.046875 -0.75 3.9375 -0.671875 3.828125 -0.625 C 3.546875 -0.5 3.28125 -0.40625 2.984375 -0.375 C 2.71875 -0.34375 2.453125 -0.328125 2.1875 -0.390625 C 1.921875 -0.46875 1.6875 -0.59375 1.515625 -0.78125 C 1.09375 -1.1875 1 -1.8125 1.109375 -2.375 C 1.28125 -3.28125 1.953125 -4.0625 2.8125 -4.375 C 3.265625 -4.53125 3.84375 -4.5 4.265625 -4.359375 C 4.515625 -4.25 4.453125 -4.265625 4.734375 -4.109375 L 4.9375 -4.640625 C 4.71875 -4.71875 4.515625 -4.78125 4.296875 -4.828125 C 3.953125 -4.90625 3.453125 -4.90625 3.109375 -4.859375 C 2.328125 -4.71875 1.734375 -4.296875 1.28125 -3.796875 C 0.65625 -3.078125 0.296875 -2 0.6875 -1.09375 C 0.75 -0.90625 0.859375 -0.734375 0.984375 -0.59375 C 1.375 -0.125 1.9375 0.09375 2.75 0.046875 C 3.234375 0.03125 3.5 -0.0625 3.890625 -0.234375 C 3.9375 -0.25 3.984375 -0.28125 4.03125 -0.296875 C 4.0625 -0.3125 4.078125 -0.328125 4.09375 -0.34375 C 4.125 -0.390625 4.15625 -0.78125 4.15625 -0.796875 Z M 4.15625 -0.796875 "/>
</symbol>
<symbol overflow="visible" id="glyph1-4">
<path style="stroke:none;" d="M 1.765625 -4.84375 L 0.734375 0 L 2.109375 0 C 2.390625 0 2.65625 0.015625 2.9375 0 C 4.484375 -0.171875 5.703125 -1.578125 5.640625 -3.015625 C 5.609375 -4.0625 4.890625 -4.734375 3.953125 -4.828125 C 3.75 -4.84375 3.515625 -4.84375 3.296875 -4.84375 L 1.765625 -4.84375 Z M 1.34375 -0.40625 C 1.359375 -0.515625 1.390625 -0.609375 1.40625 -0.703125 C 1.453125 -0.9375 1.5 -1.15625 1.546875 -1.375 C 1.65625 -1.890625 2.046875 -3.703125 2.125 -4.140625 L 2.171875 -4.34375 C 2.1875 -4.390625 2.1875 -4.421875 2.265625 -4.421875 L 2.96875 -4.421875 C 3.25 -4.421875 3.53125 -4.453125 3.8125 -4.40625 C 4.125 -4.375 4.453125 -4.25 4.6875 -4.03125 C 4.78125 -3.953125 4.84375 -3.875 4.90625 -3.78125 C 5.09375 -3.4375 5.171875 -3.078125 5.109375 -2.546875 C 5.03125 -2 4.765625 -1.453125 4.359375 -1.0625 C 4.09375 -0.8125 3.75 -0.625 3.40625 -0.515625 C 3.046875 -0.40625 2.78125 -0.40625 2.359375 -0.40625 L 1.34375 -0.40625 Z M 1.34375 -0.40625 "/>
</symbol>
<symbol overflow="visible" id="glyph2-0">
<path style="stroke:none;" d=""/>
</symbol>
<symbol overflow="visible" id="glyph2-1">
<path style="stroke:none;" d="M 2.171875 -1.59375 L 0.546875 -1.59375 C 0.5 -1.59375 0.46875 -1.609375 0.421875 -1.59375 C 0.375 -1.578125 0.328125 -1.53125 0.328125 -1.46875 C 0.328125 -1.421875 0.375 -1.359375 0.421875 -1.34375 C 0.46875 -1.34375 0.5 -1.34375 0.546875 -1.34375 L 2.171875 -1.34375 L 2.171875 0.28125 C 2.171875 0.328125 2.171875 0.375 2.1875 0.40625 C 2.203125 0.46875 2.25 0.5 2.296875 0.5 C 2.359375 0.5 2.40625 0.46875 2.421875 0.40625 C 2.4375 0.375 2.4375 0.328125 2.4375 0.28125 L 2.4375 -1.34375 L 4.0625 -1.34375 C 4.09375 -1.34375 4.140625 -1.34375 4.171875 -1.34375 C 4.234375 -1.359375 4.265625 -1.421875 4.265625 -1.46875 C 4.265625 -1.53125 4.234375 -1.578125 4.171875 -1.59375 C 4.140625 -1.609375 4.09375 -1.59375 4.0625 -1.59375 L 2.4375 -1.59375 L 2.4375 -3.234375 C 2.4375 -3.265625 2.4375 -3.3125 2.421875 -3.359375 C 2.40625 -3.40625 2.359375 -3.453125 2.296875 -3.453125 C 2.25 -3.453125 2.203125 -3.40625 2.1875 -3.359375 C 2.171875 -3.3125 2.171875 -3.265625 2.171875 -3.234375 L 2.171875 -1.59375 Z M 2.171875 -1.59375 "/>
</symbol>
<symbol overflow="visible" id="glyph3-0">
<path style="stroke:none;" d=""/>
</symbol>
<symbol overflow="visible" id="glyph3-1">
<path style="stroke:none;" d="M 0.59375 -1.59375 C 0.46875 -1.5625 0.453125 -1.390625 0.578125 -1.34375 C 0.609375 -1.34375 0.640625 -1.34375 0.6875 -1.34375 L 3.828125 -1.34375 C 3.90625 -1.34375 4.015625 -1.328125 4.078125 -1.375 C 4.140625 -1.453125 4.109375 -1.578125 4 -1.59375 C 3.9375 -1.609375 3.859375 -1.59375 3.78125 -1.59375 L 0.6875 -1.59375 C 0.65625 -1.59375 0.625 -1.609375 0.59375 -1.59375 Z M 0.59375 -1.59375 "/>
</symbol>
</g>
<clipPath id="clip1">
  <path d="M -220 667 L 392 667 L 392 -125 L -220 -125 L -220 667 Z M -220 667 "/>
</clipPath>
<clipPath id="clip2">
  <path d="M 9.460938 216.800781 L 171.460938 216.800781 L 171.460938 -0.199219 L 9.460938 -0.199219 L 9.460938 216.800781 Z M 9.460938 216.800781 "/>
</clipPath>
<clipPath id="clip3">
  <path d="M 9.460938 215.800781 L 171.179688 215.800781 L 171.179688 0.78125 L 9.460938 0.78125 L 9.460938 215.800781 Z M 9.460938 215.800781 "/>
</clipPath>
<clipPath id="clip4">
  <path d="M -220 667 L 392 667 L 392 -125 L -220 -125 L -220 667 Z M -220 667 "/>
</clipPath>
</defs>
<g id="surface0">
<g clip-path="url(#clip1)" clip-rule="nonzero">
<g clip-path="url(#clip2)" clip-rule="nonzero">
<g clip-path="url(#clip3)" clip-rule="nonzero">
<path style=" stroke:none;fill-rule:nonzero;fill:rgb(100%,100%,100%);fill-opacity:1;" d="M 9.710938 27.390625 L 116.359375 27.390625 L 116.359375 23.652344 L 9.710938 23.652344 L 9.710938 27.390625 Z M 9.710938 27.390625 "/>
<path style="fill:none;stroke-width:5;stroke-linecap:butt;stroke-linejoin:miter;stroke:rgb(0%,0%,0%);stroke-opacity:1;stroke-miterlimit:4;" d="M 1068.99375 1894.11375 L 2.509375 1894.11375 L 2.509375 1931.496563 L 1068.99375 1931.496563 L 1068.99375 1894.11375 Z M 1068.99375 1894.11375 " transform="matrix(0.1,0,0,-0.1,9.46,216.802)"/>
<path style=" stroke:none;fill-rule:nonzero;fill:rgb(100%,100%,100%);fill-opacity:1;" d="M 64.28125 45.214844 L 170.929688 45.214844 L 170.929688 41.476563 L 64.28125 41.476563 L 64.28125 45.214844 Z M 64.28125 45.214844 "/>
<path style="fill:none;stroke-width:5;stroke-linecap:butt;stroke-linejoin:miter;stroke:rgb(0%,0%,0%);stroke-opacity:1;stroke-miterlimit:4;" d="M 1614.696875 1715.871563 L 548.2125 1715.871563 L 548.2125 1753.254375 L 1614.696875 1753.254375 L 1614.696875 1715.871563 Z M 1614.696875 1715.871563 " transform="matrix(0.1,0,0,-0.1,9.46,216.802)"/>
<path style=" stroke:none;fill-rule:nonzero;fill:rgb(100%,100%,100%);fill-opacity:1;" d="M 170.929688 62.664063 L 64.660156 62.648438 L 64.660156 58.910156 L 170.929688 58.925781 L 170.929688 62.664063 "/>
<path style="fill:none;stroke-width:5;stroke-linecap:butt;stroke-linejoin:miter;stroke:rgb(0%,0%,0%);stroke-opacity:1;stroke-miterlimit:4;" d="M 1614.696875 1541.379375 L 552.001562 1541.535625 L 552.001562 1578.918438 L 1614.696875 1578.762188 L 1614.696875 1541.379375 Z M 1614.696875 1541.379375 " transform="matrix(0.1,0,0,-0.1,9.46,216.802)"/>
<path style=" stroke:none;fill-rule:nonzero;fill:rgb(100%,100%,100%);fill-opacity:1;" d="M 9.710938 82.640625 L 117.425781 82.640625 L 117.425781 78.152344 L 9.710938 78.152344 L 9.710938 82.640625 Z M 9.710938 82.640625 "/>
<path style="fill:none;stroke-width:5;stroke-linecap:butt;stroke-linejoin:miter;stroke:rgb(0%,0%,0%);stroke-opacity:1;stroke-miterlimit:4;" d="M 1079.657812 1341.61375 L 2.509375 1341.61375 L 2.509375 1386.496563 L 1079.657812 1386.496563 L 1079.657812 1341.61375 Z M 1079.657812 1341.61375 " transform="matrix(0.1,0,0,-0.1,9.46,216.802)"/>
<path style="fill:none;stroke-width:3.8;stroke-linecap:butt;stroke-linejoin:miter;stroke:rgb(0%,0%,0%);stroke-opacity:1;stroke-miterlimit:4;" d="M 137.821875 1892.55125 C 137.821875 1892.55125 64.501562 1670.285625 164.228125 1412.121563 " transform="matrix(0.1,0,0,-0.1,9.46,216.802)"/>
<path style=" stroke:none;fill-rule:nonzero;fill:rgb(0%,0%,0%);fill-opacity:1;" d="M 24.828125 75.335938 L 26.882813 78.152344 L 26.511719 74.6875 L 24.828125 75.335938 "/>
<path style="fill:none;stroke-width:3.8;stroke-linecap:butt;stroke-linejoin:miter;stroke:rgb(0%,0%,0%);stroke-opacity:1;stroke-miterlimit:4;" d="M 381.142187 1890.98875 C 381.142187 1890.98875 291.689062 1606.027813 370.048437 1411.965313 " transform="matrix(0.1,0,0,-0.1,9.46,216.802)"/>
<path style=" stroke:none;fill-rule:nonzero;fill:rgb(0%,0%,0%);fill-opacity:1;" d="M 45.40625 75.367188 L 47.503906 78.152344 L 47.082031 74.691406 L 45.40625 75.367188 "/>
<path style="fill:none;stroke-width:3.8;stroke-linecap:butt;stroke-linejoin:miter;stroke:rgb(0%,0%,0%);stroke-opacity:1;stroke-miterlimit:4;" d="M 487.43125 1891.652813 C 489.228125 1884.699688 500.595312 1808.918438 536.884375 1772.629375 " transform="matrix(0.1,0,0,-0.1,9.46,216.802)"/>
<path style=" stroke:none;fill-rule:nonzero;fill:rgb(0%,0%,0%);fill-opacity:1;" d="M 62.082031 39.730469 L 65.101563 41.476563 L 63.359375 38.457031 L 62.082031 39.730469 "/>
<path style="fill:none;stroke-width:3.8;stroke-linecap:butt;stroke-linejoin:miter;stroke:rgb(0%,0%,0%);stroke-opacity:1;stroke-miterlimit:4;" d="M 695.790625 1893.840313 C 695.790625 1893.840313 731.610937 1803.02 731.610937 1778.762188 " transform="matrix(0.1,0,0,-0.1,9.46,216.802)"/>
<path style=" stroke:none;fill-rule:nonzero;fill:rgb(0%,0%,0%);fill-opacity:1;" d="M 81.730469 38.308594 L 82.632813 41.675781 L 83.535156 38.308594 L 81.730469 38.308594 "/>
<path style="fill:none;stroke-width:3.8;stroke-linecap:butt;stroke-linejoin:miter;stroke:rgb(0%,0%,0%);stroke-opacity:1;stroke-miterlimit:4;" d="M 921.220312 1894.11375 C 921.220312 1894.11375 937.235937 1798.645 937.235937 1780.8325 " transform="matrix(0.1,0,0,-0.1,9.46,216.802)"/>
<path style=" stroke:none;fill-rule:nonzero;fill:rgb(0%,0%,0%);fill-opacity:1;" d="M 102.292969 38.101563 L 103.195313 41.46875 L 104.097656 38.101563 L 102.292969 38.101563 "/>
<path style="fill:none;stroke-width:3.8;stroke-linecap:butt;stroke-linejoin:miter;stroke:rgb(0%,0%,0%);stroke-opacity:1;stroke-miterlimit:4;" d="M 744.696875 1688.566875 C 744.696875 1688.566875 746.884375 1638.410625 744.071875 1578.879375 M 741.689062 1541.496563 C 737.470312 1491.066875 728.954687 1439.973125 712.235937 1410.480938 " transform="matrix(0.1,0,0,-0.1,9.46,216.802)"/>
<path style=" stroke:none;fill-rule:nonzero;fill:rgb(0%,0%,0%);fill-opacity:1;" d="M 80.214844 74.777344 L 79.335938 78.152344 L 81.785156 75.667969 L 80.214844 74.777344 "/>
<path style=" stroke:none;fill-rule:nonzero;fill:rgb(0%,0%,0%);fill-opacity:1;" d="M 84.851563 48.519531 L 83.789063 45.199219 L 83.046875 48.605469 L 84.851563 48.519531 "/>
<path style="fill:none;stroke-width:3.8;stroke-linecap:butt;stroke-linejoin:miter;stroke:rgb(0%,0%,0%);stroke-opacity:1;stroke-miterlimit:4;" d="M 946.142187 1688.3325 C 946.142187 1688.3325 950.204687 1639.074688 952.001562 1578.840313 M 952.821875 1541.496563 C 953.290625 1495.480938 951.884375 1447.746563 946.142187 1413.254375 " transform="matrix(0.1,0,0,-0.1,9.46,216.802)"/>
<path style=" stroke:none;fill-rule:nonzero;fill:rgb(0%,0%,0%);fill-opacity:1;" d="M 103.390625 74.667969 L 103.390625 78.152344 L 105.109375 75.097656 L 103.390625 74.667969 "/>
<path style=" stroke:none;fill-rule:nonzero;fill:rgb(0%,0%,0%);fill-opacity:1;" d="M 104.988281 48.585938 L 103.953125 45.21875 L 103.183594 48.585938 L 104.988281 48.585938 "/>
<path style="fill:none;stroke-width:3.8;stroke-linecap:butt;stroke-linejoin:miter;stroke:rgb(0%,0%,0%);stroke-opacity:1;stroke-miterlimit:4;" d="M 1187.821875 1760.910625 C 1187.821875 1760.910625 1132.196875 1876.30125 1068.99375 1894.11375 " transform="matrix(0.1,0,0,-0.1,9.46,216.802)"/>
<path style=" stroke:none;fill-rule:nonzero;fill:rgb(0%,0%,0%);fill-opacity:1;" d="M 126.226563 38.949219 L 128.632813 41.476563 L 127.808594 38.085938 L 126.226563 38.949219 "/>
<path style="fill:none;stroke-width:3.8;stroke-linecap:butt;stroke-linejoin:miter;stroke:rgb(0%,0%,0%);stroke-opacity:1;stroke-miterlimit:4;" d="M 1378.798437 1578.762188 C 1378.798437 1578.762188 1385.907812 1651.223125 1378.798437 1688.80125 " transform="matrix(0.1,0,0,-0.1,9.46,216.802)"/>
<path style=" stroke:none;fill-rule:nonzero;fill:rgb(0%,0%,0%);fill-opacity:1;" d="M 148.328125 48.359375 L 146.816406 45.214844 L 146.554688 48.695313 L 148.328125 48.359375 "/>
<path style="fill:none;stroke-width:3.8;stroke-linecap:butt;stroke-linejoin:miter;stroke:rgb(0%,0%,0%);stroke-opacity:1;stroke-miterlimit:4;" d="M 1551.49375 1578.762188 C 1551.49375 1578.762188 1592.43125 1636.652813 1567.509375 1690.05125 " transform="matrix(0.1,0,0,-0.1,9.46,216.802)"/>
<path style=" stroke:none;fill-rule:nonzero;fill:rgb(0%,0%,0%);fill-opacity:1;" d="M 167.277344 47.976563 L 165.035156 45.308594 L 165.644531 48.742188 L 167.277344 47.976563 "/>
<path style="fill-rule:nonzero;fill:rgb(100%,100%,100%);fill-opacity:1;stroke-width:3.8;stroke-linecap:butt;stroke-linejoin:miter;stroke:rgb(0%,0%,0%);stroke-opacity:1;stroke-miterlimit:4;" d="M 1165.126562 1578.762188 C 1165.126562 1578.762188 1165.126562 1652.23875 1165.126562 1688.3325 " transform="matrix(0.1,0,0,-0.1,9.46,216.802)"/>
<path style=" stroke:none;fill-rule:nonzero;fill:rgb(0%,0%,0%);fill-opacity:1;" d="M 126.863281 48.585938 L 125.960938 45.21875 L 125.058594 48.585938 L 126.863281 48.585938 "/>
<path style=" stroke:none;fill-rule:nonzero;fill:rgb(0%,0%,0%);fill-opacity:1;" d="M 116.769531 75.132813 L 115.023438 78.152344 L 118.046875 76.410156 L 116.769531 75.132813 "/>
<path style=" stroke:none;fill-rule:nonzero;fill:rgb(0%,0%,0%);fill-opacity:1;" d="M 62.894531 48.417969 L 64.28125 45.21875 L 61.480469 47.296875 L 62.894531 48.417969 "/>
<path style=" stroke:none;fill-rule:nonzero;fill:rgb(0%,0%,0%);fill-opacity:1;" d="M 59.4375 75.019531 L 57.902344 78.152344 L 60.796875 76.207031 L 59.4375 75.019531 "/>
<path style="fill:none;stroke-width:5;stroke-linecap:butt;stroke-linejoin:miter;stroke:rgb(0%,0%,0%);stroke-opacity:1;stroke-miterlimit:4;" d="M 736.49375 581.652813 L 996.767187 581.652813 L 996.767187 414.504375 M 996.767187 397.23875 L 996.767187 216.30125 L 736.025 216.30125 M 720.4 216.30125 L 462.939062 216.30125 L 462.939062 386.340313 M 462.939062 406.223125 L 462.939062 581.652813 L 717.939062 581.652813 " transform="matrix(0.1,0,0,-0.1,9.46,216.802)"/>
<path style="fill:none;stroke-width:5.249;stroke-linecap:butt;stroke-linejoin:miter;stroke:rgb(0%,0%,0%);stroke-opacity:1;stroke-miterlimit:4;" d="M 848.720312 325.012188 C 918.290625 276.184063 996.767187 220.402813 996.767187 220.402813 " transform="matrix(0.1,0,0,-0.1,9.46,216.802)"/>
<path style="fill:none;stroke-width:5;stroke-linecap:butt;stroke-linejoin:miter;stroke:rgb(0%,0%,0%);stroke-opacity:1;stroke-miterlimit:4;" d="M 462.939062 742.355938 L 462.939062 581.652813 L 708.329687 418.527813 C 708.329687 418.527813 697.275 361.223125 753.603125 385.36375 C 760.790625 381.379375 794.032812 359.11375 833.720312 332.121563 " transform="matrix(0.1,0,0,-0.1,9.46,216.802)"/>
<path style="fill-rule:nonzero;fill:rgb(100%,100%,100%);fill-opacity:1;stroke-width:5;stroke-linecap:butt;stroke-linejoin:miter;stroke:rgb(0%,0%,0%);stroke-opacity:1;stroke-miterlimit:4;" d="M 462.392187 41.30125 L 462.392187 215.285625 " transform="matrix(0.1,0,0,-0.1,9.46,216.802)"/>
<path style="fill-rule:nonzero;fill:rgb(100%,100%,100%);fill-opacity:1;stroke-width:5;stroke-linecap:butt;stroke-linejoin:miter;stroke:rgb(0%,0%,0%);stroke-opacity:1;stroke-miterlimit:4;" d="M 996.571875 217.512188 L 996.571875 73.762188 " transform="matrix(0.1,0,0,-0.1,9.46,216.802)"/>
<path style=" stroke:none;fill-rule:nonzero;fill:rgb(100%,100%,100%);fill-opacity:1;" d="M 109.164063 141.238281 L 109.164063 159.019531 "/>
<path style="fill:none;stroke-width:5;stroke-linecap:butt;stroke-linejoin:miter;stroke:rgb(0%,0%,0%);stroke-opacity:1;stroke-miterlimit:4;" d="M 975.517187 415.324688 L 1016.3375 415.324688 M 975.790625 397.23875 L 1016.064062 397.23875 M 442.040625 404.465313 L 482.860937 404.465313 M 442.314062 386.340313 L 482.5875 386.340313 M 816.80625 307.316875 L 853.876562 365.559063 M 832.353125 297.980938 L 868.876562 355.480938 M 590.048437 355.480938 L 634.189062 302.395 M 577.392187 342.86375 L 621.532812 289.73875 M 736.025 235.480938 L 736.025 194.660625 M 717.939062 235.246563 L 717.939062 194.934063 M 736.025 601.730938 L 736.025 560.910625 M 717.939062 601.4575 L 717.939062 561.184063 M 997.040625 755.637188 L 997.040625 577.824688 " transform="matrix(0.1,0,0,-0.1,9.46,216.802)"/>
<path style="fill-rule:nonzero;fill:rgb(100%,100%,100%);fill-opacity:1;stroke-width:7.5;stroke-linecap:butt;stroke-linejoin:miter;stroke:rgb(0%,0%,0%);stroke-opacity:1;stroke-miterlimit:4;" d="M 533.290625 2140.2075 L 533.290625 1934.855938 " transform="matrix(0.1,0,0,-0.1,9.46,216.802)"/>
<path style="fill-rule:nonzero;fill:rgb(100%,100%,100%);fill-opacity:1;stroke-width:7.5;stroke-linecap:butt;stroke-linejoin:miter;stroke:rgb(0%,0%,0%);stroke-opacity:1;stroke-miterlimit:4;" d="M 538.759375 1342.316875 L 538.759375 1131.4575 " transform="matrix(0.1,0,0,-0.1,9.46,216.802)"/>
<path style="fill-rule:nonzero;fill:rgb(100%,100%,100%);fill-opacity:1;stroke-width:7.5;stroke-linecap:butt;stroke-linejoin:miter;stroke:rgb(0%,0%,0%);stroke-opacity:1;stroke-miterlimit:4;" d="M 1247.626562 2160.2075 L 1247.626562 1753.254375 " transform="matrix(0.1,0,0,-0.1,9.46,216.802)"/>
<path style="fill-rule:nonzero;fill:rgb(100%,100%,100%);fill-opacity:1;stroke-width:7.5;stroke-linecap:butt;stroke-linejoin:miter;stroke:rgb(0%,0%,0%);stroke-opacity:1;stroke-miterlimit:4;" d="M 1254.892187 1542.23875 L 1254.892187 1156.92625 " transform="matrix(0.1,0,0,-0.1,9.46,216.802)"/>
<path style="fill:none;stroke-width:3.8;stroke-linecap:butt;stroke-linejoin:miter;stroke:rgb(0%,0%,0%);stroke-opacity:1;stroke-miterlimit:4;" d="M 531.689062 1696.027813 C 531.689062 1696.027813 476.9625 1614.934063 552.001562 1557.668438 M 1074.032812 1406.809063 C 1074.032812 1406.809063 1129.4625 1450.441875 1152.196875 1522.23875 M 552.626562 1539.777813 C 552.626562 1539.777813 565.321875 1482.7075 499.892187 1405.67625 " transform="matrix(0.1,0,0,-0.1,9.46,216.802)"/>
<path style=" stroke:none;fill-rule:nonzero;fill:rgb(0%,0%,0%);fill-opacity:1;" d="M 110.753906 194.652344 C 110.753906 195.554688 110.019531 196.289063 109.117188 196.289063 C 108.214844 196.289063 107.480469 195.554688 107.480469 194.652344 C 107.480469 193.746094 108.214844 193.015625 109.117188 193.015625 C 110.019531 193.015625 110.753906 193.746094 110.753906 194.652344 "/>
<path style=" stroke:none;fill-rule:nonzero;fill:rgb(0%,0%,0%);fill-opacity:1;" d="M 57.335938 194.652344 C 57.335938 195.554688 56.601563 196.289063 55.699219 196.289063 C 54.796875 196.289063 54.0625 195.554688 54.0625 194.652344 C 54.0625 193.746094 54.796875 193.015625 55.699219 193.015625 C 56.601563 193.015625 57.335938 193.746094 57.335938 194.652344 "/>
<path style=" stroke:none;fill-rule:nonzero;fill:rgb(0%,0%,0%);fill-opacity:1;" d="M 110.800781 158.535156 C 110.800781 159.4375 110.066406 160.171875 109.164063 160.171875 C 108.261719 160.171875 107.527344 159.4375 107.527344 158.535156 C 107.527344 157.628906 108.261719 156.898438 109.164063 156.898438 C 110.066406 156.898438 110.800781 157.628906 110.800781 158.535156 "/>
<path style=" stroke:none;fill-rule:nonzero;fill:rgb(0%,0%,0%);fill-opacity:1;" d="M 57.597656 158.535156 C 57.597656 159.4375 56.863281 160.171875 55.960938 160.171875 C 55.058594 160.171875 54.324219 159.4375 54.324219 158.535156 C 54.324219 157.628906 55.058594 156.898438 55.960938 156.898438 C 56.863281 156.898438 57.597656 157.628906 57.597656 158.535156 "/>
<path style="fill:none;stroke-width:5;stroke-linecap:butt;stroke-linejoin:miter;stroke:rgb(0%,0%,0%);stroke-opacity:1;stroke-miterlimit:4;" d="M 456.9625 221.496563 L 601.220312 316.652813 M 616.454687 326.691875 L 1004.61875 582.668438 M 475.360937 25.441875 C 475.360937 18.293438 469.579687 12.512188 462.392187 12.512188 C 455.24375 12.512188 449.423437 18.293438 449.423437 25.441875 C 449.423437 32.629375 455.24375 38.449688 462.392187 38.449688 C 469.579687 38.449688 475.360937 32.629375 475.360937 25.441875 L 475.360937 25.441875 Z M 475.907812 755.52 C 475.907812 748.3325 470.0875 742.55125 462.939062 742.55125 C 455.751562 742.55125 449.970312 748.3325 449.970312 755.52 C 449.970312 762.7075 455.751562 768.48875 462.939062 768.48875 C 470.0875 768.48875 475.907812 762.7075 475.907812 755.52 L 475.907812 755.52 Z M 1010.009375 767.941875 C 1010.009375 760.793438 1004.189062 754.973125 997.040625 754.973125 C 989.853125 754.973125 984.071875 760.793438 984.071875 767.941875 C 984.071875 775.090313 989.853125 780.910625 997.040625 780.910625 C 1004.189062 780.910625 1010.009375 775.090313 1010.009375 767.941875 L 1010.009375 767.941875 Z M 1009.540625 62.277813 C 1009.540625 55.090313 1003.720312 49.309063 996.571875 49.309063 C 989.384375 49.309063 983.603125 55.090313 983.603125 62.277813 C 983.603125 69.42625 989.384375 75.246563 996.571875 75.246563 C 1003.720312 75.246563 1009.540625 69.42625 1009.540625 62.277813 L 1009.540625 62.277813 Z M 1009.540625 62.277813 " transform="matrix(0.1,0,0,-0.1,9.46,216.802)"/>
</g>
</g>
</g>
<g clip-path="url(#clip4)" clip-rule="nonzero">
<g style="fill:rgb(0%,0%,0%);fill-opacity:1;">
  <use xlink:href="#glyph0-1" x="-0.212" y="54.658"/>
  <use xlink:href="#glyph0-2" x="2.804866" y="54.658"/>
  <use xlink:href="#glyph0-3" x="6.441703" y="54.658"/>
</g>
<g style="fill:rgb(0%,0%,0%);fill-opacity:1;">
  <use xlink:href="#glyph1-1" x="65.019" y="9.047"/>
</g>
<g style="fill:rgb(0%,0%,0%);fill-opacity:1;">
  <use xlink:href="#glyph1-2" x="136.452" y="9.047"/>
</g>
<g style="fill:rgb(0%,0%,0%);fill-opacity:1;">
  <use xlink:href="#glyph1-3" x="65.019" y="106.121"/>
</g>
<g style="fill:rgb(0%,0%,0%);fill-opacity:1;">
  <use xlink:href="#glyph1-4" x="136.452" y="106.121"/>
</g>
<g style="fill:rgb(0%,0%,0%);fill-opacity:1;">
  <use xlink:href="#glyph2-1" x="22.818" y="26.936"/>
</g>
<g style="fill:rgb(0%,0%,0%);fill-opacity:1;">
  <use xlink:href="#glyph2-1" x="38.246277" y="26.936"/>
</g>
<g style="fill:rgb(0%,0%,0%);fill-opacity:1;">
  <use xlink:href="#glyph2-1" x="53.674554" y="26.936"/>
</g>
<g style="fill:rgb(0%,0%,0%);fill-opacity:1;">
  <use xlink:href="#glyph2-1" x="69.102832" y="26.936"/>
</g>
<g style="fill:rgb(0%,0%,0%);fill-opacity:1;">
  <use xlink:href="#glyph2-1" x="84.531109" y="26.936"/>
</g>
<g style="fill:rgb(0%,0%,0%);fill-opacity:1;">
  <use xlink:href="#glyph2-1" x="98.637154" y="26.936"/>
</g>
<g style="fill:rgb(0%,0%,0%);fill-opacity:1;">
  <use xlink:href="#glyph3-1" x="22.818" y="81.928"/>
</g>
<g style="fill:rgb(0%,0%,0%);fill-opacity:1;">
  <use xlink:href="#glyph3-1" x="38.246277" y="81.928"/>
</g>
<g style="fill:rgb(0%,0%,0%);fill-opacity:1;">
  <use xlink:href="#glyph3-1" x="53.674554" y="81.928"/>
</g>
<g style="fill:rgb(0%,0%,0%);fill-opacity:1;">
  <use xlink:href="#glyph3-1" x="69.102832" y="81.928"/>
</g>
<g style="fill:rgb(0%,0%,0%);fill-opacity:1;">
  <use xlink:href="#glyph3-1" x="84.531109" y="81.928"/>
</g>
<g style="fill:rgb(0%,0%,0%);fill-opacity:1;">
  <use xlink:href="#glyph3-1" x="98.637154" y="81.928"/>
</g>
<g style="fill:rgb(0%,0%,0%);fill-opacity:1;">
  <use xlink:href="#glyph3-1" x="77.243" y="44.936"/>
</g>
<g style="fill:rgb(0%,0%,0%);fill-opacity:1;">
  <use xlink:href="#glyph3-1" x="92.671277" y="44.936"/>
</g>
<g style="fill:rgb(0%,0%,0%);fill-opacity:1;">
  <use xlink:href="#glyph3-1" x="108.099554" y="44.936"/>
</g>
<g style="fill:rgb(0%,0%,0%);fill-opacity:1;">
  <use xlink:href="#glyph3-1" x="123.527832" y="44.936"/>
</g>
<g style="fill:rgb(0%,0%,0%);fill-opacity:1;">
  <use xlink:href="#glyph3-1" x="138.956109" y="44.936"/>
</g>
<g style="fill:rgb(0%,0%,0%);fill-opacity:1;">
  <use xlink:href="#glyph3-1" x="153.062154" y="44.936"/>
</g>
<g style="fill:rgb(0%,0%,0%);fill-opacity:1;">
  <use xlink:href="#glyph2-1" x="77.243" y="62.369"/>
</g>
<g style="fill:rgb(0%,0%,0%);fill-opacity:1;">
  <use xlink:href="#glyph2-1" x="92.671277" y="62.369"/>
</g>
<g style="fill:rgb(0%,0%,0%);fill-opacity:1;">
  <use xlink:href="#glyph2-1" x="108.099554" y="62.369"/>
</g>
<g style="fill:rgb(0%,0%,0%);fill-opacity:1;">
  <use xlink:href="#glyph2-1" x="123.527832" y="62.369"/>
</g>
<g style="fill:rgb(0%,0%,0%);fill-opacity:1;">
  <use xlink:href="#glyph2-1" x="138.956109" y="62.369"/>
</g>
<g style="fill:rgb(0%,0%,0%);fill-opacity:1;">
  <use xlink:href="#glyph2-1" x="153.062154" y="62.369"/>
</g>
<g style="fill:rgb(0%,0%,0%);fill-opacity:1;">
  <use xlink:href="#glyph0-1" x="20.403" y="178.957"/>
  <use xlink:href="#glyph0-4" x="23.419866" y="178.957"/>
  <use xlink:href="#glyph0-3" x="27.245693" y="178.957"/>
</g>
<g style="fill:rgb(0%,0%,0%);fill-opacity:1;">
  <use xlink:href="#glyph1-1" x="48.091" y="143.538"/>
</g>
<g style="fill:rgb(0%,0%,0%);fill-opacity:1;">
  <use xlink:href="#glyph1-2" x="100.751" y="143.538"/>
</g>
<g style="fill:rgb(0%,0%,0%);fill-opacity:1;">
  <use xlink:href="#glyph1-3" x="47.583" y="216.672"/>
</g>
<g style="fill:rgb(0%,0%,0%);fill-opacity:1;">
  <use xlink:href="#glyph1-4" x="100.371" y="216.672"/>
</g>
</g>
</g>
</svg>
