<?xml version="1.0" encoding="UTF-8"?>
<svg xmlns="http://www.w3.org/2000/svg" xmlns:xlink="http://www.w3.org/1999/xlink" width="215pt" height="222pt" viewBox="0 0 155 160" version="1.1">
<defs>
<g>
<symbol overflow="visible" id="glyph0-0">
<path style="stroke:none;" d=""/>
</symbol>
<symbol overflow="visible" id="glyph0-1">
<path style="stroke:none;" d="M 1.765625 -4.84375 L 1.65625 -4.3125 L 0.734375 0 L 1.125 0 C 1.15625 0 1.25 0.015625 1.265625 -0.015625 C 1.296875 -0.0625 1.296875 -0.109375 1.296875 -0.15625 C 1.328125 -0.25 2.28125 -4.78125 2.296875 -4.84375 L 1.765625 -4.84375 Z M 1.765625 -4.84375 "/>
</symbol>
<symbol overflow="visible" id="glyph0-2">
<path style="stroke:none;" d="M 1.203125 -2.640625 C 1.46875 -2.78125 1.609375 -2.890625 1.953125 -2.953125 C 2.078125 -2.984375 2.390625 -3.03125 2.53125 -3.015625 C 2.765625 -2.984375 2.953125 -2.84375 3.015625 -2.609375 C 3.09375 -2.359375 2.96875 -2.109375 2.9375 -1.859375 C 2.328125 -1.859375 1.65625 -1.75 1.1875 -1.53125 C 0.9375 -1.390625 0.671875 -1.1875 0.578125 -0.90625 C 0.46875 -0.5 0.640625 0 1.109375 0.0625 C 1.75 0.09375 2.328125 -0.15625 2.65625 -0.46875 L 2.5625 0 L 2.921875 0 C 3 0 3.0625 0.015625 3.0625 -0.078125 C 3.078125 -0.125 3.21875 -0.78125 3.21875 -0.78125 L 3.453125 -1.875 C 3.484375 -2.046875 3.546875 -2.21875 3.546875 -2.390625 C 3.578125 -2.703125 3.4375 -2.984375 3.234375 -3.15625 C 2.984375 -3.359375 2.671875 -3.390625 2.359375 -3.359375 C 2.140625 -3.359375 1.921875 -3.3125 1.703125 -3.25 C 1.640625 -3.234375 1.3125 -3.125 1.265625 -3.078125 C 1.25 -3.046875 1.203125 -2.75 1.203125 -2.640625 Z M 2.890625 -1.625 C 2.875 -1.484375 2.828125 -1.34375 2.796875 -1.203125 C 2.765625 -1.03125 2.734375 -0.84375 2.625 -0.703125 C 2.546875 -0.59375 2.421875 -0.515625 2.296875 -0.453125 C 1.9375 -0.296875 1.375 -0.25 1.125 -0.53125 C 0.984375 -0.6875 1.046875 -0.9375 1.171875 -1.09375 C 1.40625 -1.359375 1.765625 -1.46875 2.09375 -1.546875 C 2.359375 -1.59375 2.625 -1.625 2.890625 -1.625 Z M 2.890625 -1.625 "/>
</symbol>
<symbol overflow="visible" id="glyph0-3">
<path style="stroke:none;" d="M 1.609375 -4.84375 L 0.578125 0 C 0.75 0 0.9375 0 1.09375 -0.015625 C 1.140625 -0.15625 1.15625 -0.3125 1.1875 -0.46875 L 1.203125 -0.46875 C 1.265625 -0.3125 1.421875 -0.15625 1.546875 -0.078125 C 1.921875 0.140625 2.390625 0.0625 2.765625 -0.140625 C 3.453125 -0.515625 3.875 -1.3125 3.890625 -2.09375 C 3.90625 -2.578125 3.703125 -3.171875 3.171875 -3.3125 C 2.578125 -3.46875 1.96875 -3.078125 1.671875 -2.828125 L 2.109375 -4.84375 L 1.609375 -4.84375 Z M 3 -2.84375 C 3.0625 -2.8125 3.125 -2.765625 3.171875 -2.71875 C 3.421875 -2.453125 3.421875 -2.046875 3.34375 -1.703125 C 3.296875 -1.4375 3.203125 -1.1875 3.0625 -0.953125 C 2.8125 -0.578125 2.390625 -0.359375 1.9375 -0.328125 C 1.734375 -0.328125 1.546875 -0.375 1.421875 -0.53125 C 1.375 -0.578125 1.28125 -0.734375 1.28125 -0.8125 C 1.265625 -0.890625 1.296875 -0.96875 1.3125 -1.046875 C 1.359375 -1.296875 1.609375 -2.46875 1.640625 -2.515625 C 1.671875 -2.578125 1.75 -2.640625 1.8125 -2.6875 C 2.109375 -2.9375 2.59375 -3.0625 3 -2.84375 Z M 3 -2.84375 "/>
</symbol>
<symbol overflow="visible" id="glyph0-4">
<path style="stroke:none;" d="M 0.4375 -4.84375 L 1.4375 -0.25 C 1.46875 -0.140625 1.46875 -0.03125 1.515625 0.046875 C 1.703125 0.0625 1.90625 0.0625 2.078125 0.03125 L 2.140625 -0.046875 L 5.21875 -4.84375 C 5.046875 -4.84375 4.875 -4.84375 4.703125 -4.828125 L 4.640625 -4.75 L 2.6875 -1.703125 C 2.4375 -1.296875 2.171875 -0.921875 1.9375 -0.515625 L 1.921875 -0.515625 C 1.640625 -1.984375 1.296875 -3.390625 1 -4.84375 L 0.4375 -4.84375 Z M 0.4375 -4.84375 "/>
</symbol>
</g>
<clipPath id="clip1">
  <path d="M -227 667 L 385 667 L 385 -125 L -227 -125 L -227 667 Z M -227 667 "/>
</clipPath>
<clipPath id="clip2">
  <path d="M -0.203125 160.582031 L 152.867188 160.582031 L 152.867188 -0.199219 L -0.203125 -0.199219 L -0.203125 160.582031 Z M -0.203125 160.582031 "/>
</clipPath>
<clipPath id="clip3">
  <path d="M -227 667 L 385 667 L 385 -125 L -227 -125 L -227 667 Z M -227 667 "/>
</clipPath>
</defs>
<g id="surface0">
<g clip-path="url(#clip1)" clip-rule="nonzero">
<g clip-path="url(#clip2)" clip-rule="nonzero">
<path style="fill:none;stroke-width:5;stroke-linecap:butt;stroke-linejoin:miter;stroke:rgb(0%,0%,0%);stroke-opacity:1;stroke-miterlimit:4;" d="M 895.012527 251.662574 L 895.012527 9.993664 L 9.992813 9.993664 L 9.992813 1455.005612 L 895.012527 1455.005612 L 895.012527 1261.684672 " transform="matrix(0.110123,0,0,-0.110123,-0.202,160.581)"/>
<path style="fill:none;stroke-width:5;stroke-linecap:butt;stroke-linejoin:miter;stroke:rgb(0%,0%,0%);stroke-opacity:1;stroke-miterlimit:4;" d="M 895.012527 1188.32913 L 895.012527 334.985673 " transform="matrix(0.110123,0,0,-0.110123,-0.202,160.581)"/>
<path style="fill:none;stroke-width:5;stroke-linecap:butt;stroke-linejoin:miter;stroke:rgb(0%,0%,0%);stroke-opacity:1;stroke-miterlimit:4;" d="M 1196.983382 1250.652964 L 511.882349 1251.6107 C 365.703341 1249.092207 248.398324 1171.905719 248.398324 1077.089779 C 248.398324 985.643654 348.144834 934.103227 424.976606 916.296417 C 440.406809 912.713773 456.014371 910.088864 471.76382 908.350749 C 516.777448 903.384707 560.336735 909.308486 602.654511 926.228502 C 626.526987 935.80587 666.680988 954.676832 666.680988 985.608182 C 666.680988 1024.627087 589.778273 1051.088999 494.962333 1044.704087 C 427.033966 1040.128234 366.944852 1019.058025 339.099542 993.589322 " transform="matrix(0.110123,0,0,-0.110123,-0.202,160.581)"/>
<path style="fill:none;stroke-width:5;stroke-linecap:butt;stroke-linejoin:miter;stroke:rgb(0%,0%,0%);stroke-opacity:1;stroke-miterlimit:4;" d="M 387.5894 963.793067 C 397.592429 970.674583 450.126064 993.021774 507.306496 998.129703 C 564.415984 1003.202161 610.493764 993.092717 610.139047 975.569682 C 609.961688 965.353823 595.950354 958.791552 588.28846 955.173436 C 553.703521 938.856439 513.443105 937.295683 476.304202 941.374932 C 456.227202 943.574179 436.292088 947.405126 416.959994 953.364377 C 363.149377 970.00062 292.702517 1008.91311 292.702517 1073.897323 C 292.702517 1147.252865 391.952423 1207.093677 516.245372 1209.931415 L 515.677825 1210.002359 L 1196.061117 1208.79632 " transform="matrix(0.110123,0,0,-0.110123,-0.202,160.581)"/>
<path style="fill:none;stroke-width:5;stroke-linecap:butt;stroke-linejoin:miter;stroke:rgb(0%,0%,0%);stroke-opacity:1;stroke-miterlimit:4;" d="M 391.526762 766.605708 C 402.522999 779.694777 444.876247 790.336297 496.061957 791.684223 C 556.257486 793.315922 605.846967 781.503836 606.804704 765.364198 C 607.12395 760.29174 602.61904 755.396641 594.460541 751.033618 C 564.096739 734.823036 524.297455 723.755856 483.114774 723.755856 C 383.368264 723.755856 302.492715 780.262325 302.492715 849.964279 C 302.492715 875.078265 312.992348 898.454136 331.082931 918.140948 " transform="matrix(0.110123,0,0,-0.110123,-0.202,160.581)"/>
<path style="fill:none;stroke-width:5;stroke-linecap:butt;stroke-linejoin:miter;stroke:rgb(0%,0%,0%);stroke-opacity:1;stroke-miterlimit:4;" d="M 311.999139 966.027786 C 311.999139 966.027786 208.528097 867.239012 291.141761 767.386086 C 340.128223 708.112822 420.684526 692.50526 491.876292 692.50526 C 586.798647 692.50526 663.772306 724.394347 663.772306 763.732498 C 663.772306 803.106121 586.798647 834.995208 491.876292 834.995208 C 415.079992 834.995208 350.060308 814.137829 328.032362 785.299311 " transform="matrix(0.110123,0,0,-0.110123,-0.202,160.581)"/>
<path style="fill:none;stroke-width:5;stroke-linecap:butt;stroke-linejoin:miter;stroke:rgb(0%,0%,0%);stroke-opacity:1;stroke-miterlimit:4;" d="M 333.956141 576.831942 C 358.538052 599.250077 416.073201 614.999526 483.114774 614.999526 C 572.503539 614.999526 645.00776 587.012329 645.00776 552.498334 C 645.00776 536.25228 623.228116 518.374527 605.953383 510.03867 C 597.29828 505.888478 588.252988 502.518663 579.172225 499.503566 C 564.167682 494.572995 548.77295 490.742048 533.236332 487.762423 C 515.003862 484.250721 496.416674 482.477135 477.829486 482.477135 C 351.12446 482.477135 248.433795 558.102867 248.433795 651.393523 C 248.433795 691.724882 267.659474 728.75737 299.690448 757.808719 " transform="matrix(0.110123,0,0,-0.110123,-0.202,160.581)"/>
<path style="fill:none;stroke-width:5;stroke-linecap:butt;stroke-linejoin:miter;stroke:rgb(0%,0%,0%);stroke-opacity:1;stroke-miterlimit:4;" d="M 381.417319 544.694553 C 397.202239 555.477959 433.702652 575.271186 490.59931 577.470433 C 547.495968 579.740624 594.070352 569.773067 594.6379 555.265129 C 595.205448 540.792662 549.553329 527.24246 492.692142 524.97227 C 436.11473 522.773022 382.091282 536.536054 337.219541 572.504391 C 290.574213 609.96254 280.358354 661.680325 321.257261 708.751313 " transform="matrix(0.110123,0,0,-0.110123,-0.202,160.581)"/>
<path style="fill:none;stroke-width:5;stroke-linecap:round;stroke-linejoin:round;stroke:rgb(0%,0%,0%);stroke-opacity:1;stroke-miterlimit:4;" d="M 1195.599984 313.950936 L 544.268041 314.23471 C 415.43471 315.653579 364.993907 333.744162 334.417274 384.043078 C 303.41498 435.051429 327.216512 483.044682 347.86106 510.677162 " transform="matrix(0.110123,0,0,-0.110123,-0.202,160.581)"/>
<path style="fill:none;stroke-width:5;stroke-linecap:butt;stroke-linejoin:miter;stroke:rgb(0%,0%,0%);stroke-opacity:1;stroke-miterlimit:4;" d="M 1246.643807 1181.660445 C 1246.643807 1181.660445 1519.988974 928.356806 1286.65592 411.675557 " transform="matrix(0.110123,0,0,-0.110123,-0.202,160.581)"/>
<path style=" stroke:none;fill-rule:nonzero;fill:rgb(0%,0%,0%);fill-opacity:1;" d="M 140.355469 113.699219 L 139.902344 119.859375 L 143.375 114.75 L 140.355469 113.699219 "/>
<path style="fill:none;stroke-width:3.641;stroke-linecap:butt;stroke-linejoin:miter;stroke:rgb(0%,0%,0%);stroke-opacity:1;stroke-miterlimit:4;" d="M 1212.732831 1225.680864 C 1211.030188 1213.088399 1204.574332 1204.894429 1198.295836 1207.412922 C 1192.017339 1209.895944 1188.292807 1222.204635 1189.995451 1234.797099 C 1191.698094 1247.425036 1198.153949 1255.583534 1204.432445 1253.065041 C 1210.710942 1250.58202 1214.435474 1238.273329 1212.732831 1225.680864 Z M 1212.732831 1225.680864 " transform="matrix(0.110123,0,0,-0.110123,-0.202,160.581)"/>
<path style="fill:none;stroke-width:3.641;stroke-linecap:butt;stroke-linejoin:miter;stroke:rgb(0%,0%,0%);stroke-opacity:1;stroke-miterlimit:4;" d="M 1209.930564 283.409774 C 1208.156977 269.327497 1201.45282 260.17579 1194.926021 262.978057 C 1188.434694 265.780324 1184.532804 279.507884 1186.341862 293.625633 C 1188.079977 307.707911 1194.784134 316.824146 1201.310933 314.021879 C 1207.837732 311.255084 1211.704151 297.527524 1209.930564 283.445246 L 1209.930564 283.409774 Z M 1209.930564 283.409774 " transform="matrix(0.110123,0,0,-0.110123,-0.202,160.581)"/>
<path style="fill:none;stroke-width:5;stroke-linecap:butt;stroke-linejoin:miter;stroke:rgb(0%,0%,0%);stroke-opacity:1;stroke-miterlimit:4;" d="M 1124.65652 1316.665857 L 1042.965121 1316.665857 " transform="matrix(0.110123,0,0,-0.110123,-0.202,160.581)"/>
<path style=" stroke:none;fill-rule:nonzero;fill:rgb(0%,0%,0%);fill-opacity:1;" d="M 115.746094 14.007813 L 109.777344 15.605469 L 115.746094 17.207031 L 115.746094 14.007813 "/>
<path style="fill:none;stroke-width:5;stroke-linecap:butt;stroke-linejoin:miter;stroke:rgb(0%,0%,0%);stroke-opacity:1;stroke-miterlimit:4;" d="M 994.510735 207.500268 L 1084.502519 207.500268 " transform="matrix(0.110123,0,0,-0.110123,-0.202,160.581)"/>
<path style=" stroke:none;fill-rule:nonzero;fill:rgb(0%,0%,0%);fill-opacity:1;" d="M 118.136719 139.3125 L 124.105469 137.710938 L 118.136719 136.113281 L 118.136719 139.3125 "/>
<path style="fill:none;stroke-width:5;stroke-linecap:round;stroke-linejoin:round;stroke:rgb(0%,0%,0%);stroke-opacity:1;stroke-miterlimit:4;" d="M 1194.926021 262.978057 C 1194.926021 262.978057 513.088388 264.396926 512.911029 264.396926 C 466.052871 264.432398 412.206782 264.858059 368.221834 282.984114 C 332.5018 297.669411 303.095734 327.075477 288.410437 362.795511 C 280.07458 383.04987 274.186273 408.199328 274.186273 430.227273 C 274.186273 470.310331 283.728169 510.606218 307.033097 538.664358 " transform="matrix(0.110123,0,0,-0.110123,-0.202,160.581)"/>
</g>
</g>
<g clip-path="url(#clip3)" clip-rule="nonzero">
<g style="fill:rgb(0%,0%,0%);fill-opacity:1;">
  <use xlink:href="#glyph0-1" x="118.382" y="14.03"/>
</g>
<g style="fill:rgb(0%,0%,0%);fill-opacity:1;">
  <use xlink:href="#glyph0-1" x="112.287" y="143.881"/>
</g>
<g style="fill:rgb(0%,0%,0%);fill-opacity:1;">
  <use xlink:href="#glyph0-2" x="133.31" y="12.613"/>
</g>
<g style="fill:rgb(0%,0%,0%);fill-opacity:1;">
  <use xlink:href="#glyph0-3" x="133.31" y="137.928"/>
</g>
<path style=" stroke:none;fill-rule:nonzero;fill:rgb(100%,100%,100%);fill-opacity:1;" d="M 146.019531 81.945313 L 157.449219 81.945313 L 157.449219 71.121094 L 146.019531 71.121094 L 146.019531 81.945313 Z M 146.019531 81.945313 "/>
<g style="fill:rgb(0%,0%,0%);fill-opacity:1;">
  <use xlink:href="#glyph0-4" x="149.008" y="78.956"/>
</g>
</g>
</g>
</svg>
