<?xml version="1.0" encoding="UTF-8"?>
<svg xmlns="http://www.w3.org/2000/svg" xmlns:xlink="http://www.w3.org/1999/xlink" width="297pt" height="294pt" viewBox="0 0 172 170" version="1.1">
<defs>
<g>
<symbol overflow="visible" id="glyph0-0">
<path style="stroke:none;" d=""/>
</symbol>
<symbol overflow="visible" id="glyph0-1">
<path style="stroke:none;" d="M 0.75 -3.296875 C 0.828125 -3.140625 0.921875 -3.015625 1.015625 -2.875 C 1.078125 -2.796875 1.6875 -1.875 1.71875 -1.84375 C 1.734375 -1.8125 1.796875 -1.75 1.796875 -1.703125 C 1.796875 -1.65625 1.71875 -1.609375 1.6875 -1.578125 C 1.375 -1.296875 0.046875 -0.046875 0 0 C 0.1875 0 0.375 0 0.53125 0 L 0.6875 -0.140625 L 1.984375 -1.4375 C 2.265625 -0.953125 2.53125 -0.46875 2.84375 -0.015625 C 3.015625 0 3.203125 0 3.390625 0 C 3.296875 -0.140625 2.359375 -1.53125 2.328125 -1.5625 C 2.3125 -1.609375 2.265625 -1.65625 2.265625 -1.6875 C 2.28125 -1.734375 2.34375 -1.78125 2.375 -1.8125 C 2.484375 -1.921875 2.59375 -2.015625 2.703125 -2.125 C 2.8125 -2.21875 3.921875 -3.25 3.953125 -3.296875 C 3.765625 -3.296875 3.59375 -3.296875 3.421875 -3.28125 C 2.96875 -2.875 2.546875 -2.4375 2.09375 -2.03125 C 1.828125 -2.453125 1.578125 -2.890625 1.28125 -3.28125 C 1.109375 -3.296875 0.921875 -3.296875 0.75 -3.296875 Z M 0.75 -3.296875 "/>
</symbol>
<symbol overflow="visible" id="glyph0-2">
<path style="stroke:none;" d="M 0.8125 -3.296875 C 0.828125 -3.1875 0.84375 -3.09375 0.875 -3 C 1.015625 -2.3125 1.515625 -0.078125 1.515625 0 C 1.5 0.03125 1.328125 0.296875 1.328125 0.296875 C 1.15625 0.578125 0.9375 0.875 0.515625 0.828125 C 0.421875 0.828125 0.328125 0.8125 0.234375 0.796875 C 0.171875 0.78125 0.09375 0.75 0.03125 0.734375 L -0.015625 1.171875 C 0.203125 1.203125 0.578125 1.25 0.796875 1.1875 C 1.234375 1.0625 1.546875 0.59375 1.75 0.265625 L 2.09375 -0.28125 C 2.28125 -0.59375 3.875 -3.125 3.984375 -3.296875 C 3.8125 -3.296875 3.640625 -3.296875 3.5 -3.28125 C 3.328125 -3.03125 3.1875 -2.78125 3.03125 -2.53125 C 2.625 -1.859375 2.1875 -1.234375 1.828125 -0.515625 L 1.828125 -0.515625 C 1.734375 -1.515625 1.484375 -2.359375 1.296875 -3.296875 L 0.8125 -3.296875 Z M 0.8125 -3.296875 "/>
</symbol>
<symbol overflow="visible" id="glyph0-3">
<path style="stroke:none;" d="M 1.765625 -4.84375 L 0.734375 0 L 1.109375 0 C 1.15625 0 1.21875 0.015625 1.265625 -0.015625 C 1.296875 -0.03125 1.296875 -0.09375 1.296875 -0.125 C 1.3125 -0.203125 1.671875 -1.875 1.671875 -1.875 C 1.671875 -1.90625 1.671875 -1.984375 1.71875 -2 C 1.734375 -2.03125 1.765625 -2.015625 1.796875 -2.015625 L 2.640625 -2.015625 C 2.859375 -2.015625 3.078125 -2 3.296875 -2.03125 C 3.6875 -2.0625 4.078125 -2.203125 4.40625 -2.421875 C 4.890625 -2.734375 5.3125 -3.296875 5.15625 -3.890625 C 5.0625 -4.28125 4.75 -4.546875 4.421875 -4.6875 C 4.0625 -4.84375 3.65625 -4.84375 3.265625 -4.84375 L 1.765625 -4.84375 Z M 1.765625 -2.421875 C 1.796875 -2.625 1.859375 -2.8125 1.890625 -3.015625 C 1.921875 -3.125 2.15625 -4.21875 2.15625 -4.28125 C 2.171875 -4.34375 2.171875 -4.421875 2.265625 -4.421875 L 3.453125 -4.421875 C 3.9375 -4.421875 4.625 -4.296875 4.6875 -3.6875 C 4.734375 -3.1875 4.359375 -2.765625 3.921875 -2.578125 C 3.546875 -2.421875 3.21875 -2.421875 2.75 -2.421875 L 1.765625 -2.421875 Z M 1.765625 -2.421875 "/>
</symbol>
<symbol overflow="visible" id="glyph0-4">
<path style="stroke:none;" d="M 2.6875 -0.265625 L 2.609375 -0.46875 L 2.515625 -0.703125 C 2.46875 -0.671875 2.4375 -0.640625 2.390625 -0.609375 C 2.28125 -0.53125 2.171875 -0.46875 2.0625 -0.40625 C 1.921875 -0.328125 1.84375 -0.328125 1.625 -0.34375 C 1.296875 -0.390625 1.015625 -0.59375 0.90625 -0.90625 C 0.859375 -1.046875 0.84375 -1.203125 0.84375 -1.34375 C 0.84375 -1.421875 0.84375 -1.484375 0.84375 -1.546875 L 2.21875 -1.546875 C 2.265625 -1.546875 2.328125 -1.546875 2.375 -1.5625 C 2.484375 -1.59375 2.5625 -1.703125 2.546875 -1.8125 C 2.515625 -1.953125 2.359375 -1.9375 2.25 -1.9375 L 0.9375 -1.9375 C 1.0625 -2.421875 1.46875 -2.796875 1.953125 -2.890625 C 2.140625 -2.90625 2.328125 -2.90625 2.515625 -2.90625 C 2.640625 -2.90625 2.765625 -2.90625 2.8125 -3.046875 C 2.84375 -3.140625 2.84375 -3.25 2.734375 -3.28125 C 2.671875 -3.296875 2.609375 -3.296875 2.5625 -3.296875 L 2.234375 -3.296875 C 1.71875 -3.296875 1.203125 -3.03125 0.859375 -2.640625 C 0.71875 -2.5 0.609375 -2.34375 0.515625 -2.171875 C 0.296875 -1.703125 0.265625 -1.140625 0.5 -0.671875 C 0.65625 -0.328125 1.046875 -0.03125 1.484375 0.03125 C 1.984375 0.109375 2.375 -0.046875 2.6875 -0.265625 Z M 2.6875 -0.265625 "/>
</symbol>
<symbol overflow="visible" id="glyph1-0">
<path style="stroke:none;" d=""/>
</symbol>
<symbol overflow="visible" id="glyph1-1">
<path style="stroke:none;" d="M 1.03125 -2.78125 C 1.015625 -2.78125 0.984375 -2.765625 0.96875 -2.765625 C 0.84375 -2.71875 0.828125 -2.59375 0.78125 -2.484375 L 0.734375 -2.28125 L 0.28125 -0.75 C 0.265625 -0.703125 0.140625 -0.34375 0.15625 -0.296875 C 0.15625 -0.25 0.234375 -0.234375 0.28125 -0.21875 C 0.296875 -0.21875 0.328125 -0.203125 0.34375 -0.203125 C 0.40625 -0.21875 0.421875 -0.296875 0.4375 -0.34375 L 0.640625 -0.78125 L 1.09375 -1.859375 C 1.140625 -1.953125 1.328125 -2.328125 1.34375 -2.421875 C 1.4375 -2.65625 1.203125 -2.8125 1.03125 -2.78125 Z M 1.03125 -2.78125 "/>
</symbol>
</g>
<clipPath id="clip1">
  <path d="M -220 668 L 392 668 L 392 -124 L -220 -124 L -220 668 Z M -220 668 "/>
</clipPath>
<clipPath id="clip2">
  <path d="M -0.574219 171.320313 L 166.425781 171.320313 L 166.425781 6.320313 L -0.574219 6.320313 L -0.574219 171.320313 Z M -0.574219 171.320313 "/>
</clipPath>
<clipPath id="clip3">
  <path d="M -220 668 L 392 668 L 392 -124 L -220 -124 L -220 668 Z M -220 668 "/>
</clipPath>
</defs>
<g id="surface0">
<g clip-path="url(#clip1)" clip-rule="nonzero">
<g clip-path="url(#clip2)" clip-rule="nonzero">
<path style="fill:none;stroke-width:5;stroke-linecap:round;stroke-linejoin:round;stroke:rgb(0%,0%,0%);stroke-opacity:1;stroke-miterlimit:10;" d="M 9.588125 299.44 L 1653.689688 299.44 " transform="matrix(0.1,0,0,-0.1,-0.576,171.319)"/>
<path style=" stroke:none;fill-rule:nonzero;fill:rgb(0%,0%,0%);fill-opacity:1;" d="M 159.257813 142.601563 L 164.792969 141.375 L 159.257813 140.148438 "/>
<path style="fill:none;stroke-width:5;stroke-linecap:round;stroke-linejoin:round;stroke:rgb(0%,0%,0%);stroke-opacity:1;stroke-miterlimit:10;" d="M 1598.338125 287.174375 L 1653.689688 299.44 L 1598.338125 311.705625 L 1598.338125 287.174375 Z M 1598.338125 287.174375 " transform="matrix(0.1,0,0,-0.1,-0.576,171.319)"/>
<path style="fill:none;stroke-width:5;stroke-linecap:round;stroke-linejoin:round;stroke:rgb(0%,0%,0%);stroke-opacity:1;stroke-miterlimit:10;" d="M 236.385 15.963438 L 236.385 1631.705625 " transform="matrix(0.1,0,0,-0.1,-0.576,171.319)"/>
<path style=" stroke:none;fill-rule:nonzero;fill:rgb(0%,0%,0%);fill-opacity:1;" d="M 24.289063 13.683594 L 23.0625 8.148438 L 21.832031 13.683594 "/>
<path style="fill:none;stroke-width:5;stroke-linecap:round;stroke-linejoin:round;stroke:rgb(0%,0%,0%);stroke-opacity:1;stroke-miterlimit:10;" d="M 248.650625 1576.354063 L 236.385 1631.705625 L 224.080312 1576.354063 L 248.650625 1576.354063 Z M 248.650625 1576.354063 " transform="matrix(0.1,0,0,-0.1,-0.576,171.319)"/>
<path style="fill:none;stroke-width:5;stroke-linecap:round;stroke-linejoin:round;stroke:rgb(0%,0%,0%);stroke-opacity:1;stroke-miterlimit:10;" d="M 874.158437 1362.447813 L 874.158437 299.44 " transform="matrix(0.1,0,0,-0.1,-0.576,171.319)"/>
<path style="fill:none;stroke-width:5;stroke-linecap:round;stroke-linejoin:round;stroke:rgb(0%,0%,0%);stroke-opacity:1;stroke-miterlimit:10;" d="M 874.158437 1362.447813 L 236.385 1362.447813 " transform="matrix(0.1,0,0,-0.1,-0.576,171.319)"/>
<path style="fill:none;stroke-width:5;stroke-linecap:round;stroke-linejoin:round;stroke:rgb(0%,0%,0%);stroke-opacity:1;stroke-dasharray:30,30;stroke-miterlimit:10;" d="M 10.4475 279.674375 L 1648.299063 422.955625 " transform="matrix(0.1,0,0,-0.1,-0.576,171.319)"/>
<path style=" stroke:none;fill-rule:nonzero;fill:rgb(0%,0%,0%);fill-opacity:1;" d="M 158.847656 130.726563 L 164.253906 129.023438 L 158.632813 128.28125 "/>
<path style="fill:none;stroke-width:5;stroke-linecap:round;stroke-linejoin:round;stroke:rgb(0%,0%,0%);stroke-opacity:1;stroke-miterlimit:10;" d="M 1594.236563 405.924375 L 1648.299063 422.955625 L 1592.088125 430.3775 L 1594.236563 405.924375 Z M 1594.236563 405.924375 " transform="matrix(0.1,0,0,-0.1,-0.576,171.319)"/>
<path style="fill:none;stroke-width:5;stroke-linecap:round;stroke-linejoin:round;stroke:rgb(0%,0%,0%);stroke-opacity:1;stroke-dasharray:30,30;stroke-miterlimit:10;" d="M 261.0725 17.057188 L 120.252187 1626.666563 " transform="matrix(0.1,0,0,-0.1,-0.576,171.319)"/>
<path style=" stroke:none;fill-rule:nonzero;fill:rgb(0%,0%,0%);fill-opacity:1;" d="M 13.15625 14.0625 L 11.449219 8.652344 L 10.710938 14.273438 "/>
<path style="fill:none;stroke-width:5;stroke-linecap:round;stroke-linejoin:round;stroke:rgb(0%,0%,0%);stroke-opacity:1;stroke-miterlimit:10;" d="M 137.3225 1572.565 L 120.252187 1626.666563 L 112.869375 1570.455625 L 137.3225 1572.565 Z M 137.3225 1572.565 " transform="matrix(0.1,0,0,-0.1,-0.576,171.319)"/>
<path style="fill:none;stroke-width:5;stroke-linecap:round;stroke-linejoin:round;stroke:rgb(0%,0%,0%);stroke-opacity:1;stroke-dasharray:30,30;stroke-miterlimit:10;" d="M 961.619375 362.916563 L 874.158437 1362.447813 " transform="matrix(0.1,0,0,-0.1,-0.576,171.319)"/>
<path style="fill:none;stroke-width:5;stroke-linecap:round;stroke-linejoin:round;stroke:rgb(0%,0%,0%);stroke-opacity:1;stroke-dasharray:30,30;stroke-miterlimit:10;" d="M 148.924062 1298.97125 L 874.158437 1362.447813 " transform="matrix(0.1,0,0,-0.1,-0.576,171.319)"/>
<path style=" stroke:none;fill-rule:nonzero;fill:rgb(0%,0%,0%);fill-opacity:1;" d="M 87.972656 35.074219 C 87.972656 34.773438 87.855469 34.488281 87.640625 34.273438 C 87.429688 34.0625 87.140625 33.941406 86.839844 33.941406 C 86.539063 33.941406 86.25 34.0625 86.039063 34.273438 C 85.828125 34.488281 85.707031 34.773438 85.707031 35.074219 C 85.707031 35.375 85.828125 35.664063 86.039063 35.878906 C 86.25 36.089844 86.539063 36.210938 86.839844 36.210938 C 87.140625 36.210938 87.429688 36.089844 87.640625 35.878906 C 87.855469 35.664063 87.972656 35.375 87.972656 35.074219 "/>
<path style="fill:none;stroke-width:3;stroke-linecap:round;stroke-linejoin:round;stroke:rgb(0%,0%,0%);stroke-opacity:1;stroke-miterlimit:10;" d="M 1426.931875 299.44 C 1426.931875 334.205625 1425.408438 368.815 1422.400625 403.19 " transform="matrix(0.1,0,0,-0.1,-0.576,171.319)"/>
<path style=" stroke:none;fill-rule:nonzero;fill:rgb(0%,0%,0%);fill-opacity:1;" d="M 142.867188 135.078125 C 142.492188 133.707031 142.089844 132.347656 141.664063 131 C 141.480469 132.402344 141.269531 133.804688 141.03125 135.203125 "/>
<path style="fill:none;stroke-width:3;stroke-linecap:round;stroke-linejoin:round;stroke:rgb(0%,0%,0%);stroke-opacity:1;stroke-miterlimit:10;" d="M 1434.431875 362.40875 C 1430.681875 376.119688 1426.658438 389.713438 1422.400625 403.19 C 1420.564688 389.166563 1418.455313 375.143125 1416.0725 361.15875 L 1434.431875 362.40875 Z M 1434.431875 362.40875 " transform="matrix(0.1,0,0,-0.1,-0.576,171.319)"/>
<path style="fill:none;stroke-width:3;stroke-linecap:round;stroke-linejoin:round;stroke:rgb(0%,0%,0%);stroke-opacity:1;stroke-miterlimit:10;" d="M 236.385 1489.986875 C 201.580312 1489.986875 166.970937 1488.463438 132.595937 1485.455625 " transform="matrix(0.1,0,0,-0.1,-0.576,171.319)"/>
<path style=" stroke:none;fill-rule:nonzero;fill:rgb(0%,0%,0%);fill-opacity:1;" d="M 16.761719 21.566406 C 15.394531 21.945313 14.035156 22.347656 12.683594 22.773438 C 14.089844 22.957031 15.492188 23.167969 16.890625 23.402344 "/>
<path style="fill:none;stroke-width:3;stroke-linecap:round;stroke-linejoin:round;stroke:rgb(0%,0%,0%);stroke-opacity:1;stroke-miterlimit:10;" d="M 173.377187 1497.525938 C 159.705312 1493.736875 146.111562 1489.713438 132.595937 1485.455625 C 146.658437 1483.619688 160.681875 1481.510313 174.66625 1479.166563 L 173.377187 1497.525938 Z M 173.377187 1497.525938 " transform="matrix(0.1,0,0,-0.1,-0.576,171.319)"/>
</g>
</g>
<g clip-path="url(#clip3)" clip-rule="nonzero">
<g style="fill:rgb(0%,0%,0%);fill-opacity:1;">
  <use xlink:href="#glyph0-1" x="166.101" y="142.918"/>
</g>
<g style="fill:rgb(0%,0%,0%);fill-opacity:1;">
  <use xlink:href="#glyph0-2" x="20.85" y="5.464"/>
</g>
<g style="fill:rgb(0%,0%,0%);fill-opacity:1;">
  <use xlink:href="#glyph0-1" x="165.817" y="131.413"/>
</g>
<g style="fill:rgb(0%,0%,0%);fill-opacity:1;">
  <use xlink:href="#glyph1-1" x="169.891" y="128.952"/>
</g>
<g style="fill:rgb(0%,0%,0%);fill-opacity:1;">
  <use xlink:href="#glyph0-2" x="8.261" y="6.031"/>
</g>
<g style="fill:rgb(0%,0%,0%);fill-opacity:1;">
  <use xlink:href="#glyph1-1" x="12.464" y="3.569"/>
</g>
<g style="fill:rgb(0%,0%,0%);fill-opacity:1;">
  <use xlink:href="#glyph0-3" x="88.998" y="37.394"/>
</g>
<g style="fill:rgb(0%,0%,0%);fill-opacity:1;">
  <use xlink:href="#glyph0-4" x="143.99" y="137.816"/>
</g>
<g style="fill:rgb(0%,0%,0%);fill-opacity:1;">
  <use xlink:href="#glyph0-4" x="16.272" y="19.949"/>
</g>
</g>
</g>
</svg>
