<?xml version="1.0" encoding="UTF-8"?>
<svg xmlns="http://www.w3.org/2000/svg" xmlns:xlink="http://www.w3.org/1999/xlink" width="159.3486742963367pt" height="100.45894683899488pt" viewBox="0 0 92 58" version="1.1">
<defs>
<g>
<symbol overflow="visible" id="glyph0-0">
<path style="stroke:none;" d=""/>
</symbol>
<symbol overflow="visible" id="glyph0-1">
<path style="stroke:none;" d="M 0.75 -3.296875 C 0.828125 -3.140625 0.921875 -3.015625 1.015625 -2.875 C 1.078125 -2.796875 1.6875 -1.875 1.71875 -1.84375 C 1.734375 -1.8125 1.796875 -1.75 1.796875 -1.703125 C 1.796875 -1.65625 1.71875 -1.609375 1.6875 -1.578125 C 1.375 -1.296875 0.046875 -0.046875 0 0 C 0.1875 0 0.375 0 0.53125 0 L 0.6875 -0.140625 L 1.984375 -1.4375 C 2.265625 -0.953125 2.53125 -0.46875 2.84375 -0.015625 C 3.015625 0 3.203125 0 3.390625 0 C 3.296875 -0.140625 2.359375 -1.53125 2.328125 -1.5625 C 2.3125 -1.609375 2.265625 -1.65625 2.265625 -1.6875 C 2.28125 -1.734375 2.34375 -1.78125 2.375 -1.8125 C 2.484375 -1.921875 2.59375 -2.015625 2.703125 -2.125 C 2.8125 -2.21875 3.921875 -3.25 3.953125 -3.296875 C 3.765625 -3.296875 3.59375 -3.296875 3.421875 -3.28125 C 2.96875 -2.875 2.546875 -2.4375 2.09375 -2.03125 C 1.828125 -2.453125 1.578125 -2.890625 1.28125 -3.28125 C 1.109375 -3.296875 0.921875 -3.296875 0.75 -3.296875 Z M 0.75 -3.296875 "/>
</symbol>
<symbol overflow="visible" id="glyph0-2">
<path style="stroke:none;" d="M 2.25 -4.890625 C 1.8125 -4.84375 1.453125 -4.5 1.1875 -4.15625 C 0.765625 -3.609375 0.515625 -2.953125 0.390625 -2.265625 C 0.296875 -1.828125 0.296875 -1.359375 0.375 -0.921875 C 0.46875 -0.484375 0.734375 0.109375 1.34375 0.0625 C 1.796875 0 2.15625 -0.34375 2.421875 -0.6875 C 2.8125 -1.1875 3.046875 -1.796875 3.1875 -2.421875 C 3.28125 -2.890625 3.34375 -3.515625 3.21875 -3.9375 C 3.125 -4.34375 2.890625 -4.828125 2.4375 -4.890625 C 2.375 -4.890625 2.3125 -4.90625 2.25 -4.890625 Z M 2.71875 -2.609375 L 0.96875 -2.609375 C 1 -2.796875 1.0625 -2.984375 1.109375 -3.15625 C 1.25 -3.546875 1.421875 -3.9375 1.703125 -4.234375 C 1.90625 -4.4375 2.234375 -4.609375 2.5 -4.421875 C 2.671875 -4.3125 2.734375 -4.09375 2.78125 -3.90625 C 2.84375 -3.609375 2.828125 -3.3125 2.78125 -3.03125 C 2.765625 -2.890625 2.734375 -2.75 2.71875 -2.609375 Z M 2.625 -2.21875 C 2.625 -2.171875 2.609375 -2.109375 2.59375 -2.046875 C 2.4375 -1.5 2.296875 -1.015625 1.90625 -0.625 C 1.734375 -0.4375 1.453125 -0.25 1.171875 -0.375 C 0.859375 -0.5 0.78125 -0.953125 0.78125 -1.359375 C 0.78125 -1.65625 0.828125 -1.9375 0.890625 -2.21875 L 2.625 -2.21875 Z M 2.625 -2.21875 "/>
</symbol>
<symbol overflow="visible" id="glyph0-3">
<path style="stroke:none;" d="M 3.296875 -4.953125 C 3.046875 -4.921875 2.8125 -4.890625 2.578125 -4.8125 C 1.578125 -4.46875 0.765625 -3.609375 0.46875 -2.59375 C 0.265625 -1.890625 0.34375 -1.078125 0.84375 -0.515625 C 1.234375 -0.109375 1.78125 0.15625 2.5625 0.109375 C 4.015625 -0.03125 5.109375 -1.25 5.359375 -2.453125 C 5.5 -3.15625 5.34375 -3.953125 4.78125 -4.453125 C 4.453125 -4.765625 3.90625 -4.984375 3.296875 -4.953125 Z M 3.21875 -4.546875 C 3.828125 -4.59375 4.453125 -4.3125 4.734375 -3.75 C 4.90625 -3.390625 4.921875 -2.96875 4.859375 -2.578125 C 4.671875 -1.625 4.015625 -0.703125 3.0625 -0.390625 C 2.890625 -0.34375 2.703125 -0.3125 2.53125 -0.296875 C 2.03125 -0.28125 1.640625 -0.453125 1.375 -0.703125 C 0.90625 -1.15625 0.84375 -1.84375 0.96875 -2.453125 C 1.109375 -3.234375 1.609375 -3.953125 2.34375 -4.3125 C 2.625 -4.4375 2.921875 -4.515625 3.21875 -4.546875 Z M 3.21875 -4.546875 "/>
</symbol>
<symbol overflow="visible" id="glyph0-4">
<path style="stroke:none;" d="M 1.765625 -4.84375 L 0.734375 0 L 1.109375 0 C 1.15625 0 1.21875 0.015625 1.265625 -0.015625 C 1.296875 -0.03125 1.296875 -0.09375 1.296875 -0.125 C 1.3125 -0.203125 1.671875 -1.875 1.671875 -1.875 C 1.671875 -1.90625 1.671875 -1.984375 1.71875 -2 C 1.734375 -2.03125 1.765625 -2.015625 1.796875 -2.015625 L 2.640625 -2.015625 C 2.859375 -2.015625 3.078125 -2 3.296875 -2.03125 C 3.6875 -2.0625 4.078125 -2.203125 4.40625 -2.421875 C 4.890625 -2.734375 5.3125 -3.296875 5.15625 -3.890625 C 5.0625 -4.28125 4.75 -4.546875 4.421875 -4.6875 C 4.0625 -4.84375 3.65625 -4.84375 3.265625 -4.84375 L 1.765625 -4.84375 Z M 1.765625 -2.421875 C 1.796875 -2.625 1.859375 -2.8125 1.890625 -3.015625 C 1.921875 -3.125 2.15625 -4.21875 2.15625 -4.28125 C 2.171875 -4.34375 2.171875 -4.421875 2.265625 -4.421875 L 3.453125 -4.421875 C 3.9375 -4.421875 4.625 -4.296875 4.6875 -3.6875 C 4.734375 -3.1875 4.359375 -2.765625 3.921875 -2.578125 C 3.546875 -2.421875 3.21875 -2.421875 2.75 -2.421875 L 1.765625 -2.421875 Z M 1.765625 -2.421875 "/>
</symbol>
<symbol overflow="visible" id="glyph0-5">
<path style="stroke:none;" d="M 3.765625 -4.84375 L 3.65625 -4.296875 L 3.34375 -2.84375 L 3.34375 -2.84375 C 3.296875 -2.96875 3.171875 -3.078125 3.0625 -3.15625 C 2.828125 -3.3125 2.515625 -3.375 2.234375 -3.328125 C 1.828125 -3.28125 1.484375 -3.015625 1.265625 -2.78125 C 0.84375 -2.328125 0.609375 -1.71875 0.625 -1.109375 C 0.640625 -0.578125 0.9375 0 1.578125 0.0625 C 2.125 0.078125 2.546875 -0.234375 2.828125 -0.515625 L 2.71875 0 L 3.09375 0 C 3.140625 0 3.21875 0.015625 3.234375 -0.015625 C 3.25 -0.0625 3.265625 -0.109375 3.265625 -0.15625 C 3.296875 -0.25 4.25 -4.78125 4.265625 -4.84375 L 3.765625 -4.84375 Z M 3.15625 -2.734375 C 3.1875 -2.6875 3.234375 -2.625 3.25 -2.546875 C 3.265625 -2.484375 3.234375 -2.390625 3.21875 -2.328125 C 3.171875 -2.125 2.9375 -0.984375 2.9375 -0.96875 C 2.90625 -0.8125 2.84375 -0.75 2.71875 -0.640625 C 2.53125 -0.46875 2.3125 -0.359375 2.0625 -0.328125 C 1.765625 -0.3125 1.515625 -0.421875 1.359375 -0.5625 C 1.09375 -0.828125 1.109375 -1.25 1.171875 -1.59375 C 1.25 -1.96875 1.40625 -2.359375 1.703125 -2.609375 C 1.828125 -2.71875 1.96875 -2.796875 2.125 -2.859375 C 2.484375 -2.984375 2.90625 -3.015625 3.15625 -2.734375 Z M 2.828125 -0.515625 C 2.828125 -0.515625 2.84375 -0.515625 2.84375 -0.515625 C 2.84375 -0.515625 2.828125 -0.5 2.828125 -0.515625 Z M 2.828125 -0.515625 "/>
</symbol>
<symbol overflow="visible" id="glyph0-6">
<path style="stroke:none;" d="M 0.453125 -0.71875 L 0.265625 -0.265625 C 0.40625 -0.1875 0.546875 -0.125 0.703125 -0.0625 C 1.1875 0.09375 1.859375 0.109375 2.296875 -0.09375 C 2.625 -0.25 2.875 -0.515625 2.96875 -0.875 C 3.015625 -1.015625 3.015625 -1.171875 2.984375 -1.3125 C 2.9375 -1.4375 2.875 -1.546875 2.78125 -1.625 C 2.546875 -1.875 2.203125 -1.921875 1.875 -1.984375 C 1.671875 -2.015625 1.421875 -2.046875 1.296875 -2.234375 C 1.15625 -2.453125 1.3125 -2.71875 1.5 -2.84375 C 1.671875 -2.96875 1.96875 -3 2.234375 -2.984375 C 2.640625 -2.96875 2.84375 -2.890625 3.15625 -2.703125 L 3.328125 -3.140625 C 2.953125 -3.3125 2.59375 -3.40625 2.0625 -3.359375 C 1.671875 -3.34375 1.34375 -3.21875 1.09375 -3 C 0.8125 -2.734375 0.625 -2.25 0.859375 -1.90625 C 1.09375 -1.5625 1.515625 -1.515625 1.890625 -1.4375 C 2.09375 -1.40625 2.34375 -1.359375 2.46875 -1.15625 C 2.625 -0.9375 2.453125 -0.640625 2.25 -0.515625 C 2.078125 -0.390625 1.859375 -0.34375 1.59375 -0.34375 C 1.328125 -0.34375 1.0625 -0.390625 0.828125 -0.5 C 0.6875 -0.5625 0.453125 -0.71875 0.453125 -0.71875 Z M 0.453125 -0.71875 "/>
</symbol>
<symbol overflow="visible" id="glyph0-7">
<path style="stroke:none;" d="M 1.59375 -2.453125 L 1.578125 -2.453125 C 1.640625 -2.71875 1.703125 -3 1.75 -3.296875 L 1.28125 -3.296875 L 0.578125 0 L 0.9375 0 C 0.96875 0 1.046875 0.015625 1.078125 -0.015625 C 1.09375 -0.03125 1.09375 -0.109375 1.109375 -0.140625 C 1.21875 -0.578125 1.375 -1.40625 1.46875 -1.78125 C 1.640625 -2.46875 2.390625 -2.90625 3.0625 -2.90625 L 3.15625 -3.34375 C 2.6875 -3.34375 2.265625 -3.140625 1.921875 -2.828125 C 1.828125 -2.75 1.640625 -2.5625 1.59375 -2.453125 Z M 1.59375 -2.453125 "/>
</symbol>
<symbol overflow="visible" id="glyph0-8">
<path style="stroke:none;" d="M 1.765625 -4.84375 L 0.734375 0 L 1.109375 0 C 1.140625 0 1.21875 0.015625 1.25 -0.015625 C 1.28125 -0.03125 1.28125 -0.09375 1.28125 -0.125 C 1.296875 -0.203125 1.6875 -2.046875 1.6875 -2.046875 C 1.703125 -2.109375 1.703125 -2.21875 1.78125 -2.21875 C 1.890625 -2.234375 2 -2.21875 2.109375 -2.21875 L 3.015625 -2.21875 C 3.046875 -2.21875 3.09375 -2.234375 3.125 -2.203125 C 3.15625 -2.171875 3.1875 -2.109375 3.203125 -2.0625 C 3.4375 -1.609375 4 -0.4375 4.140625 -0.15625 C 4.171875 -0.109375 4.1875 -0.03125 4.234375 -0.015625 C 4.265625 0.015625 4.328125 0 4.375 0 L 4.75 0 L 3.609375 -2.28125 C 3.765625 -2.296875 3.9375 -2.34375 4.078125 -2.40625 C 4.453125 -2.546875 4.828125 -2.75 5.078125 -3.078125 C 5.265625 -3.328125 5.375 -3.671875 5.25 -3.984375 C 5.09375 -4.515625 4.390625 -4.78125 3.828125 -4.828125 C 3.640625 -4.84375 3.4375 -4.84375 3.25 -4.84375 L 1.765625 -4.84375 Z M 1.8125 -2.609375 C 1.828125 -2.75 2.109375 -4.0625 2.171875 -4.28125 C 2.1875 -4.359375 2.171875 -4.421875 2.265625 -4.421875 L 2.953125 -4.421875 C 3.28125 -4.421875 3.59375 -4.4375 3.921875 -4.390625 C 4.34375 -4.34375 4.84375 -4.125 4.796875 -3.59375 C 4.765625 -3.171875 4.390625 -2.890625 4 -2.75 C 3.75 -2.65625 3.484375 -2.640625 3.21875 -2.609375 C 3.046875 -2.609375 2.890625 -2.609375 2.734375 -2.609375 L 1.8125 -2.609375 Z M 1.8125 -2.609375 "/>
</symbol>
<symbol overflow="visible" id="glyph0-9">
<path style="stroke:none;" d="M 0.8125 -3.296875 C 0.828125 -3.1875 0.84375 -3.09375 0.875 -3 C 1.015625 -2.3125 1.515625 -0.078125 1.515625 0 C 1.5 0.03125 1.328125 0.296875 1.328125 0.296875 C 1.15625 0.578125 0.9375 0.875 0.515625 0.828125 C 0.421875 0.828125 0.328125 0.8125 0.234375 0.796875 C 0.171875 0.78125 0.09375 0.75 0.03125 0.734375 L -0.015625 1.171875 C 0.203125 1.203125 0.578125 1.25 0.796875 1.1875 C 1.234375 1.0625 1.546875 0.59375 1.75 0.265625 L 2.09375 -0.28125 C 2.28125 -0.59375 3.875 -3.125 3.984375 -3.296875 C 3.8125 -3.296875 3.640625 -3.296875 3.5 -3.28125 C 3.328125 -3.03125 3.1875 -2.78125 3.03125 -2.53125 C 2.625 -1.859375 2.1875 -1.234375 1.828125 -0.515625 L 1.828125 -0.515625 C 1.734375 -1.515625 1.484375 -2.359375 1.296875 -3.296875 L 0.8125 -3.296875 Z M 0.8125 -3.296875 "/>
</symbol>
<symbol overflow="visible" id="glyph0-10">
<path style="stroke:none;" d="M 1.203125 -2.640625 C 1.46875 -2.78125 1.609375 -2.890625 1.953125 -2.953125 C 2.078125 -2.984375 2.390625 -3.03125 2.53125 -3.015625 C 2.765625 -2.984375 2.953125 -2.84375 3.015625 -2.609375 C 3.09375 -2.359375 2.96875 -2.109375 2.9375 -1.859375 C 2.328125 -1.859375 1.65625 -1.75 1.1875 -1.53125 C 0.9375 -1.390625 0.671875 -1.1875 0.578125 -0.90625 C 0.46875 -0.5 0.640625 0 1.109375 0.0625 C 1.75 0.09375 2.328125 -0.15625 2.65625 -0.46875 L 2.5625 0 L 2.921875 0 C 3 0 3.0625 0.015625 3.0625 -0.078125 C 3.078125 -0.125 3.21875 -0.78125 3.21875 -0.78125 L 3.453125 -1.875 C 3.484375 -2.046875 3.546875 -2.21875 3.546875 -2.390625 C 3.578125 -2.703125 3.4375 -2.984375 3.234375 -3.15625 C 2.984375 -3.359375 2.671875 -3.390625 2.359375 -3.359375 C 2.140625 -3.359375 1.921875 -3.3125 1.703125 -3.25 C 1.640625 -3.234375 1.3125 -3.125 1.265625 -3.078125 C 1.25 -3.046875 1.203125 -2.75 1.203125 -2.640625 Z M 2.890625 -1.625 C 2.875 -1.484375 2.828125 -1.34375 2.796875 -1.203125 C 2.765625 -1.03125 2.734375 -0.84375 2.625 -0.703125 C 2.546875 -0.59375 2.421875 -0.515625 2.296875 -0.453125 C 1.9375 -0.296875 1.375 -0.25 1.125 -0.53125 C 0.984375 -0.6875 1.046875 -0.9375 1.171875 -1.09375 C 1.40625 -1.359375 1.765625 -1.46875 2.09375 -1.546875 C 2.359375 -1.59375 2.625 -1.625 2.890625 -1.625 Z M 2.890625 -1.625 "/>
</symbol>
<symbol overflow="visible" id="glyph1-0">
<path style="stroke:none;" d=""/>
</symbol>
<symbol overflow="visible" id="glyph1-1">
<path style="stroke:none;" d="M 3.203125 -4.109375 L 3.109375 -3.65625 L 2.84375 -2.421875 L 2.84375 -2.421875 C 2.796875 -2.515625 2.6875 -2.609375 2.609375 -2.671875 C 2.40625 -2.8125 2.140625 -2.859375 1.90625 -2.828125 C 1.5625 -2.78125 1.265625 -2.5625 1.078125 -2.359375 C 0.71875 -1.984375 0.515625 -1.46875 0.53125 -0.953125 C 0.546875 -0.484375 0.796875 0 1.34375 0.046875 C 1.8125 0.0625 2.171875 -0.203125 2.40625 -0.4375 L 2.3125 0 L 2.640625 0 C 2.671875 0 2.734375 0.015625 2.75 -0.015625 C 2.765625 -0.046875 2.765625 -0.09375 2.78125 -0.125 C 2.796875 -0.203125 3.609375 -4.0625 3.625 -4.109375 L 3.203125 -4.109375 Z M 2.671875 -2.328125 C 2.71875 -2.28125 2.75 -2.234375 2.765625 -2.171875 C 2.78125 -2.109375 2.75 -2.03125 2.734375 -1.984375 C 2.6875 -1.796875 2.5 -0.828125 2.5 -0.828125 C 2.46875 -0.6875 2.421875 -0.640625 2.3125 -0.546875 C 2.15625 -0.40625 1.96875 -0.296875 1.75 -0.28125 C 1.5 -0.265625 1.296875 -0.359375 1.15625 -0.46875 C 0.921875 -0.703125 0.9375 -1.0625 1 -1.34375 C 1.0625 -1.671875 1.203125 -2 1.453125 -2.21875 C 1.5625 -2.3125 1.671875 -2.375 1.8125 -2.4375 C 2.109375 -2.546875 2.46875 -2.5625 2.671875 -2.328125 Z M 2.40625 -0.4375 C 2.40625 -0.4375 2.40625 -0.4375 2.40625 -0.4375 C 2.40625 -0.4375 2.40625 -0.421875 2.40625 -0.4375 Z M 2.40625 -0.4375 "/>
</symbol>
<symbol overflow="visible" id="glyph1-2">
<path style="stroke:none;" d="M 0.640625 -2.796875 C 0.703125 -2.671875 0.78125 -2.5625 0.859375 -2.453125 C 0.90625 -2.375 1.4375 -1.59375 1.453125 -1.5625 C 1.484375 -1.53125 1.515625 -1.484375 1.515625 -1.453125 C 1.515625 -1.40625 1.46875 -1.375 1.4375 -1.34375 C 1.171875 -1.09375 0.046875 -0.046875 0 0 C 0.15625 0 0.3125 0 0.453125 0 L 0.578125 -0.125 L 1.6875 -1.21875 C 1.921875 -0.8125 2.15625 -0.40625 2.421875 -0.015625 C 2.5625 0 2.71875 0 2.875 0 C 2.8125 -0.125 2 -1.296875 1.984375 -1.328125 C 1.96875 -1.359375 1.921875 -1.40625 1.9375 -1.4375 C 1.9375 -1.484375 2 -1.515625 2.015625 -1.546875 C 2.109375 -1.625 2.203125 -1.71875 2.296875 -1.796875 C 2.390625 -1.890625 3.328125 -2.765625 3.359375 -2.796875 C 3.203125 -2.796875 3.046875 -2.796875 2.90625 -2.796875 C 2.515625 -2.453125 2.15625 -2.078125 1.78125 -1.71875 C 1.546875 -2.078125 1.34375 -2.453125 1.09375 -2.796875 C 0.9375 -2.796875 0.78125 -2.796875 0.640625 -2.796875 Z M 0.640625 -2.796875 "/>
</symbol>
</g>
<clipPath id="clip1">
  <path d="M -260 668 L 352 668 L 352 -124 L -260 -124 L -260 668 Z M -260 668 "/>
</clipPath>
<clipPath id="clip2">
  <path d="M -0.75 58.214844 L 87.125 58.214844 L 87.125 1.488281 L -0.75 1.488281 L -0.75 58.214844 Z M -0.75 58.214844 "/>
</clipPath>
<clipPath id="clip3">
  <path d="M -0.191406 57.660156 L 87.125 57.660156 L 87.125 1.488281 L -0.191406 1.488281 L -0.191406 57.660156 Z M -0.191406 57.660156 "/>
</clipPath>
<clipPath id="clip4">
  <path d="M -260 668 L 352 668 L 352 -124 L -260 -124 L -260 668 Z M -260 668 "/>
</clipPath>
<clipPath id="clip5">
  <path d="M -0.75 58.214844 L 87.125 58.214844 L 87.125 1.488281 L -0.75 1.488281 L -0.75 58.214844 Z M -0.75 58.214844 "/>
</clipPath>
<clipPath id="clip6">
  <path d="M -260 668 L 352 668 L 352 -124 L -260 -124 L -260 668 Z M -260 668 "/>
</clipPath>
</defs>
<g id="surface0">
<g clip-path="url(#clip1)" clip-rule="nonzero">
<g clip-path="url(#clip2)" clip-rule="nonzero">
<g clip-path="url(#clip3)" clip-rule="nonzero">
<path style="fill:none;stroke-width:7.5;stroke-linecap:butt;stroke-linejoin:miter;stroke:rgb(13.730068%,12.159915%,12.54902%);stroke-opacity:1;stroke-miterlimit:4;" d="M 338.561309 450.571223 L 764.574825 241.655684 L 243.357069 241.690801 " transform="matrix(0.111233,0,0,-0.111233,-0.749,58.216)"/>
<path style="fill:none;stroke-width:5;stroke-linecap:butt;stroke-linejoin:miter;stroke:rgb(0%,0%,0%);stroke-opacity:1;stroke-miterlimit:4;" d="M 373.889773 49.87761 L 373.889773 430.940396 " transform="matrix(0.111233,0,0,-0.111233,-0.749,58.216)"/>
<path style="fill:none;stroke-width:5;stroke-linecap:butt;stroke-linejoin:miter;stroke:rgb(0%,0%,0%);stroke-opacity:1;stroke-miterlimit:4;" d="M 338.561309 450.571223 L 338.561309 30.246784 " transform="matrix(0.111233,0,0,-0.111233,-0.749,58.216)"/>
<path style=" stroke:none;fill-rule:nonzero;fill:rgb(0%,0%,0%);fill-opacity:1;" d="M 27.988281 31.332031 C 27.988281 32.253906 27.238281 33 26.320313 33 C 25.394531 33 24.648438 32.253906 24.648438 31.332031 C 24.648438 30.414063 25.394531 29.664063 26.320313 29.664063 C 27.238281 29.664063 27.988281 30.414063 27.988281 31.332031 L 27.988281 31.332031 "/>
<path style=" stroke:none;fill-rule:nonzero;fill:rgb(0%,0%,0%);fill-opacity:1;" d="M 85.914063 31.332031 C 85.914063 32.253906 85.164063 33 84.246094 33 C 83.320313 33 82.574219 32.253906 82.574219 31.332031 C 82.574219 30.410156 83.320313 29.664063 84.246094 29.664063 C 85.164063 29.664063 85.914063 30.410156 85.914063 31.332031 L 85.914063 31.332031 "/>
<path style=" stroke:none;fill-rule:nonzero;fill:rgb(100%,100%,100%);fill-opacity:1;" d="M 38.738281 6.308594 L 26.320313 31.332031 "/>
<path style="fill:none;stroke-width:7.5;stroke-linecap:butt;stroke-linejoin:miter;stroke:rgb(0%,0%,0%);stroke-opacity:1;stroke-miterlimit:4;" d="M 357.911194 440.000778 L 243.357069 241.690801 " transform="matrix(0.111233,0,0,-0.111233,-0.749,58.216)"/>
<path style="fill:none;stroke-width:3.8;stroke-linecap:butt;stroke-linejoin:miter;stroke:rgb(0%,0%,0%);stroke-opacity:1;stroke-miterlimit:4;" d="M 497.504279 494.92495 L 460.841341 494.92495 L 386.040517 458.016187 " transform="matrix(0.111233,0,0,-0.111233,-0.749,58.216)"/>
<path style=" stroke:none;fill-rule:nonzero;fill:rgb(0%,0%,0%);fill-opacity:1;" d="M 42.460938 6.199219 L 39.558594 8.257813 L 43.101563 7.925781 L 42.460938 6.199219 L 42.460938 6.199219 "/>
<path style="fill-rule:nonzero;fill:rgb(100%,100%,100%);fill-opacity:1;stroke-width:3.8;stroke-linecap:butt;stroke-linejoin:miter;stroke:rgb(0%,0%,0%);stroke-opacity:1;stroke-miterlimit:4;" d="M 243.041009 241.339624 L 243.041009 126.574793 " transform="matrix(0.111233,0,0,-0.111233,-0.749,58.216)"/>
<path style="fill-rule:nonzero;fill:rgb(100%,100%,100%);fill-opacity:1;stroke-width:3.8;stroke-linecap:butt;stroke-linejoin:miter;stroke:rgb(0%,0%,0%);stroke-opacity:1;stroke-miterlimit:4;" d="M 270.784037 144.098554 L 313.311642 144.098554 " transform="matrix(0.111233,0,0,-0.111233,-0.749,58.216)"/>
<path style=" stroke:none;fill-rule:nonzero;fill:rgb(0%,0%,0%);fill-opacity:1;" d="M 33.472656 43.097656 L 36.910156 42.179688 L 33.472656 41.257813 L 33.472656 43.097656 "/>
<path style=" stroke:none;fill-rule:nonzero;fill:rgb(0%,0%,0%);fill-opacity:1;" d="M 30 41.277344 L 26.5625 42.199219 L 30 43.121094 L 30 41.277344 "/>
<path style="fill:none;stroke-width:3.8;stroke-linecap:butt;stroke-linejoin:miter;stroke:rgb(0%,0%,0%);stroke-opacity:1;stroke-miterlimit:4;" d="M 401.422095 178.022307 L 365.075216 219.426143 " transform="matrix(0.111233,0,0,-0.111233,-0.749,58.216)"/>
<path style=" stroke:none;fill-rule:nonzero;fill:rgb(0%,0%,0%);fill-opacity:1;" d="M 40.683594 33.804688 L 38.710938 32.488281 L 39.761719 34.613281 L 40.683594 33.804688 L 40.683594 33.804688 "/>
<path style=" stroke:none;fill-rule:nonzero;fill:rgb(0%,0%,0%);fill-opacity:1;" d="M 40.847656 32.46875 L 36.90625 32.46875 L 36.90625 30.234375 L 40.847656 30.234375 L 40.847656 32.46875 "/>
<path style="fill:none;stroke-width:7.5;stroke-linecap:butt;stroke-linejoin:miter;stroke:rgb(13.730068%,12.159915%,12.54902%);stroke-opacity:1;stroke-miterlimit:4;" d="M 473.343262 241.690801 C 473.343262 114.669873 370.377997 11.704608 243.357069 11.704608 C 116.301022 11.704608 13.335758 114.669873 13.335758 241.690801 C 13.335758 368.71173 116.301022 471.676995 243.357069 471.676995 C 370.377997 471.676995 473.343262 368.71173 473.343262 241.690801 L 473.343262 241.690801 Z M 473.343262 241.690801 " transform="matrix(0.111233,0,0,-0.111233,-0.749,58.216)"/>
</g>
</g>
</g>
<g clip-path="url(#clip4)" clip-rule="nonzero">
<g clip-path="url(#clip5)" clip-rule="nonzero">
<path style=" stroke:none;fill-rule:nonzero;fill:rgb(0%,0%,0%);fill-opacity:1;" d="M 40.46875 11.367188 L 36.527344 9.089844 L 37.644531 7.15625 L 41.585938 9.433594 L 40.46875 11.367188 L 40.46875 11.367188 "/>
</g>
</g>
<g clip-path="url(#clip6)" clip-rule="nonzero">
<g style="fill:rgb(0%,0%,0%);fill-opacity:1;">
  <use xlink:href="#glyph0-1" x="29.615" y="40.641"/>
</g>
<g style="fill:rgb(0%,0%,0%);fill-opacity:1;">
  <use xlink:href="#glyph0-2" x="29.759" y="30.023"/>
</g>
<g style="fill:rgb(0%,0%,0%);fill-opacity:1;">
  <use xlink:href="#glyph0-3" x="17.705" y="33.765"/>
</g>
<g style="fill:rgb(0%,0%,0%);fill-opacity:1;">
  <use xlink:href="#glyph0-4" x="86.558" y="33.765"/>
</g>
<g style="fill:rgb(0%,0%,0%);fill-opacity:1;">
  <use xlink:href="#glyph0-5" x="55.377" y="5.645"/>
</g>
<g style="fill:rgb(0%,0%,0%);fill-opacity:1;">
  <use xlink:href="#glyph0-6" x="59.865338" y="5.645"/>
</g>
<g style="fill:rgb(0%,0%,0%);fill-opacity:1;">
  <use xlink:href="#glyph0-7" x="60.1" y="17.964"/>
</g>
<g style="fill:rgb(0%,0%,0%);fill-opacity:1;">
  <use xlink:href="#glyph0-8" x="59.015" y="37.547"/>
</g>
<g style="fill:rgb(0%,0%,0%);fill-opacity:1;">
  <use xlink:href="#glyph0-9" x="42.054" y="21.864"/>
</g>
<g style="fill:rgb(0%,0%,0%);fill-opacity:1;">
  <use xlink:href="#glyph0-10" x="28.381" y="19.948"/>
</g>
<g style="fill:rgb(0%,0%,0%);fill-opacity:1;">
  <use xlink:href="#glyph1-1" x="41.771" y="41.923"/>
</g>
<g style="fill:rgb(0%,0%,0%);fill-opacity:1;">
  <use xlink:href="#glyph1-2" x="45.586087" y="41.923"/>
</g>
</g>
</g>
</svg>
