<?xml version="1.0" encoding="UTF-8"?>
<svg xmlns="http://www.w3.org/2000/svg" xmlns:xlink="http://www.w3.org/1999/xlink" width="247pt" height="219pt" viewBox="0 0 178 158" version="1.1">
<defs>
<g>
<symbol overflow="visible" id="glyph0-0">
<path style="stroke:none;" d=""/>
</symbol>
<symbol overflow="visible" id="glyph0-1">
<path style="stroke:none;" d="M 0.640625 0 L 3.1875 0 C 3.484375 -0.015625 3.828125 0.03125 4.09375 -0.015625 C 4.171875 -0.203125 4.1875 -0.453125 4.234375 -0.671875 C 3.375 -0.65625 2.484375 -0.65625 1.625 -0.640625 C 1.703125 -1.03125 1.796875 -1.40625 1.875 -1.796875 L 1.9375 -2.09375 C 1.9375 -2.125 1.9375 -2.1875 1.96875 -2.203125 C 2 -2.234375 2.078125 -2.21875 2.125 -2.21875 L 4.265625 -2.21875 L 4.390625 -2.78125 L 2.078125 -2.78125 L 2.375 -4.203125 L 4.890625 -4.1875 L 5.03125 -4.8125 L 2.546875 -4.8125 C 2.265625 -4.796875 1.921875 -4.84375 1.671875 -4.796875 L 1.640625 -4.703125 L 0.640625 0 Z M 0.640625 0 "/>
</symbol>
<symbol overflow="visible" id="glyph1-0">
<path style="stroke:none;" d=""/>
</symbol>
<symbol overflow="visible" id="glyph1-1">
<path style="stroke:none;" d="M 1.75 -4.828125 L 0.734375 0 C 1.921875 0 3.15625 0.015625 4.3125 0 C 4.359375 -0.125 4.390625 -0.28125 4.40625 -0.4375 L 1.359375 -0.4375 L 1.75 -2.296875 C 2.640625 -2.3125 3.609375 -2.28125 4.46875 -2.3125 C 4.515625 -2.421875 4.546875 -2.578125 4.578125 -2.703125 L 1.84375 -2.703125 C 1.953125 -3.28125 2.078125 -3.84375 2.1875 -4.40625 L 5.15625 -4.40625 L 5.234375 -4.828125 L 1.75 -4.828125 Z M 1.75 -4.828125 "/>
</symbol>
<symbol overflow="visible" id="glyph2-0">
<path style="stroke:none;" d=""/>
</symbol>
<symbol overflow="visible" id="glyph2-1">
<path style="stroke:none;" d="M 0.53125 -2.359375 C 0.59375 -2.25 0.65625 -2.15625 0.734375 -2.0625 C 0.765625 -2 1.203125 -1.34375 1.21875 -1.3125 C 1.25 -1.296875 1.28125 -1.25 1.28125 -1.21875 C 1.28125 -1.1875 1.234375 -1.15625 1.203125 -1.125 C 0.984375 -0.921875 0.03125 -0.03125 0 0 C 0.140625 0 0.265625 0 0.390625 0 L 0.484375 -0.09375 L 1.421875 -1.03125 C 1.609375 -0.6875 1.8125 -0.34375 2.03125 -0.015625 C 2.15625 0 2.296875 0 2.421875 0 C 2.359375 -0.09375 1.6875 -1.09375 1.671875 -1.125 C 1.65625 -1.140625 1.625 -1.1875 1.625 -1.21875 C 1.625 -1.25 1.6875 -1.28125 1.703125 -1.296875 C 1.78125 -1.375 1.859375 -1.4375 1.9375 -1.515625 C 2.015625 -1.578125 2.796875 -2.328125 2.828125 -2.359375 C 2.703125 -2.359375 2.5625 -2.359375 2.4375 -2.34375 C 2.125 -2.0625 1.8125 -1.75 1.5 -1.453125 C 1.3125 -1.75 1.125 -2.0625 0.921875 -2.34375 C 0.796875 -2.359375 0.65625 -2.359375 0.53125 -2.359375 Z M 0.53125 -2.359375 "/>
</symbol>
<symbol overflow="visible" id="glyph2-2">
<path style="stroke:none;" d="M 0.578125 -2.359375 C 0.59375 -2.28125 0.609375 -2.21875 0.625 -2.140625 C 0.71875 -1.65625 1.078125 -0.0625 1.078125 0 C 1.078125 0.015625 0.953125 0.21875 0.953125 0.21875 C 0.828125 0.40625 0.671875 0.625 0.375 0.59375 C 0.296875 0.59375 0.234375 0.578125 0.171875 0.5625 C 0.125 0.5625 0.0625 0.53125 0.015625 0.53125 L -0.015625 0.84375 C 0.15625 0.859375 0.421875 0.890625 0.5625 0.84375 C 0.875 0.765625 1.109375 0.421875 1.25 0.1875 L 1.5 -0.203125 C 1.640625 -0.421875 2.78125 -2.234375 2.84375 -2.359375 C 2.71875 -2.359375 2.609375 -2.359375 2.5 -2.34375 C 2.375 -2.171875 2.28125 -1.984375 2.15625 -1.8125 C 1.875 -1.328125 1.5625 -0.875 1.3125 -0.359375 L 1.3125 -0.359375 C 1.234375 -1.078125 1.0625 -1.6875 0.9375 -2.359375 L 0.578125 -2.359375 Z M 0.578125 -2.359375 "/>
</symbol>
</g>
<clipPath id="clip1">
  <path d="M -217 667 L 395 667 L 395 -125 L -217 -125 L -217 667 Z M -217 667 "/>
</clipPath>
<clipPath id="clip2">
  <path d="M -0.375 157.800781 L 177.625 157.800781 L 177.625 -0.199219 L -0.375 -0.199219 L -0.375 157.800781 Z M -0.375 157.800781 "/>
</clipPath>
<clipPath id="clip3">
  <path d="M -217 667 L 395 667 L 395 -125 L -217 -125 L -217 667 Z M -217 667 "/>
</clipPath>
</defs>
<g id="surface0">
<g clip-path="url(#clip1)" clip-rule="nonzero">
<g clip-path="url(#clip2)" clip-rule="nonzero">
<path style="fill:none;stroke-width:5;stroke-linecap:round;stroke-linejoin:round;stroke:rgb(0%,0%,0%);stroke-opacity:1;stroke-miterlimit:10;" d="M 14.345938 689.42625 L 1771.806875 689.42625 " transform="matrix(0.1,0,0,-0.1,-0.376,157.802)"/>
<path style=" stroke:none;fill-rule:nonzero;fill:rgb(0%,0%,0%);fill-opacity:1;" d="M 171.269531 90.085938 L 176.804688 88.859375 L 171.269531 87.632813 "/>
<path style="fill:none;stroke-width:5;stroke-linecap:round;stroke-linejoin:round;stroke:rgb(0%,0%,0%);stroke-opacity:1;stroke-miterlimit:10;" d="M 1716.455313 677.160625 L 1771.806875 689.42625 L 1716.455313 701.691875 L 1716.455313 677.160625 Z M 1716.455313 677.160625 " transform="matrix(0.1,0,0,-0.1,-0.376,157.802)"/>
<path style="fill:none;stroke-width:5;stroke-linecap:round;stroke-linejoin:round;stroke:rgb(0%,0%,0%);stroke-opacity:1;stroke-miterlimit:10;" d="M 836.377187 9.11375 L 836.377187 1568.17625 " transform="matrix(0.1,0,0,-0.1,-0.376,157.802)"/>
<path style=" stroke:none;fill-rule:nonzero;fill:rgb(0%,0%,0%);fill-opacity:1;" d="M 84.488281 6.519531 L 83.261719 0.984375 L 82.035156 6.519531 "/>
<path style="fill:none;stroke-width:5;stroke-linecap:round;stroke-linejoin:round;stroke:rgb(0%,0%,0%);stroke-opacity:1;stroke-miterlimit:10;" d="M 848.642812 1512.824688 L 836.377187 1568.17625 L 824.111562 1512.824688 L 848.642812 1512.824688 Z M 848.642812 1512.824688 " transform="matrix(0.1,0,0,-0.1,-0.376,157.802)"/>
<path style="fill:none;stroke-width:5;stroke-linecap:round;stroke-linejoin:round;stroke:rgb(0%,0%,0%);stroke-opacity:1;stroke-miterlimit:10;" d="M 1217.1975 1070.285625 C 1166.689688 1120.793438 1078.135 1129.074688 971.025625 1093.371563 C 863.877187 1057.668438 746.963125 980.871563 645.9475 879.855938 C 544.931875 778.840313 468.135 661.92625 432.431875 554.777813 C 396.72875 447.668438 405.049063 359.11375 455.556875 308.605938 C 506.025625 258.098125 594.619375 249.816875 701.72875 285.52 C 808.838125 321.223125 925.79125 398.02 1026.806875 499.035625 C 1127.783438 600.012188 1204.580313 716.965313 1240.283438 824.074688 C 1276.025625 931.223125 1267.705313 1019.777813 1217.1975 1070.285625 Z M 1217.1975 1070.285625 " transform="matrix(0.1,0,0,-0.1,-0.376,157.802)"/>
<path style="fill:none;stroke-width:5;stroke-linecap:round;stroke-linejoin:round;stroke:rgb(0%,0%,0%);stroke-opacity:1;stroke-miterlimit:10;" d="M 836.377187 689.42625 L 1091.494375 1115.2075 " transform="matrix(0.1,0,0,-0.1,-0.376,157.802)"/>
<path style=" stroke:none;fill-rule:nonzero;fill:rgb(0%,0%,0%);fill-opacity:1;" d="M 106.980469 51.65625 L 108.773438 46.28125 L 104.875 50.398438 "/>
<path style="fill:none;stroke-width:5;stroke-linecap:round;stroke-linejoin:round;stroke:rgb(0%,0%,0%);stroke-opacity:1;stroke-miterlimit:10;" d="M 1073.564688 1061.4575 L 1091.494375 1115.2075 L 1052.51 1074.035625 L 1073.564688 1061.4575 Z M 1073.564688 1061.4575 " transform="matrix(0.1,0,0,-0.1,-0.376,157.802)"/>
<path style="fill:none;stroke-width:5;stroke-linecap:round;stroke-linejoin:round;stroke:rgb(0%,0%,0%);stroke-opacity:1;stroke-miterlimit:10;" d="M 836.377187 689.42625 L 1091.494375 689.42625 " transform="matrix(0.1,0,0,-0.1,-0.376,157.802)"/>
<path style=" stroke:none;fill-rule:nonzero;fill:rgb(0%,0%,0%);fill-opacity:1;" d="M 103.238281 90.085938 L 108.773438 88.859375 L 103.238281 87.628906 "/>
<path style="fill:none;stroke-width:5;stroke-linecap:round;stroke-linejoin:round;stroke:rgb(0%,0%,0%);stroke-opacity:1;stroke-miterlimit:10;" d="M 1036.142813 677.160625 L 1091.494375 689.42625 L 1036.142813 701.730938 L 1036.142813 677.160625 Z M 1036.142813 677.160625 " transform="matrix(0.1,0,0,-0.1,-0.376,157.802)"/>
<path style="fill:none;stroke-width:5;stroke-linecap:round;stroke-linejoin:round;stroke:rgb(0%,0%,0%);stroke-opacity:1;stroke-miterlimit:10;" d="M 836.377187 689.42625 L 836.377187 1115.2075 " transform="matrix(0.1,0,0,-0.1,-0.376,157.802)"/>
<path style=" stroke:none;fill-rule:nonzero;fill:rgb(0%,0%,0%);fill-opacity:1;" d="M 84.488281 51.8125 L 83.261719 46.28125 L 82.035156 51.8125 "/>
<path style="fill:none;stroke-width:5;stroke-linecap:round;stroke-linejoin:round;stroke:rgb(0%,0%,0%);stroke-opacity:1;stroke-miterlimit:10;" d="M 848.642812 1059.895 L 836.377187 1115.2075 L 824.111562 1059.895 L 848.642812 1059.895 Z M 848.642812 1059.895 " transform="matrix(0.1,0,0,-0.1,-0.376,157.802)"/>
<path style="fill:none;stroke-width:5;stroke-linecap:round;stroke-linejoin:round;stroke:rgb(0%,0%,0%);stroke-opacity:1;stroke-dasharray:30,30;stroke-miterlimit:10;" d="M 836.377187 1115.2075 L 1091.494375 1115.2075 L 1091.494375 689.42625 " transform="matrix(0.1,0,0,-0.1,-0.376,157.802)"/>
</g>
</g>
<g clip-path="url(#clip3)" clip-rule="nonzero">
<g style="fill:rgb(0%,0%,0%);fill-opacity:1;">
  <use xlink:href="#glyph0-1" x="94.161" y="59.44"/>
</g>
<g style="fill:rgb(0%,0%,0%);fill-opacity:1;">
  <use xlink:href="#glyph1-1" x="91.77" y="95.18"/>
</g>
<g style="fill:rgb(0%,0%,0%);fill-opacity:1;">
  <use xlink:href="#glyph2-1" x="96.826" y="96.052"/>
</g>
<g style="fill:rgb(0%,0%,0%);fill-opacity:1;">
  <use xlink:href="#glyph1-1" x="73.556" y="69.231"/>
</g>
<g style="fill:rgb(0%,0%,0%);fill-opacity:1;">
  <use xlink:href="#glyph2-2" x="78.612" y="70.103"/>
</g>
</g>
</g>
</svg>
