<?xml version="1.0" encoding="UTF-8"?>
<svg xmlns="http://www.w3.org/2000/svg" xmlns:xlink="http://www.w3.org/1999/xlink" width="234pt" height="254pt" viewBox="0 0 169 183" version="1.1">
<defs>
<g>
<symbol overflow="visible" id="glyph0-0">
<path style="stroke:none;" d=""/>
</symbol>
<symbol overflow="visible" id="glyph0-1">
<path style="stroke:none;" d="M 3.03125 -4.84375 C 3.03125 -4.734375 3 -4.625 2.96875 -4.515625 C 2.796875 -3.75 2.65625 -2.984375 2.484375 -2.21875 L 2.296875 -1.328125 C 2.265625 -1.15625 2.234375 -0.96875 2.15625 -0.828125 C 1.9375 -0.390625 1.359375 -0.296875 0.953125 -0.484375 C 0.796875 -0.5625 0.6875 -0.671875 0.59375 -0.8125 L 0.59375 -0.8125 C 0.515625 -0.59375 0.421875 -0.375 0.34375 -0.15625 C 0.96875 0.1875 2.03125 0.3125 2.640625 -0.265625 C 2.703125 -0.328125 2.78125 -0.390625 2.828125 -0.46875 C 3 -0.71875 3.0625 -1 3.125 -1.296875 C 3.25 -1.96875 3.859375 -4.703125 3.875 -4.84375 L 3.03125 -4.84375 Z M 3.03125 -4.84375 "/>
</symbol>
<symbol overflow="visible" id="glyph0-2">
<path style="stroke:none;" d="M 1.671875 -4.84375 L 0.640625 0 L 2.328125 0 C 2.53125 0 2.75 0 2.953125 0 C 3.609375 -0.0625 4.1875 -0.296875 4.515625 -0.75 C 4.78125 -1.125 4.953125 -1.734375 4.609375 -2.125 C 4.40625 -2.375 4.109375 -2.46875 3.765625 -2.53125 C 3.875 -2.5625 3.96875 -2.578125 4.0625 -2.609375 C 4.328125 -2.703125 4.578125 -2.828125 4.765625 -3.03125 C 5.09375 -3.390625 5.21875 -3.984375 4.90625 -4.375 C 4.8125 -4.5 4.671875 -4.59375 4.53125 -4.65625 C 4.15625 -4.84375 3.71875 -4.84375 3.296875 -4.84375 L 1.671875 -4.84375 Z M 2.03125 -2.734375 L 2.359375 -4.3125 L 3.03125 -4.3125 C 3.484375 -4.3125 3.9375 -4.3125 4.15625 -4.046875 C 4.453125 -3.75 4.21875 -3.265625 3.9375 -3.046875 C 3.59375 -2.75 3.109375 -2.734375 2.6875 -2.734375 L 2.03125 -2.734375 Z M 1.5625 -0.515625 C 1.578125 -0.65625 1.90625 -2.15625 1.90625 -2.15625 C 1.921875 -2.21875 1.921875 -2.296875 2 -2.296875 L 2.953125 -2.296875 C 3.328125 -2.28125 3.8125 -2.203125 3.953125 -1.8125 C 4.109375 -1.46875 3.9375 -1.0625 3.703125 -0.84375 C 3.578125 -0.75 3.4375 -0.671875 3.28125 -0.625 C 3 -0.515625 2.703125 -0.515625 2.40625 -0.515625 L 1.5625 -0.515625 Z M 1.5625 -0.515625 "/>
</symbol>
<symbol overflow="visible" id="glyph0-3">
<path style="stroke:none;" d="M 0.203125 0 C 0.453125 -0.015625 0.75 0.015625 0.96875 -0.015625 L 1.015625 -0.09375 C 1.234375 -0.453125 1.421875 -0.84375 1.65625 -1.171875 L 1.8125 -1.1875 L 3.671875 -1.1875 L 3.84375 0 L 4.71875 0 L 4 -4.84375 C 3.671875 -4.828125 3.296875 -4.859375 2.984375 -4.828125 L 2.90625 -4.71875 L 0.203125 0 Z M 3.28125 -4.125 C 3.28125 -3.84375 3.328125 -3.546875 3.375 -3.28125 C 3.4375 -2.75 3.515625 -2.234375 3.59375 -1.71875 L 1.9375 -1.71875 L 2.78125 -3.203125 L 3.28125 -4.125 Z M 3.28125 -4.125 "/>
</symbol>
</g>
<clipPath id="clip1">
  <path d="M -221 666 L 391 666 L 391 -126 L -221 -126 L -221 666 Z M -221 666 "/>
</clipPath>
<clipPath id="clip2">
  <path d="M -0.375 183.800781 L 169.625 183.800781 L 169.625 -1.199219 L -0.375 -1.199219 L -0.375 183.800781 Z M -0.375 183.800781 "/>
</clipPath>
<clipPath id="clip3">
  <path d="M -221 666 L 391 666 L 391 -126 L -221 -126 L -221 666 Z M -221 666 "/>
</clipPath>
</defs>
<g id="surface0">
<g clip-path="url(#clip1)" clip-rule="nonzero">
<g clip-path="url(#clip2)" clip-rule="nonzero">
<path style="fill:none;stroke-width:5;stroke-linecap:round;stroke-linejoin:round;stroke:rgb(0%,0%,0%);stroke-opacity:1;stroke-miterlimit:10;" d="M 761.338125 1463.059063 L 761.338125 1831.574688 " transform="matrix(0.1,0,0,-0.1,-0.376,183.802)"/>
<path style=" stroke:none;fill-rule:nonzero;fill:rgb(0%,0%,0%);fill-opacity:1;" d="M 76.984375 6.179688 L 75.757813 0.644531 L 74.53125 6.179688 "/>
<path style="fill:none;stroke-width:5;stroke-linecap:round;stroke-linejoin:round;stroke:rgb(0%,0%,0%);stroke-opacity:1;stroke-miterlimit:10;" d="M 773.60375 1776.223125 L 761.338125 1831.574688 L 749.0725 1776.223125 L 773.60375 1776.223125 Z M 773.60375 1776.223125 " transform="matrix(0.1,0,0,-0.1,-0.376,183.802)"/>
<path style="fill:none;stroke-width:5;stroke-linecap:round;stroke-linejoin:round;stroke:rgb(0%,0%,0%);stroke-opacity:1;stroke-miterlimit:10;" d="M 846.377187 1463.059063 L 846.377187 1831.574688 " transform="matrix(0.1,0,0,-0.1,-0.376,183.802)"/>
<path style=" stroke:none;fill-rule:nonzero;fill:rgb(0%,0%,0%);fill-opacity:1;" d="M 85.488281 6.179688 L 84.261719 0.644531 L 83.035156 6.179688 "/>
<path style="fill:none;stroke-width:5;stroke-linecap:round;stroke-linejoin:round;stroke:rgb(0%,0%,0%);stroke-opacity:1;stroke-miterlimit:10;" d="M 858.642812 1776.223125 L 846.377187 1831.574688 L 834.111562 1776.223125 L 858.642812 1776.223125 Z M 858.642812 1776.223125 " transform="matrix(0.1,0,0,-0.1,-0.376,183.802)"/>
<path style="fill:none;stroke-width:5;stroke-linecap:round;stroke-linejoin:round;stroke:rgb(0%,0%,0%);stroke-opacity:1;stroke-miterlimit:10;" d="M 931.41625 1463.059063 L 931.41625 1831.574688 " transform="matrix(0.1,0,0,-0.1,-0.376,183.802)"/>
<path style=" stroke:none;fill-rule:nonzero;fill:rgb(0%,0%,0%);fill-opacity:1;" d="M 93.992188 6.179688 L 92.765625 0.644531 L 91.539063 6.179688 "/>
<path style="fill:none;stroke-width:5;stroke-linecap:round;stroke-linejoin:round;stroke:rgb(0%,0%,0%);stroke-opacity:1;stroke-miterlimit:10;" d="M 943.681875 1776.223125 L 931.41625 1831.574688 L 919.150625 1776.223125 L 943.681875 1776.223125 Z M 943.681875 1776.223125 " transform="matrix(0.1,0,0,-0.1,-0.376,183.802)"/>
<path style="fill:none;stroke-width:5;stroke-linecap:round;stroke-linejoin:round;stroke:rgb(0%,0%,0%);stroke-opacity:1;stroke-miterlimit:10;" d="M 761.338125 148.371563 L 761.338125 17.395 " transform="matrix(0.1,0,0,-0.1,-0.376,183.802)"/>
<path style="fill:none;stroke-width:5;stroke-linecap:round;stroke-linejoin:round;stroke:rgb(0%,0%,0%);stroke-opacity:1;stroke-miterlimit:10;" d="M 846.377187 136.105938 L 846.377187 17.395 " transform="matrix(0.1,0,0,-0.1,-0.376,183.802)"/>
<path style="fill:none;stroke-width:5;stroke-linecap:round;stroke-linejoin:round;stroke:rgb(0%,0%,0%);stroke-opacity:1;stroke-miterlimit:10;" d="M 931.41625 148.371563 L 931.41625 17.395 " transform="matrix(0.1,0,0,-0.1,-0.376,183.802)"/>
<path style="fill:none;stroke-width:5;stroke-linecap:round;stroke-linejoin:round;stroke:rgb(0%,0%,0%);stroke-opacity:1;stroke-dasharray:30,30;stroke-miterlimit:10;" d="M 761.338125 148.371563 L 761.338125 1463.059063 " transform="matrix(0.1,0,0,-0.1,-0.376,183.802)"/>
<path style="fill:none;stroke-width:5;stroke-linecap:round;stroke-linejoin:round;stroke:rgb(0%,0%,0%);stroke-opacity:1;stroke-dasharray:30,30;stroke-miterlimit:10;" d="M 931.41625 148.371563 L 931.41625 1463.059063 " transform="matrix(0.1,0,0,-0.1,-0.376,183.802)"/>
<path style="fill:none;stroke-width:5;stroke-linecap:round;stroke-linejoin:round;stroke:rgb(0%,0%,0%);stroke-opacity:1;stroke-miterlimit:10;" d="M 686.924062 215.8325 L 686.924062 1463.059063 " transform="matrix(0.1,0,0,-0.1,-0.376,183.802)"/>
<path style="fill:none;stroke-width:5;stroke-linecap:round;stroke-linejoin:round;stroke:rgb(0%,0%,0%);stroke-opacity:1;stroke-miterlimit:10;" d="M 1005.830313 215.8325 L 1005.830313 1463.059063 " transform="matrix(0.1,0,0,-0.1,-0.376,183.802)"/>
<path style="fill:none;stroke-width:25;stroke-linecap:round;stroke-linejoin:round;stroke:rgb(100%,100%,100%);stroke-opacity:1;stroke-miterlimit:10;" d="M 307.783438 768.566875 C 307.783438 697.160625 364.54125 628.645 465.517813 578.17625 C 566.533437 527.668438 703.525625 499.27 846.377187 499.27 C 989.189687 499.27 1126.220938 527.668438 1227.1975 578.137188 C 1328.213125 628.645 1384.970938 697.160625 1384.970938 768.566875 " transform="matrix(0.1,0,0,-0.1,-0.376,183.802)"/>
<path style="fill:none;stroke-width:25;stroke-linecap:round;stroke-linejoin:round;stroke:rgb(100%,100%,100%);stroke-opacity:1;stroke-miterlimit:10;" d="M 10.127188 768.566875 C 10.127188 657.7075 98.252188 551.340313 255.088125 472.941875 C 411.885 394.504375 624.580312 350.441875 846.377187 350.441875 C 1068.135 350.441875 1280.869375 394.504375 1437.66625 472.902813 C 1594.463125 551.340313 1682.627188 657.668438 1682.627188 768.566875 " transform="matrix(0.1,0,0,-0.1,-0.376,183.802)"/>
<path style="fill:none;stroke-width:5;stroke-linecap:round;stroke-linejoin:round;stroke:rgb(0%,0%,0%);stroke-opacity:1;stroke-miterlimit:10;" d="M 667.744375 1022.629375 C 592.35375 1009.387188 523.095937 987.785625 465.517813 958.996563 C 364.54125 908.48875 307.783438 840.012188 307.783438 768.566875 C 307.783438 697.160625 364.54125 628.645 465.517813 578.17625 C 566.533437 527.668438 703.525625 499.27 846.377187 499.27 C 989.189687 499.27 1126.220938 527.668438 1227.1975 578.137188 C 1328.213125 628.645 1384.970938 697.160625 1384.970938 768.566875 C 1384.970938 839.973125 1328.213125 908.48875 1227.1975 958.996563 C 1169.658438 987.785625 1100.361563 1009.387188 1025.01 1022.629375 " transform="matrix(0.1,0,0,-0.1,-0.376,183.802)"/>
<path style="fill:none;stroke-width:5;stroke-linecap:round;stroke-linejoin:round;stroke:rgb(0%,0%,0%);stroke-opacity:1;stroke-miterlimit:10;" d="M 669.658437 1177.23875 C 513.799062 1160.402813 369.54125 1121.4575 255.088125 1064.230938 C 98.252188 985.8325 10.127188 879.465313 10.127188 768.566875 C 10.127188 657.7075 98.252188 551.340313 255.088125 472.941875 C 411.885 394.504375 624.580312 350.441875 846.377187 350.441875 C 1068.135 350.441875 1280.869375 394.504375 1437.66625 472.902813 C 1594.463125 551.340313 1682.627188 657.668438 1682.627188 768.566875 C 1682.627188 879.465313 1594.463125 985.793438 1437.66625 1064.230938 C 1323.213125 1121.4575 1178.955313 1160.402813 1023.095938 1177.23875 " transform="matrix(0.1,0,0,-0.1,-0.376,183.802)"/>
<path style="fill:none;stroke-width:5;stroke-linecap:round;stroke-linejoin:round;stroke:rgb(0%,0%,0%);stroke-opacity:1;stroke-miterlimit:10;" d="M 1227.1975 578.137188 C 1247.392813 588.254375 1265.830313 599.074688 1282.392813 610.480938 " transform="matrix(0.1,0,0,-0.1,-0.376,183.802)"/>
<path style=" stroke:none;fill-rule:nonzero;fill:rgb(0%,0%,0%);fill-opacity:1;" d="M 123.738281 126.640625 C 125.265625 125.367188 126.644531 124.066406 127.863281 122.753906 C 126.203125 123.425781 124.402344 124.023438 122.480469 124.535156 "/>
<path style="fill:none;stroke-width:5;stroke-linecap:round;stroke-linejoin:round;stroke:rgb(0%,0%,0%);stroke-opacity:1;stroke-miterlimit:10;" d="M 1241.142813 571.61375 C 1256.41625 584.348125 1270.205313 597.355938 1282.392813 610.480938 C 1265.79125 603.762188 1247.783438 597.785625 1228.564688 592.668438 L 1241.142813 571.61375 Z M 1241.142813 571.61375 " transform="matrix(0.1,0,0,-0.1,-0.376,183.802)"/>
<path style="fill:none;stroke-width:5;stroke-linecap:round;stroke-linejoin:round;stroke:rgb(0%,0%,0%);stroke-opacity:1;stroke-miterlimit:10;" d="M 1423.408438 465.949688 C 1428.213125 468.254375 1432.97875 470.559063 1437.66625 472.902813 C 1453.369375 480.754375 1468.330313 488.879375 1482.627188 497.277813 " transform="matrix(0.1,0,0,-0.1,-0.376,183.802)"/>
<path style=" stroke:none;fill-rule:nonzero;fill:rgb(0%,0%,0%);fill-opacity:1;" d="M 143.589844 137.773438 L 144.023438 137.425781 C 145.386719 136.320313 146.675781 135.203125 147.886719 134.074219 C 146.3125 134.585938 144.671875 135.054688 142.96875 135.480469 L 142.429688 135.613281 "/>
<path style="fill:none;stroke-width:5;stroke-linecap:round;stroke-linejoin:round;stroke:rgb(0%,0%,0%);stroke-opacity:1;stroke-miterlimit:10;" d="M 1439.658438 460.285625 L 1443.994375 463.762188 C 1457.627188 474.816875 1470.517813 485.98875 1482.627188 497.277813 C 1466.885 492.160625 1450.47875 487.473125 1433.4475 483.215313 L 1428.056875 481.887188 L 1439.658438 460.285625 Z M 1439.658438 460.285625 " transform="matrix(0.1,0,0,-0.1,-0.376,183.802)"/>
<path style="fill:none;stroke-width:5;stroke-linecap:round;stroke-linejoin:round;stroke:rgb(0%,0%,0%);stroke-opacity:1;stroke-miterlimit:10;" d="M 1005.830313 1463.059063 C 1005.830313 1484.191875 989.033437 1504.465313 959.111562 1519.42625 C 929.22875 1534.387188 888.642812 1542.785625 846.377187 1542.785625 C 804.0725 1542.785625 763.525625 1534.387188 733.642812 1519.42625 C 703.720937 1504.504375 686.924062 1484.191875 686.924062 1463.059063 " transform="matrix(0.1,0,0,-0.1,-0.376,183.802)"/>
<path style="fill:none;stroke-width:25;stroke-linecap:round;stroke-linejoin:round;stroke:rgb(100%,100%,100%);stroke-opacity:1;stroke-miterlimit:10;" d="M 733.642812 159.465313 C 763.525625 144.504375 804.0725 136.105938 846.377187 136.105938 C 888.642812 136.105938 929.22875 144.504375 959.111562 159.42625 " transform="matrix(0.1,0,0,-0.1,-0.376,183.802)"/>
<path style="fill:none;stroke-width:25;stroke-linecap:round;stroke-linejoin:round;stroke:rgb(100%,100%,100%);stroke-opacity:1;stroke-miterlimit:10;" d="M 733.642812 408.879375 C 763.525625 393.9575 804.0725 385.559063 846.377187 385.559063 C 888.642812 385.559063 929.22875 393.9575 959.111562 408.879375 " transform="matrix(0.1,0,0,-0.1,-0.376,183.802)"/>
<path style="fill:none;stroke-width:25;stroke-linecap:round;stroke-linejoin:round;stroke:rgb(100%,100%,100%);stroke-opacity:1;stroke-miterlimit:10;" d="M 733.642812 658.3325 C 763.525625 643.410625 804.0725 634.973125 846.377187 634.973125 C 888.642812 634.973125 929.22875 643.410625 959.111562 658.3325 " transform="matrix(0.1,0,0,-0.1,-0.376,183.802)"/>
<path style="fill:none;stroke-width:25;stroke-linecap:round;stroke-linejoin:round;stroke:rgb(100%,100%,100%);stroke-opacity:1;stroke-miterlimit:10;" d="M 733.642812 907.785625 C 763.525625 892.824688 804.0725 884.42625 846.377187 884.42625 C 888.642812 884.42625 929.22875 892.824688 959.111562 907.785625 " transform="matrix(0.1,0,0,-0.1,-0.376,183.802)"/>
<path style="fill:none;stroke-width:25;stroke-linecap:round;stroke-linejoin:round;stroke:rgb(100%,100%,100%);stroke-opacity:1;stroke-miterlimit:10;" d="M 733.642812 1157.23875 C 763.525625 1142.277813 804.0725 1133.879375 846.377187 1133.879375 C 888.642812 1133.879375 929.22875 1142.277813 959.111562 1157.23875 " transform="matrix(0.1,0,0,-0.1,-0.376,183.802)"/>
<path style="fill:none;stroke-width:25;stroke-linecap:round;stroke-linejoin:round;stroke:rgb(100%,100%,100%);stroke-opacity:1;stroke-miterlimit:10;" d="M 733.642812 1406.691875 C 763.525625 1391.730938 804.0725 1383.3325 846.377187 1383.3325 C 888.642812 1383.3325 929.22875 1391.730938 959.111562 1406.691875 " transform="matrix(0.1,0,0,-0.1,-0.376,183.802)"/>
<path style="fill:none;stroke-width:25;stroke-linecap:round;stroke-linejoin:round;stroke:rgb(100%,100%,100%);stroke-opacity:1;stroke-miterlimit:10;" d="M 815.127187 137.629375 C 825.3225 136.61375 835.79125 136.105938 846.377187 136.105938 C 856.963125 136.105938 867.392812 136.61375 877.627187 137.629375 " transform="matrix(0.1,0,0,-0.1,-0.376,183.802)"/>
<path style=" stroke:none;fill-rule:nonzero;fill:rgb(100%,100%,100%);fill-opacity:1;" d="M 81.863281 171.316406 C 82.695313 171.203125 83.53125 171.050781 84.367188 170.867188 C 85.402344 170.636719 86.410156 170.359375 87.386719 170.039063 C 86.367188 169.917969 85.332031 169.742188 84.300781 169.511719 C 83.464844 169.328125 82.640625 169.109375 81.839844 168.863281 "/>
<path style="fill:none;stroke-width:25;stroke-linecap:round;stroke-linejoin:round;stroke:rgb(100%,100%,100%);stroke-opacity:1;stroke-miterlimit:10;" d="M 822.392812 124.855938 C 830.713125 125.98875 839.0725 127.512188 847.431875 129.348125 C 857.783437 131.652813 867.861562 134.42625 877.627187 137.629375 C 867.431875 138.840313 857.080312 140.598125 846.767812 142.902813 C 838.408437 144.73875 830.16625 146.92625 822.158437 149.387188 L 822.392812 124.855938 Z M 822.392812 124.855938 " transform="matrix(0.1,0,0,-0.1,-0.376,183.802)"/>
<path style="fill:none;stroke-width:5;stroke-linecap:round;stroke-linejoin:round;stroke:rgb(0%,0%,0%);stroke-opacity:1;stroke-miterlimit:10;" d="M 686.924062 215.8325 C 686.924062 194.660625 703.720937 174.387188 733.642812 159.465313 C 763.525625 144.504375 804.0725 136.105938 846.377187 136.105938 C 888.642812 136.105938 929.22875 144.504375 959.111562 159.42625 C 989.033437 174.387188 1005.830313 194.660625 1005.830313 215.8325 " transform="matrix(0.1,0,0,-0.1,-0.376,183.802)"/>
<path style="fill:none;stroke-width:5;stroke-linecap:round;stroke-linejoin:round;stroke:rgb(0%,0%,0%);stroke-opacity:1;stroke-miterlimit:10;" d="M 815.127187 137.629375 C 825.3225 136.61375 835.79125 136.105938 846.377187 136.105938 C 856.963125 136.105938 867.392812 136.61375 877.627187 137.629375 " transform="matrix(0.1,0,0,-0.1,-0.376,183.802)"/>
<path style=" stroke:none;fill-rule:nonzero;fill:rgb(0%,0%,0%);fill-opacity:1;" d="M 81.863281 171.316406 C 82.695313 171.203125 83.53125 171.050781 84.367188 170.867188 C 85.402344 170.636719 86.410156 170.359375 87.386719 170.039063 C 86.367188 169.917969 85.332031 169.742188 84.300781 169.511719 C 83.464844 169.328125 82.640625 169.109375 81.839844 168.863281 "/>
<path style="fill:none;stroke-width:5;stroke-linecap:round;stroke-linejoin:round;stroke:rgb(0%,0%,0%);stroke-opacity:1;stroke-miterlimit:10;" d="M 822.392812 124.855938 C 830.713125 125.98875 839.0725 127.512188 847.431875 129.348125 C 857.783437 131.652813 867.861562 134.42625 877.627187 137.629375 C 867.431875 138.840313 857.080312 140.598125 846.767812 142.902813 C 838.408437 144.73875 830.16625 146.92625 822.158437 149.387188 L 822.392812 124.855938 Z M 822.392812 124.855938 " transform="matrix(0.1,0,0,-0.1,-0.376,183.802)"/>
<path style="fill:none;stroke-width:5;stroke-linecap:round;stroke-linejoin:round;stroke:rgb(0%,0%,0%);stroke-opacity:1;stroke-miterlimit:10;" d="M 686.924062 465.285625 C 686.924062 444.11375 703.720937 423.840313 733.642812 408.879375 C 763.525625 393.9575 804.0725 385.559063 846.377187 385.559063 C 888.642812 385.559063 929.22875 393.9575 959.111562 408.879375 C 989.033437 423.840313 1005.830313 444.11375 1005.830313 465.285625 " transform="matrix(0.1,0,0,-0.1,-0.376,183.802)"/>
<path style="fill:none;stroke-width:5;stroke-linecap:round;stroke-linejoin:round;stroke:rgb(0%,0%,0%);stroke-opacity:1;stroke-miterlimit:10;" d="M 815.127187 387.0825 C 825.3225 386.066875 835.79125 385.559063 846.377187 385.559063 C 856.963125 385.559063 867.392812 386.066875 877.627187 387.0825 " transform="matrix(0.1,0,0,-0.1,-0.376,183.802)"/>
<path style=" stroke:none;fill-rule:nonzero;fill:rgb(0%,0%,0%);fill-opacity:1;" d="M 81.863281 146.371094 C 82.695313 146.257813 83.53125 146.105469 84.367188 145.921875 C 85.402344 145.691406 86.410156 145.414063 87.386719 145.09375 C 86.367188 144.972656 85.332031 144.796875 84.300781 144.566406 C 83.464844 144.382813 82.640625 144.164063 81.839844 143.917969 "/>
<path style="fill:none;stroke-width:5;stroke-linecap:round;stroke-linejoin:round;stroke:rgb(0%,0%,0%);stroke-opacity:1;stroke-miterlimit:10;" d="M 822.392812 374.309063 C 830.713125 375.441875 839.0725 376.965313 847.431875 378.80125 C 857.783437 381.105938 867.861562 383.879375 877.627187 387.0825 C 867.431875 388.293438 857.080312 390.05125 846.767812 392.355938 C 838.408437 394.191875 830.16625 396.379375 822.158437 398.840313 L 822.392812 374.309063 Z M 822.392812 374.309063 " transform="matrix(0.1,0,0,-0.1,-0.376,183.802)"/>
<path style="fill:none;stroke-width:5;stroke-linecap:round;stroke-linejoin:round;stroke:rgb(0%,0%,0%);stroke-opacity:1;stroke-miterlimit:10;" d="M 686.924062 714.699688 C 686.924062 693.566875 703.720937 673.293438 733.642812 658.3325 C 763.525625 643.410625 804.0725 634.973125 846.377187 634.973125 C 888.642812 634.973125 929.22875 643.410625 959.111562 658.3325 C 989.033437 673.293438 1005.830313 693.566875 1005.830313 714.699688 " transform="matrix(0.1,0,0,-0.1,-0.376,183.802)"/>
<path style="fill:none;stroke-width:5;stroke-linecap:round;stroke-linejoin:round;stroke:rgb(0%,0%,0%);stroke-opacity:1;stroke-miterlimit:10;" d="M 815.127187 636.535625 C 825.3225 635.52 835.79125 634.973125 846.377187 634.973125 C 856.963125 634.973125 867.392812 635.52 877.627187 636.535625 " transform="matrix(0.1,0,0,-0.1,-0.376,183.802)"/>
<path style=" stroke:none;fill-rule:nonzero;fill:rgb(0%,0%,0%);fill-opacity:1;" d="M 81.863281 121.425781 C 82.695313 121.3125 83.53125 121.160156 84.367188 120.976563 C 85.402344 120.746094 86.410156 120.46875 87.386719 120.148438 C 86.367188 120.027344 85.332031 119.851563 84.300781 119.621094 C 83.464844 119.4375 82.640625 119.21875 81.839844 118.972656 "/>
<path style="fill:none;stroke-width:5;stroke-linecap:round;stroke-linejoin:round;stroke:rgb(0%,0%,0%);stroke-opacity:1;stroke-miterlimit:10;" d="M 822.392812 623.762188 C 830.713125 624.895 839.0725 626.418438 847.431875 628.254375 C 857.783437 630.559063 867.861562 633.3325 877.627187 636.535625 C 867.431875 637.746563 857.080312 639.504375 846.767812 641.809063 C 838.408437 643.645 830.16625 645.8325 822.158437 648.293438 L 822.392812 623.762188 Z M 822.392812 623.762188 " transform="matrix(0.1,0,0,-0.1,-0.376,183.802)"/>
<path style="fill:none;stroke-width:5;stroke-linecap:round;stroke-linejoin:round;stroke:rgb(0%,0%,0%);stroke-opacity:1;stroke-miterlimit:10;" d="M 686.924062 964.152813 C 686.924062 943.02 703.720937 922.746563 733.642812 907.785625 C 763.525625 892.824688 804.0725 884.42625 846.377187 884.42625 C 888.642812 884.42625 929.22875 892.824688 959.111562 907.785625 C 989.033437 922.746563 1005.830313 943.02 1005.830313 964.152813 " transform="matrix(0.1,0,0,-0.1,-0.376,183.802)"/>
<path style="fill:none;stroke-width:5;stroke-linecap:round;stroke-linejoin:round;stroke:rgb(0%,0%,0%);stroke-opacity:1;stroke-miterlimit:10;" d="M 815.127187 885.98875 C 825.3225 884.973125 835.79125 884.42625 846.377187 884.42625 C 856.963125 884.42625 867.392812 884.973125 877.627187 885.98875 " transform="matrix(0.1,0,0,-0.1,-0.376,183.802)"/>
<path style=" stroke:none;fill-rule:nonzero;fill:rgb(0%,0%,0%);fill-opacity:1;" d="M 81.863281 96.480469 C 82.695313 96.367188 83.53125 96.214844 84.367188 96.03125 C 85.402344 95.800781 86.410156 95.523438 87.386719 95.203125 C 86.367188 95.082031 85.332031 94.90625 84.300781 94.679688 C 83.464844 94.492188 82.640625 94.273438 81.839844 94.027344 "/>
<path style="fill:none;stroke-width:5;stroke-linecap:round;stroke-linejoin:round;stroke:rgb(0%,0%,0%);stroke-opacity:1;stroke-miterlimit:10;" d="M 822.392812 873.215313 C 830.713125 874.348125 839.0725 875.871563 847.431875 877.7075 C 857.783437 880.012188 867.861562 882.785625 877.627187 885.98875 C 867.431875 887.199688 857.080312 888.9575 846.767812 891.223125 C 838.408437 893.098125 830.16625 895.285625 822.158437 897.746563 L 822.392812 873.215313 Z M 822.392812 873.215313 " transform="matrix(0.1,0,0,-0.1,-0.376,183.802)"/>
<path style="fill:none;stroke-width:5;stroke-linecap:round;stroke-linejoin:round;stroke:rgb(0%,0%,0%);stroke-opacity:1;stroke-miterlimit:10;" d="M 686.924062 1213.605938 C 686.924062 1192.473125 703.720937 1172.199688 733.642812 1157.23875 C 763.525625 1142.277813 804.0725 1133.879375 846.377187 1133.879375 C 888.642812 1133.879375 929.22875 1142.277813 959.111562 1157.23875 C 989.033437 1172.199688 1005.830313 1192.473125 1005.830313 1213.605938 " transform="matrix(0.1,0,0,-0.1,-0.376,183.802)"/>
<path style="fill:none;stroke-width:5;stroke-linecap:round;stroke-linejoin:round;stroke:rgb(0%,0%,0%);stroke-opacity:1;stroke-miterlimit:10;" d="M 815.127187 1135.441875 C 825.3225 1134.42625 835.79125 1133.879375 846.377187 1133.879375 C 856.963125 1133.879375 867.392812 1134.42625 877.627187 1135.441875 " transform="matrix(0.1,0,0,-0.1,-0.376,183.802)"/>
<path style=" stroke:none;fill-rule:nonzero;fill:rgb(0%,0%,0%);fill-opacity:1;" d="M 81.863281 71.535156 C 82.695313 71.421875 83.53125 71.273438 84.367188 71.085938 C 85.402344 70.855469 86.410156 70.578125 87.386719 70.257813 C 86.367188 70.136719 85.332031 69.960938 84.300781 69.734375 C 83.464844 69.546875 82.640625 69.328125 81.839844 69.082031 "/>
<path style="fill:none;stroke-width:5;stroke-linecap:round;stroke-linejoin:round;stroke:rgb(0%,0%,0%);stroke-opacity:1;stroke-miterlimit:10;" d="M 822.392812 1122.668438 C 830.713125 1123.80125 839.0725 1125.285625 847.431875 1127.160625 C 857.783437 1129.465313 867.861562 1132.23875 877.627187 1135.441875 C 867.431875 1136.652813 857.080312 1138.410625 846.767812 1140.67625 C 838.408437 1142.55125 830.16625 1144.73875 822.158437 1147.199688 L 822.392812 1122.668438 Z M 822.392812 1122.668438 " transform="matrix(0.1,0,0,-0.1,-0.376,183.802)"/>
<path style="fill:none;stroke-width:5;stroke-linecap:round;stroke-linejoin:round;stroke:rgb(0%,0%,0%);stroke-opacity:1;stroke-miterlimit:10;" d="M 686.924062 1463.059063 C 686.924062 1441.92625 703.720937 1421.652813 733.642812 1406.691875 C 763.525625 1391.730938 804.0725 1383.3325 846.377187 1383.3325 C 888.642812 1383.3325 929.22875 1391.730938 959.111562 1406.691875 C 989.033437 1421.652813 1005.830313 1441.92625 1005.830313 1463.059063 " transform="matrix(0.1,0,0,-0.1,-0.376,183.802)"/>
<path style="fill:none;stroke-width:5;stroke-linecap:round;stroke-linejoin:round;stroke:rgb(0%,0%,0%);stroke-opacity:1;stroke-miterlimit:10;" d="M 815.127187 1384.895 C 825.3225 1383.879375 835.79125 1383.3325 846.377187 1383.3325 C 856.963125 1383.3325 867.392812 1383.879375 877.627187 1384.895 " transform="matrix(0.1,0,0,-0.1,-0.376,183.802)"/>
<path style=" stroke:none;fill-rule:nonzero;fill:rgb(0%,0%,0%);fill-opacity:1;" d="M 81.863281 46.59375 C 82.695313 46.476563 83.53125 46.328125 84.367188 46.140625 C 85.402344 45.910156 86.410156 45.632813 87.386719 45.3125 C 86.367188 45.191406 85.332031 45.015625 84.300781 44.789063 C 83.464844 44.601563 82.640625 44.386719 81.839844 44.136719 "/>
<path style="fill:none;stroke-width:5;stroke-linecap:round;stroke-linejoin:round;stroke:rgb(0%,0%,0%);stroke-opacity:1;stroke-miterlimit:10;" d="M 822.392812 1372.0825 C 830.713125 1373.254375 839.0725 1374.73875 847.431875 1376.61375 C 857.783437 1378.918438 867.861562 1381.691875 877.627187 1384.895 C 867.431875 1386.105938 857.080312 1387.86375 846.767812 1390.129375 C 838.408437 1392.004375 830.16625 1394.152813 822.158437 1396.652813 L 822.392812 1372.0825 Z M 822.392812 1372.0825 " transform="matrix(0.1,0,0,-0.1,-0.376,183.802)"/>
</g>
</g>
<g clip-path="url(#clip3)" clip-rule="nonzero">
<g style="fill:rgb(0%,0%,0%);fill-opacity:1;">
  <use xlink:href="#glyph0-1" x="82.056" y="67.298"/>
</g>
<g style="fill:rgb(0%,0%,0%);fill-opacity:1;">
  <use xlink:href="#glyph0-2" x="97.136" y="8.491"/>
</g>
<g style="fill:rgb(0%,0%,0%);fill-opacity:1;">
  <use xlink:href="#glyph0-3" x="156.38" y="132.802"/>
</g>
</g>
</g>
</svg>
