<?xml version="1.0" encoding="UTF-8"?>
<svg xmlns="http://www.w3.org/2000/svg" xmlns:xlink="http://www.w3.org/1999/xlink" width="238pt" height="209pt" viewBox="0 0 172 151" version="1.1">
<defs>
<g>
<symbol overflow="visible" id="glyph0-0">
<path style="stroke:none;" d=""/>
</symbol>
<symbol overflow="visible" id="glyph0-1">
<path style="stroke:none;" d="M 0.75 -3.296875 C 0.828125 -3.140625 0.921875 -3.015625 1.015625 -2.875 C 1.078125 -2.796875 1.6875 -1.875 1.71875 -1.84375 C 1.734375 -1.8125 1.796875 -1.75 1.796875 -1.703125 C 1.796875 -1.65625 1.71875 -1.609375 1.6875 -1.578125 C 1.375 -1.296875 0.046875 -0.046875 0 0 C 0.1875 0 0.375 0 0.53125 0 L 0.6875 -0.140625 L 1.984375 -1.4375 C 2.265625 -0.953125 2.53125 -0.46875 2.84375 -0.015625 C 3.015625 0 3.203125 0 3.390625 0 C 3.296875 -0.140625 2.359375 -1.53125 2.328125 -1.5625 C 2.3125 -1.609375 2.265625 -1.65625 2.265625 -1.6875 C 2.28125 -1.734375 2.34375 -1.78125 2.375 -1.8125 C 2.484375 -1.921875 2.59375 -2.015625 2.703125 -2.125 C 2.8125 -2.21875 3.921875 -3.25 3.953125 -3.296875 C 3.765625 -3.296875 3.59375 -3.296875 3.421875 -3.28125 C 2.96875 -2.875 2.546875 -2.4375 2.09375 -2.03125 C 1.828125 -2.453125 1.578125 -2.890625 1.28125 -3.28125 C 1.109375 -3.296875 0.921875 -3.296875 0.75 -3.296875 Z M 0.75 -3.296875 "/>
</symbol>
<symbol overflow="visible" id="glyph0-2">
<path style="stroke:none;" d="M 0.8125 -3.296875 C 0.828125 -3.1875 0.84375 -3.09375 0.875 -3 C 1.015625 -2.3125 1.515625 -0.078125 1.515625 0 C 1.5 0.03125 1.328125 0.296875 1.328125 0.296875 C 1.15625 0.578125 0.9375 0.875 0.515625 0.828125 C 0.421875 0.828125 0.328125 0.8125 0.234375 0.796875 C 0.171875 0.78125 0.09375 0.75 0.03125 0.734375 L -0.015625 1.171875 C 0.203125 1.203125 0.578125 1.25 0.796875 1.1875 C 1.234375 1.0625 1.546875 0.59375 1.75 0.265625 L 2.09375 -0.28125 C 2.28125 -0.59375 3.875 -3.125 3.984375 -3.296875 C 3.8125 -3.296875 3.640625 -3.296875 3.5 -3.28125 C 3.328125 -3.03125 3.1875 -2.78125 3.03125 -2.53125 C 2.625 -1.859375 2.1875 -1.234375 1.828125 -0.515625 L 1.828125 -0.515625 C 1.734375 -1.515625 1.484375 -2.359375 1.296875 -3.296875 L 0.8125 -3.296875 Z M 0.8125 -3.296875 "/>
</symbol>
<symbol overflow="visible" id="glyph0-3">
<path style="stroke:none;" d="M 0.21875 0 L 0.578125 0 L 0.71875 -0.015625 L 0.796875 -0.109375 C 1.0625 -0.53125 1.3125 -0.96875 1.609375 -1.375 L 1.671875 -1.390625 L 3.96875 -1.390625 C 4.0625 -0.9375 4.125 -0.453125 4.25 -0.015625 C 4.390625 0.03125 4.625 -0.015625 4.796875 0 C 4.78125 -0.140625 3.9375 -4.359375 3.890625 -4.609375 C 3.875 -4.65625 3.84375 -4.890625 3.8125 -4.90625 C 3.765625 -4.90625 3.71875 -4.90625 3.671875 -4.90625 L 3.40625 -4.90625 C 3.359375 -4.90625 3.296875 -4.921875 3.265625 -4.890625 C 3.21875 -4.859375 3.078125 -4.609375 3.078125 -4.609375 L 1.0625 -1.375 L 0.515625 -0.46875 C 0.40625 -0.328125 0.296875 -0.15625 0.21875 0 Z M 3.40625 -4.328125 C 3.546875 -3.484375 3.71875 -2.640625 3.875 -1.8125 L 1.859375 -1.8125 C 2.359375 -2.65625 2.890625 -3.484375 3.40625 -4.328125 Z M 3.40625 -4.328125 "/>
</symbol>
<symbol overflow="visible" id="glyph0-4">
<path style="stroke:none;" d="M 1.765625 -4.84375 L 0.75 0 L 2.203125 0 C 2.453125 0 2.703125 0.015625 2.96875 0 C 3.78125 -0.078125 4.578125 -0.484375 4.875 -1.109375 C 5.03125 -1.5 4.953125 -1.859375 4.625 -2.140625 C 4.359375 -2.359375 4.015625 -2.484375 3.671875 -2.53125 C 3.8125 -2.578125 3.9375 -2.59375 4.078125 -2.640625 C 4.59375 -2.8125 5.15625 -3.171875 5.21875 -3.703125 C 5.21875 -3.75 5.21875 -3.8125 5.21875 -3.875 C 5.140625 -4.28125 4.875 -4.484375 4.53125 -4.640625 C 4.125 -4.84375 3.75 -4.84375 3.21875 -4.84375 L 1.765625 -4.84375 Z M 1.828125 -2.703125 C 1.84375 -2.859375 2.09375 -3.921875 2.171875 -4.296875 C 2.1875 -4.359375 2.171875 -4.421875 2.265625 -4.421875 L 2.828125 -4.421875 C 3.3125 -4.421875 3.828125 -4.453125 4.296875 -4.21875 C 4.46875 -4.125 4.6875 -4 4.71875 -3.78125 C 4.78125 -3.46875 4.515625 -3.21875 4.28125 -3.0625 C 4.234375 -3.03125 4.1875 -3.015625 4.140625 -2.984375 C 3.828125 -2.828125 3.484375 -2.75 3.125 -2.71875 C 2.9375 -2.703125 2.75 -2.703125 2.5625 -2.703125 L 1.828125 -2.703125 Z M 1.34375 -0.40625 C 1.359375 -0.515625 1.4375 -0.859375 1.453125 -0.90625 C 1.484375 -1.09375 1.6875 -2.015625 1.71875 -2.171875 C 1.734375 -2.25 1.71875 -2.328125 1.8125 -2.328125 L 2.515625 -2.328125 C 2.671875 -2.328125 2.84375 -2.328125 2.984375 -2.328125 C 3.375 -2.3125 3.765625 -2.234375 4.09375 -2.015625 C 4.265625 -1.90625 4.453125 -1.734375 4.453125 -1.453125 C 4.453125 -1.046875 4.078125 -0.796875 3.75 -0.640625 C 3.515625 -0.515625 3.109375 -0.421875 2.8125 -0.421875 C 2.328125 -0.40625 1.828125 -0.40625 1.34375 -0.40625 Z M 1.34375 -0.40625 "/>
</symbol>
<symbol overflow="visible" id="glyph0-5">
<path style="stroke:none;" d="M 4.15625 -0.796875 C 4.046875 -0.75 3.9375 -0.671875 3.828125 -0.625 C 3.546875 -0.5 3.28125 -0.40625 2.984375 -0.375 C 2.71875 -0.34375 2.453125 -0.328125 2.1875 -0.390625 C 1.921875 -0.46875 1.6875 -0.59375 1.515625 -0.78125 C 1.09375 -1.1875 1 -1.8125 1.109375 -2.375 C 1.28125 -3.28125 1.953125 -4.0625 2.8125 -4.375 C 3.265625 -4.53125 3.84375 -4.5 4.265625 -4.359375 C 4.515625 -4.25 4.453125 -4.265625 4.734375 -4.109375 L 4.9375 -4.640625 C 4.71875 -4.71875 4.515625 -4.78125 4.296875 -4.828125 C 3.953125 -4.90625 3.453125 -4.90625 3.109375 -4.859375 C 2.328125 -4.71875 1.734375 -4.296875 1.28125 -3.796875 C 0.65625 -3.078125 0.296875 -2 0.6875 -1.09375 C 0.75 -0.90625 0.859375 -0.734375 0.984375 -0.59375 C 1.375 -0.125 1.9375 0.09375 2.75 0.046875 C 3.234375 0.03125 3.5 -0.0625 3.890625 -0.234375 C 3.9375 -0.25 3.984375 -0.28125 4.03125 -0.296875 C 4.0625 -0.3125 4.078125 -0.328125 4.09375 -0.34375 C 4.125 -0.390625 4.15625 -0.78125 4.15625 -0.796875 Z M 4.15625 -0.796875 "/>
</symbol>
</g>
<clipPath id="clip1">
  <path d="M -219 666 L 393 666 L 393 -126 L -219 -126 L -219 666 Z M -219 666 "/>
</clipPath>
<clipPath id="clip2">
  <path d="M 4.867188 148.800781 L 172.867188 148.800781 L 172.867188 -1.199219 L 4.867188 -1.199219 L 4.867188 148.800781 Z M 4.867188 148.800781 "/>
</clipPath>
<clipPath id="clip3">
  <path d="M 169.789063 73.859375 C 169.789063 54.6875 162.171875 36.300781 148.613281 22.746094 C 135.058594 9.191406 116.675781 1.574219 97.503906 1.574219 C 78.332031 1.574219 59.949219 9.191406 46.394531 22.746094 C 32.839844 36.300781 25.222656 54.6875 25.222656 73.859375 C 25.222656 93.03125 32.839844 111.414063 46.394531 124.96875 C 59.949219 138.523438 78.332031 146.140625 97.503906 146.140625 C 116.675781 146.140625 135.058594 138.523438 148.613281 124.96875 C 162.171875 111.414063 169.789063 93.03125 169.789063 73.859375 Z M 169.789063 73.859375 "/>
</clipPath>
<clipPath id="clip4">
  <path d="M -219 666 L 393 666 L 393 -126 L -219 -126 L -219 666 Z M -219 666 "/>
</clipPath>
<clipPath id="clip5">
  <path d="M 4.867188 148.800781 L 172.867188 148.800781 L 172.867188 -1.199219 L 4.867188 -1.199219 L 4.867188 148.800781 Z M 4.867188 148.800781 "/>
</clipPath>
<clipPath id="clip6">
  <path d="M -219 666 L 393 666 L 393 -126 L -219 -126 L -219 666 Z M -219 666 "/>
</clipPath>
</defs>
<g id="surface0">
<g clip-path="url(#clip1)" clip-rule="nonzero">
<g clip-path="url(#clip2)" clip-rule="nonzero">
<g clip-path="url(#clip3)" clip-rule="nonzero">
<path style="fill:none;stroke-width:3;stroke-linecap:round;stroke-linejoin:round;stroke:rgb(0%,0%,0%);stroke-opacity:1;stroke-miterlimit:10;" d="M 385.197187 208.254375 L 1467.540937 1290.637187 " transform="matrix(0.1,0,0,-0.1,4.867,148.802)"/>
<path style="fill:none;stroke-width:3;stroke-linecap:round;stroke-linejoin:round;stroke:rgb(0%,0%,0%);stroke-opacity:1;stroke-miterlimit:10;" d="M 298.98625 294.42625 L 1381.369062 1376.809062 " transform="matrix(0.1,0,0,-0.1,4.867,148.802)"/>
<path style="fill:none;stroke-width:3;stroke-linecap:round;stroke-linejoin:round;stroke:rgb(0%,0%,0%);stroke-opacity:1;stroke-miterlimit:10;" d="M 471.369062 122.0825 L 1553.751875 1204.42625 " transform="matrix(0.1,0,0,-0.1,4.867,148.802)"/>
<path style="fill:none;stroke-width:3;stroke-linecap:round;stroke-linejoin:round;stroke:rgb(0%,0%,0%);stroke-opacity:1;stroke-miterlimit:10;" d="M 212.814375 380.637187 L 1295.197187 1463.02 " transform="matrix(0.1,0,0,-0.1,4.867,148.802)"/>
<path style="fill:none;stroke-width:3;stroke-linecap:round;stroke-linejoin:round;stroke:rgb(0%,0%,0%);stroke-opacity:1;stroke-miterlimit:10;" d="M 557.58 35.871562 L 1639.92375 1118.254375 " transform="matrix(0.1,0,0,-0.1,4.867,148.802)"/>
<path style="fill:none;stroke-width:3;stroke-linecap:round;stroke-linejoin:round;stroke:rgb(0%,0%,0%);stroke-opacity:1;stroke-miterlimit:10;" d="M 126.603437 466.809062 L 1208.98625 1549.191875 " transform="matrix(0.1,0,0,-0.1,4.867,148.802)"/>
<path style="fill:none;stroke-width:3;stroke-linecap:round;stroke-linejoin:round;stroke:rgb(0%,0%,0%);stroke-opacity:1;stroke-miterlimit:10;" d="M 643.751875 -50.300313 L 1726.134687 1032.043437 " transform="matrix(0.1,0,0,-0.1,4.867,148.802)"/>
<path style="fill:none;stroke-width:3;stroke-linecap:round;stroke-linejoin:round;stroke:rgb(0%,0%,0%);stroke-opacity:1;stroke-miterlimit:10;" d="M 40.431562 553.02 L 1122.814375 1635.402812 " transform="matrix(0.1,0,0,-0.1,4.867,148.802)"/>
<path style="fill:none;stroke-width:3;stroke-linecap:round;stroke-linejoin:round;stroke:rgb(0%,0%,0%);stroke-opacity:1;stroke-miterlimit:10;" d="M 729.92375 -136.51125 L 1812.306562 945.871562 " transform="matrix(0.1,0,0,-0.1,4.867,148.802)"/>
<path style="fill:none;stroke-width:3;stroke-linecap:round;stroke-linejoin:round;stroke:rgb(0%,0%,0%);stroke-opacity:1;stroke-miterlimit:10;" d="M -45.740313 639.191875 L 1036.603437 1721.574687 " transform="matrix(0.1,0,0,-0.1,4.867,148.802)"/>
<path style="fill:none;stroke-width:3;stroke-linecap:round;stroke-linejoin:round;stroke:rgb(0%,0%,0%);stroke-opacity:1;stroke-miterlimit:10;" d="M 816.134687 -222.683125 L 1898.5175 859.699687 " transform="matrix(0.1,0,0,-0.1,4.867,148.802)"/>
</g>
</g>
</g>
<g clip-path="url(#clip4)" clip-rule="nonzero">
<g clip-path="url(#clip5)" clip-rule="nonzero">
<path style="fill:none;stroke-width:5;stroke-linecap:butt;stroke-linejoin:round;stroke:rgb(0%,0%,0%);stroke-opacity:1;stroke-miterlimit:10;" d="M 1649.220625 749.42625 C 1649.220625 941.145 1573.04875 1125.012187 1437.462812 1260.559062 C 1301.915937 1396.105937 1118.087812 1472.277812 926.369062 1472.277812 C 734.650312 1472.277812 550.822187 1396.105937 415.275312 1260.559062 C 279.728437 1125.012187 203.556562 941.145 203.556562 749.42625 C 203.556562 557.7075 279.728437 373.879375 415.275312 238.3325 C 550.822187 102.785625 734.650312 26.61375 926.369062 26.61375 C 1118.087812 26.61375 1301.915937 102.785625 1437.462812 238.3325 C 1573.04875 373.879375 1649.220625 557.7075 1649.220625 749.42625 Z M 1649.220625 749.42625 " transform="matrix(0.1,0,0,-0.1,4.867,148.802)"/>
<path style="fill:none;stroke-width:5;stroke-linecap:round;stroke-linejoin:round;stroke:rgb(0%,0%,0%);stroke-opacity:1;stroke-miterlimit:10;" d="M 1648.634687 720.754375 C 1649.025312 730.285625 1649.220625 739.855937 1649.220625 749.42625 C 1649.220625 759.035625 1649.025312 768.605937 1648.634687 778.137187 " transform="matrix(0.1,0,0,-0.1,4.867,148.802)"/>
<path style=" stroke:none;fill-rule:nonzero;fill:rgb(0%,0%,0%);fill-opacity:1;" d="M 170.960938 76.523438 C 170.792969 75.605469 170.609375 74.691406 170.40625 73.777344 C 170.199219 72.839844 169.972656 71.910156 169.730469 70.988281 C 169.5625 71.929688 169.371094 72.867188 169.164063 73.800781 C 168.964844 74.714844 168.742188 75.621094 168.507813 76.523438 "/>
<path style="fill:none;stroke-width:5;stroke-linecap:round;stroke-linejoin:round;stroke:rgb(0%,0%,0%);stroke-opacity:1;stroke-miterlimit:10;" d="M 1660.939375 722.785625 C 1659.259687 731.965312 1657.42375 741.105937 1655.3925 750.246562 C 1653.322187 759.621562 1651.056562 768.918437 1648.634687 778.137187 C 1646.955 768.723125 1645.040937 759.348125 1642.970625 750.012187 C 1640.978437 740.871562 1638.751875 731.809062 1636.408125 722.785625 L 1660.939375 722.785625 Z M 1660.939375 722.785625 " transform="matrix(0.1,0,0,-0.1,4.867,148.802)"/>
<path style="fill:none;stroke-width:5;stroke-linecap:round;stroke-linejoin:round;stroke:rgb(0%,0%,0%);stroke-opacity:1;stroke-miterlimit:10;" d="M 955.08 1471.691875 C 945.509687 1472.0825 935.978437 1472.277812 926.369062 1472.277812 C 916.79875 1472.277812 907.228437 1472.0825 897.697187 1471.691875 " transform="matrix(0.1,0,0,-0.1,4.867,148.802)"/>
<path style=" stroke:none;fill-rule:nonzero;fill:rgb(0%,0%,0%);fill-opacity:1;" d="M 100.167969 0.402344 C 99.253906 0.566406 98.335938 0.753906 97.425781 0.953125 C 96.488281 1.160156 95.558594 1.386719 94.636719 1.632813 C 95.574219 1.800781 96.511719 1.988281 97.449219 2.195313 C 98.363281 2.398438 99.269531 2.617188 100.171875 2.855469 "/>
<path style="fill:none;stroke-width:5;stroke-linecap:round;stroke-linejoin:round;stroke:rgb(0%,0%,0%);stroke-opacity:1;stroke-miterlimit:10;" d="M 953.009687 1483.996562 C 943.869062 1482.355937 934.689375 1480.480937 925.587812 1478.48875 C 916.212812 1476.418437 906.915937 1474.152812 897.697187 1471.691875 C 907.072187 1470.012187 916.447187 1468.137187 925.822187 1466.066875 C 934.962812 1464.035625 944.025312 1461.848125 953.04875 1459.465312 L 953.009687 1483.996562 Z M 953.009687 1483.996562 " transform="matrix(0.1,0,0,-0.1,4.867,148.802)"/>
<path style="fill:none;stroke-width:5;stroke-linecap:round;stroke-linejoin:round;stroke:rgb(0%,0%,0%);stroke-opacity:1;stroke-miterlimit:10;" d="M 212.540937 863.215312 C 209.572187 844.504375 207.306562 825.637187 205.822187 806.691875 " transform="matrix(0.1,0,0,-0.1,4.867,148.802)"/>
<path style=" stroke:none;fill-rule:nonzero;fill:rgb(0%,0%,0%);fill-opacity:1;" d="M 24.882813 62.492188 C 24.996094 64.375 25.183594 66.257813 25.449219 68.132813 C 26.003906 66.320313 26.628906 64.535156 27.320313 62.78125 "/>
<path style="fill:none;stroke-width:5;stroke-linecap:round;stroke-linejoin:round;stroke:rgb(0%,0%,0%);stroke-opacity:1;stroke-miterlimit:10;" d="M 200.158125 863.098125 C 201.290937 844.27 203.165937 825.441875 205.822187 806.691875 C 211.369062 824.816875 217.619062 842.668437 224.533125 860.2075 L 200.158125 863.098125 Z M 200.158125 863.098125 " transform="matrix(0.1,0,0,-0.1,4.867,148.802)"/>
<path style="fill:none;stroke-width:5;stroke-linecap:round;stroke-linejoin:round;stroke:rgb(0%,0%,0%);stroke-opacity:1;stroke-miterlimit:10;" d="M 897.697187 27.160625 C 907.228437 26.809062 916.79875 26.61375 926.369062 26.61375 C 935.978437 26.61375 945.509687 26.809062 955.08 27.160625 " transform="matrix(0.1,0,0,-0.1,4.867,148.802)"/>
<path style=" stroke:none;fill-rule:nonzero;fill:rgb(0%,0%,0%);fill-opacity:1;" d="M 94.839844 147.3125 C 95.757813 147.148438 96.671875 146.964844 97.585938 146.761719 C 98.519531 146.554688 99.449219 146.328125 100.375 146.085938 C 99.433594 145.914063 98.496094 145.726563 97.558594 145.519531 C 96.648438 145.316406 95.738281 145.097656 94.839844 144.859375 "/>
<path style="fill:none;stroke-width:5;stroke-linecap:round;stroke-linejoin:round;stroke:rgb(0%,0%,0%);stroke-opacity:1;stroke-miterlimit:10;" d="M 899.728437 14.895 C 908.908125 16.535625 918.04875 18.371562 927.189375 20.402812 C 936.525312 22.473125 945.822187 24.73875 955.08 27.160625 C 945.665937 28.879375 936.290937 30.754375 926.915937 32.824687 C 917.814375 34.855937 908.712812 37.043437 899.728437 39.42625 L 899.728437 14.895 Z M 899.728437 14.895 " transform="matrix(0.1,0,0,-0.1,4.867,148.802)"/>
<path style="fill:none;stroke-width:5;stroke-linecap:round;stroke-linejoin:round;stroke:rgb(0%,0%,0%);stroke-opacity:1;stroke-miterlimit:10;" d="M 19.29875 40.793437 L 19.29875 267.55125 " transform="matrix(0.1,0,0,-0.1,4.867,148.802)"/>
<path style=" stroke:none;fill-rule:nonzero;fill:rgb(0%,0%,0%);fill-opacity:1;" d="M 8.023438 127.582031 L 6.796875 122.046875 L 5.570313 127.582031 "/>
<path style="fill:none;stroke-width:5;stroke-linecap:round;stroke-linejoin:round;stroke:rgb(0%,0%,0%);stroke-opacity:1;stroke-miterlimit:10;" d="M 31.564375 212.199687 L 19.29875 267.55125 L 7.033125 212.199687 L 31.564375 212.199687 Z M 31.564375 212.199687 " transform="matrix(0.1,0,0,-0.1,4.867,148.802)"/>
<path style="fill:none;stroke-width:5;stroke-linecap:round;stroke-linejoin:round;stroke:rgb(0%,0%,0%);stroke-opacity:1;stroke-miterlimit:10;" d="M 19.29875 40.793437 L 217.697187 40.793437 " transform="matrix(0.1,0,0,-0.1,4.867,148.802)"/>
<path style=" stroke:none;fill-rule:nonzero;fill:rgb(0%,0%,0%);fill-opacity:1;" d="M 21.101563 145.949219 L 26.636719 144.722656 L 21.101563 143.496094 "/>
<path style="fill:none;stroke-width:5;stroke-linecap:round;stroke-linejoin:round;stroke:rgb(0%,0%,0%);stroke-opacity:1;stroke-miterlimit:10;" d="M 162.345625 28.527812 L 217.697187 40.793437 L 162.345625 53.059062 L 162.345625 28.527812 Z M 162.345625 28.527812 " transform="matrix(0.1,0,0,-0.1,4.867,148.802)"/>
<path style="fill:none;stroke-width:5;stroke-linecap:round;stroke-linejoin:round;stroke:rgb(0%,0%,0%);stroke-opacity:1;stroke-miterlimit:10;" d="M 969.337812 171.887187 C 962.73625 183.293437 951.915937 191.574687 939.220625 195.012187 C 926.48625 198.410625 912.970625 196.61375 901.564375 190.05125 C 890.158125 183.449687 881.876875 172.629375 878.439375 159.934062 C 875.040937 147.199687 876.837812 133.684062 883.400312 122.277812 C 890.001875 110.871562 900.822187 102.55125 913.5175 99.152812 C 926.251875 95.754375 939.7675 97.55125 951.17375 104.11375 C 962.58 110.715312 970.900312 121.535625 974.29875 134.230937 C 977.697187 146.965312 975.900312 160.480937 969.337812 171.887187 Z M 969.337812 171.887187 " transform="matrix(0.1,0,0,-0.1,4.867,148.802)"/>
<path style=" stroke:none;fill-rule:nonzero;fill:rgb(0%,0%,0%);fill-opacity:1;" d="M 103.050781 135.675781 C 103.074219 135.515625 103.089844 135.347656 103.097656 135.179688 C 103.15625 133.867188 102.6875 132.582031 101.800781 131.613281 C 102.195313 132.867188 102.078125 134.230469 101.46875 135.394531 C 101.390625 135.542969 101.308594 135.6875 101.21875 135.824219 "/>
<path style="fill:none;stroke-width:5;stroke-linecap:round;stroke-linejoin:round;stroke:rgb(0%,0%,0%);stroke-opacity:1;stroke-miterlimit:10;" d="M 981.837812 131.262187 C 982.072187 132.86375 982.228437 134.543437 982.306562 136.223125 C 982.8925 149.348125 978.205 162.199687 969.337812 171.887187 C 973.283125 159.348125 972.11125 145.715312 966.0175 134.074687 C 965.23625 132.590312 964.415937 131.145 963.5175 129.777812 L 981.837812 131.262187 Z M 981.837812 131.262187 " transform="matrix(0.1,0,0,-0.1,4.867,148.802)"/>
<path style="fill:none;stroke-width:5;stroke-linecap:round;stroke-linejoin:round;stroke:rgb(0%,0%,0%);stroke-opacity:1;stroke-miterlimit:10;" d="M 969.337812 372.668437 C 962.73625 384.074687 951.915937 392.395 939.220625 395.793437 C 926.48625 399.191875 912.970625 397.395 901.564375 390.8325 C 890.158125 384.230937 881.876875 373.410625 878.439375 360.715312 C 875.040937 347.980937 876.837812 334.465312 883.400312 323.059062 C 890.001875 311.652812 900.822187 303.371562 913.5175 299.934062 C 926.251875 296.535625 939.7675 298.3325 951.17375 304.895 C 962.58 311.496562 970.900312 322.316875 974.29875 335.012187 C 977.697187 347.746562 975.900312 361.262187 969.337812 372.668437 Z M 969.337812 372.668437 " transform="matrix(0.1,0,0,-0.1,4.867,148.802)"/>
<path style=" stroke:none;fill-rule:nonzero;fill:rgb(0%,0%,0%);fill-opacity:1;" d="M 103.050781 115.597656 C 103.074219 115.433594 103.089844 115.269531 103.097656 115.101563 C 103.15625 113.789063 102.6875 112.503906 101.800781 111.535156 C 102.195313 112.789063 102.078125 114.148438 101.46875 115.316406 C 101.390625 115.464844 101.308594 115.609375 101.21875 115.746094 "/>
<path style="fill:none;stroke-width:5;stroke-linecap:round;stroke-linejoin:round;stroke:rgb(0%,0%,0%);stroke-opacity:1;stroke-miterlimit:10;" d="M 981.837812 332.043437 C 982.072187 333.684062 982.228437 335.324687 982.306562 337.004375 C 982.8925 350.129375 978.205 362.980937 969.337812 372.668437 C 973.283125 360.129375 972.11125 346.535625 966.0175 334.855937 C 965.23625 333.371562 964.415937 331.92625 963.5175 330.559062 L 981.837812 332.043437 Z M 981.837812 332.043437 " transform="matrix(0.1,0,0,-0.1,4.867,148.802)"/>
<path style="fill:none;stroke-width:5;stroke-linecap:round;stroke-linejoin:round;stroke:rgb(0%,0%,0%);stroke-opacity:1;stroke-miterlimit:10;" d="M 969.337812 573.449687 C 962.73625 584.855937 951.915937 593.17625 939.220625 596.574687 C 926.48625 599.973125 912.970625 598.17625 901.564375 591.61375 C 890.158125 585.05125 881.876875 574.191875 878.439375 561.496562 C 875.040937 548.80125 876.837812 535.246562 883.400312 523.840312 C 890.001875 512.473125 900.822187 504.152812 913.5175 500.754375 C 926.251875 497.316875 939.7675 499.11375 951.17375 505.67625 C 962.58 512.277812 970.900312 523.098125 974.29875 535.8325 C 977.697187 548.527812 975.900312 562.043437 969.337812 573.449687 Z M 969.337812 573.449687 " transform="matrix(0.1,0,0,-0.1,4.867,148.802)"/>
<path style=" stroke:none;fill-rule:nonzero;fill:rgb(0%,0%,0%);fill-opacity:1;" d="M 103.050781 95.519531 C 103.074219 95.355469 103.089844 95.191406 103.097656 95.023438 C 103.15625 93.710938 102.6875 92.425781 101.800781 91.457031 C 102.195313 92.710938 102.078125 94.070313 101.46875 95.238281 C 101.390625 95.386719 101.308594 95.53125 101.21875 95.667969 "/>
<path style="fill:none;stroke-width:5;stroke-linecap:round;stroke-linejoin:round;stroke:rgb(0%,0%,0%);stroke-opacity:1;stroke-miterlimit:10;" d="M 981.837812 532.824687 C 982.072187 534.465312 982.228437 536.105937 982.306562 537.785625 C 982.8925 550.910625 978.205 563.762187 969.337812 573.449687 C 973.283125 560.910625 972.11125 547.316875 966.0175 535.637187 C 965.23625 534.152812 964.415937 532.7075 963.5175 531.340312 L 981.837812 532.824687 Z M 981.837812 532.824687 " transform="matrix(0.1,0,0,-0.1,4.867,148.802)"/>
<path style="fill:none;stroke-width:5;stroke-linecap:round;stroke-linejoin:round;stroke:rgb(0%,0%,0%);stroke-opacity:1;stroke-miterlimit:10;" d="M 969.337812 774.230937 C 962.73625 785.637187 951.915937 793.9575 939.220625 797.355937 C 926.48625 800.754375 912.970625 798.996562 901.564375 792.395 C 890.158125 785.8325 881.876875 774.973125 878.439375 762.277812 C 875.040937 749.5825 876.837812 736.027812 883.400312 724.621562 C 890.001875 713.254375 900.822187 704.934062 913.5175 701.535625 C 926.251875 698.137187 939.7675 699.895 951.17375 706.496562 C 962.58 713.059062 970.900312 723.879375 974.29875 736.61375 C 977.697187 749.309062 975.900312 762.86375 969.337812 774.230937 Z M 969.337812 774.230937 " transform="matrix(0.1,0,0,-0.1,4.867,148.802)"/>
<path style=" stroke:none;fill-rule:nonzero;fill:rgb(0%,0%,0%);fill-opacity:1;" d="M 103.050781 75.441406 C 103.074219 75.277344 103.089844 75.113281 103.097656 74.945313 C 103.15625 73.632813 102.6875 72.347656 101.800781 71.378906 C 102.195313 72.632813 102.078125 73.992188 101.46875 75.160156 C 101.390625 75.308594 101.308594 75.453125 101.21875 75.589844 "/>
<path style="fill:none;stroke-width:5;stroke-linecap:round;stroke-linejoin:round;stroke:rgb(0%,0%,0%);stroke-opacity:1;stroke-miterlimit:10;" d="M 981.837812 733.605937 C 982.072187 735.246562 982.228437 736.887187 982.306562 738.566875 C 982.8925 751.691875 978.205 764.543437 969.337812 774.230937 C 973.283125 761.691875 972.11125 748.098125 966.0175 736.418437 C 965.23625 734.934062 964.415937 733.48875 963.5175 732.121562 L 981.837812 733.605937 Z M 981.837812 733.605937 " transform="matrix(0.1,0,0,-0.1,4.867,148.802)"/>
<path style="fill:none;stroke-width:5;stroke-linecap:round;stroke-linejoin:round;stroke:rgb(0%,0%,0%);stroke-opacity:1;stroke-miterlimit:10;" d="M 969.337812 975.012187 C 962.73625 986.418437 951.915937 994.73875 939.220625 998.137187 C 926.48625 1001.535625 912.970625 999.777812 901.564375 993.17625 C 890.158125 986.61375 881.876875 975.754375 878.439375 963.059062 C 875.040937 950.36375 876.837812 936.809062 883.400312 925.441875 C 890.001875 914.035625 900.822187 905.715312 913.5175 902.316875 C 926.251875 898.918437 939.7675 900.67625 951.17375 907.277812 C 962.58 913.840312 970.900312 924.699687 974.29875 937.395 C 977.697187 950.090312 975.900312 963.645 969.337812 975.012187 Z M 969.337812 975.012187 " transform="matrix(0.1,0,0,-0.1,4.867,148.802)"/>
<path style=" stroke:none;fill-rule:nonzero;fill:rgb(0%,0%,0%);fill-opacity:1;" d="M 103.050781 55.363281 C 103.074219 55.199219 103.089844 55.03125 103.097656 54.867188 C 103.15625 53.550781 102.6875 52.269531 101.800781 51.300781 C 102.195313 52.554688 102.078125 53.914063 101.46875 55.082031 C 101.390625 55.230469 101.308594 55.371094 101.21875 55.511719 "/>
<path style="fill:none;stroke-width:5;stroke-linecap:round;stroke-linejoin:round;stroke:rgb(0%,0%,0%);stroke-opacity:1;stroke-miterlimit:10;" d="M 981.837812 934.387187 C 982.072187 936.027812 982.228437 937.7075 982.306562 939.348125 C 982.8925 952.512187 978.205 965.324687 969.337812 975.012187 C 973.283125 962.473125 972.11125 948.879375 966.0175 937.199687 C 965.23625 935.715312 964.415937 934.309062 963.5175 932.902812 L 981.837812 934.387187 Z M 981.837812 934.387187 " transform="matrix(0.1,0,0,-0.1,4.867,148.802)"/>
<path style="fill:none;stroke-width:5;stroke-linecap:round;stroke-linejoin:round;stroke:rgb(0%,0%,0%);stroke-opacity:1;stroke-miterlimit:10;" d="M 969.337812 1175.8325 C 962.73625 1187.199687 951.915937 1195.52 939.220625 1198.918437 C 926.48625 1202.355937 912.970625 1200.559062 901.564375 1193.996562 C 890.158125 1187.395 881.876875 1176.574687 878.439375 1163.879375 C 875.040937 1151.145 876.837812 1137.629375 883.400312 1126.223125 C 890.001875 1114.816875 900.822187 1106.496562 913.5175 1103.098125 C 926.251875 1099.699687 939.7675 1101.496562 951.17375 1108.059062 C 962.58 1114.621562 970.900312 1125.480937 974.29875 1138.17625 C 977.697187 1150.871562 975.900312 1164.42625 969.337812 1175.8325 Z M 969.337812 1175.8325 " transform="matrix(0.1,0,0,-0.1,4.867,148.802)"/>
<path style=" stroke:none;fill-rule:nonzero;fill:rgb(0%,0%,0%);fill-opacity:1;" d="M 103.050781 35.285156 C 103.074219 35.121094 103.089844 34.953125 103.097656 34.789063 C 103.15625 33.472656 102.6875 32.191406 101.800781 31.21875 C 102.195313 32.476563 102.078125 33.835938 101.46875 35.003906 C 101.390625 35.148438 101.308594 35.292969 101.21875 35.433594 "/>
<path style="fill:none;stroke-width:5;stroke-linecap:round;stroke-linejoin:round;stroke:rgb(0%,0%,0%);stroke-opacity:1;stroke-miterlimit:10;" d="M 981.837812 1135.168437 C 982.072187 1136.809062 982.228437 1138.48875 982.306562 1140.129375 C 982.8925 1153.293437 978.205 1166.105937 969.337812 1175.8325 C 973.283125 1163.254375 972.11125 1149.660625 966.0175 1137.980937 C 965.23625 1136.535625 964.415937 1135.090312 963.5175 1133.684062 L 981.837812 1135.168437 Z M 981.837812 1135.168437 " transform="matrix(0.1,0,0,-0.1,4.867,148.802)"/>
<path style="fill:none;stroke-width:5;stroke-linecap:round;stroke-linejoin:round;stroke:rgb(0%,0%,0%);stroke-opacity:1;stroke-miterlimit:10;" d="M 969.337812 1376.61375 C 962.73625 1387.980937 951.915937 1396.30125 939.220625 1399.73875 C 926.48625 1403.137187 912.970625 1401.340312 901.564375 1394.777812 C 890.158125 1388.17625 881.876875 1377.355937 878.439375 1364.621562 C 875.040937 1351.92625 876.837812 1338.371562 883.400312 1327.004375 C 890.001875 1315.598125 900.822187 1307.277812 913.5175 1303.879375 C 926.251875 1300.480937 939.7675 1302.277812 951.17375 1308.840312 C 962.58 1315.402812 970.900312 1326.262187 974.29875 1338.9575 C 977.697187 1351.652812 975.900312 1365.2075 969.337812 1376.61375 Z M 969.337812 1376.61375 " transform="matrix(0.1,0,0,-0.1,4.867,148.802)"/>
<path style=" stroke:none;fill-rule:nonzero;fill:rgb(0%,0%,0%);fill-opacity:1;" d="M 103.050781 15.203125 C 103.074219 15.039063 103.089844 14.875 103.097656 14.710938 C 103.15625 13.394531 102.6875 12.109375 101.800781 11.140625 C 102.195313 12.394531 102.078125 13.757813 101.46875 14.921875 C 101.390625 15.070313 101.308594 15.214844 101.21875 15.351563 "/>
<path style="fill:none;stroke-width:5;stroke-linecap:round;stroke-linejoin:round;stroke:rgb(0%,0%,0%);stroke-opacity:1;stroke-miterlimit:10;" d="M 981.837812 1335.98875 C 982.072187 1337.629375 982.228437 1339.27 982.306562 1340.910625 C 982.8925 1354.074687 978.205 1366.92625 969.337812 1376.61375 C 973.283125 1364.074687 972.11125 1350.441875 966.0175 1338.80125 C 965.23625 1337.316875 964.415937 1335.871562 963.5175 1334.504375 L 981.837812 1335.98875 Z M 981.837812 1335.98875 " transform="matrix(0.1,0,0,-0.1,4.867,148.802)"/>
<path style="fill:none;stroke-width:5;stroke-linecap:round;stroke-linejoin:round;stroke:rgb(0%,0%,0%);stroke-opacity:1;stroke-miterlimit:10;" d="M 1170.119062 171.887187 C 1163.556562 183.293437 1152.697187 191.574687 1140.001875 195.012187 C 1127.306562 198.410625 1113.751875 196.61375 1102.345625 190.05125 C 1090.978437 183.449687 1082.658125 172.629375 1079.259687 159.934062 C 1075.822187 147.199687 1077.619062 133.684062 1084.181562 122.277812 C 1090.783125 110.871562 1101.603437 102.55125 1114.337812 99.152812 C 1127.033125 95.754375 1140.587812 97.55125 1151.955 104.11375 C 1163.36125 110.715312 1171.681562 121.535625 1175.08 134.230937 C 1178.478437 146.965312 1176.681562 160.480937 1170.119062 171.887187 Z M 1170.119062 171.887187 " transform="matrix(0.1,0,0,-0.1,4.867,148.802)"/>
<path style=" stroke:none;fill-rule:nonzero;fill:rgb(0%,0%,0%);fill-opacity:1;" d="M 123.132813 135.675781 C 123.15625 135.515625 123.171875 135.347656 123.179688 135.179688 C 123.234375 133.867188 122.769531 132.582031 121.878906 131.613281 C 122.273438 132.867188 122.15625 134.230469 121.546875 135.394531 C 121.472656 135.542969 121.386719 135.6875 121.296875 135.824219 "/>
<path style="fill:none;stroke-width:5;stroke-linecap:round;stroke-linejoin:round;stroke:rgb(0%,0%,0%);stroke-opacity:1;stroke-miterlimit:10;" d="M 1182.658125 131.262187 C 1182.8925 132.86375 1183.04875 134.543437 1183.126875 136.223125 C 1183.67375 149.348125 1179.025312 162.199687 1170.119062 171.887187 C 1174.064375 159.348125 1172.8925 145.715312 1166.79875 134.074687 C 1166.056562 132.590312 1165.197187 131.145 1164.29875 129.777812 L 1182.658125 131.262187 Z M 1182.658125 131.262187 " transform="matrix(0.1,0,0,-0.1,4.867,148.802)"/>
<path style="fill:none;stroke-width:5;stroke-linecap:round;stroke-linejoin:round;stroke:rgb(0%,0%,0%);stroke-opacity:1;stroke-miterlimit:10;" d="M 768.556562 171.887187 C 761.955 183.293437 751.134687 191.574687 738.439375 195.012187 C 725.705 198.410625 712.189375 196.61375 700.783125 190.05125 C 689.376875 183.449687 681.056562 172.629375 677.658125 159.934062 C 674.259687 147.199687 676.056562 133.684062 682.619062 122.277812 C 689.220625 110.871562 700.040937 102.55125 712.73625 99.152812 C 725.470625 95.754375 738.98625 97.55125 750.3925 104.11375 C 761.79875 110.715312 770.08 121.535625 773.5175 134.230937 C 776.915937 146.965312 775.119062 160.480937 768.556562 171.887187 Z M 768.556562 171.887187 " transform="matrix(0.1,0,0,-0.1,4.867,148.802)"/>
<path style=" stroke:none;fill-rule:nonzero;fill:rgb(0%,0%,0%);fill-opacity:1;" d="M 82.972656 135.675781 C 82.996094 135.515625 83.011719 135.347656 83.019531 135.179688 C 83.078125 133.867188 82.609375 132.582031 81.722656 131.613281 C 82.117188 132.867188 82 134.230469 81.390625 135.394531 C 81.3125 135.542969 81.230469 135.6875 81.140625 135.824219 "/>
<path style="fill:none;stroke-width:5;stroke-linecap:round;stroke-linejoin:round;stroke:rgb(0%,0%,0%);stroke-opacity:1;stroke-miterlimit:10;" d="M 781.056562 131.262187 C 781.290937 132.86375 781.447187 134.543437 781.525312 136.223125 C 782.11125 149.348125 777.42375 162.199687 768.556562 171.887187 C 772.501875 159.348125 771.33 145.715312 765.23625 134.074687 C 764.455 132.590312 763.634687 131.145 762.73625 129.777812 L 781.056562 131.262187 Z M 781.056562 131.262187 " transform="matrix(0.1,0,0,-0.1,4.867,148.802)"/>
<path style="fill:none;stroke-width:5;stroke-linecap:round;stroke-linejoin:round;stroke:rgb(0%,0%,0%);stroke-opacity:1;stroke-miterlimit:10;" d="M 1170.119062 372.668437 C 1163.556562 384.074687 1152.697187 392.395 1140.001875 395.793437 C 1127.306562 399.191875 1113.751875 397.395 1102.345625 390.8325 C 1090.978437 384.230937 1082.658125 373.410625 1079.259687 360.715312 C 1075.822187 347.980937 1077.619062 334.465312 1084.181562 323.059062 C 1090.783125 311.652812 1101.603437 303.371562 1114.337812 299.934062 C 1127.033125 296.535625 1140.587812 298.3325 1151.955 304.895 C 1163.36125 311.496562 1171.681562 322.316875 1175.08 335.012187 C 1178.478437 347.746562 1176.681562 361.262187 1170.119062 372.668437 Z M 1170.119062 372.668437 " transform="matrix(0.1,0,0,-0.1,4.867,148.802)"/>
<path style=" stroke:none;fill-rule:nonzero;fill:rgb(0%,0%,0%);fill-opacity:1;" d="M 123.132813 115.597656 C 123.15625 115.433594 123.171875 115.269531 123.179688 115.101563 C 123.234375 113.789063 122.769531 112.503906 121.878906 111.535156 C 122.273438 112.789063 122.15625 114.148438 121.546875 115.316406 C 121.472656 115.464844 121.386719 115.609375 121.296875 115.746094 "/>
<path style="fill:none;stroke-width:5;stroke-linecap:round;stroke-linejoin:round;stroke:rgb(0%,0%,0%);stroke-opacity:1;stroke-miterlimit:10;" d="M 1182.658125 332.043437 C 1182.8925 333.684062 1183.04875 335.324687 1183.126875 337.004375 C 1183.67375 350.129375 1179.025312 362.980937 1170.119062 372.668437 C 1174.064375 360.129375 1172.8925 346.535625 1166.79875 334.855937 C 1166.056562 333.371562 1165.197187 331.92625 1164.29875 330.559062 L 1182.658125 332.043437 Z M 1182.658125 332.043437 " transform="matrix(0.1,0,0,-0.1,4.867,148.802)"/>
<path style="fill:none;stroke-width:5;stroke-linecap:round;stroke-linejoin:round;stroke:rgb(0%,0%,0%);stroke-opacity:1;stroke-miterlimit:10;" d="M 768.556562 372.668437 C 761.955 384.074687 751.134687 392.395 738.439375 395.793437 C 725.705 399.191875 712.189375 397.395 700.783125 390.8325 C 689.376875 384.230937 681.056562 373.410625 677.658125 360.715312 C 674.259687 347.980937 676.056562 334.465312 682.619062 323.059062 C 689.220625 311.652812 700.040937 303.371562 712.73625 299.934062 C 725.470625 296.535625 738.98625 298.3325 750.3925 304.895 C 761.79875 311.496562 770.08 322.316875 773.5175 335.012187 C 776.915937 347.746562 775.119062 361.262187 768.556562 372.668437 Z M 768.556562 372.668437 " transform="matrix(0.1,0,0,-0.1,4.867,148.802)"/>
<path style=" stroke:none;fill-rule:nonzero;fill:rgb(0%,0%,0%);fill-opacity:1;" d="M 82.972656 115.597656 C 82.996094 115.433594 83.011719 115.269531 83.019531 115.101563 C 83.078125 113.789063 82.609375 112.503906 81.722656 111.535156 C 82.117188 112.789063 82 114.148438 81.390625 115.316406 C 81.3125 115.464844 81.230469 115.609375 81.140625 115.746094 "/>
<path style="fill:none;stroke-width:5;stroke-linecap:round;stroke-linejoin:round;stroke:rgb(0%,0%,0%);stroke-opacity:1;stroke-miterlimit:10;" d="M 781.056562 332.043437 C 781.290937 333.684062 781.447187 335.324687 781.525312 337.004375 C 782.11125 350.129375 777.42375 362.980937 768.556562 372.668437 C 772.501875 360.129375 771.33 346.535625 765.23625 334.855937 C 764.455 333.371562 763.634687 331.92625 762.73625 330.559062 L 781.056562 332.043437 Z M 781.056562 332.043437 " transform="matrix(0.1,0,0,-0.1,4.867,148.802)"/>
<path style="fill:none;stroke-width:5;stroke-linecap:round;stroke-linejoin:round;stroke:rgb(0%,0%,0%);stroke-opacity:1;stroke-miterlimit:10;" d="M 1170.119062 573.449687 C 1163.556562 584.855937 1152.697187 593.17625 1140.001875 596.574687 C 1127.306562 599.973125 1113.751875 598.17625 1102.345625 591.61375 C 1090.978437 585.05125 1082.658125 574.191875 1079.259687 561.496562 C 1075.822187 548.80125 1077.619062 535.246562 1084.181562 523.840312 C 1090.783125 512.473125 1101.603437 504.152812 1114.337812 500.754375 C 1127.033125 497.316875 1140.587812 499.11375 1151.955 505.67625 C 1163.36125 512.277812 1171.681562 523.098125 1175.08 535.8325 C 1178.478437 548.527812 1176.681562 562.043437 1170.119062 573.449687 Z M 1170.119062 573.449687 " transform="matrix(0.1,0,0,-0.1,4.867,148.802)"/>
<path style=" stroke:none;fill-rule:nonzero;fill:rgb(0%,0%,0%);fill-opacity:1;" d="M 123.132813 95.519531 C 123.15625 95.355469 123.171875 95.191406 123.179688 95.023438 C 123.234375 93.710938 122.769531 92.425781 121.878906 91.457031 C 122.273438 92.710938 122.15625 94.070313 121.546875 95.238281 C 121.472656 95.386719 121.386719 95.53125 121.296875 95.667969 "/>
<path style="fill:none;stroke-width:5;stroke-linecap:round;stroke-linejoin:round;stroke:rgb(0%,0%,0%);stroke-opacity:1;stroke-miterlimit:10;" d="M 1182.658125 532.824687 C 1182.8925 534.465312 1183.04875 536.105937 1183.126875 537.785625 C 1183.67375 550.910625 1179.025312 563.762187 1170.119062 573.449687 C 1174.064375 560.910625 1172.8925 547.316875 1166.79875 535.637187 C 1166.056562 534.152812 1165.197187 532.7075 1164.29875 531.340312 L 1182.658125 532.824687 Z M 1182.658125 532.824687 " transform="matrix(0.1,0,0,-0.1,4.867,148.802)"/>
<path style="fill:none;stroke-width:5;stroke-linecap:round;stroke-linejoin:round;stroke:rgb(0%,0%,0%);stroke-opacity:1;stroke-miterlimit:10;" d="M 768.556562 573.449687 C 761.955 584.855937 751.134687 593.17625 738.439375 596.574687 C 725.705 599.973125 712.189375 598.17625 700.783125 591.61375 C 689.376875 585.05125 681.056562 574.191875 677.658125 561.496562 C 674.259687 548.80125 676.056562 535.246562 682.619062 523.840312 C 689.220625 512.473125 700.040937 504.152812 712.73625 500.754375 C 725.470625 497.316875 738.98625 499.11375 750.3925 505.67625 C 761.79875 512.277812 770.08 523.098125 773.5175 535.8325 C 776.915937 548.527812 775.119062 562.043437 768.556562 573.449687 Z M 768.556562 573.449687 " transform="matrix(0.1,0,0,-0.1,4.867,148.802)"/>
<path style=" stroke:none;fill-rule:nonzero;fill:rgb(0%,0%,0%);fill-opacity:1;" d="M 82.972656 95.519531 C 82.996094 95.355469 83.011719 95.191406 83.019531 95.023438 C 83.078125 93.710938 82.609375 92.425781 81.722656 91.457031 C 82.117188 92.710938 82 94.070313 81.390625 95.238281 C 81.3125 95.386719 81.230469 95.53125 81.140625 95.667969 "/>
<path style="fill:none;stroke-width:5;stroke-linecap:round;stroke-linejoin:round;stroke:rgb(0%,0%,0%);stroke-opacity:1;stroke-miterlimit:10;" d="M 781.056562 532.824687 C 781.290937 534.465312 781.447187 536.105937 781.525312 537.785625 C 782.11125 550.910625 777.42375 563.762187 768.556562 573.449687 C 772.501875 560.910625 771.33 547.316875 765.23625 535.637187 C 764.455 534.152812 763.634687 532.7075 762.73625 531.340312 L 781.056562 532.824687 Z M 781.056562 532.824687 " transform="matrix(0.1,0,0,-0.1,4.867,148.802)"/>
<path style="fill:none;stroke-width:5;stroke-linecap:round;stroke-linejoin:round;stroke:rgb(0%,0%,0%);stroke-opacity:1;stroke-miterlimit:10;" d="M 1170.119062 774.230937 C 1163.556562 785.637187 1152.697187 793.9575 1140.001875 797.355937 C 1127.306562 800.754375 1113.751875 798.996562 1102.345625 792.395 C 1090.978437 785.8325 1082.658125 774.973125 1079.259687 762.277812 C 1075.822187 749.5825 1077.619062 736.027812 1084.181562 724.621562 C 1090.783125 713.254375 1101.603437 704.934062 1114.337812 701.535625 C 1127.033125 698.137187 1140.587812 699.895 1151.955 706.496562 C 1163.36125 713.059062 1171.681562 723.879375 1175.08 736.61375 C 1178.478437 749.309062 1176.681562 762.86375 1170.119062 774.230937 Z M 1170.119062 774.230937 " transform="matrix(0.1,0,0,-0.1,4.867,148.802)"/>
<path style=" stroke:none;fill-rule:nonzero;fill:rgb(0%,0%,0%);fill-opacity:1;" d="M 123.132813 75.441406 C 123.15625 75.277344 123.171875 75.113281 123.179688 74.945313 C 123.234375 73.632813 122.769531 72.347656 121.878906 71.378906 C 122.273438 72.632813 122.15625 73.992188 121.546875 75.160156 C 121.472656 75.308594 121.386719 75.453125 121.296875 75.589844 "/>
<path style="fill:none;stroke-width:5;stroke-linecap:round;stroke-linejoin:round;stroke:rgb(0%,0%,0%);stroke-opacity:1;stroke-miterlimit:10;" d="M 1182.658125 733.605937 C 1182.8925 735.246562 1183.04875 736.887187 1183.126875 738.566875 C 1183.67375 751.691875 1179.025312 764.543437 1170.119062 774.230937 C 1174.064375 761.691875 1172.8925 748.098125 1166.79875 736.418437 C 1166.056562 734.934062 1165.197187 733.48875 1164.29875 732.121562 L 1182.658125 733.605937 Z M 1182.658125 733.605937 " transform="matrix(0.1,0,0,-0.1,4.867,148.802)"/>
<path style="fill:none;stroke-width:5;stroke-linecap:round;stroke-linejoin:round;stroke:rgb(0%,0%,0%);stroke-opacity:1;stroke-miterlimit:10;" d="M 768.556562 774.230937 C 761.955 785.637187 751.134687 793.9575 738.439375 797.355937 C 725.705 800.754375 712.189375 798.996562 700.783125 792.395 C 689.376875 785.8325 681.056562 774.973125 677.658125 762.277812 C 674.259687 749.5825 676.056562 736.027812 682.619062 724.621562 C 689.220625 713.254375 700.040937 704.934062 712.73625 701.535625 C 725.470625 698.137187 738.98625 699.895 750.3925 706.496562 C 761.79875 713.059062 770.08 723.879375 773.5175 736.61375 C 776.915937 749.309062 775.119062 762.86375 768.556562 774.230937 Z M 768.556562 774.230937 " transform="matrix(0.1,0,0,-0.1,4.867,148.802)"/>
<path style=" stroke:none;fill-rule:nonzero;fill:rgb(0%,0%,0%);fill-opacity:1;" d="M 82.972656 75.441406 C 82.996094 75.277344 83.011719 75.113281 83.019531 74.945313 C 83.078125 73.632813 82.609375 72.347656 81.722656 71.378906 C 82.117188 72.632813 82 73.992188 81.390625 75.160156 C 81.3125 75.308594 81.230469 75.453125 81.140625 75.589844 "/>
<path style="fill:none;stroke-width:5;stroke-linecap:round;stroke-linejoin:round;stroke:rgb(0%,0%,0%);stroke-opacity:1;stroke-miterlimit:10;" d="M 781.056562 733.605937 C 781.290937 735.246562 781.447187 736.887187 781.525312 738.566875 C 782.11125 751.691875 777.42375 764.543437 768.556562 774.230937 C 772.501875 761.691875 771.33 748.098125 765.23625 736.418437 C 764.455 734.934062 763.634687 733.48875 762.73625 732.121562 L 781.056562 733.605937 Z M 781.056562 733.605937 " transform="matrix(0.1,0,0,-0.1,4.867,148.802)"/>
<path style="fill:none;stroke-width:5;stroke-linecap:round;stroke-linejoin:round;stroke:rgb(0%,0%,0%);stroke-opacity:1;stroke-miterlimit:10;" d="M 1170.119062 975.012187 C 1163.556562 986.418437 1152.697187 994.73875 1140.001875 998.137187 C 1127.306562 1001.535625 1113.751875 999.777812 1102.345625 993.17625 C 1090.978437 986.61375 1082.658125 975.754375 1079.259687 963.059062 C 1075.822187 950.36375 1077.619062 936.809062 1084.181562 925.441875 C 1090.783125 914.035625 1101.603437 905.715312 1114.337812 902.316875 C 1127.033125 898.918437 1140.587812 900.67625 1151.955 907.277812 C 1163.36125 913.840312 1171.681562 924.699687 1175.08 937.395 C 1178.478437 950.090312 1176.681562 963.645 1170.119062 975.012187 Z M 1170.119062 975.012187 " transform="matrix(0.1,0,0,-0.1,4.867,148.802)"/>
<path style=" stroke:none;fill-rule:nonzero;fill:rgb(0%,0%,0%);fill-opacity:1;" d="M 123.132813 55.363281 C 123.15625 55.199219 123.171875 55.03125 123.179688 54.867188 C 123.234375 53.550781 122.769531 52.269531 121.878906 51.300781 C 122.273438 52.554688 122.15625 53.914063 121.546875 55.082031 C 121.472656 55.230469 121.386719 55.371094 121.296875 55.511719 "/>
<path style="fill:none;stroke-width:5;stroke-linecap:round;stroke-linejoin:round;stroke:rgb(0%,0%,0%);stroke-opacity:1;stroke-miterlimit:10;" d="M 1182.658125 934.387187 C 1182.8925 936.027812 1183.04875 937.7075 1183.126875 939.348125 C 1183.67375 952.512187 1179.025312 965.324687 1170.119062 975.012187 C 1174.064375 962.473125 1172.8925 948.879375 1166.79875 937.199687 C 1166.056562 935.715312 1165.197187 934.309062 1164.29875 932.902812 L 1182.658125 934.387187 Z M 1182.658125 934.387187 " transform="matrix(0.1,0,0,-0.1,4.867,148.802)"/>
<path style="fill:none;stroke-width:5;stroke-linecap:round;stroke-linejoin:round;stroke:rgb(0%,0%,0%);stroke-opacity:1;stroke-miterlimit:10;" d="M 768.556562 975.012187 C 761.955 986.418437 751.134687 994.73875 738.439375 998.137187 C 725.705 1001.535625 712.189375 999.777812 700.783125 993.17625 C 689.376875 986.61375 681.056562 975.754375 677.658125 963.059062 C 674.259687 950.36375 676.056562 936.809062 682.619062 925.441875 C 689.220625 914.035625 700.040937 905.715312 712.73625 902.316875 C 725.470625 898.918437 738.98625 900.67625 750.3925 907.277812 C 761.79875 913.840312 770.08 924.699687 773.5175 937.395 C 776.915937 950.090312 775.119062 963.645 768.556562 975.012187 Z M 768.556562 975.012187 " transform="matrix(0.1,0,0,-0.1,4.867,148.802)"/>
<path style=" stroke:none;fill-rule:nonzero;fill:rgb(0%,0%,0%);fill-opacity:1;" d="M 82.972656 55.363281 C 82.996094 55.199219 83.011719 55.03125 83.019531 54.867188 C 83.078125 53.550781 82.609375 52.269531 81.722656 51.300781 C 82.117188 52.554688 82 53.914063 81.390625 55.082031 C 81.3125 55.230469 81.230469 55.371094 81.140625 55.511719 "/>
<path style="fill:none;stroke-width:5;stroke-linecap:round;stroke-linejoin:round;stroke:rgb(0%,0%,0%);stroke-opacity:1;stroke-miterlimit:10;" d="M 781.056562 934.387187 C 781.290937 936.027812 781.447187 937.7075 781.525312 939.348125 C 782.11125 952.512187 777.42375 965.324687 768.556562 975.012187 C 772.501875 962.473125 771.33 948.879375 765.23625 937.199687 C 764.455 935.715312 763.634687 934.309062 762.73625 932.902812 L 781.056562 934.387187 Z M 781.056562 934.387187 " transform="matrix(0.1,0,0,-0.1,4.867,148.802)"/>
<path style="fill:none;stroke-width:5;stroke-linecap:round;stroke-linejoin:round;stroke:rgb(0%,0%,0%);stroke-opacity:1;stroke-miterlimit:10;" d="M 1170.119062 1175.8325 C 1163.556562 1187.199687 1152.697187 1195.52 1140.001875 1198.918437 C 1127.306562 1202.355937 1113.751875 1200.559062 1102.345625 1193.996562 C 1090.978437 1187.395 1082.658125 1176.574687 1079.259687 1163.879375 C 1075.822187 1151.145 1077.619062 1137.629375 1084.181562 1126.223125 C 1090.783125 1114.816875 1101.603437 1106.496562 1114.337812 1103.098125 C 1127.033125 1099.699687 1140.587812 1101.496562 1151.955 1108.059062 C 1163.36125 1114.621562 1171.681562 1125.480937 1175.08 1138.17625 C 1178.478437 1150.871562 1176.681562 1164.42625 1170.119062 1175.8325 Z M 1170.119062 1175.8325 " transform="matrix(0.1,0,0,-0.1,4.867,148.802)"/>
<path style=" stroke:none;fill-rule:nonzero;fill:rgb(0%,0%,0%);fill-opacity:1;" d="M 123.132813 35.285156 C 123.15625 35.121094 123.171875 34.953125 123.179688 34.789063 C 123.234375 33.472656 122.769531 32.191406 121.878906 31.21875 C 122.273438 32.476563 122.15625 33.835938 121.546875 35.003906 C 121.472656 35.148438 121.386719 35.292969 121.296875 35.433594 "/>
<path style="fill:none;stroke-width:5;stroke-linecap:round;stroke-linejoin:round;stroke:rgb(0%,0%,0%);stroke-opacity:1;stroke-miterlimit:10;" d="M 1182.658125 1135.168437 C 1182.8925 1136.809062 1183.04875 1138.48875 1183.126875 1140.129375 C 1183.67375 1153.293437 1179.025312 1166.105937 1170.119062 1175.8325 C 1174.064375 1163.254375 1172.8925 1149.660625 1166.79875 1137.980937 C 1166.056562 1136.535625 1165.197187 1135.090312 1164.29875 1133.684062 L 1182.658125 1135.168437 Z M 1182.658125 1135.168437 " transform="matrix(0.1,0,0,-0.1,4.867,148.802)"/>
<path style="fill:none;stroke-width:5;stroke-linecap:round;stroke-linejoin:round;stroke:rgb(0%,0%,0%);stroke-opacity:1;stroke-miterlimit:10;" d="M 768.556562 1175.8325 C 761.955 1187.199687 751.134687 1195.52 738.439375 1198.918437 C 725.705 1202.355937 712.189375 1200.559062 700.783125 1193.996562 C 689.376875 1187.395 681.056562 1176.574687 677.658125 1163.879375 C 674.259687 1151.145 676.056562 1137.629375 682.619062 1126.223125 C 689.220625 1114.816875 700.040937 1106.496562 712.73625 1103.098125 C 725.470625 1099.699687 738.98625 1101.496562 750.3925 1108.059062 C 761.79875 1114.621562 770.08 1125.480937 773.5175 1138.17625 C 776.915937 1150.871562 775.119062 1164.42625 768.556562 1175.8325 Z M 768.556562 1175.8325 " transform="matrix(0.1,0,0,-0.1,4.867,148.802)"/>
<path style=" stroke:none;fill-rule:nonzero;fill:rgb(0%,0%,0%);fill-opacity:1;" d="M 82.972656 35.285156 C 82.996094 35.121094 83.011719 34.953125 83.019531 34.789063 C 83.078125 33.472656 82.609375 32.191406 81.722656 31.21875 C 82.117188 32.476563 82 33.835938 81.390625 35.003906 C 81.3125 35.148438 81.230469 35.292969 81.140625 35.433594 "/>
<path style="fill:none;stroke-width:5;stroke-linecap:round;stroke-linejoin:round;stroke:rgb(0%,0%,0%);stroke-opacity:1;stroke-miterlimit:10;" d="M 781.056562 1135.168437 C 781.290937 1136.809062 781.447187 1138.48875 781.525312 1140.129375 C 782.11125 1153.293437 777.42375 1166.105937 768.556562 1175.8325 C 772.501875 1163.254375 771.33 1149.660625 765.23625 1137.980937 C 764.455 1136.535625 763.634687 1135.090312 762.73625 1133.684062 L 781.056562 1135.168437 Z M 781.056562 1135.168437 " transform="matrix(0.1,0,0,-0.1,4.867,148.802)"/>
<path style="fill:none;stroke-width:5;stroke-linecap:round;stroke-linejoin:round;stroke:rgb(0%,0%,0%);stroke-opacity:1;stroke-miterlimit:10;" d="M 1170.119062 1376.61375 C 1163.556562 1387.980937 1152.697187 1396.30125 1140.001875 1399.73875 C 1127.306562 1403.137187 1113.751875 1401.340312 1102.345625 1394.777812 C 1090.978437 1388.17625 1082.658125 1377.355937 1079.259687 1364.621562 C 1075.822187 1351.92625 1077.619062 1338.371562 1084.181562 1327.004375 C 1090.783125 1315.598125 1101.603437 1307.277812 1114.337812 1303.879375 C 1127.033125 1300.480937 1140.587812 1302.277812 1151.955 1308.840312 C 1163.36125 1315.402812 1171.681562 1326.262187 1175.08 1338.9575 C 1178.478437 1351.652812 1176.681562 1365.2075 1170.119062 1376.61375 Z M 1170.119062 1376.61375 " transform="matrix(0.1,0,0,-0.1,4.867,148.802)"/>
<path style=" stroke:none;fill-rule:nonzero;fill:rgb(0%,0%,0%);fill-opacity:1;" d="M 123.132813 15.203125 C 123.15625 15.039063 123.171875 14.875 123.179688 14.710938 C 123.234375 13.394531 122.769531 12.109375 121.878906 11.140625 C 122.273438 12.394531 122.15625 13.757813 121.546875 14.921875 C 121.472656 15.070313 121.386719 15.214844 121.296875 15.351563 "/>
<path style="fill:none;stroke-width:5;stroke-linecap:round;stroke-linejoin:round;stroke:rgb(0%,0%,0%);stroke-opacity:1;stroke-miterlimit:10;" d="M 1182.658125 1335.98875 C 1182.8925 1337.629375 1183.04875 1339.27 1183.126875 1340.910625 C 1183.67375 1354.074687 1179.025312 1366.92625 1170.119062 1376.61375 C 1174.064375 1364.074687 1172.8925 1350.441875 1166.79875 1338.80125 C 1166.056562 1337.316875 1165.197187 1335.871562 1164.29875 1334.504375 L 1182.658125 1335.98875 Z M 1182.658125 1335.98875 " transform="matrix(0.1,0,0,-0.1,4.867,148.802)"/>
<path style="fill:none;stroke-width:5;stroke-linecap:round;stroke-linejoin:round;stroke:rgb(0%,0%,0%);stroke-opacity:1;stroke-miterlimit:10;" d="M 768.556562 1376.61375 C 761.955 1387.980937 751.134687 1396.30125 738.439375 1399.73875 C 725.705 1403.137187 712.189375 1401.340312 700.783125 1394.777812 C 689.376875 1388.17625 681.056562 1377.355937 677.658125 1364.621562 C 674.259687 1351.92625 676.056562 1338.371562 682.619062 1327.004375 C 689.220625 1315.598125 700.040937 1307.277812 712.73625 1303.879375 C 725.470625 1300.480937 738.98625 1302.277812 750.3925 1308.840312 C 761.79875 1315.402812 770.08 1326.262187 773.5175 1338.9575 C 776.915937 1351.652812 775.119062 1365.2075 768.556562 1376.61375 Z M 768.556562 1376.61375 " transform="matrix(0.1,0,0,-0.1,4.867,148.802)"/>
<path style=" stroke:none;fill-rule:nonzero;fill:rgb(0%,0%,0%);fill-opacity:1;" d="M 82.972656 15.203125 C 82.996094 15.039063 83.011719 14.875 83.019531 14.710938 C 83.078125 13.394531 82.609375 12.109375 81.722656 11.140625 C 82.117188 12.394531 82 13.757813 81.390625 14.921875 C 81.3125 15.070313 81.230469 15.214844 81.140625 15.351563 "/>
<path style="fill:none;stroke-width:5;stroke-linecap:round;stroke-linejoin:round;stroke:rgb(0%,0%,0%);stroke-opacity:1;stroke-miterlimit:10;" d="M 781.056562 1335.98875 C 781.290937 1337.629375 781.447187 1339.27 781.525312 1340.910625 C 782.11125 1354.074687 777.42375 1366.92625 768.556562 1376.61375 C 772.501875 1364.074687 771.33 1350.441875 765.23625 1338.80125 C 764.455 1337.316875 763.634687 1335.871562 762.73625 1334.504375 L 781.056562 1335.98875 Z M 781.056562 1335.98875 " transform="matrix(0.1,0,0,-0.1,4.867,148.802)"/>
<path style="fill:none;stroke-width:5;stroke-linecap:round;stroke-linejoin:round;stroke:rgb(0%,0%,0%);stroke-opacity:1;stroke-miterlimit:10;" d="M 1370.900312 372.668437 C 1364.337812 384.074687 1353.478437 392.395 1340.783125 395.793437 C 1328.087812 399.191875 1314.533125 397.395 1303.126875 390.8325 C 1291.759687 384.230937 1283.439375 373.410625 1280.040937 360.715312 C 1276.603437 347.980937 1278.400312 334.465312 1285.001875 323.059062 C 1291.564375 311.652812 1302.384687 303.371562 1315.119062 299.934062 C 1327.814375 296.535625 1341.369062 298.3325 1352.73625 304.895 C 1364.1425 311.496562 1372.462812 322.316875 1375.86125 335.012187 C 1379.259687 347.746562 1377.501875 361.262187 1370.900312 372.668437 Z M 1370.900312 372.668437 " transform="matrix(0.1,0,0,-0.1,4.867,148.802)"/>
<path style=" stroke:none;fill-rule:nonzero;fill:rgb(0%,0%,0%);fill-opacity:1;" d="M 143.210938 115.597656 C 143.234375 115.433594 143.25 115.269531 143.257813 115.101563 C 143.3125 113.789063 142.847656 112.503906 141.957031 111.535156 C 142.351563 112.789063 142.234375 114.148438 141.628906 115.316406 C 141.550781 115.464844 141.464844 115.609375 141.375 115.746094 "/>
<path style="fill:none;stroke-width:5;stroke-linecap:round;stroke-linejoin:round;stroke:rgb(0%,0%,0%);stroke-opacity:1;stroke-miterlimit:10;" d="M 1383.439375 332.043437 C 1383.67375 333.684062 1383.83 335.324687 1383.908125 337.004375 C 1384.455 350.129375 1379.806562 362.980937 1370.900312 372.668437 C 1374.845625 360.129375 1373.67375 346.535625 1367.619062 334.855937 C 1366.837812 333.371562 1365.978437 331.92625 1365.08 330.559062 L 1383.439375 332.043437 Z M 1383.439375 332.043437 " transform="matrix(0.1,0,0,-0.1,4.867,148.802)"/>
<path style="fill:none;stroke-width:5;stroke-linecap:round;stroke-linejoin:round;stroke:rgb(0%,0%,0%);stroke-opacity:1;stroke-miterlimit:10;" d="M 567.775312 372.668437 C 561.17375 384.074687 550.353437 392.395 537.619062 395.793437 C 524.92375 399.191875 511.408125 397.395 500.001875 390.8325 C 488.595625 384.230937 480.275312 373.410625 476.876875 360.715312 C 473.478437 347.980937 475.275312 334.465312 481.837812 323.059062 C 488.400312 311.652812 499.259687 303.371562 511.955 299.934062 C 524.650312 296.535625 538.205 298.3325 549.61125 304.895 C 560.978437 311.496562 569.29875 322.316875 572.697187 335.012187 C 576.134687 347.746562 574.337812 361.262187 567.775312 372.668437 Z M 567.775312 372.668437 " transform="matrix(0.1,0,0,-0.1,4.867,148.802)"/>
<path style=" stroke:none;fill-rule:nonzero;fill:rgb(0%,0%,0%);fill-opacity:1;" d="M 62.894531 115.597656 C 62.917969 115.433594 62.933594 115.269531 62.941406 115.101563 C 63 113.789063 62.53125 112.503906 61.644531 111.535156 C 62.039063 112.789063 61.917969 114.148438 61.3125 115.316406 C 61.234375 115.464844 61.152344 115.609375 61.058594 115.746094 "/>
<path style="fill:none;stroke-width:5;stroke-linecap:round;stroke-linejoin:round;stroke:rgb(0%,0%,0%);stroke-opacity:1;stroke-miterlimit:10;" d="M 580.275312 332.043437 C 580.509687 333.684062 580.665937 335.324687 580.744062 337.004375 C 581.33 350.129375 576.6425 362.980937 567.775312 372.668437 C 571.720625 360.129375 570.509687 346.535625 564.455 334.855937 C 563.67375 333.371562 562.853437 331.92625 561.915937 330.559062 L 580.275312 332.043437 Z M 580.275312 332.043437 " transform="matrix(0.1,0,0,-0.1,4.867,148.802)"/>
<path style="fill:none;stroke-width:5;stroke-linecap:round;stroke-linejoin:round;stroke:rgb(0%,0%,0%);stroke-opacity:1;stroke-miterlimit:10;" d="M 1370.900312 573.449687 C 1364.337812 584.855937 1353.478437 593.17625 1340.783125 596.574687 C 1328.087812 599.973125 1314.533125 598.17625 1303.126875 591.61375 C 1291.759687 585.05125 1283.439375 574.191875 1280.040937 561.496562 C 1276.603437 548.80125 1278.400312 535.246562 1285.001875 523.840312 C 1291.564375 512.473125 1302.384687 504.152812 1315.119062 500.754375 C 1327.814375 497.316875 1341.369062 499.11375 1352.73625 505.67625 C 1364.1425 512.277812 1372.462812 523.098125 1375.86125 535.8325 C 1379.259687 548.527812 1377.501875 562.043437 1370.900312 573.449687 Z M 1370.900312 573.449687 " transform="matrix(0.1,0,0,-0.1,4.867,148.802)"/>
<path style=" stroke:none;fill-rule:nonzero;fill:rgb(0%,0%,0%);fill-opacity:1;" d="M 143.210938 95.519531 C 143.234375 95.355469 143.25 95.191406 143.257813 95.023438 C 143.3125 93.710938 142.847656 92.425781 141.957031 91.457031 C 142.351563 92.710938 142.234375 94.070313 141.628906 95.238281 C 141.550781 95.386719 141.464844 95.53125 141.375 95.667969 "/>
<path style="fill:none;stroke-width:5;stroke-linecap:round;stroke-linejoin:round;stroke:rgb(0%,0%,0%);stroke-opacity:1;stroke-miterlimit:10;" d="M 1383.439375 532.824687 C 1383.67375 534.465312 1383.83 536.105937 1383.908125 537.785625 C 1384.455 550.910625 1379.806562 563.762187 1370.900312 573.449687 C 1374.845625 560.910625 1373.67375 547.316875 1367.619062 535.637187 C 1366.837812 534.152812 1365.978437 532.7075 1365.08 531.340312 L 1383.439375 532.824687 Z M 1383.439375 532.824687 " transform="matrix(0.1,0,0,-0.1,4.867,148.802)"/>
<path style="fill:none;stroke-width:5;stroke-linecap:round;stroke-linejoin:round;stroke:rgb(0%,0%,0%);stroke-opacity:1;stroke-miterlimit:10;" d="M 567.775312 573.449687 C 561.17375 584.855937 550.353437 593.17625 537.619062 596.574687 C 524.92375 599.973125 511.408125 598.17625 500.001875 591.61375 C 488.595625 585.05125 480.275312 574.191875 476.876875 561.496562 C 473.478437 548.80125 475.275312 535.246562 481.837812 523.840312 C 488.400312 512.473125 499.259687 504.152812 511.955 500.754375 C 524.650312 497.316875 538.205 499.11375 549.61125 505.67625 C 560.978437 512.277812 569.29875 523.098125 572.697187 535.8325 C 576.134687 548.527812 574.337812 562.043437 567.775312 573.449687 Z M 567.775312 573.449687 " transform="matrix(0.1,0,0,-0.1,4.867,148.802)"/>
<path style=" stroke:none;fill-rule:nonzero;fill:rgb(0%,0%,0%);fill-opacity:1;" d="M 62.894531 95.519531 C 62.917969 95.355469 62.933594 95.191406 62.941406 95.023438 C 63 93.710938 62.53125 92.425781 61.644531 91.457031 C 62.039063 92.710938 61.917969 94.070313 61.3125 95.238281 C 61.234375 95.386719 61.152344 95.53125 61.058594 95.667969 "/>
<path style="fill:none;stroke-width:5;stroke-linecap:round;stroke-linejoin:round;stroke:rgb(0%,0%,0%);stroke-opacity:1;stroke-miterlimit:10;" d="M 580.275312 532.824687 C 580.509687 534.465312 580.665937 536.105937 580.744062 537.785625 C 581.33 550.910625 576.6425 563.762187 567.775312 573.449687 C 571.720625 560.910625 570.509687 547.316875 564.455 535.637187 C 563.67375 534.152812 562.853437 532.7075 561.915937 531.340312 L 580.275312 532.824687 Z M 580.275312 532.824687 " transform="matrix(0.1,0,0,-0.1,4.867,148.802)"/>
<path style="fill:none;stroke-width:5;stroke-linecap:round;stroke-linejoin:round;stroke:rgb(0%,0%,0%);stroke-opacity:1;stroke-miterlimit:10;" d="M 1370.900312 774.230937 C 1364.337812 785.637187 1353.478437 793.9575 1340.783125 797.355937 C 1328.087812 800.754375 1314.533125 798.996562 1303.126875 792.395 C 1291.759687 785.8325 1283.439375 774.973125 1280.040937 762.277812 C 1276.603437 749.5825 1278.400312 736.027812 1285.001875 724.621562 C 1291.564375 713.254375 1302.384687 704.934062 1315.119062 701.535625 C 1327.814375 698.137187 1341.369062 699.895 1352.73625 706.496562 C 1364.1425 713.059062 1372.462812 723.879375 1375.86125 736.61375 C 1379.259687 749.309062 1377.501875 762.86375 1370.900312 774.230937 Z M 1370.900312 774.230937 " transform="matrix(0.1,0,0,-0.1,4.867,148.802)"/>
<path style=" stroke:none;fill-rule:nonzero;fill:rgb(0%,0%,0%);fill-opacity:1;" d="M 143.210938 75.441406 C 143.234375 75.277344 143.25 75.113281 143.257813 74.945313 C 143.3125 73.632813 142.847656 72.347656 141.957031 71.378906 C 142.351563 72.632813 142.234375 73.992188 141.628906 75.160156 C 141.550781 75.308594 141.464844 75.453125 141.375 75.589844 "/>
<path style="fill:none;stroke-width:5;stroke-linecap:round;stroke-linejoin:round;stroke:rgb(0%,0%,0%);stroke-opacity:1;stroke-miterlimit:10;" d="M 1383.439375 733.605937 C 1383.67375 735.246562 1383.83 736.887187 1383.908125 738.566875 C 1384.455 751.691875 1379.806562 764.543437 1370.900312 774.230937 C 1374.845625 761.691875 1373.67375 748.098125 1367.619062 736.418437 C 1366.837812 734.934062 1365.978437 733.48875 1365.08 732.121562 L 1383.439375 733.605937 Z M 1383.439375 733.605937 " transform="matrix(0.1,0,0,-0.1,4.867,148.802)"/>
<path style="fill:none;stroke-width:5;stroke-linecap:round;stroke-linejoin:round;stroke:rgb(0%,0%,0%);stroke-opacity:1;stroke-miterlimit:10;" d="M 567.775312 774.230937 C 561.17375 785.637187 550.353437 793.9575 537.619062 797.355937 C 524.92375 800.754375 511.408125 798.996562 500.001875 792.395 C 488.595625 785.8325 480.275312 774.973125 476.876875 762.277812 C 473.478437 749.5825 475.275312 736.027812 481.837812 724.621562 C 488.400312 713.254375 499.259687 704.934062 511.955 701.535625 C 524.650312 698.137187 538.205 699.895 549.61125 706.496562 C 560.978437 713.059062 569.29875 723.879375 572.697187 736.61375 C 576.134687 749.309062 574.337812 762.86375 567.775312 774.230937 Z M 567.775312 774.230937 " transform="matrix(0.1,0,0,-0.1,4.867,148.802)"/>
<path style=" stroke:none;fill-rule:nonzero;fill:rgb(0%,0%,0%);fill-opacity:1;" d="M 62.894531 75.441406 C 62.917969 75.277344 62.933594 75.113281 62.941406 74.945313 C 63 73.632813 62.53125 72.347656 61.644531 71.378906 C 62.039063 72.632813 61.917969 73.992188 61.3125 75.160156 C 61.234375 75.308594 61.152344 75.453125 61.058594 75.589844 "/>
<path style="fill:none;stroke-width:5;stroke-linecap:round;stroke-linejoin:round;stroke:rgb(0%,0%,0%);stroke-opacity:1;stroke-miterlimit:10;" d="M 580.275312 733.605937 C 580.509687 735.246562 580.665937 736.887187 580.744062 738.566875 C 581.33 751.691875 576.6425 764.543437 567.775312 774.230937 C 571.720625 761.691875 570.509687 748.098125 564.455 736.418437 C 563.67375 734.934062 562.853437 733.48875 561.915937 732.121562 L 580.275312 733.605937 Z M 580.275312 733.605937 " transform="matrix(0.1,0,0,-0.1,4.867,148.802)"/>
<path style="fill:none;stroke-width:5;stroke-linecap:round;stroke-linejoin:round;stroke:rgb(0%,0%,0%);stroke-opacity:1;stroke-miterlimit:10;" d="M 1370.900312 975.012187 C 1364.337812 986.418437 1353.478437 994.73875 1340.783125 998.137187 C 1328.087812 1001.535625 1314.533125 999.777812 1303.126875 993.17625 C 1291.759687 986.61375 1283.439375 975.754375 1280.040937 963.059062 C 1276.603437 950.36375 1278.400312 936.809062 1285.001875 925.441875 C 1291.564375 914.035625 1302.384687 905.715312 1315.119062 902.316875 C 1327.814375 898.918437 1341.369062 900.67625 1352.73625 907.277812 C 1364.1425 913.840312 1372.462812 924.699687 1375.86125 937.395 C 1379.259687 950.090312 1377.501875 963.645 1370.900312 975.012187 Z M 1370.900312 975.012187 " transform="matrix(0.1,0,0,-0.1,4.867,148.802)"/>
<path style=" stroke:none;fill-rule:nonzero;fill:rgb(0%,0%,0%);fill-opacity:1;" d="M 143.210938 55.363281 C 143.234375 55.199219 143.25 55.03125 143.257813 54.867188 C 143.3125 53.550781 142.847656 52.269531 141.957031 51.300781 C 142.351563 52.554688 142.234375 53.914063 141.628906 55.082031 C 141.550781 55.230469 141.464844 55.371094 141.375 55.511719 "/>
<path style="fill:none;stroke-width:5;stroke-linecap:round;stroke-linejoin:round;stroke:rgb(0%,0%,0%);stroke-opacity:1;stroke-miterlimit:10;" d="M 1383.439375 934.387187 C 1383.67375 936.027812 1383.83 937.7075 1383.908125 939.348125 C 1384.455 952.512187 1379.806562 965.324687 1370.900312 975.012187 C 1374.845625 962.473125 1373.67375 948.879375 1367.619062 937.199687 C 1366.837812 935.715312 1365.978437 934.309062 1365.08 932.902812 L 1383.439375 934.387187 Z M 1383.439375 934.387187 " transform="matrix(0.1,0,0,-0.1,4.867,148.802)"/>
<path style="fill:none;stroke-width:5;stroke-linecap:round;stroke-linejoin:round;stroke:rgb(0%,0%,0%);stroke-opacity:1;stroke-miterlimit:10;" d="M 567.775312 975.012187 C 561.17375 986.418437 550.353437 994.73875 537.619062 998.137187 C 524.92375 1001.535625 511.408125 999.777812 500.001875 993.17625 C 488.595625 986.61375 480.275312 975.754375 476.876875 963.059062 C 473.478437 950.36375 475.275312 936.809062 481.837812 925.441875 C 488.400312 914.035625 499.259687 905.715312 511.955 902.316875 C 524.650312 898.918437 538.205 900.67625 549.61125 907.277812 C 560.978437 913.840312 569.29875 924.699687 572.697187 937.395 C 576.134687 950.090312 574.337812 963.645 567.775312 975.012187 Z M 567.775312 975.012187 " transform="matrix(0.1,0,0,-0.1,4.867,148.802)"/>
<path style=" stroke:none;fill-rule:nonzero;fill:rgb(0%,0%,0%);fill-opacity:1;" d="M 62.894531 55.363281 C 62.917969 55.199219 62.933594 55.03125 62.941406 54.867188 C 63 53.550781 62.53125 52.269531 61.644531 51.300781 C 62.039063 52.554688 61.917969 53.914063 61.3125 55.082031 C 61.234375 55.230469 61.152344 55.371094 61.058594 55.511719 "/>
<path style="fill:none;stroke-width:5;stroke-linecap:round;stroke-linejoin:round;stroke:rgb(0%,0%,0%);stroke-opacity:1;stroke-miterlimit:10;" d="M 580.275312 934.387187 C 580.509687 936.027812 580.665937 937.7075 580.744062 939.348125 C 581.33 952.512187 576.6425 965.324687 567.775312 975.012187 C 571.720625 962.473125 570.509687 948.879375 564.455 937.199687 C 563.67375 935.715312 562.853437 934.309062 561.915937 932.902812 L 580.275312 934.387187 Z M 580.275312 934.387187 " transform="matrix(0.1,0,0,-0.1,4.867,148.802)"/>
<path style="fill:none;stroke-width:5;stroke-linecap:round;stroke-linejoin:round;stroke:rgb(0%,0%,0%);stroke-opacity:1;stroke-miterlimit:10;" d="M 1370.900312 1175.8325 C 1364.337812 1187.199687 1353.478437 1195.52 1340.783125 1198.918437 C 1328.087812 1202.355937 1314.533125 1200.559062 1303.126875 1193.996562 C 1291.759687 1187.395 1283.439375 1176.574687 1280.040937 1163.879375 C 1276.603437 1151.145 1278.400312 1137.629375 1285.001875 1126.223125 C 1291.564375 1114.816875 1302.384687 1106.496562 1315.119062 1103.098125 C 1327.814375 1099.699687 1341.369062 1101.496562 1352.73625 1108.059062 C 1364.1425 1114.621562 1372.462812 1125.480937 1375.86125 1138.17625 C 1379.259687 1150.871562 1377.501875 1164.42625 1370.900312 1175.8325 Z M 1370.900312 1175.8325 " transform="matrix(0.1,0,0,-0.1,4.867,148.802)"/>
<path style=" stroke:none;fill-rule:nonzero;fill:rgb(0%,0%,0%);fill-opacity:1;" d="M 143.210938 35.285156 C 143.234375 35.121094 143.25 34.953125 143.257813 34.789063 C 143.3125 33.472656 142.847656 32.191406 141.957031 31.21875 C 142.351563 32.476563 142.234375 33.835938 141.628906 35.003906 C 141.550781 35.148438 141.464844 35.292969 141.375 35.433594 "/>
<path style="fill:none;stroke-width:5;stroke-linecap:round;stroke-linejoin:round;stroke:rgb(0%,0%,0%);stroke-opacity:1;stroke-miterlimit:10;" d="M 1383.439375 1135.168437 C 1383.67375 1136.809062 1383.83 1138.48875 1383.908125 1140.129375 C 1384.455 1153.293437 1379.806562 1166.105937 1370.900312 1175.8325 C 1374.845625 1163.254375 1373.67375 1149.660625 1367.619062 1137.980937 C 1366.837812 1136.535625 1365.978437 1135.090312 1365.08 1133.684062 L 1383.439375 1135.168437 Z M 1383.439375 1135.168437 " transform="matrix(0.1,0,0,-0.1,4.867,148.802)"/>
<path style="fill:none;stroke-width:5;stroke-linecap:round;stroke-linejoin:round;stroke:rgb(0%,0%,0%);stroke-opacity:1;stroke-miterlimit:10;" d="M 567.775312 1175.8325 C 561.17375 1187.199687 550.353437 1195.52 537.619062 1198.918437 C 524.92375 1202.355937 511.408125 1200.559062 500.001875 1193.996562 C 488.595625 1187.395 480.275312 1176.574687 476.876875 1163.879375 C 473.478437 1151.145 475.275312 1137.629375 481.837812 1126.223125 C 488.400312 1114.816875 499.259687 1106.496562 511.955 1103.098125 C 524.650312 1099.699687 538.205 1101.496562 549.61125 1108.059062 C 560.978437 1114.621562 569.29875 1125.480937 572.697187 1138.17625 C 576.134687 1150.871562 574.337812 1164.42625 567.775312 1175.8325 Z M 567.775312 1175.8325 " transform="matrix(0.1,0,0,-0.1,4.867,148.802)"/>
<path style=" stroke:none;fill-rule:nonzero;fill:rgb(0%,0%,0%);fill-opacity:1;" d="M 62.894531 35.285156 C 62.917969 35.121094 62.933594 34.953125 62.941406 34.789063 C 63 33.472656 62.53125 32.191406 61.644531 31.21875 C 62.039063 32.476563 61.917969 33.835938 61.3125 35.003906 C 61.234375 35.148438 61.152344 35.292969 61.058594 35.433594 "/>
<path style="fill:none;stroke-width:5;stroke-linecap:round;stroke-linejoin:round;stroke:rgb(0%,0%,0%);stroke-opacity:1;stroke-miterlimit:10;" d="M 580.275312 1135.168437 C 580.509687 1136.809062 580.665937 1138.48875 580.744062 1140.129375 C 581.33 1153.293437 576.6425 1166.105937 567.775312 1175.8325 C 571.720625 1163.254375 570.509687 1149.660625 564.455 1137.980937 C 563.67375 1136.535625 562.853437 1135.090312 561.915937 1133.684062 L 580.275312 1135.168437 Z M 580.275312 1135.168437 " transform="matrix(0.1,0,0,-0.1,4.867,148.802)"/>
<path style="fill:none;stroke-width:5;stroke-linecap:round;stroke-linejoin:round;stroke:rgb(0%,0%,0%);stroke-opacity:1;stroke-miterlimit:10;" d="M 1571.681562 573.449687 C 1565.119062 584.855937 1554.29875 593.17625 1541.564375 596.574687 C 1528.869062 599.973125 1515.314375 598.17625 1503.947187 591.61375 C 1492.540937 585.05125 1484.220625 574.191875 1480.822187 561.496562 C 1477.42375 548.80125 1479.181562 535.246562 1485.783125 523.840312 C 1492.345625 512.473125 1503.205 504.152812 1515.900312 500.754375 C 1528.595625 497.316875 1542.150312 499.11375 1553.556562 505.67625 C 1564.92375 512.277812 1573.244062 523.098125 1576.6425 535.8325 C 1580.040937 548.527812 1578.283125 562.043437 1571.681562 573.449687 Z M 1571.681562 573.449687 " transform="matrix(0.1,0,0,-0.1,4.867,148.802)"/>
<path style=" stroke:none;fill-rule:nonzero;fill:rgb(0%,0%,0%);fill-opacity:1;" d="M 163.289063 95.519531 C 163.3125 95.355469 163.328125 95.191406 163.335938 95.023438 C 163.390625 93.710938 162.925781 92.425781 162.035156 91.457031 C 162.433594 92.710938 162.3125 94.070313 161.703125 95.238281 C 161.628906 95.386719 161.542969 95.53125 161.453125 95.667969 "/>
<path style="fill:none;stroke-width:5;stroke-linecap:round;stroke-linejoin:round;stroke:rgb(0%,0%,0%);stroke-opacity:1;stroke-miterlimit:10;" d="M 1584.220625 532.824687 C 1584.455 534.465312 1584.61125 536.105937 1584.689375 537.785625 C 1585.23625 550.910625 1580.587812 563.762187 1571.681562 573.449687 C 1575.665937 560.910625 1574.455 547.316875 1568.36125 535.637187 C 1567.619062 534.152812 1566.759687 532.7075 1565.86125 531.340312 L 1584.220625 532.824687 Z M 1584.220625 532.824687 " transform="matrix(0.1,0,0,-0.1,4.867,148.802)"/>
<path style="fill:none;stroke-width:5;stroke-linecap:round;stroke-linejoin:round;stroke:rgb(0%,0%,0%);stroke-opacity:1;stroke-miterlimit:10;" d="M 366.955 573.449687 C 360.3925 584.855937 349.572187 593.17625 336.837812 596.574687 C 324.1425 599.973125 310.587812 598.17625 299.220625 591.61375 C 287.814375 585.05125 279.494062 574.191875 276.095625 561.496562 C 272.697187 548.80125 274.455 535.246562 281.056562 523.840312 C 287.619062 512.473125 298.478437 504.152812 311.17375 500.754375 C 323.869062 497.316875 337.42375 499.11375 348.83 505.67625 C 360.197187 512.277812 368.5175 523.098125 371.915937 535.8325 C 375.314375 548.527812 373.556562 562.043437 366.955 573.449687 Z M 366.955 573.449687 " transform="matrix(0.1,0,0,-0.1,4.867,148.802)"/>
<path style=" stroke:none;fill-rule:nonzero;fill:rgb(0%,0%,0%);fill-opacity:1;" d="M 42.816406 95.519531 C 42.839844 95.355469 42.855469 95.191406 42.863281 95.023438 C 42.921875 93.710938 42.453125 92.425781 41.5625 91.457031 C 41.960938 92.710938 41.839844 94.070313 41.234375 95.238281 C 41.15625 95.386719 41.070313 95.53125 40.980469 95.667969 "/>
<path style="fill:none;stroke-width:5;stroke-linecap:round;stroke-linejoin:round;stroke:rgb(0%,0%,0%);stroke-opacity:1;stroke-miterlimit:10;" d="M 379.494062 532.824687 C 379.728437 534.465312 379.884687 536.105937 379.962812 537.785625 C 380.54875 550.910625 375.86125 563.762187 366.955 573.449687 C 370.939375 560.910625 369.728437 547.316875 363.67375 535.637187 C 362.8925 534.152812 362.033125 532.7075 361.134687 531.340312 L 379.494062 532.824687 Z M 379.494062 532.824687 " transform="matrix(0.1,0,0,-0.1,4.867,148.802)"/>
<path style="fill:none;stroke-width:5;stroke-linecap:round;stroke-linejoin:round;stroke:rgb(0%,0%,0%);stroke-opacity:1;stroke-miterlimit:10;" d="M 1571.681562 774.230937 C 1565.119062 785.637187 1554.29875 793.9575 1541.564375 797.355937 C 1528.869062 800.754375 1515.314375 798.996562 1503.947187 792.395 C 1492.540937 785.8325 1484.220625 774.973125 1480.822187 762.277812 C 1477.42375 749.5825 1479.181562 736.027812 1485.783125 724.621562 C 1492.345625 713.254375 1503.205 704.934062 1515.900312 701.535625 C 1528.595625 698.137187 1542.150312 699.895 1553.556562 706.496562 C 1564.92375 713.059062 1573.244062 723.879375 1576.6425 736.61375 C 1580.040937 749.309062 1578.283125 762.86375 1571.681562 774.230937 Z M 1571.681562 774.230937 " transform="matrix(0.1,0,0,-0.1,4.867,148.802)"/>
<path style=" stroke:none;fill-rule:nonzero;fill:rgb(0%,0%,0%);fill-opacity:1;" d="M 163.289063 75.441406 C 163.3125 75.277344 163.328125 75.113281 163.335938 74.945313 C 163.390625 73.632813 162.925781 72.347656 162.035156 71.378906 C 162.433594 72.632813 162.3125 73.992188 161.703125 75.160156 C 161.628906 75.308594 161.542969 75.453125 161.453125 75.589844 "/>
<path style="fill:none;stroke-width:5;stroke-linecap:round;stroke-linejoin:round;stroke:rgb(0%,0%,0%);stroke-opacity:1;stroke-miterlimit:10;" d="M 1584.220625 733.605937 C 1584.455 735.246562 1584.61125 736.887187 1584.689375 738.566875 C 1585.23625 751.691875 1580.587812 764.543437 1571.681562 774.230937 C 1575.665937 761.691875 1574.455 748.098125 1568.36125 736.418437 C 1567.619062 734.934062 1566.759687 733.48875 1565.86125 732.121562 L 1584.220625 733.605937 Z M 1584.220625 733.605937 " transform="matrix(0.1,0,0,-0.1,4.867,148.802)"/>
<path style="fill:none;stroke-width:5;stroke-linecap:round;stroke-linejoin:round;stroke:rgb(0%,0%,0%);stroke-opacity:1;stroke-miterlimit:10;" d="M 366.955 774.230937 C 360.3925 785.637187 349.572187 793.9575 336.837812 797.355937 C 324.1425 800.754375 310.587812 798.996562 299.220625 792.395 C 287.814375 785.8325 279.494062 774.973125 276.095625 762.277812 C 272.697187 749.5825 274.455 736.027812 281.056562 724.621562 C 287.619062 713.254375 298.478437 704.934062 311.17375 701.535625 C 323.869062 698.137187 337.42375 699.895 348.83 706.496562 C 360.197187 713.059062 368.5175 723.879375 371.915937 736.61375 C 375.314375 749.309062 373.556562 762.86375 366.955 774.230937 Z M 366.955 774.230937 " transform="matrix(0.1,0,0,-0.1,4.867,148.802)"/>
<path style=" stroke:none;fill-rule:nonzero;fill:rgb(0%,0%,0%);fill-opacity:1;" d="M 42.816406 75.441406 C 42.839844 75.277344 42.855469 75.113281 42.863281 74.945313 C 42.921875 73.632813 42.453125 72.347656 41.5625 71.378906 C 41.960938 72.632813 41.839844 73.992188 41.234375 75.160156 C 41.15625 75.308594 41.070313 75.453125 40.980469 75.589844 "/>
<path style="fill:none;stroke-width:5;stroke-linecap:round;stroke-linejoin:round;stroke:rgb(0%,0%,0%);stroke-opacity:1;stroke-miterlimit:10;" d="M 379.494062 733.605937 C 379.728437 735.246562 379.884687 736.887187 379.962812 738.566875 C 380.54875 751.691875 375.86125 764.543437 366.955 774.230937 C 370.939375 761.691875 369.728437 748.098125 363.67375 736.418437 C 362.8925 734.934062 362.033125 733.48875 361.134687 732.121562 L 379.494062 733.605937 Z M 379.494062 733.605937 " transform="matrix(0.1,0,0,-0.1,4.867,148.802)"/>
<path style="fill:none;stroke-width:5;stroke-linecap:round;stroke-linejoin:round;stroke:rgb(0%,0%,0%);stroke-opacity:1;stroke-miterlimit:10;" d="M 1571.681562 975.012187 C 1565.119062 986.418437 1554.29875 994.73875 1541.564375 998.137187 C 1528.869062 1001.535625 1515.314375 999.777812 1503.947187 993.17625 C 1492.540937 986.61375 1484.220625 975.754375 1480.822187 963.059062 C 1477.42375 950.36375 1479.181562 936.809062 1485.783125 925.441875 C 1492.345625 914.035625 1503.205 905.715312 1515.900312 902.316875 C 1528.595625 898.918437 1542.150312 900.67625 1553.556562 907.277812 C 1564.92375 913.840312 1573.244062 924.699687 1576.6425 937.395 C 1580.040937 950.090312 1578.283125 963.645 1571.681562 975.012187 Z M 1571.681562 975.012187 " transform="matrix(0.1,0,0,-0.1,4.867,148.802)"/>
<path style=" stroke:none;fill-rule:nonzero;fill:rgb(0%,0%,0%);fill-opacity:1;" d="M 163.289063 55.363281 C 163.3125 55.199219 163.328125 55.03125 163.335938 54.867188 C 163.390625 53.550781 162.925781 52.269531 162.035156 51.300781 C 162.433594 52.554688 162.3125 53.914063 161.703125 55.082031 C 161.628906 55.230469 161.542969 55.371094 161.453125 55.511719 "/>
<path style="fill:none;stroke-width:5;stroke-linecap:round;stroke-linejoin:round;stroke:rgb(0%,0%,0%);stroke-opacity:1;stroke-miterlimit:10;" d="M 1584.220625 934.387187 C 1584.455 936.027812 1584.61125 937.7075 1584.689375 939.348125 C 1585.23625 952.512187 1580.587812 965.324687 1571.681562 975.012187 C 1575.665937 962.473125 1574.455 948.879375 1568.36125 937.199687 C 1567.619062 935.715312 1566.759687 934.309062 1565.86125 932.902812 L 1584.220625 934.387187 Z M 1584.220625 934.387187 " transform="matrix(0.1,0,0,-0.1,4.867,148.802)"/>
<path style="fill:none;stroke-width:5;stroke-linecap:round;stroke-linejoin:round;stroke:rgb(0%,0%,0%);stroke-opacity:1;stroke-miterlimit:10;" d="M 366.955 975.012187 C 360.3925 986.418437 349.572187 994.73875 336.837812 998.137187 C 324.1425 1001.535625 310.587812 999.777812 299.220625 993.17625 C 287.814375 986.61375 279.494062 975.754375 276.095625 963.059062 C 272.697187 950.36375 274.455 936.809062 281.056562 925.441875 C 287.619062 914.035625 298.478437 905.715312 311.17375 902.316875 C 323.869062 898.918437 337.42375 900.67625 348.83 907.277812 C 360.197187 913.840312 368.5175 924.699687 371.915937 937.395 C 375.314375 950.090312 373.556562 963.645 366.955 975.012187 Z M 366.955 975.012187 " transform="matrix(0.1,0,0,-0.1,4.867,148.802)"/>
<path style=" stroke:none;fill-rule:nonzero;fill:rgb(0%,0%,0%);fill-opacity:1;" d="M 42.816406 55.363281 C 42.839844 55.199219 42.855469 55.03125 42.863281 54.867188 C 42.921875 53.550781 42.453125 52.269531 41.5625 51.300781 C 41.960938 52.554688 41.839844 53.914063 41.234375 55.082031 C 41.15625 55.230469 41.070313 55.371094 40.980469 55.511719 "/>
<path style="fill:none;stroke-width:5;stroke-linecap:round;stroke-linejoin:round;stroke:rgb(0%,0%,0%);stroke-opacity:1;stroke-miterlimit:10;" d="M 379.494062 934.387187 C 379.728437 936.027812 379.884687 937.7075 379.962812 939.348125 C 380.54875 952.512187 375.86125 965.324687 366.955 975.012187 C 370.939375 962.473125 369.728437 948.879375 363.67375 937.199687 C 362.8925 935.715312 362.033125 934.309062 361.134687 932.902812 L 379.494062 934.387187 Z M 379.494062 934.387187 " transform="matrix(0.1,0,0,-0.1,4.867,148.802)"/>
<path style="fill:none;stroke-width:7;stroke-linecap:round;stroke-linejoin:round;stroke:rgb(0%,0%,0%);stroke-opacity:1;stroke-miterlimit:10;" d="M 825.978437 950.246562 L 1428.322187 950.246562 " transform="matrix(0.1,0,0,-0.1,4.867,148.802)"/>
<path style=" stroke:none;fill-rule:nonzero;fill:rgb(0%,0%,0%);fill-opacity:1;" d="M 88.597656 53.777344 C 88.597656 53.480469 88.480469 53.191406 88.265625 52.976563 C 88.054688 52.765625 87.765625 52.644531 87.464844 52.644531 C 87.164063 52.644531 86.875 52.765625 86.664063 52.976563 C 86.449219 53.191406 86.332031 53.480469 86.332031 53.777344 C 86.332031 54.078125 86.449219 54.367188 86.664063 54.582031 C 86.875 54.792969 87.164063 54.914063 87.464844 54.914063 C 87.765625 54.914063 88.054688 54.792969 88.265625 54.582031 C 88.480469 54.367188 88.597656 54.078125 88.597656 53.777344 "/>
<path style=" stroke:none;fill-rule:nonzero;fill:rgb(0%,0%,0%);fill-opacity:1;" d="M 148.835938 53.777344 C 148.835938 53.480469 148.714844 53.191406 148.503906 52.976563 C 148.289063 52.765625 148.003906 52.644531 147.699219 52.644531 C 147.398438 52.644531 147.113281 52.765625 146.898438 52.976563 C 146.6875 53.191406 146.566406 53.480469 146.566406 53.777344 C 146.566406 54.078125 146.6875 54.367188 146.898438 54.582031 C 147.113281 54.792969 147.398438 54.914063 147.699219 54.914063 C 148.003906 54.914063 148.289063 54.792969 148.503906 54.582031 C 148.714844 54.367188 148.835938 54.078125 148.835938 53.777344 "/>
<path style=" stroke:none;fill-rule:nonzero;fill:rgb(0%,0%,0%);fill-opacity:1;" d="M 26.355469 73.859375 C 26.355469 73.558594 26.234375 73.269531 26.023438 73.054688 C 25.808594 72.84375 25.523438 72.722656 25.222656 72.722656 C 24.921875 72.722656 24.632813 72.84375 24.417969 73.054688 C 24.207031 73.269531 24.085938 73.558594 24.085938 73.859375 C 24.085938 74.160156 24.207031 74.445313 24.417969 74.660156 C 24.632813 74.871094 24.921875 74.992188 25.222656 74.992188 C 25.523438 74.992188 25.808594 74.871094 26.023438 74.660156 C 26.234375 74.445313 26.355469 74.160156 26.355469 73.859375 "/>
</g>
</g>
<g clip-path="url(#clip6)" clip-rule="nonzero">
<g style="fill:rgb(0%,0%,0%);fill-opacity:1;">
  <use xlink:href="#glyph0-1" x="21.822" y="150.678"/>
</g>
<g style="fill:rgb(0%,0%,0%);fill-opacity:1;">
  <use xlink:href="#glyph0-2" x="0.381" y="125.773"/>
</g>
<path style=" stroke:none;fill-rule:nonzero;fill:rgb(100%,100%,100%);fill-opacity:1;" d="M 84.136719 52.425781 L 90.574219 52.425781 L 90.574219 46.164063 L 84.136719 46.164063 L 84.136719 52.425781 Z M 84.136719 52.425781 "/>
<g style="fill:rgb(0%,0%,0%);fill-opacity:1;">
  <use xlink:href="#glyph0-3" x="84.844" y="51.715"/>
</g>
<path style=" stroke:none;fill-rule:nonzero;fill:rgb(100%,100%,100%);fill-opacity:1;" d="M 144.199219 52.425781 L 151.269531 52.425781 L 151.269531 46.164063 L 144.199219 46.164063 L 144.199219 52.425781 Z M 144.199219 52.425781 "/>
<g style="fill:rgb(0%,0%,0%);fill-opacity:1;">
  <use xlink:href="#glyph0-4" x="144.906" y="51.715"/>
</g>
<g style="fill:rgb(0%,0%,0%);fill-opacity:1;">
  <use xlink:href="#glyph0-5" x="17.762" y="76.389"/>
</g>
</g>
</g>
</svg>
