<?xml version="1.0" encoding="UTF-8"?>
<svg xmlns="http://www.w3.org/2000/svg" xmlns:xlink="http://www.w3.org/1999/xlink" width="289pt" height="356pt" viewBox="0 0 167 206" version="1.1">
<defs>
<g>
<symbol overflow="visible" id="glyph0-0">
<path style="stroke:none;" d=""/>
</symbol>
<symbol overflow="visible" id="glyph0-1">
<path style="stroke:none;" d="M 1.765625 -4.84375 L 0.75 0 L 2.203125 0 C 2.453125 0 2.703125 0.015625 2.96875 0 C 3.78125 -0.078125 4.578125 -0.484375 4.875 -1.109375 C 5.03125 -1.5 4.953125 -1.859375 4.625 -2.140625 C 4.359375 -2.359375 4.015625 -2.484375 3.671875 -2.53125 C 3.8125 -2.578125 3.9375 -2.59375 4.078125 -2.640625 C 4.59375 -2.8125 5.15625 -3.171875 5.21875 -3.703125 C 5.21875 -3.75 5.21875 -3.8125 5.21875 -3.875 C 5.140625 -4.28125 4.875 -4.484375 4.53125 -4.640625 C 4.125 -4.84375 3.75 -4.84375 3.21875 -4.84375 L 1.765625 -4.84375 Z M 1.828125 -2.703125 C 1.84375 -2.859375 2.09375 -3.921875 2.171875 -4.296875 C 2.1875 -4.359375 2.171875 -4.421875 2.265625 -4.421875 L 2.828125 -4.421875 C 3.3125 -4.421875 3.828125 -4.453125 4.296875 -4.21875 C 4.46875 -4.125 4.6875 -4 4.71875 -3.78125 C 4.78125 -3.46875 4.515625 -3.21875 4.28125 -3.0625 C 4.234375 -3.03125 4.1875 -3.015625 4.140625 -2.984375 C 3.828125 -2.828125 3.484375 -2.75 3.125 -2.71875 C 2.9375 -2.703125 2.75 -2.703125 2.5625 -2.703125 L 1.828125 -2.703125 Z M 1.34375 -0.40625 C 1.359375 -0.515625 1.4375 -0.859375 1.453125 -0.90625 C 1.484375 -1.09375 1.6875 -2.015625 1.71875 -2.171875 C 1.734375 -2.25 1.71875 -2.328125 1.8125 -2.328125 L 2.515625 -2.328125 C 2.671875 -2.328125 2.84375 -2.328125 2.984375 -2.328125 C 3.375 -2.3125 3.765625 -2.234375 4.09375 -2.015625 C 4.265625 -1.90625 4.453125 -1.734375 4.453125 -1.453125 C 4.453125 -1.046875 4.078125 -0.796875 3.75 -0.640625 C 3.515625 -0.515625 3.109375 -0.421875 2.8125 -0.421875 C 2.328125 -0.40625 1.828125 -0.40625 1.34375 -0.40625 Z M 1.34375 -0.40625 "/>
</symbol>
<symbol overflow="visible" id="glyph0-2">
<path style="stroke:none;" d="M 1.75 -4.828125 L 0.734375 0 C 1.921875 0 3.15625 0.015625 4.3125 0 C 4.359375 -0.125 4.390625 -0.28125 4.40625 -0.4375 L 1.359375 -0.4375 L 1.75 -2.296875 C 2.640625 -2.3125 3.609375 -2.28125 4.46875 -2.3125 C 4.515625 -2.421875 4.546875 -2.578125 4.578125 -2.703125 L 1.84375 -2.703125 C 1.953125 -3.28125 2.078125 -3.84375 2.1875 -4.40625 L 5.15625 -4.40625 L 5.234375 -4.828125 L 1.75 -4.828125 Z M 1.75 -4.828125 "/>
</symbol>
<symbol overflow="visible" id="glyph0-3">
<path style="stroke:none;" d="M 0.21875 0 L 0.578125 0 L 0.71875 -0.015625 L 0.796875 -0.109375 C 1.0625 -0.53125 1.3125 -0.96875 1.609375 -1.375 L 1.671875 -1.390625 L 3.96875 -1.390625 C 4.0625 -0.9375 4.125 -0.453125 4.25 -0.015625 C 4.390625 0.03125 4.625 -0.015625 4.796875 0 C 4.78125 -0.140625 3.9375 -4.359375 3.890625 -4.609375 C 3.875 -4.65625 3.84375 -4.890625 3.8125 -4.90625 C 3.765625 -4.90625 3.71875 -4.90625 3.671875 -4.90625 L 3.40625 -4.90625 C 3.359375 -4.90625 3.296875 -4.921875 3.265625 -4.890625 C 3.21875 -4.859375 3.078125 -4.609375 3.078125 -4.609375 L 1.0625 -1.375 L 0.515625 -0.46875 C 0.40625 -0.328125 0.296875 -0.15625 0.21875 0 Z M 3.40625 -4.328125 C 3.546875 -3.484375 3.71875 -2.640625 3.875 -1.8125 L 1.859375 -1.8125 C 2.359375 -2.65625 2.890625 -3.484375 3.40625 -4.328125 Z M 3.40625 -4.328125 "/>
</symbol>
<symbol overflow="visible" id="glyph0-4">
<path style="stroke:none;" d="M 1.8125 -4.84375 L 1.71875 -4.34375 L 2.21875 -4.34375 L 2.3125 -4.84375 L 1.8125 -4.84375 Z M 1.484375 -3.296875 C 1.484375 -3.171875 1.4375 -3.0625 1.421875 -2.953125 C 1.265625 -2.28125 1.015625 -1.03125 0.90625 -0.515625 L 0.75 0.234375 C 0.71875 0.34375 0.703125 0.484375 0.625 0.578125 C 0.4375 0.78125 0.03125 0.875 -0.328125 0.765625 C -0.421875 0.71875 -0.5 0.671875 -0.59375 0.625 L -0.78125 1.015625 C -0.40625 1.1875 0.109375 1.34375 0.59375 1.109375 C 0.859375 1 1.09375 0.75 1.171875 0.484375 C 1.21875 0.375 1.984375 -3.28125 1.984375 -3.296875 L 1.484375 -3.296875 Z M 1.484375 -3.296875 "/>
</symbol>
<symbol overflow="visible" id="glyph0-5">
<path style="stroke:none;" d="M 1.625 -2.625 L 1.625 -2.625 C 1.671875 -2.84375 1.71875 -3.0625 1.765625 -3.296875 L 1.28125 -3.296875 L 0.578125 0 L 0.9375 0 C 1.015625 0 1.09375 0.015625 1.09375 -0.0625 C 1.109375 -0.125 1.21875 -0.578125 1.25 -0.78125 C 1.296875 -1 1.484375 -1.875 1.53125 -2.046875 C 1.609375 -2.3125 1.75 -2.5625 1.953125 -2.734375 C 2.09375 -2.84375 2.265625 -2.9375 2.4375 -2.953125 C 2.765625 -2.96875 3.0625 -2.90625 3.1875 -2.6875 C 3.296875 -2.484375 3.203125 -2.25 3.15625 -2.046875 L 2.734375 0 L 3.09375 0 C 3.15625 0 3.25 0.015625 3.25 -0.0625 C 3.265625 -0.125 3.359375 -0.578125 3.40625 -0.78125 C 3.453125 -1 3.625 -1.875 3.671875 -2.046875 C 3.765625 -2.3125 3.90625 -2.5625 4.109375 -2.734375 C 4.25 -2.84375 4.40625 -2.9375 4.578125 -2.953125 C 4.90625 -2.96875 5.21875 -2.90625 5.34375 -2.6875 C 5.4375 -2.484375 5.359375 -2.25 5.3125 -2.046875 L 4.890625 0 L 5.25 0 C 5.328125 0 5.40625 0.015625 5.40625 -0.078125 C 5.453125 -0.21875 5.546875 -0.734375 5.546875 -0.734375 L 5.859375 -2.1875 C 5.921875 -2.453125 5.96875 -2.78125 5.8125 -3.03125 C 5.6875 -3.25 5.421875 -3.3125 5.1875 -3.34375 C 4.6875 -3.390625 4.3125 -3.171875 4.0625 -2.9375 C 3.953125 -2.84375 3.828125 -2.734375 3.765625 -2.59375 C 3.75 -2.65625 3.765625 -2.703125 3.75 -2.765625 C 3.75 -2.890625 3.6875 -3.03125 3.609375 -3.125 C 3.453125 -3.28125 3.234375 -3.328125 3.03125 -3.34375 C 2.53125 -3.390625 2.171875 -3.171875 1.921875 -2.953125 C 1.8125 -2.859375 1.703125 -2.75 1.625 -2.625 Z M 1.625 -2.625 "/>
</symbol>
<symbol overflow="visible" id="glyph1-0">
<path style="stroke:none;" d=""/>
</symbol>
<symbol overflow="visible" id="glyph1-1">
<path style="stroke:none;" d="M 2.71875 -2 L 0.6875 -2 C 0.640625 -2 0.578125 -2 0.53125 -2 C 0.453125 -1.96875 0.40625 -1.90625 0.40625 -1.84375 C 0.40625 -1.765625 0.453125 -1.703125 0.53125 -1.6875 C 0.578125 -1.671875 0.640625 -1.671875 0.6875 -1.671875 L 2.71875 -1.671875 L 2.71875 0.359375 C 2.71875 0.40625 2.703125 0.453125 2.71875 0.515625 C 2.75 0.578125 2.8125 0.625 2.875 0.625 C 2.953125 0.625 3.015625 0.578125 3.03125 0.515625 C 3.046875 0.453125 3.03125 0.40625 3.03125 0.359375 L 3.03125 -1.671875 L 5.078125 -1.671875 C 5.125 -1.671875 5.171875 -1.671875 5.21875 -1.6875 C 5.296875 -1.703125 5.34375 -1.765625 5.34375 -1.84375 C 5.34375 -1.90625 5.296875 -1.96875 5.21875 -2 C 5.171875 -2 5.125 -2 5.078125 -2 L 3.03125 -2 L 3.03125 -4.03125 C 3.03125 -4.078125 3.046875 -4.140625 3.03125 -4.1875 C 3.015625 -4.265625 2.953125 -4.3125 2.875 -4.3125 C 2.8125 -4.3125 2.75 -4.265625 2.71875 -4.1875 C 2.703125 -4.140625 2.71875 -4.078125 2.71875 -4.03125 L 2.71875 -2 Z M 2.71875 -2 "/>
</symbol>
<symbol overflow="visible" id="glyph1-2">
<path style="stroke:none;" d="M 1.828125 -4.6875 C 1.671875 -4.65625 1.5 -4.640625 1.359375 -4.5625 C 0.625 -4.28125 0.375 -3.34375 0.375 -2.40625 C 0.375 -2.265625 0.375 -2.125 0.375 -1.96875 C 0.390625 -1.328125 0.546875 -0.6875 0.90625 -0.296875 C 1.21875 0.015625 1.671875 0.140625 2.09375 0.109375 C 2.359375 0.078125 2.578125 -0.015625 2.765625 -0.140625 C 3.359375 -0.5625 3.5 -1.421875 3.5 -2.359375 C 3.5 -3.125 3.359375 -3.8125 2.984375 -4.234375 C 2.703125 -4.546875 2.265625 -4.71875 1.828125 -4.6875 Z M 2.421875 -4.171875 C 2.5 -4.125 2.5625 -4.078125 2.625 -4.015625 C 2.890625 -3.765625 2.96875 -3.265625 2.984375 -2.796875 C 2.984375 -2.703125 2.984375 -2.609375 2.984375 -2.515625 L 2.984375 -2.15625 C 2.984375 -1.5625 2.9375 -0.984375 2.671875 -0.625 C 2.328125 -0.171875 1.578125 -0.15625 1.21875 -0.609375 C 1.125 -0.703125 1.078125 -0.828125 1.03125 -0.9375 C 0.90625 -1.296875 0.875 -1.734375 0.875 -2.1875 L 0.875 -2.546875 C 0.875 -2.640625 0.890625 -2.71875 0.890625 -2.8125 C 0.890625 -3.359375 1.03125 -3.90625 1.390625 -4.140625 C 1.671875 -4.3125 2.09375 -4.359375 2.421875 -4.171875 Z M 2.421875 -4.171875 "/>
</symbol>
<symbol overflow="visible" id="glyph1-3">
<path style="stroke:none;" d="M 0.6875 -3.546875 L 0.6875 -3.546875 C 0.96875 -4.03125 1.515625 -4.34375 2.078125 -4.28125 C 2.484375 -4.265625 2.875 -4.03125 2.8125 -3.546875 C 2.765625 -3.15625 2.453125 -2.859375 2.078125 -2.75 C 1.875 -2.6875 1.515625 -2.671875 1.296875 -2.65625 L 1.296875 -2.265625 L 1.75 -2.265625 C 1.84375 -2.265625 1.9375 -2.28125 2.046875 -2.265625 C 2.296875 -2.25 2.546875 -2.15625 2.734375 -1.984375 C 3.046875 -1.6875 3.09375 -1.15625 2.90625 -0.78125 C 2.8125 -0.640625 2.703125 -0.515625 2.546875 -0.4375 C 2.1875 -0.21875 1.734375 -0.265625 1.34375 -0.390625 C 1.078125 -0.46875 0.828125 -0.609375 0.625 -0.796875 C 0.53125 -0.875 0.46875 -0.953125 0.390625 -1.03125 C 0.375 -0.953125 0.359375 -0.859375 0.34375 -0.78125 C 0.328125 -0.671875 0.3125 -0.640625 0.390625 -0.5625 L 0.515625 -0.4375 C 0.71875 -0.265625 0.953125 -0.125 1.203125 -0.015625 C 1.75 0.1875 2.390625 0.171875 2.890625 -0.140625 C 3.375 -0.46875 3.734375 -1.09375 3.453125 -1.6875 C 3.265625 -2.09375 2.921875 -2.328125 2.46875 -2.46875 C 2.734375 -2.59375 2.921875 -2.703125 3.09375 -2.953125 C 3.234375 -3.15625 3.390625 -3.46875 3.3125 -3.796875 C 3.25 -4.140625 2.96875 -4.40625 2.65625 -4.546875 C 2.203125 -4.75 1.65625 -4.71875 1.203125 -4.515625 C 0.96875 -4.421875 0.765625 -4.265625 0.59375 -4.078125 C 0.5625 -4.0625 0.453125 -3.921875 0.453125 -3.875 C 0.453125 -3.84375 0.625 -3.609375 0.6875 -3.546875 Z M 0.6875 -3.546875 "/>
</symbol>
<symbol overflow="visible" id="glyph2-0">
<path style="stroke:none;" d=""/>
</symbol>
<symbol overflow="visible" id="glyph2-1">
<path style="stroke:none;" d="M 0.734375 -2 C 0.59375 -1.953125 0.578125 -1.734375 0.71875 -1.6875 C 0.765625 -1.671875 0.8125 -1.671875 0.84375 -1.671875 L 4.78125 -1.671875 C 4.875 -1.671875 5.015625 -1.65625 5.09375 -1.71875 C 5.171875 -1.8125 5.125 -1.96875 5 -2 C 4.921875 -2.015625 4.828125 -2 4.734375 -2 L 0.859375 -2 C 0.828125 -2 0.78125 -2 0.734375 -2 Z M 0.734375 -2 "/>
</symbol>
<symbol overflow="visible" id="glyph3-0">
<path style="stroke:none;" d=""/>
</symbol>
<symbol overflow="visible" id="glyph3-1">
<path style="stroke:none;" d="M 1.5 -4.109375 L 1.40625 -3.65625 L 0.625 0 L 0.953125 0 C 0.984375 0 1.0625 0.015625 1.078125 -0.015625 C 1.09375 -0.046875 1.09375 -0.09375 1.109375 -0.125 C 1.125 -0.203125 1.9375 -4.0625 1.953125 -4.109375 L 1.5 -4.109375 Z M 1.5 -4.109375 "/>
</symbol>
<symbol overflow="visible" id="glyph3-2">
<path style="stroke:none;" d="M 0.359375 -4.109375 L 1.21875 -0.203125 C 1.25 -0.125 1.25 -0.03125 1.296875 0.03125 C 1.4375 0.046875 1.625 0.046875 1.765625 0.03125 L 1.828125 -0.046875 L 4.4375 -4.109375 C 4.296875 -4.109375 4.140625 -4.109375 4 -4.109375 L 3.9375 -4.03125 L 2.28125 -1.4375 C 2.0625 -1.109375 1.84375 -0.78125 1.640625 -0.4375 L 1.640625 -0.4375 C 1.390625 -1.6875 1.09375 -2.875 0.84375 -4.109375 L 0.359375 -4.109375 Z M 0.359375 -4.109375 "/>
</symbol>
<symbol overflow="visible" id="glyph4-0">
<path style="stroke:none;" d=""/>
</symbol>
<symbol overflow="visible" id="glyph4-1">
<path style="stroke:none;" d="M 0.65625 -3.59375 L 0.65625 -3.25 C 0.953125 -3.25 1.25 -3.296875 1.515625 -3.421875 L 1.515625 -0.328125 L 0.6875 -0.328125 L 0.6875 0 L 2.765625 0 L 2.765625 -0.328125 L 1.9375 -0.328125 L 1.9375 -3.984375 C 1.90625 -3.984375 1.859375 -3.984375 1.828125 -3.96875 C 1.78125 -3.953125 1.75 -3.90625 1.71875 -3.875 C 1.46875 -3.671875 1.046875 -3.59375 0.65625 -3.59375 Z M 0.65625 -3.59375 "/>
</symbol>
<symbol overflow="visible" id="glyph4-2">
<path style="stroke:none;" d="M 2.3125 -1.703125 L 0.578125 -1.703125 C 0.53125 -1.703125 0.484375 -1.703125 0.453125 -1.6875 C 0.390625 -1.671875 0.34375 -1.625 0.34375 -1.5625 C 0.34375 -1.5 0.390625 -1.453125 0.453125 -1.4375 C 0.484375 -1.421875 0.53125 -1.421875 0.578125 -1.421875 L 2.3125 -1.421875 L 2.3125 0.296875 C 2.3125 0.34375 2.296875 0.390625 2.3125 0.4375 C 2.328125 0.484375 2.390625 0.53125 2.453125 0.53125 C 2.5 0.53125 2.5625 0.484375 2.578125 0.4375 C 2.59375 0.390625 2.578125 0.34375 2.578125 0.296875 L 2.578125 -1.421875 L 4.3125 -1.421875 C 4.359375 -1.421875 4.390625 -1.421875 4.4375 -1.4375 C 4.5 -1.453125 4.53125 -1.5 4.53125 -1.5625 C 4.53125 -1.625 4.5 -1.671875 4.4375 -1.6875 C 4.390625 -1.703125 4.359375 -1.703125 4.3125 -1.703125 L 2.578125 -1.703125 L 2.578125 -3.421875 C 2.578125 -3.46875 2.59375 -3.515625 2.578125 -3.5625 C 2.5625 -3.625 2.5 -3.65625 2.453125 -3.65625 C 2.390625 -3.65625 2.328125 -3.625 2.3125 -3.5625 C 2.296875 -3.515625 2.3125 -3.46875 2.3125 -3.421875 L 2.3125 -1.703125 Z M 2.3125 -1.703125 "/>
</symbol>
<symbol overflow="visible" id="glyph4-3">
<path style="stroke:none;" d="M 1.5625 -3.984375 C 1.421875 -3.96875 1.28125 -3.9375 1.15625 -3.875 C 0.53125 -3.640625 0.3125 -2.84375 0.3125 -2.046875 C 0.3125 -1.921875 0.3125 -1.796875 0.3125 -1.671875 C 0.34375 -1.125 0.46875 -0.59375 0.78125 -0.25 C 1.03125 0.015625 1.421875 0.125 1.78125 0.09375 C 2 0.0625 2.1875 -0.015625 2.34375 -0.125 C 2.859375 -0.46875 2.96875 -1.203125 2.96875 -2 C 2.96875 -2.65625 2.859375 -3.234375 2.546875 -3.59375 C 2.296875 -3.859375 1.921875 -4.015625 1.5625 -3.984375 Z M 2.0625 -3.546875 C 2.125 -3.515625 2.171875 -3.46875 2.234375 -3.421875 C 2.453125 -3.203125 2.515625 -2.765625 2.53125 -2.375 C 2.53125 -2.296875 2.546875 -2.21875 2.546875 -2.140625 L 2.546875 -1.828125 C 2.546875 -1.328125 2.5 -0.828125 2.265625 -0.53125 C 1.96875 -0.140625 1.34375 -0.140625 1.03125 -0.515625 C 0.953125 -0.609375 0.90625 -0.703125 0.875 -0.796875 C 0.765625 -1.09375 0.75 -1.484375 0.75 -1.859375 L 0.75 -2.15625 C 0.75 -2.234375 0.75 -2.3125 0.75 -2.390625 C 0.75 -2.859375 0.875 -3.3125 1.1875 -3.515625 C 1.421875 -3.65625 1.78125 -3.703125 2.0625 -3.546875 Z M 2.0625 -3.546875 "/>
</symbol>
<symbol overflow="visible" id="glyph5-0">
<path style="stroke:none;" d=""/>
</symbol>
<symbol overflow="visible" id="glyph5-1">
<path style="stroke:none;" d="M 0.625 -1.6875 C 0.5 -1.65625 0.484375 -1.46875 0.609375 -1.4375 C 0.65625 -1.421875 0.6875 -1.421875 0.71875 -1.421875 L 4.0625 -1.421875 C 4.140625 -1.421875 4.25 -1.40625 4.328125 -1.46875 C 4.40625 -1.546875 4.359375 -1.671875 4.25 -1.6875 C 4.1875 -1.71875 4.09375 -1.703125 4.015625 -1.703125 L 0.734375 -1.703125 C 0.703125 -1.703125 0.65625 -1.703125 0.625 -1.6875 Z M 0.625 -1.6875 "/>
</symbol>
</g>
<clipPath id="clip1">
  <path d="M -222 667 L 390 667 L 390 -125 L -222 -125 L -222 667 Z M -222 667 "/>
</clipPath>
<clipPath id="clip2">
  <path d="M 13.390625 206.800781 L 167.390625 206.800781 L 167.390625 -0.199219 L 13.390625 -0.199219 L 13.390625 206.800781 Z M 13.390625 206.800781 "/>
</clipPath>
<clipPath id="clip3">
  <path d="M -222 667 L 390 667 L 390 -125 L -222 -125 L -222 667 Z M -222 667 "/>
</clipPath>
</defs>
<g id="surface0">
<g clip-path="url(#clip1)" clip-rule="nonzero">
<g clip-path="url(#clip2)" clip-rule="nonzero">
<path style="fill:none;stroke-width:5;stroke-linecap:round;stroke-linejoin:round;stroke:rgb(0%,0%,0%);stroke-opacity:1;stroke-miterlimit:10;" d="M 26.383437 979.42625 L 1528.727187 979.42625 " transform="matrix(0.1,0,0,-0.1,13.389,206.802)"/>
<path style=" stroke:none;fill-rule:nonzero;fill:rgb(0%,0%,0%);fill-opacity:1;" d="M 160.726563 110.085938 L 166.261719 108.859375 L 160.726563 107.632813 "/>
<path style="fill:none;stroke-width:5;stroke-linecap:round;stroke-linejoin:round;stroke:rgb(0%,0%,0%);stroke-opacity:1;stroke-miterlimit:10;" d="M 1473.375625 967.160625 L 1528.727187 979.42625 L 1473.375625 991.691875 L 1473.375625 967.160625 Z M 1473.375625 967.160625 " transform="matrix(0.1,0,0,-0.1,13.389,206.802)"/>
<path style="fill:none;stroke-width:5;stroke-linecap:round;stroke-linejoin:round;stroke:rgb(0%,0%,0%);stroke-opacity:1;stroke-miterlimit:10;" d="M 26.383437 15.67625 L 26.383437 2056.61375 " transform="matrix(0.1,0,0,-0.1,13.389,206.802)"/>
<path style=" stroke:none;fill-rule:nonzero;fill:rgb(0%,0%,0%);fill-opacity:1;" d="M 17.253906 6.675781 L 16.027344 1.140625 L 14.800781 6.675781 "/>
<path style="fill:none;stroke-width:5;stroke-linecap:round;stroke-linejoin:round;stroke:rgb(0%,0%,0%);stroke-opacity:1;stroke-miterlimit:10;" d="M 38.649062 2001.262188 L 26.383437 2056.61375 L 14.117812 2001.262188 L 38.649062 2001.262188 Z M 38.649062 2001.262188 " transform="matrix(0.1,0,0,-0.1,13.389,206.802)"/>
<path style="fill:none;stroke-width:9;stroke-linecap:round;stroke-linejoin:round;stroke:rgb(0%,0%,0%);stroke-opacity:1;stroke-miterlimit:10;" d="M 26.383437 1228.879375 L 1358.76625 1328.684063 " transform="matrix(0.1,0,0,-0.1,13.389,206.802)"/>
<path style="fill:none;stroke-width:9;stroke-linecap:round;stroke-linejoin:round;stroke:rgb(0%,0%,0%);stroke-opacity:1;stroke-miterlimit:10;" d="M 26.383437 1228.879375 L 1358.76625 1129.11375 " transform="matrix(0.1,0,0,-0.1,13.389,206.802)"/>
<path style="fill:none;stroke-width:9;stroke-linecap:round;stroke-linejoin:round;stroke:rgb(0%,0%,0%);stroke-opacity:1;stroke-miterlimit:10;" d="M 26.383437 1228.879375 C 473.61 1229.074688 919.70375 1232.395 1358.649062 1238.840313 " transform="matrix(0.1,0,0,-0.1,13.389,206.802)"/>
<path style="fill:none;stroke-width:9;stroke-linecap:round;stroke-linejoin:round;stroke:rgb(0%,0%,0%);stroke-opacity:1;stroke-miterlimit:10;" d="M 26.383437 231.105938 C 473.61 230.910625 919.70375 227.590313 1358.649062 221.145 " transform="matrix(0.1,0,0,-0.1,13.389,206.802)"/>
</g>
</g>
<g clip-path="url(#clip3)" clip-rule="nonzero">
<g style="fill:rgb(0%,0%,0%);fill-opacity:1;">
  <use xlink:href="#glyph0-1" x="151.736" y="116.401"/>
</g>
<g style="fill:rgb(0%,0%,0%);fill-opacity:1;">
  <use xlink:href="#glyph0-2" x="7.643" y="14.637"/>
</g>
<g style="fill:rgb(0%,0%,0%);fill-opacity:1;">
  <use xlink:href="#glyph1-1" x="3.738" y="85.885"/>
</g>
<g style="fill:rgb(0%,0%,0%);fill-opacity:1;">
  <use xlink:href="#glyph0-3" x="9.501" y="85.885"/>
</g>
<g style="fill:rgb(0%,0%,0%);fill-opacity:1;">
  <use xlink:href="#glyph1-2" x="10.644" y="111.012"/>
</g>
<g style="fill:rgb(0%,0%,0%);fill-opacity:1;">
  <use xlink:href="#glyph2-1" x="-0.141" y="185.665"/>
</g>
<g style="fill:rgb(0%,0%,0%);fill-opacity:1;">
  <use xlink:href="#glyph1-3" x="5.622" y="185.665"/>
</g>
<g style="fill:rgb(0%,0%,0%);fill-opacity:1;">
  <use xlink:href="#glyph0-3" x="9.501" y="185.665"/>
</g>
<g style="fill:rgb(0%,0%,0%);fill-opacity:1;">
  <use xlink:href="#glyph0-4" x="122.382" y="61.668"/>
</g>
<g style="fill:rgb(0%,0%,0%);fill-opacity:1;">
  <use xlink:href="#glyph0-5" x="131.92" y="61.668"/>
</g>
<g style="fill:rgb(0%,0%,0%);fill-opacity:1;">
  <use xlink:href="#glyph3-1" x="108.24" y="73.007"/>
</g>
<g style="fill:rgb(0%,0%,0%);fill-opacity:1;">
  <use xlink:href="#glyph4-1" x="122.008" y="73.007"/>
</g>
<g style="fill:rgb(0%,0%,0%);fill-opacity:1;">
  <use xlink:href="#glyph4-2" x="130.897" y="73.007"/>
  <use xlink:href="#glyph4-1" x="135.795676" y="73.007"/>
</g>
<g style="fill:rgb(0%,0%,0%);fill-opacity:1;">
  <use xlink:href="#glyph3-1" x="105.752" y="82.152"/>
</g>
<g style="fill:rgb(0%,0%,0%);fill-opacity:1;">
  <use xlink:href="#glyph3-1" x="108.239276" y="82.152"/>
</g>
<g style="fill:rgb(0%,0%,0%);fill-opacity:1;">
  <use xlink:href="#glyph3-1" x="110.726551" y="82.152"/>
</g>
<g style="fill:rgb(0%,0%,0%);fill-opacity:1;">
  <use xlink:href="#glyph4-1" x="122.008" y="82.038"/>
</g>
<g style="fill:rgb(0%,0%,0%);fill-opacity:1;">
  <use xlink:href="#glyph4-3" x="135.7964" y="82.038"/>
</g>
<g style="fill:rgb(0%,0%,0%);fill-opacity:1;">
  <use xlink:href="#glyph3-1" x="106.996" y="89.522"/>
</g>
<g style="fill:rgb(0%,0%,0%);fill-opacity:1;">
  <use xlink:href="#glyph3-1" x="109.483276" y="89.522"/>
</g>
<g style="fill:rgb(0%,0%,0%);fill-opacity:1;">
  <use xlink:href="#glyph4-1" x="122.008" y="89.408"/>
</g>
<g style="fill:rgb(0%,0%,0%);fill-opacity:1;">
  <use xlink:href="#glyph5-1" x="130.897" y="89.141"/>
</g>
<g style="fill:rgb(0%,0%,0%);fill-opacity:1;">
  <use xlink:href="#glyph4-1" x="135.7964" y="89.141"/>
</g>
<g style="fill:rgb(0%,0%,0%);fill-opacity:1;">
  <use xlink:href="#glyph3-1" x="105.922" y="182.424"/>
</g>
<g style="fill:rgb(0%,0%,0%);fill-opacity:1;">
  <use xlink:href="#glyph3-2" x="108.409276" y="182.424"/>
</g>
<g style="fill:rgb(0%,0%,0%);fill-opacity:1;">
  <use xlink:href="#glyph4-3" x="122.008" y="182.424"/>
</g>
<g style="fill:rgb(0%,0%,0%);fill-opacity:1;">
  <use xlink:href="#glyph4-3" x="135.7964" y="182.424"/>
</g>
</g>
</g>
</svg>
