<?xml version="1.0" encoding="UTF-8"?>
<svg xmlns="http://www.w3.org/2000/svg" xmlns:xlink="http://www.w3.org/1999/xlink" width="206pt" height="237pt" viewBox="0 0 149 171" version="1.1">
<defs>
<g>
<symbol overflow="visible" id="glyph0-0">
<path style="stroke:none;" d=""/>
</symbol>
<symbol overflow="visible" id="glyph0-1">
<path style="stroke:none;" d="M 0.796875 -3.296875 L 1.1875 0 C 1.5 -0.015625 1.875 0.015625 2.15625 -0.015625 L 2.203125 -0.078125 L 3.9375 -3.296875 C 3.71875 -3.28125 3.4375 -3.3125 3.25 -3.28125 L 3.203125 -3.21875 L 2.1875 -1.34375 C 2.0625 -1.125 1.9375 -0.90625 1.828125 -0.6875 L 1.609375 -2.59375 C 1.5625 -2.828125 1.5625 -3.078125 1.515625 -3.28125 L 1.453125 -3.296875 L 0.796875 -3.296875 Z M 0.796875 -3.296875 "/>
</symbol>
<symbol overflow="visible" id="glyph1-0">
<path style="stroke:none;" d=""/>
</symbol>
<symbol overflow="visible" id="glyph1-1">
<path style="stroke:none;" d="M 1.59375 -2.453125 L 1.578125 -2.453125 C 1.640625 -2.71875 1.703125 -3 1.75 -3.296875 L 1.28125 -3.296875 L 0.578125 0 L 0.9375 0 C 0.96875 0 1.046875 0.015625 1.078125 -0.015625 C 1.09375 -0.03125 1.09375 -0.109375 1.109375 -0.140625 C 1.21875 -0.578125 1.375 -1.40625 1.46875 -1.78125 C 1.640625 -2.46875 2.390625 -2.90625 3.0625 -2.90625 L 3.15625 -3.34375 C 2.6875 -3.34375 2.265625 -3.140625 1.921875 -2.828125 C 1.828125 -2.75 1.640625 -2.5625 1.59375 -2.453125 Z M 1.59375 -2.453125 "/>
</symbol>
<symbol overflow="visible" id="glyph1-2">
<path style="stroke:none;" d="M 1.765625 -4.84375 L 0.734375 0 L 1.109375 0 C 1.15625 0 1.21875 0.015625 1.265625 -0.015625 C 1.296875 -0.03125 1.296875 -0.09375 1.296875 -0.125 C 1.3125 -0.203125 1.671875 -1.875 1.671875 -1.875 C 1.671875 -1.90625 1.671875 -1.984375 1.71875 -2 C 1.734375 -2.03125 1.765625 -2.015625 1.796875 -2.015625 L 2.640625 -2.015625 C 2.859375 -2.015625 3.078125 -2 3.296875 -2.03125 C 3.6875 -2.0625 4.078125 -2.203125 4.40625 -2.421875 C 4.890625 -2.734375 5.3125 -3.296875 5.15625 -3.890625 C 5.0625 -4.28125 4.75 -4.546875 4.421875 -4.6875 C 4.0625 -4.84375 3.65625 -4.84375 3.265625 -4.84375 L 1.765625 -4.84375 Z M 1.765625 -2.421875 C 1.796875 -2.625 1.859375 -2.8125 1.890625 -3.015625 C 1.921875 -3.125 2.15625 -4.21875 2.15625 -4.28125 C 2.171875 -4.34375 2.171875 -4.421875 2.265625 -4.421875 L 3.453125 -4.421875 C 3.9375 -4.421875 4.625 -4.296875 4.6875 -3.6875 C 4.734375 -3.1875 4.359375 -2.765625 3.921875 -2.578125 C 3.546875 -2.421875 3.21875 -2.421875 2.75 -2.421875 L 1.765625 -2.421875 Z M 1.765625 -2.421875 "/>
</symbol>
</g>
<clipPath id="clip1">
  <path d="M -231 668 L 381 668 L 381 -124 L -231 -124 L -231 668 Z M -231 668 "/>
</clipPath>
<clipPath id="clip2">
  <path d="M 0.125 170.800781 L 149.125 170.800781 L 149.125 0.800781 L 0.125 0.800781 L 0.125 170.800781 Z M 0.125 170.800781 "/>
</clipPath>
<clipPath id="clip3">
  <path d="M -231 668 L 381 668 L 381 -124 L -231 -124 L -231 668 Z M -231 668 "/>
</clipPath>
<clipPath id="clip4">
  <path d="M 0.125 170.800781 L 149.125 170.800781 L 149.125 0.800781 L 0.125 0.800781 L 0.125 170.800781 Z M 0.125 170.800781 "/>
</clipPath>
<clipPath id="clip5">
  <path d="M 100.027344 85.800781 C 100.027344 99.890625 88.605469 111.3125 74.515625 111.3125 C 60.425781 111.3125 49.003906 99.890625 49.003906 85.800781 C 49.003906 71.710938 60.425781 60.289063 74.515625 60.289063 C 88.605469 60.289063 100.027344 71.710938 100.027344 85.800781 "/>
</clipPath>
<clipPath id="clip6">
  <path d="M -231 668 L 381 668 L 381 -124 L -231 -124 L -231 668 Z M -231 668 "/>
</clipPath>
<clipPath id="clip7">
  <path d="M 0.125 170.800781 L 149.125 170.800781 L 149.125 0.800781 L 0.125 0.800781 L 0.125 170.800781 Z M 0.125 170.800781 "/>
</clipPath>
<clipPath id="clip8">
  <path d="M -231 668 L 381 668 L 381 -124 L -231 -124 L -231 668 Z M -231 668 "/>
</clipPath>
</defs>
<g id="surface0">
<g clip-path="url(#clip1)" clip-rule="nonzero">
<g clip-path="url(#clip2)" clip-rule="nonzero">
<path style="fill:none;stroke-width:5.102;stroke-linecap:butt;stroke-linejoin:miter;stroke:rgb(0%,0%,0%);stroke-opacity:1;stroke-miterlimit:10;" d="M 743.91625 0.0903125 L 743.91625 1699.934063 " transform="matrix(0.1,0,0,-0.1,0.124,170.802)"/>
<path style="fill:none;stroke-width:5;stroke-linecap:butt;stroke-linejoin:miter;stroke:rgb(0%,0%,0%);stroke-opacity:1;stroke-miterlimit:10;" d="M 21.5725 0.0903125 L 21.181875 14.191875 L 21.181875 42.746563 L 20.830313 56.848125 L 20.830313 85.012188 L 20.47875 99.11375 L 20.47875 113.566875 L 20.127188 127.629375 L 20.127188 141.730938 L 19.736563 155.8325 L 19.736563 169.934063 L 19.385 184.387188 L 19.385 198.449688 L 19.033438 212.55125 L 19.033438 226.652813 L 18.681875 240.715313 L 18.681875 255.168438 L 18.29125 269.27 L 17.939688 283.371563 L 17.939688 297.434063 L 17.588125 311.535625 L 17.236563 325.98875 L 17.236563 340.090313 L 16.845938 354.191875 L 16.494375 368.293438 L 16.494375 382.355938 L 16.142813 396.4575 L 15.752188 410.910625 L 15.752188 425.012188 L 15.400625 439.074688 L 15.049063 453.17625 L 15.049063 467.277813 L 14.6975 481.730938 L 14.345938 495.793438 L 13.955313 509.895 L 13.955313 523.996563 L 13.60375 538.098125 L 13.252188 552.55125 L 13.252188 566.61375 L 12.861563 580.715313 L 12.51 594.816875 L 12.51 608.879375 L 12.158438 623.371563 L 11.806875 637.434063 L 11.806875 651.535625 L 11.41625 665.637188 L 11.41625 679.699688 L 11.064688 694.152813 L 11.064688 722.355938 L 10.713125 736.4575 L 10.713125 764.973125 L 10.3225 779.074688 L 10.3225 920.715313 L 10.713125 934.816875 L 10.713125 962.980938 L 11.064688 977.434063 L 11.064688 1005.637188 L 11.41625 1019.73875 L 11.41625 1033.80125 L 11.806875 1048.254375 L 11.806875 1062.355938 L 12.158438 1076.4575 L 12.51 1090.559063 L 12.51 1104.660625 L 12.861563 1119.11375 L 13.252188 1133.17625 L 13.252188 1147.277813 L 13.60375 1161.379375 L 13.955313 1175.480938 L 13.955313 1189.543438 L 14.345938 1204.035625 L 14.6975 1218.098125 L 15.049063 1232.199688 L 15.049063 1246.30125 L 15.400625 1260.402813 L 15.752188 1274.855938 L 15.752188 1288.9575 L 16.142813 1303.02 L 16.494375 1317.121563 L 16.494375 1331.223125 L 16.845938 1345.67625 L 17.236563 1359.777813 L 17.236563 1373.879375 L 17.588125 1387.941875 L 17.939688 1402.043438 L 17.939688 1416.496563 L 18.29125 1430.598125 L 18.681875 1444.660625 L 18.681875 1458.762188 L 19.033438 1472.86375 L 19.033438 1487.316875 L 19.385 1501.418438 L 19.385 1515.480938 L 19.736563 1529.5825 L 19.736563 1543.684063 L 20.127188 1558.137188 L 20.127188 1572.199688 L 20.47875 1586.30125 L 20.47875 1614.504375 L 20.830313 1628.9575 L 20.830313 1643.02 L 21.181875 1657.121563 L 21.181875 1685.324688 L 21.5725 1699.777813 M 141.885 0.0903125 L 141.885 14.191875 L 141.533438 28.254375 L 141.533438 42.746563 L 141.181875 56.848125 L 141.181875 70.910625 L 140.79125 85.012188 L 140.79125 99.11375 L 140.439688 113.566875 L 140.439688 127.629375 L 140.088125 141.730938 L 139.736563 155.8325 L 139.736563 169.934063 L 139.345938 184.387188 L 138.994375 198.449688 L 138.994375 212.55125 L 138.642813 226.652813 L 138.29125 240.715313 L 137.939688 255.168438 L 137.939688 269.27 L 137.549063 283.371563 L 137.1975 297.434063 L 136.845938 311.535625 L 136.455313 325.637188 L 136.10375 340.090313 L 135.752188 354.191875 L 135.400625 368.293438 L 135.01 382.355938 L 134.658438 396.4575 L 134.306875 410.910625 L 133.955313 425.012188 L 133.564688 439.074688 L 133.213125 453.17625 L 132.470938 467.277813 L 132.119375 481.730938 L 131.767813 495.793438 L 131.41625 509.895 L 131.064688 523.996563 L 130.674063 538.098125 L 129.970938 552.160625 L 129.619375 566.61375 L 129.267813 580.715313 L 128.877188 594.816875 L 128.525625 608.879375 L 128.174063 622.980938 L 127.431875 637.434063 L 127.080313 651.535625 L 126.72875 665.637188 L 126.377188 679.699688 L 126.377188 693.80125 L 125.986563 707.902813 L 125.635 722.355938 L 125.283438 736.4575 L 125.283438 750.52 L 124.892813 764.621563 L 124.892813 778.723125 L 124.54125 793.17625 L 124.54125 821.340313 L 124.189688 835.441875 L 124.189688 863.996563 L 124.54125 878.098125 L 124.54125 906.262188 L 124.892813 920.36375 L 124.892813 934.816875 L 125.283438 948.879375 L 125.283438 962.980938 L 125.635 977.0825 L 125.986563 991.184063 L 126.377188 1005.637188 L 126.377188 1019.73875 L 126.72875 1033.80125 L 127.080313 1047.902813 L 127.431875 1062.004375 L 128.174063 1076.4575 L 128.525625 1090.559063 L 128.877188 1104.621563 L 129.267813 1118.723125 L 129.619375 1132.824688 L 129.970938 1146.92625 L 130.3225 1161.379375 L 131.064688 1175.441875 L 131.41625 1189.543438 L 131.767813 1203.645 L 132.158438 1217.746563 L 132.51 1232.199688 L 133.213125 1246.30125 L 133.60375 1260.36375 L 133.955313 1274.465313 L 134.306875 1288.566875 L 134.658438 1302.668438 L 135.049063 1317.121563 L 135.400625 1331.223125 L 135.752188 1345.324688 L 136.10375 1359.387188 L 136.494375 1373.48875 L 136.845938 1387.941875 L 137.1975 1402.043438 L 137.588125 1416.105938 L 137.939688 1430.2075 L 137.939688 1444.309063 L 138.29125 1458.762188 L 138.642813 1472.86375 L 138.994375 1486.965313 L 138.994375 1501.066875 L 139.385 1515.129375 L 139.736563 1529.230938 L 139.736563 1543.684063 L 140.088125 1557.785625 L 140.439688 1571.887188 L 140.439688 1585.949688 L 140.79125 1600.05125 L 140.79125 1614.504375 L 141.181875 1628.605938 L 141.181875 1642.7075 L 141.533438 1656.77 L 141.533438 1670.871563 L 141.885 1685.324688 L 141.885 1699.42625 M 262.236563 0.0903125 L 262.236563 14.191875 L 261.845938 28.254375 L 261.845938 42.746563 L 261.494375 56.848125 L 261.494375 70.910625 L 261.142813 85.012188 L 260.79125 99.11375 L 260.79125 113.566875 L 260.439688 127.629375 L 260.049063 141.730938 L 260.049063 155.8325 L 259.6975 169.934063 L 259.345938 184.387188 L 258.955313 198.449688 L 258.60375 212.55125 L 258.252188 226.652813 L 257.861563 240.715313 L 257.51 254.816875 L 257.158438 269.27 L 256.806875 283.371563 L 256.455313 297.434063 L 256.064688 311.535625 L 255.361563 325.637188 L 254.970938 340.090313 L 254.619375 354.191875 L 253.91625 368.293438 L 253.174063 382.355938 L 252.8225 396.4575 L 252.080313 410.559063 L 251.377188 425.012188 L 250.986563 439.074688 L 250.283438 453.17625 L 249.54125 467.277813 L 248.838125 481.340313 L 248.095938 495.441875 L 247.35375 509.543438 L 246.650625 523.996563 L 245.9475 538.098125 L 244.85375 552.160625 L 244.111563 566.262188 L 243.408438 580.36375 L 242.66625 594.465313 L 241.924063 608.566875 L 241.220938 623.02 L 240.517813 637.0825 L 239.424063 651.184063 L 239.0725 665.285625 L 238.330313 679.387188 L 237.627188 693.449688 L 236.885 707.902813 L 236.142813 722.004375 L 235.79125 736.105938 L 235.439688 750.168438 L 234.6975 764.27 L 234.345938 778.371563 L 234.345938 792.824688 L 233.994375 806.92625 L 233.642813 820.98875 L 233.642813 877.746563 L 233.994375 891.809063 L 234.345938 905.910625 L 234.345938 920.012188 L 234.6975 934.465313 L 235.439688 948.566875 L 235.79125 962.629375 L 236.142813 976.730938 L 236.885 990.8325 L 237.627188 1004.934063 L 237.97875 1019.387188 L 238.681875 1033.48875 L 239.424063 1047.55125 L 240.127188 1061.652813 L 240.869375 1075.754375 L 241.963125 1089.855938 L 242.66625 1103.9575 L 243.408438 1118.371563 L 244.111563 1132.473125 L 244.85375 1146.574688 L 245.556875 1160.67625 L 246.650625 1174.777813 L 247.392813 1188.879375 L 248.095938 1202.941875 L 248.838125 1217.395 L 249.54125 1231.496563 L 250.283438 1245.598125 L 250.635 1259.660625 L 251.377188 1273.762188 L 252.080313 1287.86375 L 252.8225 1302.316875 L 253.174063 1316.418438 L 253.91625 1330.52 L 254.267813 1344.5825 L 254.970938 1358.684063 L 255.3225 1372.785625 L 255.713125 1387.23875 L 256.41625 1401.340313 L 256.806875 1415.402813 L 257.158438 1429.504375 L 257.51 1443.605938 L 257.861563 1457.7075 L 258.213125 1472.121563 L 258.60375 1486.223125 L 258.955313 1500.324688 L 259.306875 1514.42625 L 259.6975 1528.527813 L 260.049063 1542.941875 L 260.049063 1557.043438 L 260.400625 1571.145 L 260.752188 1585.246563 L 260.752188 1599.348125 L 261.142813 1613.80125 L 261.494375 1627.902813 L 261.494375 1641.965313 L 261.845938 1656.066875 L 261.845938 1670.168438 L 262.236563 1684.621563 L 262.236563 1698.684063 M 382.549063 0.0903125 L 382.549063 14.191875 L 382.1975 28.254375 L 382.1975 42.746563 L 381.845938 56.848125 L 381.845938 70.910625 L 381.494375 85.012188 L 381.494375 99.11375 L 381.10375 113.566875 L 380.752188 127.629375 L 380.400625 141.730938 L 380.049063 155.8325 L 380.049063 169.934063 L 379.658438 184.387188 L 379.306875 198.449688 L 378.955313 212.55125 L 378.564688 226.652813 L 377.861563 240.715313 L 377.470938 254.816875 L 377.119375 269.27 L 376.41625 283.371563 L 376.064688 297.434063 L 375.3225 311.535625 L 374.619375 325.637188 L 373.877188 339.73875 L 373.525625 354.191875 L 372.431875 368.293438 L 371.72875 382.355938 L 370.986563 396.4575 L 369.892813 410.559063 L 369.189688 424.621563 L 368.095938 438.723125 L 367.002188 452.824688 L 365.9475 466.92625 L 364.463125 481.340313 L 363.408438 495.441875 L 361.963125 509.543438 L 360.869375 523.645 L 359.424063 537.7075 L 357.97875 551.848125 L 356.533438 565.910625 L 354.6975 580.012188 L 353.252188 594.11375 L 351.806875 608.17625 L 350.01 621.92625 L 348.564688 636.027813 L 347.119375 650.129375 L 345.674063 664.191875 L 343.877188 678.293438 L 342.431875 692.395 L 341.338125 706.496563 L 339.892813 720.598125 L 338.799063 734.660625 L 337.744375 749.11375 L 336.650625 763.215313 L 335.908438 777.316875 L 335.205313 791.379375 L 334.502188 805.480938 L 334.111563 819.5825 L 333.76 834.035625 L 333.76 862.199688 L 334.111563 876.30125 L 334.502188 890.402813 L 334.85375 904.504375 L 335.556875 918.9575 L 336.299063 933.059063 L 337.392813 947.121563 L 338.486563 961.223125 L 339.54125 975.324688 L 340.986563 989.42625 L 342.080313 1003.527813 L 343.525625 1017.629375 L 344.970938 1031.691875 L 346.767813 1045.793438 L 348.213125 1059.895 L 349.6975 1073.996563 L 351.494375 1088.098125 L 352.939688 1102.160625 L 354.385 1116.262188 L 355.830313 1130.36375 L 357.627188 1144.465313 L 359.0725 1158.527813 L 360.517813 1172.629375 L 361.611563 1186.730938 L 363.056875 1200.8325 L 364.111563 1214.934063 L 365.556875 1228.996563 L 366.650625 1243.098125 L 367.744375 1257.199688 L 368.838125 1271.30125 L 369.892813 1285.402813 L 370.635 1299.465313 L 371.72875 1313.918438 L 372.431875 1328.02 L 373.174063 1342.121563 L 373.877188 1356.223125 L 374.619375 1370.324688 L 375.3225 1384.387188 L 375.674063 1398.48875 L 376.41625 1412.941875 L 376.767813 1427.043438 L 377.51 1441.145 L 377.861563 1455.2075 L 378.213125 1469.309063 L 378.60375 1483.762188 L 378.955313 1497.86375 L 379.306875 1511.965313 L 379.6975 1526.027813 L 380.049063 1540.129375 L 380.400625 1554.230938 L 380.752188 1568.684063 L 381.10375 1582.785625 L 381.10375 1596.848125 L 381.494375 1610.949688 L 381.845938 1625.05125 L 381.845938 1639.504375 L 382.1975 1653.605938 L 382.1975 1667.668438 L 382.588125 1681.77 L 382.588125 1695.871563 M 503.252188 0.0903125 L 502.900625 14.191875 L 502.900625 28.254375 L 502.549063 42.746563 L 502.549063 56.848125 L 502.158438 70.910625 L 502.158438 85.012188 L 501.806875 99.11375 L 501.806875 113.566875 L 501.455313 127.629375 L 501.064688 141.730938 L 501.064688 155.8325 L 500.713125 169.934063 L 500.361563 184.387188 L 499.970938 198.449688 L 499.619375 212.55125 L 499.267813 226.652813 L 498.91625 240.715313 L 498.174063 254.816875 L 497.8225 269.27 L 497.119375 283.371563 L 496.72875 297.434063 L 496.025625 311.535625 L 495.283438 325.637188 L 494.580313 339.73875 L 493.486563 354.191875 L 492.744375 368.293438 L 491.689688 382.355938 L 490.595938 396.4575 L 489.502188 410.559063 L 488.056875 424.621563 L 486.611563 438.723125 L 485.16625 452.824688 L 483.369375 466.92625 L 481.533438 480.98875 L 479.385 494.73875 L 477.1975 508.80125 L 475.049063 522.902813 L 472.158438 536.652813 L 469.619375 550.754375 L 466.72875 564.465313 L 463.838125 578.566875 L 460.595938 592.277813 L 457.35375 606.027813 L 454.0725 619.777813 L 450.47875 633.48875 L 447.236563 647.199688 L 443.955313 660.949688 L 440.361563 674.660625 L 437.119375 688.410625 L 434.22875 702.512188 L 431.338125 716.223125 L 428.4475 729.973125 L 425.908438 744.074688 L 423.720938 758.137188 L 421.5725 772.23875 L 420.127188 785.98875 L 418.681875 800.441875 L 417.588125 814.504375 L 416.845938 828.605938 L 416.494375 842.7075 L 416.494375 856.809063 L 416.845938 870.871563 L 417.588125 884.973125 L 418.681875 899.42625 L 419.775625 913.527813 L 421.5725 927.629375 L 423.720938 941.340313 L 425.908438 955.441875 L 428.4475 969.543438 L 430.9475 983.254375 L 433.877188 997.004375 L 437.119375 1011.105938 L 440.361563 1024.816875 L 443.60375 1038.566875 L 446.885 1052.277813 L 450.47875 1066.027813 L 453.720938 1079.73875 L 457.35375 1093.48875 L 460.595938 1107.199688 L 463.486563 1121.30125 L 466.72875 1135.012188 L 469.619375 1148.762188 L 472.158438 1162.86375 L 474.6975 1176.574688 L 477.236563 1190.67625 L 479.385 1204.777813 L 481.181875 1218.527813 L 483.369375 1232.590313 L 484.814688 1246.691875 L 486.611563 1260.793438 L 488.056875 1274.895 L 489.150625 1288.9575 L 490.595938 1303.059063 L 491.689688 1317.160625 L 492.783438 1331.262188 L 493.525625 1345.715313 L 494.22875 1359.816875 L 495.3225 1373.879375 L 496.025625 1387.980938 L 496.377188 1402.0825 L 497.119375 1416.145 L 497.8225 1430.246563 L 498.213125 1444.699688 L 498.564688 1458.80125 L 499.267813 1472.902813 L 499.658438 1487.004375 L 500.01 1501.105938 L 500.361563 1515.559063 L 500.713125 1529.621563 L 500.713125 1543.723125 L 501.10375 1557.824688 L 501.455313 1571.92625 L 501.806875 1586.379375 L 501.806875 1600.441875 L 502.158438 1614.543438 L 502.158438 1628.645 L 502.549063 1642.746563 L 502.549063 1657.199688 L 502.900625 1671.262188 L 502.900625 1699.465313 M 623.60375 0.0903125 L 623.60375 14.191875 L 623.213125 28.254375 L 623.213125 56.848125 L 622.861562 70.910625 L 622.861562 99.11375 L 622.51 113.566875 L 622.51 141.730938 L 622.158437 155.8325 L 622.158437 169.934063 L 621.767812 184.387188 L 621.41625 198.449688 L 621.41625 212.55125 L 621.064687 226.652813 L 620.713125 240.715313 L 620.3225 255.168438 L 619.970937 269.27 L 619.619375 283.371563 L 619.267812 297.434063 L 618.877187 311.535625 L 618.174062 325.637188 L 617.783437 340.090313 L 617.080312 354.191875 L 616.338125 368.293438 L 615.244375 382.355938 L 614.54125 396.4575 L 613.4475 410.559063 L 612.002187 424.621563 L 610.556875 438.723125 L 609.111562 452.824688 L 606.924062 466.92625 L 604.775625 480.98875 L 602.236562 494.73875 L 599.345937 508.80125 L 595.752187 522.55125 L 591.767812 535.910625 L 587.04125 549.309063 L 582.002187 562.668438 L 576.220937 575.67625 L 570.088125 588.3325 L 563.213125 600.598125 L 556.338125 612.902813 L 548.76 625.2075 L 541.533437 637.121563 L 534.306875 649.42625 L 527.080312 661.691875 L 520.205312 673.996563 L 513.330312 686.262188 L 507.1975 698.918438 L 501.064688 711.92625 L 495.635 724.934063 L 490.595938 738.3325 L 485.869375 751.691875 L 481.924063 765.05125 L 478.642813 778.80125 L 475.752188 792.902813 L 473.60375 806.965313 L 471.806875 820.715313 L 470.713125 835.168438 L 470.3225 849.27 L 470.713125 863.3325 L 471.806875 877.434063 L 473.213125 891.535625 L 475.400625 905.637188 L 477.939688 919.387188 L 481.533438 933.098125 L 485.517813 946.848125 L 489.85375 960.2075 L 494.892813 973.566875 L 500.3225 986.574688 L 506.10375 999.5825 L 512.627187 1012.23875 L 519.111562 1024.504375 L 525.986562 1037.160625 L 533.213125 1049.074688 L 540.439687 1061.379375 L 547.66625 1073.645 L 554.892812 1085.598125 L 562.119375 1097.86375 L 568.994375 1110.52 L 575.127187 1123.17625 L 580.908437 1136.184063 L 586.338125 1149.191875 L 591.025625 1162.55125 L 595.01 1175.910625 L 598.642812 1189.660625 L 601.533437 1203.762188 L 604.424062 1217.473125 L 606.5725 1231.574688 L 608.369375 1245.67625 L 610.205312 1259.777813 L 611.650625 1273.879375 L 612.705312 1287.941875 L 614.189687 1302.043438 L 614.892812 1316.145 L 615.986562 1330.246563 L 616.689687 1344.309063 L 617.431875 1358.410625 L 617.783437 1372.512188 L 618.486562 1386.965313 L 618.877187 1401.066875 L 619.22875 1415.129375 L 619.580312 1429.230938 L 619.931875 1443.3325 L 620.3225 1457.785625 L 620.674062 1471.887188 L 621.025625 1485.949688 L 621.377187 1500.05125 L 621.377187 1514.152813 L 621.767812 1528.605938 L 621.767812 1542.7075 L 622.119375 1556.77 L 622.119375 1570.871563 L 622.470937 1584.973125 L 622.470937 1613.527813 L 622.8225 1627.590313 L 622.8225 1655.793438 L 623.174062 1670.246563 L 623.174062 1698.410625 M 864.267812 0.0903125 L 864.267812 14.191875 L 864.619375 28.254375 L 864.619375 56.848125 L 864.970937 70.910625 L 864.970937 99.11375 L 865.3225 113.566875 L 865.3225 141.730938 L 865.674062 155.8325 L 865.674062 169.934063 L 866.064687 184.387188 L 866.41625 198.449688 L 866.41625 212.55125 L 866.767812 226.652813 L 867.158437 240.715313 L 867.51 255.168438 L 867.861562 269.27 L 868.213125 283.371563 L 868.60375 297.434063 L 868.955312 311.535625 L 869.6975 325.637188 L 870.049062 340.090313 L 870.752187 354.191875 L 871.494375 368.293438 L 872.588125 382.355938 L 873.29125 396.4575 L 874.385 410.559063 L 875.830312 424.621563 L 877.275625 438.723125 L 878.720937 452.824688 L 880.908437 466.92625 L 883.056875 480.98875 L 885.595937 494.73875 L 888.486562 508.80125 L 892.119375 522.55125 L 896.064687 535.910625 L 900.79125 549.309063 L 905.830312 562.668438 L 911.611562 575.67625 L 917.744375 588.3325 L 924.619375 600.598125 L 931.494375 612.902813 L 939.0725 625.2075 L 946.299062 637.121563 L 953.525625 649.42625 L 960.752187 661.691875 L 967.627187 673.996563 L 974.502187 686.262188 L 980.635 698.918438 L 986.767812 711.92625 L 992.1975 724.934063 L 997.236562 738.3325 L 1001.963125 751.691875 L 1005.908438 765.05125 L 1009.150625 778.80125 L 1012.04125 792.902813 L 1014.22875 806.965313 L 1016.025625 820.715313 L 1017.119375 835.168438 L 1017.470938 849.27 L 1017.119375 863.3325 L 1016.025625 877.434063 L 1014.580313 891.535625 L 1012.392813 905.637188 L 1009.892813 919.387188 L 1006.26 933.098125 L 1002.275625 946.848125 L 997.97875 960.2075 L 992.900625 973.566875 L 987.470937 986.574688 L 981.689687 999.5825 L 975.205312 1012.23875 L 968.681875 1024.504375 L 961.806875 1037.160625 L 954.580312 1049.074688 L 947.35375 1061.379375 L 940.127187 1073.645 L 932.900625 1085.598125 L 925.674062 1097.86375 L 918.799062 1110.52 L 912.66625 1123.17625 L 906.885 1136.184063 L 901.455312 1149.191875 L 896.767812 1162.55125 L 892.783437 1175.910625 L 889.189687 1189.660625 L 886.299062 1203.762188 L 883.408437 1217.473125 L 881.220937 1231.574688 L 879.424062 1245.67625 L 877.627187 1259.777813 L 876.142812 1273.879375 L 875.088125 1287.941875 L 873.642812 1302.043438 L 872.900625 1316.145 L 871.806875 1330.246563 L 871.10375 1344.309063 L 870.361562 1358.410625 L 870.01 1372.512188 L 869.306875 1386.965313 L 868.91625 1401.066875 L 868.564687 1415.129375 L 868.213125 1429.230938 L 867.861562 1443.3325 L 867.470937 1457.785625 L 867.119375 1471.887188 L 866.767812 1485.949688 L 866.41625 1500.05125 L 866.41625 1514.152813 L 866.025625 1528.605938 L 866.025625 1542.7075 L 865.674062 1556.77 L 865.674062 1570.871563 L 865.3225 1584.973125 L 865.3225 1613.527813 L 864.931875 1627.590313 L 864.931875 1655.793438 L 864.580312 1670.246563 L 864.580312 1698.410625 M 984.580312 0.0903125 L 984.931875 14.191875 L 984.931875 28.254375 L 985.3225 42.746563 L 985.3225 56.848125 L 985.674062 70.910625 L 985.674062 85.012188 L 986.025625 99.11375 L 986.025625 113.566875 L 986.377187 127.629375 L 986.767812 141.730938 L 986.767812 155.8325 L 987.119375 169.934063 L 987.470937 184.387188 L 987.8225 198.449688 L 988.174062 212.55125 L 988.564687 226.652813 L 988.91625 240.715313 L 989.658437 254.816875 L 990.01 269.27 L 990.713125 283.371563 L 991.10375 297.434063 L 991.806875 311.535625 L 992.549062 325.637188 L 993.252187 339.73875 L 994.345937 354.191875 L 995.088125 368.293438 L 996.142812 382.355938 L 997.236562 396.4575 L 998.330312 410.559063 L 999.775625 424.621563 L 1001.220938 438.723125 L 1002.66625 452.824688 L 1004.463125 466.92625 L 1006.299063 480.98875 L 1008.4475 494.73875 L 1010.635 508.80125 L 1012.783438 522.902813 L 1015.674063 536.652813 L 1018.213125 550.754375 L 1021.10375 564.465313 L 1023.994375 578.566875 L 1027.236563 592.277813 L 1030.517813 606.027813 L 1033.76 619.777813 L 1037.35375 633.48875 L 1040.595938 647.199688 L 1043.877188 660.949688 L 1047.470938 674.660625 L 1050.713125 688.410625 L 1053.60375 702.512188 L 1056.494375 716.223125 L 1059.385 729.973125 L 1061.924063 744.074688 L 1064.0725 758.137188 L 1066.26 772.23875 L 1067.705313 785.98875 L 1069.150625 800.441875 L 1070.244375 814.504375 L 1070.986563 828.605938 L 1071.338125 842.7075 L 1071.338125 856.809063 L 1070.986563 870.871563 L 1070.244375 884.973125 L 1069.150625 899.42625 L 1068.056875 913.527813 L 1066.26 927.629375 L 1064.111563 941.340313 L 1061.924063 955.441875 L 1059.424063 969.543438 L 1056.885 983.254375 L 1053.994375 997.004375 L 1050.713125 1011.105938 L 1047.470938 1024.816875 L 1044.22875 1038.566875 L 1040.986563 1052.277813 L 1037.35375 1066.027813 L 1034.111563 1079.73875 L 1030.517813 1093.48875 L 1027.236563 1107.199688 L 1024.345938 1121.30125 L 1021.10375 1135.012188 L 1018.213125 1148.762188 L 1015.674063 1162.86375 L 1013.135 1176.574688 L 1010.595938 1190.67625 L 1008.4475 1204.777813 L 1006.611563 1218.527813 L 1004.463125 1232.590313 L 1003.017813 1246.691875 L 1001.181875 1260.793438 L 999.775625 1274.895 L 998.681875 1288.9575 L 997.236562 1303.059063 L 996.142812 1317.160625 L 995.049062 1331.262188 L 994.345937 1345.715313 L 993.60375 1359.816875 L 992.51 1373.879375 L 991.806875 1387.980938 L 991.41625 1402.0825 L 990.713125 1416.145 L 989.970937 1430.246563 L 989.619375 1444.699688 L 989.267812 1458.80125 L 988.525625 1472.902813 L 988.174062 1487.004375 L 987.8225 1501.105938 L 987.431875 1515.559063 L 987.080312 1529.621563 L 987.080312 1543.723125 L 986.72875 1557.824688 L 986.377187 1571.92625 L 986.025625 1586.379375 L 986.025625 1600.441875 L 985.635 1614.543438 L 985.635 1628.645 L 985.283437 1642.746563 L 985.283437 1657.199688 L 984.931875 1671.262188 L 984.931875 1699.465313 M 1105.283438 0.0903125 L 1105.283438 14.191875 L 1105.635 28.254375 L 1105.635 42.746563 L 1105.986563 56.848125 L 1105.986563 70.910625 L 1106.338125 85.012188 L 1106.338125 99.11375 L 1106.72875 113.566875 L 1107.080313 127.629375 L 1107.431875 141.730938 L 1107.783438 155.8325 L 1107.783438 169.934063 L 1108.135 184.387188 L 1108.525625 198.449688 L 1108.877188 212.55125 L 1109.22875 226.652813 L 1109.931875 240.715313 L 1110.3225 254.816875 L 1110.674063 269.27 L 1111.41625 283.371563 L 1111.767813 297.434063 L 1112.470938 311.535625 L 1113.213125 325.637188 L 1113.91625 339.73875 L 1114.267813 354.191875 L 1115.361563 368.293438 L 1116.064688 382.355938 L 1116.806875 396.4575 L 1117.900625 410.559063 L 1118.60375 424.621563 L 1119.6975 438.723125 L 1120.79125 452.824688 L 1121.845938 466.92625 L 1123.29125 481.340313 L 1124.385 495.441875 L 1125.830313 509.543438 L 1126.924063 523.645 L 1128.369375 537.7075 L 1129.814688 551.848125 L 1131.26 565.910625 L 1133.056875 580.012188 L 1134.502188 594.11375 L 1135.9475 608.17625 L 1137.744375 621.92625 L 1139.22875 636.027813 L 1140.674063 650.129375 L 1142.119375 664.191875 L 1143.91625 678.293438 L 1145.361563 692.395 L 1146.455313 706.496563 L 1147.900625 720.598125 L 1148.955313 734.660625 L 1150.049063 749.11375 L 1151.142813 763.215313 L 1151.845938 777.316875 L 1152.549063 791.379375 L 1153.29125 805.480938 L 1153.642813 819.5825 L 1153.994375 834.035625 L 1153.994375 862.199688 L 1153.642813 876.30125 L 1153.29125 890.402813 L 1152.900625 904.504375 L 1152.1975 918.9575 L 1151.494375 933.059063 L 1150.400625 947.121563 L 1149.306875 961.223125 L 1148.213125 975.324688 L 1146.767813 989.42625 L 1145.674063 1003.527813 L 1144.267813 1017.629375 L 1142.8225 1031.691875 L 1141.025625 1045.793438 L 1139.54125 1059.895 L 1138.095938 1073.996563 L 1136.299063 1088.098125 L 1134.85375 1102.160625 L 1133.4475 1116.262188 L 1131.963125 1130.36375 L 1130.16625 1144.465313 L 1128.720938 1158.527813 L 1127.275625 1172.629375 L 1126.181875 1186.730938 L 1124.736563 1200.8325 L 1123.642813 1214.934063 L 1122.236563 1228.996563 L 1121.142813 1243.098125 L 1120.049063 1257.199688 L 1118.994375 1271.30125 L 1117.900625 1285.402813 L 1117.1975 1299.465313 L 1116.10375 1313.918438 L 1115.361563 1328.02 L 1114.658438 1342.121563 L 1113.91625 1356.223125 L 1113.213125 1370.324688 L 1112.470938 1384.387188 L 1112.119375 1398.48875 L 1111.41625 1412.941875 L 1111.064688 1427.043438 L 1110.3225 1441.145 L 1109.970938 1455.2075 L 1109.619375 1469.309063 L 1109.267813 1483.762188 L 1108.877188 1497.86375 L 1108.525625 1511.965313 L 1108.174063 1526.027813 L 1107.8225 1540.129375 L 1107.431875 1554.230938 L 1107.080313 1568.684063 L 1106.72875 1582.785625 L 1106.72875 1596.848125 L 1106.377188 1610.949688 L 1106.025625 1625.05125 L 1106.025625 1639.504375 L 1105.635 1653.605938 L 1105.635 1667.668438 L 1105.283438 1681.77 L 1105.283438 1695.871563 M 1225.595938 0.0903125 L 1225.595938 14.191875 L 1225.986563 28.254375 L 1225.986563 42.746563 L 1226.338125 56.848125 L 1226.338125 70.910625 L 1226.689688 85.012188 L 1227.04125 99.11375 L 1227.04125 113.566875 L 1227.392813 127.629375 L 1227.783438 141.730938 L 1227.783438 155.8325 L 1228.135 169.934063 L 1228.486563 184.387188 L 1228.838125 198.449688 L 1229.22875 212.55125 L 1229.580313 226.652813 L 1229.931875 240.715313 L 1230.283438 254.816875 L 1230.674063 269.27 L 1231.025625 283.371563 L 1231.377188 297.434063 L 1231.72875 311.535625 L 1232.470938 325.637188 L 1232.8225 340.090313 L 1233.174063 354.191875 L 1233.91625 368.293438 L 1234.619375 382.355938 L 1234.970938 396.4575 L 1235.713125 410.559063 L 1236.41625 425.012188 L 1236.767813 439.074688 L 1237.51 453.17625 L 1238.213125 467.277813 L 1238.955313 481.340313 L 1239.658438 495.441875 L 1240.400625 509.543438 L 1241.10375 523.996563 L 1241.845938 538.098125 L 1242.900625 552.160625 L 1243.642813 566.262188 L 1244.345938 580.36375 L 1245.088125 594.465313 L 1245.79125 608.566875 L 1246.494375 623.02 L 1247.236563 637.0825 L 1248.29125 651.184063 L 1248.681875 665.285625 L 1249.385 679.387188 L 1250.127188 693.449688 L 1250.830313 707.902813 L 1251.533438 722.004375 L 1251.924063 736.105938 L 1252.275625 750.168438 L 1253.017813 764.27 L 1253.369375 778.371563 L 1253.369375 792.824688 L 1253.720938 806.92625 L 1254.0725 820.98875 L 1254.0725 877.746563 L 1253.720938 891.809063 L 1253.369375 905.910625 L 1253.369375 920.012188 L 1253.017813 934.465313 L 1252.275625 948.566875 L 1251.924063 962.629375 L 1251.533438 976.730938 L 1250.830313 990.8325 L 1250.127188 1004.934063 L 1249.736563 1019.387188 L 1249.033438 1033.48875 L 1248.29125 1047.55125 L 1247.588125 1061.652813 L 1246.885 1075.754375 L 1245.79125 1089.855938 L 1245.049063 1103.9575 L 1244.345938 1118.371563 L 1243.642813 1132.473125 L 1242.900625 1146.574688 L 1242.1975 1160.67625 L 1241.10375 1174.777813 L 1240.361563 1188.879375 L 1239.658438 1202.941875 L 1238.91625 1217.395 L 1238.213125 1231.496563 L 1237.470938 1245.598125 L 1237.119375 1259.660625 L 1236.41625 1273.762188 L 1235.674063 1287.86375 L 1234.970938 1302.316875 L 1234.619375 1316.418438 L 1233.877188 1330.52 L 1233.525625 1344.5825 L 1232.8225 1358.684063 L 1232.470938 1372.785625 L 1232.080313 1387.23875 L 1231.377188 1401.340313 L 1231.025625 1415.402813 L 1230.674063 1429.504375 L 1230.283438 1443.605938 L 1229.931875 1457.7075 L 1229.580313 1472.121563 L 1229.22875 1486.223125 L 1228.838125 1500.324688 L 1228.486563 1514.42625 L 1228.135 1528.527813 L 1227.783438 1542.941875 L 1227.783438 1557.043438 L 1227.392813 1571.145 L 1227.04125 1585.246563 L 1227.04125 1599.348125 L 1226.689688 1613.80125 L 1226.338125 1627.902813 L 1226.338125 1641.965313 L 1225.986563 1656.066875 L 1225.986563 1670.168438 L 1225.595938 1684.621563 L 1225.595938 1698.684063 M 1345.9475 0.0903125 L 1345.9475 14.191875 L 1346.299063 28.254375 L 1346.299063 42.746563 L 1346.650625 56.848125 L 1346.650625 70.910625 L 1347.002188 85.012188 L 1347.002188 99.11375 L 1347.392813 113.566875 L 1347.392813 127.629375 L 1347.744375 141.730938 L 1348.095938 155.8325 L 1348.095938 169.934063 L 1348.486563 184.387188 L 1348.838125 198.449688 L 1348.838125 212.55125 L 1349.189688 226.652813 L 1349.54125 240.715313 L 1349.892813 255.168438 L 1349.892813 269.27 L 1350.283438 283.371563 L 1350.635 297.434063 L 1350.986563 311.535625 L 1351.338125 325.637188 L 1351.72875 340.090313 L 1352.080313 354.191875 L 1352.431875 368.293438 L 1352.783438 382.355938 L 1353.174063 396.4575 L 1353.525625 410.910625 L 1353.877188 425.012188 L 1354.267813 439.074688 L 1354.619375 453.17625 L 1355.3225 467.277813 L 1355.713125 481.730938 L 1356.064688 495.793438 L 1356.41625 509.895 L 1356.767813 523.996563 L 1357.158438 538.098125 L 1357.861563 552.160625 L 1358.213125 566.61375 L 1358.564688 580.715313 L 1358.955313 594.816875 L 1359.306875 608.879375 L 1359.658438 622.980938 L 1360.361563 637.434063 L 1360.752188 651.535625 L 1361.10375 665.637188 L 1361.455313 679.699688 L 1361.455313 693.80125 L 1361.806875 707.902813 L 1362.1975 722.355938 L 1362.549063 736.4575 L 1362.549063 750.52 L 1362.900625 764.621563 L 1362.900625 778.723125 L 1363.252188 793.17625 L 1363.252188 821.340313 L 1363.60375 835.441875 L 1363.60375 863.996563 L 1363.252188 878.098125 L 1363.252188 906.262188 L 1362.900625 920.36375 L 1362.900625 934.816875 L 1362.549063 948.879375 L 1362.549063 962.980938 L 1362.1975 977.0825 L 1361.806875 991.184063 L 1361.455313 1005.637188 L 1361.455313 1019.73875 L 1361.10375 1033.80125 L 1360.752188 1047.902813 L 1360.361563 1062.004375 L 1359.658438 1076.4575 L 1359.306875 1090.559063 L 1358.955313 1104.621563 L 1358.564688 1118.723125 L 1358.213125 1132.824688 L 1357.861563 1146.92625 L 1357.51 1161.379375 L 1356.767813 1175.441875 L 1356.41625 1189.543438 L 1356.064688 1203.645 L 1355.713125 1217.746563 L 1355.3225 1232.199688 L 1354.619375 1246.30125 L 1354.267813 1260.36375 L 1353.877188 1274.465313 L 1353.525625 1288.566875 L 1353.174063 1302.668438 L 1352.783438 1317.121563 L 1352.431875 1331.223125 L 1352.080313 1345.324688 L 1351.72875 1359.387188 L 1351.377188 1373.48875 L 1350.986563 1387.941875 L 1350.635 1402.043438 L 1350.283438 1416.105938 L 1349.892813 1430.2075 L 1349.892813 1444.309063 L 1349.54125 1458.762188 L 1349.189688 1472.86375 L 1348.838125 1486.965313 L 1348.838125 1501.066875 L 1348.486563 1515.129375 L 1348.095938 1529.230938 L 1348.095938 1543.684063 L 1347.744375 1557.785625 L 1347.392813 1571.887188 L 1347.392813 1585.949688 L 1347.04125 1600.05125 L 1347.04125 1614.504375 L 1346.650625 1628.605938 L 1346.650625 1642.7075 L 1346.299063 1656.77 L 1346.299063 1670.871563 L 1345.9475 1685.324688 L 1345.9475 1699.42625 M 1466.26 0.0903125 L 1466.611563 14.191875 L 1466.611563 42.746563 L 1467.002188 56.848125 L 1467.002188 85.012188 L 1467.35375 99.11375 L 1467.35375 113.566875 L 1467.705313 127.629375 L 1467.705313 141.730938 L 1468.056875 155.8325 L 1468.056875 169.934063 L 1468.4475 184.387188 L 1468.4475 198.449688 L 1468.799063 212.55125 L 1468.799063 226.652813 L 1469.150625 240.715313 L 1469.150625 255.168438 L 1469.502188 269.27 L 1469.85375 283.371563 L 1469.85375 297.434063 L 1470.244375 311.535625 L 1470.595938 325.98875 L 1470.595938 340.090313 L 1470.9475 354.191875 L 1471.338125 368.293438 L 1471.338125 382.355938 L 1471.650625 396.4575 L 1472.04125 410.910625 L 1472.04125 425.012188 L 1472.392813 439.074688 L 1472.744375 453.17625 L 1472.744375 467.277813 L 1473.135 481.730938 L 1473.486563 495.793438 L 1473.838125 509.895 L 1473.838125 523.996563 L 1474.189688 538.098125 L 1474.54125 552.55125 L 1474.54125 566.61375 L 1474.931875 580.715313 L 1475.283438 594.816875 L 1475.283438 608.879375 L 1475.635 623.371563 L 1475.986563 637.434063 L 1475.986563 651.535625 L 1476.377188 665.637188 L 1476.377188 679.699688 L 1476.72875 694.152813 L 1476.72875 722.355938 L 1477.080313 736.4575 L 1477.080313 764.973125 L 1477.431875 779.074688 L 1477.431875 920.715313 L 1477.080313 934.816875 L 1477.080313 962.980938 L 1476.72875 977.434063 L 1476.72875 1005.637188 L 1476.377188 1019.73875 L 1476.377188 1033.80125 L 1475.986563 1048.254375 L 1475.986563 1062.355938 L 1475.635 1076.4575 L 1475.283438 1090.559063 L 1475.283438 1104.660625 L 1474.931875 1119.11375 L 1474.54125 1133.17625 L 1474.54125 1147.277813 L 1474.189688 1161.379375 L 1473.838125 1175.480938 L 1473.838125 1189.543438 L 1473.486563 1204.035625 L 1473.135 1218.098125 L 1472.744375 1232.199688 L 1472.744375 1246.30125 L 1472.392813 1260.402813 L 1472.04125 1274.855938 L 1472.04125 1288.9575 L 1471.650625 1303.02 L 1471.338125 1317.121563 L 1471.338125 1331.223125 L 1470.9475 1345.67625 L 1470.595938 1359.777813 L 1470.595938 1373.879375 L 1470.244375 1387.941875 L 1469.85375 1402.043438 L 1469.85375 1416.496563 L 1469.502188 1430.598125 L 1469.150625 1444.660625 L 1469.150625 1458.762188 L 1468.799063 1472.86375 L 1468.799063 1487.316875 L 1468.4475 1501.418438 L 1468.4475 1515.480938 L 1468.056875 1529.5825 L 1468.056875 1543.684063 L 1467.705313 1558.137188 L 1467.705313 1572.199688 L 1467.35375 1586.30125 L 1467.35375 1614.504375 L 1467.002188 1628.9575 L 1467.002188 1643.02 L 1466.611563 1657.121563 L 1466.611563 1685.324688 L 1466.26 1699.777813 " transform="matrix(0.1,0,0,-0.1,0.124,170.802)"/>
<path style="fill-rule:nonzero;fill:rgb(100%,100%,100%);fill-opacity:1;stroke-width:5.102;stroke-linecap:butt;stroke-linejoin:miter;stroke:rgb(100%,100%,100%);stroke-opacity:1;stroke-miterlimit:4;" d="M 977.1975 1191.223125 L 1037.8225 1191.223125 L 1037.8225 1263.80125 L 977.1975 1263.80125 L 977.1975 1191.223125 Z M 977.1975 1191.223125 " transform="matrix(0.1,0,0,-0.1,0.124,170.802)"/>
<path style="fill:none;stroke-width:5;stroke-linecap:butt;stroke-linejoin:miter;stroke:rgb(0%,0%,0%);stroke-opacity:1;stroke-miterlimit:10;" d="M 999.033437 850.012188 C 999.033437 709.11375 884.814687 594.895 743.91625 594.895 C 603.017812 594.895 488.799063 709.11375 488.799063 850.012188 C 488.799063 990.910625 603.017812 1105.129375 743.91625 1105.129375 C 884.814687 1105.129375 999.033437 990.910625 999.033437 850.012188 Z M 999.033437 850.012188 " transform="matrix(0.1,0,0,-0.1,0.124,170.802)"/>
<path style="fill:none;stroke-width:5.102;stroke-linecap:butt;stroke-linejoin:miter;stroke:rgb(0%,0%,0%);stroke-opacity:1;stroke-miterlimit:4;" d="M 1020.3225 1244.73875 L 743.91625 850.012188 " transform="matrix(0.1,0,0,-0.1,0.124,170.802)"/>
<path style=" stroke:none;fill-rule:nonzero;fill:rgb(0%,0%,0%);fill-opacity:1;" d="M 101.328125 49.402344 L 102.78125 45.453125 L 99.550781 48.144531 L 101.328125 49.402344 "/>
<path style=" stroke:none;fill-rule:nonzero;fill:rgb(0%,0%,0%);fill-opacity:1;" d="M 3.347656 145.273438 L 1.878906 139.859375 L 0.441406 145.285156 L 3.347656 145.273438 "/>
<path style=" stroke:none;fill-rule:nonzero;fill:rgb(0%,0%,0%);fill-opacity:1;" d="M 15.324219 145.261719 L 13.828125 139.851563 L 12.421875 145.285156 L 15.324219 145.261719 "/>
<path style=" stroke:none;fill-rule:nonzero;fill:rgb(0%,0%,0%);fill-opacity:1;" d="M 27.253906 145.234375 L 25.707031 139.839844 L 24.347656 145.285156 L 27.253906 145.234375 "/>
<path style=" stroke:none;fill-rule:nonzero;fill:rgb(0%,0%,0%);fill-opacity:1;" d="M 39.289063 145.210938 L 37.695313 139.828125 L 36.386719 145.285156 L 39.289063 145.210938 "/>
<path style=" stroke:none;fill-rule:nonzero;fill:rgb(0%,0%,0%);fill-opacity:1;" d="M 51.398438 145.234375 L 49.714844 139.84375 L 48.492188 145.285156 L 51.398438 145.234375 "/>
<path style=" stroke:none;fill-rule:nonzero;fill:rgb(0%,0%,0%);fill-opacity:1;" d="M 63.640625 145.285156 L 61.996094 139.871094 L 60.738281 145.285156 L 63.640625 145.285156 "/>
<path style=" stroke:none;fill-rule:nonzero;fill:rgb(0%,0%,0%);fill-opacity:1;" d="M 75.96875 145.285156 L 74.515625 139.863281 L 73.0625 145.285156 L 75.96875 145.285156 "/>
<path style=" stroke:none;fill-rule:nonzero;fill:rgb(0%,0%,0%);fill-opacity:1;" d="M 88.242188 145.285156 L 87.074219 139.796875 L 85.34375 145.132813 L 88.242188 145.285156 "/>
<path style=" stroke:none;fill-rule:nonzero;fill:rgb(0%,0%,0%);fill-opacity:1;" d="M 100.554688 145.285156 L 99.296875 139.816406 L 97.652344 145.183594 L 100.554688 145.285156 "/>
<path style=" stroke:none;fill-rule:nonzero;fill:rgb(0%,0%,0%);fill-opacity:1;" d="M 112.664063 145.285156 L 111.355469 139.828125 L 109.761719 145.210938 L 112.664063 145.285156 "/>
<path style=" stroke:none;fill-rule:nonzero;fill:rgb(0%,0%,0%);fill-opacity:1;" d="M 124.644531 145.285156 L 123.265625 139.847656 L 121.738281 145.246094 L 124.644531 145.285156 "/>
<path style=" stroke:none;fill-rule:nonzero;fill:rgb(0%,0%,0%);fill-opacity:1;" d="M 136.585938 145.285156 L 135.171875 139.855469 L 133.679688 145.265625 L 136.585938 145.285156 "/>
<path style=" stroke:none;fill-rule:nonzero;fill:rgb(0%,0%,0%);fill-opacity:1;" d="M 148.507813 145.285156 L 147.054688 139.863281 L 145.601563 145.285156 L 148.507813 145.285156 "/>
<path style=" stroke:none;fill-rule:nonzero;fill:rgb(0%,0%,0%);fill-opacity:1;" d="M 3.367188 31.253906 L 1.953125 25.820313 L 0.464844 31.234375 L 3.367188 31.253906 "/>
<path style=" stroke:none;fill-rule:nonzero;fill:rgb(0%,0%,0%);fill-opacity:1;" d="M 15.335938 31.253906 L 13.929688 25.820313 L 12.429688 31.230469 L 15.335938 31.253906 "/>
<path style=" stroke:none;fill-rule:nonzero;fill:rgb(0%,0%,0%);fill-opacity:1;" d="M 27.304688 31.257813 L 25.910156 25.820313 L 24.398438 31.226563 L 27.304688 31.257813 "/>
<path style=" stroke:none;fill-rule:nonzero;fill:rgb(0%,0%,0%);fill-opacity:1;" d="M 39.226563 31.273438 L 37.898438 25.820313 L 36.320313 31.207031 L 39.226563 31.273438 "/>
<path style=" stroke:none;fill-rule:nonzero;fill:rgb(0%,0%,0%);fill-opacity:1;" d="M 51.285156 31.28125 L 49.992188 25.820313 L 48.382813 31.195313 L 51.285156 31.28125 "/>
<path style=" stroke:none;fill-rule:nonzero;fill:rgb(0%,0%,0%);fill-opacity:1;" d="M 63.527344 31.246094 L 62.09375 25.820313 L 60.621094 31.238281 L 63.527344 31.246094 "/>
<path style=" stroke:none;fill-rule:nonzero;fill:rgb(0%,0%,0%);fill-opacity:1;" d="M 75.96875 31.242188 L 74.515625 25.820313 L 73.066406 31.242188 L 75.96875 31.242188 "/>
<path style=" stroke:none;fill-rule:nonzero;fill:rgb(0%,0%,0%);fill-opacity:1;" d="M 88.394531 31.238281 L 86.925781 25.820313 L 85.492188 31.246094 L 88.394531 31.238281 "/>
<path style=" stroke:none;fill-rule:nonzero;fill:rgb(0%,0%,0%);fill-opacity:1;" d="M 100.632813 31.222656 L 99.105469 25.820313 L 97.726563 31.261719 L 100.632813 31.222656 "/>
<path style=" stroke:none;fill-rule:nonzero;fill:rgb(0%,0%,0%);fill-opacity:1;" d="M 112.726563 31.230469 L 111.226563 25.820313 L 109.820313 31.253906 L 112.726563 31.230469 "/>
<path style=" stroke:none;fill-rule:nonzero;fill:rgb(0%,0%,0%);fill-opacity:1;" d="M 124.675781 31.226563 L 123.167969 25.820313 L 121.769531 31.257813 L 124.675781 31.226563 "/>
<path style=" stroke:none;fill-rule:nonzero;fill:rgb(0%,0%,0%);fill-opacity:1;" d="M 136.628906 31.222656 L 135.109375 25.820313 L 133.726563 31.257813 L 136.628906 31.222656 "/>
<path style=" stroke:none;fill-rule:nonzero;fill:rgb(0%,0%,0%);fill-opacity:1;" d="M 148.597656 31.214844 L 147.050781 25.820313 L 145.691406 31.265625 L 148.597656 31.214844 "/>
<path style=" stroke:none;fill-rule:nonzero;fill:rgb(0%,0%,0%);fill-opacity:1;" d="M 104.335938 44.628906 C 104.335938 45.179688 103.890625 45.621094 103.34375 45.621094 C 102.796875 45.621094 102.351563 45.179688 102.351563 44.628906 C 102.351563 44.082031 102.796875 43.636719 103.34375 43.636719 C 103.890625 43.636719 104.335938 44.082031 104.335938 44.628906 "/>
</g>
</g>
<g clip-path="url(#clip3)" clip-rule="nonzero">
<g clip-path="url(#clip4)" clip-rule="nonzero">
<g clip-path="url(#clip5)" clip-rule="nonzero">
<path style="fill:none;stroke-width:2.4;stroke-linecap:butt;stroke-linejoin:miter;stroke:rgb(0%,0%,0%);stroke-opacity:1;stroke-miterlimit:4;" d="M 550.713125 650.715313 L 429.267813 529.27 " transform="matrix(0.1,0,0,-0.1,0.124,170.802)"/>
<path style="fill:none;stroke-width:2.4;stroke-linecap:butt;stroke-linejoin:miter;stroke:rgb(0%,0%,0%);stroke-opacity:1;stroke-miterlimit:4;" d="M 620.713125 650.715313 L 499.267813 529.27 " transform="matrix(0.1,0,0,-0.1,0.124,170.802)"/>
<path style="fill:none;stroke-width:2.4;stroke-linecap:butt;stroke-linejoin:miter;stroke:rgb(0%,0%,0%);stroke-opacity:1;stroke-miterlimit:4;" d="M 690.713125 650.715313 L 569.267812 529.27 " transform="matrix(0.1,0,0,-0.1,0.124,170.802)"/>
<path style="fill:none;stroke-width:2.4;stroke-linecap:butt;stroke-linejoin:miter;stroke:rgb(0%,0%,0%);stroke-opacity:1;stroke-miterlimit:4;" d="M 760.713125 650.715313 L 639.267812 529.27 " transform="matrix(0.1,0,0,-0.1,0.124,170.802)"/>
<path style="fill:none;stroke-width:2.4;stroke-linecap:butt;stroke-linejoin:miter;stroke:rgb(0%,0%,0%);stroke-opacity:1;stroke-miterlimit:4;" d="M 830.713125 650.715313 L 709.267812 529.27 " transform="matrix(0.1,0,0,-0.1,0.124,170.802)"/>
<path style="fill:none;stroke-width:2.4;stroke-linecap:butt;stroke-linejoin:miter;stroke:rgb(0%,0%,0%);stroke-opacity:1;stroke-miterlimit:4;" d="M 900.713125 650.715313 L 779.267812 529.27 " transform="matrix(0.1,0,0,-0.1,0.124,170.802)"/>
<path style="fill:none;stroke-width:2.4;stroke-linecap:butt;stroke-linejoin:miter;stroke:rgb(0%,0%,0%);stroke-opacity:1;stroke-miterlimit:4;" d="M 970.713125 650.715313 L 849.267812 529.27 " transform="matrix(0.1,0,0,-0.1,0.124,170.802)"/>
<path style="fill:none;stroke-width:2.4;stroke-linecap:butt;stroke-linejoin:miter;stroke:rgb(0%,0%,0%);stroke-opacity:1;stroke-miterlimit:4;" d="M 1040.713125 650.715313 L 919.267812 529.27 " transform="matrix(0.1,0,0,-0.1,0.124,170.802)"/>
<path style="fill:none;stroke-width:2.4;stroke-linecap:butt;stroke-linejoin:miter;stroke:rgb(0%,0%,0%);stroke-opacity:1;stroke-miterlimit:4;" d="M 1110.713125 650.715313 L 989.267812 529.27 " transform="matrix(0.1,0,0,-0.1,0.124,170.802)"/>
<path style="fill:none;stroke-width:2.4;stroke-linecap:butt;stroke-linejoin:miter;stroke:rgb(0%,0%,0%);stroke-opacity:1;stroke-miterlimit:4;" d="M 550.713125 720.715313 L 429.267813 599.27 " transform="matrix(0.1,0,0,-0.1,0.124,170.802)"/>
<path style="fill:none;stroke-width:2.4;stroke-linecap:butt;stroke-linejoin:miter;stroke:rgb(0%,0%,0%);stroke-opacity:1;stroke-miterlimit:4;" d="M 620.713125 720.715313 L 499.267813 599.27 " transform="matrix(0.1,0,0,-0.1,0.124,170.802)"/>
<path style="fill:none;stroke-width:2.4;stroke-linecap:butt;stroke-linejoin:miter;stroke:rgb(0%,0%,0%);stroke-opacity:1;stroke-miterlimit:4;" d="M 690.713125 720.715313 L 569.267812 599.27 " transform="matrix(0.1,0,0,-0.1,0.124,170.802)"/>
<path style="fill:none;stroke-width:2.4;stroke-linecap:butt;stroke-linejoin:miter;stroke:rgb(0%,0%,0%);stroke-opacity:1;stroke-miterlimit:4;" d="M 760.713125 720.715313 L 639.267812 599.27 " transform="matrix(0.1,0,0,-0.1,0.124,170.802)"/>
<path style="fill:none;stroke-width:2.4;stroke-linecap:butt;stroke-linejoin:miter;stroke:rgb(0%,0%,0%);stroke-opacity:1;stroke-miterlimit:4;" d="M 830.713125 720.715313 L 709.267812 599.27 " transform="matrix(0.1,0,0,-0.1,0.124,170.802)"/>
<path style="fill:none;stroke-width:2.4;stroke-linecap:butt;stroke-linejoin:miter;stroke:rgb(0%,0%,0%);stroke-opacity:1;stroke-miterlimit:4;" d="M 900.713125 720.715313 L 779.267812 599.27 " transform="matrix(0.1,0,0,-0.1,0.124,170.802)"/>
<path style="fill:none;stroke-width:2.4;stroke-linecap:butt;stroke-linejoin:miter;stroke:rgb(0%,0%,0%);stroke-opacity:1;stroke-miterlimit:4;" d="M 970.713125 720.715313 L 849.267812 599.27 " transform="matrix(0.1,0,0,-0.1,0.124,170.802)"/>
<path style="fill:none;stroke-width:2.4;stroke-linecap:butt;stroke-linejoin:miter;stroke:rgb(0%,0%,0%);stroke-opacity:1;stroke-miterlimit:4;" d="M 1040.713125 720.715313 L 919.267812 599.27 " transform="matrix(0.1,0,0,-0.1,0.124,170.802)"/>
<path style="fill:none;stroke-width:2.4;stroke-linecap:butt;stroke-linejoin:miter;stroke:rgb(0%,0%,0%);stroke-opacity:1;stroke-miterlimit:4;" d="M 1110.713125 720.715313 L 989.267812 599.27 " transform="matrix(0.1,0,0,-0.1,0.124,170.802)"/>
<path style="fill:none;stroke-width:2.4;stroke-linecap:butt;stroke-linejoin:miter;stroke:rgb(0%,0%,0%);stroke-opacity:1;stroke-miterlimit:4;" d="M 550.713125 790.715313 L 429.267813 669.27 " transform="matrix(0.1,0,0,-0.1,0.124,170.802)"/>
<path style="fill:none;stroke-width:2.4;stroke-linecap:butt;stroke-linejoin:miter;stroke:rgb(0%,0%,0%);stroke-opacity:1;stroke-miterlimit:4;" d="M 620.713125 790.715313 L 499.267813 669.27 " transform="matrix(0.1,0,0,-0.1,0.124,170.802)"/>
<path style="fill:none;stroke-width:2.4;stroke-linecap:butt;stroke-linejoin:miter;stroke:rgb(0%,0%,0%);stroke-opacity:1;stroke-miterlimit:4;" d="M 690.713125 790.715313 L 569.267812 669.27 " transform="matrix(0.1,0,0,-0.1,0.124,170.802)"/>
<path style="fill:none;stroke-width:2.4;stroke-linecap:butt;stroke-linejoin:miter;stroke:rgb(0%,0%,0%);stroke-opacity:1;stroke-miterlimit:4;" d="M 760.713125 790.715313 L 639.267812 669.27 " transform="matrix(0.1,0,0,-0.1,0.124,170.802)"/>
<path style="fill:none;stroke-width:2.4;stroke-linecap:butt;stroke-linejoin:miter;stroke:rgb(0%,0%,0%);stroke-opacity:1;stroke-miterlimit:4;" d="M 830.713125 790.715313 L 709.267812 669.27 " transform="matrix(0.1,0,0,-0.1,0.124,170.802)"/>
<path style="fill:none;stroke-width:2.4;stroke-linecap:butt;stroke-linejoin:miter;stroke:rgb(0%,0%,0%);stroke-opacity:1;stroke-miterlimit:4;" d="M 900.713125 790.715313 L 779.267812 669.27 " transform="matrix(0.1,0,0,-0.1,0.124,170.802)"/>
<path style="fill:none;stroke-width:2.4;stroke-linecap:butt;stroke-linejoin:miter;stroke:rgb(0%,0%,0%);stroke-opacity:1;stroke-miterlimit:4;" d="M 970.713125 790.715313 L 849.267812 669.27 " transform="matrix(0.1,0,0,-0.1,0.124,170.802)"/>
<path style="fill:none;stroke-width:2.4;stroke-linecap:butt;stroke-linejoin:miter;stroke:rgb(0%,0%,0%);stroke-opacity:1;stroke-miterlimit:4;" d="M 1040.713125 790.715313 L 919.267812 669.27 " transform="matrix(0.1,0,0,-0.1,0.124,170.802)"/>
<path style="fill:none;stroke-width:2.4;stroke-linecap:butt;stroke-linejoin:miter;stroke:rgb(0%,0%,0%);stroke-opacity:1;stroke-miterlimit:4;" d="M 1110.713125 790.715313 L 989.267812 669.27 " transform="matrix(0.1,0,0,-0.1,0.124,170.802)"/>
<path style="fill:none;stroke-width:2.4;stroke-linecap:butt;stroke-linejoin:miter;stroke:rgb(0%,0%,0%);stroke-opacity:1;stroke-miterlimit:4;" d="M 550.713125 860.715313 L 429.267813 739.27 " transform="matrix(0.1,0,0,-0.1,0.124,170.802)"/>
<path style="fill:none;stroke-width:2.4;stroke-linecap:butt;stroke-linejoin:miter;stroke:rgb(0%,0%,0%);stroke-opacity:1;stroke-miterlimit:4;" d="M 620.713125 860.715313 L 499.267813 739.27 " transform="matrix(0.1,0,0,-0.1,0.124,170.802)"/>
<path style="fill:none;stroke-width:2.4;stroke-linecap:butt;stroke-linejoin:miter;stroke:rgb(0%,0%,0%);stroke-opacity:1;stroke-miterlimit:4;" d="M 690.713125 860.715313 L 569.267812 739.27 " transform="matrix(0.1,0,0,-0.1,0.124,170.802)"/>
<path style="fill:none;stroke-width:2.4;stroke-linecap:butt;stroke-linejoin:miter;stroke:rgb(0%,0%,0%);stroke-opacity:1;stroke-miterlimit:4;" d="M 760.713125 860.715313 L 639.267812 739.27 " transform="matrix(0.1,0,0,-0.1,0.124,170.802)"/>
<path style="fill:none;stroke-width:2.4;stroke-linecap:butt;stroke-linejoin:miter;stroke:rgb(0%,0%,0%);stroke-opacity:1;stroke-miterlimit:4;" d="M 830.713125 860.715313 L 709.267812 739.27 " transform="matrix(0.1,0,0,-0.1,0.124,170.802)"/>
<path style="fill:none;stroke-width:2.4;stroke-linecap:butt;stroke-linejoin:miter;stroke:rgb(0%,0%,0%);stroke-opacity:1;stroke-miterlimit:4;" d="M 900.713125 860.715313 L 779.267812 739.27 " transform="matrix(0.1,0,0,-0.1,0.124,170.802)"/>
<path style="fill:none;stroke-width:2.4;stroke-linecap:butt;stroke-linejoin:miter;stroke:rgb(0%,0%,0%);stroke-opacity:1;stroke-miterlimit:4;" d="M 970.713125 860.715313 L 849.267812 739.27 " transform="matrix(0.1,0,0,-0.1,0.124,170.802)"/>
<path style="fill:none;stroke-width:2.4;stroke-linecap:butt;stroke-linejoin:miter;stroke:rgb(0%,0%,0%);stroke-opacity:1;stroke-miterlimit:4;" d="M 1040.713125 860.715313 L 919.267812 739.27 " transform="matrix(0.1,0,0,-0.1,0.124,170.802)"/>
<path style="fill:none;stroke-width:2.4;stroke-linecap:butt;stroke-linejoin:miter;stroke:rgb(0%,0%,0%);stroke-opacity:1;stroke-miterlimit:4;" d="M 1110.713125 860.715313 L 989.267812 739.27 " transform="matrix(0.1,0,0,-0.1,0.124,170.802)"/>
<path style="fill:none;stroke-width:2.4;stroke-linecap:butt;stroke-linejoin:miter;stroke:rgb(0%,0%,0%);stroke-opacity:1;stroke-miterlimit:4;" d="M 550.713125 930.715313 L 429.267813 809.27 " transform="matrix(0.1,0,0,-0.1,0.124,170.802)"/>
<path style="fill:none;stroke-width:2.4;stroke-linecap:butt;stroke-linejoin:miter;stroke:rgb(0%,0%,0%);stroke-opacity:1;stroke-miterlimit:4;" d="M 620.713125 930.715313 L 499.267813 809.27 " transform="matrix(0.1,0,0,-0.1,0.124,170.802)"/>
<path style="fill:none;stroke-width:2.4;stroke-linecap:butt;stroke-linejoin:miter;stroke:rgb(0%,0%,0%);stroke-opacity:1;stroke-miterlimit:4;" d="M 690.713125 930.715313 L 569.267812 809.27 " transform="matrix(0.1,0,0,-0.1,0.124,170.802)"/>
<path style="fill:none;stroke-width:2.4;stroke-linecap:butt;stroke-linejoin:miter;stroke:rgb(0%,0%,0%);stroke-opacity:1;stroke-miterlimit:4;" d="M 760.713125 930.715313 L 639.267812 809.27 " transform="matrix(0.1,0,0,-0.1,0.124,170.802)"/>
<path style="fill:none;stroke-width:2.4;stroke-linecap:butt;stroke-linejoin:miter;stroke:rgb(0%,0%,0%);stroke-opacity:1;stroke-miterlimit:4;" d="M 830.713125 930.715313 L 709.267812 809.27 " transform="matrix(0.1,0,0,-0.1,0.124,170.802)"/>
<path style="fill:none;stroke-width:2.4;stroke-linecap:butt;stroke-linejoin:miter;stroke:rgb(0%,0%,0%);stroke-opacity:1;stroke-miterlimit:4;" d="M 900.713125 930.715313 L 779.267812 809.27 " transform="matrix(0.1,0,0,-0.1,0.124,170.802)"/>
<path style="fill:none;stroke-width:2.4;stroke-linecap:butt;stroke-linejoin:miter;stroke:rgb(0%,0%,0%);stroke-opacity:1;stroke-miterlimit:4;" d="M 970.713125 930.715313 L 849.267812 809.27 " transform="matrix(0.1,0,0,-0.1,0.124,170.802)"/>
<path style="fill:none;stroke-width:2.4;stroke-linecap:butt;stroke-linejoin:miter;stroke:rgb(0%,0%,0%);stroke-opacity:1;stroke-miterlimit:4;" d="M 1040.713125 930.715313 L 919.267812 809.27 " transform="matrix(0.1,0,0,-0.1,0.124,170.802)"/>
<path style="fill:none;stroke-width:2.4;stroke-linecap:butt;stroke-linejoin:miter;stroke:rgb(0%,0%,0%);stroke-opacity:1;stroke-miterlimit:4;" d="M 1110.713125 930.715313 L 989.267812 809.27 " transform="matrix(0.1,0,0,-0.1,0.124,170.802)"/>
<path style="fill:none;stroke-width:2.4;stroke-linecap:butt;stroke-linejoin:miter;stroke:rgb(0%,0%,0%);stroke-opacity:1;stroke-miterlimit:4;" d="M 550.713125 1000.715313 L 429.267813 879.27 " transform="matrix(0.1,0,0,-0.1,0.124,170.802)"/>
<path style="fill:none;stroke-width:2.4;stroke-linecap:butt;stroke-linejoin:miter;stroke:rgb(0%,0%,0%);stroke-opacity:1;stroke-miterlimit:4;" d="M 620.713125 1000.715313 L 499.267813 879.27 " transform="matrix(0.1,0,0,-0.1,0.124,170.802)"/>
<path style="fill:none;stroke-width:2.4;stroke-linecap:butt;stroke-linejoin:miter;stroke:rgb(0%,0%,0%);stroke-opacity:1;stroke-miterlimit:4;" d="M 690.713125 1000.715313 L 569.267812 879.27 " transform="matrix(0.1,0,0,-0.1,0.124,170.802)"/>
<path style="fill:none;stroke-width:2.4;stroke-linecap:butt;stroke-linejoin:miter;stroke:rgb(0%,0%,0%);stroke-opacity:1;stroke-miterlimit:4;" d="M 760.713125 1000.715313 L 639.267812 879.27 " transform="matrix(0.1,0,0,-0.1,0.124,170.802)"/>
<path style="fill:none;stroke-width:2.4;stroke-linecap:butt;stroke-linejoin:miter;stroke:rgb(0%,0%,0%);stroke-opacity:1;stroke-miterlimit:4;" d="M 830.713125 1000.715313 L 709.267812 879.27 " transform="matrix(0.1,0,0,-0.1,0.124,170.802)"/>
<path style="fill:none;stroke-width:2.4;stroke-linecap:butt;stroke-linejoin:miter;stroke:rgb(0%,0%,0%);stroke-opacity:1;stroke-miterlimit:4;" d="M 900.713125 1000.715313 L 779.267812 879.27 " transform="matrix(0.1,0,0,-0.1,0.124,170.802)"/>
<path style="fill:none;stroke-width:2.4;stroke-linecap:butt;stroke-linejoin:miter;stroke:rgb(0%,0%,0%);stroke-opacity:1;stroke-miterlimit:4;" d="M 970.713125 1000.715313 L 849.267812 879.27 " transform="matrix(0.1,0,0,-0.1,0.124,170.802)"/>
<path style="fill:none;stroke-width:2.4;stroke-linecap:butt;stroke-linejoin:miter;stroke:rgb(0%,0%,0%);stroke-opacity:1;stroke-miterlimit:4;" d="M 1040.713125 1000.715313 L 919.267812 879.27 " transform="matrix(0.1,0,0,-0.1,0.124,170.802)"/>
<path style="fill:none;stroke-width:2.4;stroke-linecap:butt;stroke-linejoin:miter;stroke:rgb(0%,0%,0%);stroke-opacity:1;stroke-miterlimit:4;" d="M 1110.713125 1000.715313 L 989.267812 879.27 " transform="matrix(0.1,0,0,-0.1,0.124,170.802)"/>
<path style="fill:none;stroke-width:2.4;stroke-linecap:butt;stroke-linejoin:miter;stroke:rgb(0%,0%,0%);stroke-opacity:1;stroke-miterlimit:4;" d="M 550.713125 1070.715313 L 429.267813 949.27 " transform="matrix(0.1,0,0,-0.1,0.124,170.802)"/>
<path style="fill:none;stroke-width:2.4;stroke-linecap:butt;stroke-linejoin:miter;stroke:rgb(0%,0%,0%);stroke-opacity:1;stroke-miterlimit:4;" d="M 620.713125 1070.715313 L 499.267813 949.27 " transform="matrix(0.1,0,0,-0.1,0.124,170.802)"/>
<path style="fill:none;stroke-width:2.4;stroke-linecap:butt;stroke-linejoin:miter;stroke:rgb(0%,0%,0%);stroke-opacity:1;stroke-miterlimit:4;" d="M 690.713125 1070.715313 L 569.267812 949.27 " transform="matrix(0.1,0,0,-0.1,0.124,170.802)"/>
<path style="fill:none;stroke-width:2.4;stroke-linecap:butt;stroke-linejoin:miter;stroke:rgb(0%,0%,0%);stroke-opacity:1;stroke-miterlimit:4;" d="M 760.713125 1070.715313 L 639.267812 949.27 " transform="matrix(0.1,0,0,-0.1,0.124,170.802)"/>
<path style="fill:none;stroke-width:2.4;stroke-linecap:butt;stroke-linejoin:miter;stroke:rgb(0%,0%,0%);stroke-opacity:1;stroke-miterlimit:4;" d="M 830.713125 1070.715313 L 709.267812 949.27 " transform="matrix(0.1,0,0,-0.1,0.124,170.802)"/>
<path style="fill:none;stroke-width:2.4;stroke-linecap:butt;stroke-linejoin:miter;stroke:rgb(0%,0%,0%);stroke-opacity:1;stroke-miterlimit:4;" d="M 900.713125 1070.715313 L 779.267812 949.27 " transform="matrix(0.1,0,0,-0.1,0.124,170.802)"/>
<path style="fill:none;stroke-width:2.4;stroke-linecap:butt;stroke-linejoin:miter;stroke:rgb(0%,0%,0%);stroke-opacity:1;stroke-miterlimit:4;" d="M 970.713125 1070.715313 L 849.267812 949.27 " transform="matrix(0.1,0,0,-0.1,0.124,170.802)"/>
<path style="fill:none;stroke-width:2.4;stroke-linecap:butt;stroke-linejoin:miter;stroke:rgb(0%,0%,0%);stroke-opacity:1;stroke-miterlimit:4;" d="M 1040.713125 1070.715313 L 919.267812 949.27 " transform="matrix(0.1,0,0,-0.1,0.124,170.802)"/>
<path style="fill:none;stroke-width:2.4;stroke-linecap:butt;stroke-linejoin:miter;stroke:rgb(0%,0%,0%);stroke-opacity:1;stroke-miterlimit:4;" d="M 1110.713125 1070.715313 L 989.267812 949.27 " transform="matrix(0.1,0,0,-0.1,0.124,170.802)"/>
<path style="fill:none;stroke-width:2.4;stroke-linecap:butt;stroke-linejoin:miter;stroke:rgb(0%,0%,0%);stroke-opacity:1;stroke-miterlimit:4;" d="M 550.713125 1140.715313 L 429.267813 1019.27 " transform="matrix(0.1,0,0,-0.1,0.124,170.802)"/>
<path style="fill:none;stroke-width:2.4;stroke-linecap:butt;stroke-linejoin:miter;stroke:rgb(0%,0%,0%);stroke-opacity:1;stroke-miterlimit:4;" d="M 620.713125 1140.715313 L 499.267813 1019.27 " transform="matrix(0.1,0,0,-0.1,0.124,170.802)"/>
<path style="fill:none;stroke-width:2.4;stroke-linecap:butt;stroke-linejoin:miter;stroke:rgb(0%,0%,0%);stroke-opacity:1;stroke-miterlimit:4;" d="M 690.713125 1140.715313 L 569.267812 1019.27 " transform="matrix(0.1,0,0,-0.1,0.124,170.802)"/>
<path style="fill:none;stroke-width:2.4;stroke-linecap:butt;stroke-linejoin:miter;stroke:rgb(0%,0%,0%);stroke-opacity:1;stroke-miterlimit:4;" d="M 760.713125 1140.715313 L 639.267812 1019.27 " transform="matrix(0.1,0,0,-0.1,0.124,170.802)"/>
<path style="fill:none;stroke-width:2.4;stroke-linecap:butt;stroke-linejoin:miter;stroke:rgb(0%,0%,0%);stroke-opacity:1;stroke-miterlimit:4;" d="M 830.713125 1140.715313 L 709.267812 1019.27 " transform="matrix(0.1,0,0,-0.1,0.124,170.802)"/>
<path style="fill:none;stroke-width:2.4;stroke-linecap:butt;stroke-linejoin:miter;stroke:rgb(0%,0%,0%);stroke-opacity:1;stroke-miterlimit:4;" d="M 900.713125 1140.715313 L 779.267812 1019.27 " transform="matrix(0.1,0,0,-0.1,0.124,170.802)"/>
<path style="fill:none;stroke-width:2.4;stroke-linecap:butt;stroke-linejoin:miter;stroke:rgb(0%,0%,0%);stroke-opacity:1;stroke-miterlimit:4;" d="M 970.713125 1140.715313 L 849.267812 1019.27 " transform="matrix(0.1,0,0,-0.1,0.124,170.802)"/>
<path style="fill:none;stroke-width:2.4;stroke-linecap:butt;stroke-linejoin:miter;stroke:rgb(0%,0%,0%);stroke-opacity:1;stroke-miterlimit:4;" d="M 1040.713125 1140.715313 L 919.267812 1019.27 " transform="matrix(0.1,0,0,-0.1,0.124,170.802)"/>
<path style="fill:none;stroke-width:2.4;stroke-linecap:butt;stroke-linejoin:miter;stroke:rgb(0%,0%,0%);stroke-opacity:1;stroke-miterlimit:4;" d="M 1110.713125 1140.715313 L 989.267812 1019.27 " transform="matrix(0.1,0,0,-0.1,0.124,170.802)"/>
<path style="fill:none;stroke-width:2.4;stroke-linecap:butt;stroke-linejoin:miter;stroke:rgb(0%,0%,0%);stroke-opacity:1;stroke-miterlimit:4;" d="M 550.713125 1210.715313 L 429.267813 1089.27 " transform="matrix(0.1,0,0,-0.1,0.124,170.802)"/>
<path style="fill:none;stroke-width:2.4;stroke-linecap:butt;stroke-linejoin:miter;stroke:rgb(0%,0%,0%);stroke-opacity:1;stroke-miterlimit:4;" d="M 620.713125 1210.715313 L 499.267813 1089.27 " transform="matrix(0.1,0,0,-0.1,0.124,170.802)"/>
<path style="fill:none;stroke-width:2.4;stroke-linecap:butt;stroke-linejoin:miter;stroke:rgb(0%,0%,0%);stroke-opacity:1;stroke-miterlimit:4;" d="M 690.713125 1210.715313 L 569.267812 1089.27 " transform="matrix(0.1,0,0,-0.1,0.124,170.802)"/>
<path style="fill:none;stroke-width:2.4;stroke-linecap:butt;stroke-linejoin:miter;stroke:rgb(0%,0%,0%);stroke-opacity:1;stroke-miterlimit:4;" d="M 760.713125 1210.715313 L 639.267812 1089.27 " transform="matrix(0.1,0,0,-0.1,0.124,170.802)"/>
<path style="fill:none;stroke-width:2.4;stroke-linecap:butt;stroke-linejoin:miter;stroke:rgb(0%,0%,0%);stroke-opacity:1;stroke-miterlimit:4;" d="M 830.713125 1210.715313 L 709.267812 1089.27 " transform="matrix(0.1,0,0,-0.1,0.124,170.802)"/>
<path style="fill:none;stroke-width:2.4;stroke-linecap:butt;stroke-linejoin:miter;stroke:rgb(0%,0%,0%);stroke-opacity:1;stroke-miterlimit:4;" d="M 900.713125 1210.715313 L 779.267812 1089.27 " transform="matrix(0.1,0,0,-0.1,0.124,170.802)"/>
<path style="fill:none;stroke-width:2.4;stroke-linecap:butt;stroke-linejoin:miter;stroke:rgb(0%,0%,0%);stroke-opacity:1;stroke-miterlimit:4;" d="M 970.713125 1210.715313 L 849.267812 1089.27 " transform="matrix(0.1,0,0,-0.1,0.124,170.802)"/>
<path style="fill:none;stroke-width:2.4;stroke-linecap:butt;stroke-linejoin:miter;stroke:rgb(0%,0%,0%);stroke-opacity:1;stroke-miterlimit:4;" d="M 1040.713125 1210.715313 L 919.267812 1089.27 " transform="matrix(0.1,0,0,-0.1,0.124,170.802)"/>
<path style="fill:none;stroke-width:2.4;stroke-linecap:butt;stroke-linejoin:miter;stroke:rgb(0%,0%,0%);stroke-opacity:1;stroke-miterlimit:4;" d="M 1110.713125 1210.715313 L 989.267812 1089.27 " transform="matrix(0.1,0,0,-0.1,0.124,170.802)"/>
</g>
</g>
</g>
<g clip-path="url(#clip6)" clip-rule="nonzero">
<g clip-path="url(#clip7)" clip-rule="nonzero">
<path style="fill-rule:nonzero;fill:rgb(100%,100%,100%);fill-opacity:1;stroke-width:3.8;stroke-linecap:butt;stroke-linejoin:miter;stroke:rgb(100%,100%,100%);stroke-opacity:1;stroke-miterlimit:4;" d="M 1103.877188 1214.816875 L 1140.283438 1214.816875 L 1140.283438 1332.512188 L 1103.877188 1332.512188 L 1103.877188 1214.816875 Z M 1103.877188 1214.816875 " transform="matrix(0.1,0,0,-0.1,0.124,170.802)"/>
<path style="fill:none;stroke-width:3.8;stroke-linecap:butt;stroke-linejoin:miter;stroke:rgb(0%,0%,0%);stroke-opacity:1;stroke-miterlimit:4;" d="M 1118.135 1284.191875 C 1119.463125 1266.184063 1120.830313 1248.137188 1122.314688 1230.090313 " transform="matrix(0.1,0,0,-0.1,0.124,170.802)"/>
<path style=" stroke:none;fill-rule:nonzero;fill:rgb(0%,0%,0%);fill-opacity:1;" d="M 112.988281 42.996094 L 111.699219 39.304688 L 110.96875 43.148438 L 112.988281 42.996094 "/>
</g>
</g>
<g clip-path="url(#clip8)" clip-rule="nonzero">
<g style="fill:rgb(0%,0%,0%);fill-opacity:1;">
  <use xlink:href="#glyph0-1" x="113.51" y="45.173"/>
</g>
<g style="fill:rgb(0%,0%,0%);fill-opacity:1;">
  <use xlink:href="#glyph1-1" x="87.165" y="62.464"/>
</g>
<path style=" stroke:none;fill-rule:nonzero;fill:rgb(100%,100%,100%);fill-opacity:1;" d="M 95.878906 45.664063 L 101.660156 45.664063 L 101.660156 40.820313 L 95.878906 40.820313 L 95.878906 45.664063 Z M 95.878906 45.664063 "/>
<g style="fill:rgb(0%,0%,0%);fill-opacity:1;">
  <use xlink:href="#glyph1-2" x="96.05" y="47.082"/>
</g>
</g>
</g>
</svg>
