<?xml version="1.0" encoding="UTF-8"?>
<svg xmlns="http://www.w3.org/2000/svg" xmlns:xlink="http://www.w3.org/1999/xlink" width="277pt" height="234pt" viewBox="0 0 200 169" version="1.1">
<defs>
<g>
<symbol overflow="visible" id="glyph0-0">
<path style="stroke:none;" d=""/>
</symbol>
<symbol overflow="visible" id="glyph0-1">
<path style="stroke:none;" d="M 1.75 -4.84375 L 0.734375 0 C 0.90625 0 1.09375 0 1.25 -0.015625 L 1.28125 -0.0625 L 1.75 -2.3125 L 4.46875 -2.3125 L 3.984375 0 L 4.375 0 C 4.40625 0 4.484375 0.015625 4.515625 -0.015625 C 4.53125 -0.0625 4.53125 -0.109375 4.546875 -0.15625 C 4.5625 -0.25 5.53125 -4.78125 5.53125 -4.84375 L 5 -4.84375 L 4.5625 -2.71875 L 1.84375 -2.71875 C 1.984375 -3.421875 2.140625 -4.125 2.28125 -4.84375 L 1.75 -4.84375 Z M 1.75 -4.84375 "/>
</symbol>
<symbol overflow="visible" id="glyph0-2">
<path style="stroke:none;" d="M 1.78125 -4.84375 L 0.765625 0 L 1.109375 0 C 1.140625 0 1.21875 0.015625 1.234375 -0.015625 C 1.265625 -0.046875 1.3125 -0.328125 1.3125 -0.328125 L 2.15625 -4.328125 L 2.171875 -4.328125 C 2.171875 -4.203125 2.328125 -3.46875 2.390625 -3.234375 C 2.53125 -2.515625 2.953125 -0.609375 3 -0.359375 L 3.046875 -0.1875 C 3.046875 -0.15625 3.046875 -0.125 3.078125 -0.109375 C 3.109375 -0.109375 3.15625 -0.109375 3.1875 -0.109375 L 3.390625 -0.109375 C 3.421875 -0.109375 3.484375 -0.109375 3.515625 -0.125 C 3.546875 -0.140625 3.546875 -0.171875 3.578125 -0.203125 L 3.671875 -0.375 C 4.15625 -1.109375 6.140625 -4.1875 6.203125 -4.328125 L 6.21875 -4.328125 L 5.296875 0 C 5.453125 0 5.625 0 5.765625 -0.015625 L 5.796875 -0.09375 C 6.125 -1.6875 6.46875 -3.25 6.796875 -4.84375 C 6.578125 -4.828125 6.296875 -4.859375 6.09375 -4.828125 C 6.015625 -4.71875 5.9375 -4.59375 5.875 -4.484375 L 3.390625 -0.625 L 2.71875 -3.6875 C 2.625 -4.0625 2.578125 -4.46875 2.453125 -4.828125 L 2.40625 -4.84375 L 1.78125 -4.84375 Z M 1.78125 -4.84375 "/>
</symbol>
<symbol overflow="visible" id="glyph0-3">
<path style="stroke:none;" d="M 0.203125 -2.234375 L 0.5625 -2.234375 C 0.671875 -2.234375 0.703125 -2.21875 0.765625 -2.328125 C 0.875 -2.5 1.015625 -2.65625 1.203125 -2.75 C 1.3125 -2.796875 1.421875 -2.796875 1.546875 -2.796875 L 1.828125 -2.796875 C 1.796875 -2.671875 1.765625 -2.546875 1.734375 -2.40625 C 1.578125 -1.703125 1.40625 -1.03125 1.140625 -0.421875 C 1.109375 -0.328125 1.03125 -0.21875 1.046875 -0.125 C 1.0625 0.0625 1.296875 0.09375 1.421875 0 C 1.546875 -0.0625 1.578125 -0.21875 1.640625 -0.34375 C 1.859375 -0.875 2.015625 -1.4375 2.15625 -2 C 2.203125 -2.1875 2.328125 -2.765625 2.328125 -2.78125 C 2.359375 -2.8125 2.4375 -2.796875 2.484375 -2.796875 L 2.90625 -2.796875 C 2.78125 -2.078125 2.625 -1.390625 2.828125 -0.5625 C 2.84375 -0.421875 2.953125 -0.09375 3.046875 0 C 3.125 0.078125 3.25 0.0625 3.34375 0.015625 C 3.40625 -0.015625 3.4375 -0.0625 3.484375 -0.125 C 3.546875 -0.265625 3.46875 -0.390625 3.421875 -0.5 C 3.21875 -0.96875 3.21875 -1.609375 3.3125 -2.234375 C 3.34375 -2.421875 3.390625 -2.609375 3.40625 -2.796875 L 4.015625 -2.796875 C 4.125 -2.796875 4.234375 -2.78125 4.328125 -2.828125 C 4.46875 -2.875 4.59375 -3.0625 4.5 -3.203125 C 4.4375 -3.3125 4.28125 -3.296875 4.1875 -3.296875 L 1.984375 -3.296875 C 1.734375 -3.296875 1.46875 -3.3125 1.21875 -3.234375 C 0.84375 -3.09375 0.484375 -2.734375 0.296875 -2.390625 C 0.265625 -2.34375 0.21875 -2.296875 0.203125 -2.234375 Z M 0.203125 -2.234375 "/>
</symbol>
<symbol overflow="visible" id="glyph1-0">
<path style="stroke:none;" d=""/>
</symbol>
<symbol overflow="visible" id="glyph1-1">
<path style="stroke:none;" d="M 1.3125 -3.34375 C 1.1875 -3.328125 1.078125 -3.3125 0.96875 -3.265625 C 0.453125 -3.0625 0.265625 -2.390625 0.265625 -1.71875 C 0.265625 -1.609375 0.265625 -1.515625 0.265625 -1.40625 C 0.28125 -0.953125 0.390625 -0.5 0.65625 -0.21875 C 0.875 0.015625 1.203125 0.109375 1.5 0.078125 C 1.6875 0.0625 1.84375 -0.015625 1.984375 -0.09375 C 2.40625 -0.40625 2.5 -1.015625 2.5 -1.6875 C 2.5 -2.234375 2.40625 -2.71875 2.140625 -3.03125 C 1.9375 -3.25 1.609375 -3.375 1.3125 -3.34375 Z M 1.734375 -2.984375 C 1.78125 -2.953125 1.828125 -2.921875 1.875 -2.875 C 2.0625 -2.6875 2.125 -2.328125 2.140625 -2 C 2.140625 -1.9375 2.140625 -1.875 2.140625 -1.796875 L 2.140625 -1.546875 C 2.140625 -1.109375 2.09375 -0.703125 1.90625 -0.453125 C 1.65625 -0.125 1.125 -0.109375 0.875 -0.4375 C 0.8125 -0.515625 0.765625 -0.59375 0.734375 -0.671875 C 0.640625 -0.921875 0.625 -1.25 0.625 -1.5625 L 0.625 -1.8125 C 0.625 -1.890625 0.640625 -1.9375 0.640625 -2.015625 C 0.640625 -2.40625 0.734375 -2.796875 1 -2.953125 C 1.1875 -3.078125 1.5 -3.109375 1.734375 -2.984375 Z M 1.734375 -2.984375 "/>
</symbol>
<symbol overflow="visible" id="glyph1-2">
<path style="stroke:none;" d="M 0.546875 -3.015625 L 0.546875 -2.734375 C 0.796875 -2.734375 1.046875 -2.78125 1.28125 -2.875 L 1.28125 -0.28125 L 0.578125 -0.28125 L 0.578125 0 L 2.328125 0 L 2.328125 -0.28125 L 1.640625 -0.28125 L 1.640625 -3.34375 C 1.609375 -3.34375 1.5625 -3.359375 1.546875 -3.34375 C 1.5 -3.328125 1.46875 -3.296875 1.4375 -3.265625 C 1.234375 -3.09375 0.875 -3.015625 0.546875 -3.015625 Z M 0.546875 -3.015625 "/>
</symbol>
<symbol overflow="visible" id="glyph1-3">
<path style="stroke:none;" d="M 0.4375 -2.28125 C 0.515625 -2.578125 0.65625 -2.890625 0.953125 -3 C 1.078125 -3.046875 1.203125 -3.0625 1.328125 -3.046875 C 1.578125 -3.03125 1.84375 -2.921875 2 -2.703125 C 2.109375 -2.5625 2.140625 -2.375 2.109375 -2.203125 C 2.046875 -1.71875 1.625 -1.421875 1.28125 -1.15625 C 1 -0.9375 0.421875 -0.421875 0.421875 -0.421875 L 0.328125 -0.34375 C 0.28125 -0.296875 0.28125 -0.296875 0.28125 -0.1875 L 0.28125 0 L 2.5 0 L 2.5 -0.3125 L 0.59375 -0.3125 C 0.796875 -0.484375 1.359375 -0.953125 1.53125 -1.078125 C 1.84375 -1.3125 2.1875 -1.546875 2.390625 -1.890625 C 2.609375 -2.28125 2.46875 -2.8125 2.125 -3.078125 C 1.75 -3.40625 1.046875 -3.453125 0.625 -3.140625 C 0.46875 -3.03125 0.359375 -2.84375 0.28125 -2.671875 C 0.265625 -2.625 0.234375 -2.578125 0.234375 -2.546875 C 0.25 -2.515625 0.28125 -2.484375 0.296875 -2.46875 C 0.34375 -2.40625 0.390625 -2.34375 0.4375 -2.28125 Z M 0.4375 -2.28125 "/>
</symbol>
<symbol overflow="visible" id="glyph1-4">
<path style="stroke:none;" d="M 0.484375 -2.53125 L 0.5 -2.53125 C 0.703125 -2.875 1.078125 -3.109375 1.484375 -3.0625 C 1.78125 -3.046875 2.046875 -2.890625 2.015625 -2.53125 C 1.96875 -2.265625 1.75 -2.046875 1.484375 -1.96875 C 1.328125 -1.921875 1.09375 -1.90625 0.921875 -1.90625 L 0.921875 -1.625 L 1.25 -1.625 C 1.328125 -1.625 1.390625 -1.625 1.453125 -1.625 C 1.640625 -1.609375 1.8125 -1.546875 1.953125 -1.421875 C 2.171875 -1.203125 2.21875 -0.828125 2.078125 -0.5625 C 2.015625 -0.453125 1.921875 -0.375 1.828125 -0.3125 C 1.5625 -0.15625 1.234375 -0.1875 0.96875 -0.28125 C 0.765625 -0.328125 0.59375 -0.4375 0.4375 -0.578125 C 0.390625 -0.625 0.34375 -0.6875 0.28125 -0.734375 C 0.265625 -0.671875 0.25 -0.609375 0.25 -0.546875 C 0.234375 -0.484375 0.21875 -0.453125 0.28125 -0.40625 L 0.375 -0.3125 C 0.515625 -0.1875 0.6875 -0.078125 0.859375 -0.015625 C 1.25 0.125 1.703125 0.125 2.0625 -0.109375 C 2.421875 -0.328125 2.671875 -0.78125 2.46875 -1.21875 C 2.34375 -1.5 2.09375 -1.671875 1.765625 -1.765625 C 1.953125 -1.859375 2.09375 -1.9375 2.21875 -2.109375 C 2.3125 -2.25 2.421875 -2.484375 2.375 -2.71875 C 2.328125 -2.96875 2.125 -3.15625 1.90625 -3.25 C 1.578125 -3.390625 1.1875 -3.375 0.859375 -3.234375 C 0.703125 -3.15625 0.546875 -3.0625 0.421875 -2.921875 C 0.40625 -2.90625 0.3125 -2.8125 0.3125 -2.765625 C 0.328125 -2.75 0.453125 -2.59375 0.484375 -2.53125 Z M 0.484375 -2.53125 "/>
</symbol>
<symbol overflow="visible" id="glyph1-5">
<path style="stroke:none;" d="M 0.15625 -0.875 L 1.671875 -0.875 L 1.671875 0 L 2.015625 0 L 2.015625 -0.875 L 2.609375 -0.875 L 2.609375 -1.171875 L 2.015625 -1.171875 L 2.015625 -3.3125 L 1.734375 -3.3125 C 1.6875 -3.3125 1.640625 -3.328125 1.609375 -3.3125 C 1.578125 -3.28125 1.5 -3.15625 1.484375 -3.140625 L 1.203125 -2.703125 C 1.078125 -2.53125 0.265625 -1.34375 0.203125 -1.25 C 0.15625 -1.1875 0.15625 -1.171875 0.15625 -1.078125 L 0.15625 -0.875 Z M 1.6875 -3 L 1.6875 -1.171875 L 0.515625 -1.171875 L 1.265625 -2.28125 C 1.40625 -2.515625 1.5625 -2.734375 1.6875 -3 Z M 1.6875 -3 "/>
</symbol>
<symbol overflow="visible" id="glyph1-6">
<path style="stroke:none;" d="M 0.46875 -3.265625 L 0.46875 -1.453125 L 0.6875 -1.453125 C 0.71875 -1.453125 0.75 -1.453125 0.78125 -1.453125 C 0.8125 -1.46875 0.828125 -1.515625 0.84375 -1.53125 C 0.875 -1.578125 0.90625 -1.625 0.953125 -1.65625 C 1.171875 -1.828125 1.5 -1.875 1.75 -1.765625 C 2.03125 -1.625 2.109375 -1.3125 2.109375 -1.03125 C 2.109375 -0.859375 2.078125 -0.671875 1.984375 -0.515625 C 1.796875 -0.21875 1.375 -0.15625 1.046875 -0.234375 C 0.765625 -0.296875 0.5625 -0.46875 0.40625 -0.65625 L 0.40625 -0.65625 C 0.390625 -0.640625 0.25 -0.4375 0.25 -0.40625 C 0.25 -0.390625 0.265625 -0.375 0.28125 -0.359375 C 0.4375 -0.203125 0.609375 -0.078125 0.859375 0 C 1.3125 0.15625 1.84375 0.078125 2.1875 -0.28125 C 2.34375 -0.4375 2.453125 -0.65625 2.484375 -0.875 C 2.5625 -1.5 2.109375 -2.15625 1.34375 -2.09375 C 1.125 -2.0625 0.984375 -1.984375 0.8125 -1.859375 L 0.8125 -2.96875 L 2.3125 -2.96875 L 2.3125 -3.265625 L 0.46875 -3.265625 Z M 0.46875 -3.265625 "/>
</symbol>
<symbol overflow="visible" id="glyph1-7">
<path style="stroke:none;" d="M 0.640625 -1.65625 L 0.640625 -1.65625 C 0.640625 -2.09375 0.734375 -2.59375 1.09375 -2.859375 C 1.328125 -3.046875 1.65625 -3.140625 2.078125 -3.03125 C 2.15625 -3.015625 2.234375 -2.984375 2.296875 -2.96875 L 2.296875 -3.171875 C 2.296875 -3.1875 2.3125 -3.21875 2.296875 -3.25 C 2.265625 -3.296875 1.953125 -3.328125 1.953125 -3.328125 C 1.515625 -3.390625 1.171875 -3.28125 0.90625 -3.0625 C 0.59375 -2.8125 0.390625 -2.4375 0.3125 -2.03125 C 0.28125 -1.84375 0.265625 -1.640625 0.28125 -1.453125 C 0.296875 -0.984375 0.375 -0.625 0.609375 -0.3125 C 0.875 0.0625 1.421875 0.1875 1.84375 -0.015625 C 2.03125 -0.09375 2.1875 -0.265625 2.3125 -0.4375 C 2.46875 -0.671875 2.5 -0.953125 2.484375 -1.21875 C 2.484375 -1.375 2.453125 -1.515625 2.390625 -1.65625 C 2.296875 -1.875 2.125 -2.109375 1.921875 -2.203125 C 1.828125 -2.25 1.71875 -2.265625 1.609375 -2.265625 C 1.328125 -2.25 1.078125 -2.140625 0.875 -1.96875 C 0.796875 -1.90625 0.6875 -1.765625 0.640625 -1.65625 Z M 1.421875 -1.984375 C 1.59375 -1.984375 1.765625 -1.953125 1.890625 -1.828125 C 1.921875 -1.796875 1.953125 -1.765625 1.984375 -1.71875 C 2.125 -1.546875 2.125 -1.328125 2.125 -1.109375 C 2.125 -0.765625 2.09375 -0.578125 1.90625 -0.375 C 1.75 -0.234375 1.5625 -0.203125 1.359375 -0.203125 C 1.15625 -0.203125 0.953125 -0.3125 0.828125 -0.484375 C 0.765625 -0.59375 0.71875 -0.71875 0.703125 -0.84375 C 0.65625 -1 0.640625 -1.1875 0.671875 -1.34375 C 0.75 -1.703125 1.046875 -1.984375 1.421875 -1.984375 Z M 1.421875 -1.984375 "/>
</symbol>
<symbol overflow="visible" id="glyph1-8">
<path style="stroke:none;" d="M 0.234375 -3.265625 L 0.234375 -2.953125 L 2.296875 -2.953125 L 2.296875 -2.953125 C 2.21875 -2.921875 2.171875 -2.84375 2.109375 -2.796875 C 1.96875 -2.65625 1.828125 -2.515625 1.703125 -2.359375 C 1.171875 -1.671875 0.890625 -0.828125 0.890625 0.046875 L 1.265625 0.046875 C 1.265625 -0.703125 1.46875 -1.4375 1.828125 -2.078125 C 1.953125 -2.296875 2.109375 -2.5 2.265625 -2.6875 L 2.453125 -2.890625 C 2.484375 -2.921875 2.515625 -2.953125 2.53125 -2.984375 C 2.546875 -3.015625 2.53125 -3.046875 2.53125 -3.078125 L 2.53125 -3.265625 L 0.234375 -3.265625 Z M 0.234375 -3.265625 "/>
</symbol>
<symbol overflow="visible" id="glyph1-9">
<path style="stroke:none;" d="M 1.015625 -1.765625 L 1.015625 -1.765625 C 0.6875 -1.6875 0.359375 -1.453125 0.265625 -1.140625 C 0.15625 -0.8125 0.296875 -0.46875 0.53125 -0.25 C 0.765625 -0.015625 1.09375 0.078125 1.4375 0.078125 C 1.875 0.0625 2.34375 -0.203125 2.5 -0.640625 C 2.53125 -0.78125 2.5625 -0.9375 2.515625 -1.09375 C 2.421875 -1.453125 2.09375 -1.6875 1.75 -1.765625 C 1.796875 -1.78125 1.859375 -1.796875 1.90625 -1.8125 C 2.09375 -1.890625 2.265625 -2.015625 2.375 -2.1875 C 2.5625 -2.5 2.40625 -2.890625 2.140625 -3.109375 C 1.84375 -3.328125 1.4375 -3.390625 1.09375 -3.3125 C 0.78125 -3.25 0.484375 -3.0625 0.359375 -2.765625 C 0.328125 -2.671875 0.296875 -2.546875 0.3125 -2.4375 C 0.34375 -2.171875 0.53125 -1.96875 0.765625 -1.859375 C 0.84375 -1.8125 0.921875 -1.78125 1.015625 -1.765625 Z M 1.5 -3.0625 C 1.671875 -3.046875 1.859375 -3 1.984375 -2.875 C 2.171875 -2.671875 2.171875 -2.296875 1.96875 -2.09375 C 1.84375 -1.984375 1.671875 -1.921875 1.5 -1.90625 C 1.265625 -1.890625 0.96875 -1.921875 0.796875 -2.109375 C 0.59375 -2.3125 0.59375 -2.703125 0.8125 -2.90625 C 0.984375 -3.046875 1.234375 -3.078125 1.5 -3.0625 Z M 1.296875 -1.625 C 1.5625 -1.640625 1.875 -1.578125 2.046875 -1.34375 C 2.21875 -1.09375 2.234375 -0.65625 2 -0.40625 C 1.875 -0.296875 1.6875 -0.21875 1.515625 -0.203125 C 1.25 -0.1875 0.953125 -0.21875 0.765625 -0.421875 C 0.546875 -0.65625 0.515625 -1.140625 0.765625 -1.40625 C 0.90625 -1.546875 1.09375 -1.609375 1.296875 -1.625 Z M 1.296875 -1.625 "/>
</symbol>
<symbol overflow="visible" id="glyph1-10">
<path style="stroke:none;" d="M 2.125 -1.609375 L 2.125 -1.609375 C 2.125 -1.1875 2.046875 -0.6875 1.703125 -0.40625 C 1.65625 -0.375 1.609375 -0.328125 1.5625 -0.296875 C 1.296875 -0.171875 0.984375 -0.171875 0.703125 -0.296875 C 0.640625 -0.328125 0.59375 -0.375 0.53125 -0.40625 L 0.40625 -0.15625 C 0.515625 -0.0625 0.640625 0 0.765625 0.03125 C 1.125 0.140625 1.5 0.078125 1.796875 -0.140625 C 2.171875 -0.40625 2.421875 -0.875 2.484375 -1.40625 C 2.5 -1.546875 2.5 -1.6875 2.484375 -1.828125 C 2.46875 -2.3125 2.375 -2.75 2.109375 -3.03125 C 2.03125 -3.125 1.9375 -3.1875 1.828125 -3.25 C 1.546875 -3.40625 1.171875 -3.375 0.890625 -3.234375 C 0.703125 -3.125 0.53125 -2.953125 0.421875 -2.765625 C 0.3125 -2.578125 0.28125 -2.375 0.28125 -2.15625 C 0.28125 -1.9375 0.3125 -1.71875 0.40625 -1.515625 C 0.515625 -1.34375 0.65625 -1.140625 0.84375 -1.0625 C 0.953125 -1.015625 1.046875 -1.015625 1.15625 -1.015625 C 1.453125 -1.015625 1.71875 -1.140625 1.921875 -1.328125 C 2 -1.421875 2.078125 -1.5 2.125 -1.609375 Z M 1.328125 -3.078125 C 1.5625 -3.078125 1.796875 -3 1.9375 -2.796875 C 2.015625 -2.671875 2.046875 -2.53125 2.078125 -2.390625 C 2.109375 -2.25 2.125 -2.078125 2.09375 -1.921875 C 2.03125 -1.609375 1.765625 -1.3125 1.421875 -1.296875 C 1.234375 -1.28125 1.046875 -1.296875 0.890625 -1.421875 C 0.703125 -1.578125 0.640625 -1.796875 0.640625 -2.109375 C 0.640625 -2.421875 0.65625 -2.625 0.8125 -2.828125 C 0.921875 -2.96875 1.09375 -3.046875 1.328125 -3.078125 Z M 1.328125 -3.078125 "/>
</symbol>
<symbol overflow="visible" id="glyph1-11">
<path style="stroke:none;" d="M 0.59375 -3.734375 L 0.59375 1.109375 L 1.453125 1.109375 L 1.453125 0.828125 L 0.9375 0.828125 L 0.9375 -3.453125 L 1.453125 -3.453125 L 1.453125 -3.734375 L 0.59375 -3.734375 Z M 0.59375 -3.734375 "/>
</symbol>
<symbol overflow="visible" id="glyph1-12">
<path style="stroke:none;" d="M 0.125 -3.734375 L 0.125 -3.453125 L 0.625 -3.453125 L 0.625 0.828125 L 0.125 0.828125 L 0.125 1.109375 L 0.984375 1.109375 L 0.984375 -3.734375 L 0.125 -3.734375 Z M 0.125 -3.734375 "/>
</symbol>
<symbol overflow="visible" id="glyph2-0">
<path style="stroke:none;" d=""/>
</symbol>
<symbol overflow="visible" id="glyph2-1">
<path style="stroke:none;" d="M 0.21875 -1.21875 L 2.34375 -1.21875 L 2.34375 0 L 2.8125 0 L 2.8125 -1.21875 L 3.65625 -1.21875 L 3.65625 -1.640625 L 2.8125 -1.640625 L 2.8125 -4.640625 L 2.421875 -4.640625 C 2.375 -4.640625 2.296875 -4.65625 2.265625 -4.625 C 2.203125 -4.578125 2.109375 -4.40625 2.078125 -4.390625 L 1.671875 -3.78125 C 1.515625 -3.546875 0.375 -1.875 0.296875 -1.75 C 0.21875 -1.671875 0.21875 -1.640625 0.21875 -1.5 L 0.21875 -1.21875 Z M 2.359375 -4.1875 L 2.359375 -1.640625 L 0.71875 -1.640625 L 1.765625 -3.1875 C 1.953125 -3.515625 2.1875 -3.828125 2.359375 -4.1875 Z M 2.359375 -4.1875 "/>
</symbol>
</g>
<clipPath id="clip1">
  <path d="M -206 668 L 406 668 L 406 -124 L -206 -124 L -206 668 Z M -206 668 "/>
</clipPath>
<clipPath id="clip2">
  <path d="M 24.015625 155.507813 L 195.796875 155.507813 L 195.796875 1.132813 L 24.015625 1.132813 L 24.015625 155.507813 Z M 24.015625 155.507813 "/>
</clipPath>
<clipPath id="clip3">
  <path d="M -206 668 L 406 668 L 406 -124 L -206 -124 L -206 668 Z M -206 668 "/>
</clipPath>
</defs>
<g id="surface0">
<g clip-path="url(#clip1)" clip-rule="nonzero">
<g clip-path="url(#clip2)" clip-rule="nonzero">
<path style="fill:none;stroke-width:5;stroke-linecap:butt;stroke-linejoin:miter;stroke:rgb(13.730068%,12.159915%,12.54902%);stroke-opacity:1;stroke-miterlimit:4;" d="M 9.015257 10.003462 L 2255.39627 10.003462 L 2255.39627 2022.392905 L 9.015257 2022.392905 L 9.015257 10.003462 Z M 9.015257 10.003462 " transform="matrix(0.0756738,0,0,-0.0756738,24.017,155.507)"/>
<path style="fill:none;stroke-width:5;stroke-linecap:butt;stroke-linejoin:miter;stroke:rgb(13.730068%,12.159915%,12.54902%);stroke-opacity:1;stroke-miterlimit:4;" d="M 9.015257 10.003462 L 9.015257 2022.392905 " transform="matrix(0.0756738,0,0,-0.0756738,24.017,155.507)"/>
<path style="fill:none;stroke-width:5;stroke-linecap:butt;stroke-linejoin:miter;stroke:rgb(13.730068%,12.159915%,12.54902%);stroke-opacity:1;stroke-miterlimit:4;" d="M 9.015257 236.76829 L 2255.39627 236.76829 " transform="matrix(0.0756738,0,0,-0.0756738,24.017,155.507)"/>
<path style="fill:none;stroke-width:5;stroke-linecap:butt;stroke-linejoin:miter;stroke:rgb(13.730068%,12.159915%,12.54902%);stroke-opacity:1;stroke-miterlimit:4;" d="M 9.015257 467.198109 L 2255.39627 467.198109 " transform="matrix(0.0756738,0,0,-0.0756738,24.017,155.507)"/>
<path style="fill:none;stroke-width:5;stroke-linecap:butt;stroke-linejoin:miter;stroke:rgb(13.730068%,12.159915%,12.54902%);stroke-opacity:1;stroke-miterlimit:4;" d="M 9.015257 690.401186 L 2255.39627 690.401186 " transform="matrix(0.0756738,0,0,-0.0756738,24.017,155.507)"/>
<path style="fill:none;stroke-width:5;stroke-linecap:butt;stroke-linejoin:miter;stroke:rgb(13.730068%,12.159915%,12.54902%);stroke-opacity:1;stroke-miterlimit:4;" d="M 9.015257 913.604263 L 2255.39627 913.604263 " transform="matrix(0.0756738,0,0,-0.0756738,24.017,155.507)"/>
<path style="fill:none;stroke-width:5;stroke-linecap:butt;stroke-linejoin:miter;stroke:rgb(13.730068%,12.159915%,12.54902%);stroke-opacity:1;stroke-miterlimit:4;" d="M 9.015257 1133.193969 L 2255.39627 1133.193969 " transform="matrix(0.0756738,0,0,-0.0756738,24.017,155.507)"/>
<path style="fill:none;stroke-width:5;stroke-linecap:butt;stroke-linejoin:miter;stroke:rgb(13.730068%,12.159915%,12.54902%);stroke-opacity:1;stroke-miterlimit:4;" d="M 9.015257 1356.397046 C 9.015257 1356.397046 291.271137 1604.790479 806.228097 1798.931731 C 1326.295396 1994.931287 806.228097 1798.931731 806.228097 1798.931731 L 1139.380885 1923.386545 " transform="matrix(0.0756738,0,0,-0.0756738,24.017,155.507)"/>
<path style="fill:none;stroke-width:5;stroke-linecap:butt;stroke-linejoin:miter;stroke:rgb(13.730068%,12.159915%,12.54902%);stroke-opacity:1;stroke-miterlimit:4;" d="M 2255.39627 1356.397046 L 9.015257 1356.397046 " transform="matrix(0.0756738,0,0,-0.0756738,24.017,155.507)"/>
<path style="fill:none;stroke-width:5;stroke-linecap:butt;stroke-linejoin:miter;stroke:rgb(13.730068%,12.159915%,12.54902%);stroke-opacity:1;stroke-miterlimit:4;" d="M 9.015257 1568.81163 L 2255.39627 1568.81163 " transform="matrix(0.0756738,0,0,-0.0756738,24.017,155.507)"/>
<path style="fill:none;stroke-width:5;stroke-linecap:butt;stroke-linejoin:miter;stroke:rgb(13.730068%,12.159915%,12.54902%);stroke-opacity:1;stroke-miterlimit:4;" d="M 9.015257 1792.014707 L 2255.39627 1792.014707 " transform="matrix(0.0756738,0,0,-0.0756738,24.017,155.507)"/>
<path style="fill:none;stroke-width:7.5;stroke-linecap:butt;stroke-linejoin:miter;stroke:rgb(13.730068%,12.159915%,12.54902%);stroke-opacity:1;stroke-miterlimit:4;" d="M 9.015257 1923.386545 L 2255.39627 1923.386545 " transform="matrix(0.0756738,0,0,-0.0756738,24.017,155.507)"/>
<path style="fill:none;stroke-width:5;stroke-linecap:butt;stroke-linejoin:miter;stroke:rgb(13.730068%,12.159915%,12.54902%);stroke-opacity:1;stroke-miterlimit:4;" d="M 2043.497882 2022.392905 L 2043.497882 10.003462 " transform="matrix(0.0756738,0,0,-0.0756738,24.017,155.507)"/>
<path style="fill:none;stroke-width:5;stroke-linecap:butt;stroke-linejoin:miter;stroke:rgb(13.730068%,12.159915%,12.54902%);stroke-opacity:1;stroke-miterlimit:4;" d="M 1817.765445 2018.779535 L 1817.765445 10.003462 " transform="matrix(0.0756738,0,0,-0.0756738,24.017,155.507)"/>
<path style="fill:none;stroke-width:5;stroke-linecap:butt;stroke-linejoin:miter;stroke:rgb(13.730068%,12.159915%,12.54902%);stroke-opacity:1;stroke-miterlimit:4;" d="M 1591.465193 2018.779535 L 1591.465193 10.003462 " transform="matrix(0.0756738,0,0,-0.0756738,24.017,155.507)"/>
<path style="fill:none;stroke-width:5;stroke-linecap:butt;stroke-linejoin:miter;stroke:rgb(13.730068%,12.159915%,12.54902%);stroke-opacity:1;stroke-miterlimit:4;" d="M 1365.681137 2018.779535 L 1365.681137 10.003462 " transform="matrix(0.0756738,0,0,-0.0756738,24.017,155.507)"/>
<path style="fill:none;stroke-width:5;stroke-linecap:butt;stroke-linejoin:miter;stroke:rgb(13.730068%,12.159915%,12.54902%);stroke-opacity:1;stroke-miterlimit:4;" d="M 1139.380885 2018.779535 L 1139.380885 10.003462 " transform="matrix(0.0756738,0,0,-0.0756738,24.017,155.507)"/>
<path style="fill:none;stroke-width:5;stroke-linecap:butt;stroke-linejoin:miter;stroke:rgb(13.730068%,12.159915%,12.54902%);stroke-opacity:1;stroke-miterlimit:4;" d="M 913.080634 2018.779535 L 913.080634 10.003462 " transform="matrix(0.0756738,0,0,-0.0756738,24.017,155.507)"/>
<path style="fill:none;stroke-width:5;stroke-linecap:butt;stroke-linejoin:miter;stroke:rgb(13.730068%,12.159915%,12.54902%);stroke-opacity:1;stroke-miterlimit:4;" d="M 687.348197 2018.779535 L 687.348197 10.003462 " transform="matrix(0.0756738,0,0,-0.0756738,24.017,155.507)"/>
<path style="fill:none;stroke-width:5;stroke-linecap:butt;stroke-linejoin:miter;stroke:rgb(13.730068%,12.159915%,12.54902%);stroke-opacity:1;stroke-miterlimit:4;" d="M 461.047945 2021.205655 L 461.047945 10.003462 " transform="matrix(0.0756738,0,0,-0.0756738,24.017,155.507)"/>
<path style="fill:none;stroke-width:5;stroke-linecap:butt;stroke-linejoin:miter;stroke:rgb(13.730068%,12.159915%,12.54902%);stroke-opacity:1;stroke-miterlimit:4;" d="M 235.315509 2021.205655 L 235.315509 10.003462 " transform="matrix(0.0756738,0,0,-0.0756738,24.017,155.507)"/>
<path style=" stroke:none;fill-rule:nonzero;fill:rgb(13.730068%,12.159915%,12.54902%);fill-opacity:1;" d="M 27.703125 17.910156 C 27.703125 18.285156 27.398438 18.59375 27.019531 18.59375 C 26.644531 18.59375 26.339844 18.285156 26.339844 17.910156 C 26.339844 17.535156 26.644531 17.230469 27.019531 17.230469 C 27.398438 17.230469 27.703125 17.535156 27.703125 17.910156 "/>
<path style=" stroke:none;fill-rule:nonzero;fill:rgb(13.730068%,12.159915%,12.54902%);fill-opacity:1;" d="M 26.195313 20.898438 C 26.195313 21.273438 25.890625 21.578125 25.515625 21.578125 C 25.140625 21.578125 24.835938 21.273438 24.835938 20.898438 C 24.835938 20.523438 25.140625 20.21875 25.515625 20.21875 C 25.890625 20.21875 26.195313 20.523438 26.195313 20.898438 "/>
<path style=" stroke:none;fill-rule:nonzero;fill:rgb(13.730068%,12.159915%,12.54902%);fill-opacity:1;" d="M 25.832031 30.617188 C 25.832031 30.992188 25.527344 31.296875 25.152344 31.296875 C 24.777344 31.296875 24.472656 30.992188 24.472656 30.617188 C 24.472656 30.238281 24.777344 29.933594 25.152344 29.933594 C 25.527344 29.933594 25.832031 30.238281 25.832031 30.617188 "/>
<path style=" stroke:none;fill-rule:nonzero;fill:rgb(13.730068%,12.159915%,12.54902%);fill-opacity:1;" d="M 25.832031 41.332031 C 25.832031 41.707031 25.527344 42.011719 25.152344 42.011719 C 24.777344 42.011719 24.472656 41.707031 24.472656 41.332031 C 24.472656 40.953125 24.777344 40.648438 25.152344 40.648438 C 25.527344 40.648438 25.832031 40.953125 25.832031 41.332031 "/>
<path style=" stroke:none;fill-rule:nonzero;fill:rgb(13.730068%,12.159915%,12.54902%);fill-opacity:1;" d="M 25.832031 51.046875 C 25.832031 51.421875 25.527344 51.730469 25.152344 51.730469 C 24.777344 51.730469 24.472656 51.421875 24.472656 51.046875 C 24.472656 50.671875 24.777344 50.367188 25.152344 50.367188 C 25.527344 50.367188 25.832031 50.671875 25.832031 51.046875 "/>
<path style=" stroke:none;fill-rule:nonzero;fill:rgb(13.730068%,12.159915%,12.54902%);fill-opacity:1;" d="M 30.449219 15.84375 C 30.449219 16.222656 30.144531 16.523438 29.769531 16.523438 C 29.394531 16.523438 29.085938 16.222656 29.085938 15.84375 C 29.085938 15.46875 29.394531 15.164063 29.769531 15.164063 C 30.144531 15.164063 30.449219 15.46875 30.449219 15.84375 "/>
<path style=" stroke:none;fill-rule:nonzero;fill:rgb(13.730068%,12.159915%,12.54902%);fill-opacity:1;" d="M 37.613281 12.601563 C 37.613281 12.976563 37.308594 13.285156 36.933594 13.285156 C 36.558594 13.285156 36.253906 12.976563 36.253906 12.601563 C 36.253906 12.226563 36.558594 11.921875 36.933594 11.921875 C 37.308594 11.921875 37.613281 12.226563 37.613281 12.601563 "/>
<path style="fill:none;stroke-width:2.5;stroke-linecap:butt;stroke-linejoin:miter;stroke:rgb(13.730068%,12.159915%,12.54902%);stroke-opacity:1;stroke-miterlimit:4;" d="M 889.180767 1853.183912 C 889.180767 1848.228432 885.154439 1844.202105 880.198959 1844.202105 C 875.243479 1844.202105 871.217152 1848.228432 871.217152 1853.183912 C 871.217152 1858.139392 875.243479 1862.16572 880.198959 1862.16572 C 885.154439 1862.16572 889.180767 1858.139392 889.180767 1853.183912 Z M 889.180767 1853.183912 " transform="matrix(0.0756738,0,0,-0.0756738,24.017,155.507)"/>
<path style=" stroke:none;fill-rule:nonzero;fill:rgb(13.730068%,12.159915%,12.54902%);fill-opacity:1;" d="M 114.914063 10.820313 C 114.914063 11.195313 114.613281 11.5 114.234375 11.5 C 113.859375 11.5 113.554688 11.195313 113.554688 10.820313 C 113.554688 10.441406 113.859375 10.136719 114.234375 10.136719 C 114.613281 10.136719 114.914063 10.441406 114.914063 10.820313 "/>
<path style=" stroke:none;fill-rule:nonzero;fill:rgb(13.730068%,12.159915%,12.54902%);fill-opacity:1;" d="M 119.730469 9.957031 C 119.730469 10.332031 119.421875 10.636719 119.046875 10.636719 C 118.671875 10.636719 118.367188 10.332031 118.367188 9.957031 C 118.367188 9.582031 118.671875 9.277344 119.046875 9.277344 C 119.421875 9.277344 119.730469 9.582031 119.730469 9.957031 "/>
<path style=" stroke:none;fill-rule:nonzero;fill:rgb(13.730068%,12.159915%,12.54902%);fill-opacity:1;" d="M 124.90625 9.957031 C 124.90625 10.332031 124.597656 10.636719 124.222656 10.636719 C 123.847656 10.636719 123.542969 10.332031 123.542969 9.957031 C 123.542969 9.582031 123.847656 9.277344 124.222656 9.277344 C 124.597656 9.277344 124.90625 9.582031 124.90625 9.957031 "/>
<path style=" stroke:none;fill-rule:nonzero;fill:rgb(13.730068%,12.159915%,12.54902%);fill-opacity:1;" d="M 129.71875 9.957031 C 129.71875 10.332031 129.414063 10.636719 129.035156 10.636719 C 128.660156 10.636719 128.355469 10.332031 128.355469 9.957031 C 128.355469 9.582031 128.660156 9.277344 129.035156 9.277344 C 129.414063 9.277344 129.71875 9.582031 129.71875 9.957031 "/>
<path style=" stroke:none;fill-rule:nonzero;fill:rgb(13.730068%,12.159915%,12.54902%);fill-opacity:1;" d="M 130.863281 9.957031 C 130.863281 10.332031 130.558594 10.636719 130.183594 10.636719 C 129.808594 10.636719 129.5 10.332031 129.5 9.957031 C 129.5 9.582031 129.808594 9.277344 130.183594 9.277344 C 130.558594 9.277344 130.863281 9.582031 130.863281 9.957031 "/>
<path style=" stroke:none;fill-rule:nonzero;fill:rgb(13.730068%,12.159915%,12.54902%);fill-opacity:1;" d="M 134.894531 9.957031 C 134.894531 10.332031 134.589844 10.636719 134.210938 10.636719 C 133.835938 10.636719 133.53125 10.332031 133.53125 9.957031 C 133.53125 9.582031 133.835938 9.277344 134.210938 9.277344 C 134.589844 9.277344 134.894531 9.582031 134.894531 9.957031 "/>
<path style=" stroke:none;fill-rule:nonzero;fill:rgb(13.730068%,12.159915%,12.54902%);fill-opacity:1;" d="M 138.617188 9.957031 C 138.617188 10.332031 138.3125 10.636719 137.9375 10.636719 C 137.558594 10.636719 137.257813 10.332031 137.257813 9.957031 C 137.257813 9.582031 137.558594 9.277344 137.9375 9.277344 C 138.3125 9.277344 138.617188 9.582031 138.617188 9.957031 "/>
<path style=" stroke:none;fill-rule:nonzero;fill:rgb(13.730068%,12.159915%,12.54902%);fill-opacity:1;" d="M 140.070313 9.957031 C 140.070313 10.332031 139.765625 10.636719 139.390625 10.636719 C 139.011719 10.636719 138.707031 10.332031 138.707031 9.957031 C 138.707031 9.582031 139.011719 9.277344 139.390625 9.277344 C 139.765625 9.277344 140.070313 9.582031 140.070313 9.957031 "/>
<path style=" stroke:none;fill-rule:nonzero;fill:rgb(13.730068%,12.159915%,12.54902%);fill-opacity:1;" d="M 150.058594 9.957031 C 150.058594 10.332031 149.753906 10.636719 149.378906 10.636719 C 149.003906 10.636719 148.695313 10.332031 148.695313 9.957031 C 148.695313 9.582031 149.003906 9.277344 149.378906 9.277344 C 149.753906 9.277344 150.058594 9.582031 150.058594 9.957031 "/>
<path style=" stroke:none;fill-rule:nonzero;fill:rgb(13.730068%,12.159915%,12.54902%);fill-opacity:1;" d="M 160.320313 9.957031 C 160.320313 10.332031 160.015625 10.636719 159.640625 10.636719 C 159.261719 10.636719 158.957031 10.332031 158.957031 9.957031 C 158.957031 9.582031 159.261719 9.277344 159.640625 9.277344 C 160.015625 9.277344 160.320313 9.582031 160.320313 9.957031 "/>
<path style=" stroke:none;fill-rule:nonzero;fill:rgb(13.730068%,12.159915%,12.54902%);fill-opacity:1;" d="M 170.492188 9.957031 C 170.492188 10.332031 170.183594 10.636719 169.808594 10.636719 C 169.433594 10.636719 169.128906 10.332031 169.128906 9.957031 C 169.128906 9.582031 169.433594 9.277344 169.808594 9.277344 C 170.183594 9.277344 170.492188 9.582031 170.492188 9.957031 "/>
<path style=" stroke:none;fill-rule:nonzero;fill:rgb(13.730068%,12.159915%,12.54902%);fill-opacity:1;" d="M 183.101563 9.957031 C 183.101563 10.332031 182.796875 10.636719 182.421875 10.636719 C 182.046875 10.636719 181.738281 10.332031 181.738281 9.957031 C 181.738281 9.582031 182.046875 9.277344 182.421875 9.277344 C 182.796875 9.277344 183.101563 9.582031 183.101563 9.957031 "/>
<path style="fill:none;stroke-width:2.5;stroke-linecap:butt;stroke-linejoin:miter;stroke:rgb(13.730068%,12.159915%,12.54902%);stroke-opacity:1;stroke-miterlimit:4;" d="M 913.49359 1868.514929 C 913.49359 1863.507829 909.467263 1859.481502 904.511783 1859.481502 C 899.556303 1859.481502 895.478356 1863.507829 895.478356 1868.514929 C 895.478356 1873.470409 899.556303 1877.496736 904.511783 1877.496736 C 909.467263 1877.496736 913.49359 1873.470409 913.49359 1868.514929 Z M 913.49359 1868.514929 " transform="matrix(0.0756738,0,0,-0.0756738,24.017,155.507)"/>
<path style="fill:none;stroke-width:2.5;stroke-linecap:butt;stroke-linejoin:miter;stroke:rgb(13.730068%,12.159915%,12.54902%);stroke-opacity:1;stroke-miterlimit:4;" d="M 940.490632 1886.478543 C 940.490632 1881.523063 936.464305 1877.496736 931.508825 1877.496736 C 926.501725 1877.496736 922.475398 1881.523063 922.475398 1886.478543 C 922.475398 1891.485643 926.501725 1895.51197 931.508825 1895.51197 C 936.464305 1895.51197 940.490632 1891.485643 940.490632 1886.478543 Z M 940.490632 1886.478543 " transform="matrix(0.0756738,0,0,-0.0756738,24.017,155.507)"/>
<path style="fill:none;stroke-width:2.5;stroke-linecap:butt;stroke-linejoin:miter;stroke:rgb(13.730068%,12.159915%,12.54902%);stroke-opacity:1;stroke-miterlimit:4;" d="M 975.591949 1894.582818 C 975.591949 1889.627338 971.565621 1885.601011 966.610141 1885.601011 C 961.603042 1885.601011 957.576714 1889.627338 957.576714 1894.582818 C 957.576714 1899.538298 961.603042 1903.564625 966.610141 1903.564625 C 971.565621 1903.564625 975.591949 1899.538298 975.591949 1894.582818 Z M 975.591949 1894.582818 " transform="matrix(0.0756738,0,0,-0.0756738,24.017,155.507)"/>
<path style="fill:none;stroke-width:2.5;stroke-linecap:butt;stroke-linejoin:miter;stroke:rgb(13.730068%,12.159915%,12.54902%);stroke-opacity:1;stroke-miterlimit:4;" d="M 1008.009047 1904.700256 C 1008.009047 1899.693157 1003.982719 1895.666829 999.027239 1895.666829 C 994.02014 1895.666829 989.993812 1899.693157 989.993812 1904.700256 C 989.993812 1909.655736 994.02014 1913.682064 999.027239 1913.682064 C 1003.982719 1913.682064 1008.009047 1909.655736 1008.009047 1904.700256 Z M 1008.009047 1904.700256 " transform="matrix(0.0756738,0,0,-0.0756738,24.017,155.507)"/>
<path style="fill:none;stroke-width:2.5;stroke-linecap:butt;stroke-linejoin:miter;stroke:rgb(13.730068%,12.159915%,12.54902%);stroke-opacity:1;stroke-miterlimit:4;" d="M 1063.809816 1904.700256 C 1063.809816 1899.693157 1059.783488 1895.666829 1054.776389 1895.666829 C 1049.820909 1895.666829 1045.794581 1899.693157 1045.794581 1904.700256 C 1045.794581 1909.655736 1049.820909 1913.682064 1054.776389 1913.682064 C 1059.783488 1913.682064 1063.809816 1909.655736 1063.809816 1904.700256 Z M 1063.809816 1904.700256 " transform="matrix(0.0756738,0,0,-0.0756738,24.017,155.507)"/>
<path style="fill:none;stroke-width:2.5;stroke-linecap:butt;stroke-linejoin:miter;stroke:rgb(13.730068%,12.159915%,12.54902%);stroke-opacity:1;stroke-miterlimit:4;" d="M 831.624932 1806.364951 C 831.624932 1801.409471 827.598604 1797.383143 822.591505 1797.383143 C 817.636025 1797.383143 813.609697 1801.409471 813.609697 1806.364951 C 813.609697 1811.37205 817.636025 1815.398378 822.591505 1815.398378 C 827.598604 1815.398378 831.624932 1811.37205 831.624932 1806.364951 Z M 831.624932 1806.364951 " transform="matrix(0.0756738,0,0,-0.0756738,24.017,155.507)"/>
<path style="fill:none;stroke-width:2.5;stroke-linecap:butt;stroke-linejoin:miter;stroke:rgb(13.730068%,12.159915%,12.54902%);stroke-opacity:1;stroke-miterlimit:4;" d="M 791.103559 1765.895198 C 791.103559 1760.939718 787.077231 1756.91339 782.121752 1756.91339 C 777.114652 1756.91339 773.088324 1760.939718 773.088324 1765.895198 C 773.088324 1770.850678 777.114652 1774.877005 782.121752 1774.877005 C 787.077231 1774.877005 791.103559 1770.850678 791.103559 1765.895198 Z M 791.103559 1765.895198 " transform="matrix(0.0756738,0,0,-0.0756738,24.017,155.507)"/>
<path style="fill:none;stroke-width:2.5;stroke-linecap:butt;stroke-linejoin:miter;stroke:rgb(13.730068%,12.159915%,12.54902%);stroke-opacity:1;stroke-miterlimit:4;" d="M 752.388872 1727.18051 C 752.388872 1722.22503 748.362544 1718.198703 743.407064 1718.198703 C 738.399965 1718.198703 734.373637 1722.22503 734.373637 1727.18051 C 734.373637 1732.13599 738.399965 1736.213937 743.407064 1736.213937 C 748.362544 1736.213937 752.388872 1732.13599 752.388872 1727.18051 Z M 752.388872 1727.18051 " transform="matrix(0.0756738,0,0,-0.0756738,24.017,155.507)"/>
<path style="fill:none;stroke-width:2.5;stroke-linecap:butt;stroke-linejoin:miter;stroke:rgb(13.730068%,12.159915%,12.54902%);stroke-opacity:1;stroke-miterlimit:4;" d="M 696.330005 1689.394976 C 696.330005 1684.439496 692.303677 1680.413168 687.348197 1680.413168 C 682.392717 1680.413168 678.36639 1684.439496 678.36639 1689.394976 C 678.36639 1694.350456 682.392717 1698.376783 687.348197 1698.376783 C 692.303677 1698.376783 696.330005 1694.350456 696.330005 1689.394976 Z M 696.330005 1689.394976 " transform="matrix(0.0756738,0,0,-0.0756738,24.017,155.507)"/>
<path style="fill:none;stroke-width:2.5;stroke-linecap:butt;stroke-linejoin:miter;stroke:rgb(13.730068%,12.159915%,12.54902%);stroke-opacity:1;stroke-miterlimit:4;" d="M 649.665902 1651.71268 C 649.665902 1646.7572 645.639574 1642.730873 640.684094 1642.730873 C 635.676995 1642.730873 631.650667 1646.7572 631.650667 1651.71268 C 631.650667 1656.66816 635.676995 1660.694487 640.684094 1660.694487 C 645.639574 1660.694487 649.665902 1656.66816 649.665902 1651.71268 Z M 649.665902 1651.71268 " transform="matrix(0.0756738,0,0,-0.0756738,24.017,155.507)"/>
<path style="fill:none;stroke-width:2.5;stroke-linecap:butt;stroke-linejoin:miter;stroke:rgb(13.730068%,12.159915%,12.54902%);stroke-opacity:1;stroke-miterlimit:4;" d="M 592.213306 1613.772286 C 592.213306 1608.816806 588.186978 1604.790479 583.179879 1604.790479 C 578.224399 1604.790479 574.198071 1608.816806 574.198071 1613.772286 C 574.198071 1618.779386 578.224399 1622.805713 583.179879 1622.805713 C 588.186978 1622.805713 592.213306 1618.779386 592.213306 1613.772286 Z M 592.213306 1613.772286 " transform="matrix(0.0756738,0,0,-0.0756738,24.017,155.507)"/>
<path style="fill:none;stroke-width:2.5;stroke-linecap:butt;stroke-linejoin:miter;stroke:rgb(13.730068%,12.159915%,12.54902%);stroke-opacity:1;stroke-miterlimit:4;" d="M 544.516811 1575.109219 C 544.516811 1570.102119 540.490483 1566.075792 535.483384 1566.075792 C 530.527904 1566.075792 526.501577 1570.102119 526.501577 1575.109219 C 526.501577 1580.064699 530.527904 1584.091026 535.483384 1584.091026 C 540.490483 1584.091026 544.516811 1580.064699 544.516811 1575.109219 Z M 544.516811 1575.109219 " transform="matrix(0.0756738,0,0,-0.0756738,24.017,155.507)"/>
<path style="fill:none;stroke-width:2.5;stroke-linecap:butt;stroke-linejoin:miter;stroke:rgb(13.730068%,12.159915%,12.54902%);stroke-opacity:1;stroke-miterlimit:4;" d="M 500.382068 1530.974475 C 500.382068 1526.018995 496.35574 1521.992668 491.40026 1521.992668 C 486.44478 1521.992668 482.418453 1526.018995 482.418453 1530.974475 C 482.418453 1535.981575 486.44478 1540.007902 491.40026 1540.007902 C 496.35574 1540.007902 500.382068 1535.981575 500.382068 1530.974475 Z M 500.382068 1530.974475 " transform="matrix(0.0756738,0,0,-0.0756738,24.017,155.507)"/>
<path style="fill:none;stroke-width:2.5;stroke-linecap:butt;stroke-linejoin:miter;stroke:rgb(13.730068%,12.159915%,12.54902%);stroke-opacity:1;stroke-miterlimit:4;" d="M 448.194669 1496.802311 C 448.194669 1491.795212 444.168342 1487.768884 439.212862 1487.768884 C 434.205762 1487.768884 430.179435 1491.795212 430.179435 1496.802311 C 430.179435 1501.757791 434.205762 1505.784119 439.212862 1505.784119 C 444.168342 1505.784119 448.194669 1501.757791 448.194669 1496.802311 Z M 448.194669 1496.802311 " transform="matrix(0.0756738,0,0,-0.0756738,24.017,155.507)"/>
<path style="fill:none;stroke-width:2.5;stroke-linecap:butt;stroke-linejoin:miter;stroke:rgb(13.730068%,12.159915%,12.54902%);stroke-opacity:1;stroke-miterlimit:4;" d="M 402.098381 1460.823462 C 402.098381 1455.816362 398.123674 1451.790035 393.116574 1451.790035 C 388.161094 1451.790035 384.134767 1455.816362 384.134767 1460.823462 C 384.134767 1465.778942 388.161094 1469.805269 393.116574 1469.805269 C 398.123674 1469.805269 402.098381 1465.778942 402.098381 1460.823462 Z M 402.098381 1460.823462 " transform="matrix(0.0756738,0,0,-0.0756738,24.017,155.507)"/>
<path style="fill:none;stroke-width:2.5;stroke-linecap:butt;stroke-linejoin:miter;stroke:rgb(13.730068%,12.159915%,12.54902%);stroke-opacity:1;stroke-miterlimit:4;" d="M 347.226765 1419.579415 C 347.226765 1414.623935 343.200437 1410.597608 338.193338 1410.597608 C 333.237858 1410.597608 329.21153 1414.623935 329.21153 1419.579415 C 329.21153 1424.534895 333.237858 1428.561223 338.193338 1428.561223 C 343.200437 1428.561223 347.226765 1424.534895 347.226765 1419.579415 Z M 347.226765 1419.579415 " transform="matrix(0.0756738,0,0,-0.0756738,24.017,155.507)"/>
<path style="fill:none;stroke-width:2.5;stroke-linecap:butt;stroke-linejoin:miter;stroke:rgb(13.730068%,12.159915%,12.54902%);stroke-opacity:1;stroke-miterlimit:4;" d="M 253.279124 1341.995182 C 253.279124 1337.039702 249.304416 1333.013375 244.297316 1333.013375 C 239.341836 1333.013375 235.315509 1337.039702 235.315509 1341.995182 C 235.315509 1346.950662 239.341836 1350.976989 244.297316 1350.976989 C 249.304416 1350.976989 253.279124 1346.950662 253.279124 1341.995182 Z M 253.279124 1341.995182 " transform="matrix(0.0756738,0,0,-0.0756738,24.017,155.507)"/>
<path style="fill:none;stroke-width:2.5;stroke-linecap:butt;stroke-linejoin:miter;stroke:rgb(13.730068%,12.159915%,12.54902%);stroke-opacity:1;stroke-miterlimit:4;" d="M 208.524945 1297.241003 C 208.524945 1292.285524 204.550237 1288.259196 199.543138 1288.259196 C 194.587658 1288.259196 190.56133 1292.285524 190.56133 1297.241003 C 190.56133 1302.196483 194.587658 1306.222811 199.543138 1306.222811 C 204.550237 1306.222811 208.524945 1302.196483 208.524945 1297.241003 Z M 208.524945 1297.241003 " transform="matrix(0.0756738,0,0,-0.0756738,24.017,155.507)"/>
<path style="fill:none;stroke-width:2.5;stroke-linecap:butt;stroke-linejoin:miter;stroke:rgb(13.730068%,12.159915%,12.54902%);stroke-opacity:1;stroke-miterlimit:4;" d="M 163.564288 1252.228727 C 163.564288 1247.273247 159.537961 1243.24692 154.530861 1243.24692 C 149.575381 1243.24692 145.549054 1247.273247 145.549054 1252.228727 C 145.549054 1257.235827 149.575381 1261.262154 154.530861 1261.262154 C 159.537961 1261.262154 163.564288 1257.235827 163.564288 1252.228727 Z M 163.564288 1252.228727 " transform="matrix(0.0756738,0,0,-0.0756738,24.017,155.507)"/>
<path style="fill:none;stroke-width:2.5;stroke-linecap:butt;stroke-linejoin:miter;stroke:rgb(13.730068%,12.159915%,12.54902%);stroke-opacity:1;stroke-miterlimit:4;" d="M 136.567247 1225.231685 C 136.567247 1220.276205 132.540919 1216.249878 127.533819 1216.249878 C 122.57834 1216.249878 118.552012 1220.276205 118.552012 1225.231685 C 118.552012 1230.187165 122.57834 1234.265112 127.533819 1234.265112 C 132.540919 1234.265112 136.567247 1230.187165 136.567247 1225.231685 Z M 136.567247 1225.231685 " transform="matrix(0.0756738,0,0,-0.0756738,24.017,155.507)"/>
<path style="fill:none;stroke-width:2.5;stroke-linecap:butt;stroke-linejoin:miter;stroke:rgb(13.730068%,12.159915%,12.54902%);stroke-opacity:1;stroke-miterlimit:4;" d="M 116.745327 1205.461385 C 116.745327 1200.454285 112.718999 1196.427958 107.763519 1196.427958 C 102.75642 1196.427958 98.730092 1200.454285 98.730092 1205.461385 C 98.730092 1210.416865 102.75642 1214.443192 107.763519 1214.443192 C 112.718999 1214.443192 116.745327 1210.416865 116.745327 1205.461385 Z M 116.745327 1205.461385 " transform="matrix(0.0756738,0,0,-0.0756738,24.017,155.507)"/>
<path style="fill:none;stroke-width:2.5;stroke-linecap:butt;stroke-linejoin:miter;stroke:rgb(13.730068%,12.159915%,12.54902%);stroke-opacity:1;stroke-miterlimit:4;" d="M 93.361656 1179.187017 C 93.361656 1174.179918 89.335328 1170.15359 84.379848 1170.15359 C 79.372749 1170.15359 75.346421 1174.179918 75.346421 1179.187017 C 75.346421 1184.142497 79.372749 1188.168825 84.379848 1188.168825 C 89.335328 1188.168825 93.361656 1184.142497 93.361656 1179.187017 Z M 93.361656 1179.187017 " transform="matrix(0.0756738,0,0,-0.0756738,24.017,155.507)"/>
<path style="fill:none;stroke-width:2.5;stroke-linecap:butt;stroke-linejoin:miter;stroke:rgb(13.730068%,12.159915%,12.54902%);stroke-opacity:1;stroke-miterlimit:4;" d="M 62.389906 1157.197075 C 62.389906 1152.241595 58.363578 1148.215267 53.408098 1148.215267 C 48.400999 1148.215267 44.374671 1152.241595 44.374671 1157.197075 C 44.374671 1162.152555 48.400999 1166.178882 53.408098 1166.178882 C 58.363578 1166.178882 62.389906 1162.152555 62.389906 1157.197075 Z M 62.389906 1157.197075 " transform="matrix(0.0756738,0,0,-0.0756738,24.017,155.507)"/>
<path style="fill:none;stroke-width:2.5;stroke-linecap:butt;stroke-linejoin:miter;stroke:rgb(13.730068%,12.159915%,12.54902%);stroke-opacity:1;stroke-miterlimit:4;" d="M 52.220848 1127.773913 C 52.220848 1122.818433 48.19452 1118.792105 43.187421 1118.792105 C 38.231941 1118.792105 34.205613 1122.818433 34.205613 1127.773913 C 34.205613 1132.781012 38.231941 1136.80734 43.187421 1136.80734 C 48.19452 1136.80734 52.220848 1132.781012 52.220848 1127.773913 Z M 52.220848 1127.773913 " transform="matrix(0.0756738,0,0,-0.0756738,24.017,155.507)"/>
<path style="fill:none;stroke-width:2.5;stroke-linecap:butt;stroke-linejoin:miter;stroke:rgb(13.730068%,12.159915%,12.54902%);stroke-opacity:1;stroke-miterlimit:4;" d="M 41.380735 1082.813256 C 41.380735 1077.806156 37.354408 1073.779829 32.398928 1073.779829 C 27.443448 1073.779829 23.417121 1077.806156 23.417121 1082.813256 C 23.417121 1087.768736 27.443448 1091.795063 32.398928 1091.795063 C 37.354408 1091.795063 41.380735 1087.768736 41.380735 1082.813256 Z M 41.380735 1082.813256 " transform="matrix(0.0756738,0,0,-0.0756738,24.017,155.507)"/>
<path style="fill:none;stroke-width:2.5;stroke-linecap:butt;stroke-linejoin:miter;stroke:rgb(13.730068%,12.159915%,12.54902%);stroke-opacity:1;stroke-miterlimit:4;" d="M 28.785557 1037.800979 C 28.785557 1032.845499 24.75923 1028.767552 19.80375 1028.767552 C 14.84827 1028.767552 10.821942 1032.845499 10.821942 1037.800979 C 10.821942 1042.756459 14.84827 1046.782787 19.80375 1046.782787 C 24.75923 1046.782787 28.785557 1042.756459 28.785557 1037.800979 Z M 28.785557 1037.800979 " transform="matrix(0.0756738,0,0,-0.0756738,24.017,155.507)"/>
<path style=" stroke:none;fill-rule:nonzero;fill:rgb(13.730068%,12.159915%,12.54902%);fill-opacity:1;" d="M 25.378906 81.058594 C 25.378906 81.4375 25.074219 81.742188 24.699219 81.742188 C 24.320313 81.742188 24.015625 81.4375 24.015625 81.058594 C 24.015625 80.683594 24.320313 80.378906 24.699219 80.378906 C 25.074219 80.378906 25.378906 80.683594 25.378906 81.058594 "/>
<path style=" stroke:none;fill-rule:nonzero;fill:rgb(13.730068%,12.159915%,12.54902%);fill-opacity:1;" d="M 25.378906 82.695313 C 25.378906 83.070313 25.074219 83.375 24.699219 83.375 C 24.320313 83.375 24.015625 83.070313 24.015625 82.695313 C 24.015625 82.320313 24.320313 82.011719 24.699219 82.011719 C 25.074219 82.011719 25.378906 82.320313 25.378906 82.695313 "/>
<path style=" stroke:none;fill-rule:nonzero;fill:rgb(13.730068%,12.159915%,12.54902%);fill-opacity:1;" d="M 25.378906 83.785156 C 25.378906 84.160156 25.074219 84.464844 24.699219 84.464844 C 24.320313 84.464844 24.015625 84.160156 24.015625 83.785156 C 24.015625 83.40625 24.320313 83.101563 24.699219 83.101563 C 25.074219 83.101563 25.378906 83.40625 25.378906 83.785156 "/>
<path style=" stroke:none;fill-rule:nonzero;fill:rgb(13.730068%,12.159915%,12.54902%);fill-opacity:1;" d="M 25.378906 91.820313 C 25.378906 92.199219 25.074219 92.5 24.699219 92.5 C 24.320313 92.5 24.015625 92.199219 24.015625 91.820313 C 24.015625 91.445313 24.320313 91.140625 24.699219 91.140625 C 25.074219 91.140625 25.378906 91.445313 25.378906 91.820313 "/>
<path style=" stroke:none;fill-rule:nonzero;fill:rgb(13.730068%,12.159915%,12.54902%);fill-opacity:1;" d="M 25.378906 93.183594 C 25.378906 93.558594 25.074219 93.863281 24.699219 93.863281 C 24.320313 93.863281 24.015625 93.558594 24.015625 93.183594 C 24.015625 92.804688 24.320313 92.5 24.699219 92.5 C 25.074219 92.5 25.378906 92.804688 25.378906 93.183594 "/>
<path style=" stroke:none;fill-rule:nonzero;fill:rgb(13.730068%,12.159915%,12.54902%);fill-opacity:1;" d="M 25.378906 94.273438 C 25.378906 94.648438 25.074219 94.953125 24.699219 94.953125 C 24.320313 94.953125 24.015625 94.648438 24.015625 94.273438 C 24.015625 93.894531 24.320313 93.589844 24.699219 93.589844 C 25.074219 93.589844 25.378906 93.894531 25.378906 94.273438 "/>
<path style=" stroke:none;fill-rule:nonzero;fill:rgb(13.730068%,12.159915%,12.54902%);fill-opacity:1;" d="M 25.378906 102.105469 C 25.378906 102.480469 25.074219 102.785156 24.699219 102.785156 C 24.320313 102.785156 24.015625 102.480469 24.015625 102.105469 C 24.015625 101.726563 24.320313 101.425781 24.699219 101.425781 C 25.074219 101.425781 25.378906 101.726563 25.378906 102.105469 "/>
<path style=" stroke:none;fill-rule:nonzero;fill:rgb(13.730068%,12.159915%,12.54902%);fill-opacity:1;" d="M 25.378906 103.945313 C 25.378906 104.320313 25.074219 104.625 24.699219 104.625 C 24.320313 104.625 24.015625 104.320313 24.015625 103.945313 C 24.015625 103.566406 24.320313 103.261719 24.699219 103.261719 C 25.074219 103.261719 25.378906 103.566406 25.378906 103.945313 "/>
<path style=" stroke:none;fill-rule:nonzero;fill:rgb(13.730068%,12.159915%,12.54902%);fill-opacity:1;" d="M 25.378906 109.121094 C 25.378906 109.496094 25.074219 109.800781 24.699219 109.800781 C 24.320313 109.800781 24.015625 109.496094 24.015625 109.121094 C 24.015625 108.742188 24.320313 108.4375 24.699219 108.4375 C 25.074219 108.4375 25.378906 108.742188 25.378906 109.121094 "/>
<path style=" stroke:none;fill-rule:nonzero;fill:rgb(13.730068%,12.159915%,12.54902%);fill-opacity:1;" d="M 25.378906 114.09375 C 25.378906 114.46875 25.074219 114.773438 24.699219 114.773438 C 24.320313 114.773438 24.015625 114.46875 24.015625 114.09375 C 24.015625 113.714844 24.320313 113.410156 24.699219 113.410156 C 25.074219 113.410156 25.378906 113.714844 25.378906 114.09375 "/>
<path style=" stroke:none;fill-rule:nonzero;fill:rgb(13.730068%,12.159915%,12.54902%);fill-opacity:1;" d="M 25.378906 117.15625 C 25.378906 117.535156 25.074219 117.835938 24.699219 117.835938 C 24.320313 117.835938 24.015625 117.535156 24.015625 117.15625 C 24.015625 116.78125 24.320313 116.476563 24.699219 116.476563 C 25.074219 116.476563 25.378906 116.78125 25.378906 117.15625 "/>
<path style=" stroke:none;fill-rule:nonzero;fill:rgb(13.730068%,12.159915%,12.54902%);fill-opacity:1;" d="M 25.378906 119.0625 C 25.378906 119.441406 25.074219 119.742188 24.699219 119.742188 C 24.320313 119.742188 24.015625 119.441406 24.015625 119.0625 C 24.015625 118.6875 24.320313 118.382813 24.699219 118.382813 C 25.074219 118.382813 25.378906 118.6875 25.378906 119.0625 "/>
<path style=" stroke:none;fill-rule:nonzero;fill:rgb(13.730068%,12.159915%,12.54902%);fill-opacity:1;" d="M 25.378906 121.039063 C 25.378906 121.414063 25.074219 121.71875 24.699219 121.71875 C 24.320313 121.71875 24.015625 121.414063 24.015625 121.039063 C 24.015625 120.660156 24.320313 120.355469 24.699219 120.355469 C 25.074219 120.355469 25.378906 120.660156 25.378906 121.039063 "/>
<path style=" stroke:none;fill-rule:nonzero;fill:rgb(13.730068%,12.159915%,12.54902%);fill-opacity:1;" d="M 25.378906 122.945313 C 25.378906 123.320313 25.074219 123.625 24.699219 123.625 C 24.320313 123.625 24.015625 123.320313 24.015625 122.945313 C 24.015625 122.566406 24.320313 122.265625 24.699219 122.265625 C 25.074219 122.265625 25.378906 122.566406 25.378906 122.945313 "/>
<path style=" stroke:none;fill-rule:nonzero;fill:rgb(13.730068%,12.159915%,12.54902%);fill-opacity:1;" d="M 25.378906 124.988281 C 25.378906 125.363281 25.074219 125.671875 24.699219 125.671875 C 24.320313 125.671875 24.015625 125.363281 24.015625 124.988281 C 24.015625 124.613281 24.320313 124.308594 24.699219 124.308594 C 25.074219 124.308594 25.378906 124.613281 25.378906 124.988281 "/>
<path style=" stroke:none;fill-rule:nonzero;fill:rgb(13.730068%,12.159915%,12.54902%);fill-opacity:1;" d="M 25.378906 129.144531 C 25.378906 129.519531 25.074219 129.824219 24.699219 129.824219 C 24.320313 129.824219 24.015625 129.519531 24.015625 129.144531 C 24.015625 128.765625 24.320313 128.460938 24.699219 128.460938 C 25.074219 128.460938 25.378906 128.765625 25.378906 129.144531 "/>
<path style=" stroke:none;fill-rule:nonzero;fill:rgb(13.730068%,12.159915%,12.54902%);fill-opacity:1;" d="M 25.378906 133.230469 C 25.378906 133.605469 25.074219 133.910156 24.699219 133.910156 C 24.320313 133.910156 24.015625 133.605469 24.015625 133.230469 C 24.015625 132.851563 24.320313 132.546875 24.699219 132.546875 C 25.074219 132.546875 25.378906 132.851563 25.378906 133.230469 "/>
<path style=" stroke:none;fill-rule:nonzero;fill:rgb(13.730068%,12.159915%,12.54902%);fill-opacity:1;" d="M 25.378906 134.773438 C 25.378906 135.148438 25.074219 135.453125 24.699219 135.453125 C 24.320313 135.453125 24.015625 135.148438 24.015625 134.773438 C 24.015625 134.394531 24.320313 134.089844 24.699219 134.089844 C 25.074219 134.089844 25.378906 134.394531 25.378906 134.773438 "/>
<path style=" stroke:none;fill-rule:nonzero;fill:rgb(13.730068%,12.159915%,12.54902%);fill-opacity:1;" d="M 25.378906 139.3125 C 25.378906 139.691406 25.074219 139.992188 24.699219 139.992188 C 24.320313 139.992188 24.015625 139.691406 24.015625 139.3125 C 24.015625 138.9375 24.320313 138.632813 24.699219 138.632813 C 25.074219 138.632813 25.378906 138.9375 25.378906 139.3125 "/>
<path style=" stroke:none;fill-rule:nonzero;fill:rgb(13.730068%,12.159915%,12.54902%);fill-opacity:1;" d="M 25.378906 140.367188 C 25.378906 140.746094 25.074219 141.050781 24.699219 141.050781 C 24.320313 141.050781 24.015625 140.746094 24.015625 140.367188 C 24.015625 139.992188 24.320313 139.6875 24.699219 139.6875 C 25.074219 139.6875 25.378906 139.992188 25.378906 140.367188 "/>
<path style=" stroke:none;fill-rule:nonzero;fill:rgb(13.730068%,12.159915%,12.54902%);fill-opacity:1;" d="M 25.378906 143.308594 C 25.378906 143.6875 25.074219 143.992188 24.699219 143.992188 C 24.320313 143.992188 24.015625 143.6875 24.015625 143.308594 C 24.015625 142.933594 24.320313 142.628906 24.699219 142.628906 C 25.074219 142.628906 25.378906 142.933594 25.378906 143.308594 "/>
<path style=" stroke:none;fill-rule:nonzero;fill:rgb(13.730068%,12.159915%,12.54902%);fill-opacity:1;" d="M 25.378906 146.125 C 25.378906 146.5 25.074219 146.804688 24.699219 146.804688 C 24.320313 146.804688 24.015625 146.5 24.015625 146.125 C 24.015625 145.746094 24.320313 145.441406 24.699219 145.441406 C 25.074219 145.441406 25.378906 145.746094 25.378906 146.125 "/>
<path style=" stroke:none;fill-rule:nonzero;fill:rgb(13.730068%,12.159915%,12.54902%);fill-opacity:1;" d="M 25.378906 150.9375 C 25.378906 151.3125 25.074219 151.617188 24.699219 151.617188 C 24.320313 151.617188 24.015625 151.3125 24.015625 150.9375 C 24.015625 150.558594 24.320313 150.257813 24.699219 150.257813 C 25.074219 150.257813 25.378906 150.558594 25.378906 150.9375 "/>
<path style=" stroke:none;fill-rule:nonzero;fill:rgb(13.730068%,12.159915%,12.54902%);fill-opacity:1;" d="M 25.378906 149.121094 C 25.378906 149.496094 25.074219 149.800781 24.699219 149.800781 C 24.320313 149.800781 24.015625 149.496094 24.015625 149.121094 C 24.015625 148.742188 24.320313 148.4375 24.699219 148.4375 C 25.074219 148.4375 25.378906 148.742188 25.378906 149.121094 "/>
<path style=" stroke:none;fill-rule:nonzero;fill:rgb(13.730068%,12.159915%,12.54902%);fill-opacity:1;" d="M 25.378906 144.851563 C 25.378906 145.230469 25.074219 145.535156 24.699219 145.535156 C 24.320313 145.535156 24.015625 145.230469 24.015625 144.851563 C 24.015625 144.476563 24.320313 144.171875 24.699219 144.171875 C 25.074219 144.171875 25.378906 144.476563 25.378906 144.851563 "/>
<path style=" stroke:none;fill-rule:nonzero;fill:rgb(13.730068%,12.159915%,12.54902%);fill-opacity:1;" d="M 25.378906 141.808594 C 25.378906 142.1875 25.074219 142.492188 24.699219 142.492188 C 24.320313 142.492188 24.015625 142.1875 24.015625 141.808594 C 24.015625 141.433594 24.320313 141.128906 24.699219 141.128906 C 25.074219 141.128906 25.378906 141.433594 25.378906 141.808594 "/>
<path style="fill:none;stroke-width:2.5;stroke-linecap:butt;stroke-linejoin:miter;stroke:rgb(13.730068%,12.159915%,12.54902%);stroke-opacity:1;stroke-miterlimit:4;" d="M 298.807596 1379.058043 C 298.807596 1374.102563 294.781268 1370.076235 289.825788 1370.076235 C 284.818689 1370.076235 280.792361 1374.102563 280.792361 1379.058043 C 280.792361 1384.065142 284.818689 1388.09147 289.825788 1388.09147 C 294.781268 1388.09147 298.807596 1384.065142 298.807596 1379.058043 Z M 298.807596 1379.058043 " transform="matrix(0.0756738,0,0,-0.0756738,24.017,155.507)"/>
<path style=" stroke:none;fill-rule:nonzero;fill:rgb(13.730068%,12.159915%,12.54902%);fill-opacity:1;" d="M 33.28125 13.632813 C 33.28125 14.011719 32.972656 14.316406 32.597656 14.316406 C 32.222656 14.316406 31.917969 14.011719 31.917969 13.632813 C 31.917969 13.257813 32.222656 12.953125 32.597656 12.953125 C 32.972656 12.953125 33.28125 13.257813 33.28125 13.632813 "/>
<path style=" stroke:none;fill-rule:nonzero;fill:rgb(13.730068%,12.159915%,12.54902%);fill-opacity:1;" d="M 40.5 11.863281 C 40.5 12.238281 40.195313 12.542969 39.816406 12.542969 C 39.441406 12.542969 39.136719 12.238281 39.136719 11.863281 C 39.136719 11.488281 39.441406 11.183594 39.816406 11.183594 C 40.195313 11.183594 40.5 11.488281 40.5 11.863281 "/>
<path style=" stroke:none;fill-rule:nonzero;fill:rgb(13.730068%,12.159915%,12.54902%);fill-opacity:1;" d="M 42.722656 11.292969 C 42.722656 11.667969 42.417969 11.972656 42.042969 11.972656 C 41.664063 11.972656 41.359375 11.667969 41.359375 11.292969 C 41.359375 10.914063 41.664063 10.609375 42.042969 10.609375 C 42.417969 10.609375 42.722656 10.914063 42.722656 11.292969 "/>
<path style=" stroke:none;fill-rule:nonzero;fill:rgb(13.730068%,12.159915%,12.54902%);fill-opacity:1;" d="M 47.445313 10.636719 C 47.445313 11.011719 47.140625 11.316406 46.765625 11.316406 C 46.386719 11.316406 46.082031 11.011719 46.082031 10.636719 C 46.082031 10.261719 46.386719 9.957031 46.765625 9.957031 C 47.140625 9.957031 47.445313 10.261719 47.445313 10.636719 "/>
<path style=" stroke:none;fill-rule:nonzero;fill:rgb(13.730068%,12.159915%,12.54902%);fill-opacity:1;" d="M 52.894531 10.636719 C 52.894531 11.011719 52.589844 11.316406 52.214844 11.316406 C 51.835938 11.316406 51.53125 11.011719 51.53125 10.636719 C 51.53125 10.261719 51.835938 9.957031 52.214844 9.957031 C 52.589844 9.957031 52.894531 10.261719 52.894531 10.636719 "/>
<path style="fill:none;stroke-width:5;stroke-linecap:butt;stroke-linejoin:miter;stroke:rgb(13.730068%,12.159915%,12.54902%);stroke-opacity:1;stroke-miterlimit:4;" d="M 9.015257 1084.000506 C 9.015257 1084.000506 111.015553 1229.206393 250.646525 1348.344391 L 640.684094 1651.71268 C 672.636616 1674.735014 703.247029 1699.97699 732.670191 1726.096499 C 758.428363 1749.015594 783.412241 1773.0187 806.228097 1798.931731 C 826.308115 1821.644347 843.652294 1840.846832 853.047059 1870.115136 C 858.828452 1887.872272 862.648301 1923.386545 834.618867 1923.386545 " transform="matrix(0.0756738,0,0,-0.0756738,24.017,155.507)"/>
<path style="fill:none;stroke-width:5;stroke-linecap:butt;stroke-linejoin:miter;stroke:rgb(13.730068%,12.159915%,12.54902%);stroke-opacity:1;stroke-miterlimit:4;" d="M 101.827267 1418.392165 L 114.164348 1406.003465 " transform="matrix(0.0756738,0,0,-0.0756738,24.017,155.507)"/>
<path style="fill:none;stroke-width:5;stroke-linecap:butt;stroke-linejoin:miter;stroke:rgb(13.730068%,12.159915%,12.54902%);stroke-opacity:1;stroke-miterlimit:4;" d="M 114.164348 1418.392165 L 101.827267 1406.003465 " transform="matrix(0.0756738,0,0,-0.0756738,24.017,155.507)"/>
<path style="fill:none;stroke-width:5;stroke-linecap:butt;stroke-linejoin:miter;stroke:rgb(13.730068%,12.159915%,12.54902%);stroke-opacity:1;stroke-miterlimit:4;" d="M 77.514444 1394.079341 L 89.903143 1381.690641 " transform="matrix(0.0756738,0,0,-0.0756738,24.017,155.507)"/>
<path style="fill:none;stroke-width:5;stroke-linecap:butt;stroke-linejoin:miter;stroke:rgb(13.730068%,12.159915%,12.54902%);stroke-opacity:1;stroke-miterlimit:4;" d="M 89.903143 1394.079341 L 77.514444 1381.690641 " transform="matrix(0.0756738,0,0,-0.0756738,24.017,155.507)"/>
<path style="fill:none;stroke-width:5;stroke-linecap:butt;stroke-linejoin:miter;stroke:rgb(13.730068%,12.159915%,12.54902%);stroke-opacity:1;stroke-miterlimit:4;" d="M 38.799756 1333.787668 L 51.188456 1321.398968 " transform="matrix(0.0756738,0,0,-0.0756738,24.017,155.507)"/>
<path style="fill:none;stroke-width:5;stroke-linecap:butt;stroke-linejoin:miter;stroke:rgb(13.730068%,12.159915%,12.54902%);stroke-opacity:1;stroke-miterlimit:4;" d="M 51.188456 1333.787668 L 38.799756 1321.398968 " transform="matrix(0.0756738,0,0,-0.0756738,24.017,155.507)"/>
<path style="fill:none;stroke-width:5;stroke-linecap:butt;stroke-linejoin:miter;stroke:rgb(13.730068%,12.159915%,12.54902%);stroke-opacity:1;stroke-miterlimit:4;" d="M 20.836141 1291.769328 L 33.173222 1279.380628 " transform="matrix(0.0756738,0,0,-0.0756738,24.017,155.507)"/>
<path style="fill:none;stroke-width:5;stroke-linecap:butt;stroke-linejoin:miter;stroke:rgb(13.730068%,12.159915%,12.54902%);stroke-opacity:1;stroke-miterlimit:4;" d="M 33.173222 1291.769328 L 20.836141 1279.380628 " transform="matrix(0.0756738,0,0,-0.0756738,24.017,155.507)"/>
<path style="fill:none;stroke-width:5;stroke-linecap:butt;stroke-linejoin:miter;stroke:rgb(13.730068%,12.159915%,12.54902%);stroke-opacity:1;stroke-miterlimit:4;" d="M 12.422149 1245.001985 L 24.810849 1232.613286 " transform="matrix(0.0756738,0,0,-0.0756738,24.017,155.507)"/>
<path style="fill:none;stroke-width:5;stroke-linecap:butt;stroke-linejoin:miter;stroke:rgb(13.730068%,12.159915%,12.54902%);stroke-opacity:1;stroke-miterlimit:4;" d="M 24.810849 1245.001985 L 12.422149 1232.613286 " transform="matrix(0.0756738,0,0,-0.0756738,24.017,155.507)"/>
<path style="fill:none;stroke-width:5;stroke-linecap:butt;stroke-linejoin:miter;stroke:rgb(13.730068%,12.159915%,12.54902%);stroke-opacity:1;stroke-miterlimit:4;" d="M 12.422149 1212.584887 L 24.810849 1200.196187 " transform="matrix(0.0756738,0,0,-0.0756738,24.017,155.507)"/>
<path style="fill:none;stroke-width:5;stroke-linecap:butt;stroke-linejoin:miter;stroke:rgb(13.730068%,12.159915%,12.54902%);stroke-opacity:1;stroke-miterlimit:4;" d="M 24.810849 1212.584887 L 12.422149 1200.196187 " transform="matrix(0.0756738,0,0,-0.0756738,24.017,155.507)"/>
<path style="fill:none;stroke-width:5;stroke-linecap:butt;stroke-linejoin:miter;stroke:rgb(13.730068%,12.159915%,12.54902%);stroke-opacity:1;stroke-miterlimit:4;" d="M 135.121898 1445.389207 L 147.458979 1433.000507 " transform="matrix(0.0756738,0,0,-0.0756738,24.017,155.507)"/>
<path style="fill:none;stroke-width:5;stroke-linecap:butt;stroke-linejoin:miter;stroke:rgb(13.730068%,12.159915%,12.54902%);stroke-opacity:1;stroke-miterlimit:4;" d="M 147.458979 1445.389207 L 135.121898 1433.000507 " transform="matrix(0.0756738,0,0,-0.0756738,24.017,155.507)"/>
<path style="fill:none;stroke-width:5;stroke-linecap:butt;stroke-linejoin:miter;stroke:rgb(13.730068%,12.159915%,12.54902%);stroke-opacity:1;stroke-miterlimit:4;" d="M 167.538996 1477.754685 L 179.876077 1465.417605 " transform="matrix(0.0756738,0,0,-0.0756738,24.017,155.507)"/>
<path style="fill:none;stroke-width:5;stroke-linecap:butt;stroke-linejoin:miter;stroke:rgb(13.730068%,12.159915%,12.54902%);stroke-opacity:1;stroke-miterlimit:4;" d="M 179.876077 1477.754685 L 167.538996 1465.417605 " transform="matrix(0.0756738,0,0,-0.0756738,24.017,155.507)"/>
<path style="fill:none;stroke-width:5;stroke-linecap:butt;stroke-linejoin:miter;stroke:rgb(13.730068%,12.159915%,12.54902%);stroke-opacity:1;stroke-miterlimit:4;" d="M 226.075603 1522.302385 L 238.464303 1509.913685 " transform="matrix(0.0756738,0,0,-0.0756738,24.017,155.507)"/>
<path style="fill:none;stroke-width:5;stroke-linecap:butt;stroke-linejoin:miter;stroke:rgb(13.730068%,12.159915%,12.54902%);stroke-opacity:1;stroke-miterlimit:4;" d="M 238.464303 1522.302385 L 226.075603 1509.913685 " transform="matrix(0.0756738,0,0,-0.0756738,24.017,155.507)"/>
<path style="fill:none;stroke-width:5;stroke-linecap:butt;stroke-linejoin:miter;stroke:rgb(13.730068%,12.159915%,12.54902%);stroke-opacity:1;stroke-miterlimit:4;" d="M 276.869273 1553.532233 L 289.257973 1541.143533 " transform="matrix(0.0756738,0,0,-0.0756738,24.017,155.507)"/>
<path style="fill:none;stroke-width:5;stroke-linecap:butt;stroke-linejoin:miter;stroke:rgb(13.730068%,12.159915%,12.54902%);stroke-opacity:1;stroke-miterlimit:4;" d="M 289.257973 1553.532233 L 276.869273 1541.143533 " transform="matrix(0.0756738,0,0,-0.0756738,24.017,155.507)"/>
<path style="fill:none;stroke-width:5;stroke-linecap:butt;stroke-linejoin:miter;stroke:rgb(13.730068%,12.159915%,12.54902%);stroke-opacity:1;stroke-miterlimit:4;" d="M 308.460458 1572.218522 L 320.849158 1559.829822 " transform="matrix(0.0756738,0,0,-0.0756738,24.017,155.507)"/>
<path style="fill:none;stroke-width:5;stroke-linecap:butt;stroke-linejoin:miter;stroke:rgb(13.730068%,12.159915%,12.54902%);stroke-opacity:1;stroke-miterlimit:4;" d="M 320.849158 1572.218522 L 308.460458 1559.829822 " transform="matrix(0.0756738,0,0,-0.0756738,24.017,155.507)"/>
<path style="fill:none;stroke-width:5;stroke-linecap:butt;stroke-linejoin:miter;stroke:rgb(13.730068%,12.159915%,12.54902%);stroke-opacity:1;stroke-miterlimit:4;" d="M 329.159911 1584.194265 L 341.548611 1571.805565 " transform="matrix(0.0756738,0,0,-0.0756738,24.017,155.507)"/>
<path style="fill:none;stroke-width:5;stroke-linecap:butt;stroke-linejoin:miter;stroke:rgb(13.730068%,12.159915%,12.54902%);stroke-opacity:1;stroke-miterlimit:4;" d="M 341.548611 1584.194265 L 329.159911 1571.805565 " transform="matrix(0.0756738,0,0,-0.0756738,24.017,155.507)"/>
<path style="fill:none;stroke-width:5;stroke-linecap:butt;stroke-linejoin:miter;stroke:rgb(13.730068%,12.159915%,12.54902%);stroke-opacity:1;stroke-miterlimit:4;" d="M 382.741038 1614.133624 L 395.129738 1601.796543 " transform="matrix(0.0756738,0,0,-0.0756738,24.017,155.507)"/>
<path style="fill:none;stroke-width:5;stroke-linecap:butt;stroke-linejoin:miter;stroke:rgb(13.730068%,12.159915%,12.54902%);stroke-opacity:1;stroke-miterlimit:4;" d="M 395.129738 1614.133624 L 382.741038 1601.796543 " transform="matrix(0.0756738,0,0,-0.0756738,24.017,155.507)"/>
<path style="fill:none;stroke-width:5;stroke-linecap:butt;stroke-linejoin:miter;stroke:rgb(13.730068%,12.159915%,12.54902%);stroke-opacity:1;stroke-miterlimit:4;" d="M 439.41934 1644.072982 L 451.80804 1631.684282 " transform="matrix(0.0756738,0,0,-0.0756738,24.017,155.507)"/>
<path style="fill:none;stroke-width:5;stroke-linecap:butt;stroke-linejoin:miter;stroke:rgb(13.730068%,12.159915%,12.54902%);stroke-opacity:1;stroke-miterlimit:4;" d="M 451.80804 1644.072982 L 439.41934 1631.684282 " transform="matrix(0.0756738,0,0,-0.0756738,24.017,155.507)"/>
<path style="fill:none;stroke-width:5;stroke-linecap:butt;stroke-linejoin:miter;stroke:rgb(13.730068%,12.159915%,12.54902%);stroke-opacity:1;stroke-miterlimit:4;" d="M 491.813217 1670.708686 L 504.201917 1658.319987 " transform="matrix(0.0756738,0,0,-0.0756738,24.017,155.507)"/>
<path style="fill:none;stroke-width:5;stroke-linecap:butt;stroke-linejoin:miter;stroke:rgb(13.730068%,12.159915%,12.54902%);stroke-opacity:1;stroke-miterlimit:4;" d="M 504.201917 1670.708686 L 491.813217 1658.319987 " transform="matrix(0.0756738,0,0,-0.0756738,24.017,155.507)"/>
<path style="fill:none;stroke-width:5;stroke-linecap:butt;stroke-linejoin:miter;stroke:rgb(13.730068%,12.159915%,12.54902%);stroke-opacity:1;stroke-miterlimit:4;" d="M 545.652442 1697.137913 L 558.041142 1684.749213 " transform="matrix(0.0756738,0,0,-0.0756738,24.017,155.507)"/>
<path style="fill:none;stroke-width:5;stroke-linecap:butt;stroke-linejoin:miter;stroke:rgb(13.730068%,12.159915%,12.54902%);stroke-opacity:1;stroke-miterlimit:4;" d="M 558.041142 1697.137913 L 545.652442 1684.749213 " transform="matrix(0.0756738,0,0,-0.0756738,24.017,155.507)"/>
<path style="fill:none;stroke-width:5;stroke-linecap:butt;stroke-linejoin:miter;stroke:rgb(13.730068%,12.159915%,12.54902%);stroke-opacity:1;stroke-miterlimit:4;" d="M 608.215376 1725.99326 L 620.552457 1713.60456 " transform="matrix(0.0756738,0,0,-0.0756738,24.017,155.507)"/>
<path style="fill:none;stroke-width:5;stroke-linecap:butt;stroke-linejoin:miter;stroke:rgb(13.730068%,12.159915%,12.54902%);stroke-opacity:1;stroke-miterlimit:4;" d="M 620.552457 1725.99326 L 608.215376 1713.60456 " transform="matrix(0.0756738,0,0,-0.0756738,24.017,155.507)"/>
<path style="fill:none;stroke-width:5;stroke-linecap:butt;stroke-linejoin:miter;stroke:rgb(13.730068%,12.159915%,12.54902%);stroke-opacity:1;stroke-miterlimit:4;" d="M 661.899743 1749.893127 L 674.236823 1737.504427 " transform="matrix(0.0756738,0,0,-0.0756738,24.017,155.507)"/>
<path style="fill:none;stroke-width:5;stroke-linecap:butt;stroke-linejoin:miter;stroke:rgb(13.730068%,12.159915%,12.54902%);stroke-opacity:1;stroke-miterlimit:4;" d="M 674.236823 1749.893127 L 661.899743 1737.504427 " transform="matrix(0.0756738,0,0,-0.0756738,24.017,155.507)"/>
<path style="fill:none;stroke-width:5;stroke-linecap:butt;stroke-linejoin:miter;stroke:rgb(13.730068%,12.159915%,12.54902%);stroke-opacity:1;stroke-miterlimit:4;" d="M 705.724769 1767.908361 L 718.061849 1755.519661 " transform="matrix(0.0756738,0,0,-0.0756738,24.017,155.507)"/>
<path style="fill:none;stroke-width:5;stroke-linecap:butt;stroke-linejoin:miter;stroke:rgb(13.730068%,12.159915%,12.54902%);stroke-opacity:1;stroke-miterlimit:4;" d="M 718.061849 1767.908361 L 705.724769 1755.519661 " transform="matrix(0.0756738,0,0,-0.0756738,24.017,155.507)"/>
<path style="fill:none;stroke-width:5;stroke-linecap:butt;stroke-linejoin:miter;stroke:rgb(13.730068%,12.159915%,12.54902%);stroke-opacity:1;stroke-miterlimit:4;" d="M 884.070428 1836.459168 L 896.459128 1824.122087 " transform="matrix(0.0756738,0,0,-0.0756738,24.017,155.507)"/>
<path style="fill:none;stroke-width:5;stroke-linecap:butt;stroke-linejoin:miter;stroke:rgb(13.730068%,12.159915%,12.54902%);stroke-opacity:1;stroke-miterlimit:4;" d="M 896.459128 1836.459168 L 884.070428 1824.122087 " transform="matrix(0.0756738,0,0,-0.0756738,24.017,155.507)"/>
<path style="fill:none;stroke-width:5;stroke-linecap:butt;stroke-linejoin:miter;stroke:rgb(13.730068%,12.159915%,12.54902%);stroke-opacity:1;stroke-miterlimit:4;" d="M 834.515628 1817.979357 L 846.904328 1805.590657 " transform="matrix(0.0756738,0,0,-0.0756738,24.017,155.507)"/>
<path style="fill:none;stroke-width:5;stroke-linecap:butt;stroke-linejoin:miter;stroke:rgb(13.730068%,12.159915%,12.54902%);stroke-opacity:1;stroke-miterlimit:4;" d="M 846.904328 1817.979357 L 834.515628 1805.590657 " transform="matrix(0.0756738,0,0,-0.0756738,24.017,155.507)"/>
<path style="fill:none;stroke-width:5;stroke-linecap:butt;stroke-linejoin:miter;stroke:rgb(13.730068%,12.159915%,12.54902%);stroke-opacity:1;stroke-miterlimit:4;" d="M 922.578637 1850.861031 L 934.915717 1838.523951 " transform="matrix(0.0756738,0,0,-0.0756738,24.017,155.507)"/>
<path style="fill:none;stroke-width:5;stroke-linecap:butt;stroke-linejoin:miter;stroke:rgb(13.730068%,12.159915%,12.54902%);stroke-opacity:1;stroke-miterlimit:4;" d="M 934.915717 1850.861031 L 922.578637 1838.523951 " transform="matrix(0.0756738,0,0,-0.0756738,24.017,155.507)"/>
<path style="fill:none;stroke-width:5;stroke-linecap:butt;stroke-linejoin:miter;stroke:rgb(13.730068%,12.159915%,12.54902%);stroke-opacity:1;stroke-miterlimit:4;" d="M 953.240669 1862.320579 L 965.629369 1849.983498 " transform="matrix(0.0756738,0,0,-0.0756738,24.017,155.507)"/>
<path style="fill:none;stroke-width:5;stroke-linecap:butt;stroke-linejoin:miter;stroke:rgb(13.730068%,12.159915%,12.54902%);stroke-opacity:1;stroke-miterlimit:4;" d="M 965.629369 1862.320579 L 953.240669 1849.983498 " transform="matrix(0.0756738,0,0,-0.0756738,24.017,155.507)"/>
<path style="fill:none;stroke-width:5;stroke-linecap:butt;stroke-linejoin:miter;stroke:rgb(13.730068%,12.159915%,12.54902%);stroke-opacity:1;stroke-miterlimit:4;" d="M 1003.569763 1881.161726 L 1015.958463 1868.773026 " transform="matrix(0.0756738,0,0,-0.0756738,24.017,155.507)"/>
<path style="fill:none;stroke-width:5;stroke-linecap:butt;stroke-linejoin:miter;stroke:rgb(13.730068%,12.159915%,12.54902%);stroke-opacity:1;stroke-miterlimit:4;" d="M 1015.958463 1881.161726 L 1003.569763 1868.773026 " transform="matrix(0.0756738,0,0,-0.0756738,24.017,155.507)"/>
<path style="fill:none;stroke-width:5;stroke-linecap:butt;stroke-linejoin:miter;stroke:rgb(13.730068%,12.159915%,12.54902%);stroke-opacity:1;stroke-miterlimit:4;" d="M 1059.060814 1901.861179 L 1071.449514 1889.524099 " transform="matrix(0.0756738,0,0,-0.0756738,24.017,155.507)"/>
<path style="fill:none;stroke-width:5;stroke-linecap:butt;stroke-linejoin:miter;stroke:rgb(13.730068%,12.159915%,12.54902%);stroke-opacity:1;stroke-miterlimit:4;" d="M 1071.449514 1901.861179 L 1059.060814 1889.524099 " transform="matrix(0.0756738,0,0,-0.0756738,24.017,155.507)"/>
<path style="fill:none;stroke-width:5;stroke-linecap:butt;stroke-linejoin:miter;stroke:rgb(13.730068%,12.159915%,12.54902%);stroke-opacity:1;stroke-miterlimit:4;" d="M 1110.422299 1921.063664 L 1122.810999 1908.674964 " transform="matrix(0.0756738,0,0,-0.0756738,24.017,155.507)"/>
<path style="fill:none;stroke-width:5;stroke-linecap:butt;stroke-linejoin:miter;stroke:rgb(13.730068%,12.159915%,12.54902%);stroke-opacity:1;stroke-miterlimit:4;" d="M 1122.810999 1921.063664 L 1110.422299 1908.674964 " transform="matrix(0.0756738,0,0,-0.0756738,24.017,155.507)"/>
</g>
</g>
<g clip-path="url(#clip3)" clip-rule="nonzero">
<g style="fill:rgb(0%,0%,0%);fill-opacity:1;">
  <use xlink:href="#glyph0-1" x="107.31" y="168.287"/>
</g>
<g style="fill:rgb(0%,0%,0%);fill-opacity:1;">
  <use xlink:href="#glyph1-1" x="23.482" y="159.343"/>
</g>
<g style="fill:rgb(0%,0%,0%);fill-opacity:1;">
  <use xlink:href="#glyph1-2" x="37.719" y="159.343"/>
  <use xlink:href="#glyph1-1" x="40.490097" y="159.343"/>
  <use xlink:href="#glyph1-1" x="43.261194" y="159.343"/>
</g>
<g style="fill:rgb(0%,0%,0%);fill-opacity:1;">
  <use xlink:href="#glyph1-3" x="54.727" y="159.343"/>
  <use xlink:href="#glyph1-1" x="57.498097" y="159.343"/>
  <use xlink:href="#glyph1-1" x="60.269194" y="159.343"/>
</g>
<g style="fill:rgb(0%,0%,0%);fill-opacity:1;">
  <use xlink:href="#glyph1-4" x="72.018" y="159.343"/>
  <use xlink:href="#glyph1-1" x="74.789097" y="159.343"/>
  <use xlink:href="#glyph1-1" x="77.560194" y="159.343"/>
</g>
<g style="fill:rgb(0%,0%,0%);fill-opacity:1;">
  <use xlink:href="#glyph1-5" x="89.026" y="159.343"/>
  <use xlink:href="#glyph1-1" x="91.797097" y="159.343"/>
  <use xlink:href="#glyph1-1" x="94.568194" y="159.343"/>
</g>
<g style="fill:rgb(0%,0%,0%);fill-opacity:1;">
  <use xlink:href="#glyph1-6" x="106.034" y="159.343"/>
  <use xlink:href="#glyph1-1" x="108.805097" y="159.343"/>
  <use xlink:href="#glyph1-1" x="111.576194" y="159.343"/>
</g>
<g style="fill:rgb(0%,0%,0%);fill-opacity:1;">
  <use xlink:href="#glyph1-7" x="123.325" y="159.343"/>
  <use xlink:href="#glyph1-1" x="126.096097" y="159.343"/>
  <use xlink:href="#glyph1-1" x="128.867194" y="159.343"/>
</g>
<g style="fill:rgb(0%,0%,0%);fill-opacity:1;">
  <use xlink:href="#glyph1-8" x="140.333" y="159.343"/>
  <use xlink:href="#glyph1-1" x="143.104097" y="159.343"/>
  <use xlink:href="#glyph1-1" x="145.875194" y="159.343"/>
</g>
<g style="fill:rgb(0%,0%,0%);fill-opacity:1;">
  <use xlink:href="#glyph1-9" x="157.341" y="159.343"/>
  <use xlink:href="#glyph1-1" x="160.112097" y="159.343"/>
  <use xlink:href="#glyph1-1" x="162.883194" y="159.343"/>
</g>
<g style="fill:rgb(0%,0%,0%);fill-opacity:1;">
  <use xlink:href="#glyph1-10" x="174.349" y="159.343"/>
  <use xlink:href="#glyph1-1" x="177.120097" y="159.343"/>
  <use xlink:href="#glyph1-1" x="179.891194" y="159.343"/>
</g>
<g style="fill:rgb(0%,0%,0%);fill-opacity:1;">
  <use xlink:href="#glyph1-2" x="189.121" y="159.343"/>
  <use xlink:href="#glyph1-1" x="191.892097" y="159.343"/>
  <use xlink:href="#glyph1-1" x="194.663194" y="159.343"/>
  <use xlink:href="#glyph1-1" x="197.434292" y="159.343"/>
</g>
<g style="fill:rgb(0%,0%,0%);fill-opacity:1;">
  <use xlink:href="#glyph0-2" x="1.059" y="75.361"/>
</g>
<path style="fill:none;stroke-width:0.339;stroke-linecap:butt;stroke-linejoin:miter;stroke:rgb(0%,0%,0%);stroke-opacity:1;stroke-miterlimit:10;" d="M -0.00071875 0.00134375 L 8.690688 0.00134375 " transform="matrix(1,0,0,-1,0.239,78.474)"/>
<g style="fill:rgb(0%,0%,0%);fill-opacity:1;">
  <use xlink:href="#glyph2-1" x="0.239" y="85.441"/>
</g>
<g style="fill:rgb(0%,0%,0%);fill-opacity:1;">
  <use xlink:href="#glyph0-3" x="4.118" y="85.441"/>
</g>
<g style="fill:rgb(0%,0%,0%);fill-opacity:1;">
  <use xlink:href="#glyph1-1" x="20.679" y="154.657"/>
</g>
<g style="fill:rgb(0%,0%,0%);fill-opacity:1;">
  <use xlink:href="#glyph1-3" x="15.137" y="139"/>
  <use xlink:href="#glyph1-1" x="17.908097" y="139"/>
  <use xlink:href="#glyph1-1" x="20.679194" y="139"/>
</g>
<g style="fill:rgb(0%,0%,0%);fill-opacity:1;">
  <use xlink:href="#glyph1-5" x="15.137" y="121.709"/>
  <use xlink:href="#glyph1-1" x="17.908097" y="121.709"/>
  <use xlink:href="#glyph1-1" x="20.679194" y="121.709"/>
</g>
<g style="fill:rgb(0%,0%,0%);fill-opacity:1;">
  <use xlink:href="#glyph1-7" x="15.137" y="104.701"/>
  <use xlink:href="#glyph1-1" x="17.908097" y="104.701"/>
  <use xlink:href="#glyph1-1" x="20.679194" y="104.701"/>
</g>
<g style="fill:rgb(0%,0%,0%);fill-opacity:1;">
  <use xlink:href="#glyph1-9" x="15.137" y="87.976"/>
  <use xlink:href="#glyph1-1" x="17.908097" y="87.976"/>
  <use xlink:href="#glyph1-1" x="20.679194" y="87.976"/>
</g>
<g style="fill:rgb(0%,0%,0%);fill-opacity:1;">
  <use xlink:href="#glyph1-2" x="12.366" y="71.252"/>
  <use xlink:href="#glyph1-1" x="15.137097" y="71.252"/>
  <use xlink:href="#glyph1-1" x="17.908194" y="71.252"/>
  <use xlink:href="#glyph1-1" x="20.679292" y="71.252"/>
</g>
<g style="fill:rgb(0%,0%,0%);fill-opacity:1;">
  <use xlink:href="#glyph1-2" x="12.366" y="54.528"/>
  <use xlink:href="#glyph1-3" x="15.137097" y="54.528"/>
  <use xlink:href="#glyph1-1" x="17.908194" y="54.528"/>
  <use xlink:href="#glyph1-1" x="20.679292" y="54.528"/>
</g>
<g style="fill:rgb(0%,0%,0%);fill-opacity:1;">
  <use xlink:href="#glyph1-2" x="12.366" y="38.37"/>
  <use xlink:href="#glyph1-5" x="15.137097" y="38.37"/>
  <use xlink:href="#glyph1-1" x="17.908194" y="38.37"/>
  <use xlink:href="#glyph1-1" x="20.679292" y="38.37"/>
</g>
<g style="fill:rgb(0%,0%,0%);fill-opacity:1;">
  <use xlink:href="#glyph1-2" x="12.366" y="21.646"/>
  <use xlink:href="#glyph1-7" x="15.137097" y="21.646"/>
  <use xlink:href="#glyph1-1" x="17.908194" y="21.646"/>
  <use xlink:href="#glyph1-1" x="20.679292" y="21.646"/>
</g>
<g style="fill:rgb(0%,0%,0%);fill-opacity:1;">
  <use xlink:href="#glyph1-2" x="12.366" y="4.071"/>
  <use xlink:href="#glyph1-9" x="15.137097" y="4.071"/>
  <use xlink:href="#glyph1-1" x="17.908194" y="4.071"/>
  <use xlink:href="#glyph1-1" x="20.679292" y="4.071"/>
</g>
<g style="fill:rgb(0%,0%,0%);fill-opacity:1;">
  <use xlink:href="#glyph1-11" x="94.829" y="7.294"/>
  <use xlink:href="#glyph1-2" x="96.396117" y="7.294"/>
  <use xlink:href="#glyph1-1" x="99.167214" y="7.294"/>
  <use xlink:href="#glyph1-1" x="101.938311" y="7.294"/>
  <use xlink:href="#glyph1-12" x="104.709409" y="7.294"/>
</g>
<g style="fill:rgb(0%,0%,0%);fill-opacity:1;">
  <use xlink:href="#glyph1-11" x="43.184" y="31.066"/>
  <use xlink:href="#glyph1-2" x="44.751117" y="31.066"/>
  <use xlink:href="#glyph1-2" x="47.522214" y="31.066"/>
  <use xlink:href="#glyph1-1" x="50.293311" y="31.066"/>
  <use xlink:href="#glyph1-12" x="53.064409" y="31.066"/>
</g>
<g style="fill:rgb(0%,0%,0%);fill-opacity:1;">
  <use xlink:href="#glyph1-11" x="81.277" y="27.716"/>
  <use xlink:href="#glyph1-2" x="82.844117" y="27.716"/>
  <use xlink:href="#glyph1-2" x="85.615214" y="27.716"/>
  <use xlink:href="#glyph1-2" x="88.386311" y="27.716"/>
  <use xlink:href="#glyph1-12" x="91.157409" y="27.716"/>
</g>
</g>
</g>
</svg>
