<?xml version="1.0" encoding="UTF-8"?>
<svg xmlns="http://www.w3.org/2000/svg" xmlns:xlink="http://www.w3.org/1999/xlink" width="396pt" height="155pt" viewBox="0 0 229 90" version="1.1">
<defs>
<g>
<symbol overflow="visible" id="glyph0-0">
<path style="stroke:none;" d=""/>
</symbol>
<symbol overflow="visible" id="glyph0-1">
<path style="stroke:none;" d="M 0.75 -3.296875 C 0.828125 -3.140625 0.921875 -3.015625 1.015625 -2.875 C 1.078125 -2.796875 1.6875 -1.875 1.71875 -1.84375 C 1.734375 -1.8125 1.796875 -1.75 1.796875 -1.703125 C 1.796875 -1.65625 1.71875 -1.609375 1.6875 -1.578125 C 1.375 -1.296875 0.046875 -0.046875 0 0 C 0.1875 0 0.375 0 0.53125 0 L 0.6875 -0.140625 L 1.984375 -1.4375 C 2.265625 -0.953125 2.53125 -0.46875 2.84375 -0.015625 C 3.015625 0 3.203125 0 3.390625 0 C 3.296875 -0.140625 2.359375 -1.53125 2.328125 -1.5625 C 2.3125 -1.609375 2.265625 -1.65625 2.265625 -1.6875 C 2.28125 -1.734375 2.34375 -1.78125 2.375 -1.8125 C 2.484375 -1.921875 2.59375 -2.015625 2.703125 -2.125 C 2.8125 -2.21875 3.921875 -3.25 3.953125 -3.296875 C 3.765625 -3.296875 3.59375 -3.296875 3.421875 -3.28125 C 2.96875 -2.875 2.546875 -2.4375 2.09375 -2.03125 C 1.828125 -2.453125 1.578125 -2.890625 1.28125 -3.28125 C 1.109375 -3.296875 0.921875 -3.296875 0.75 -3.296875 Z M 0.75 -3.296875 "/>
</symbol>
<symbol overflow="visible" id="glyph0-2">
<path style="stroke:none;" d="M 4.15625 -0.796875 C 4.046875 -0.75 3.9375 -0.671875 3.828125 -0.625 C 3.546875 -0.5 3.28125 -0.40625 2.984375 -0.375 C 2.71875 -0.34375 2.453125 -0.328125 2.1875 -0.390625 C 1.921875 -0.46875 1.6875 -0.59375 1.515625 -0.78125 C 1.09375 -1.1875 1 -1.8125 1.109375 -2.375 C 1.28125 -3.28125 1.953125 -4.0625 2.8125 -4.375 C 3.265625 -4.53125 3.84375 -4.5 4.265625 -4.359375 C 4.515625 -4.25 4.453125 -4.265625 4.734375 -4.109375 L 4.9375 -4.640625 C 4.71875 -4.71875 4.515625 -4.78125 4.296875 -4.828125 C 3.953125 -4.90625 3.453125 -4.90625 3.109375 -4.859375 C 2.328125 -4.71875 1.734375 -4.296875 1.28125 -3.796875 C 0.65625 -3.078125 0.296875 -2 0.6875 -1.09375 C 0.75 -0.90625 0.859375 -0.734375 0.984375 -0.59375 C 1.375 -0.125 1.9375 0.09375 2.75 0.046875 C 3.234375 0.03125 3.5 -0.0625 3.890625 -0.234375 C 3.9375 -0.25 3.984375 -0.28125 4.03125 -0.296875 C 4.0625 -0.3125 4.078125 -0.328125 4.09375 -0.34375 C 4.125 -0.390625 4.15625 -0.78125 4.15625 -0.796875 Z M 4.15625 -0.796875 "/>
</symbol>
<symbol overflow="visible" id="glyph1-0">
<path style="stroke:none;" d=""/>
</symbol>
<symbol overflow="visible" id="glyph1-1">
<path style="stroke:none;" d="M 0.734375 -4.84375 L 0.734375 0 L 1.25 0 L 1.25 -2.21875 L 2.28125 -2.21875 C 2.421875 -2.21875 2.546875 -2.234375 2.65625 -2.203125 C 2.78125 -2.03125 2.90625 -1.859375 3.03125 -1.671875 C 3.421875 -1.125 3.8125 -0.5625 4.21875 -0.015625 C 4.390625 0 4.578125 0 4.75 0 L 4.46875 -0.390625 L 3.125 -2.28125 C 3.25 -2.296875 3.390625 -2.328125 3.515625 -2.390625 C 4.015625 -2.5625 4.578125 -2.96875 4.53125 -3.5625 C 4.515625 -3.796875 4.453125 -3.9375 4.328125 -4.109375 C 4.015625 -4.515625 3.484375 -4.765625 2.875 -4.828125 C 2.625 -4.84375 2.390625 -4.84375 2.125 -4.84375 L 0.734375 -4.84375 Z M 1.25 -2.609375 L 1.25 -4.421875 L 2.296875 -4.421875 C 2.640625 -4.421875 3 -4.421875 3.34375 -4.328125 C 3.671875 -4.203125 4 -3.96875 4.046875 -3.59375 C 4.0625 -3.359375 3.96875 -3.140625 3.8125 -2.984375 C 3.6875 -2.875 3.546875 -2.796875 3.390625 -2.734375 C 3.046875 -2.609375 2.6875 -2.609375 2.328125 -2.609375 L 1.25 -2.609375 Z M 1.25 -2.609375 "/>
</symbol>
<symbol overflow="visible" id="glyph1-2">
<path style="stroke:none;" d="M 3.140625 -0.796875 C 3.09375 -0.765625 3.046875 -0.71875 3 -0.6875 C 2.59375 -0.390625 1.875 -0.140625 1.328125 -0.53125 C 0.984375 -0.78125 0.78125 -1.15625 0.78125 -1.734375 L 3.203125 -1.734375 C 3.203125 -2.25 3.078125 -2.734375 2.78125 -3.03125 C 2.4375 -3.34375 1.90625 -3.4375 1.46875 -3.328125 C 1.28125 -3.28125 1.109375 -3.1875 0.953125 -3.0625 C 0.515625 -2.71875 0.296875 -2.171875 0.296875 -1.609375 C 0.3125 -0.828125 0.890625 -0.109375 1.671875 0.03125 C 2.0625 0.109375 2.484375 0.015625 2.84375 -0.15625 C 2.90625 -0.1875 3.140625 -0.3125 3.15625 -0.375 C 3.1875 -0.40625 3.15625 -0.703125 3.140625 -0.796875 Z M 2.78125 -2.046875 L 0.8125 -2.046875 C 0.90625 -2.359375 1.0625 -2.65625 1.34375 -2.84375 C 1.6875 -3.0625 2.203125 -3.03125 2.5 -2.71875 C 2.671875 -2.53125 2.75 -2.296875 2.78125 -2.046875 Z M 2.78125 -2.046875 "/>
</symbol>
<symbol overflow="visible" id="glyph2-0">
<path style="stroke:none;" d=""/>
</symbol>
<symbol overflow="visible" id="glyph2-1">
<path style="stroke:none;" d="M 1.171875 -1.875 L 1.15625 -1.875 C 1.203125 -2.03125 1.234375 -2.1875 1.265625 -2.359375 L 0.90625 -2.359375 L 0.40625 0 L 0.671875 0 C 0.71875 0 0.78125 0.015625 0.78125 -0.046875 C 0.796875 -0.078125 0.875 -0.421875 0.890625 -0.546875 C 0.9375 -0.71875 1.0625 -1.328125 1.09375 -1.453125 C 1.15625 -1.65625 1.25 -1.828125 1.40625 -1.953125 C 1.5 -2.03125 1.609375 -2.09375 1.734375 -2.109375 C 1.96875 -2.125 2.1875 -2.078125 2.28125 -1.921875 C 2.359375 -1.78125 2.296875 -1.609375 2.265625 -1.453125 L 1.953125 0 L 2.21875 0 C 2.265625 0 2.328125 0.015625 2.328125 -0.0625 C 2.359375 -0.15625 2.421875 -0.515625 2.421875 -0.515625 L 2.65625 -1.5625 C 2.6875 -1.75 2.734375 -1.984375 2.625 -2.15625 C 2.5 -2.375 2.203125 -2.421875 1.90625 -2.375 C 1.703125 -2.34375 1.53125 -2.25 1.375 -2.109375 C 1.296875 -2.046875 1.21875 -1.96875 1.171875 -1.875 Z M 1.171875 -1.875 "/>
</symbol>
</g>
<clipPath id="clip1">
  <path d="M -191 667 L 421 667 L 421 -125 L -191 -125 L -191 667 Z M -191 667 "/>
</clipPath>
<clipPath id="clip2">
  <path d="M -0.875 90.800781 L 230.125 90.800781 L 230.125 -0.199219 L -0.875 -0.199219 L -0.875 90.800781 Z M -0.875 90.800781 "/>
</clipPath>
<clipPath id="clip3">
  <path d="M -191 667 L 421 667 L 421 -125 L -191 -125 L -191 667 Z M -191 667 "/>
</clipPath>
</defs>
<g id="surface0">
<g clip-path="url(#clip1)" clip-rule="nonzero">
<g clip-path="url(#clip2)" clip-rule="nonzero">
<path style="fill:none;stroke-width:5;stroke-linecap:round;stroke-linejoin:round;stroke:rgb(0%,0%,0%);stroke-opacity:1;stroke-miterlimit:10;" d="M 26.377188 429.42625 L 2294.0725 429.42625 " transform="matrix(0.1,0,0,-0.1,-0.876,90.802)"/>
<path style=" stroke:none;fill-rule:nonzero;fill:rgb(0%,0%,0%);fill-opacity:1;" d="M 223 49.085938 L 228.53125 47.859375 L 223 46.632813 "/>
<path style="fill:none;stroke-width:5;stroke-linecap:round;stroke-linejoin:round;stroke:rgb(0%,0%,0%);stroke-opacity:1;stroke-miterlimit:10;" d="M 2238.76 417.160625 L 2294.0725 429.42625 L 2238.76 441.691875 L 2238.76 417.160625 Z M 2238.76 417.160625 " transform="matrix(0.1,0,0,-0.1,-0.876,90.802)"/>
<path style="fill:none;stroke-width:5;stroke-linecap:round;stroke-linejoin:round;stroke:rgb(0%,0%,0%);stroke-opacity:1;stroke-miterlimit:10;" d="M 26.377188 18.410625 L 26.377188 897.160625 " transform="matrix(0.1,0,0,-0.1,-0.876,90.802)"/>
<path style=" stroke:none;fill-rule:nonzero;fill:rgb(0%,0%,0%);fill-opacity:1;" d="M 2.988281 6.621094 L 1.761719 1.085938 L 0.535156 6.621094 "/>
<path style="fill:none;stroke-width:5;stroke-linecap:round;stroke-linejoin:round;stroke:rgb(0%,0%,0%);stroke-opacity:1;stroke-miterlimit:10;" d="M 38.642813 841.809062 L 26.377188 897.160625 L 14.111563 841.809062 L 38.642813 841.809062 Z M 38.642813 841.809062 " transform="matrix(0.1,0,0,-0.1,-0.876,90.802)"/>
<path style="fill:none;stroke-width:9;stroke-linecap:round;stroke-linejoin:round;stroke:rgb(0%,0%,0%);stroke-opacity:1;stroke-miterlimit:10;" d="M 139.775625 429.42625 L 139.775625 656.223125 " transform="matrix(0.1,0,0,-0.1,-0.876,90.802)"/>
<path style="fill:none;stroke-width:9;stroke-linecap:round;stroke-linejoin:round;stroke:rgb(0%,0%,0%);stroke-opacity:1;stroke-miterlimit:10;" d="M 378.91625 429.42625 L 378.91625 589.777812 " transform="matrix(0.1,0,0,-0.1,-0.876,90.802)"/>
<path style="fill:none;stroke-width:9;stroke-linecap:round;stroke-linejoin:round;stroke:rgb(0%,0%,0%);stroke-opacity:1;stroke-miterlimit:10;" d="M 857.275625 429.42625 L 857.275625 269.074687 " transform="matrix(0.1,0,0,-0.1,-0.876,90.802)"/>
<path style="fill:none;stroke-width:9;stroke-linecap:round;stroke-linejoin:round;stroke:rgb(0%,0%,0%);stroke-opacity:1;stroke-miterlimit:10;" d="M 1096.455313 429.42625 L 1096.455313 202.668437 " transform="matrix(0.1,0,0,-0.1,-0.876,90.802)"/>
<path style="fill:none;stroke-width:9;stroke-linecap:round;stroke-linejoin:round;stroke:rgb(0%,0%,0%);stroke-opacity:1;stroke-miterlimit:10;" d="M 1335.635 429.42625 L 1335.635 269.074687 " transform="matrix(0.1,0,0,-0.1,-0.876,90.802)"/>
<path style="fill:none;stroke-width:9;stroke-linecap:round;stroke-linejoin:round;stroke:rgb(0%,0%,0%);stroke-opacity:1;stroke-miterlimit:10;" d="M 1813.955313 429.42625 L 1813.955313 589.777812 " transform="matrix(0.1,0,0,-0.1,-0.876,90.802)"/>
<path style="fill:none;stroke-width:9;stroke-linecap:round;stroke-linejoin:round;stroke:rgb(0%,0%,0%);stroke-opacity:1;stroke-miterlimit:10;" d="M 2053.135 429.42625 L 2053.135 656.223125 " transform="matrix(0.1,0,0,-0.1,-0.876,90.802)"/>
<path style=" stroke:none;fill-rule:nonzero;fill:rgb(100%,100%,100%);fill-opacity:1;" d="M 15.933594 47.859375 C 15.933594 47.105469 15.636719 46.386719 15.105469 45.855469 C 14.574219 45.320313 13.851563 45.023438 13.101563 45.023438 C 12.347656 45.023438 11.628906 45.320313 11.09375 45.855469 C 10.5625 46.386719 10.265625 47.105469 10.265625 47.859375 C 10.265625 48.609375 10.5625 49.332031 11.09375 49.863281 C 11.628906 50.394531 12.347656 50.691406 13.101563 50.691406 C 13.851563 50.691406 14.574219 50.394531 15.105469 49.863281 C 15.636719 49.332031 15.933594 48.609375 15.933594 47.859375 "/>
<path style="fill:none;stroke-width:5;stroke-linecap:round;stroke-linejoin:round;stroke:rgb(0%,0%,0%);stroke-opacity:1;stroke-miterlimit:10;" d="M 168.095938 429.42625 C 168.095938 436.965312 165.127188 444.152812 159.814688 449.465312 C 154.502188 454.816875 147.275625 457.785625 139.775625 457.785625 C 132.236563 457.785625 125.049063 454.816875 119.6975 449.465312 C 114.385 444.152812 111.41625 436.965312 111.41625 429.42625 C 111.41625 421.92625 114.385 414.699687 119.6975 409.387187 C 125.049063 404.074687 132.236563 401.105937 139.775625 401.105937 C 147.275625 401.105937 154.502188 404.074687 159.814688 409.387187 C 165.127188 414.699687 168.095938 421.92625 168.095938 429.42625 Z M 168.095938 429.42625 " transform="matrix(0.1,0,0,-0.1,-0.876,90.802)"/>
<path style=" stroke:none;fill-rule:nonzero;fill:rgb(100%,100%,100%);fill-opacity:1;" d="M 39.851563 47.859375 C 39.851563 47.105469 39.554688 46.386719 39.023438 45.855469 C 38.488281 45.320313 37.769531 45.023438 37.015625 45.023438 C 36.265625 45.023438 35.542969 45.320313 35.011719 45.855469 C 34.480469 46.386719 34.183594 47.105469 34.183594 47.859375 C 34.183594 48.609375 34.480469 49.332031 35.011719 49.863281 C 35.542969 50.394531 36.265625 50.691406 37.015625 50.691406 C 37.769531 50.691406 38.488281 50.394531 39.023438 49.863281 C 39.554688 49.332031 39.851563 48.609375 39.851563 47.859375 "/>
<path style="fill:none;stroke-width:5;stroke-linecap:round;stroke-linejoin:round;stroke:rgb(0%,0%,0%);stroke-opacity:1;stroke-miterlimit:10;" d="M 407.275625 429.42625 C 407.275625 436.965312 404.306875 444.152812 398.994375 449.465312 C 393.642813 454.816875 386.455313 457.785625 378.91625 457.785625 C 371.41625 457.785625 364.189688 454.816875 358.877188 449.465312 C 353.564688 444.152812 350.595938 436.965312 350.595938 429.42625 C 350.595938 421.92625 353.564688 414.699687 358.877188 409.387187 C 364.189688 404.074687 371.41625 401.105937 378.91625 401.105937 C 386.455313 401.105937 393.642813 404.074687 398.994375 409.387187 C 404.306875 414.699687 407.275625 421.92625 407.275625 429.42625 Z M 407.275625 429.42625 " transform="matrix(0.1,0,0,-0.1,-0.876,90.802)"/>
<path style=" stroke:none;fill-rule:nonzero;fill:rgb(100%,100%,100%);fill-opacity:1;" d="M 63.769531 47.859375 C 63.769531 47.105469 63.46875 46.386719 62.9375 45.855469 C 62.40625 45.320313 61.6875 45.023438 60.933594 45.023438 C 60.183594 45.023438 59.460938 45.320313 58.929688 45.855469 C 58.398438 46.386719 58.101563 47.105469 58.101563 47.859375 C 58.101563 48.609375 58.398438 49.332031 58.929688 49.863281 C 59.460938 50.394531 60.183594 50.691406 60.933594 50.691406 C 61.6875 50.691406 62.40625 50.394531 62.9375 49.863281 C 63.46875 49.332031 63.769531 48.609375 63.769531 47.859375 "/>
<path style="fill:none;stroke-width:5;stroke-linecap:round;stroke-linejoin:round;stroke:rgb(0%,0%,0%);stroke-opacity:1;stroke-miterlimit:10;" d="M 646.455312 429.42625 C 646.455312 436.965312 643.4475 444.152812 638.135 449.465312 C 632.8225 454.816875 625.635 457.785625 618.095937 457.785625 C 610.595937 457.785625 603.369375 454.816875 598.056875 449.465312 C 592.744375 444.152812 589.775625 436.965312 589.775625 429.42625 C 589.775625 421.92625 592.744375 414.699687 598.056875 409.387187 C 603.369375 404.074687 610.595937 401.105937 618.095937 401.105937 C 625.635 401.105937 632.8225 404.074687 638.135 409.387187 C 643.4475 414.699687 646.455312 421.92625 646.455312 429.42625 Z M 646.455312 429.42625 " transform="matrix(0.1,0,0,-0.1,-0.876,90.802)"/>
<path style=" stroke:none;fill-rule:nonzero;fill:rgb(100%,100%,100%);fill-opacity:1;" d="M 87.6875 47.859375 C 87.6875 47.105469 87.386719 46.386719 86.855469 45.855469 C 86.324219 45.320313 85.605469 45.023438 84.851563 45.023438 C 84.101563 45.023438 83.378906 45.320313 82.847656 45.855469 C 82.316406 46.386719 82.015625 47.105469 82.015625 47.859375 C 82.015625 48.609375 82.316406 49.332031 82.847656 49.863281 C 83.378906 50.394531 84.101563 50.691406 84.851563 50.691406 C 85.605469 50.691406 86.324219 50.394531 86.855469 49.863281 C 87.386719 49.332031 87.6875 48.609375 87.6875 47.859375 "/>
<path style="fill:none;stroke-width:5;stroke-linecap:round;stroke-linejoin:round;stroke:rgb(0%,0%,0%);stroke-opacity:1;stroke-miterlimit:10;" d="M 885.635 429.42625 C 885.635 436.965312 882.627187 444.152812 877.314687 449.465312 C 872.002187 454.816875 864.814687 457.785625 857.275625 457.785625 C 849.775625 457.785625 842.549062 454.816875 837.236562 449.465312 C 831.924062 444.152812 828.91625 436.965312 828.91625 429.42625 C 828.91625 421.92625 831.924062 414.699687 837.236562 409.387187 C 842.549062 404.074687 849.775625 401.105937 857.275625 401.105937 C 864.814687 401.105937 872.002187 404.074687 877.314687 409.387187 C 882.627187 414.699687 885.635 421.92625 885.635 429.42625 Z M 885.635 429.42625 " transform="matrix(0.1,0,0,-0.1,-0.876,90.802)"/>
<path style=" stroke:none;fill-rule:nonzero;fill:rgb(100%,100%,100%);fill-opacity:1;" d="M 111.605469 47.859375 C 111.605469 47.105469 111.304688 46.386719 110.773438 45.855469 C 110.242188 45.320313 109.519531 45.023438 108.769531 45.023438 C 108.015625 45.023438 107.296875 45.320313 106.765625 45.855469 C 106.234375 46.386719 105.933594 47.105469 105.933594 47.859375 C 105.933594 48.609375 106.234375 49.332031 106.765625 49.863281 C 107.296875 50.394531 108.015625 50.691406 108.769531 50.691406 C 109.519531 50.691406 110.242188 50.394531 110.773438 49.863281 C 111.304688 49.332031 111.605469 48.609375 111.605469 47.859375 "/>
<path style="fill:none;stroke-width:5;stroke-linecap:round;stroke-linejoin:round;stroke:rgb(0%,0%,0%);stroke-opacity:1;stroke-miterlimit:10;" d="M 1124.814688 429.42625 C 1124.814688 436.965312 1121.806875 444.152812 1116.494375 449.465312 C 1111.181875 454.816875 1103.955313 457.785625 1096.455313 457.785625 C 1088.91625 457.785625 1081.72875 454.816875 1076.41625 449.465312 C 1071.10375 444.152812 1068.095938 436.965312 1068.095938 429.42625 C 1068.095938 421.92625 1071.10375 414.699687 1076.41625 409.387187 C 1081.72875 404.074687 1088.91625 401.105937 1096.455313 401.105937 C 1103.955313 401.105937 1111.181875 404.074687 1116.494375 409.387187 C 1121.806875 414.699687 1124.814688 421.92625 1124.814688 429.42625 Z M 1124.814688 429.42625 " transform="matrix(0.1,0,0,-0.1,-0.876,90.802)"/>
<path style=" stroke:none;fill-rule:nonzero;fill:rgb(100%,100%,100%);fill-opacity:1;" d="M 135.519531 47.859375 C 135.519531 47.105469 135.222656 46.386719 134.691406 45.855469 C 134.160156 45.320313 133.4375 45.023438 132.6875 45.023438 C 131.933594 45.023438 131.214844 45.320313 130.683594 45.855469 C 130.148438 46.386719 129.851563 47.105469 129.851563 47.859375 C 129.851563 48.609375 130.148438 49.332031 130.683594 49.863281 C 131.214844 50.394531 131.933594 50.691406 132.6875 50.691406 C 133.4375 50.691406 134.160156 50.394531 134.691406 49.863281 C 135.222656 49.332031 135.519531 48.609375 135.519531 47.859375 "/>
<path style="fill:none;stroke-width:5;stroke-linecap:round;stroke-linejoin:round;stroke:rgb(0%,0%,0%);stroke-opacity:1;stroke-miterlimit:10;" d="M 1363.955313 429.42625 C 1363.955313 436.965312 1360.986563 444.152812 1355.674063 449.465312 C 1350.361563 454.816875 1343.135 457.785625 1335.635 457.785625 C 1328.095938 457.785625 1320.908438 454.816875 1315.595938 449.465312 C 1310.244375 444.152812 1307.275625 436.965312 1307.275625 429.42625 C 1307.275625 421.92625 1310.244375 414.699687 1315.595938 409.387187 C 1320.908438 404.074687 1328.095938 401.105937 1335.635 401.105937 C 1343.135 401.105937 1350.361563 404.074687 1355.674063 409.387187 C 1360.986563 414.699687 1363.955313 421.92625 1363.955313 429.42625 Z M 1363.955313 429.42625 " transform="matrix(0.1,0,0,-0.1,-0.876,90.802)"/>
<path style=" stroke:none;fill-rule:nonzero;fill:rgb(100%,100%,100%);fill-opacity:1;" d="M 159.4375 47.859375 C 159.4375 47.105469 159.140625 46.386719 158.609375 45.855469 C 158.074219 45.320313 157.355469 45.023438 156.605469 45.023438 C 155.851563 45.023438 155.132813 45.320313 154.597656 45.855469 C 154.066406 46.386719 153.769531 47.105469 153.769531 47.859375 C 153.769531 48.609375 154.066406 49.332031 154.597656 49.863281 C 155.132813 50.394531 155.851563 50.691406 156.605469 50.691406 C 157.355469 50.691406 158.074219 50.394531 158.609375 49.863281 C 159.140625 49.332031 159.4375 48.609375 159.4375 47.859375 "/>
<path style="fill:none;stroke-width:5;stroke-linecap:round;stroke-linejoin:round;stroke:rgb(0%,0%,0%);stroke-opacity:1;stroke-miterlimit:10;" d="M 1603.135 429.42625 C 1603.135 436.965312 1600.16625 444.152812 1594.85375 449.465312 C 1589.502188 454.816875 1582.314688 457.785625 1574.814688 457.785625 C 1567.275625 457.785625 1560.088125 454.816875 1554.736563 449.465312 C 1549.424063 444.152812 1546.455313 436.965312 1546.455313 429.42625 C 1546.455313 421.92625 1549.424063 414.699687 1554.736563 409.387187 C 1560.088125 404.074687 1567.275625 401.105937 1574.814688 401.105937 C 1582.314688 401.105937 1589.502188 404.074687 1594.85375 409.387187 C 1600.16625 414.699687 1603.135 421.92625 1603.135 429.42625 Z M 1603.135 429.42625 " transform="matrix(0.1,0,0,-0.1,-0.876,90.802)"/>
<path style=" stroke:none;fill-rule:nonzero;fill:rgb(100%,100%,100%);fill-opacity:1;" d="M 183.355469 47.859375 C 183.355469 47.105469 183.058594 46.386719 182.523438 45.855469 C 181.992188 45.320313 181.273438 45.023438 180.519531 45.023438 C 179.769531 45.023438 179.046875 45.320313 178.515625 45.855469 C 177.984375 46.386719 177.6875 47.105469 177.6875 47.859375 C 177.6875 48.609375 177.984375 49.332031 178.515625 49.863281 C 179.046875 50.394531 179.769531 50.691406 180.519531 50.691406 C 181.273438 50.691406 181.992188 50.394531 182.523438 49.863281 C 183.058594 49.332031 183.355469 48.609375 183.355469 47.859375 "/>
<path style="fill:none;stroke-width:5;stroke-linecap:round;stroke-linejoin:round;stroke:rgb(0%,0%,0%);stroke-opacity:1;stroke-miterlimit:10;" d="M 1842.314688 429.42625 C 1842.314688 436.965312 1839.345938 444.152812 1833.994375 449.465312 C 1828.681875 454.816875 1821.494375 457.785625 1813.955313 457.785625 C 1806.455313 457.785625 1799.22875 454.816875 1793.91625 449.465312 C 1788.60375 444.152812 1785.635 436.965312 1785.635 429.42625 C 1785.635 421.92625 1788.60375 414.699687 1793.91625 409.387187 C 1799.22875 404.074687 1806.455313 401.105937 1813.955313 401.105937 C 1821.494375 401.105937 1828.681875 404.074687 1833.994375 409.387187 C 1839.345938 414.699687 1842.314688 421.92625 1842.314688 429.42625 Z M 1842.314688 429.42625 " transform="matrix(0.1,0,0,-0.1,-0.876,90.802)"/>
<path style=" stroke:none;fill-rule:nonzero;fill:rgb(100%,100%,100%);fill-opacity:1;" d="M 207.273438 47.859375 C 207.273438 47.105469 206.972656 46.386719 206.441406 45.855469 C 205.910156 45.320313 205.191406 45.023438 204.4375 45.023438 C 203.6875 45.023438 202.964844 45.320313 202.433594 45.855469 C 201.902344 46.386719 201.601563 47.105469 201.601563 47.859375 C 201.601563 48.609375 201.902344 49.332031 202.433594 49.863281 C 202.964844 50.394531 203.6875 50.691406 204.4375 50.691406 C 205.191406 50.691406 205.910156 50.394531 206.441406 49.863281 C 206.972656 49.332031 207.273438 48.609375 207.273438 47.859375 "/>
<path style="fill:none;stroke-width:5;stroke-linecap:round;stroke-linejoin:round;stroke:rgb(0%,0%,0%);stroke-opacity:1;stroke-miterlimit:10;" d="M 2081.494375 429.42625 C 2081.494375 436.965312 2078.486563 444.152812 2073.174063 449.465312 C 2067.861563 454.816875 2060.674063 457.785625 2053.135 457.785625 C 2045.635 457.785625 2038.408438 454.816875 2033.095938 449.465312 C 2027.783438 444.152812 2024.775625 436.965312 2024.775625 429.42625 C 2024.775625 421.92625 2027.783438 414.699687 2033.095938 409.387187 C 2038.408438 404.074687 2045.635 401.105937 2053.135 401.105937 C 2060.674063 401.105937 2067.861563 404.074687 2073.174063 409.387187 C 2078.486563 414.699687 2081.494375 421.92625 2081.494375 429.42625 Z M 2081.494375 429.42625 " transform="matrix(0.1,0,0,-0.1,-0.876,90.802)"/>
<path style="fill:none;stroke-width:5;stroke-linecap:round;stroke-linejoin:round;stroke:rgb(0%,0%,0%);stroke-opacity:1;stroke-dasharray:33.0002,33.0002;stroke-miterlimit:10;" d="M 26.377188 640.67625 C 37.470938 643.684062 48.720938 646.30125 60.049063 648.48875 C 86.299063 653.527812 113.017813 656.223125 139.775625 656.223125 C 166.533438 656.223125 193.213125 653.527812 219.502188 648.48875 C 246.650625 643.254375 273.29125 635.480937 299.189688 625.8325 C 326.5725 615.637187 353.095938 603.371562 378.91625 589.777812 C 406.220938 575.402812 432.744375 559.5825 458.642813 542.824687 C 485.752188 525.324687 512.158437 506.887187 538.369375 488.137187 C 565.205312 468.918437 591.767812 449.348125 618.095937 429.42625 L 618.095937 429.42625 C 644.424062 409.543437 670.986562 389.973125 697.8225 370.754375 C 724.033437 351.965312 750.47875 333.527812 777.549062 316.066875 C 803.486562 299.309062 829.970937 283.449687 857.275625 269.074687 C 883.095937 255.480937 909.658437 243.215312 937.002187 233.059062 C 962.939687 223.410625 989.54125 215.637187 1016.72875 210.402812 C 1043.017813 205.324687 1069.6975 202.668437 1096.455313 202.668437 C 1123.213125 202.668437 1149.892813 205.324687 1176.181875 210.402812 C 1203.369375 215.637187 1229.970938 223.410625 1255.908438 233.059062 C 1283.252188 243.215312 1309.775625 255.480937 1335.635 269.074687 C 1362.939688 283.449687 1389.424063 299.309062 1415.361563 316.066875 C 1442.431875 333.527812 1468.877188 351.965312 1495.088125 370.754375 C 1521.885 389.973125 1548.486563 409.543437 1574.814688 429.42625 L 1574.814688 429.42625 C 1601.10375 449.348125 1627.705313 468.918437 1654.502188 488.137187 C 1680.713125 506.887187 1707.158438 525.324687 1734.22875 542.824687 C 1760.16625 559.5825 1786.650625 575.402812 1813.955313 589.777812 C 1839.814688 603.371562 1866.338125 615.637187 1893.681875 625.8325 C 1919.619375 635.480937 1946.220938 643.254375 1973.408438 648.48875 C 1999.6975 653.527812 2026.377188 656.223125 2053.135 656.223125 C 2079.892813 656.223125 2106.5725 653.527812 2132.861563 648.48875 C 2160.049063 643.254375 2186.650625 635.480937 2212.588125 625.8325 C 2239.931875 615.637187 2266.494375 603.371562 2292.314688 589.777812 L 2294.0725 588.840312 " transform="matrix(0.1,0,0,-0.1,-0.876,90.802)"/>
</g>
</g>
<g clip-path="url(#clip3)" clip-rule="nonzero">
<g style="fill:rgb(0%,0%,0%);fill-opacity:1;">
  <use xlink:href="#glyph0-1" x="223.575" y="54.127"/>
</g>
<g style="fill:rgb(0%,0%,0%);fill-opacity:1;">
  <use xlink:href="#glyph1-1" x="4.226" y="6.331"/>
  <use xlink:href="#glyph1-2" x="9.206688" y="6.331"/>
</g>
<g style="fill:rgb(0%,0%,0%);fill-opacity:1;">
  <use xlink:href="#glyph0-2" x="15.112" y="6.331"/>
</g>
<g style="fill:rgb(0%,0%,0%);fill-opacity:1;">
  <use xlink:href="#glyph2-1" x="19.952" y="7.203"/>
</g>
<g style="fill:rgb(0%,0%,0%);fill-opacity:1;">
  <use xlink:href="#glyph0-1" x="129.262" y="42.592"/>
</g>
<g style="fill:rgb(0%,0%,0%);fill-opacity:1;">
  <use xlink:href="#glyph2-1" x="132.657" y="43.463"/>
</g>
</g>
</g>
</svg>
