<?xml version="1.0" encoding="UTF-8"?>
<svg xmlns="http://www.w3.org/2000/svg" xmlns:xlink="http://www.w3.org/1999/xlink" width="281pt" height="343pt" viewBox="0 0 203 247" version="1.1">
<defs>
<g>
<symbol overflow="visible" id="glyph0-0">
<path style="stroke:none;" d=""/>
</symbol>
<symbol overflow="visible" id="glyph0-1">
<path style="stroke:none;" d="M 0.75 -4.84375 L 0.75 0 L 1.234375 0 L 1.234375 -4.40625 L 1.234375 -4.40625 L 1.4375 -4.0625 L 3.015625 -1.3125 C 3.265625 -0.875 3.5 -0.4375 3.75 -0.015625 C 3.96875 0.03125 4.25 -0.015625 4.484375 0 L 4.484375 -4.84375 L 4 -4.84375 L 4 -0.421875 L 2.1875 -3.59375 C 1.953125 -4 1.734375 -4.4375 1.484375 -4.828125 C 1.28125 -4.859375 0.984375 -4.828125 0.75 -4.84375 Z M 0.75 -4.84375 "/>
</symbol>
<symbol overflow="visible" id="glyph0-2">
<path style="stroke:none;" d="M 0.4375 -0.90625 C 0.421875 -0.84375 0.328125 -0.40625 0.34375 -0.375 C 0.359375 -0.359375 0.390625 -0.34375 0.40625 -0.328125 L 0.578125 -0.25 C 1.234375 0.09375 2.359375 0.296875 3.109375 -0.125 C 3.5 -0.328125 3.875 -0.765625 3.875 -1.296875 C 3.875 -2.015625 3.296875 -2.453125 2.796875 -2.625 C 2.65625 -2.671875 2.140625 -2.78125 2.046875 -2.796875 C 1.6875 -2.875 1.296875 -2.96875 1.046875 -3.265625 C 1.015625 -3.3125 0.984375 -3.359375 0.96875 -3.421875 C 0.765625 -3.875 1.125 -4.265625 1.546875 -4.421875 C 2 -4.59375 2.578125 -4.546875 2.984375 -4.375 C 3.09375 -4.328125 3.21875 -4.265625 3.3125 -4.1875 C 3.375 -4.15625 3.4375 -4.109375 3.5 -4.0625 C 3.53125 -4.1875 3.546875 -4.328125 3.5625 -4.453125 C 3.578125 -4.546875 3.625 -4.609375 3.515625 -4.640625 L 3.34375 -4.71875 C 2.578125 -5.03125 1.546875 -5.078125 0.890625 -4.515625 C 0.796875 -4.453125 0.71875 -4.359375 0.640625 -4.265625 C 0.4375 -3.984375 0.34375 -3.546875 0.546875 -3.15625 C 0.71875 -2.8125 1.015625 -2.578125 1.390625 -2.4375 C 1.546875 -2.390625 1.6875 -2.359375 1.84375 -2.328125 C 2 -2.28125 2.5625 -2.171875 2.65625 -2.125 C 2.921875 -2.03125 3.1875 -1.859375 3.3125 -1.59375 C 3.375 -1.484375 3.390625 -1.375 3.390625 -1.203125 C 3.34375 -0.78125 2.96875 -0.5 2.59375 -0.390625 C 1.984375 -0.21875 1.296875 -0.40625 0.84375 -0.640625 C 0.703125 -0.71875 0.578125 -0.828125 0.4375 -0.90625 Z M 0.4375 -0.90625 "/>
</symbol>
<symbol overflow="visible" id="glyph1-0">
<path style="stroke:none;" d=""/>
</symbol>
<symbol overflow="visible" id="glyph1-1">
<path style="stroke:none;" d="M 0.796875 -3.296875 L 1.1875 0 C 1.5 -0.015625 1.875 0.015625 2.15625 -0.015625 L 2.203125 -0.078125 L 3.9375 -3.296875 C 3.71875 -3.28125 3.4375 -3.3125 3.25 -3.28125 L 3.203125 -3.21875 L 2.1875 -1.34375 C 2.0625 -1.125 1.9375 -0.90625 1.828125 -0.6875 L 1.609375 -2.59375 C 1.5625 -2.828125 1.5625 -3.078125 1.515625 -3.28125 L 1.453125 -3.296875 L 0.796875 -3.296875 Z M 0.796875 -3.296875 "/>
</symbol>
</g>
<clipPath id="clip1">
  <path d="M -203 665 L 409 665 L 409 -127 L -203 -127 L -203 665 Z M -203 665 "/>
</clipPath>
<clipPath id="clip2">
  <path d="M 0.578125 249.078125 L 204.671875 249.078125 L 204.671875 -2.199219 L 0.578125 -2.199219 L 0.578125 249.078125 Z M 0.578125 249.078125 "/>
</clipPath>
<clipPath id="clip3">
  <path d="M -203 665 L 409 665 L 409 -127 L -203 -127 L -203 665 Z M -203 665 "/>
</clipPath>
</defs>
<g id="surface0">
<g clip-path="url(#clip1)" clip-rule="nonzero">
<g clip-path="url(#clip2)" clip-rule="nonzero">
<path style="fill:none;stroke-width:7.5;stroke-linecap:butt;stroke-linejoin:round;stroke:rgb(0%,0%,0%);stroke-opacity:1;stroke-miterlimit:4;" d="M 984.972414 1957.837639 L 224.962396 1832.812805 L 99.973161 2002.835187 " transform="matrix(0.109728,0,0,-0.109728,0.577,249.08)"/>
<path style="fill:none;stroke-width:7.5;stroke-linecap:butt;stroke-linejoin:round;stroke:rgb(0%,0%,0%);stroke-opacity:1;stroke-miterlimit:4;" d="M 1829.993623 927.84233 L 1639.964419 1175.328847 L 809.966125 1047.847659 L 802.490267 327.815685 L 1052.468736 32.839667 " transform="matrix(0.109728,0,0,-0.109728,0.577,249.08)"/>
<path style="fill:none;stroke-width:7.5;stroke-linecap:butt;stroke-linejoin:round;stroke:rgb(0%,0%,0%);stroke-opacity:1;stroke-miterlimit:4;" d="M 1024.950457 765.367005 C 1024.950457 765.367005 994.975824 742.832631 1037.48142 687.831672 C 1049.691989 672.025571 1058.271427 653.442723 1047.306834 634.681878 C 1034.348679 612.503497 1017.296602 613.749474 1017.866191 583.739242 C 1018.257784 562.949235 1027.513609 548.460309 1038.01541 531.51503 C 1071.051585 478.11604 1078.207049 452.413327 1041.646541 399.975519 C 1020.998932 370.35688 1038.798595 337.534301 1059.980194 312.828368 C 1059.980194 312.828368 1064.9641 210.337908 1057.488241 182.819628 C 1049.976784 155.336948 1040.008972 45.513027 1052.433137 37.859172 C 1107.896887 3.755017 1143.852207 57.154006 1195.649227 65.911441 C 1223.345503 70.610552 1243.921913 62.102313 1271.689388 75.416461 C 1299.741657 88.908606 1321.492846 112.43976 1348.477135 127.640673 C 1358.516145 133.300965 1390.413141 136.825299 1402.160919 134.902935 C 1417.43303 132.410982 1422.666131 119.381629 1440.216599 121.339592 C 1459.511434 123.511151 1465.598919 142.877184 1480.799831 150.602238 C 1503.690198 162.207618 1527.577346 150.139447 1547.584167 165.162363 C 1562.713881 176.554147 1556.021207 184.991187 1580.335547 186.521958 C 1606.999443 188.159527 1659.223654 161.922824 1679.978062 187.839133 C 1717.321755 235.649029 1790.371573 220.020924 1819.06463 274.345496 C 1837.327084 308.912442 1836.5083 346.57653 1825.223313 381.891061 C 1812.549953 421.655509 1804.967296 450.740158 1814.935108 491.643784 C 1822.73136 523.540781 1833.019566 562.379646 1814.970707 592.81707 C 1774.992664 660.348992 1799.983391 712.822399 1799.983391 712.822399 C 1844.980939 770.315311 1829.993623 795.341637 1829.993623 795.341637 C 1829.993623 795.341637 1812.478754 850.342597 1824.974118 867.821866 C 1837.469481 885.336734 1834.336741 947.350761 1824.33333 922.360034 C 1823.087354 919.227293 1820.239407 916.877737 1817.569458 914.955374 C 1809.02562 908.761091 1798.737414 904.809566 1788.912 901.178435 C 1775.597852 896.230128 1761.96331 892.171805 1748.25757 888.362677 C 1734.302634 884.51795 1720.276499 881.029216 1706.143567 877.754078 C 1695.214573 875.190926 1684.214382 872.770172 1673.21419 870.491815 C 1669.796654 869.779829 1666.129924 869.388236 1662.819186 868.320256 C 1657.657284 866.647088 1651.463001 867.643869 1646.016304 867.750667 C 1639.572826 867.857465 1633.129348 867.964263 1626.72147 867.750667 C 1609.882988 867.287876 1593.008907 866.077499 1576.384022 863.229553 C 1566.736605 861.520785 1557.053588 859.313627 1547.94016 855.611297 C 1543.525844 853.795731 1539.004729 851.624172 1535.337999 848.455832 C 1534.305618 847.601448 1533.095241 846.569068 1532.490053 845.323092 C 1532.454453 845.287492 1509.92008 800.325543 1404.973266 812.820907 C 1299.990852 825.31627 1279.984031 802.817496 1264.996715 777.826769 C 1249.973799 752.836042 1184.969429 722.82581 1132.496022 750.344089 C 1079.987016 777.826769 1024.986056 765.331405 1024.986056 765.331405 L 809.966125 1047.847659 " transform="matrix(0.109728,0,0,-0.109728,0.577,249.08)"/>
<path style="fill:none;stroke-width:7.5;stroke-linecap:butt;stroke-linejoin:round;stroke:rgb(0%,0%,0%);stroke-opacity:1;stroke-miterlimit:4;" d="M 974.969003 1995.323729 L 744.961756 2225.330977 C 728.301271 2219.492687 733.285176 2218.958697 725.666921 2214.57998 C 716.945086 2209.524876 710.857601 2200.447048 704.592119 2192.828792 C 691.135574 2176.488701 677.714628 2158.368644 661.374537 2144.556105 C 643.396877 2129.426392 623.674851 2113.086301 600.357292 2112.837106 C 572.376221 2112.552311 544.644346 2117.500617 516.734474 2115.79185 C 496.478458 2114.545873 479.99597 2109.846762 467.749801 2095.820628 C 456.108822 2082.542079 448.526165 2067.661561 435.176418 2055.842584 C 417.163159 2039.858487 391.70964 2041.068864 368.392082 2044.4508 C 359.955041 2045.696776 347.85127 2046.408763 339.94822 2049.114312 C 332.685957 2051.606264 328.236041 2058.904126 320.297392 2059.722911 C 297.442624 2091.157116 250.807507 2056.768167 223.965615 2051.81986 C 208.764702 2049.007514 193.670588 2049.861897 179.608854 2041.602854 C 168.074672 2034.874581 160.598814 2022.486015 149.634221 2016.113736 C 135.323292 2007.783494 114.177292 2017.46651 101.575131 2008.424282 C 88.90177 1999.310854 91.322525 1972.077369 91.642919 1957.624043 C 92.568501 1915.367643 115.921659 1859.049508 83.277077 1823.485781 C 70.532518 1809.602044 61.881882 1807.71528 59.88832 1787.459263 C 57.894757 1767.167647 67.114983 1754.636684 70.105326 1736.018236 C 73.843255 1712.665078 71.030909 1684.968802 69.962929 1661.188452 C 69.037346 1640.006853 59.639124 1632.352998 51.380081 1616.440099 C 25.321374 1608.074258 26.638549 1583.937914 26.638549 1560.90515 C 26.638549 1531.962898 27.350535 1505.121006 18.343906 1479.097898 C 13.929589 1466.31774 3.748182 1453.751178 6.524929 1438.265471 C 8.660889 1426.304097 15.49596 1417.368666 16.635138 1404.48171 C 17.738717 1392.235542 13.644795 1377.675418 17.952313 1365.92764 C 25.890963 1344.354448 52.234464 1331.503091 39.881498 1304.874795 C 20.123872 1262.262402 41.412269 1244.35594 67.470976 1213.669321 C 87.904989 1189.604177 108.303403 1165.539032 128.737417 1141.473887 C 156.647288 1108.615709 184.55716 1075.721932 212.467032 1042.828154 L 224.962396 1832.812805 " transform="matrix(0.109728,0,0,-0.109728,0.577,249.08)"/>
<path style="fill:none;stroke-width:7.5;stroke-linecap:butt;stroke-linejoin:round;stroke:rgb(0%,0%,0%);stroke-opacity:1;stroke-miterlimit:4;" d="M 212.467032 1042.828154 L 773.868408 1124.920201 " transform="matrix(0.109728,0,0,-0.109728,0.577,249.08)"/>
<path style="fill:none;stroke-width:7.5;stroke-linecap:butt;stroke-linejoin:round;stroke:rgb(0%,0%,0%);stroke-opacity:1;stroke-miterlimit:4;" d="M 978.350939 2260.57431 L 1035.452258 1910.953326 C 1035.452258 1910.953326 1034.348679 1895.96601 1019.966551 1893.474057 C 995.474215 1889.202138 992.55507 1904.652245 992.55507 1904.652245 L 935.560549 2253.596842 C 935.560549 2253.596842 948.732299 2258.47395 954.962182 2247.224563 C 961.227663 2235.975175 981.697276 2247.687354 978.350939 2260.57431 Z M 978.350939 2260.57431 " transform="matrix(0.109728,0,0,-0.109728,0.577,249.08)"/>
<path style="fill:none;stroke-width:7.5;stroke-linecap:butt;stroke-linejoin:round;stroke:rgb(0%,0%,0%);stroke-opacity:1;stroke-miterlimit:4;" d="M 667.497621 1835.981145 L 695.834685 1819.32066 " transform="matrix(0.109728,0,0,-0.109728,0.577,249.08)"/>
<path style="fill:none;stroke-width:7.5;stroke-linecap:butt;stroke-linejoin:round;stroke:rgb(0%,0%,0%);stroke-opacity:1;stroke-miterlimit:4;" d="M 887.465859 1174.901655 L 916.372512 1154.00485 " transform="matrix(0.109728,0,0,-0.109728,0.577,249.08)"/>
<path style="fill:none;stroke-width:7.5;stroke-linecap:butt;stroke-linejoin:round;stroke:rgb(0%,0%,0%);stroke-opacity:1;stroke-miterlimit:4;" d="M 1039.510582 1205.944267 L 1071.265181 1184.727069 " transform="matrix(0.109728,0,0,-0.109728,0.577,249.08)"/>
<path style="fill:none;stroke-width:7.5;stroke-linecap:butt;stroke-linejoin:round;stroke:rgb(0%,0%,0%);stroke-opacity:1;stroke-miterlimit:4;" d="M 1168.380143 1231.931776 L 1200.312739 1211.212968 " transform="matrix(0.109728,0,0,-0.109728,0.577,249.08)"/>
<path style="fill:none;stroke-width:7.5;stroke-linecap:butt;stroke-linejoin:round;stroke:rgb(0%,0%,0%);stroke-opacity:1;stroke-miterlimit:4;" d="M 1302.162411 1258.916065 L 1333.91701 1238.446452 " transform="matrix(0.109728,0,0,-0.109728,0.577,249.08)"/>
<path style="fill:none;stroke-width:7.5;stroke-linecap:butt;stroke-linejoin:round;stroke:rgb(0%,0%,0%);stroke-opacity:1;stroke-miterlimit:4;" d="M 991.451491 1901.946696 L 667.497621 1835.981145 L 745.78054 1143.752244 L 745.816139 1143.681046 L 774.437998 1125.026999 " transform="matrix(0.109728,0,0,-0.109728,0.577,249.08)"/>
<path style="fill:none;stroke-width:7.5;stroke-linecap:butt;stroke-linejoin:round;stroke:rgb(0%,0%,0%);stroke-opacity:1;stroke-miterlimit:4;" d="M 1331.496256 1238.517651 L 1459.511434 1264.825553 L 1459.974225 1264.505159 L 1383.293276 1959.510807 " transform="matrix(0.109728,0,0,-0.109728,0.577,249.08)"/>
<path style="fill:none;stroke-width:7.5;stroke-linecap:butt;stroke-linejoin:round;stroke:rgb(0%,0%,0%);stroke-opacity:1;stroke-miterlimit:4;" d="M 1197.464793 1211.212968 L 1304.761162 1233.070954 L 1304.939159 1233.142153 L 1238.404018 1817.683091 L 1264.462725 1820.673434 L 1330.713071 1238.126058 " transform="matrix(0.109728,0,0,-0.109728,0.577,249.08)"/>
<path style="fill:none;stroke-width:7.5;stroke-linecap:butt;stroke-linejoin:round;stroke:rgb(0%,0%,0%);stroke-opacity:1;stroke-miterlimit:4;" d="M 1068.381635 1184.940665 L 1171.69088 1205.979867 L 1171.334887 1206.264661 L 1104.799746 1790.8056 L 1130.858453 1793.795943 L 1197.144399 1211.284166 " transform="matrix(0.109728,0,0,-0.109728,0.577,249.08)"/>
<path style="fill:none;stroke-width:7.5;stroke-linecap:butt;stroke-linejoin:round;stroke:rgb(0%,0%,0%);stroke-opacity:1;stroke-miterlimit:4;" d="M 914.200953 1153.542059 L 1042.180531 1179.992358 L 1042.429726 1179.778762 L 975.894585 1764.3553 L 1001.953292 1767.310044 L 1068.203639 1184.762668 " transform="matrix(0.109728,0,0,-0.109728,0.577,249.08)"/>
<path style="fill:none;stroke-width:7.5;stroke-linecap:butt;stroke-linejoin:round;stroke:rgb(0%,0%,0%);stroke-opacity:1;stroke-miterlimit:4;" d="M 1036.662635 1911.166922 L 1353.817034 1975.7441 L 1354.208626 1975.957696 L 1382.154098 1959.083615 L 695.834685 1819.32066 L 774.402398 1125.062598 L 889.993411 1148.593753 L 890.456202 1148.914147 L 823.885462 1733.455085 L 849.944169 1736.445428 L 916.230115 1153.933652 " transform="matrix(0.109728,0,0,-0.109728,0.577,249.08)"/>
<path style="fill:none;stroke-width:7.5;stroke-linecap:butt;stroke-linejoin:round;stroke:rgb(0%,0%,0%);stroke-opacity:1;stroke-miterlimit:4;" d="M 956.848946 2247.829751 C 956.848946 2247.829751 961.726054 2275.205633 978.350939 2260.57431 " transform="matrix(0.109728,0,0,-0.109728,0.577,249.08)"/>
<path style="fill:none;stroke-width:5;stroke-linecap:butt;stroke-linejoin:round;stroke:rgb(0%,0%,0%);stroke-opacity:1;stroke-miterlimit:4;" d="M 1276.246102 1987.812272 L 1187.496981 1970.333002 " transform="matrix(0.109728,0,0,-0.109728,0.577,249.08)"/>
<path style=" stroke:none;fill-rule:nonzero;fill:rgb(0%,0%,0%);fill-opacity:1;" d="M 131.636719 31.125 L 126.113281 33.839844 L 132.253906 34.25 L 131.636719 31.125 "/>
</g>
</g>
<g clip-path="url(#clip3)" clip-rule="nonzero">
<g style="fill:rgb(0%,0%,0%);fill-opacity:1;">
  <use xlink:href="#glyph0-1" x="132.17" y="134.017"/>
</g>
<g style="fill:rgb(0%,0%,0%);fill-opacity:1;">
  <use xlink:href="#glyph0-2" x="68.579" y="38.749"/>
</g>
<g style="fill:rgb(0%,0%,0%);fill-opacity:1;">
  <use xlink:href="#glyph1-1" x="134.138" y="30.245"/>
</g>
</g>
</g>
</svg>
