<?xml version="1.0" encoding="UTF-8"?>
<svg xmlns="http://www.w3.org/2000/svg" xmlns:xlink="http://www.w3.org/1999/xlink" width="234pt" height="98pt" viewBox="0 0 169 71" version="1.1">
<defs>
<g>
<symbol overflow="visible" id="glyph0-0">
<path style="stroke:none;" d=""/>
</symbol>
<symbol overflow="visible" id="glyph0-1">
<path style="stroke:none;" d="M 0.109375 -4.84375 C 0.140625 -4.703125 1.609375 -0.25 1.609375 -0.25 C 1.609375 -0.203125 1.671875 0.015625 1.703125 0.03125 C 1.734375 0.0625 1.796875 0.046875 1.828125 0.046875 L 2.046875 0.046875 C 2.078125 0.046875 2.125 0.0625 2.15625 0.046875 C 2.1875 0.046875 2.203125 0 2.21875 -0.015625 C 2.234375 -0.078125 2.515625 -0.984375 2.515625 -0.984375 L 3.203125 -3.109375 C 3.296875 -3.390625 3.515625 -4.0625 3.5625 -4.328125 L 3.578125 -4.328125 C 3.671875 -3.890625 3.8125 -3.53125 3.921875 -3.125 C 4.265625 -2.0625 4.59375 -1 4.953125 0.03125 C 5.09375 0.0625 5.296875 0.046875 5.453125 0.046875 L 5.484375 -0.03125 L 6.625 -3.515625 L 7.046875 -4.84375 C 6.90625 -4.84375 6.734375 -4.84375 6.59375 -4.828125 L 6.5625 -4.75 C 6.109375 -3.328125 5.625 -1.953125 5.21875 -0.515625 L 5.203125 -0.515625 C 5.1875 -0.640625 5.140625 -0.765625 5.09375 -0.890625 L 4.890625 -1.5625 C 4.8125 -1.8125 3.875 -4.78125 3.828125 -4.8125 C 3.8125 -4.84375 3.734375 -4.84375 3.703125 -4.84375 L 3.34375 -4.84375 L 2.390625 -1.875 C 2.25 -1.421875 2.078125 -0.984375 1.984375 -0.515625 C 1.671875 -1.609375 1.3125 -2.640625 0.96875 -3.703125 C 0.84375 -4.0625 0.75 -4.484375 0.59375 -4.828125 C 0.453125 -4.84375 0.28125 -4.84375 0.109375 -4.84375 Z M 0.109375 -4.84375 "/>
</symbol>
<symbol overflow="visible" id="glyph0-2">
<path style="stroke:none;" d="M 0.734375 -4.84375 L 0.734375 0 L 1.265625 0 L 1.265625 -4.84375 L 0.734375 -4.84375 Z M 0.734375 -4.84375 "/>
</symbol>
<symbol overflow="visible" id="glyph0-3">
<path style="stroke:none;" d="M 0.734375 -4.84375 L 0.734375 0 L 1.25 0 L 1.25 -2.21875 L 2.28125 -2.21875 C 2.421875 -2.21875 2.546875 -2.234375 2.65625 -2.203125 C 2.78125 -2.03125 2.90625 -1.859375 3.03125 -1.671875 C 3.421875 -1.125 3.8125 -0.5625 4.21875 -0.015625 C 4.390625 0 4.578125 0 4.75 0 L 4.46875 -0.390625 L 3.125 -2.28125 C 3.25 -2.296875 3.390625 -2.328125 3.515625 -2.390625 C 4.015625 -2.5625 4.578125 -2.96875 4.53125 -3.5625 C 4.515625 -3.796875 4.453125 -3.9375 4.328125 -4.109375 C 4.015625 -4.515625 3.484375 -4.765625 2.875 -4.828125 C 2.625 -4.84375 2.390625 -4.84375 2.125 -4.84375 L 0.734375 -4.84375 Z M 1.25 -2.609375 L 1.25 -4.421875 L 2.296875 -4.421875 C 2.640625 -4.421875 3 -4.421875 3.34375 -4.328125 C 3.671875 -4.203125 4 -3.96875 4.046875 -3.59375 C 4.0625 -3.359375 3.96875 -3.140625 3.8125 -2.984375 C 3.6875 -2.875 3.546875 -2.796875 3.390625 -2.734375 C 3.046875 -2.609375 2.6875 -2.609375 2.328125 -2.609375 L 1.25 -2.609375 Z M 1.25 -2.609375 "/>
</symbol>
<symbol overflow="visible" id="glyph0-4">
<path style="stroke:none;" d="M 0.734375 -4.828125 L 0.734375 0 L 4.328125 0 L 4.328125 -0.4375 L 1.265625 -0.4375 L 1.265625 -2.296875 L 4 -2.296875 L 4 -2.703125 L 1.265625 -2.703125 L 1.265625 -4.40625 L 4.203125 -4.40625 L 4.203125 -4.828125 L 0.734375 -4.828125 Z M 0.734375 -4.828125 "/>
</symbol>
<symbol overflow="visible" id="glyph0-5">
<path style="stroke:none;" d="M 0.78125 -4.21875 L 0.78125 -3.828125 C 1.125 -3.828125 1.46875 -3.890625 1.78125 -4.03125 L 1.78125 -0.390625 L 0.8125 -0.390625 L 0.8125 0 L 3.25 0 L 3.25 -0.390625 L 2.28125 -0.390625 L 2.28125 -4.6875 C 2.25 -4.6875 2.1875 -4.6875 2.15625 -4.671875 C 2.109375 -4.65625 2.0625 -4.59375 2.015625 -4.5625 C 1.734375 -4.328125 1.21875 -4.21875 0.78125 -4.21875 Z M 0.78125 -4.21875 "/>
</symbol>
<symbol overflow="visible" id="glyph0-6">
<path style="stroke:none;" d="M 0.625 -3.203125 C 0.734375 -3.609375 0.90625 -4.046875 1.34375 -4.203125 C 1.5 -4.265625 1.671875 -4.28125 1.859375 -4.265625 C 2.21875 -4.234375 2.578125 -4.09375 2.796875 -3.78125 C 2.9375 -3.578125 2.984375 -3.328125 2.953125 -3.078125 C 2.875 -2.40625 2.28125 -1.984375 1.796875 -1.609375 C 1.40625 -1.3125 0.59375 -0.59375 0.59375 -0.59375 L 0.453125 -0.484375 C 0.390625 -0.40625 0.390625 -0.421875 0.390625 -0.265625 L 0.390625 0 L 3.484375 0 L 3.484375 -0.4375 L 0.84375 -0.4375 C 1.109375 -0.671875 1.90625 -1.34375 2.140625 -1.515625 C 2.578125 -1.84375 3.0625 -2.15625 3.34375 -2.640625 C 3.640625 -3.203125 3.453125 -3.921875 2.96875 -4.3125 C 2.4375 -4.765625 1.46875 -4.828125 0.875 -4.390625 C 0.65625 -4.234375 0.5 -3.984375 0.390625 -3.734375 C 0.375 -3.671875 0.328125 -3.609375 0.328125 -3.546875 C 0.34375 -3.515625 0.390625 -3.484375 0.40625 -3.4375 C 0.46875 -3.359375 0.546875 -3.265625 0.625 -3.203125 Z M 0.625 -3.203125 "/>
</symbol>
<symbol overflow="visible" id="glyph0-7">
<path style="stroke:none;" d="M 2.71875 -2 L 0.6875 -2 C 0.640625 -2 0.578125 -2 0.53125 -2 C 0.453125 -1.96875 0.40625 -1.90625 0.40625 -1.84375 C 0.40625 -1.765625 0.453125 -1.703125 0.53125 -1.6875 C 0.578125 -1.671875 0.640625 -1.671875 0.6875 -1.671875 L 2.71875 -1.671875 L 2.71875 0.359375 C 2.71875 0.40625 2.703125 0.453125 2.71875 0.515625 C 2.75 0.578125 2.8125 0.625 2.875 0.625 C 2.953125 0.625 3.015625 0.578125 3.03125 0.515625 C 3.046875 0.453125 3.03125 0.40625 3.03125 0.359375 L 3.03125 -1.671875 L 5.078125 -1.671875 C 5.125 -1.671875 5.171875 -1.671875 5.21875 -1.6875 C 5.296875 -1.703125 5.34375 -1.765625 5.34375 -1.84375 C 5.34375 -1.90625 5.296875 -1.96875 5.21875 -2 C 5.171875 -2 5.125 -2 5.078125 -2 L 3.03125 -2 L 3.03125 -4.03125 C 3.03125 -4.078125 3.046875 -4.140625 3.03125 -4.1875 C 3.015625 -4.265625 2.953125 -4.3125 2.875 -4.3125 C 2.8125 -4.3125 2.75 -4.265625 2.71875 -4.1875 C 2.703125 -4.140625 2.71875 -4.078125 2.71875 -4.03125 L 2.71875 -2 Z M 2.71875 -2 "/>
</symbol>
<symbol overflow="visible" id="glyph0-8">
<path style="stroke:none;" d="M 0.328125 0 L 4.84375 0 C 4.828125 -0.0625 4.796875 -0.109375 4.78125 -0.15625 L 2.984375 -4.609375 L 2.90625 -4.8125 C 2.890625 -4.84375 2.890625 -4.875 2.859375 -4.890625 C 2.828125 -4.921875 2.75 -4.90625 2.71875 -4.90625 L 2.453125 -4.90625 C 2.421875 -4.90625 2.375 -4.90625 2.328125 -4.90625 C 2.296875 -4.90625 2.28125 -4.859375 2.265625 -4.828125 C 1.859375 -3.8125 0.34375 -0.09375 0.328125 0 Z M 2.5625 -4.328125 L 2.6875 -3.96875 L 3.6875 -1.453125 C 3.8125 -1.140625 3.9375 -0.828125 4.0625 -0.5 L 1.03125 -0.5 C 1.46875 -1.640625 1.9375 -2.75 2.390625 -3.890625 C 2.453125 -4.03125 2.5 -4.1875 2.5625 -4.328125 Z M 2.5625 -4.328125 "/>
</symbol>
<symbol overflow="visible" id="glyph0-9">
<path style="stroke:none;" d="M 2.578125 1.546875 C 2.546875 1.5 2.5 1.46875 2.453125 1.4375 C 1.6875 0.75 1.21875 -0.3125 1.171875 -1.59375 C 1.140625 -2.46875 1.296875 -3.375 1.703125 -4.15625 C 1.90625 -4.53125 2.140625 -4.84375 2.453125 -5.109375 C 2.5 -5.15625 2.546875 -5.1875 2.578125 -5.21875 L 2.328125 -5.21875 C 2.171875 -5.21875 2.1875 -5.21875 2.078125 -5.140625 C 1.71875 -4.859375 1.421875 -4.484375 1.1875 -4.0625 C 0.53125 -2.828125 0.484375 -1.15625 1.09375 0.1875 C 1.3125 0.6875 1.65625 1.109375 2.078125 1.46875 C 2.171875 1.53125 2.171875 1.546875 2.328125 1.546875 L 2.578125 1.546875 Z M 2.578125 1.546875 "/>
</symbol>
<symbol overflow="visible" id="glyph0-10">
<path style="stroke:none;" d="M 0.4375 -5.21875 C 0.46875 -5.1875 0.515625 -5.15625 0.5625 -5.109375 C 1.421875 -4.34375 1.890625 -3.109375 1.828125 -1.59375 C 1.8125 -0.84375 1.625 -0.09375 1.265625 0.5625 C 1.078125 0.890625 0.84375 1.1875 0.5625 1.4375 C 0.515625 1.46875 0.46875 1.5 0.4375 1.546875 L 0.6875 1.546875 C 0.84375 1.546875 0.828125 1.546875 0.921875 1.46875 C 1.296875 1.171875 1.59375 0.796875 1.8125 0.390625 C 2.484375 -0.859375 2.53125 -2.515625 1.921875 -3.859375 C 1.6875 -4.375 1.359375 -4.796875 0.9375 -5.140625 C 0.84375 -5.21875 0.84375 -5.21875 0.6875 -5.21875 L 0.4375 -5.21875 Z M 0.4375 -5.21875 "/>
</symbol>
<symbol overflow="visible" id="glyph1-0">
<path style="stroke:none;" d=""/>
</symbol>
<symbol overflow="visible" id="glyph1-1">
<path style="stroke:none;" d="M 0.75 -3.296875 C 0.828125 -3.140625 0.921875 -3.015625 1.015625 -2.875 C 1.078125 -2.796875 1.6875 -1.875 1.71875 -1.84375 C 1.734375 -1.8125 1.796875 -1.75 1.796875 -1.703125 C 1.796875 -1.65625 1.71875 -1.609375 1.6875 -1.578125 C 1.375 -1.296875 0.046875 -0.046875 0 0 C 0.1875 0 0.375 0 0.53125 0 L 0.6875 -0.140625 L 1.984375 -1.4375 C 2.265625 -0.953125 2.53125 -0.46875 2.84375 -0.015625 C 3.015625 0 3.203125 0 3.390625 0 C 3.296875 -0.140625 2.359375 -1.53125 2.328125 -1.5625 C 2.3125 -1.609375 2.265625 -1.65625 2.265625 -1.6875 C 2.28125 -1.734375 2.34375 -1.78125 2.375 -1.8125 C 2.484375 -1.921875 2.59375 -2.015625 2.703125 -2.125 C 2.8125 -2.21875 3.921875 -3.25 3.953125 -3.296875 C 3.765625 -3.296875 3.59375 -3.296875 3.421875 -3.28125 C 2.96875 -2.875 2.546875 -2.4375 2.09375 -2.03125 C 1.828125 -2.453125 1.578125 -2.890625 1.28125 -3.28125 C 1.109375 -3.296875 0.921875 -3.296875 0.75 -3.296875 Z M 0.75 -3.296875 "/>
</symbol>
<symbol overflow="visible" id="glyph1-2">
<path style="stroke:none;" d="M 1.765625 -4.84375 L 1.65625 -4.3125 L 0.734375 0 L 1.125 0 C 1.15625 0 1.25 0.015625 1.265625 -0.015625 C 1.296875 -0.0625 1.296875 -0.109375 1.296875 -0.15625 C 1.328125 -0.25 2.28125 -4.78125 2.296875 -4.84375 L 1.765625 -4.84375 Z M 1.765625 -4.84375 "/>
</symbol>
<symbol overflow="visible" id="glyph1-3">
<path style="stroke:none;" d="M 0.4375 -4.84375 L 1.4375 -0.25 C 1.46875 -0.140625 1.46875 -0.03125 1.515625 0.046875 C 1.703125 0.0625 1.90625 0.0625 2.078125 0.03125 L 2.140625 -0.046875 L 5.21875 -4.84375 C 5.046875 -4.84375 4.875 -4.84375 4.703125 -4.828125 L 4.640625 -4.75 L 2.6875 -1.703125 C 2.4375 -1.296875 2.171875 -0.921875 1.9375 -0.515625 L 1.921875 -0.515625 C 1.640625 -1.984375 1.296875 -3.390625 1 -4.84375 L 0.4375 -4.84375 Z M 0.4375 -4.84375 "/>
</symbol>
</g>
<clipPath id="clip1">
  <path d="M -221 668 L 391 668 L 391 -124 L -221 -124 L -221 668 Z M -221 668 "/>
</clipPath>
<clipPath id="clip2">
  <path d="M -0.414063 64.273438 L 169.664063 64.273438 L 169.664063 7.222656 L -0.414063 7.222656 L -0.414063 64.273438 Z M -0.414063 64.273438 "/>
</clipPath>
<clipPath id="clip3">
  <path d="M -221 668 L 391 668 L 391 -124 L -221 -124 L -221 668 Z M -221 668 "/>
</clipPath>
</defs>
<g id="surface0">
<g clip-path="url(#clip1)" clip-rule="nonzero">
<g clip-path="url(#clip2)" clip-rule="nonzero">
<path style="fill:none;stroke-width:5;stroke-linecap:butt;stroke-linejoin:miter;stroke:rgb(13.730068%,12.159915%,12.54902%);stroke-opacity:1;stroke-miterlimit:4;" d="M 23.342105 460.07796 L 1566.503329 460.07796 " transform="matrix(0.107645,0,0,-0.107645,-0.415,64.275)"/>
<path style="fill:none;stroke-width:5;stroke-linecap:butt;stroke-linejoin:miter;stroke:rgb(13.730068%,12.159915%,12.54902%);stroke-opacity:1;stroke-miterlimit:4;" d="M 23.342105 442.986157 L 1566.503329 442.986157 " transform="matrix(0.107645,0,0,-0.107645,-0.415,64.275)"/>
<path style="fill:none;stroke-width:5;stroke-linecap:butt;stroke-linejoin:miter;stroke:rgb(13.730068%,12.159915%,12.54902%);stroke-opacity:1;stroke-miterlimit:4;" d="M 9.988 27.158186 L 1553.149223 27.158186 " transform="matrix(0.107645,0,0,-0.107645,-0.415,64.275)"/>
<path style="fill:none;stroke-width:5;stroke-linecap:butt;stroke-linejoin:miter;stroke:rgb(13.730068%,12.159915%,12.54902%);stroke-opacity:1;stroke-miterlimit:4;" d="M 9.988 9.993806 L 1553.149223 9.993806 " transform="matrix(0.107645,0,0,-0.107645,-0.415,64.275)"/>
<path style="fill:none;stroke-width:5;stroke-linecap:butt;stroke-linejoin:miter;stroke:rgb(13.730068%,12.159915%,12.54902%);stroke-opacity:1;stroke-dasharray:50,20;stroke-miterlimit:4;" d="M 1085.828112 460.07796 L 1085.828112 9.993806 " transform="matrix(0.107645,0,0,-0.107645,-0.415,64.275)"/>
<path style="fill:none;stroke-width:5;stroke-linecap:butt;stroke-linejoin:miter;stroke:rgb(13.730068%,12.159915%,12.54902%);stroke-opacity:1;stroke-dasharray:50,20;stroke-miterlimit:4;" d="M 636.832608 460.07796 L 636.832608 9.993806 " transform="matrix(0.107645,0,0,-0.107645,-0.415,64.275)"/>
<path style="fill:none;stroke-width:5;stroke-linecap:butt;stroke-linejoin:miter;stroke:rgb(13.730068%,12.159915%,12.54902%);stroke-opacity:1;stroke-miterlimit:4;" d="M 1088.295719 440.373397 C 1088.295719 440.373397 1287.663803 303.384952 1108.435742 65.260932 " transform="matrix(0.107645,0,0,-0.107645,-0.415,64.275)"/>
<path style=" stroke:none;fill-rule:nonzero;fill:rgb(13.730068%,12.159915%,12.54902%);fill-opacity:1;" d="M 118.121094 55.542969 L 116.46875 61.351563 L 120.804688 57.148438 L 118.121094 55.542969 "/>
<path style="fill:none;stroke-width:5;stroke-linecap:butt;stroke-linejoin:miter;stroke:rgb(13.730068%,12.159915%,12.54902%);stroke-opacity:1;stroke-miterlimit:4;" d="M 631.534512 442.986157 C 631.534512 442.986157 444.976209 295.038636 614.224979 65.260932 " transform="matrix(0.107645,0,0,-0.107645,-0.415,64.275)"/>
<path style=" stroke:none;fill-rule:nonzero;fill:rgb(13.730068%,12.159915%,12.54902%);fill-opacity:1;" d="M 66.480469 55.542969 L 68.136719 61.351563 L 63.796875 57.148438 L 66.480469 55.542969 "/>
<path style="fill:none;stroke-width:5;stroke-linecap:butt;stroke-linejoin:miter;stroke:rgb(13.730068%,12.159915%,12.54902%);stroke-opacity:1;stroke-miterlimit:4;" d="M 587.661921 501.700674 L 675.987716 501.700674 " transform="matrix(0.107645,0,0,-0.107645,-0.415,64.275)"/>
<path style=" stroke:none;fill-rule:nonzero;fill:rgb(13.730068%,12.159915%,12.54902%);fill-opacity:1;" d="M 71.285156 11.8125 L 77.117188 10.25 L 71.285156 8.6875 L 71.285156 11.8125 "/>
<path style="fill:none;stroke-width:5;stroke-linecap:butt;stroke-linejoin:miter;stroke:rgb(13.730068%,12.159915%,12.54902%);stroke-opacity:1;stroke-miterlimit:4;" d="M 587.661921 501.700674 L 675.987716 501.700674 " transform="matrix(0.107645,0,0,-0.107645,-0.415,64.275)"/>
<path style=" stroke:none;fill-rule:nonzero;fill:rgb(13.730068%,12.159915%,12.54902%);fill-opacity:1;" d="M 71.285156 11.8125 L 77.117188 10.25 L 71.285156 8.6875 L 71.285156 11.8125 "/>
<path style="fill:none;stroke-width:5;stroke-linecap:butt;stroke-linejoin:miter;stroke:rgb(13.730068%,12.159915%,12.54902%);stroke-opacity:1;stroke-miterlimit:4;" d="M 1017.823782 501.700674 L 1106.149577 501.700674 " transform="matrix(0.107645,0,0,-0.107645,-0.415,64.275)"/>
<path style=" stroke:none;fill-rule:nonzero;fill:rgb(13.730068%,12.159915%,12.54902%);fill-opacity:1;" d="M 117.589844 11.8125 L 123.425781 10.25 L 117.589844 8.6875 L 117.589844 11.8125 "/>
</g>
</g>
<g clip-path="url(#clip3)" clip-rule="nonzero">
<g style="fill:rgb(0%,0%,0%);fill-opacity:1;">
  <use xlink:href="#glyph0-1" x="2.703" y="13.251"/>
  <use xlink:href="#glyph0-2" x="9.880435" y="13.251"/>
  <use xlink:href="#glyph0-3" x="11.885402" y="13.251"/>
  <use xlink:href="#glyph0-4" x="16.86609" y="13.251"/>
</g>
<g style="fill:rgb(0%,0%,0%);fill-opacity:1;">
  <use xlink:href="#glyph0-5" x="23.9703" y="13.251"/>
</g>
<g style="fill:rgb(0%,0%,0%);fill-opacity:1;">
  <use xlink:href="#glyph0-1" x="2.703" y="59.74"/>
  <use xlink:href="#glyph0-2" x="9.880435" y="59.74"/>
  <use xlink:href="#glyph0-3" x="11.885402" y="59.74"/>
  <use xlink:href="#glyph0-4" x="16.86609" y="59.74"/>
</g>
<g style="fill:rgb(0%,0%,0%);fill-opacity:1;">
  <use xlink:href="#glyph0-6" x="23.9703" y="59.74"/>
</g>
<g style="fill:rgb(0%,0%,0%);fill-opacity:1;">
  <use xlink:href="#glyph1-1" x="66.146" y="69.685"/>
</g>
<g style="fill:rgb(0%,0%,0%);fill-opacity:1;">
  <use xlink:href="#glyph1-1" x="105.468" y="69.685"/>
</g>
<g style="fill:rgb(0%,0%,0%);fill-opacity:1;">
  <use xlink:href="#glyph0-7" x="111.188" y="69.685"/>
</g>
<g style="fill:rgb(0%,0%,0%);fill-opacity:1;">
  <use xlink:href="#glyph0-8" x="118.596965" y="69.685"/>
</g>
<g style="fill:rgb(0%,0%,0%);fill-opacity:1;">
  <use xlink:href="#glyph1-1" x="123.77" y="69.685"/>
</g>
<g style="fill:rgb(0%,0%,0%);fill-opacity:1;">
  <use xlink:href="#glyph1-2" x="61.666" y="6.032"/>
</g>
<g style="fill:rgb(0%,0%,0%);fill-opacity:1;">
  <use xlink:href="#glyph0-9" x="64.592" y="6.032"/>
</g>
<g style="fill:rgb(0%,0%,0%);fill-opacity:1;">
  <use xlink:href="#glyph1-1" x="67.61" y="6.032"/>
</g>
<g style="fill:rgb(0%,0%,0%);fill-opacity:1;">
  <use xlink:href="#glyph0-10" x="71.683" y="6.032"/>
</g>
<g style="fill:rgb(0%,0%,0%);fill-opacity:1;">
  <use xlink:href="#glyph1-2" x="100.987" y="6.032"/>
</g>
<g style="fill:rgb(0%,0%,0%);fill-opacity:1;">
  <use xlink:href="#glyph0-9" x="103.914" y="6.032"/>
</g>
<g style="fill:rgb(0%,0%,0%);fill-opacity:1;">
  <use xlink:href="#glyph1-1" x="106.931" y="6.032"/>
</g>
<g style="fill:rgb(0%,0%,0%);fill-opacity:1;">
  <use xlink:href="#glyph0-7" x="112.651" y="6.032"/>
</g>
<g style="fill:rgb(0%,0%,0%);fill-opacity:1;">
  <use xlink:href="#glyph0-8" x="120.059965" y="6.032"/>
</g>
<g style="fill:rgb(0%,0%,0%);fill-opacity:1;">
  <use xlink:href="#glyph1-1" x="125.233" y="6.032"/>
</g>
<g style="fill:rgb(0%,0%,0%);fill-opacity:1;">
  <use xlink:href="#glyph0-10" x="129.306" y="6.032"/>
</g>
<path style=" stroke:none;fill-rule:nonzero;fill:rgb(100%,100%,100%);fill-opacity:1;" d="M 48.085938 43.855469 L 66.480469 43.855469 L 66.480469 34.238281 L 48.085938 34.238281 L 48.085938 43.855469 Z M 48.085938 43.855469 "/>
<g style="fill:rgb(0%,0%,0%);fill-opacity:1;">
  <use xlink:href="#glyph1-3" x="49.504" y="40.887"/>
</g>
<g style="fill:rgb(0%,0%,0%);fill-opacity:1;">
  <use xlink:href="#glyph0-9" x="54.957" y="40.887"/>
</g>
<g style="fill:rgb(0%,0%,0%);fill-opacity:1;">
  <use xlink:href="#glyph1-1" x="57.974" y="40.887"/>
</g>
<g style="fill:rgb(0%,0%,0%);fill-opacity:1;">
  <use xlink:href="#glyph0-10" x="62.048" y="40.887"/>
</g>
<path style=" stroke:none;fill-rule:nonzero;fill:rgb(100%,100%,100%);fill-opacity:1;" d="M 118.074219 43.855469 L 154.769531 43.855469 L 154.769531 34.238281 L 118.074219 34.238281 L 118.074219 43.855469 Z M 118.074219 43.855469 "/>
<g style="fill:rgb(0%,0%,0%);fill-opacity:1;">
  <use xlink:href="#glyph1-3" x="119.49" y="40.887"/>
</g>
<g style="fill:rgb(0%,0%,0%);fill-opacity:1;">
  <use xlink:href="#glyph0-9" x="124.943" y="40.887"/>
</g>
<g style="fill:rgb(0%,0%,0%);fill-opacity:1;">
  <use xlink:href="#glyph1-1" x="127.96" y="40.887"/>
</g>
<g style="fill:rgb(0%,0%,0%);fill-opacity:1;">
  <use xlink:href="#glyph0-7" x="133.68" y="40.887"/>
</g>
<g style="fill:rgb(0%,0%,0%);fill-opacity:1;">
  <use xlink:href="#glyph0-8" x="141.088965" y="40.887"/>
</g>
<g style="fill:rgb(0%,0%,0%);fill-opacity:1;">
  <use xlink:href="#glyph1-1" x="146.262" y="40.887"/>
</g>
<g style="fill:rgb(0%,0%,0%);fill-opacity:1;">
  <use xlink:href="#glyph0-10" x="150.336" y="40.887"/>
</g>
</g>
</g>
</svg>
