<?xml version="1.0" encoding="UTF-8" standalone="no"?>
<svg xmlns="http://www.w3.org/2000/svg" xmlns:xlink="http://www.w3.org/1999/xlink" version="1.1" width="255.7pt" height="247.0pt" viewBox="-1 0 148.32 143.25121">
 <metadata id="metadata29894"/>
 <defs id="defs29457">
  <g id="g29459">
   <g id="glyph0-0">
   </g>
   <g id="glyph0-1">
    <path d="M 2.59375,1.546875 C 2.5625,1.515625 2.5,1.484375 2.46875,1.4375 1.703125,0.75 1.234375,-0.3125 1.1875,-1.609375 c -0.046875,-0.875 0.109375,-1.78125 0.53125,-2.5625 0.1875,-0.375 0.4375,-0.6875 0.75,-0.96875 C 2.5,-5.171875 2.5625,-5.203125 2.59375,-5.25 l -0.265625,0 c -0.140625,0 -0.125,0 -0.234375,0.078125 C 1.734375,-4.875 1.421875,-4.5 1.203125,-4.09375 0.53125,-2.828125 0.484375,-1.171875 1.09375,0.1875 c 0.234375,0.5 0.5625,0.9375 1,1.28125 0.078125,0.078125 0.078125,0.078125 0.234375,0.078125 l 0.265625,0 z m 0,0" id="path29465"/>
   </g>
   <g id="glyph0-2">
    <path d="m 0.640625,-2.65625 c 0.125,-0.0625 0.234375,-0.140625 0.34375,-0.1875 C 1.21875,-2.953125 1.453125,-3 1.6875,-3.015625 1.765625,-3.03125 1.84375,-3.03125 1.90625,-3.03125 c 0.28125,0.046875 0.515625,0.234375 0.609375,0.515625 0.0625,0.203125 0.046875,0.4375 0.046875,0.640625 -0.375,0 -0.75,0.03125 -1.09375,0.125 -0.515625,0.125 -1.140625,0.390625 -1.0625,1.015625 0.03125,0.296875 0.1875,0.578125 0.453125,0.71875 C 1.046875,0.0625 1.25,0.0625 1.4375,0.046875 1.75,0.015625 2.0625,-0.0625 2.328125,-0.25 2.421875,-0.3125 2.484375,-0.390625 2.5625,-0.46875 l 0,0.46875 0.5,0 0,-1.828125 c 0,-0.203125 0.03125,-0.40625 -0.015625,-0.59375 -0.0625,-0.5 -0.5,-0.859375 -0.953125,-0.9375 -0.296875,-0.0625 -0.734375,0 -0.953125,0.0625 C 1.046875,-3.28125 0.671875,-3.15625 0.625,-3.09375 0.609375,-3.0625 0.609375,-3 0.609375,-2.96875 c 0.015625,0.109375 0.03125,0.203125 0.03125,0.3125 z M 2.5625,-1.625 l 0,0.515625 c 0,0.125 0,0.265625 -0.0625,0.375 -0.078125,0.15625 -0.234375,0.265625 -0.390625,0.3125 -0.328125,0.125 -0.765625,0.140625 -1.0625,-0.09375 C 0.984375,-0.5625 0.90625,-0.640625 0.890625,-0.75 0.8125,-1.046875 1.078125,-1.28125 1.328125,-1.40625 1.65625,-1.546875 2.109375,-1.625 2.5625,-1.625 z m 0,0" id="path29468"/>
   </g>
   <g id="glyph0-3">
    <path d="m 0.4375,-5.25 c 0.03125,0.046875 0.078125,0.078125 0.125,0.109375 C 1.421875,-4.375 1.90625,-3.125 1.84375,-1.609375 1.8125,-0.859375 1.640625,-0.09375 1.265625,0.5625 1.078125,0.890625 0.84375,1.1875 0.5625,1.4375 0.515625,1.484375 0.46875,1.515625 0.4375,1.546875 l 0.25,0 c 0.15625,0 0.140625,0 0.25,-0.078125 C 1.296875,1.1875 1.59375,0.8125 1.828125,0.390625 2.484375,-0.859375 2.546875,-2.53125 1.9375,-3.875 1.703125,-4.390625 1.359375,-4.8125 0.9375,-5.171875 0.84375,-5.234375 0.84375,-5.25 0.6875,-5.25 l -0.25,0 z m 0,0" id="path29471"/>
   </g>
   <g id="glyph0-4">
    <path d="m 0.78125,-4.234375 0,0.390625 c 0.34375,0 0.6875,-0.0625 1.015625,-0.203125 l 0,3.65625 -0.984375,0 0,0.390625 2.453125,0 0,-0.390625 -0.96875,0 0,-4.3125 c -0.046875,0 -0.09375,-0.015625 -0.125,0 -0.0625,0.03125 -0.09375,0.078125 -0.15625,0.125 -0.28125,0.234375 -0.78125,0.34375 -1.234375,0.34375 z m 0,0" id="path29474"/>
   </g>
   <g id="glyph0-5">
    <path d="m 1.421875,-2.484375 0,0 c -0.46875,0.125 -0.90625,0.453125 -1.046875,0.890625 -0.15625,0.453125 0.03125,0.9375 0.359375,1.25 0.34375,0.328125 0.8125,0.46875 1.28125,0.453125 0.625,-0.015625 1.28125,-0.390625 1.484375,-1 0.0625,-0.203125 0.09375,-0.4375 0.03125,-0.65625 -0.140625,-0.484375 -0.578125,-0.8125 -1.0625,-0.9375 C 2.53125,-2.5 2.609375,-2.515625 2.671875,-2.546875 2.9375,-2.65625 3.1875,-2.828125 3.328125,-3.0625 3.609375,-3.5 3.375,-4.0625 3,-4.359375 2.59375,-4.6875 2.015625,-4.765625 1.53125,-4.65625 1.09375,-4.5625 0.6875,-4.296875 0.515625,-3.875 0.46875,-3.75 0.421875,-3.578125 0.4375,-3.421875 c 0.03125,0.375 0.3125,0.65625 0.640625,0.8125 0.109375,0.046875 0.21875,0.109375 0.34375,0.125 z M 2.09375,-4.3125 c 0.25,0.03125 0.515625,0.09375 0.6875,0.28125 0.265625,0.28125 0.265625,0.796875 -0.015625,1.078125 -0.171875,0.171875 -0.421875,0.25 -0.65625,0.265625 -0.34375,0.03125 -0.75,0 -1,-0.265625 -0.28125,-0.28125 -0.265625,-0.84375 0.03125,-1.125 C 1.375,-4.28125 1.734375,-4.328125 2.09375,-4.3125 z M 1.8125,-2.28125 c 0.375,-0.03125 0.8125,0.0625 1.0625,0.390625 0.25,0.34375 0.25,0.96875 -0.078125,1.3125 C 2.625,-0.40625 2.359375,-0.3125 2.125,-0.296875 1.765625,-0.265625 1.34375,-0.3125 1.078125,-0.59375 c -0.3125,-0.328125 -0.359375,-1.015625 0,-1.390625 0.203125,-0.1875 0.46875,-0.28125 0.734375,-0.296875 z m 0,0" id="path29477"/>
   </g>
   <g id="glyph0-6">
    <path d="M 1.84375,-4.703125 C 1.671875,-4.6875 1.515625,-4.65625 1.359375,-4.578125 0.625,-4.3125 0.375,-3.359375 0.375,-2.421875 c 0,0.15625 0,0.296875 0,0.4375 0.03125,0.65625 0.171875,1.296875 0.546875,1.6875 0.296875,0.3125 0.765625,0.4375 1.1875,0.40625 0.25,-0.03125 0.484375,-0.125 0.671875,-0.25 C 3.375,-0.5625 3.515625,-1.421875 3.515625,-2.359375 3.515625,-3.140625 3.375,-3.828125 3,-4.25 2.71875,-4.5625 2.265625,-4.75 1.84375,-4.703125 z M 2.4375,-4.1875 c 0.0625,0.03125 0.140625,0.09375 0.203125,0.15625 0.25,0.25 0.34375,0.75 0.359375,1.21875 0,0.09375 0,0.1875 0,0.28125 l 0,0.359375 C 3,-1.5625 2.953125,-0.984375 2.6875,-0.625 2.328125,-0.171875 1.59375,-0.15625 1.21875,-0.609375 1.140625,-0.71875 1.078125,-0.828125 1.03125,-0.9375 0.90625,-1.296875 0.875,-1.75 0.875,-2.203125 l 0,-0.359375 c 0,-0.078125 0.015625,-0.171875 0.015625,-0.265625 0,-0.546875 0.140625,-1.09375 0.515625,-1.328125 C 1.671875,-4.328125 2.09375,-4.375 2.4375,-4.1875 z m 0,0" id="path29480"/>
   </g>
   <g id="glyph0-7">
    <path d="m 0.59375,-4.859375 0,4.859375 0.5,0 0,-0.46875 0.015625,0 c 0.046875,0.109375 0.15625,0.203125 0.25,0.28125 0.3125,0.25 0.828125,0.328125 1.28125,0.109375 0.21875,-0.125 0.390625,-0.28125 0.515625,-0.46875 0.703125,-0.96875 0.28125,-2.546875 -0.6875,-2.78125 -0.140625,-0.03125 -0.28125,-0.03125 -0.4375,-0.015625 -0.40625,0.046875 -0.71875,0.25 -0.953125,0.515625 l 0,-2.03125 -0.484375,0 z M 1.8125,-2.96875 C 2.15625,-3 2.53125,-2.859375 2.75,-2.578125 c 0.15625,0.21875 0.21875,0.484375 0.234375,0.75 0.03125,0.375 -0.015625,0.78125 -0.25,1.09375 -0.203125,0.265625 -0.53125,0.375 -0.84375,0.390625 C 1.609375,-0.328125 1.375,-0.421875 1.21875,-0.640625 1.171875,-0.6875 1.125,-0.75 1.109375,-0.8125 1.09375,-0.859375 1.09375,-0.90625 1.09375,-0.9375 l 0,-1.390625 c 0,-0.078125 -0.015625,-0.15625 0.015625,-0.21875 0.03125,-0.078125 0.109375,-0.125 0.15625,-0.1875 0.15625,-0.125 0.34375,-0.21875 0.546875,-0.234375 z m 0,0" id="path29483"/>
   </g>
   <g id="glyph0-8">
    <path d="M 3.203125,-0.8125 C 3.140625,-0.765625 3.09375,-0.734375 3.03125,-0.6875 2.953125,-0.625 2.84375,-0.5625 2.75,-0.515625 2.3125,-0.3125 1.6875,-0.265625 1.3125,-0.5625 1.046875,-0.75 0.875,-1.109375 0.84375,-1.515625 0.8125,-1.953125 0.921875,-2.46875 1.296875,-2.765625 1.5,-2.921875 1.78125,-3.015625 2.15625,-2.96875 2.484375,-2.953125 2.671875,-2.890625 2.9375,-2.765625 3,-2.734375 3.046875,-2.6875 3.109375,-2.671875 L 3.1875,-3.09375 C 3.03125,-3.15625 2.890625,-3.25 2.71875,-3.296875 2.296875,-3.4375 1.6875,-3.421875 1.3125,-3.25 c -0.34375,0.15625 -0.625,0.4375 -0.796875,0.765625 -0.25,0.515625 -0.25,1.125 0,1.625 0.09375,0.203125 0.21875,0.375 0.390625,0.515625 0.484375,0.4375 1.1875,0.484375 1.78125,0.28125 0.140625,-0.0625 0.28125,-0.125 0.40625,-0.203125 0.046875,-0.03125 0.109375,-0.0625 0.125,-0.09375 C 3.234375,-0.40625 3.203125,-0.8125 3.203125,-0.8125 z m 0,0" id="path29486"/>
   </g>
   <g id="glyph0-9">
    <path d="m 0.625,-3.21875 c 0.109375,-0.40625 0.296875,-0.84375 0.71875,-1 0.171875,-0.0625 0.34375,-0.078125 0.515625,-0.0625 C 2.21875,-4.25 2.59375,-4.109375 2.8125,-3.796875 2.953125,-3.59375 3,-3.34375 2.96875,-3.09375 2.890625,-2.421875 2.28125,-2 1.796875,-1.609375 1.40625,-1.3125 0.59375,-0.59375 0.59375,-0.59375 l -0.125,0.109375 c -0.078125,0.078125 -0.078125,0.0625 -0.078125,0.21875 L 0.390625,0 3.5,0 l 0,-0.4375 -2.65625,0 C 1.109375,-0.671875 1.90625,-1.34375 2.15625,-1.515625 2.578125,-1.84375 3.078125,-2.15625 3.359375,-2.65625 3.65625,-3.21875 3.46875,-3.9375 2.984375,-4.328125 2.453125,-4.78125 1.46875,-4.84375 0.875,-4.421875 0.671875,-4.25 0.5,-4 0.390625,-3.75 0.375,-3.703125 0.328125,-3.625 0.328125,-3.5625 0.34375,-3.53125 0.390625,-3.5 0.40625,-3.453125 0.46875,-3.375 0.546875,-3.28125 0.625,-3.21875 z m 0,0" id="path29489"/>
   </g>
   <g id="glyph1-0">
   </g>
   <g id="glyph1-1">
    <path d="m 0.75,-3.296875 c 0.078125,0.140625 0.1875,0.265625 0.265625,0.40625 0.0625,0.078125 0.671875,1 0.703125,1.046875 0.03125,0.03125 0.078125,0.09375 0.078125,0.125 0,0.046875 -0.0625,0.109375 -0.109375,0.125 C 1.375,-1.296875 0.046875,-0.046875 0,0 0.1875,0 0.375,0 0.53125,0 L 0.6875,-0.140625 1.984375,-1.4375 c 0.28125,0.484375 0.5625,0.96875 0.875,1.421875 C 3.03125,0 3.21875,0 3.40625,0 3.3125,-0.140625 2.359375,-1.546875 2.34375,-1.578125 c -0.015625,-0.03125 -0.0625,-0.078125 -0.0625,-0.125 0,-0.046875 0.078125,-0.09375 0.109375,-0.109375 0.09375,-0.109375 0.21875,-0.203125 0.328125,-0.3125 0.109375,-0.09375 1.21875,-1.140625 1.25,-1.171875 -0.1875,0 -0.359375,0 -0.53125,0 -0.46875,0.40625 -0.875,0.84375 -1.328125,1.265625 -0.28125,-0.421875 -0.53125,-0.859375 -0.828125,-1.265625 -0.171875,0 -0.34375,0 -0.53125,0 z m 0,0" id="path29495"/>
   </g>
   <g id="glyph1-2">
    <path d="m 0.8125,-3.296875 c 0.015625,0.09375 0.046875,0.1875 0.0625,0.28125 0.140625,0.6875 0.640625,2.9375 0.640625,3.015625 0,0.03125 -0.1875,0.296875 -0.1875,0.296875 -0.15625,0.28125 -0.390625,0.578125 -0.8125,0.53125 -0.09375,0 -0.1875,-0.015625 -0.28125,-0.03125 C 0.171875,0.78125 0.09375,0.75 0.03125,0.734375 l -0.046875,0.4375 C 0.203125,1.21875 0.59375,1.25 0.796875,1.1875 c 0.4375,-0.109375 0.75,-0.59375 0.96875,-0.921875 L 2.109375,-0.28125 C 2.296875,-0.59375 3.90625,-3.140625 4,-3.296875 c -0.171875,0 -0.34375,-0.015625 -0.484375,0 -0.171875,0.25 -0.3125,0.515625 -0.484375,0.75 -0.390625,0.6875 -0.84375,1.3125 -1.1875,2.03125 l -0.015625,0 c -0.09375,-1 -0.34375,-1.859375 -0.515625,-2.78125 l -0.5,0 z m 0,0" id="path29498"/>
   </g>
   <g id="glyph1-3">
    <path d="m 1.015625,-3.296875 -0.078125,0.375 2.140625,0 L 1.046875,-1 C 0.796875,-0.75 0.53125,-0.515625 0.28125,-0.265625 0.265625,-0.171875 0.234375,-0.09375 0.21875,0 1.171875,0 2.203125,0.015625 3.109375,0 3.15625,-0.125 3.1875,-0.265625 3.21875,-0.390625 l -2.265625,0 L 3.75,-3.046875 c 0.03125,-0.078125 0.046875,-0.171875 0.0625,-0.25 l -2.796875,0 z m 0,0" id="path29501"/>
   </g>
   <g id="glyph1-4">
    <path d="m 0.21875,0 0.359375,0 0.15625,-0.015625 0.0625,-0.09375 c 0.265625,-0.421875 0.53125,-0.859375 0.8125,-1.28125 l 0.0625,-0.015625 2.3125,0 c 0.09375,0.46875 0.15625,0.953125 0.28125,1.390625 0.140625,0.046875 0.375,0 0.546875,0.015625 -0.015625,-0.140625 -0.859375,-4.375 -0.90625,-4.640625 0,-0.03125 -0.046875,-0.265625 -0.078125,-0.28125 -0.046875,-0.015625 -0.09375,0 -0.125,0 l -0.28125,0 C 3.375,-4.921875 3.3125,-4.9375 3.28125,-4.90625 3.234375,-4.875 3.09375,-4.625 3.09375,-4.625 l -2.015625,3.25 -0.5625,0.90625 C 0.40625,-0.328125 0.296875,-0.15625 0.21875,0 z M 3.421875,-4.34375 C 3.5625,-3.5 3.734375,-2.65625 3.90625,-1.8125 l -2.046875,0 c 0.5,-0.859375 1.046875,-1.6875 1.5625,-2.53125 z m 0,0" id="path29504"/>
   </g>
   <g id="glyph1-5">
    <path d="M 3.234375,-0.625 C 3.28125,-0.375 3.421875,-0.09375 3.671875,0 4.0625,0.171875 4.65625,-0.0625 4.71875,-0.4375 l -0.515625,0 c -0.03125,0.09375 -0.15625,0.125 -0.25,0.09375 -0.1875,-0.0625 -0.234375,-0.40625 -0.25,-0.578125 0,-0.046875 -0.015625,-0.125 -0.015625,-0.171875 0.015625,-0.0625 0.125,-0.1875 0.140625,-0.203125 C 4.15625,-1.75 4.453125,-2.390625 4.578125,-3 4.40625,-3 4.21875,-3 4.0625,-2.984375 l -0.03125,0.09375 C 3.9375,-2.484375 3.796875,-2.140625 3.640625,-1.8125 3.609375,-1.921875 3.609375,-2.03125 3.59375,-2.15625 3.5,-2.609375 3.234375,-3.046875 2.84375,-3.234375 c -0.4375,-0.21875 -0.953125,-0.125 -1.375,0.09375 -0.59375,0.3125 -1.03125,0.9375 -1.125,1.59375 -0.078125,0.5 0.046875,1.03125 0.453125,1.34375 0.078125,0.0625 0.15625,0.125 0.25,0.15625 0.671875,0.265625 1.4375,-0.046875 1.90625,-0.359375 0.09375,-0.078125 0.1875,-0.15625 0.28125,-0.21875 z M 2.5625,-2.890625 C 3.0625,-2.625 3.09375,-1.9375 3.140625,-1.296875 3.15625,-1.140625 3.15625,-1.125 3.0625,-1.015625 2.75,-0.671875 2.25,-0.375 1.71875,-0.34375 1.4375,-0.3125 1.203125,-0.40625 1.0625,-0.53125 0.8125,-0.75 0.796875,-1.125 0.828125,-1.421875 0.890625,-1.953125 1.09375,-2.5 1.5625,-2.796875 c 0.25,-0.140625 0.671875,-0.25 1,-0.09375 z m 0,0" id="path29507"/>
   </g>
   <g id="glyph1-6">
    <path d="m 0.78125,-0.59375 0,0.59375 0.1875,0 -0.1875,0.78125 0.296875,0 C 1.171875,0.515625 1.28125,0.265625 1.359375,0 1.375,-0.1875 1.375,-0.390625 1.375,-0.59375 l -0.59375,0 z m 0,0" id="path29510"/>
   </g>
   <g id="glyph2-0">
   </g>
   <g id="glyph2-1">
    <path d="M 0.46875,-1.890625 C 0.21875,-1.53125 0.234375,-1.046875 0.484375,-0.6875 0.671875,-0.4375 1,-0.25 1.40625,-0.296875 1.71875,-0.3125 1.953125,-0.484375 2.109375,-0.6875 2.34375,-1 2.375,-1.421875 2.1875,-1.765625 2.078125,-2 1.859375,-2.1875 1.59375,-2.265625 c -0.484375,-0.140625 -0.90625,0.09375 -1.125,0.375 z m 1.3125,-0.03125 C 2.109375,-1.65625 2.1875,-1.15625 1.921875,-0.828125 1.875,-0.734375 1.78125,-0.671875 1.703125,-0.625 c -0.28125,0.171875 -0.640625,0.140625 -0.875,-0.046875 -0.34375,-0.25 -0.40625,-0.765625 -0.15625,-1.09375 0.0625,-0.09375 0.140625,-0.15625 0.234375,-0.21875 0.28125,-0.15625 0.625,-0.109375 0.875,0.0625 z m 0,0" id="path29516"/>
   </g>
   <g id="glyph2-2">
    <path d="m 1.015625,-2.734375 c -0.015625,0 -0.046875,0 -0.0625,0.015625 -0.125,0.046875 -0.140625,0.15625 -0.171875,0.265625 L 0.71875,-2.25 0.265625,-0.734375 c -0.015625,0.046875 -0.125,0.40625 -0.125,0.4375 0.015625,0.046875 0.09375,0.0625 0.140625,0.078125 0.015625,0 0.03125,0.015625 0.0625,0.015625 0.046875,-0.015625 0.078125,-0.09375 0.09375,-0.140625 l 0.1875,-0.421875 0.453125,-1.0625 c 0.046875,-0.09375 0.21875,-0.46875 0.25,-0.5625 0.078125,-0.21875 -0.15625,-0.375 -0.3125,-0.34375 z m 0,0" id="path29519"/>
   </g>
  </g>
 </defs>
 <g transform="translate(-166.41597,-153.06202)" id="g30215">
  <path d="M 245.16406,236.14453 C 255.17578,233.05469 264,228.83984 269.34375,224.19141 l 0,0" id="path29626" fill="none" stroke="#000000" stroke-linejoin="round" stroke-linecap="round" stroke-width="0.369" stroke-miterlimit="10"/>
  <path d="m 241.08203,237.32422 c 1.46875,-0.0664 2.92188,-0.16016 4.36328,-0.27735 l -0.55859,-1.80468 c -1.24219,0.70703 -2.51563,1.40234 -3.80469,2.08203" id="path29628"/>
  <path d="m 241.08203,237.32422 c 1.46875,-0.0664 2.92188,-0.16016 4.36328,-0.27735 l -0.55859,-1.80468 c -1.24219,0.70703 -2.51563,1.40234 -3.80469,2.08203 z m 0,0" id="path29630" fill="none" stroke="#000000" stroke-linejoin="round" stroke-linecap="round" stroke-width="0.369" stroke-miterlimit="10"/>
  <path d="m 198.86719,253.43359 33.625,-29.24218" id="path29632" fill="none" stroke="#000000" stroke-linejoin="round" stroke-linecap="round" stroke-width="0.51" stroke-miterlimit="10"/>
  <path d="m 194.58984,257.15234 5.10157,-2.76953 -1.64844,-1.89844 -3.45313,4.66797" id="path29634"/>
  <path d="m 194.58984,257.15234 5.10157,-2.76953 -1.64844,-1.89844 -3.45313,4.66797 z m 0,0" id="path29636" fill="none" stroke="#000000" stroke-linejoin="round" stroke-linecap="round" stroke-width="0.51" stroke-miterlimit="10"/>
  <path d="m 297.69141,224.19141 -65.19922,0" id="path29638" fill="none" stroke="#000000" stroke-linejoin="round" stroke-linecap="round" stroke-width="0.51" stroke-miterlimit="10"/>
  <path d="m 303.35937,224.19141 -5.66796,-1.25782 0,2.51563 5.66796,-1.25781" id="path29640"/>
  <path d="m 303.35938,224.19141 -5.66797,-1.25782 0,2.51563 5.66797,-1.25781 z m 0,0" id="path29642" fill="none" stroke="#000000" stroke-linejoin="round" stroke-linecap="round" stroke-width="0.51" stroke-miterlimit="10"/>
  <path d="m 232.49219,158.99609 0,65.19532" id="path29644" fill="none" stroke="#000000" stroke-linejoin="round" stroke-linecap="round" stroke-width="0.51" stroke-miterlimit="10"/>
  <path d="m 232.49219,153.32422 -1.25782,5.67187 2.51563,0 -1.25781,-5.67187" id="path29646"/>
  <path d="m 232.49219,153.32422 -1.25781,5.67187 2.51562,0 -1.25781,-5.67187 z m 0,0" id="path29648" fill="none" stroke="#000000" stroke-linejoin="round" stroke-linecap="round" stroke-width="0.51" stroke-miterlimit="10"/>
  <path d="m 305.67188,204.48047 -73.17969,19.71094" id="path29650" stroke-dasharray="3.98874 3.98874" fill="none" stroke="#000000" stroke-linejoin="round" stroke-linecap="round" stroke-width="0.51" stroke-miterlimit="10"/>
  <path d="m 311.14453,203.00391 -5.80078,0.26171 0.65234,2.42579 5.14844,-2.6875" id="path29652"/>
  <path d="m 311.14453,203.00391 -5.80078,0.26171 0.65234,2.42579 5.14844,-2.6875 z m 0,0" id="path29654" fill="none" stroke="#000000" stroke-linejoin="round" stroke-linecap="round" stroke-width="0.51" stroke-miterlimit="10"/>
  <path d="M 245.90625,244.69922 232.49219,224.19141" id="path29656" stroke-dasharray="3.5003 3.5003" fill="none" stroke="#000000" stroke-linejoin="round" stroke-linecap="round" stroke-width="0.51" stroke-miterlimit="10"/>
  <path d="m 249.00781,249.44141 -2.05078,-5.4336 -2.10156,1.37891 4.15234,4.05469" id="path29658"/>
  <path d="m 249.00781,249.44141 -2.05078,-5.4336 -2.10156,1.37891 4.15234,4.05469 z m 0,0" id="path29660" fill="none" stroke="#000000" stroke-linejoin="round" stroke-linecap="round" stroke-width="0.51" stroke-miterlimit="10"/>
  <path d="m 232.49219,289.39062 0,-65.19921" id="path29662" stroke-dasharray="4.34647 4.34647" fill="none" stroke="#000000" stroke-linejoin="round" stroke-linecap="round" stroke-width="0.51" stroke-miterlimit="10"/>
  <path d="m 232.49219,295.05859 1.25781,-5.66797 -2.51563,0 1.25782,5.66797" id="path29664"/>
  <path d="m 232.49219,295.05859 1.25781,-5.66797 -2.51562,0 1.25781,5.66797 z m 0,0" id="path29666" fill="none" stroke="#000000" stroke-linejoin="round" stroke-linecap="round" stroke-width="0.51" stroke-miterlimit="10"/>
  <g id="g29824">
   <use transform="translate(165.60048,225.98013)" id="use29826" width="311.4" height="295.82" xlink:href="#glyph0-1"/>
  </g>
  <g id="g29828">
   <use transform="translate(168.60048,225.98013)" id="use29830" width="311.4" height="295.82" xlink:href="#glyph0-8"/>
  </g>
  <g id="g29832">
   <use transform="translate(172.08047,225.98013)" id="use29834" width="311.4" height="295.82" xlink:href="#glyph0-3"/>
  </g>
  <g id="g29836">
   <use transform="translate(195.72038,261.14035)" id="use29838" width="311.4" height="295.82" xlink:href="#glyph1-1"/>
  </g>
  <g id="g29840">
   <use transform="translate(298.44037,230.42044)" id="use29842" width="311.4" height="295.82" xlink:href="#glyph1-2"/>
  </g>
  <g id="g29844">
   <use transform="translate(225.84038,157.82043)" id="use29846" width="311.4" height="295.82" xlink:href="#glyph1-3"/>
  </g>
  <g id="g29848">
   <use transform="translate(259.80057,235.70055)" id="use29850" width="311.4" height="295.82" xlink:href="#glyph0-9"/>
  </g>
  <g id="g29852">
   <use transform="translate(263.64041,235.70055)" id="use29854" width="311.4" height="295.82" xlink:href="#glyph1-5"/>
  </g>
  <g id="g29856">
   <use transform="translate(301.9205,201.38023)" id="use29858" width="311.4" height="295.82" xlink:href="#glyph1-1"/>
  </g>
  <g id="g29860">
   <use transform="translate(306.00061,198.86032)" id="use29862" width="311.4" height="295.82" xlink:href="#glyph2-2"/>
  </g>
  <g id="g29864">
   <use transform="translate(307.44058,198.86032)" id="use29866" width="311.4" height="295.82" xlink:href="#glyph2-2"/>
  </g>
  <g id="g29868">
   <use transform="translate(249.84039,255.14043)" id="use29870" width="311.4" height="295.82" xlink:href="#glyph1-2"/>
  </g>
  <g id="g29872">
   <use transform="translate(254.04039,252.6205)" id="use29874" width="311.4" height="295.82" xlink:href="#glyph2-2"/>
  </g>
  <g id="g29876">
   <use transform="translate(255.48039,252.6205)" id="use29878" width="311.4" height="295.82" xlink:href="#glyph2-2"/>
  </g>
  <g id="g29880">
   <use transform="translate(222.48059,294.86029)" id="use29882" width="311.4" height="295.82" xlink:href="#glyph1-3"/>
  </g>
  <g id="g29884">
   <use transform="translate(226.56067,292.34039)" id="use29886" width="311.4" height="295.82" xlink:href="#glyph2-2"/>
  </g>
  <g id="g29888">
   <use transform="translate(228.00067,292.34039)" id="use29890" width="311.4" height="295.82" xlink:href="#glyph2-2"/>
  </g>
 </g>
</svg>
