<?xml version="1.0" encoding="UTF-8" standalone="no"?>
<!-- Created with Inkscape (http://www.inkscape.org/) -->
<svg xmlns:dc="http://purl.org/dc/elements/1.1/" xmlns:cc="http://creativecommons.org/ns#" xmlns:rdf="http://www.w3.org/1999/02/22-rdf-syntax-ns#" xmlns:svg="http://www.w3.org/2000/svg" xmlns="http://www.w3.org/2000/svg" xmlns:xlink="http://www.w3.org/1999/xlink" version="1.1" width="137.4pt" height="155.0pt" viewBox="0 0 99.167429 111.83881" id="svg28195">
  <defs id="defs28197">
    <g id="g28199">
      <g id="glyph0-0"/>
      <g id="glyph0-1">
        <path d="M 2.578125,1.546875 C 2.546875,1.5 2.5,1.46875 2.453125,1.4375 1.6875,0.75 1.21875,-0.3125 1.171875,-1.59375 c -0.03125,-0.875 0.125,-1.78125 0.53125,-2.5625 0.203125,-0.375 0.4375,-0.6875 0.75,-0.953125 C 2.5,-5.15625 2.546875,-5.1875 2.578125,-5.21875 l -0.25,0 c -0.15625,0 -0.140625,0 -0.25,0.078125 -0.359375,0.28125 -0.65625,0.65625 -0.890625,1.078125 -0.65625,1.234375 -0.703125,2.90625 -0.09375,4.25 0.21875,0.5 0.5625,0.921875 0.984375,1.28125 0.09375,0.0625 0.09375,0.078125 0.25,0.078125 l 0.25,0 z m 0,0" id="path28203"/>
      </g>
      <g id="glyph0-2">
        <path d="m 0.640625,-2.640625 c 0.125,-0.0625 0.21875,-0.140625 0.34375,-0.203125 C 1.203125,-2.9375 1.4375,-2.984375 1.6875,-3 1.75,-3.015625 1.828125,-3.015625 1.90625,-3.015625 c 0.28125,0.046875 0.515625,0.234375 0.59375,0.5 0.078125,0.203125 0.046875,0.453125 0.046875,0.65625 -0.359375,0 -0.734375,0.03125 -1.09375,0.125 -0.5,0.125 -1.125,0.375 -1.0625,1.015625 0.046875,0.28125 0.203125,0.5625 0.46875,0.703125 C 1.03125,0.0625 1.234375,0.0625 1.4375,0.046875 1.734375,0.015625 2.0625,-0.0625 2.3125,-0.25 c 0.09375,-0.0625 0.171875,-0.140625 0.25,-0.21875 l 0,0.46875 0.484375,0 0,-1.828125 c 0,-0.1875 0.03125,-0.390625 -0.015625,-0.59375 -0.0625,-0.484375 -0.5,-0.84375 -0.953125,-0.9375 -0.28125,-0.046875 -0.71875,0.015625 -0.953125,0.0625 -0.078125,0.03125 -0.46875,0.15625 -0.5,0.21875 -0.03125,0.03125 -0.015625,0.09375 -0.015625,0.125 0.015625,0.109375 0.03125,0.203125 0.03125,0.3125 z m 1.90625,1.015625 0,0.515625 c 0,0.140625 0,0.265625 -0.0625,0.390625 -0.078125,0.140625 -0.21875,0.25 -0.375,0.296875 -0.328125,0.125 -0.78125,0.140625 -1.0625,-0.09375 C 0.96875,-0.5625 0.90625,-0.640625 0.890625,-0.75 0.8125,-1.046875 1.078125,-1.28125 1.3125,-1.390625 1.640625,-1.546875 2.109375,-1.625 2.546875,-1.625 z m 0,0" id="path28206"/>
      </g>
      <g id="glyph0-3">
        <path d="m 0.4375,-5.21875 c 0.03125,0.03125 0.078125,0.0625 0.125,0.109375 0.859375,0.765625 1.328125,2 1.265625,3.515625 -0.015625,0.75 -0.203125,1.5 -0.5625,2.15625 C 1.078125,0.890625 0.84375,1.1875 0.5625,1.4375 0.515625,1.46875 0.46875,1.5 0.4375,1.546875 l 0.25,0 c 0.15625,0 0.140625,0 0.234375,-0.078125 0.375,-0.296875 0.671875,-0.671875 0.890625,-1.078125 0.671875,-1.25 0.71875,-2.90625 0.109375,-4.25 C 1.6875,-4.375 1.359375,-4.796875 0.9375,-5.140625 0.84375,-5.21875 0.84375,-5.21875 0.6875,-5.21875 l -0.25,0 z m 0,0" id="path28209"/>
      </g>
      <g id="glyph0-4">
        <path d="m 0.578125,-4.84375 0,4.84375 0.515625,0 0,-0.46875 0,0 c 0.0625,0.109375 0.171875,0.203125 0.265625,0.28125 0.3125,0.25 0.828125,0.328125 1.28125,0.109375 0.203125,-0.109375 0.375,-0.28125 0.515625,-0.46875 C 3.84375,-1.5 3.421875,-3.09375 2.453125,-3.3125 c -0.125,-0.046875 -0.28125,-0.046875 -0.421875,-0.015625 -0.40625,0.046875 -0.71875,0.25 -0.953125,0.5 l 0,-2.015625 -0.5,0 z M 1.8125,-2.953125 c 0.328125,-0.03125 0.703125,0.109375 0.921875,0.375 0.171875,0.21875 0.234375,0.5 0.234375,0.765625 0.03125,0.375 -0.015625,0.78125 -0.25,1.078125 -0.203125,0.265625 -0.53125,0.375 -0.84375,0.40625 -0.265625,0 -0.5,-0.09375 -0.671875,-0.3125 C 1.171875,-0.6875 1.125,-0.75 1.09375,-0.8125 c 0,-0.046875 0,-0.09375 0,-0.125 l 0,-1.390625 c 0,-0.0625 -0.015625,-0.140625 0.015625,-0.203125 0.03125,-0.078125 0.09375,-0.125 0.15625,-0.1875 0.15625,-0.125 0.34375,-0.21875 0.546875,-0.234375 z m 0,0" id="path28212"/>
      </g>
      <g id="glyph0-5">
        <path d="m 0.9375,-4.53125 0,0.5 0.484375,0 0,-0.5 -0.484375,0 z m 1.5,0 0,0.5 0.5,0 0,-0.5 -0.5,0 z m 0,0" id="path28215"/>
      </g>
      <g id="glyph0-6">
        <path d="M 3.1875,-0.796875 C 3.125,-0.765625 3.078125,-0.71875 3.03125,-0.6875 2.9375,-0.625 2.84375,-0.5625 2.734375,-0.515625 2.3125,-0.3125 1.671875,-0.265625 1.296875,-0.5625 1.03125,-0.75 0.859375,-1.109375 0.84375,-1.5 0.8125,-1.953125 0.921875,-2.453125 1.296875,-2.75 1.5,-2.90625 1.765625,-3 2.140625,-2.96875 2.46875,-2.9375 2.65625,-2.890625 2.921875,-2.75 c 0.0625,0.03125 0.109375,0.078125 0.171875,0.09375 L 3.171875,-3.078125 C 3.015625,-3.15625 2.875,-3.234375 2.703125,-3.28125 c -0.40625,-0.140625 -1.03125,-0.125 -1.390625,0.046875 -0.34375,0.15625 -0.625,0.4375 -0.796875,0.765625 -0.25,0.5 -0.25,1.109375 0,1.625 0.09375,0.1875 0.21875,0.359375 0.390625,0.5 0.46875,0.4375 1.1875,0.484375 1.78125,0.28125 0.140625,-0.0625 0.265625,-0.125 0.390625,-0.203125 0.046875,-0.03125 0.109375,-0.0625 0.125,-0.09375 C 3.21875,-0.40625 3.1875,-0.796875 3.1875,-0.796875 z m 0,0" id="path28218"/>
      </g>
      <g id="glyph1-0"/>
      <g id="glyph1-1">
        <path d="m 0.734375,-2 c -0.140625,0.046875 -0.15625,0.265625 -0.015625,0.3125 0.046875,0.015625 0.09375,0.015625 0.125,0.015625 l 3.9375,0 c 0.09375,0 0.234375,0.015625 0.3125,-0.046875 C 5.171875,-1.8125 5.125,-1.96875 5,-2 4.921875,-2.015625 4.828125,-2 4.734375,-2 l -3.875,0 c -0.03125,0 -0.078125,0 -0.125,0 z m 0,0" id="path28222"/>
      </g>
      <g id="glyph2-0"/>
      <g id="glyph2-1">
        <path d="m 3.765625,-4.84375 -0.109375,0.546875 -0.3125,1.453125 0,0 C 3.296875,-2.96875 3.171875,-3.078125 3.0625,-3.15625 2.828125,-3.3125 2.515625,-3.375 2.234375,-3.328125 c -0.40625,0.046875 -0.75,0.3125 -0.96875,0.546875 C 0.84375,-2.328125 0.609375,-1.71875 0.625,-1.109375 0.640625,-0.578125 0.9375,0 1.578125,0.0625 2.125,0.078125 2.546875,-0.234375 2.828125,-0.515625 L 2.71875,0 l 0.375,0 c 0.046875,0 0.125,0.015625 0.140625,-0.015625 0.015625,-0.046875 0.03125,-0.09375 0.03125,-0.140625 0.03125,-0.09375 0.984375,-4.625 1,-4.6875 l -0.5,0 z M 3.15625,-2.734375 C 3.1875,-2.6875 3.234375,-2.625 3.25,-2.546875 c 0.015625,0.0625 -0.015625,0.15625 -0.03125,0.21875 C 3.171875,-2.125 2.9375,-0.984375 2.9375,-0.96875 2.90625,-0.8125 2.84375,-0.75 2.71875,-0.640625 2.53125,-0.46875 2.3125,-0.359375 2.0625,-0.328125 1.765625,-0.3125 1.515625,-0.421875 1.359375,-0.5625 1.09375,-0.828125 1.109375,-1.25 1.171875,-1.59375 1.25,-1.96875 1.40625,-2.359375 1.703125,-2.609375 c 0.125,-0.109375 0.265625,-0.1875 0.421875,-0.25 0.359375,-0.125 0.78125,-0.15625 1.03125,0.125 z m -0.328125,2.21875 c 0,0 0.015625,0 0.015625,0 0,0 -0.015625,0.015625 -0.015625,0 z m 0,0" id="path28226"/>
      </g>
      <g id="glyph2-2">
        <path d="M 1.75,-4.828125 0.734375,0 C 0.90625,0 1.09375,0 1.25,-0.015625 l 0.03125,-0.046875 0.453125,-2.140625 1.84375,0 C 3.796875,-2.21875 4.0625,-2.1875 4.234375,-2.21875 4.28125,-2.34375 4.3125,-2.484375 4.328125,-2.625 l -2.515625,0 c 0.125,-0.59375 0.265625,-1.1875 0.375,-1.78125 l 2.859375,0 0.078125,-0.421875 -3.375,0 z m 0,0" id="path28229"/>
      </g>
      <g id="glyph2-3">
        <path d="m 0.75,-3.296875 c 0.078125,0.15625 0.171875,0.28125 0.265625,0.421875 0.0625,0.078125 0.671875,1 0.703125,1.03125 0.015625,0.03125 0.078125,0.09375 0.078125,0.140625 0,0.046875 -0.078125,0.09375 -0.109375,0.125 C 1.375,-1.296875 0.046875,-0.046875 0,0 0.1875,0 0.375,0 0.53125,0 L 0.6875,-0.140625 1.984375,-1.4375 C 2.265625,-0.953125 2.53125,-0.46875 2.84375,-0.015625 3.015625,0 3.203125,0 3.390625,0 3.296875,-0.140625 2.359375,-1.53125 2.328125,-1.5625 2.3125,-1.609375 2.265625,-1.65625 2.265625,-1.6875 2.28125,-1.734375 2.34375,-1.78125 2.375,-1.8125 2.484375,-1.921875 2.59375,-2.015625 2.703125,-2.125 c 0.109375,-0.09375 1.21875,-1.125 1.25,-1.171875 -0.1875,0 -0.359375,0 -0.53125,0.015625 -0.453125,0.40625 -0.875,0.84375 -1.328125,1.25 -0.265625,-0.421875 -0.515625,-0.859375 -0.8125,-1.25 C 1.109375,-3.296875 0.921875,-3.296875 0.75,-3.296875 z m 0,0" id="path28232"/>
      </g>
      <g id="glyph2-4">
        <path d="m 3.21875,-0.625 c 0.046875,0.25 0.1875,0.53125 0.4375,0.625 0.390625,0.171875 0.984375,-0.0625 1.03125,-0.4375 l -0.5,0 c -0.046875,0.09375 -0.15625,0.125 -0.25,0.09375 -0.1875,-0.0625 -0.234375,-0.40625 -0.25,-0.5625 -0.015625,-0.0625 -0.015625,-0.125 -0.015625,-0.1875 0.015625,-0.0625 0.125,-0.1875 0.140625,-0.203125 0.328125,-0.453125 0.625,-1.09375 0.734375,-1.6875 -0.15625,0 -0.34375,0 -0.5,0.015625 L 4.015625,-2.875 C 3.921875,-2.46875 3.78125,-2.125 3.609375,-1.8125 3.59375,-1.921875 3.59375,-2.03125 3.578125,-2.140625 3.484375,-2.59375 3.21875,-3.03125 2.84375,-3.21875 2.390625,-3.4375 1.875,-3.359375 1.46875,-3.125 0.875,-2.8125 0.4375,-2.1875 0.328125,-1.53125 c -0.0625,0.484375 0.0625,1.015625 0.453125,1.34375 0.078125,0.0625 0.171875,0.109375 0.25,0.140625 C 1.703125,0.21875 2.484375,-0.09375 2.9375,-0.40625 3.03125,-0.484375 3.125,-0.5625 3.21875,-0.625 z m -0.671875,-2.25 c 0.5,0.265625 0.53125,0.953125 0.578125,1.578125 0.015625,0.15625 0.03125,0.1875 -0.078125,0.28125 C 2.734375,-0.671875 2.25,-0.375 1.703125,-0.328125 1.4375,-0.3125 1.1875,-0.390625 1.046875,-0.53125 0.8125,-0.75 0.78125,-1.109375 0.828125,-1.421875 0.890625,-1.9375 1.09375,-2.484375 1.5625,-2.78125 c 0.25,-0.140625 0.65625,-0.25 0.984375,-0.09375 z m 0,0" id="path28235"/>
      </g>
      <g id="glyph2-5">
        <path d="m -0.28125,1.15625 0.5,0 0.09375,-0.390625 c 0.078125,-0.34375 0.140625,-0.6875 0.203125,-1.046875 l 0.15625,0.125 c 0.296875,0.25 0.734375,0.390625 1.21875,0.40625 0.125,0 0.25,0 0.390625,-0.03125 C 3,0.09375 3.671875,-0.421875 3.9375,-1.125 4.03125,-1.359375 4.0625,-1.640625 4.0625,-1.890625 4.046875,-2.296875 3.90625,-2.625 3.6875,-2.859375 3.640625,-2.921875 3.578125,-2.96875 3.515625,-3.03125 3.609375,-3.0625 3.671875,-3.125 3.75,-3.171875 4.140625,-3.46875 4.40625,-4.015625 4.078125,-4.46875 c -0.296875,-0.375 -0.921875,-0.5 -1.5625,-0.375 C 1.875,-4.71875 1.21875,-4.375 0.875,-3.8125 c -0.21875,0.34375 -0.265625,0.75 -0.34375,1.140625 -0.078125,0.375 -0.8125,3.765625 -0.8125,3.828125 z M 2.84375,-4.5 c 0.09375,-0.015625 0.1875,0 0.28125,0 0.171875,0.015625 0.359375,0.046875 0.484375,0.171875 C 3.8125,-4.125 3.71875,-3.75 3.59375,-3.53125 c -0.03125,0.046875 -0.0625,0.109375 -0.109375,0.140625 -0.03125,0.0625 -0.171875,0.1875 -0.25,0.203125 -0.03125,0 -0.0625,-0.03125 -0.09375,-0.03125 C 2.875,-3.3125 2.578125,-3.296875 2.234375,-3.28125 2.09375,-3.265625 1.921875,-3.25 1.8125,-3.15625 1.75,-3.125 1.703125,-3.0625 1.71875,-3 1.734375,-2.875 1.890625,-2.84375 2,-2.828125 c 0.140625,0.03125 0.3125,0.03125 0.453125,0.03125 0.234375,0 0.4375,-0.015625 0.625,-0.0625 0.046875,-0.015625 0.078125,-0.03125 0.125,0 0.078125,0.046875 0.125,0.125 0.171875,0.1875 0.15625,0.21875 0.1875,0.484375 0.1875,0.75 0,0.484375 -0.125,1.03125 -0.484375,1.375 C 2.8125,-0.296875 2.484375,-0.140625 2,-0.140625 1.53125,-0.15625 1,-0.328125 0.796875,-0.78125 c -0.09375,-0.265625 -0.0625,-0.46875 0,-0.78125 L 1.109375,-3 C 1.15625,-3.203125 1.171875,-3.40625 1.265625,-3.578125 1.5625,-4.171875 2.234375,-4.453125 2.84375,-4.5 z m 0,0" id="path28238"/>
      </g>
      <g id="glyph3-0"/>
      <g id="glyph3-1">
        <path d="M 0.4375,-2.28125 C 0.515625,-2.578125 0.65625,-2.890625 0.953125,-3 c 0.125,-0.046875 0.25,-0.0625 0.375,-0.046875 0.25,0.015625 0.515625,0.125 0.671875,0.34375 0.109375,0.140625 0.140625,0.328125 0.109375,0.5 C 2.046875,-1.71875 1.625,-1.421875 1.28125,-1.15625 1,-0.9375 0.421875,-0.421875 0.421875,-0.421875 L 0.328125,-0.34375 C 0.28125,-0.296875 0.28125,-0.296875 0.28125,-0.1875 L 0.28125,0 2.5,0 l 0,-0.3125 -1.90625,0 C 0.796875,-0.484375 1.359375,-0.953125 1.53125,-1.078125 1.84375,-1.3125 2.1875,-1.546875 2.390625,-1.890625 2.609375,-2.28125 2.46875,-2.8125 2.125,-3.078125 c -0.375,-0.328125 -1.078125,-0.375 -1.5,-0.0625 -0.15625,0.109375 -0.265625,0.296875 -0.34375,0.46875 -0.015625,0.046875 -0.046875,0.09375 -0.046875,0.125 0.015625,0.03125 0.046875,0.0625 0.0625,0.078125 0.046875,0.0625 0.09375,0.125 0.140625,0.1875 z m 0,0" id="path28242"/>
      </g>
    </g>
    <clipPath id="clip1">
      <path d="m -135,667 612,0 0,-792 -612,0 0,792 z m 0,0" id="path28245"/>
    </clipPath>
    <clipPath id="clip2">
      <path d="m -1.230469,101.80078 359.999999,0 0,-101.999999 -359.999999,0 0,101.999999 z m 0,0" id="path28248"/>
    </clipPath>
  </defs>
  <g transform="translate(-258.34109,-0.99206228)" id="g28959">
    <path d="m 343.39844,50.859375 c 0,-8.648437 -3.4375,-16.9375 -9.55078,-23.050781 -6.11328,-6.113281 -14.40235,-9.550781 -23.04688,-9.550781 -8.64844,0 -16.9375,3.4375 -23.05078,9.550781 -6.11328,6.113281 -9.55078,14.402344 -9.55078,23.050781 0,8.644531 3.4375,16.933594 9.55078,23.046875 6.11328,6.113281 14.40234,9.550781 23.05078,9.550781 8.64453,0 16.9336,-3.4375 23.04688,-9.550781 6.11328,-6.113281 9.55078,-14.402344 9.55078,-23.046875 z m 0,0" id="path28331" style="fill:none;stroke:#000000;stroke-width:0.5;stroke-linecap:round;stroke-linejoin:round;stroke-miterlimit:10"/>
    <path d="m 305.12891,50.859375 11.33984,0" id="path28333" style="fill:none;stroke:#000000;stroke-width:0.5;stroke-linecap:round;stroke-linejoin:round;stroke-miterlimit:10"/>
    <path d="m 310.93359,52.085938 5.53516,-1.226563 -5.53516,-1.226562" id="path28335"/>
    <path d="m 310.93359,52.085938 5.53516,-1.226563 -5.53516,-1.226562 0,2.453125 z m 0,0" id="path28337" style="fill:none;stroke:#000000;stroke-width:0.5;stroke-linecap:round;stroke-linejoin:round;stroke-miterlimit:10"/>
    <path d="m 343.39844,50.859375 14.17187,0" id="path28339" style="fill:none;stroke:#000000;stroke-width:0.5;stroke-linecap:round;stroke-linejoin:round;stroke-miterlimit:10"/>
    <path d="m 352.03516,52.085938 5.53515,-1.226563 -5.53515,-1.226562" id="path28341"/>
    <path d="m 352.03516,52.085938 5.53515,-1.226563 -5.53515,-1.226562 0,2.453125 z m 0,0" id="path28343" style="fill:none;stroke:#000000;stroke-width:0.5;stroke-linecap:round;stroke-linejoin:round;stroke-miterlimit:10"/>
    <path d="m 333.84766,27.808594 9.1914,-12.027344" id="path28345" style="fill:none;stroke:#000000;stroke-width:0.5;stroke-linecap:round;stroke-linejoin:round;stroke-miterlimit:10"/>
    <path d="m 340.65625,20.925781 2.38281,-5.144531 -4.33594,3.652344" id="path28347"/>
    <path d="m 340.65625,20.925781 2.38281,-5.144531 -4.33593,3.652344 1.95312,1.492187 z m 0,0" id="path28349" style="fill:none;stroke:#000000;stroke-width:0.5;stroke-linecap:round;stroke-linejoin:round;stroke-miterlimit:10"/>
    <path d="M 310.80078,18.257813 307.96484,1.25391" id="path28351" style="fill:none;stroke:#000000;stroke-width:0.5;stroke-linecap:round;stroke-linejoin:round;stroke-miterlimit:10"/>
    <path d="m 310.08594,6.507813 -2.1211,-5.253907 -0.30078,5.660157" id="path28353"/>
    <path d="m 310.08594,6.507813 -2.1211,-5.253903 -0.30078,5.660153 2.42188,-0.40625 z m 0,0" id="path28355" style="fill:none;stroke:#000000;stroke-width:0.5;stroke-linecap:round;stroke-linejoin:round;stroke-miterlimit:10"/>
    <path d="M 287.74609,27.808594 272.88672,15.78125" id="path28357" style="fill:none;stroke:#000000;stroke-width:0.5;stroke-linecap:round;stroke-linejoin:round;stroke-miterlimit:10"/>
    <path d="m 277.96094,18.308594 -5.07422,-2.527344 3.53125,4.4375" id="path28359"/>
    <path d="m 277.96094,18.308594 -5.07422,-2.527344 3.53125,4.4375 1.54297,-1.910156 z m 0,0" id="path28361" style="fill:none;stroke:#000000;stroke-width:0.5;stroke-linecap:round;stroke-linejoin:round;stroke-miterlimit:10"/>
    <path d="m 278.19922,50.859375 -19.83984,0" id="path28363" style="fill:none;stroke:#000000;stroke-width:0.5;stroke-linecap:round;stroke-linejoin:round;stroke-miterlimit:10"/>
    <path d="m 263.89453,49.632813 -5.53516,1.226562 5.53516,1.226563" id="path28365"/>
    <path d="m 263.89453,49.632813 -5.53515,1.226562 5.53515,1.226563 0,-2.453125 z m 0,0" id="path28367" style="fill:none;stroke:#000000;stroke-width:0.5;stroke-linecap:round;stroke-linejoin:round;stroke-miterlimit:10"/>
    <path d="M 287.74609,73.90625 272.88672,85.933594" id="path28369" style="fill:none;stroke:#000000;stroke-width:0.5;stroke-linecap:round;stroke-linejoin:round;stroke-miterlimit:10"/>
    <path d="m 276.41797,81.5 -3.53125,4.433594 5.07422,-2.527344" id="path28371"/>
    <path d="m 276.41797,81.5 -3.53125,4.433594 5.07422,-2.527344 L 276.41797,81.5 z m 0,0" id="path28373" style="fill:none;stroke:#000000;stroke-width:0.5;stroke-linecap:round;stroke-linejoin:round;stroke-miterlimit:10"/>
    <path d="m 310.80078,83.457031 -2.83594,17.007809" id="path28375" style="fill:none;stroke:#000000;stroke-width:0.5;stroke-linecap:round;stroke-linejoin:round;stroke-miterlimit:10"/>
    <path d="m 307.66406,94.804688 0.30078,5.660152 2.1211,-5.257809" id="path28377"/>
    <path d="m 307.66406,94.804687 0.30078,5.660153 2.1211,-5.257809 -2.42188,-0.402344 z m 0,0" id="path28379" style="fill:none;stroke:#000000;stroke-width:0.5;stroke-linecap:round;stroke-linejoin:round;stroke-miterlimit:10"/>
    <path d="m 333.84766,73.90625 9.1914,12.027344" id="path28381" style="fill:none;stroke:#000000;stroke-width:0.5;stroke-linecap:round;stroke-linejoin:round;stroke-miterlimit:10"/>
    <path d="m 338.70312,82.28125 4.33594,3.652344 -2.38281,-5.140625" id="path28383"/>
    <path d="m 338.70313,82.28125 4.33593,3.652344 -2.38281,-5.140625 -1.95312,1.488281 z m 0,0" id="path28385" style="fill:none;stroke:#000000;stroke-width:0.5;stroke-linecap:round;stroke-linejoin:round;stroke-miterlimit:10"/>
    <g id="g28473">
      <use transform="translate(306.122,111.284)" id="use28475" x="0" y="0" width="358" height="113" xlink:href="#glyph0-1"/>
      <use transform="translate(309.13887,111.284)" id="use28477" x="0" y="0" width="358" height="113" xlink:href="#glyph0-6"/>
      <use transform="translate(312.58671,111.284)" id="use28479" x="0" y="0" width="358" height="113" xlink:href="#glyph0-3"/>
    </g>
    <g id="g28481">
      <use transform="translate(341.714,38.729)" id="use28483" x="0" y="0" width="358" height="113" xlink:href="#glyph1-1"/>
    </g>
    <g id="g28485">
      <use transform="translate(341.714,67.075)" id="use28487" x="0" y="0" width="358" height="113" xlink:href="#glyph1-1"/>
    </g>
    <g id="g28489">
      <use transform="translate(321.871,18.886)" id="use28491" x="0" y="0" width="358" height="113" xlink:href="#glyph1-1"/>
    </g>
    <g id="g28493">
      <use transform="translate(321.871,86.918)" id="use28495" x="0" y="0" width="358" height="113" xlink:href="#glyph1-1"/>
    </g>
    <g id="g28497">
      <use transform="translate(293.525,18.886)" id="use28499" x="0" y="0" width="358" height="113" xlink:href="#glyph1-1"/>
    </g>
    <g id="g28501">
      <use transform="translate(293.525,86.918)" id="use28503" x="0" y="0" width="358" height="113" xlink:href="#glyph1-1"/>
    </g>
    <g id="g28505">
      <use transform="translate(273.682,38.729)" id="use28507" x="0" y="0" width="358" height="113" xlink:href="#glyph1-1"/>
    </g>
    <g id="g28509">
      <use transform="translate(273.682,67.075)" id="use28511" x="0" y="0" width="358" height="113" xlink:href="#glyph1-1"/>
    </g>
    <g id="g28513">
      <use transform="translate(344.312,18.334)" id="use28515" x="0" y="0" width="358" height="113" xlink:href="#glyph2-1"/>
    </g>
    <g id="g28517">
      <use transform="translate(348.80034,18.334)" id="use28519" x="0" y="0" width="358" height="113" xlink:href="#glyph2-2"/>
    </g>
    <g id="g28521">
      <use transform="translate(309.139,58.44)" id="use28523" x="0" y="0" width="358" height="113" xlink:href="#glyph0-5"/>
    </g>
    <g id="g28525">
      <use transform="translate(308.826,58.44)" id="use28527" x="0" y="0" width="358" height="113" xlink:href="#glyph2-3"/>
    </g>
  </g>
</svg>
