<?xml version="1.0" encoding="UTF-8"?>
<svg xmlns="http://www.w3.org/2000/svg" xmlns:xlink="http://www.w3.org/1999/xlink" width="239.02301144450504pt" height="86.60254037844386pt" viewBox="0 0 138 50" version="1.1">
<defs>
<g>
<symbol overflow="visible" id="glyph0-0">
<path style="stroke:none;" d=""/>
</symbol>
<symbol overflow="visible" id="glyph0-1">
<path style="stroke:none;" d="M 1.59375 -2.453125 L 1.578125 -2.453125 C 1.640625 -2.71875 1.703125 -3 1.75 -3.296875 L 1.28125 -3.296875 L 0.578125 0 L 0.9375 0 C 0.96875 0 1.046875 0.015625 1.078125 -0.015625 C 1.09375 -0.03125 1.09375 -0.109375 1.109375 -0.140625 C 1.21875 -0.578125 1.375 -1.40625 1.46875 -1.78125 C 1.640625 -2.46875 2.390625 -2.90625 3.0625 -2.90625 L 3.15625 -3.34375 C 2.6875 -3.34375 2.265625 -3.140625 1.921875 -2.828125 C 1.828125 -2.75 1.640625 -2.5625 1.59375 -2.453125 Z M 1.59375 -2.453125 "/>
</symbol>
<symbol overflow="visible" id="glyph0-2">
<path style="stroke:none;" d="M 0.625 -0.90625 L 0.421875 -0.375 C 0.59375 -0.265625 0.78125 -0.15625 0.984375 -0.078125 C 1.703125 0.1875 2.5625 0.203125 3.25 -0.1875 C 3.71875 -0.453125 4.125 -0.90625 4.171875 -1.46875 C 4.171875 -1.5625 4.171875 -1.671875 4.15625 -1.765625 C 4.0625 -2.1875 3.71875 -2.484375 3.359375 -2.625 C 2.75 -2.828125 1.859375 -2.796875 1.6875 -3.421875 C 1.59375 -3.8125 1.9375 -4.140625 2.25 -4.328125 C 2.578125 -4.484375 2.9375 -4.546875 3.296875 -4.515625 C 3.671875 -4.5 3.953125 -4.390625 4.203125 -4.1875 C 4.265625 -4.15625 4.3125 -4.109375 4.359375 -4.0625 C 4.421875 -4.1875 4.46875 -4.328125 4.515625 -4.453125 C 4.546875 -4.53125 4.609375 -4.609375 4.5 -4.640625 C 4.109375 -4.859375 3.640625 -4.96875 3.03125 -4.9375 C 2.375 -4.90625 1.640625 -4.546875 1.3125 -3.9375 C 1.25 -3.8125 1.203125 -3.65625 1.1875 -3.5 C 1.125 -2.890625 1.609375 -2.546875 2 -2.40625 C 2.125 -2.359375 2.265625 -2.328125 2.390625 -2.3125 C 2.578125 -2.265625 2.984375 -2.171875 3.125 -2.125 C 3.34375 -2.046875 3.546875 -1.875 3.640625 -1.65625 C 3.8125 -1.1875 3.40625 -0.6875 3 -0.515625 C 2.265625 -0.140625 1.328125 -0.359375 0.796875 -0.78125 C 0.734375 -0.828125 0.6875 -0.875 0.625 -0.90625 Z M 0.625 -0.90625 "/>
</symbol>
<symbol overflow="visible" id="glyph0-3">
<path style="stroke:none;" d="M 1.75 -4.84375 L 0.734375 0 C 1.765625 0 2.875 0.015625 3.875 0 C 3.9375 -0.125 3.9375 -0.265625 3.96875 -0.40625 L 1.359375 -0.40625 L 2.28125 -4.84375 L 1.75 -4.84375 Z M 1.75 -4.84375 "/>
</symbol>
<symbol overflow="visible" id="glyph0-4">
<path style="stroke:none;" d="M 1.765625 -4.84375 L 0.734375 0 L 1.109375 0 C 1.140625 0 1.21875 0.015625 1.25 -0.015625 C 1.28125 -0.03125 1.28125 -0.09375 1.28125 -0.125 C 1.296875 -0.203125 1.6875 -2.046875 1.6875 -2.046875 C 1.703125 -2.109375 1.703125 -2.21875 1.78125 -2.21875 C 1.890625 -2.234375 2 -2.21875 2.109375 -2.21875 L 3.015625 -2.21875 C 3.046875 -2.21875 3.09375 -2.234375 3.125 -2.203125 C 3.15625 -2.171875 3.1875 -2.109375 3.203125 -2.0625 C 3.4375 -1.609375 4 -0.4375 4.140625 -0.15625 C 4.171875 -0.109375 4.1875 -0.03125 4.234375 -0.015625 C 4.265625 0.015625 4.328125 0 4.375 0 L 4.75 0 L 3.609375 -2.28125 C 3.765625 -2.296875 3.9375 -2.34375 4.078125 -2.40625 C 4.453125 -2.546875 4.828125 -2.75 5.078125 -3.078125 C 5.265625 -3.328125 5.375 -3.671875 5.25 -3.984375 C 5.09375 -4.515625 4.390625 -4.78125 3.828125 -4.828125 C 3.640625 -4.84375 3.4375 -4.84375 3.25 -4.84375 L 1.765625 -4.84375 Z M 1.8125 -2.609375 C 1.828125 -2.75 2.109375 -4.0625 2.171875 -4.28125 C 2.1875 -4.359375 2.171875 -4.421875 2.265625 -4.421875 L 2.953125 -4.421875 C 3.28125 -4.421875 3.59375 -4.4375 3.921875 -4.390625 C 4.34375 -4.34375 4.84375 -4.125 4.796875 -3.59375 C 4.765625 -3.171875 4.390625 -2.890625 4 -2.75 C 3.75 -2.65625 3.484375 -2.640625 3.21875 -2.609375 C 3.046875 -2.609375 2.890625 -2.609375 2.734375 -2.609375 L 1.8125 -2.609375 Z M 1.8125 -2.609375 "/>
</symbol>
<symbol overflow="visible" id="glyph0-5">
<path style="stroke:none;" d="M 4.15625 -0.796875 C 4.046875 -0.75 3.9375 -0.671875 3.828125 -0.625 C 3.546875 -0.5 3.28125 -0.40625 2.984375 -0.375 C 2.71875 -0.34375 2.453125 -0.328125 2.1875 -0.390625 C 1.921875 -0.46875 1.6875 -0.59375 1.515625 -0.78125 C 1.09375 -1.1875 1 -1.8125 1.109375 -2.375 C 1.28125 -3.28125 1.953125 -4.0625 2.8125 -4.375 C 3.265625 -4.53125 3.84375 -4.5 4.265625 -4.359375 C 4.515625 -4.25 4.453125 -4.265625 4.734375 -4.109375 L 4.9375 -4.640625 C 4.71875 -4.71875 4.515625 -4.78125 4.296875 -4.828125 C 3.953125 -4.90625 3.453125 -4.90625 3.109375 -4.859375 C 2.328125 -4.71875 1.734375 -4.296875 1.28125 -3.796875 C 0.65625 -3.078125 0.296875 -2 0.6875 -1.09375 C 0.75 -0.90625 0.859375 -0.734375 0.984375 -0.59375 C 1.375 -0.125 1.9375 0.09375 2.75 0.046875 C 3.234375 0.03125 3.5 -0.0625 3.890625 -0.234375 C 3.9375 -0.25 3.984375 -0.28125 4.03125 -0.296875 C 4.0625 -0.3125 4.078125 -0.328125 4.09375 -0.34375 C 4.125 -0.390625 4.15625 -0.78125 4.15625 -0.796875 Z M 4.15625 -0.796875 "/>
</symbol>
</g>
<clipPath id="clip1">
  <path d="M -236 667 L 376 667 L 376 -125 L -236 -125 L -236 667 Z M -236 667 "/>
</clipPath>
<clipPath id="clip2">
  <path d="M 0.175781 50.109375 L 139.074219 50.109375 L 139.074219 -0.199219 L 0.175781 -0.199219 L 0.175781 50.109375 Z M 0.175781 50.109375 "/>
</clipPath>
<clipPath id="clip3">
  <path d="M -236 667 L 376 667 L 376 -125 L -236 -125 L -236 667 Z M -236 667 "/>
</clipPath>
</defs>
<g id="surface0">
<g clip-path="url(#clip1)" clip-rule="nonzero">
<g clip-path="url(#clip2)" clip-rule="nonzero">
<path style="fill:none;stroke-width:5;stroke-linecap:butt;stroke-linejoin:round;stroke:rgb(13.730068%,12.159915%,12.54902%);stroke-opacity:1;stroke-miterlimit:4;" d="M 589.150914 398.325336 L 22.508542 398.325336 L 22.508542 265.817098 L 32.937762 255.423594 L 11.686441 239.994064 L 32.509164 224.171651 L 12.50792 209.5636 L 33.759242 195.419864 L 10.007765 179.168853 L 22.508542 173.311346 L 22.508542 48.339291 L 554.970218 48.339291 L 566.649515 60.018589 L 581.507582 31.731116 L 597.937175 57.697016 L 613.759587 28.480914 L 632.260737 56.232639 L 643.297138 27.552284 L 653.762074 48.339291 L 1198.331645 48.339291 L 1198.331645 167.275257 " transform="matrix(0.109368,0,0,-0.109368,0.175,50.111)"/>
<path style="fill:none;stroke-width:5;stroke-linecap:butt;stroke-linejoin:miter;stroke:rgb(13.730068%,12.159915%,12.54902%);stroke-opacity:1;stroke-miterlimit:4;" d="M 618.3313 398.325336 L 1198.331645 398.325336 L 1198.331645 277.103514 " transform="matrix(0.109368,0,0,-0.109368,0.175,50.111)"/>
<path style=" stroke:none;fill-rule:nonzero;fill:rgb(13.730068%,12.159915%,12.54902%);fill-opacity:1;" d="M 27.152344 6.546875 C 27.152344 7.453125 26.417969 8.1875 25.511719 8.1875 C 24.605469 8.1875 23.871094 7.453125 23.871094 6.546875 C 23.871094 5.640625 24.605469 4.90625 25.511719 4.90625 C 26.417969 4.90625 27.152344 5.640625 27.152344 6.546875 "/>
<path style="fill:none;stroke-width:5;stroke-linecap:butt;stroke-linejoin:miter;stroke:rgb(13.730068%,12.159915%,12.54902%);stroke-opacity:1;stroke-miterlimit:4;" d="M 240.986411 198.598633 C 240.986411 193.419739 236.771863 189.205192 231.557253 189.205192 C 226.342643 189.205192 222.128096 193.419739 222.128096 198.598633 C 222.128096 203.813243 226.342643 208.027791 231.557253 208.027791 C 236.771863 208.027791 240.986411 203.813243 240.986411 198.598633 Z M 240.986411 198.598633 " transform="matrix(0.109368,0,0,-0.109368,0.175,50.111)"/>
<path style="fill:none;stroke-width:5;stroke-linecap:butt;stroke-linejoin:miter;stroke:rgb(13.730068%,12.159915%,12.54902%);stroke-opacity:1;stroke-miterlimit:4;" d="M 243.915165 109.593099 C 243.915165 104.378489 239.700617 100.163942 234.486007 100.163942 C 229.307113 100.163942 225.056849 104.378489 225.056849 109.593099 C 225.056849 114.771993 229.307113 118.98654 234.486007 118.98654 C 239.700617 118.98654 243.915165 114.771993 243.915165 109.593099 Z M 243.915165 109.593099 " transform="matrix(0.109368,0,0,-0.109368,0.175,50.111)"/>
<path style=" stroke:none;fill-rule:nonzero;fill:rgb(13.730068%,12.159915%,12.54902%);fill-opacity:1;" d="M 108.476563 6.546875 C 108.476563 7.453125 107.742188 8.1875 106.835938 8.1875 C 105.929688 8.1875 105.195313 7.453125 105.195313 6.546875 C 105.195313 5.640625 105.929688 4.90625 106.835938 4.90625 C 107.742188 4.90625 108.476563 5.640625 108.476563 6.546875 "/>
<path style=" stroke:none;fill-rule:nonzero;fill:rgb(13.730068%,12.159915%,12.54902%);fill-opacity:1;" d="M 108.476563 44.960938 C 108.476563 45.867188 107.742188 46.601563 106.835938 46.601563 C 105.929688 46.601563 105.195313 45.867188 105.195313 44.960938 C 105.195313 44.054688 105.929688 43.320313 106.835938 43.320313 C 107.742188 43.320313 108.476563 44.054688 108.476563 44.960938 "/>
<path style=" stroke:none;fill-rule:nonzero;fill:rgb(13.730068%,12.159915%,12.54902%);fill-opacity:1;" d="M 27.460938 44.960938 C 27.460938 45.867188 26.726563 46.601563 25.820313 46.601563 C 24.914063 46.601563 24.179688 45.867188 24.179688 44.960938 C 24.179688 44.054688 24.914063 43.320313 25.820313 43.320313 C 26.726563 43.320313 27.460938 44.054688 27.460938 44.960938 "/>
<path style="fill:none;stroke-width:5;stroke-linecap:butt;stroke-linejoin:miter;stroke:rgb(13.730068%,12.159915%,12.54902%);stroke-opacity:1;stroke-miterlimit:4;" d="M 975.246347 128.915729 L 975.246347 47.089213 " transform="matrix(0.109368,0,0,-0.109368,0.175,50.111)"/>
<path style="fill:none;stroke-width:5;stroke-linecap:butt;stroke-linejoin:miter;stroke:rgb(13.730068%,12.159915%,12.54902%);stroke-opacity:1;stroke-miterlimit:4;" d="M 975.246347 398.325336 L 975.246347 292.997359 " transform="matrix(0.109368,0,0,-0.109368,0.175,50.111)"/>
<path style="fill:none;stroke-width:5;stroke-linecap:butt;stroke-linejoin:miter;stroke:rgb(13.730068%,12.159915%,12.54902%);stroke-opacity:1;stroke-miterlimit:4;" d="M 975.353496 295.390365 C 984.675504 295.390365 992.211687 287.818466 992.211687 278.496457 C 992.211687 269.174449 984.675504 261.638266 975.353496 261.638266 " transform="matrix(0.109368,0,0,-0.109368,0.175,50.111)"/>
<path style="fill:none;stroke-width:5;stroke-linecap:butt;stroke-linejoin:miter;stroke:rgb(13.730068%,12.159915%,12.54902%);stroke-opacity:1;stroke-miterlimit:4;" d="M 975.353496 261.745416 C 984.675504 261.745416 992.211687 254.209233 992.211687 244.887225 C 992.211687 235.565217 984.675504 227.993318 975.353496 227.993318 " transform="matrix(0.109368,0,0,-0.109368,0.175,50.111)"/>
<path style="fill:none;stroke-width:5;stroke-linecap:butt;stroke-linejoin:miter;stroke:rgb(13.730068%,12.159915%,12.54902%);stroke-opacity:1;stroke-miterlimit:4;" d="M 975.353496 228.100467 C 984.675504 228.100467 992.211687 220.528568 992.211687 211.20656 C 992.211687 201.884551 984.675504 194.348369 975.353496 194.348369 " transform="matrix(0.109368,0,0,-0.109368,0.175,50.111)"/>
<path style="fill:none;stroke-width:5;stroke-linecap:butt;stroke-linejoin:miter;stroke:rgb(13.730068%,12.159915%,12.54902%);stroke-opacity:1;stroke-miterlimit:4;" d="M 975.353496 194.491235 C 984.675504 194.491235 992.211687 186.919335 992.211687 177.633044 C 992.211687 168.311036 984.675504 160.739136 975.353496 160.739136 " transform="matrix(0.109368,0,0,-0.109368,0.175,50.111)"/>
<path style="fill:none;stroke-width:5;stroke-linecap:butt;stroke-linejoin:miter;stroke:rgb(13.730068%,12.159915%,12.54902%);stroke-opacity:1;stroke-miterlimit:4;" d="M 975.353496 160.524837 C 984.675504 160.524837 992.211687 152.952938 992.211687 143.666646 C 992.211687 134.344638 984.675504 126.772739 975.353496 126.772739 " transform="matrix(0.109368,0,0,-0.109368,0.175,50.111)"/>
<path style="fill:none;stroke-width:5;stroke-linecap:butt;stroke-linejoin:miter;stroke:rgb(13.730068%,12.159915%,12.54902%);stroke-opacity:1;stroke-miterlimit:4;" d="M 231.664403 319.57044 L 231.664403 207.349177 " transform="matrix(0.109368,0,0,-0.109368,0.175,50.111)"/>
<path style="fill:none;stroke-width:5;stroke-linecap:butt;stroke-linejoin:miter;stroke:rgb(13.730068%,12.159915%,12.54902%);stroke-opacity:1;stroke-miterlimit:4;" d="M 231.664403 398.325336 L 231.664403 342.714736 " transform="matrix(0.109368,0,0,-0.109368,0.175,50.111)"/>
<path style="fill:none;stroke-width:5;stroke-linecap:butt;stroke-linejoin:miter;stroke:rgb(13.730068%,12.159915%,12.54902%);stroke-opacity:1;stroke-miterlimit:4;" d="M 188.340281 342.714736 L 272.702669 342.714736 " transform="matrix(0.109368,0,0,-0.109368,0.175,50.111)"/>
<path style="fill:none;stroke-width:5;stroke-linecap:butt;stroke-linejoin:miter;stroke:rgb(13.730068%,12.159915%,12.54902%);stroke-opacity:1;stroke-miterlimit:4;" d="M 589.150914 444.89966 L 589.150914 357.751385 " transform="matrix(0.109368,0,0,-0.109368,0.175,50.111)"/>
<path style="fill:none;stroke-width:5;stroke-linecap:butt;stroke-linejoin:miter;stroke:rgb(13.730068%,12.159915%,12.54902%);stroke-opacity:1;stroke-miterlimit:4;" d="M 618.3313 444.89966 L 618.3313 357.751385 " transform="matrix(0.109368,0,0,-0.109368,0.175,50.111)"/>
<path style="fill:none;stroke-width:5;stroke-linecap:butt;stroke-linejoin:miter;stroke:rgb(13.730068%,12.159915%,12.54902%);stroke-opacity:1;stroke-miterlimit:4;" d="M 212.091757 319.57044 L 250.844167 319.57044 " transform="matrix(0.109368,0,0,-0.109368,0.175,50.111)"/>
<path style="fill:none;stroke-width:5;stroke-linecap:butt;stroke-linejoin:miter;stroke:rgb(13.730068%,12.159915%,12.54902%);stroke-opacity:1;stroke-miterlimit:4;" d="M 229.950011 117.772179 L 189.590359 190.419553 " transform="matrix(0.109368,0,0,-0.109368,0.175,50.111)"/>
<path style="fill:none;stroke-width:5;stroke-linecap:butt;stroke-linejoin:miter;stroke:rgb(13.730068%,12.159915%,12.54902%);stroke-opacity:1;stroke-miterlimit:4;" d="M 234.486007 47.089213 L 234.486007 100.163942 " transform="matrix(0.109368,0,0,-0.109368,0.175,50.111)"/>
<path style="fill:none;stroke-width:5;stroke-linecap:butt;stroke-linejoin:miter;stroke:rgb(13.730068%,12.159915%,12.54902%);stroke-opacity:1;stroke-miterlimit:4;" d="M 1255.335189 222.207244 C 1255.335189 191.848213 1230.726516 167.203824 1200.367486 167.203824 C 1169.972739 167.203824 1145.364066 191.848213 1145.364066 222.207244 C 1145.364066 252.566274 1169.972739 277.210663 1200.367486 277.210663 C 1230.726516 277.210663 1255.335189 252.566274 1255.335189 222.207244 Z M 1255.335189 222.207244 " transform="matrix(0.109368,0,0,-0.109368,0.175,50.111)"/>
<path style="fill:none;stroke-width:5;stroke-linecap:butt;stroke-linejoin:round;stroke:rgb(13.730068%,12.159915%,12.54902%);stroke-opacity:1;stroke-miterlimit:4;" d="M 1162.079391 214.278179 L 1166.151073 245.208674 L 1184.58079 190.812435 L 1196.795835 238.636836 L 1212.0825 198.312901 L 1221.154492 232.064999 L 1233.333821 204.563289 L 1241.762916 227.064688 L 1248.191888 220.671434 L 1255.299472 220.671434 " transform="matrix(0.109368,0,0,-0.109368,0.175,50.111)"/>
<path style="fill:none;stroke-width:3.8;stroke-linecap:butt;stroke-linejoin:round;stroke:rgb(13.730068%,12.159915%,12.54902%);stroke-opacity:1;stroke-miterlimit:4;" d="M 572.507022 10.01548 L 629.581999 67.090457 " transform="matrix(0.109368,0,0,-0.109368,0.175,50.111)"/>
<path style=" stroke:none;fill-rule:nonzero;fill:rgb(13.730068%,12.159915%,12.54902%);fill-opacity:1;" d="M 69.226563 43.84375 L 70.976563 40.816406 L 67.945313 42.5625 L 69.226563 43.84375 "/>
</g>
</g>
<g clip-path="url(#clip3)" clip-rule="nonzero">
<g style="fill:rgb(0%,0%,0%);fill-opacity:1;">
  <use xlink:href="#glyph0-1" x="4.994" y="27.749"/>
</g>
<g style="fill:rgb(0%,0%,0%);fill-opacity:1;">
  <use xlink:href="#glyph0-2" x="28.238" y="35.723"/>
</g>
<g style="fill:rgb(0%,0%,0%);fill-opacity:1;">
  <use xlink:href="#glyph0-3" x="100.833" y="29.601"/>
</g>
<g style="fill:rgb(0%,0%,0%);fill-opacity:1;">
  <use xlink:href="#glyph0-4" x="59.202" y="42.174"/>
</g>
<g style="fill:rgb(0%,0%,0%);fill-opacity:1;">
  <use xlink:href="#glyph0-5" x="69.34" y="5.041"/>
</g>
</g>
</g>
</svg>
