<?xml version="1.0" encoding="UTF-8" standalone="no"?>
<svg xmlns="http://www.w3.org/2000/svg" xmlns:xlink="http://www.w3.org/1999/xlink" version="1.1" width="254.9pt" height="135.9pt" viewBox="0 0 183.54366 97.860127">
 <metadata id="metadata247"/>
 <defs id="defs22575">
  <g id="g22577">
   <g id="glyph0-1">
    <path d="M 2.578125,1.546875 C 2.546875,1.5 2.5,1.46875 2.453125,1.4375 1.6875,0.75 1.21875,-0.3125 1.171875,-1.59375 c -0.03125,-0.875 0.125,-1.78125 0.53125,-2.5625 0.203125,-0.375 0.4375,-0.6875 0.75,-0.953125 C 2.5,-5.15625 2.546875,-5.1875 2.578125,-5.21875 l -0.25,0 c -0.15625,0 -0.140625,0 -0.25,0.078125 -0.359375,0.28125 -0.65625,0.65625 -0.890625,1.078125 -0.65625,1.234375 -0.703125,2.90625 -0.09375,4.25 0.21875,0.5 0.5625,0.921875 0.984375,1.28125 0.09375,0.0625 0.09375,0.078125 0.25,0.078125 l 0.25,0 z m 0,0" id="path22581"/>
   </g>
   <g id="glyph0-2">
    <path d="m 0.640625,-2.640625 c 0.125,-0.0625 0.21875,-0.140625 0.34375,-0.203125 C 1.203125,-2.9375 1.4375,-2.984375 1.6875,-3 1.75,-3.015625 1.828125,-3.015625 1.90625,-3.015625 c 0.28125,0.046875 0.515625,0.234375 0.59375,0.5 0.078125,0.203125 0.046875,0.453125 0.046875,0.65625 -0.359375,0 -0.734375,0.03125 -1.09375,0.125 -0.5,0.125 -1.125,0.375 -1.0625,1.015625 0.046875,0.28125 0.203125,0.5625 0.46875,0.703125 C 1.03125,0.0625 1.234375,0.0625 1.4375,0.046875 1.734375,0.015625 2.0625,-0.0625 2.3125,-0.25 c 0.09375,-0.0625 0.171875,-0.140625 0.25,-0.21875 l 0,0.46875 0.484375,0 0,-1.828125 c 0,-0.1875 0.03125,-0.390625 -0.015625,-0.59375 -0.0625,-0.484375 -0.5,-0.84375 -0.953125,-0.9375 -0.28125,-0.046875 -0.71875,0.015625 -0.953125,0.0625 -0.078125,0.03125 -0.46875,0.15625 -0.5,0.21875 -0.03125,0.03125 -0.015625,0.09375 -0.015625,0.125 0.015625,0.109375 0.03125,0.203125 0.03125,0.3125 z m 1.90625,1.015625 0,0.515625 c 0,0.140625 0,0.265625 -0.0625,0.390625 -0.078125,0.140625 -0.21875,0.25 -0.375,0.296875 -0.328125,0.125 -0.78125,0.140625 -1.0625,-0.09375 C 0.96875,-0.5625 0.90625,-0.640625 0.890625,-0.75 0.8125,-1.046875 1.078125,-1.28125 1.3125,-1.390625 1.640625,-1.546875 2.109375,-1.625 2.546875,-1.625 z m 0,0" id="path22584"/>
   </g>
   <g id="glyph0-3">
    <path d="m 0.4375,-5.21875 c 0.03125,0.03125 0.078125,0.0625 0.125,0.109375 0.859375,0.765625 1.328125,2 1.265625,3.515625 -0.015625,0.75 -0.203125,1.5 -0.5625,2.15625 C 1.078125,0.890625 0.84375,1.1875 0.5625,1.4375 0.515625,1.46875 0.46875,1.5 0.4375,1.546875 l 0.25,0 c 0.15625,0 0.140625,0 0.234375,-0.078125 0.375,-0.296875 0.671875,-0.671875 0.890625,-1.078125 0.671875,-1.25 0.71875,-2.90625 0.109375,-4.25 C 1.6875,-4.375 1.359375,-4.796875 0.9375,-5.140625 0.84375,-5.21875 0.84375,-5.21875 0.6875,-5.21875 l -0.25,0 z m 0,0" id="path22587"/>
   </g>
   <g id="glyph0-4">
    <path d="m 0.734375,-4.84375 0,4.84375 3.15625,0 0,-0.40625 -2.625,0 0,-4.4375 -0.53125,0 z m 0,0" id="path22590"/>
   </g>
   <g id="glyph0-5">
    <path d="m 0.734375,-4.84375 0,4.84375 0.53125,0 0,-4.84375 -0.53125,0 z m 0,0" id="path22593"/>
   </g>
   <g id="glyph0-6">
    <path d="M 0.75,-4.84375 0.75,0 l 0.484375,0 0,-4.40625 0,0 0.203125,0.34375 1.578125,2.75 C 3.265625,-0.875 3.5,-0.4375 3.75,-0.015625 3.96875,0.03125 4.25,-0.015625 4.484375,0 l 0,-4.84375 L 4,-4.84375 4,-0.421875 2.1875,-3.59375 C 1.953125,-4 1.734375,-4.4375 1.484375,-4.828125 c -0.203125,-0.03125 -0.5,0 -0.734375,-0.015625 z m 0,0" id="path22596"/>
   </g>
   <g id="glyph0-7">
    <path d="m 0.734375,-4.828125 0,4.828125 3.59375,0 0,-0.4375 -3.0625,0 0,-1.859375 2.734375,0 0,-0.40625 -2.734375,0 0,-1.703125 2.9375,0 0,-0.421875 -3.46875,0 z m 0,0" id="path22599"/>
   </g>
   <g id="glyph0-8">
    <path d="m 0.4375,-0.90625 c -0.015625,0.0625 -0.109375,0.5 -0.09375,0.53125 0.015625,0.015625 0.046875,0.03125 0.0625,0.046875 L 0.578125,-0.25 c 0.65625,0.34375 1.78125,0.546875 2.53125,0.125 C 3.5,-0.328125 3.875,-0.765625 3.875,-1.296875 c 0,-0.71875 -0.578125,-1.15625 -1.078125,-1.328125 -0.140625,-0.046875 -0.65625,-0.15625 -0.75,-0.171875 -0.359375,-0.078125 -0.75,-0.171875 -1,-0.46875 -0.03125,-0.046875 -0.0625,-0.09375 -0.078125,-0.15625 -0.203125,-0.453125 0.15625,-0.84375 0.578125,-1 C 2,-4.59375 2.578125,-4.546875 2.984375,-4.375 3.09375,-4.328125 3.21875,-4.265625 3.3125,-4.1875 c 0.0625,0.03125 0.125,0.078125 0.1875,0.125 0.03125,-0.125 0.046875,-0.265625 0.0625,-0.390625 0.015625,-0.09375 0.0625,-0.15625 -0.046875,-0.1875 L 3.34375,-4.71875 c -0.765625,-0.3125 -1.796875,-0.359375 -2.453125,0.203125 -0.09375,0.0625 -0.171875,0.15625 -0.25,0.25 -0.203125,0.28125 -0.296875,0.71875 -0.09375,1.109375 0.171875,0.34375 0.46875,0.578125 0.84375,0.71875 0.15625,0.046875 0.296875,0.078125 0.453125,0.109375 C 2,-2.28125 2.5625,-2.171875 2.65625,-2.125 2.921875,-2.03125 3.1875,-1.859375 3.3125,-1.59375 3.375,-1.484375 3.390625,-1.375 3.390625,-1.203125 3.34375,-0.78125 2.96875,-0.5 2.59375,-0.390625 1.984375,-0.21875 1.296875,-0.40625 0.84375,-0.640625 0.703125,-0.71875 0.578125,-0.828125 0.4375,-0.90625 z m 0,0" id="path22602"/>
   </g>
   <g id="glyph0-9">
    <path d="M 1,-4.03125 C 0.265625,-3.125 0.234375,-1.75 0.96875,-0.84375 1.28125,-0.4375 1.703125,-0.140625 2.234375,0.015625 3.71875,0.421875 4.921875,-0.546875 5.25,-1.65625 5.53125,-2.578125 5.25,-3.640625 4.53125,-4.3125 4.171875,-4.640625 3.65625,-4.90625 3.046875,-4.9375 2.125,-5.015625 1.421875,-4.53125 1,-4.03125 z m 2.484375,-0.421875 c 0.484375,0.15625 0.875,0.484375 1.109375,0.921875 0.140625,0.265625 0.203125,0.5625 0.234375,0.859375 0.0625,0.828125 -0.28125,1.734375 -1.03125,2.140625 -0.375,0.203125 -0.828125,0.296875 -1.3125,0.1875 -0.328125,-0.078125 -0.625,-0.25 -0.84375,-0.453125 C 1.21875,-1.1875 1,-1.765625 0.96875,-2.328125 0.90625,-3.34375 1.421875,-4.109375 2.140625,-4.390625 2.5625,-4.5625 3.03125,-4.59375 3.484375,-4.453125 z m 0,0" id="path22605"/>
   </g>
   <g id="glyph0-10">
    <path d="m 0.734375,-4.828125 0,4.828125 0.53125,0 0,-2.203125 2.515625,0 0,-0.421875 -2.515625,0 0,-1.78125 2.84375,0 0,-0.421875 -3.375,0 z m 0,0" id="path22608"/>
   </g>
   <g id="glyph0-11">
    <path d="m 0.578125,-4.84375 0,4.84375 0.515625,0 0,-0.46875 0,0 c 0.0625,0.109375 0.171875,0.203125 0.265625,0.28125 0.3125,0.25 0.828125,0.328125 1.28125,0.109375 0.203125,-0.109375 0.375,-0.28125 0.515625,-0.46875 C 3.84375,-1.5 3.421875,-3.09375 2.453125,-3.3125 c -0.125,-0.046875 -0.28125,-0.046875 -0.421875,-0.015625 -0.40625,0.046875 -0.71875,0.25 -0.953125,0.5 l 0,-2.015625 -0.5,0 z M 1.8125,-2.953125 c 0.328125,-0.03125 0.703125,0.109375 0.921875,0.375 0.171875,0.21875 0.234375,0.5 0.234375,0.765625 0.03125,0.375 -0.015625,0.78125 -0.25,1.078125 -0.203125,0.265625 -0.53125,0.375 -0.84375,0.40625 -0.265625,0 -0.5,-0.09375 -0.671875,-0.3125 C 1.171875,-0.6875 1.125,-0.75 1.09375,-0.8125 c 0,-0.046875 0,-0.09375 0,-0.125 l 0,-1.390625 c 0,-0.0625 -0.015625,-0.140625 0.015625,-0.203125 0.03125,-0.078125 0.09375,-0.125 0.15625,-0.1875 0.15625,-0.125 0.34375,-0.21875 0.546875,-0.234375 z m 0,0" id="path22611"/>
   </g>
   <g id="glyph0-12">
    <path d="m 0.625,-3.203125 c 0.109375,-0.40625 0.28125,-0.84375 0.71875,-1 0.15625,-0.0625 0.328125,-0.078125 0.515625,-0.0625 0.359375,0.03125 0.71875,0.171875 0.9375,0.484375 0.140625,0.203125 0.1875,0.453125 0.15625,0.703125 C 2.875,-2.40625 2.28125,-1.984375 1.796875,-1.609375 1.40625,-1.3125 0.59375,-0.59375 0.59375,-0.59375 l -0.140625,0.109375 c -0.0625,0.078125 -0.0625,0.0625 -0.0625,0.21875 l 0,0.265625 3.09375,0 0,-0.4375 -2.640625,0 c 0.265625,-0.234375 1.0625,-0.90625 1.296875,-1.078125 0.4375,-0.328125 0.921875,-0.640625 1.203125,-1.125 0.296875,-0.5625 0.109375,-1.28125 -0.375,-1.671875 -0.53125,-0.453125 -1.5,-0.515625 -2.09375,-0.078125 -0.21875,0.15625 -0.375,0.40625 -0.484375,0.65625 -0.015625,0.0625 -0.0625,0.125 -0.0625,0.1875 0.015625,0.03125 0.0625,0.0625 0.078125,0.109375 0.0625,0.078125 0.140625,0.171875 0.21875,0.234375 z m 0,0" id="path22614"/>
   </g>
   <g id="glyph0-13">
    <path d="m 0.21875,-1.21875 2.125,0 0,1.21875 0.46875,0 0,-1.21875 0.84375,0 0,-0.421875 -0.84375,0 0,-3 -0.390625,0 c -0.046875,0 -0.125,-0.015625 -0.15625,0.015625 -0.0625,0.046875 -0.15625,0.21875 -0.1875,0.234375 L 1.671875,-3.78125 C 1.515625,-3.546875 0.375,-1.875 0.296875,-1.75 0.21875,-1.671875 0.21875,-1.640625 0.21875,-1.5 l 0,0.28125 z m 2.140625,-2.96875 0,2.546875 -1.640625,0 1.046875,-1.546875 c 0.1875,-0.328125 0.421875,-0.640625 0.59375,-1 z m 0,0" id="path22617"/>
   </g>
   <g id="glyph0-14">
    <path d="M 1.828125,-4.6875 C 1.671875,-4.65625 1.5,-4.640625 1.359375,-4.5625 0.625,-4.28125 0.375,-3.34375 0.375,-2.40625 c 0,0.140625 0,0.28125 0,0.4375 0.015625,0.640625 0.171875,1.28125 0.53125,1.671875 0.3125,0.3125 0.765625,0.4375 1.1875,0.40625 0.265625,-0.03125 0.484375,-0.125 0.671875,-0.25 C 3.359375,-0.5625 3.5,-1.421875 3.5,-2.359375 3.5,-3.125 3.359375,-3.8125 2.984375,-4.234375 2.703125,-4.546875 2.265625,-4.71875 1.828125,-4.6875 z m 0.59375,0.515625 C 2.5,-4.125 2.5625,-4.078125 2.625,-4.015625 c 0.265625,0.25 0.34375,0.75 0.359375,1.21875 0,0.09375 0,0.1875 0,0.28125 l 0,0.359375 c 0,0.59375 -0.046875,1.171875 -0.3125,1.53125 -0.34375,0.453125 -1.09375,0.46875 -1.453125,0.015625 C 1.125,-0.703125 1.078125,-0.828125 1.03125,-0.9375 0.90625,-1.296875 0.875,-1.734375 0.875,-2.1875 l 0,-0.359375 c 0,-0.09375 0.015625,-0.171875 0.015625,-0.265625 0,-0.546875 0.140625,-1.09375 0.5,-1.328125 0.28125,-0.171875 0.703125,-0.21875 1.03125,-0.03125 z m 0,0" id="path22620"/>
   </g>
   <g id="glyph0-15">
    <path d="m 0.65625,-4.578125 0,2.546875 0.296875,0 c 0.046875,0 0.09375,0.015625 0.140625,-0.015625 0.03125,-0.015625 0.0625,-0.0625 0.078125,-0.09375 0.046875,-0.0625 0.09375,-0.125 0.15625,-0.171875 0.296875,-0.234375 0.765625,-0.3125 1.125,-0.140625 0.390625,0.171875 0.5,0.625 0.5,1.015625 0,0.25 -0.046875,0.5 -0.171875,0.703125 C 2.5,-0.3125 1.921875,-0.21875 1.453125,-0.328125 1.0625,-0.421875 0.78125,-0.640625 0.578125,-0.921875 l -0.015625,0 c -0.015625,0.03125 -0.21875,0.3125 -0.21875,0.34375 0,0.03125 0.03125,0.046875 0.046875,0.0625 C 0.625,-0.28125 0.84375,-0.109375 1.1875,0 1.828125,0.21875 2.578125,0.109375 3.0625,-0.390625 3.28125,-0.625 3.421875,-0.90625 3.46875,-1.21875 3.59375,-2.09375 2.953125,-3.015625 1.875,-2.921875 1.5625,-2.890625 1.359375,-2.765625 1.140625,-2.59375 l 0,-1.5625 2.078125,0 0,-0.421875 -2.5625,0 z m 0,0" id="path22623"/>
   </g>
   <g id="glyph0-16">
    <path d="m 0.78125,-4.21875 0,0.390625 c 0.34375,0 0.6875,-0.0625 1,-0.203125 l 0,3.640625 -0.96875,0 0,0.390625 2.4375,0 0,-0.390625 -0.96875,0 0,-4.296875 c -0.03125,0 -0.09375,0 -0.125,0.015625 C 2.109375,-4.65625 2.0625,-4.59375 2.015625,-4.5625 1.734375,-4.328125 1.21875,-4.21875 0.78125,-4.21875 z m 0,0" id="path22626"/>
   </g>
   <g id="glyph0-17">
    <path d="M 3.1875,-0.796875 C 3.125,-0.765625 3.078125,-0.71875 3.03125,-0.6875 2.9375,-0.625 2.84375,-0.5625 2.734375,-0.515625 2.3125,-0.3125 1.671875,-0.265625 1.296875,-0.5625 1.03125,-0.75 0.859375,-1.109375 0.84375,-1.5 0.8125,-1.953125 0.921875,-2.453125 1.296875,-2.75 1.5,-2.90625 1.765625,-3 2.140625,-2.96875 2.46875,-2.9375 2.65625,-2.890625 2.921875,-2.75 c 0.0625,0.03125 0.109375,0.078125 0.171875,0.09375 L 3.171875,-3.078125 C 3.015625,-3.15625 2.875,-3.234375 2.703125,-3.28125 c -0.40625,-0.140625 -1.03125,-0.125 -1.390625,0.046875 -0.34375,0.15625 -0.625,0.4375 -0.796875,0.765625 -0.25,0.5 -0.25,1.109375 0,1.625 0.09375,0.1875 0.21875,0.359375 0.390625,0.5 0.46875,0.4375 1.1875,0.484375 1.78125,0.28125 0.140625,-0.0625 0.265625,-0.125 0.390625,-0.203125 0.046875,-0.03125 0.109375,-0.0625 0.125,-0.09375 C 3.21875,-0.40625 3.1875,-0.796875 3.1875,-0.796875 z m 0,0" id="path22629"/>
   </g>
   <g id="glyph1-1">
    <path d="M 1.671875,-4.84375 0.640625,0 l 1.6875,0 c 0.203125,0 0.421875,0 0.625,0 0.65625,-0.0625 1.234375,-0.296875 1.5625,-0.75 0.265625,-0.375 0.4375,-0.984375 0.09375,-1.375 -0.203125,-0.25 -0.5,-0.34375 -0.84375,-0.40625 C 3.875,-2.5625 3.96875,-2.578125 4.0625,-2.609375 4.328125,-2.703125 4.578125,-2.828125 4.765625,-3.03125 5.09375,-3.390625 5.21875,-3.984375 4.90625,-4.375 4.8125,-4.5 4.671875,-4.59375 4.53125,-4.65625 c -0.375,-0.1875 -0.8125,-0.1875 -1.234375,-0.1875 l -1.625,0 z m 0.359375,2.109375 0.328125,-1.578125 0.671875,0 c 0.453125,0 0.90625,0 1.125,0.265625 0.296875,0.296875 0.0625,0.78125 -0.21875,1 -0.34375,0.296875 -0.828125,0.3125 -1.25,0.3125 l -0.65625,0 z M 1.5625,-0.515625 C 1.578125,-0.65625 1.90625,-2.15625 1.90625,-2.15625 1.921875,-2.21875 1.921875,-2.296875 2,-2.296875 l 0.953125,0 c 0.375,0.015625 0.859375,0.09375 1,0.484375 0.15625,0.34375 -0.015625,0.75 -0.25,0.96875 C 3.578125,-0.75 3.4375,-0.671875 3.28125,-0.625 3,-0.515625 2.703125,-0.515625 2.40625,-0.515625 l -0.84375,0 z m 0,0" id="path22633"/>
   </g>
   <g id="glyph1-2">
    <path d="M 0.640625,0 3.1875,0 c 0.296875,-0.015625 0.640625,0.03125 0.90625,-0.015625 0.078125,-0.1875 0.09375,-0.4375 0.140625,-0.65625 C 3.375,-0.65625 2.484375,-0.65625 1.625,-0.640625 1.703125,-1.03125 1.796875,-1.40625 1.875,-1.796875 L 1.9375,-2.09375 c 0,-0.03125 0,-0.09375 0.03125,-0.109375 C 2,-2.234375 2.078125,-2.21875 2.125,-2.21875 l 2.140625,0 0.125,-0.5625 -2.3125,0 0.296875,-1.421875 2.515625,0.015625 0.140625,-0.625 -2.484375,0 c -0.28125,0.015625 -0.625,-0.03125 -0.875,0.015625 l -0.03125,0.09375 -1,4.703125 z m 0,0" id="path22636"/>
   </g>
   <g id="glyph1-3">
    <path d="m 1.703125,-4.84375 -0.15625,0.765625 0.765625,0 c 0.046875,-0.25 0.09375,-0.5 0.140625,-0.765625 l -0.75,0 z M 1.375,-3.296875 C 1.359375,-3.171875 1.328125,-3.0625 1.3125,-2.953125 1.109375,-2.0625 0.765625,-0.34375 0.640625,0.234375 0.609375,0.34375 0.609375,0.484375 0.53125,0.578125 0.375,0.734375 0,0.78125 -0.265625,0.671875 -0.34375,0.65625 -0.40625,0.609375 -0.46875,0.578125 L -0.671875,1.03125 c 0.109375,0.0625 0.25,0.109375 0.390625,0.140625 0.5,0.125 1.140625,0.09375 1.453125,-0.375 C 1.3125,0.609375 1.359375,0.390625 1.40625,0.15625 1.53125,-0.453125 2.125,-3.234375 2.125,-3.296875 l -0.75,0 z m 0,0" id="path22639"/>
   </g>
   <g id="glyph2-1">
    <path d="m 1.9375,-1.4375 -1.453125,0 c -0.03125,0 -0.078125,0 -0.109375,0.015625 -0.046875,0.015625 -0.078125,0.0625 -0.078125,0.109375 0,0.046875 0.03125,0.09375 0.078125,0.109375 0.03125,0 0.078125,0 0.109375,0 l 1.453125,0 0,1.453125 c 0,0.046875 0,0.078125 0.015625,0.109375 0.015625,0.046875 0.0625,0.09375 0.109375,0.09375 0.046875,0 0.09375,-0.046875 0.109375,-0.09375 0,-0.03125 0,-0.0625 0,-0.109375 l 0,-1.453125 1.453125,0 c 0.03125,0 0.078125,0 0.109375,0 C 3.78125,-1.21875 3.8125,-1.265625 3.8125,-1.3125 3.8125,-1.359375 3.78125,-1.40625 3.734375,-1.421875 3.703125,-1.4375 3.65625,-1.4375 3.625,-1.4375 l -1.453125,0 0,-1.453125 c 0,-0.03125 0,-0.0625 0,-0.109375 C 2.15625,-3.046875 2.109375,-3.078125 2.0625,-3.078125 2.015625,-3.078125 1.96875,-3.046875 1.953125,-3 1.9375,-2.953125 1.9375,-2.921875 1.9375,-2.890625 l 0,1.453125 z m 0,0" id="path22643"/>
   </g>
   <g id="glyph3-1">
    <path d="m 0.53125,-1.421875 c -0.109375,0.03125 -0.125,0.1875 -0.015625,0.21875 0.03125,0 0.0625,0 0.09375,0 l 2.8125,0 c 0.0625,0 0.15625,0.015625 0.21875,-0.03125 0.0625,-0.0625 0.03125,-0.171875 -0.0625,-0.1875 -0.0625,-0.015625 -0.125,-0.015625 -0.1875,-0.015625 l -2.765625,0 c -0.03125,0 -0.0625,0 -0.09375,0.015625 z m 0,0" id="path22647"/>
   </g>
   <g id="glyph4-1">
    <path d="m 1.59375,-2.453125 -0.015625,0 C 1.640625,-2.71875 1.703125,-3 1.75,-3.296875 l -0.46875,0 L 0.578125,0 0.9375,0 C 0.96875,0 1.046875,0.015625 1.078125,-0.015625 1.09375,-0.03125 1.09375,-0.109375 1.109375,-0.140625 1.21875,-0.578125 1.375,-1.40625 1.46875,-1.78125 c 0.171875,-0.6875 0.921875,-1.125 1.59375,-1.125 l 0.09375,-0.4375 c -0.46875,0 -0.890625,0.203125 -1.234375,0.515625 -0.09375,0.078125 -0.28125,0.265625 -0.328125,0.375 z m 0,0" id="path22651"/>
   </g>
   <g id="glyph4-2">
    <path d="m 0.78125,-0.578125 0,0.578125 0.578125,0 0,-0.578125 -0.578125,0 z m 0,0" id="path22654"/>
   </g>
   <g id="glyph4-3">
    <path d="m 3.359375,-0.796875 c -0.109375,0.0625 -0.203125,0.125 -0.3125,0.1875 -0.28125,0.140625 -0.578125,0.234375 -0.890625,0.25 -0.21875,0.015625 -0.453125,0 -0.640625,-0.125 -0.390625,-0.265625 -0.421875,-0.78125 -0.3125,-1.25 0.140625,-0.53125 0.5,-1.046875 1.0625,-1.1875 C 2.4375,-2.96875 2.609375,-2.96875 2.78125,-2.96875 c 0.296875,0.015625 0.515625,0.078125 0.734375,0.21875 0.046875,0.046875 0.09375,0.078125 0.15625,0.09375 l 0.15625,-0.421875 C 3.46875,-3.28125 3.140625,-3.40625 2.5625,-3.375 c -0.515625,0.046875 -0.90625,0.28125 -1.21875,0.5625 -0.546875,0.5 -1.046875,1.625 -0.421875,2.40625 0.0625,0.078125 0.125,0.140625 0.203125,0.203125 0.453125,0.34375 1.078125,0.296875 1.609375,0.125 C 2.84375,-0.125 3.21875,-0.28125 3.296875,-0.375 c 0.03125,-0.046875 0.0625,-0.40625 0.0625,-0.421875 z m 0,0" id="path22657"/>
   </g>
   <g id="glyph4-4">
    <path d="M 3.09375,-5.21875 C 2.953125,-5.1875 2.921875,-5 2.875,-4.890625 l -1.96875,5 -0.453125,1.125 C 0.4375,1.28125 0.40625,1.328125 0.40625,1.390625 c 0,0.09375 0.09375,0.15625 0.1875,0.15625 C 0.6875,1.53125 0.71875,1.46875 0.75,1.390625 0.78125,1.328125 3.21875,-4.84375 3.265625,-5 3.28125,-5.03125 3.296875,-5.078125 3.28125,-5.109375 3.25,-5.1875 3.15625,-5.234375 3.09375,-5.21875 z m 0,0" id="path22660"/>
   </g>
   <g id="glyph4-5">
    <path d="m 2.140625,-0.625 c 0.09375,0.203125 0.125,0.3125 0.296875,0.46875 C 2.703125,0.078125 3.09375,0.125 3.421875,-0.015625 3.609375,-0.09375 3.75,-0.21875 3.890625,-0.375 c 0.4375,-0.484375 0.59375,-1.171875 0.71875,-1.8125 0.0625,-0.3125 0.109375,-0.859375 -0.0625,-1.09375 -0.03125,-0.046875 -0.09375,-0.0625 -0.171875,-0.0625 -0.140625,0 -0.28125,0.125 -0.296875,0.28125 C 4.0625,-2.984375 4.109375,-2.921875 4.125,-2.84375 4.203125,-2.53125 4.046875,-1.953125 4,-1.75 c -0.0625,0.296875 -0.125,0.609375 -0.265625,0.890625 -0.125,0.21875 -0.296875,0.40625 -0.5625,0.421875 -0.34375,0 -0.578125,-0.140625 -0.703125,-0.390625 -0.03125,-0.0625 -0.078125,-0.140625 -0.078125,-0.203125 0,-0.03125 0.0625,-0.171875 0.078125,-0.203125 0.078125,-0.203125 0.21875,-0.625 0.171875,-0.84375 C 2.625,-2.1875 2.546875,-2.25 2.453125,-2.25 c -0.109375,0.015625 -0.1875,0.109375 -0.234375,0.1875 -0.125,0.234375 -0.15625,0.578125 -0.15625,0.875 0,0.15625 0.015625,0.15625 -0.0625,0.25 -0.1875,0.265625 -0.53125,0.53125 -0.90625,0.5 -0.046875,0 -0.09375,-0.015625 -0.125,-0.03125 -0.265625,-0.109375 -0.3125,-0.421875 -0.3125,-0.671875 0,-0.59375 0.234375,-1.234375 0.53125,-1.65625 C 1.234375,-2.875 1.328125,-2.96875 1.328125,-3.09375 c 0,-0.171875 -0.203125,-0.234375 -0.34375,-0.171875 -0.078125,0.046875 -0.140625,0.140625 -0.1875,0.21875 -0.34375,0.53125 -0.640625,1.15625 -0.640625,1.9375 0,0.40625 0.109375,0.78125 0.390625,1.015625 0.265625,0.1875 0.625,0.1875 0.90625,0.0625 C 1.625,-0.109375 1.78125,-0.21875 1.921875,-0.34375 2,-0.4375 2.078125,-0.515625 2.140625,-0.625 z m 0,0" id="path22663"/>
   </g>
   <g id="glyph4-6">
    <path d="M 1.75,-4.828125 0.734375,0 C 1.921875,0 3.15625,0.015625 4.3125,0 4.359375,-0.125 4.390625,-0.28125 4.40625,-0.4375 l -3.046875,0 L 1.75,-2.296875 C 2.640625,-2.3125 3.609375,-2.28125 4.46875,-2.3125 4.515625,-2.421875 4.546875,-2.578125 4.578125,-2.703125 l -2.734375,0 C 1.953125,-3.28125 2.078125,-3.84375 2.1875,-4.40625 l 2.96875,0 0.078125,-0.421875 -3.484375,0 z m 0,0" id="path22666"/>
   </g>
   <g id="glyph4-7">
    <path d="M 1.765625,-4.84375 0.75,0 2.203125,0 c 0.25,0 0.5,0.015625 0.765625,0 C 3.78125,-0.078125 4.578125,-0.484375 4.875,-1.109375 5.03125,-1.5 4.953125,-1.859375 4.625,-2.140625 4.359375,-2.359375 4.015625,-2.484375 3.671875,-2.53125 3.8125,-2.578125 3.9375,-2.59375 4.078125,-2.640625 4.59375,-2.8125 5.15625,-3.171875 5.21875,-3.703125 c 0,-0.046875 0,-0.109375 0,-0.171875 C 5.140625,-4.28125 4.875,-4.484375 4.53125,-4.640625 4.125,-4.84375 3.75,-4.84375 3.21875,-4.84375 l -1.453125,0 z m 0.0625,2.140625 c 0.015625,-0.15625 0.265625,-1.21875 0.34375,-1.59375 0.015625,-0.0625 0,-0.125 0.09375,-0.125 l 0.5625,0 c 0.484375,0 1,-0.03125 1.46875,0.203125 C 4.46875,-4.125 4.6875,-4 4.71875,-3.78125 4.78125,-3.46875 4.515625,-3.21875 4.28125,-3.0625 4.234375,-3.03125 4.1875,-3.015625 4.140625,-2.984375 3.828125,-2.828125 3.484375,-2.75 3.125,-2.71875 2.9375,-2.703125 2.75,-2.703125 2.5625,-2.703125 l -0.734375,0 z M 1.34375,-0.40625 c 0.015625,-0.109375 0.09375,-0.453125 0.109375,-0.5 0.03125,-0.1875 0.234375,-1.109375 0.265625,-1.265625 0.015625,-0.078125 0,-0.15625 0.09375,-0.15625 l 0.703125,0 c 0.15625,0 0.328125,0 0.46875,0 0.390625,0.015625 0.78125,0.09375 1.109375,0.3125 0.171875,0.109375 0.359375,0.28125 0.359375,0.5625 0,0.40625 -0.375,0.65625 -0.703125,0.8125 -0.234375,0.125 -0.640625,0.21875 -0.9375,0.21875 C 2.328125,-0.40625 1.828125,-0.40625 1.34375,-0.40625 z m 0,0" id="path22669"/>
   </g>
   <g id="glyph5-1">
    <path d="m 0.734375,-2.359375 -0.0625,0.28125 1.515625,0 L 0.75,-0.71875 C 0.5625,-0.53125 0.375,-0.375 0.203125,-0.1875 0.1875,-0.125 0.171875,-0.0625 0.15625,0 0.84375,0 1.5625,0.015625 2.21875,0 2.25,-0.078125 2.265625,-0.1875 2.28125,-0.28125 l -1.59375,0 1.984375,-1.890625 c 0.015625,-0.0625 0.03125,-0.109375 0.046875,-0.1875 l -1.984375,0 z m 0,0" id="path22673"/>
   </g>
   <g id="glyph5-2">
    <path d="m 1.609375,-3.5 c -0.3125,0.046875 -0.578125,0.28125 -0.765625,0.53125 -0.296875,0.390625 -0.484375,0.859375 -0.5625,1.34375 -0.0625,0.3125 -0.0625,0.65625 -0.015625,0.96875 0.078125,0.3125 0.25,0.734375 0.703125,0.703125 C 1.28125,0 1.546875,-0.25 1.734375,-0.484375 c 0.28125,-0.375 0.453125,-0.796875 0.546875,-1.25 0.0625,-0.328125 0.109375,-0.78125 0.015625,-1.09375 C 2.234375,-3.109375 2.0625,-3.453125 1.75,-3.5 c -0.046875,0 -0.09375,0 -0.140625,0 z m 0.328125,1.625 -1.25,0 C 0.71875,-2 0.75,-2.140625 0.796875,-2.265625 c 0.09375,-0.265625 0.21875,-0.5625 0.421875,-0.765625 0.140625,-0.140625 0.375,-0.265625 0.578125,-0.140625 0.109375,0.09375 0.15625,0.25 0.1875,0.375 C 2.03125,-2.59375 2.015625,-2.375 2,-2.171875 1.984375,-2.0625 1.953125,-1.96875 1.9375,-1.875 z M 1.875,-1.59375 c 0,0.046875 -0.015625,0.09375 -0.015625,0.125 -0.125,0.390625 -0.21875,0.75 -0.5,1.03125 -0.125,0.125 -0.328125,0.265625 -0.515625,0.171875 C 0.625,-0.359375 0.5625,-0.6875 0.5625,-0.96875 c 0,-0.21875 0.03125,-0.421875 0.078125,-0.625 l 1.234375,0 z m 0,0" id="path22676"/>
   </g>
  </g>
  <clipPath id="clip1">
   <path d="m -214,668 612,0 0,-792 -612,0 0,792 z m 0,0" id="path22679"/>
  </clipPath>
  <clipPath id="clip2">
   <path d="m -0.222656,315.03516 180.999996,0 0,-313.000004 -180.999996,0 0,313.000004 z m 0,0" id="path22682"/>
  </clipPath>
  <clipPath id="clip5">
   <path d="m 179.70312,14.246094 -178.582026,0 0,63.78125 178.582026,0 0,-63.78125 z m 0,0" id="path22685"/>
  </clipPath>
 </defs>
 <g transform="translate(-0.29383891,-0.21278458)" id="g23687">
  <g clip-path="url(#clip1)" id="g22688">
   <g clip-path="url(#clip2)" id="g22690">
    <path d="m 1799.2713,3007.8791 c -595.2344,0 -1190.54693,0 -1785.820362,0 l 0,-637.8125 c 595.273432,0 1190.585962,0 1785.820362,0 l 0,637.8125 z m 0,0" transform="matrix(0.1,0,0,-0.1,-0.224,315.034)" id="path22692" fill="none" stroke="#000000" stroke-linejoin="round" stroke-width="5" stroke-miterlimit="10"/>
   </g>
  </g>
  <g clip-path="url(#clip1)" id="g22694">
   <g clip-path="url(#clip2)" id="g22696">
    <g clip-path="url(#clip5)" id="g22698">
     <path d="M 587.47437,3007.8791 1225.2869,2370.0666" transform="matrix(0.1,0,0,-0.1,-0.224,315.034)" id="path22700" fill="none" stroke="#000000" stroke-linejoin="round" stroke-linecap="round" stroke-width="3" stroke-miterlimit="10"/>
     <path d="M 672.51344,3007.8791 1310.3259,2370.0666" transform="matrix(0.1,0,0,-0.1,-0.224,315.034)" id="path22702" fill="none" stroke="#000000" stroke-linejoin="round" stroke-linecap="round" stroke-width="3" stroke-miterlimit="10"/>
     <path d="M 502.43531,3007.8791 1140.2478,2370.0666" transform="matrix(0.1,0,0,-0.1,-0.224,315.034)" id="path22704" fill="none" stroke="#000000" stroke-linejoin="round" stroke-linecap="round" stroke-width="3" stroke-miterlimit="10"/>
     <path d="M 757.5525,3007.8791 1395.365,2370.0666" transform="matrix(0.1,0,0,-0.1,-0.224,315.034)" id="path22706" fill="none" stroke="#000000" stroke-linejoin="round" stroke-linecap="round" stroke-width="3" stroke-miterlimit="10"/>
     <path d="M 417.39625,3007.8791 1055.2088,2370.0666" transform="matrix(0.1,0,0,-0.1,-0.224,315.034)" id="path22708" fill="none" stroke="#000000" stroke-linejoin="round" stroke-linecap="round" stroke-width="3" stroke-miterlimit="10"/>
     <path d="M 842.59156,3007.8791 1480.4041,2370.0666" transform="matrix(0.1,0,0,-0.1,-0.224,315.034)" id="path22710" fill="none" stroke="#000000" stroke-linejoin="round" stroke-linecap="round" stroke-width="3" stroke-miterlimit="10"/>
     <path d="m 332.35719,3007.8791 637.8125,-637.8125" transform="matrix(0.1,0,0,-0.1,-0.224,315.034)" id="path22712" fill="none" stroke="#000000" stroke-linejoin="round" stroke-linecap="round" stroke-width="3" stroke-miterlimit="10"/>
     <path d="M 927.63062,3007.8791 1565.4431,2370.0666" transform="matrix(0.1,0,0,-0.1,-0.224,315.034)" id="path22714" fill="none" stroke="#000000" stroke-linejoin="round" stroke-linecap="round" stroke-width="3" stroke-miterlimit="10"/>
     <path d="m 247.31812,3007.8791 637.8125,-637.8125" transform="matrix(0.1,0,0,-0.1,-0.224,315.034)" id="path22716" fill="none" stroke="#000000" stroke-linejoin="round" stroke-linecap="round" stroke-width="3" stroke-miterlimit="10"/>
     <path d="m 1012.6697,3007.8791 637.7734,-637.8125" transform="matrix(0.1,0,0,-0.1,-0.224,315.034)" id="path22718" fill="none" stroke="#000000" stroke-linejoin="round" stroke-linecap="round" stroke-width="3" stroke-miterlimit="10"/>
     <path d="m 162.27906,3007.8791 637.8125,-637.8125" transform="matrix(0.1,0,0,-0.1,-0.224,315.034)" id="path22720" fill="none" stroke="#000000" stroke-linejoin="round" stroke-linecap="round" stroke-width="3" stroke-miterlimit="10"/>
     <path d="m 1097.7088,3007.8791 637.7734,-637.8125" transform="matrix(0.1,0,0,-0.1,-0.224,315.034)" id="path22722" fill="none" stroke="#000000" stroke-linejoin="round" stroke-linecap="round" stroke-width="3" stroke-miterlimit="10"/>
     <path d="M 77.24,3007.8791 715.0525,2370.0666" transform="matrix(0.1,0,0,-0.1,-0.224,315.034)" id="path22724" fill="none" stroke="#000000" stroke-linejoin="round" stroke-linecap="round" stroke-width="3" stroke-miterlimit="10"/>
     <path d="m 1182.7478,3007.8791 637.7735,-637.8125" transform="matrix(0.1,0,0,-0.1,-0.224,315.034)" id="path22726" fill="none" stroke="#000000" stroke-linejoin="round" stroke-linecap="round" stroke-width="3" stroke-miterlimit="10"/>
     <path d="M -7.799062,3007.8791 630.01344,2370.0666" transform="matrix(0.1,0,0,-0.1,-0.224,315.034)" id="path22728" fill="none" stroke="#000000" stroke-linejoin="round" stroke-linecap="round" stroke-width="3" stroke-miterlimit="10"/>
     <path d="m 1267.7869,3007.8791 637.8125,-637.8125" transform="matrix(0.1,0,0,-0.1,-0.224,315.034)" id="path22730" fill="none" stroke="#000000" stroke-linejoin="round" stroke-linecap="round" stroke-width="3" stroke-miterlimit="10"/>
     <path d="M -92.838125,3007.8791 544.97437,2370.0666" transform="matrix(0.1,0,0,-0.1,-0.224,315.034)" id="path22732" fill="none" stroke="#000000" stroke-linejoin="round" stroke-linecap="round" stroke-width="3" stroke-miterlimit="10"/>
     <path d="m 1352.8259,3007.8791 637.8125,-637.8125" transform="matrix(0.1,0,0,-0.1,-0.224,315.034)" id="path22734" fill="none" stroke="#000000" stroke-linejoin="round" stroke-linecap="round" stroke-width="3" stroke-miterlimit="10"/>
     <path d="m -177.87719,3007.8791 637.8125,-637.8125" transform="matrix(0.1,0,0,-0.1,-0.224,315.034)" id="path22736" fill="none" stroke="#000000" stroke-linejoin="round" stroke-linecap="round" stroke-width="3" stroke-miterlimit="10"/>
     <path d="m 1437.865,3007.8791 637.8125,-637.8125" transform="matrix(0.1,0,0,-0.1,-0.224,315.034)" id="path22738" fill="none" stroke="#000000" stroke-linejoin="round" stroke-linecap="round" stroke-width="3" stroke-miterlimit="10"/>
     <path d="m -262.91625,3007.8791 637.8125,-637.8125" transform="matrix(0.1,0,0,-0.1,-0.224,315.034)" id="path22740" fill="none" stroke="#000000" stroke-linejoin="round" stroke-linecap="round" stroke-width="3" stroke-miterlimit="10"/>
     <path d="m 1522.9041,3007.8791 637.8125,-637.8125" transform="matrix(0.1,0,0,-0.1,-0.224,315.034)" id="path22742" fill="none" stroke="#000000" stroke-linejoin="round" stroke-linecap="round" stroke-width="3" stroke-miterlimit="10"/>
     <path d="m -347.95531,3007.8791 637.8125,-637.8125" transform="matrix(0.1,0,0,-0.1,-0.224,315.034)" id="path22744" fill="none" stroke="#000000" stroke-linejoin="round" stroke-linecap="round" stroke-width="3" stroke-miterlimit="10"/>
     <path d="m 1607.9431,3007.8791 637.8125,-637.8125" transform="matrix(0.1,0,0,-0.1,-0.224,315.034)" id="path22746" fill="none" stroke="#000000" stroke-linejoin="round" stroke-linecap="round" stroke-width="3" stroke-miterlimit="10"/>
     <path d="M -432.99437,3007.8791 204.81812,2370.0666" transform="matrix(0.1,0,0,-0.1,-0.224,315.034)" id="path22748" fill="none" stroke="#000000" stroke-linejoin="round" stroke-linecap="round" stroke-width="3" stroke-miterlimit="10"/>
     <path d="m 1692.9822,3007.8791 637.8125,-637.8125" transform="matrix(0.1,0,0,-0.1,-0.224,315.034)" id="path22750" fill="none" stroke="#000000" stroke-linejoin="round" stroke-linecap="round" stroke-width="3" stroke-miterlimit="10"/>
     <path d="m -518.03344,3007.8791 637.8125,-637.8125" transform="matrix(0.1,0,0,-0.1,-0.224,315.034)" id="path22752" fill="none" stroke="#000000" stroke-linejoin="round" stroke-linecap="round" stroke-width="3" stroke-miterlimit="10"/>
     <path d="m 1778.0213,3007.8791 637.8124,-637.8125" transform="matrix(0.1,0,0,-0.1,-0.224,315.034)" id="path22754" fill="none" stroke="#000000" stroke-linejoin="round" stroke-linecap="round" stroke-width="3" stroke-miterlimit="10"/>
     <path d="M -603.0725,3007.8791 34.74,2370.0666" transform="matrix(0.1,0,0,-0.1,-0.224,315.034)" id="path22756" fill="none" stroke="#000000" stroke-linejoin="round" stroke-linecap="round" stroke-width="3" stroke-miterlimit="10"/>
    </g>
   </g>
  </g>
  <path d="m 176.87109,17.082031 c -57.63671,0 -115.27734,0 -172.914059,0 l 0,58.109375 c 57.636719,0 115.277349,0 172.914059,0" id="path22762" fill="#ffffff"/>
  <path d="m 176.87109,17.08203 c -57.63671,0 -115.27734,0 -172.9140587,0 l 0,58.10938 c 57.6367187,0 115.2773487,0 172.9140587,0 l 0,-58.10938 z m 0,0" id="path22764" fill="none" stroke="#000000" stroke-linejoin="round" stroke-width="0.5" stroke-miterlimit="10"/>
  <path d="m 90.414062,75.19141 0,-36.84766" id="path22766" fill="none" stroke="#000000" stroke-linejoin="round" stroke-linecap="round" stroke-width="0.5" stroke-miterlimit="10"/>
  <path d="M 91.640625,43.878906 90.414063,38.34375 89.1875,43.878906" id="path22768"/>
  <path d="m 91.640625,43.87891 -1.226563,-5.53516 -1.226562,5.53516 2.453125,0 z m 0,0" id="path22770" fill="none" stroke="#000000" stroke-linejoin="round" stroke-linecap="round" stroke-width="0.5" stroke-miterlimit="10"/>
  <path d="m 90.414062,38.34375 0,-21.26172" id="path22772" fill="none" stroke="#000000" stroke-linejoin="round" stroke-linecap="round" stroke-width="0.5" stroke-miterlimit="10"/>
  <path d="m 79.074219,75.19141 0,-36.84766" id="path22774" fill="none" stroke="#000000" stroke-linejoin="round" stroke-linecap="round" stroke-width="0.5" stroke-miterlimit="10"/>
  <path d="M 80.300781,43.878906 79.074219,38.34375 77.847656,43.878906" id="path22776"/>
  <path d="m 80.300781,43.87891 -1.226562,-5.53516 -1.226563,5.53516 2.453125,0 z m 0,0" id="path22778" fill="none" stroke="#000000" stroke-linejoin="round" stroke-linecap="round" stroke-width="0.5" stroke-miterlimit="10"/>
  <path d="m 79.074219,38.34375 0,-21.26172" id="path22780" fill="none" stroke="#000000" stroke-linejoin="round" stroke-linecap="round" stroke-width="0.5" stroke-miterlimit="10"/>
  <path d="m 101.75391,75.19141 0,-36.84766" id="path22782" fill="none" stroke="#000000" stroke-linejoin="round" stroke-linecap="round" stroke-width="0.5" stroke-miterlimit="10"/>
  <path d="m 102.98047,43.878906 -1.22656,-5.535156 -1.23047,5.535156" id="path22784"/>
  <path d="m 102.98047,43.87891 -1.22656,-5.53516 -1.23047,5.53516 2.45703,0 z m 0,0" id="path22786" fill="none" stroke="#000000" stroke-linejoin="round" stroke-linecap="round" stroke-width="0.5" stroke-miterlimit="10"/>
  <path d="m 101.75391,38.34375 0,-21.26172" id="path22788" fill="none" stroke="#000000" stroke-linejoin="round" stroke-linecap="round" stroke-width="0.5" stroke-miterlimit="10"/>
  <path d="m 62.066406,75.19141 0,-36.84766" id="path22790" fill="none" stroke="#000000" stroke-linejoin="round" stroke-linecap="round" stroke-width="0.5" stroke-miterlimit="10"/>
  <path d="M 63.292969,43.878906 62.066406,38.34375 60.839844,43.878906" id="path22792"/>
  <path d="m 63.292969,43.87891 -1.226563,-5.53516 -1.226562,5.53516 2.453125,0 z m 0,0" id="path22794" fill="none" stroke="#000000" stroke-linejoin="round" stroke-linecap="round" stroke-width="0.5" stroke-miterlimit="10"/>
  <path d="m 62.066406,38.34375 0,-21.26172" id="path22796" fill="none" stroke="#000000" stroke-linejoin="round" stroke-linecap="round" stroke-width="0.5" stroke-miterlimit="10"/>
  <path d="m 118.76172,75.19141 0,-36.84766" id="path22798" fill="none" stroke="#000000" stroke-linejoin="round" stroke-linecap="round" stroke-width="0.5" stroke-miterlimit="10"/>
  <path d="m 119.98828,43.878906 -1.22656,-5.535156 -1.23047,5.535156" id="path22800"/>
  <path d="m 119.98828,43.87891 -1.22656,-5.53516 -1.23047,5.53516 2.45703,0 z m 0,0" id="path22802" fill="none" stroke="#000000" stroke-linejoin="round" stroke-linecap="round" stroke-width="0.5" stroke-miterlimit="10"/>
  <path d="m 118.76172,38.34375 0,-21.26172" id="path22804" fill="none" stroke="#000000" stroke-linejoin="round" stroke-linecap="round" stroke-width="0.5" stroke-miterlimit="10"/>
  <path d="m 33.71875,75.19141 0,-36.84766" id="path22806" fill="none" stroke="#000000" stroke-linejoin="round" stroke-linecap="round" stroke-width="0.5" stroke-miterlimit="10"/>
  <path d="M 34.949219,43.878906 33.71875,38.34375 32.492188,43.878906" id="path22808"/>
  <path d="m 34.949219,43.87891 -1.230469,-5.53516 -1.226563,5.53516 2.457032,0 z m 0,0" id="path22810" fill="none" stroke="#000000" stroke-linejoin="round" stroke-linecap="round" stroke-width="0.5" stroke-miterlimit="10"/>
  <path d="m 33.71875,38.34375 0,-21.26172" id="path22812" fill="none" stroke="#000000" stroke-linejoin="round" stroke-linecap="round" stroke-width="0.5" stroke-miterlimit="10"/>
  <path d="m 147.10547,75.19141 0,-36.84766" id="path22814" fill="none" stroke="#000000" stroke-linejoin="round" stroke-linecap="round" stroke-width="0.5" stroke-miterlimit="10"/>
  <path d="m 148.33203,43.878906 -1.22656,-5.535156 -1.22656,5.535156" id="path22816"/>
  <path d="m 148.33203,43.87891 -1.22656,-5.53516 -1.22656,5.53516 2.45312,0 z m 0,0" id="path22818" fill="none" stroke="#000000" stroke-linejoin="round" stroke-linecap="round" stroke-width="0.5" stroke-miterlimit="10"/>
  <path d="m 147.10547,38.34375 0,-21.26172" id="path22820" fill="none" stroke="#000000" stroke-linejoin="round" stroke-linecap="round" stroke-width="0.5" stroke-miterlimit="10"/>
  <path d="m 69.152344,31.60937 c 0,-0.75 -0.296875,-1.47265 -0.828125,-2.0039 -0.53125,-0.53125 -1.253907,-0.83203 -2.003907,-0.83203 -0.753906,0 -1.472656,0.30078 -2.007812,0.83203 -0.53125,0.53125 -0.828125,1.2539 -0.828125,2.0039 0,0.75391 0.296875,1.47266 0.828125,2.00391 0.535156,0.53125 1.253906,0.83203 2.007812,0.83203 0.75,0 1.472657,-0.30078 2.003907,-0.83203 0.53125,-0.53125 0.828125,-1.25 0.828125,-2.00391 z m 0,0" id="path22822" fill="none" stroke="#000000" stroke-linejoin="round" stroke-linecap="round" stroke-width="0.5" stroke-miterlimit="10"/>
  <path d="m 66.742188,31.609375 c 0,-0.113281 -0.04297,-0.21875 -0.121094,-0.300781 -0.08203,-0.07813 -0.191406,-0.125 -0.300781,-0.125 -0.113282,0 -0.222657,0.04687 -0.300782,0.125 -0.08203,0.08203 -0.125,0.1875 -0.125,0.300781 0,0.113281 0.04297,0.222656 0.125,0.300781 0.07813,0.07813 0.1875,0.125 0.300782,0.125 0.109375,0 0.21875,-0.04687 0.300781,-0.125 0.07813,-0.07813 0.121094,-0.1875 0.121094,-0.300781" id="path22824"/>
  <path d="m 69.152344,60.66406 c 0,-0.75 -0.296875,-1.47265 -0.828125,-2.0039 -0.53125,-0.53125 -1.253907,-0.83204 -2.003907,-0.83204 -0.753906,0 -1.472656,0.30079 -2.007812,0.83204 -0.53125,0.53125 -0.828125,1.2539 -0.828125,2.0039 0,0.75391 0.296875,1.47266 0.828125,2.00391 0.535156,0.53125 1.253906,0.83203 2.007812,0.83203 0.75,0 1.472657,-0.30078 2.003907,-0.83203 0.53125,-0.53125 0.828125,-1.25 0.828125,-2.00391 z m 0,0" id="path22826" fill="none" stroke="#000000" stroke-linejoin="round" stroke-linecap="round" stroke-width="0.5" stroke-miterlimit="10"/>
  <path d="m 66.742188,60.664063 c 0,-0.113282 -0.04297,-0.21875 -0.121094,-0.300782 -0.08203,-0.07813 -0.191406,-0.125 -0.300781,-0.125 -0.113282,0 -0.222657,0.04687 -0.300782,0.125 -0.08203,0.08203 -0.125,0.1875 -0.125,0.300782 0,0.113281 0.04297,0.222656 0.125,0.300781 0.07813,0.08203 0.1875,0.125 0.300782,0.125 0.109375,0 0.21875,-0.04297 0.300781,-0.125 0.07813,-0.07813 0.121094,-0.1875 0.121094,-0.300781" id="path22828"/>
  <path d="m 117.34375,31.60937 c 0,-0.75 -0.30078,-1.47265 -0.83203,-2.0039 -0.53125,-0.53125 -1.25,-0.83203 -2.00391,-0.83203 -0.75,0 -1.47265,0.30078 -2.0039,0.83203 -0.53125,0.53125 -0.83203,1.2539 -0.83203,2.0039 0,0.75391 0.30078,1.47266 0.83203,2.00391 0.53125,0.53125 1.2539,0.83203 2.0039,0.83203 0.75391,0 1.47266,-0.30078 2.00391,-0.83203 0.53125,-0.53125 0.83203,-1.25 0.83203,-2.00391 z m 0,0" id="path22830" fill="none" stroke="#000000" stroke-linejoin="round" stroke-linecap="round" stroke-width="0.5" stroke-miterlimit="10"/>
  <path d="m 112.50391,29.60547 4.00781,4.00781" id="path22832" fill="none" stroke="#000000" stroke-linejoin="round" stroke-linecap="round" stroke-width="0.5" stroke-miterlimit="10"/>
  <path d="m 112.50391,33.61328 4.00781,-4.00781" id="path22834" fill="none" stroke="#000000" stroke-linejoin="round" stroke-linecap="round" stroke-width="0.5" stroke-miterlimit="10"/>
  <path d="m 117.34375,60.66406 c 0,-0.75 -0.30078,-1.47265 -0.83203,-2.0039 -0.53125,-0.53125 -1.25,-0.83204 -2.00391,-0.83204 -0.75,0 -1.47265,0.30079 -2.0039,0.83204 -0.53125,0.53125 -0.83203,1.2539 -0.83203,2.0039 0,0.75391 0.30078,1.47266 0.83203,2.00391 0.53125,0.53125 1.2539,0.83203 2.0039,0.83203 0.75391,0 1.47266,-0.30078 2.00391,-0.83203 0.53125,-0.53125 0.83203,-1.25 0.83203,-2.00391 z m 0,0" id="path22836" fill="none" stroke="#000000" stroke-linejoin="round" stroke-linecap="round" stroke-width="0.5" stroke-miterlimit="10"/>
  <path d="m 112.50391,58.66016 4.00781,4.00781" id="path22838" fill="none" stroke="#000000" stroke-linejoin="round" stroke-linecap="round" stroke-width="0.5" stroke-miterlimit="10"/>
  <path d="m 112.50391,62.66797 4.00781,-4.00781" id="path22840" fill="none" stroke="#000000" stroke-linejoin="round" stroke-linecap="round" stroke-width="0.5" stroke-miterlimit="10"/>
  <path d="m 29.46875,31.60937 c 0,-0.75 -0.300781,-1.47265 -0.832031,-2.0039 -0.53125,-0.53125 -1.25,-0.83203 -2.003907,-0.83203 -0.75,0 -1.472656,0.30078 -2.003906,0.83203 -0.53125,0.53125 -0.828125,1.2539 -0.828125,2.0039 0,0.75391 0.296875,1.47266 0.828125,2.00391 0.53125,0.53125 1.253906,0.83203 2.003906,0.83203 0.753907,0 1.472657,-0.30078 2.003907,-0.83203 0.53125,-0.53125 0.832031,-1.25 0.832031,-2.00391 z m 0,0" id="path22842" fill="none" stroke="#000000" stroke-linejoin="round" stroke-linecap="round" stroke-width="0.5" stroke-miterlimit="10"/>
  <path d="m 27.058594,31.609375 c 0,-0.113281 -0.04297,-0.21875 -0.125,-0.300781 -0.07813,-0.07813 -0.1875,-0.125 -0.300781,-0.125 -0.113282,0 -0.21875,0.04687 -0.300782,0.125 -0.07813,0.08203 -0.125,0.1875 -0.125,0.300781 0,0.113281 0.04687,0.222656 0.125,0.300781 0.08203,0.07813 0.1875,0.125 0.300782,0.125 0.113281,0 0.222656,-0.04687 0.300781,-0.125 0.08203,-0.07813 0.125,-0.1875 0.125,-0.300781" id="path22844"/>
  <path d="m 29.46875,60.66406 c 0,-0.75 -0.300781,-1.47265 -0.832031,-2.0039 -0.53125,-0.53125 -1.25,-0.83204 -2.003907,-0.83204 -0.75,0 -1.472656,0.30079 -2.003906,0.83204 -0.53125,0.53125 -0.828125,1.2539 -0.828125,2.0039 0,0.75391 0.296875,1.47266 0.828125,2.00391 0.53125,0.53125 1.253906,0.83203 2.003906,0.83203 0.753907,0 1.472657,-0.30078 2.003907,-0.83203 0.53125,-0.53125 0.832031,-1.25 0.832031,-2.00391 z m 0,0" id="path22846" fill="none" stroke="#000000" stroke-linejoin="round" stroke-linecap="round" stroke-width="0.5" stroke-miterlimit="10"/>
  <path d="m 27.058594,60.664063 c 0,-0.113282 -0.04297,-0.21875 -0.125,-0.300782 -0.07813,-0.07813 -0.1875,-0.125 -0.300781,-0.125 -0.113282,0 -0.21875,0.04687 -0.300782,0.125 -0.07813,0.08203 -0.125,0.1875 -0.125,0.300782 0,0.113281 0.04687,0.222656 0.125,0.300781 0.08203,0.08203 0.1875,0.125 0.300782,0.125 0.113281,0 0.222656,-0.04297 0.300781,-0.125 0.08203,-0.07813 0.125,-0.1875 0.125,-0.300781" id="path22848"/>
  <path d="m 157.02734,31.60937 c 0,-0.75 -0.29687,-1.47265 -0.83203,-2.0039 -0.53125,-0.53125 -1.25,-0.83203 -2.0039,-0.83203 -0.75,0 -1.47266,0.30078 -2.00391,0.83203 -0.53125,0.53125 -0.82812,1.2539 -0.82812,2.0039 0,0.75391 0.29687,1.47266 0.82812,2.00391 0.53125,0.53125 1.25391,0.83203 2.00391,0.83203 0.7539,0 1.47265,-0.30078 2.0039,-0.83203 0.53516,-0.53125 0.83203,-1.25 0.83203,-2.00391 z m 0,0" id="path22850" fill="none" stroke="#000000" stroke-linejoin="round" stroke-linecap="round" stroke-width="0.5" stroke-miterlimit="10"/>
  <path d="m 152.1875,29.60547 4.00781,4.00781" id="path22852" fill="none" stroke="#000000" stroke-linejoin="round" stroke-linecap="round" stroke-width="0.5" stroke-miterlimit="10"/>
  <path d="m 152.1875,33.61328 4.00781,-4.00781" id="path22854" fill="none" stroke="#000000" stroke-linejoin="round" stroke-linecap="round" stroke-width="0.5" stroke-miterlimit="10"/>
  <path d="m 157.02734,60.66406 c 0,-0.75 -0.29687,-1.47265 -0.83203,-2.0039 -0.53125,-0.53125 -1.25,-0.83204 -2.0039,-0.83204 -0.75,0 -1.47266,0.30079 -2.00391,0.83204 -0.53125,0.53125 -0.82812,1.2539 -0.82812,2.0039 0,0.75391 0.29687,1.47266 0.82812,2.00391 0.53125,0.53125 1.25391,0.83203 2.00391,0.83203 0.7539,0 1.47265,-0.30078 2.0039,-0.83203 0.53516,-0.53125 0.83203,-1.25 0.83203,-2.00391 z m 0,0" id="path22856" fill="none" stroke="#000000" stroke-linejoin="round" stroke-linecap="round" stroke-width="0.5" stroke-miterlimit="10"/>
  <path d="m 152.1875,58.66016 4.00781,4.00781" id="path22858" fill="none" stroke="#000000" stroke-linejoin="round" stroke-linecap="round" stroke-width="0.5" stroke-miterlimit="10"/>
  <path d="m 152.1875,62.66797 4.00781,-4.00781" id="path22860" fill="none" stroke="#000000" stroke-linejoin="round" stroke-linecap="round" stroke-width="0.5" stroke-miterlimit="10"/>
  <path d="m 13.878906,31.60937 c 0,-0.75 -0.300781,-1.47265 -0.832031,-2.0039 -0.53125,-0.53125 -1.25,-0.83203 -2.003906,-0.83203 -0.75,0 -1.4726565,0.30078 -2.0039065,0.83203 -0.53125,0.53125 -0.8320312,1.2539 -0.8320312,2.0039 0,0.75391 0.3007812,1.47266 0.8320312,2.00391 0.53125,0.53125 1.2539065,0.83203 2.0039065,0.83203 0.753906,0 1.472656,-0.30078 2.003906,-0.83203 0.53125,-0.53125 0.832031,-1.25 0.832031,-2.00391 z m 0,0" id="path22862" fill="none" stroke="#000000" stroke-linejoin="round" stroke-linecap="round" stroke-width="0.5" stroke-miterlimit="10"/>
  <path d="m 11.46875,31.609375 c 0,-0.113281 -0.04687,-0.21875 -0.125,-0.300781 -0.07813,-0.07813 -0.1875,-0.125 -0.300781,-0.125 -0.113281,0 -0.21875,0.04687 -0.300781,0.125 -0.07813,0.08203 -0.125,0.1875 -0.125,0.300781 0,0.113281 0.04687,0.222656 0.125,0.300781 0.08203,0.07813 0.1875,0.125 0.300781,0.125 0.113281,0 0.222656,-0.04687 0.300781,-0.125 0.07813,-0.07813 0.125,-0.1875 0.125,-0.300781" id="path22864"/>
  <path d="m 13.878906,60.66406 c 0,-0.75 -0.300781,-1.47265 -0.832031,-2.0039 -0.53125,-0.53125 -1.25,-0.83204 -2.003906,-0.83204 -0.75,0 -1.4726565,0.30079 -2.0039065,0.83204 -0.53125,0.53125 -0.8320312,1.2539 -0.8320312,2.0039 0,0.75391 0.3007812,1.47266 0.8320312,2.00391 0.53125,0.53125 1.2539065,0.83203 2.0039065,0.83203 0.753906,0 1.472656,-0.30078 2.003906,-0.83203 0.53125,-0.53125 0.832031,-1.25 0.832031,-2.00391 z m 0,0" id="path22866" fill="none" stroke="#000000" stroke-linejoin="round" stroke-linecap="round" stroke-width="0.5" stroke-miterlimit="10"/>
  <path d="m 11.46875,60.664063 c 0,-0.113282 -0.04687,-0.21875 -0.125,-0.300782 -0.07813,-0.07813 -0.1875,-0.125 -0.300781,-0.125 -0.113281,0 -0.21875,0.04687 -0.300781,0.125 -0.07813,0.08203 -0.125,0.1875 -0.125,0.300782 0,0.113281 0.04687,0.222656 0.125,0.300781 0.08203,0.08203 0.1875,0.125 0.300781,0.125 0.113281,0 0.222656,-0.04297 0.300781,-0.125 0.07813,-0.07813 0.125,-0.1875 0.125,-0.300781" id="path22868"/>
  <path d="m 172.61719,31.60937 c 0,-0.75 -0.29688,-1.47265 -0.82813,-2.0039 -0.53125,-0.53125 -1.2539,-0.83203 -2.00781,-0.83203 -0.75,0 -1.47266,0.30078 -2.00391,0.83203 -0.53125,0.53125 -0.82812,1.2539 -0.82812,2.0039 0,0.75391 0.29687,1.47266 0.82812,2.00391 0.53125,0.53125 1.25391,0.83203 2.00391,0.83203 0.75391,0 1.47656,-0.30078 2.00781,-0.83203 0.53125,-0.53125 0.82813,-1.25 0.82813,-2.00391 z m 0,0" id="path22870" fill="none" stroke="#000000" stroke-linejoin="round" stroke-linecap="round" stroke-width="0.5" stroke-miterlimit="10"/>
  <path d="m 167.77734,29.60547 4.01172,4.00781" id="path22872" fill="none" stroke="#000000" stroke-linejoin="round" stroke-linecap="round" stroke-width="0.5" stroke-miterlimit="10"/>
  <path d="m 167.77734,33.61328 4.01172,-4.00781" id="path22874" fill="none" stroke="#000000" stroke-linejoin="round" stroke-linecap="round" stroke-width="0.5" stroke-miterlimit="10"/>
  <path d="m 172.61719,60.66406 c 0,-0.75 -0.29688,-1.47265 -0.82813,-2.0039 -0.53125,-0.53125 -1.2539,-0.83204 -2.00781,-0.83204 -0.75,0 -1.47266,0.30079 -2.00391,0.83204 -0.53125,0.53125 -0.82812,1.2539 -0.82812,2.0039 0,0.75391 0.29687,1.47266 0.82812,2.00391 0.53125,0.53125 1.25391,0.83203 2.00391,0.83203 0.75391,0 1.47656,-0.30078 2.00781,-0.83203 0.53125,-0.53125 0.82813,-1.25 0.82813,-2.00391 z m 0,0" id="path22876" fill="none" stroke="#000000" stroke-linejoin="round" stroke-linecap="round" stroke-width="0.5" stroke-miterlimit="10"/>
  <path d="m 167.77734,58.66016 4.01172,4.00781" id="path22878" fill="none" stroke="#000000" stroke-linejoin="round" stroke-linecap="round" stroke-width="0.5" stroke-miterlimit="10"/>
  <path d="m 167.77734,62.66797 4.01172,-4.00781" id="path22880" fill="none" stroke="#000000" stroke-linejoin="round" stroke-linecap="round" stroke-width="0.5" stroke-miterlimit="10"/>
  <path d="m 6.7929688,40.46875 0,11.33984" id="path22882" fill="none" stroke="#000000" stroke-linejoin="round" stroke-linecap="round" stroke-width="0.5" stroke-miterlimit="10"/>
  <path d="M 5.871094,47.65625 6.792969,51.808594 7.710938,47.65625" id="path22884"/>
  <path d="m 5.8710938,47.65625 0.921875,4.15234 0.9179687,-4.15234 -1.8398437,0 z m 0,0" id="path22886" fill="none" stroke="#000000" stroke-linejoin="round" stroke-linecap="round" stroke-width="0.5" stroke-miterlimit="10"/>
  <path d="m 174.03516,40.46875 0,11.33984" id="path22888" fill="none" stroke="#000000" stroke-linejoin="round" stroke-linecap="round" stroke-width="0.5" stroke-miterlimit="10"/>
  <path d="m 173.11328,47.65625 0.92188,4.152344 0.91796,-4.152344" id="path22890"/>
  <path d="m 173.11328,47.65625 0.92188,4.15234 0.91797,-4.15234 -1.83985,0 z m 0,0" id="path22892" fill="none" stroke="#000000" stroke-linejoin="round" stroke-linecap="round" stroke-width="0.5" stroke-miterlimit="10"/>
  <path d="M 141.4375,82.27734 C 132.39063,77.05469 126.125,68.38281 118.76172,61.01953" id="path22894" fill="none" stroke="#000000" stroke-linejoin="round" stroke-linecap="round" stroke-width="0.3" stroke-miterlimit="10"/>
  <path d="m 122.30469,63.371094 c -1.17188,-0.804688 -2.35156,-1.59375 -3.54297,-2.351563 0.75781,1.195313 1.49219,2.40625 2.21484,3.628907" id="path22896"/>
  <path d="m 122.30469,63.37109 c -1.17188,-0.80468 -2.35156,-1.59375 -3.54297,-2.35156 0.75781,1.19531 1.49219,2.40625 2.21484,3.62891 l 1.32813,-1.27735 z m 0,0" id="path22898" fill="none" stroke="#000000" stroke-linejoin="round" stroke-linecap="round" stroke-width="0.3" stroke-miterlimit="10"/>
  <path d="M 128.67969,3.26172 C 121.05078,9.66797 116.73047,19.00391 115,28.81641" id="path22900" fill="none" stroke="#000000" stroke-linejoin="round" stroke-linecap="round" stroke-width="0.3" stroke-miterlimit="10"/>
  <path d="m 114.97656,24.566406 c -0.0469,1.414063 -0.0391,2.835938 0.0234,4.25 0.54297,-1.308593 1.13672,-2.597656 1.77734,-3.863281" id="path22902"/>
  <path d="m 114.97656,24.56641 c -0.0469,1.41406 -0.0391,2.83593 0.0234,4.25 0.54297,-1.3086 1.13672,-2.59766 1.77734,-3.86329 l -1.80078,-0.38671 z m 0,0" id="path22904" fill="none" stroke="#000000" stroke-linejoin="round" stroke-linecap="round" stroke-width="0.3" stroke-miterlimit="10"/>
  <g id="g22948">
   <use transform="translate(85.366,96.044)" id="use22950" width="184" height="314" xlink:href="#glyph0-1"/>
   <use transform="translate(88.38287,96.044)" id="use22952" width="184" height="314" xlink:href="#glyph0-2"/>
   <use transform="translate(92.0197,96.044)" id="use22954" width="184" height="314" xlink:href="#glyph0-3"/>
  </g>
  <g id="g22956">
   <use transform="translate(129.886,5.645)" id="use22958" width="184" height="314" xlink:href="#glyph0-4"/>
   <use transform="translate(134.10445,5.645)" id="use22960" width="184" height="314" xlink:href="#glyph0-5"/>
   <use transform="translate(136.10942,5.645)" id="use22962" width="184" height="314" xlink:href="#glyph0-6"/>
   <use transform="translate(141.36418,5.645)" id="use22964" width="184" height="314" xlink:href="#glyph0-7"/>
   <use transform="translate(146.01361,5.645)" id="use22966" width="184" height="314" xlink:href="#glyph0-8"/>
  </g>
  <g id="g22968">
   <use transform="translate(152.77889,5.645)" id="use22970" width="184" height="314" xlink:href="#glyph0-9"/>
   <use transform="translate(158.5811,5.645)" id="use22972" width="184" height="314" xlink:href="#glyph0-10"/>
  </g>
  <g id="g22974">
   <use transform="translate(165.473,5.645)" id="use22976" width="184" height="314" xlink:href="#glyph1-1"/>
  </g>
  <g id="g22978">
   <use transform="translate(142.642,87.153)" id="use22980" width="184" height="314" xlink:href="#glyph0-4"/>
   <use transform="translate(146.86045,87.153)" id="use22982" width="184" height="314" xlink:href="#glyph0-5"/>
   <use transform="translate(148.86542,87.153)" id="use22984" width="184" height="314" xlink:href="#glyph0-6"/>
   <use transform="translate(154.12018,87.153)" id="use22986" width="184" height="314" xlink:href="#glyph0-7"/>
   <use transform="translate(158.76961,87.153)" id="use22988" width="184" height="314" xlink:href="#glyph0-8"/>
  </g>
  <g id="g22990">
   <use transform="translate(165.53489,87.153)" id="use22992" width="184" height="314" xlink:href="#glyph0-9"/>
   <use transform="translate(171.3371,87.153)" id="use22994" width="184" height="314" xlink:href="#glyph0-10"/>
  </g>
  <g id="g22996">
   <use transform="translate(178.229,87.153)" id="use22998" width="184" height="314" xlink:href="#glyph1-2"/>
  </g>
  <g id="g23000">
   <use transform="translate(9.13,48.009)" id="use23002" width="184" height="314" xlink:href="#glyph1-3"/>
  </g>
  <g id="g23004">
   <use transform="translate(169.153,48.009)" id="use23006" width="184" height="314" xlink:href="#glyph1-3"/>
  </g>
  <g id="g23008">
   <use transform="translate(34.926,74.065)" id="use23010" width="184" height="314" xlink:href="#glyph2-1"/>
  </g>
  <g id="g23012">
   <use transform="translate(62.989,74.065)" id="use23014" width="184" height="314" xlink:href="#glyph2-1"/>
  </g>
  <g id="g23016">
   <use transform="translate(80.28,74.065)" id="use23018" width="184" height="314" xlink:href="#glyph2-1"/>
  </g>
  <g id="g23020">
   <use transform="translate(91.335,74.065)" id="use23022" width="184" height="314" xlink:href="#glyph2-1"/>
  </g>
  <g id="g23024">
   <use transform="translate(102.674,74.065)" id="use23026" width="184" height="314" xlink:href="#glyph2-1"/>
  </g>
  <g id="g23028">
   <use transform="translate(119.682,74.065)" id="use23030" width="184" height="314" xlink:href="#glyph2-1"/>
  </g>
  <g id="g23032">
   <use transform="translate(148.028,74.065)" id="use23034" width="184" height="314" xlink:href="#glyph2-1"/>
  </g>
  <g id="g23036">
   <use transform="translate(34.926,20.901)" id="use23038" width="184" height="314" xlink:href="#glyph3-1"/>
  </g>
  <g id="g23040">
   <use transform="translate(62.989,20.901)" id="use23042" width="184" height="314" xlink:href="#glyph3-1"/>
  </g>
  <g id="g23044">
   <use transform="translate(80.28,20.901)" id="use23046" width="184" height="314" xlink:href="#glyph3-1"/>
  </g>
  <g id="g23048">
   <use transform="translate(91.335,20.901)" id="use23050" width="184" height="314" xlink:href="#glyph3-1"/>
  </g>
  <g id="g23052">
   <use transform="translate(102.674,20.901)" id="use23054" width="184" height="314" xlink:href="#glyph3-1"/>
  </g>
  <g id="g23056">
   <use transform="translate(119.682,20.901)" id="use23058" width="184" height="314" xlink:href="#glyph3-1"/>
  </g>
  <g id="g23060">
   <use transform="translate(148.028,20.901)" id="use23062" width="184" height="314" xlink:href="#glyph3-1"/>
  </g>
 </g>
</svg>
