<?xml version="1.0" encoding="UTF-8"?>
<svg xmlns="http://www.w3.org/2000/svg" xmlns:xlink="http://www.w3.org/1999/xlink" width="278.86018001858923pt" height="122.97560733739029pt" viewBox="0 0 161 71" version="1.1">
<defs>
<g>
<symbol overflow="visible" id="glyph0-0">
<path style="stroke:none;" d=""/>
</symbol>
<symbol overflow="visible" id="glyph0-1">
<path style="stroke:none;" d="M 0.640625 -4.109375 L 0.640625 0 L 1.9375 0 C 2.15625 0 2.375 0 2.578125 -0.015625 C 3.140625 -0.078125 3.703125 -0.359375 3.890625 -0.8125 C 4.03125 -1.171875 3.921875 -1.484375 3.671875 -1.71875 C 3.40625 -1.96875 3.03125 -2.109375 2.671875 -2.15625 C 2.765625 -2.171875 2.875 -2.203125 2.96875 -2.234375 C 3.328125 -2.359375 3.734375 -2.609375 3.765625 -3.015625 C 3.796875 -3.15625 3.71875 -3.328125 3.671875 -3.421875 C 3.421875 -3.859375 2.84375 -4.078125 2.234375 -4.109375 C 2.09375 -4.109375 1.953125 -4.109375 1.8125 -4.109375 L 0.640625 -4.109375 Z M 1.0625 -2.296875 L 1.0625 -3.765625 L 1.765625 -3.765625 C 2.125 -3.765625 2.484375 -3.75 2.828125 -3.609375 C 3.046875 -3.53125 3.328125 -3.375 3.359375 -3.109375 C 3.40625 -2.8125 3.109375 -2.59375 2.859375 -2.484375 C 2.609375 -2.375 2.34375 -2.328125 2.078125 -2.296875 C 1.953125 -2.296875 1.828125 -2.296875 1.71875 -2.296875 L 1.0625 -2.296875 Z M 1.0625 -0.34375 L 1.0625 -1.96875 L 1.8125 -1.96875 C 1.921875 -1.96875 2.015625 -1.984375 2.125 -1.96875 C 2.4375 -1.953125 2.734375 -1.90625 3.015625 -1.765625 C 3.28125 -1.640625 3.578125 -1.390625 3.53125 -1.0625 C 3.5 -0.78125 3.203125 -0.59375 2.953125 -0.5 C 2.734375 -0.40625 2.484375 -0.359375 2.234375 -0.34375 C 2.125 -0.34375 2.03125 -0.34375 1.921875 -0.34375 L 1.0625 -0.34375 Z M 1.0625 -0.34375 "/>
</symbol>
<symbol overflow="visible" id="glyph0-2">
<path style="stroke:none;" d="M 0.625 -4.09375 L 0.625 0 L 3.671875 0 L 3.671875 -0.359375 L 1.078125 -0.359375 L 1.078125 -1.953125 L 3.390625 -1.953125 L 3.390625 -2.296875 L 1.078125 -2.296875 L 1.078125 -3.75 L 3.578125 -3.75 L 3.578125 -4.09375 L 0.625 -4.09375 Z M 0.625 -4.09375 "/>
</symbol>
<symbol overflow="visible" id="glyph0-3">
<path style="stroke:none;" d="M 0.625 -4.09375 L 0.625 0 L 1.078125 0 L 1.078125 -1.875 L 3.203125 -1.875 L 3.203125 -2.234375 L 1.078125 -2.234375 L 1.078125 -3.75 L 3.484375 -3.75 L 3.484375 -4.09375 L 0.625 -4.09375 Z M 0.625 -4.09375 "/>
</symbol>
<symbol overflow="visible" id="glyph0-4">
<path style="stroke:none;" d="M 0.859375 -3.421875 C 0.21875 -2.65625 0.203125 -1.5 0.828125 -0.703125 C 1.078125 -0.375 1.4375 -0.125 1.890625 0.015625 C 3.15625 0.359375 4.1875 -0.46875 4.453125 -1.40625 C 4.703125 -2.203125 4.46875 -3.09375 3.859375 -3.65625 C 3.546875 -3.9375 3.109375 -4.15625 2.59375 -4.203125 C 1.8125 -4.25 1.203125 -3.859375 0.859375 -3.421875 Z M 2.96875 -3.78125 C 3.375 -3.65625 3.703125 -3.375 3.90625 -3 C 4.015625 -2.78125 4.078125 -2.515625 4.09375 -2.265625 C 4.15625 -1.5625 3.859375 -0.796875 3.21875 -0.453125 C 2.90625 -0.28125 2.515625 -0.203125 2.109375 -0.296875 C 1.828125 -0.359375 1.578125 -0.515625 1.390625 -0.671875 C 1.03125 -1.015625 0.859375 -1.5 0.828125 -1.984375 C 0.765625 -2.84375 1.203125 -3.484375 1.828125 -3.734375 C 2.171875 -3.875 2.5625 -3.90625 2.96875 -3.78125 Z M 2.96875 -3.78125 "/>
</symbol>
<symbol overflow="visible" id="glyph0-5">
<path style="stroke:none;" d="M 0.625 -4.109375 L 0.625 0 L 1.0625 0 L 1.0625 -1.890625 L 1.9375 -1.890625 C 2.0625 -1.890625 2.171875 -1.890625 2.25 -1.875 C 2.375 -1.734375 2.46875 -1.578125 2.578125 -1.421875 C 2.90625 -0.953125 3.234375 -0.46875 3.59375 -0.015625 C 3.71875 0 3.890625 0 4.03125 0 L 3.796875 -0.34375 L 2.65625 -1.9375 C 2.765625 -1.953125 2.875 -1.984375 2.984375 -2.03125 C 3.40625 -2.171875 3.890625 -2.53125 3.859375 -3.03125 C 3.84375 -3.234375 3.78125 -3.359375 3.6875 -3.484375 C 3.40625 -3.828125 2.953125 -4.046875 2.453125 -4.09375 C 2.234375 -4.109375 2.03125 -4.109375 1.8125 -4.109375 L 0.625 -4.109375 Z M 1.0625 -2.21875 L 1.0625 -3.765625 L 1.953125 -3.765625 C 2.25 -3.765625 2.546875 -3.765625 2.84375 -3.671875 C 3.125 -3.578125 3.40625 -3.375 3.4375 -3.046875 C 3.453125 -2.859375 3.375 -2.671875 3.234375 -2.53125 C 3.125 -2.4375 3.015625 -2.375 2.875 -2.328125 C 2.59375 -2.21875 2.28125 -2.21875 1.984375 -2.21875 L 1.0625 -2.21875 Z M 1.0625 -2.21875 "/>
</symbol>
<symbol overflow="visible" id="glyph0-6">
<path style="stroke:none;" d="M 3.84375 -0.671875 C 3.5 -0.5 3.296875 -0.3125 2.8125 -0.3125 C 2.625 -0.296875 2.453125 -0.296875 2.265625 -0.328125 C 1.796875 -0.421875 1.390625 -0.765625 1.171875 -1.171875 C 0.765625 -1.9375 0.953125 -2.984375 1.65625 -3.5 C 1.78125 -3.59375 1.90625 -3.65625 2.03125 -3.71875 C 2.4375 -3.859375 2.90625 -3.84375 3.3125 -3.6875 C 3.453125 -3.625 3.578125 -3.5625 3.71875 -3.484375 C 3.75 -3.640625 3.78125 -3.796875 3.796875 -3.953125 C 3.671875 -3.984375 3.546875 -4.03125 3.40625 -4.0625 C 3.125 -4.140625 2.703125 -4.1875 2.375 -4.15625 C 1.765625 -4.09375 1.25 -3.75 0.9375 -3.359375 C 0.546875 -2.84375 0.421875 -2.171875 0.5625 -1.546875 C 0.8125 -0.578125 1.625 0.109375 2.78125 0.046875 C 3.171875 0.03125 3.421875 -0.0625 3.71875 -0.203125 C 3.75 -0.21875 3.84375 -0.265625 3.859375 -0.296875 C 3.875 -0.328125 3.84375 -0.59375 3.84375 -0.671875 Z M 3.84375 -0.671875 "/>
</symbol>
<symbol overflow="visible" id="glyph0-7">
<path style="stroke:none;" d="M 0.625 -4.109375 L 0.625 0 L 3.296875 0 L 3.296875 -0.34375 L 1.078125 -0.34375 L 1.078125 -4.109375 L 0.625 -4.109375 Z M 0.625 -4.109375 "/>
</symbol>
<symbol overflow="visible" id="glyph0-8">
<path style="stroke:none;" d="M 0.625 -4.109375 L 0.625 0 L 1.078125 0 L 1.078125 -4.109375 L 0.625 -4.109375 Z M 0.625 -4.109375 "/>
</symbol>
<symbol overflow="visible" id="glyph0-9">
<path style="stroke:none;" d="M 0.375 -0.78125 C 0.359375 -0.71875 0.28125 -0.34375 0.296875 -0.3125 C 0.3125 -0.296875 0.328125 -0.296875 0.34375 -0.28125 L 0.5 -0.203125 C 1.046875 0.078125 2 0.25 2.640625 -0.109375 C 2.96875 -0.28125 3.28125 -0.640625 3.28125 -1.109375 C 3.28125 -1.71875 2.796875 -2.09375 2.375 -2.234375 C 2.265625 -2.265625 1.8125 -2.359375 1.734375 -2.375 C 1.4375 -2.453125 1.09375 -2.515625 0.890625 -2.78125 C 0.859375 -2.8125 0.828125 -2.859375 0.8125 -2.90625 C 0.65625 -3.296875 0.953125 -3.625 1.3125 -3.75 C 1.703125 -3.90625 2.1875 -3.859375 2.546875 -3.71875 C 2.640625 -3.671875 2.734375 -3.625 2.8125 -3.5625 C 2.875 -3.53125 2.921875 -3.484375 2.96875 -3.453125 C 3 -3.5625 3.015625 -3.671875 3.03125 -3.78125 C 3.046875 -3.859375 3.078125 -3.921875 2.984375 -3.9375 L 2.84375 -4.015625 C 2.1875 -4.28125 1.328125 -4.3125 0.75 -3.84375 C 0.671875 -3.78125 0.609375 -3.703125 0.546875 -3.625 C 0.375 -3.375 0.296875 -3.015625 0.46875 -2.671875 C 0.609375 -2.390625 0.859375 -2.1875 1.1875 -2.078125 C 1.3125 -2.03125 1.4375 -2 1.5625 -1.96875 C 1.703125 -1.9375 2.171875 -1.84375 2.25 -1.8125 C 2.484375 -1.734375 2.71875 -1.578125 2.8125 -1.359375 C 2.875 -1.25 2.890625 -1.171875 2.890625 -1.03125 C 2.84375 -0.671875 2.53125 -0.421875 2.203125 -0.328125 C 1.6875 -0.1875 1.09375 -0.34375 0.71875 -0.546875 C 0.59375 -0.609375 0.484375 -0.703125 0.375 -0.78125 Z M 0.375 -0.78125 "/>
</symbol>
<symbol overflow="visible" id="glyph0-10">
<path style="stroke:none;" d="M 0.640625 -4.109375 L 0.640625 0 L 1.046875 0 L 1.046875 -3.75 L 1.046875 -3.75 L 1.21875 -3.453125 L 2.5625 -1.109375 C 2.765625 -0.75 2.96875 -0.375 3.1875 -0.015625 C 3.375 0.03125 3.609375 -0.015625 3.8125 0 L 3.8125 -4.109375 L 3.40625 -4.109375 L 3.40625 -0.359375 L 1.859375 -3.0625 C 1.65625 -3.40625 1.484375 -3.765625 1.25 -4.09375 C 1.078125 -4.140625 0.828125 -4.09375 0.640625 -4.109375 Z M 0.640625 -4.109375 "/>
</symbol>
<symbol overflow="visible" id="glyph0-11">
<path style="stroke:none;" d="M 0.1875 0 L 0.484375 0 C 0.53125 0 0.578125 0.015625 0.609375 -0.015625 C 0.640625 -0.03125 0.640625 -0.0625 0.65625 -0.078125 C 0.734375 -0.296875 1.03125 -1.015625 1.078125 -1.09375 C 1.078125 -1.15625 1.09375 -1.1875 1.171875 -1.1875 L 2.59375 -1.1875 C 2.75 -1.1875 2.90625 -1.1875 3.0625 -1.1875 C 3.125 -1.171875 3.15625 -1.09375 3.171875 -1.046875 C 3.234375 -0.875 3.546875 -0.09375 3.578125 -0.046875 C 3.59375 0.015625 3.65625 0 3.75 0 L 4.078125 0 C 3.921875 -0.390625 3.765625 -0.765625 3.609375 -1.140625 L 2.390625 -4.109375 C 2.375 -4.125 2.375 -4.15625 2.34375 -4.171875 C 2.3125 -4.171875 2.265625 -4.171875 2.234375 -4.171875 L 2.015625 -4.171875 C 1.984375 -4.171875 1.921875 -4.1875 1.890625 -4.15625 C 1.875 -4.140625 1.859375 -4.109375 1.859375 -4.09375 L 0.640625 -1.140625 L 0.34375 -0.421875 C 0.296875 -0.28125 0.234375 -0.140625 0.1875 0 Z M 2.109375 -3.671875 C 2.375 -2.9375 2.6875 -2.25 2.96875 -1.53125 L 1.25 -1.53125 C 1.53125 -2.25 1.828125 -2.9375 2.109375 -3.671875 L 2.109375 -3.671875 Z M 2.109375 -3.671875 "/>
</symbol>
<symbol overflow="visible" id="glyph0-12">
<path style="stroke:none;" d="M 0.234375 -4.09375 L 0.234375 -3.75 L 2.0625 -3.75 L 2.0625 0 L 2.5 0 L 2.5 -3.75 L 4.3125 -3.75 L 4.3125 -4.09375 L 0.234375 -4.09375 Z M 0.234375 -4.09375 "/>
</symbol>
<symbol overflow="visible" id="glyph0-13">
<path style="stroke:none;" d="M 0.09375 -4.109375 C 0.125 -3.984375 0.1875 -3.875 0.25 -3.765625 L 1.78125 -0.203125 L 1.84375 -0.046875 C 1.859375 -0.015625 1.859375 0.015625 1.890625 0.03125 C 1.921875 0.046875 1.984375 0.046875 2.015625 0.046875 L 2.234375 0.046875 C 2.265625 0.046875 2.3125 0.046875 2.34375 0.046875 C 2.375 0.03125 2.390625 0 2.40625 -0.03125 C 2.421875 -0.078125 2.453125 -0.140625 2.484375 -0.203125 C 2.59375 -0.453125 4.140625 -4.0625 4.15625 -4.109375 C 4.015625 -4.109375 3.859375 -4.109375 3.71875 -4.09375 L 3.6875 -4.03125 L 2.140625 -0.4375 L 1.734375 -1.421875 L 0.578125 -4.109375 L 0.09375 -4.109375 Z M 0.09375 -4.109375 "/>
</symbol>
<symbol overflow="visible" id="glyph0-14">
<path style="stroke:none;" d="M 0.09375 -4.109375 C 0.125 -4 1.359375 -0.203125 1.359375 -0.203125 C 1.375 -0.171875 1.421875 0.015625 1.453125 0.03125 C 1.46875 0.046875 1.515625 0.046875 1.546875 0.046875 L 1.734375 0.046875 C 1.765625 0.046875 1.796875 0.046875 1.828125 0.046875 C 1.859375 0.03125 1.875 0 1.890625 -0.015625 C 1.890625 -0.078125 2.140625 -0.828125 2.140625 -0.828125 L 2.71875 -2.640625 C 2.796875 -2.890625 2.984375 -3.453125 3.03125 -3.671875 L 3.03125 -3.671875 C 3.109375 -3.3125 3.234375 -3 3.328125 -2.65625 C 3.625 -1.765625 3.90625 -0.859375 4.203125 0.03125 C 4.328125 0.046875 4.5 0.046875 4.625 0.03125 L 4.671875 -0.03125 L 5.625 -2.984375 L 6 -4.109375 C 5.859375 -4.109375 5.71875 -4.109375 5.609375 -4.09375 L 5.578125 -4.03125 C 5.1875 -2.828125 4.78125 -1.65625 4.421875 -0.4375 L 4.421875 -0.4375 C 4.40625 -0.53125 4.375 -0.65625 4.328125 -0.765625 L 4.15625 -1.328125 C 4.09375 -1.53125 3.28125 -4.0625 3.25 -4.09375 C 3.234375 -4.125 3.171875 -4.109375 3.140625 -4.109375 L 2.84375 -4.109375 L 2.03125 -1.59375 C 1.90625 -1.203125 1.765625 -0.84375 1.6875 -0.4375 C 1.421875 -1.375 1.109375 -2.234375 0.828125 -3.140625 C 0.71875 -3.453125 0.640625 -3.8125 0.515625 -4.09375 C 0.390625 -4.109375 0.234375 -4.109375 0.09375 -4.109375 Z M 0.09375 -4.109375 "/>
</symbol>
<symbol overflow="visible" id="glyph0-15">
<path style="stroke:none;" d="M 0.640625 -4.109375 L 0.640625 0 L 1.046875 0 L 1.046875 -3.671875 L 1.0625 -3.671875 C 1.09375 -3.5625 1.15625 -3.453125 1.203125 -3.328125 C 1.265625 -3.140625 2.515625 -0.234375 2.546875 -0.171875 C 2.59375 -0.109375 2.5625 -0.09375 2.671875 -0.09375 L 2.84375 -0.09375 C 2.875 -0.09375 2.90625 -0.09375 2.9375 -0.09375 C 2.96875 -0.09375 2.984375 -0.125 2.984375 -0.15625 C 3.015625 -0.203125 3.03125 -0.25 3.0625 -0.296875 L 3.328125 -0.953125 C 3.421875 -1.15625 4.46875 -3.59375 4.5 -3.671875 L 4.5 -3.671875 L 4.5 0 L 4.90625 0 L 4.90625 -4.109375 C 4.71875 -4.09375 4.484375 -4.125 4.3125 -4.09375 L 4.265625 -4.015625 L 2.765625 -0.53125 L 1.640625 -3.125 C 1.5 -3.453125 1.375 -3.796875 1.21875 -4.09375 C 1.0625 -4.140625 0.828125 -4.09375 0.640625 -4.109375 Z M 0.640625 -4.109375 "/>
</symbol>
<symbol overflow="visible" id="glyph0-16">
<path style="stroke:none;" d="M 3.953125 -1.953125 L 2.5625 -1.953125 L 2.5625 -1.59375 L 3.515625 -1.59375 L 3.515625 -0.5625 C 3.515625 -0.46875 3.5 -0.4375 3.40625 -0.421875 C 3.109375 -0.34375 2.703125 -0.265625 2.359375 -0.3125 C 1.96875 -0.375 1.625 -0.578125 1.40625 -0.84375 C 0.8125 -1.515625 0.8125 -2.625 1.421875 -3.28125 C 1.71875 -3.609375 2.140625 -3.84375 2.71875 -3.796875 C 2.96875 -3.78125 3.234375 -3.734375 3.46875 -3.625 C 3.59375 -3.5625 3.6875 -3.46875 3.8125 -3.40625 C 3.84375 -3.5625 3.875 -3.71875 3.890625 -3.859375 C 3.453125 -4.0625 3.15625 -4.15625 2.53125 -4.15625 C 1.953125 -4.15625 1.5 -3.890625 1.171875 -3.609375 C 1.046875 -3.5 0.953125 -3.375 0.859375 -3.234375 C 0.390625 -2.53125 0.390625 -1.578125 0.859375 -0.875 C 1.09375 -0.53125 1.390625 -0.265625 1.796875 -0.109375 C 2.328125 0.109375 2.90625 0.078125 3.453125 -0.0625 C 3.515625 -0.078125 3.921875 -0.203125 3.9375 -0.25 C 3.953125 -0.265625 3.953125 -0.296875 3.953125 -0.3125 L 3.953125 -1.953125 Z M 3.953125 -1.953125 "/>
</symbol>
<symbol overflow="visible" id="glyph0-17">
<path style="stroke:none;" d="M 2.1875 1.3125 C 2.15625 1.28125 2.125 1.25 2.078125 1.21875 C 1.4375 0.640625 1.046875 -0.265625 1 -1.359375 C 0.96875 -2.109375 1.09375 -2.859375 1.453125 -3.53125 C 1.609375 -3.84375 1.828125 -4.109375 2.078125 -4.34375 C 2.125 -4.375 2.15625 -4.40625 2.1875 -4.4375 L 1.96875 -4.4375 C 1.84375 -4.4375 1.859375 -4.4375 1.765625 -4.375 C 1.46875 -4.125 1.203125 -3.8125 1.015625 -3.453125 C 0.453125 -2.390625 0.40625 -0.984375 0.921875 0.15625 C 1.125 0.59375 1.40625 0.953125 1.765625 1.25 C 1.84375 1.296875 1.84375 1.3125 1.96875 1.3125 L 2.1875 1.3125 Z M 2.1875 1.3125 "/>
</symbol>
<symbol overflow="visible" id="glyph0-18">
<path style="stroke:none;" d="M 0.015625 -4.109375 L 1.90625 -1.640625 C 1.921875 -1.109375 1.90625 -0.546875 1.90625 0 L 2.34375 0 C 2.34375 -0.546875 2.328125 -1.109375 2.34375 -1.640625 L 2.40625 -1.71875 L 4.234375 -4.109375 C 4.0625 -4.109375 3.890625 -4.109375 3.71875 -4.109375 L 3.671875 -4.046875 L 2.53125 -2.5625 C 2.40625 -2.390625 2.28125 -2.234375 2.140625 -2.0625 L 2 -2.25 L 1.765625 -2.5625 C 1.359375 -3.0625 0.984375 -3.59375 0.578125 -4.09375 C 0.421875 -4.125 0.203125 -4.09375 0.015625 -4.109375 Z M 0.015625 -4.109375 "/>
</symbol>
<symbol overflow="visible" id="glyph0-19">
<path style="stroke:none;" d="M 0.375 -2.265625 C 0.3125 -2.1875 0.359375 -2.078125 0.453125 -2.0625 C 0.484375 -2.046875 0.53125 -2.0625 0.578125 -2.0625 L 4.359375 -2.0625 C 4.40625 -2.0625 4.453125 -2.0625 4.5 -2.09375 C 4.578125 -2.171875 4.53125 -2.3125 4.421875 -2.328125 C 4.328125 -2.34375 4.234375 -2.328125 4.15625 -2.328125 L 0.5625 -2.328125 C 0.46875 -2.328125 0.421875 -2.328125 0.375 -2.265625 Z M 0.375 -1 C 0.3125 -0.9375 0.359375 -0.828125 0.453125 -0.8125 C 0.484375 -0.796875 0.53125 -0.796875 0.578125 -0.796875 L 4.359375 -0.796875 C 4.40625 -0.796875 4.453125 -0.796875 4.5 -0.828125 C 4.578125 -0.90625 4.53125 -1.046875 4.421875 -1.078125 C 4.328125 -1.078125 4.234375 -1.078125 4.15625 -1.078125 L 0.5625 -1.078125 C 0.46875 -1.078125 0.421875 -1.078125 0.375 -1 Z M 0.375 -1 "/>
</symbol>
<symbol overflow="visible" id="glyph0-20">
<path style="stroke:none;" d="M 0.359375 -4.4375 C 0.390625 -4.40625 0.4375 -4.375 0.46875 -4.34375 C 1.203125 -3.6875 1.609375 -2.640625 1.5625 -1.359375 C 1.53125 -0.71875 1.390625 -0.078125 1.078125 0.46875 C 0.921875 0.75 0.703125 1 0.46875 1.21875 C 0.4375 1.25 0.390625 1.28125 0.359375 1.3125 L 0.59375 1.3125 C 0.703125 1.3125 0.703125 1.3125 0.78125 1.25 C 1.09375 1 1.34375 0.6875 1.546875 0.328125 C 2.109375 -0.734375 2.15625 -2.140625 1.640625 -3.28125 C 1.4375 -3.71875 1.15625 -4.078125 0.796875 -4.375 C 0.71875 -4.421875 0.71875 -4.4375 0.59375 -4.4375 L 0.359375 -4.4375 Z M 0.359375 -4.4375 "/>
</symbol>
<symbol overflow="visible" id="glyph1-0">
<path style="stroke:none;" d=""/>
</symbol>
<symbol overflow="visible" id="glyph1-1">
<path style="stroke:none;" d="M 0.625 -1.6875 C 0.5 -1.65625 0.484375 -1.46875 0.609375 -1.4375 C 0.65625 -1.421875 0.6875 -1.421875 0.71875 -1.421875 L 4.0625 -1.421875 C 4.140625 -1.421875 4.25 -1.40625 4.328125 -1.46875 C 4.40625 -1.546875 4.359375 -1.671875 4.25 -1.6875 C 4.1875 -1.71875 4.09375 -1.703125 4.015625 -1.703125 L 0.734375 -1.703125 C 0.703125 -1.703125 0.65625 -1.703125 0.625 -1.6875 Z M 0.625 -1.6875 "/>
</symbol>
<symbol overflow="visible" id="glyph2-0">
<path style="stroke:none;" d=""/>
</symbol>
<symbol overflow="visible" id="glyph2-1">
<path style="stroke:none;" d="M 0.6875 -2.796875 C 0.8125 -2.078125 0.953125 -1.375 1.078125 -0.65625 C 1.140625 -0.4375 1.140625 -0.171875 1.21875 0.015625 C 1.375 0.015625 1.53125 0.03125 1.65625 0 L 1.703125 -0.046875 L 3.375 -2.796875 C 3.234375 -2.796875 3.09375 -2.796875 2.96875 -2.78125 L 1.90625 -1.0625 L 1.546875 -0.4375 L 1.21875 -2.1875 C 1.171875 -2.375 1.15625 -2.59375 1.09375 -2.78125 C 0.96875 -2.796875 0.828125 -2.796875 0.6875 -2.796875 Z M 0.6875 -2.796875 "/>
</symbol>
<symbol overflow="visible" id="glyph3-0">
<path style="stroke:none;" d=""/>
</symbol>
<symbol overflow="visible" id="glyph3-1">
<path style="stroke:none;" d="M 1.625 -2.625 L 1.625 -2.625 C 1.671875 -2.84375 1.71875 -3.0625 1.765625 -3.296875 L 1.28125 -3.296875 L 0.578125 0 L 0.9375 0 C 1.015625 0 1.09375 0.015625 1.09375 -0.0625 C 1.109375 -0.125 1.21875 -0.578125 1.25 -0.78125 C 1.296875 -1 1.484375 -1.875 1.53125 -2.046875 C 1.609375 -2.3125 1.75 -2.5625 1.953125 -2.734375 C 2.09375 -2.84375 2.265625 -2.9375 2.4375 -2.953125 C 2.765625 -2.96875 3.0625 -2.90625 3.1875 -2.6875 C 3.296875 -2.484375 3.203125 -2.25 3.15625 -2.046875 L 2.734375 0 L 3.09375 0 C 3.15625 0 3.25 0.015625 3.25 -0.0625 C 3.265625 -0.125 3.359375 -0.578125 3.40625 -0.78125 C 3.453125 -1 3.625 -1.875 3.671875 -2.046875 C 3.765625 -2.3125 3.90625 -2.5625 4.109375 -2.734375 C 4.25 -2.84375 4.40625 -2.9375 4.578125 -2.953125 C 4.90625 -2.96875 5.21875 -2.90625 5.34375 -2.6875 C 5.4375 -2.484375 5.359375 -2.25 5.3125 -2.046875 L 4.890625 0 L 5.25 0 C 5.328125 0 5.40625 0.015625 5.40625 -0.078125 C 5.453125 -0.21875 5.546875 -0.734375 5.546875 -0.734375 L 5.859375 -2.1875 C 5.921875 -2.453125 5.96875 -2.78125 5.8125 -3.03125 C 5.6875 -3.25 5.421875 -3.3125 5.1875 -3.34375 C 4.6875 -3.390625 4.3125 -3.171875 4.0625 -2.9375 C 3.953125 -2.84375 3.828125 -2.734375 3.765625 -2.59375 C 3.75 -2.65625 3.765625 -2.703125 3.75 -2.765625 C 3.75 -2.890625 3.6875 -3.03125 3.609375 -3.125 C 3.453125 -3.28125 3.234375 -3.328125 3.03125 -3.34375 C 2.53125 -3.390625 2.171875 -3.171875 1.921875 -2.953125 C 1.8125 -2.859375 1.703125 -2.75 1.625 -2.625 Z M 1.625 -2.625 "/>
</symbol>
<symbol overflow="visible" id="glyph3-2">
<path style="stroke:none;" d="M 0.8125 -3.296875 C 0.953125 -2.4375 1.125 -1.609375 1.28125 -0.78125 C 1.34375 -0.515625 1.34375 -0.203125 1.4375 0.015625 C 1.609375 0.015625 1.796875 0.03125 1.953125 0 L 2 -0.0625 L 3.984375 -3.296875 C 3.8125 -3.296875 3.640625 -3.296875 3.5 -3.28125 L 2.25 -1.25 L 1.8125 -0.515625 L 1.421875 -2.578125 C 1.375 -2.796875 1.359375 -3.0625 1.296875 -3.28125 C 1.140625 -3.296875 0.96875 -3.296875 0.8125 -3.296875 Z M 0.8125 -3.296875 "/>
</symbol>
<symbol overflow="visible" id="glyph4-0">
<path style="stroke:none;" d=""/>
</symbol>
<symbol overflow="visible" id="glyph4-1">
<path style="stroke:none;" d="M 0.734375 -2 C 0.59375 -1.953125 0.578125 -1.734375 0.71875 -1.6875 C 0.765625 -1.671875 0.8125 -1.671875 0.84375 -1.671875 L 4.78125 -1.671875 C 4.875 -1.671875 5.015625 -1.65625 5.09375 -1.71875 C 5.171875 -1.8125 5.125 -1.96875 5 -2 C 4.921875 -2.015625 4.828125 -2 4.734375 -2 L 0.859375 -2 C 0.828125 -2 0.78125 -2 0.734375 -2 Z M 0.734375 -2 "/>
</symbol>
<symbol overflow="visible" id="glyph5-0">
<path style="stroke:none;" d=""/>
</symbol>
<symbol overflow="visible" id="glyph5-1">
<path style="stroke:none;" d="M 0.625 -3.203125 C 0.734375 -3.609375 0.90625 -4.046875 1.34375 -4.203125 C 1.5 -4.265625 1.671875 -4.28125 1.859375 -4.265625 C 2.21875 -4.234375 2.578125 -4.09375 2.796875 -3.78125 C 2.9375 -3.578125 2.984375 -3.328125 2.953125 -3.078125 C 2.875 -2.40625 2.28125 -1.984375 1.796875 -1.609375 C 1.40625 -1.3125 0.59375 -0.59375 0.59375 -0.59375 L 0.453125 -0.484375 C 0.390625 -0.40625 0.390625 -0.421875 0.390625 -0.265625 L 0.390625 0 L 3.484375 0 L 3.484375 -0.4375 L 0.84375 -0.4375 C 1.109375 -0.671875 1.90625 -1.34375 2.140625 -1.515625 C 2.578125 -1.84375 3.0625 -2.15625 3.34375 -2.640625 C 3.640625 -3.203125 3.453125 -3.921875 2.96875 -4.3125 C 2.4375 -4.765625 1.46875 -4.828125 0.875 -4.390625 C 0.65625 -4.234375 0.5 -3.984375 0.390625 -3.734375 C 0.375 -3.671875 0.328125 -3.609375 0.328125 -3.546875 C 0.34375 -3.515625 0.390625 -3.484375 0.40625 -3.4375 C 0.46875 -3.359375 0.546875 -3.265625 0.625 -3.203125 Z M 0.625 -3.203125 "/>
</symbol>
<symbol overflow="visible" id="glyph5-2">
<path style="stroke:none;" d="M 1.828125 -4.6875 C 1.671875 -4.65625 1.5 -4.640625 1.359375 -4.5625 C 0.625 -4.28125 0.375 -3.34375 0.375 -2.40625 C 0.375 -2.265625 0.375 -2.125 0.375 -1.96875 C 0.390625 -1.328125 0.546875 -0.6875 0.90625 -0.296875 C 1.21875 0.015625 1.671875 0.140625 2.09375 0.109375 C 2.359375 0.078125 2.578125 -0.015625 2.765625 -0.140625 C 3.359375 -0.5625 3.5 -1.421875 3.5 -2.359375 C 3.5 -3.125 3.359375 -3.8125 2.984375 -4.234375 C 2.703125 -4.546875 2.265625 -4.71875 1.828125 -4.6875 Z M 2.421875 -4.171875 C 2.5 -4.125 2.5625 -4.078125 2.625 -4.015625 C 2.890625 -3.765625 2.96875 -3.265625 2.984375 -2.796875 C 2.984375 -2.703125 2.984375 -2.609375 2.984375 -2.515625 L 2.984375 -2.15625 C 2.984375 -1.5625 2.9375 -0.984375 2.671875 -0.625 C 2.328125 -0.171875 1.578125 -0.15625 1.21875 -0.609375 C 1.125 -0.703125 1.078125 -0.828125 1.03125 -0.9375 C 0.90625 -1.296875 0.875 -1.734375 0.875 -2.1875 L 0.875 -2.546875 C 0.875 -2.640625 0.890625 -2.71875 0.890625 -2.8125 C 0.890625 -3.359375 1.03125 -3.90625 1.390625 -4.140625 C 1.671875 -4.3125 2.09375 -4.359375 2.421875 -4.171875 Z M 2.421875 -4.171875 "/>
</symbol>
<symbol overflow="visible" id="glyph5-3">
<path style="stroke:none;" d="M 0.4375 -2.671875 C 0.375 -2.578125 0.4375 -2.453125 0.53125 -2.421875 C 0.578125 -2.40625 0.625 -2.421875 0.671875 -2.421875 L 5.125 -2.421875 C 5.1875 -2.421875 5.234375 -2.421875 5.296875 -2.453125 C 5.375 -2.546875 5.328125 -2.71875 5.203125 -2.734375 C 5.09375 -2.75 4.984375 -2.734375 4.890625 -2.734375 L 0.671875 -2.734375 C 0.5625 -2.734375 0.5 -2.75 0.4375 -2.671875 Z M 0.4375 -1.1875 C 0.375 -1.09375 0.4375 -0.96875 0.53125 -0.953125 C 0.578125 -0.9375 0.625 -0.9375 0.671875 -0.9375 L 5.125 -0.9375 C 5.1875 -0.9375 5.234375 -0.9375 5.296875 -0.984375 C 5.375 -1.078125 5.328125 -1.234375 5.203125 -1.265625 C 5.09375 -1.28125 4.984375 -1.265625 4.890625 -1.265625 L 0.65625 -1.265625 C 0.5625 -1.265625 0.484375 -1.265625 0.4375 -1.1875 Z M 0.4375 -1.1875 "/>
</symbol>
</g>
<clipPath id="clip1">
  <path d="M -225 667 L 387 667 L 387 -125 L -225 -125 L -225 667 Z M -225 667 "/>
</clipPath>
<clipPath id="clip2">
  <path d="M 4.980469 71.800781 L 160.886719 71.800781 L 160.886719 22.394531 L 4.980469 22.394531 L 4.980469 71.800781 Z M 4.980469 71.800781 "/>
</clipPath>
<clipPath id="clip3">
  <path d="M -225 667 L 387 667 L 387 -125 L -225 -125 L -225 667 Z M -225 667 "/>
</clipPath>
</defs>
<g id="surface0">
<g clip-path="url(#clip1)" clip-rule="nonzero">
<g clip-path="url(#clip2)" clip-rule="nonzero">
<path style="fill:none;stroke-width:5;stroke-linecap:butt;stroke-linejoin:miter;stroke:rgb(13.730068%,12.159915%,12.54902%);stroke-opacity:1;stroke-miterlimit:4;" d="M 9.992704 313.314889 L 145.902365 313.314889 L 145.902365 380.842778 L 9.992704 380.842778 L 9.992704 313.314889 Z M 9.992704 313.314889 " transform="matrix(0.109793,0,0,-0.109793,4.981,71.802)"/>
<path style="fill:none;stroke-width:5;stroke-linecap:butt;stroke-linejoin:miter;stroke:rgb(13.730068%,12.159915%,12.54902%);stroke-opacity:1;stroke-miterlimit:4;" d="M 266.655608 313.314889 L 402.600847 313.314889 L 402.600847 380.842778 L 266.655608 380.842778 L 266.655608 313.314889 Z M 266.655608 313.314889 " transform="matrix(0.109793,0,0,-0.109793,4.981,71.802)"/>
<path style="fill:none;stroke-width:5;stroke-linecap:butt;stroke-linejoin:miter;stroke:rgb(13.730068%,12.159915%,12.54902%);stroke-opacity:1;stroke-miterlimit:4;" d="M 1008.323876 313.314889 L 1144.269115 313.314889 L 1144.269115 380.842778 L 1008.323876 380.842778 L 1008.323876 313.314889 Z M 1008.323876 313.314889 " transform="matrix(0.109793,0,0,-0.109793,4.981,71.802)"/>
<path style="fill:none;stroke-width:5;stroke-linecap:butt;stroke-linejoin:miter;stroke:rgb(13.730068%,12.159915%,12.54902%);stroke-opacity:1;stroke-miterlimit:4;" d="M 1268.331153 313.314889 L 1404.276392 313.314889 L 1404.276392 380.842778 L 1268.331153 380.842778 L 1268.331153 313.314889 Z M 1268.331153 313.314889 " transform="matrix(0.109793,0,0,-0.109793,4.981,71.802)"/>
<path style="fill:none;stroke-width:5;stroke-linecap:butt;stroke-linejoin:miter;stroke:rgb(13.730068%,12.159915%,12.54902%);stroke-opacity:1;stroke-miterlimit:4;" d="M 60.905459 10.008644 L 359.266301 10.008644 L 359.266301 86.680193 L 60.905459 86.680193 L 60.905459 10.008644 Z M 60.905459 10.008644 " transform="matrix(0.109793,0,0,-0.109793,4.981,71.802)"/>
<path style="fill:none;stroke-width:7.5;stroke-linecap:butt;stroke-linejoin:miter;stroke:rgb(13.730068%,12.159915%,12.54902%);stroke-opacity:1;stroke-miterlimit:4;" d="M 210.08588 86.680193 L 210.08588 10.008644 " transform="matrix(0.109793,0,0,-0.109793,4.981,71.802)"/>
<path style="fill:none;stroke-width:7.5;stroke-linecap:butt;stroke-linejoin:miter;stroke:rgb(13.730068%,12.159915%,12.54902%);stroke-opacity:1;stroke-miterlimit:4;" d="M 210.08588 86.680193 L 210.08588 10.008644 " transform="matrix(0.109793,0,0,-0.109793,4.981,71.802)"/>
<path style="fill:none;stroke-width:5;stroke-linecap:butt;stroke-linejoin:miter;stroke:rgb(13.730068%,12.159915%,12.54902%);stroke-opacity:1;stroke-miterlimit:4;" d="M 1060.908818 10.008644 L 1359.269659 10.008644 L 1359.269659 86.680193 L 1060.908818 86.680193 L 1060.908818 10.008644 Z M 1060.908818 10.008644 " transform="matrix(0.109793,0,0,-0.109793,4.981,71.802)"/>
<path style="fill:none;stroke-width:5;stroke-linecap:butt;stroke-linejoin:miter;stroke:rgb(13.730068%,12.159915%,12.54902%);stroke-opacity:1;stroke-miterlimit:4;" d="M 1210.089239 86.680193 L 1210.089239 10.008644 " transform="matrix(0.109793,0,0,-0.109793,4.981,71.802)"/>
<path style="fill:none;stroke-width:7.5;stroke-linecap:butt;stroke-linejoin:miter;stroke:rgb(13.730068%,12.159915%,12.54902%);stroke-opacity:1;stroke-miterlimit:4;" d="M 1210.089239 86.680193 L 1210.089239 10.008644 " transform="matrix(0.109793,0,0,-0.109793,4.981,71.802)"/>
<path style="fill:none;stroke-width:5;stroke-linecap:butt;stroke-linejoin:miter;stroke:rgb(13.730068%,12.159915%,12.54902%);stroke-opacity:1;stroke-miterlimit:4;" d="M 61.617028 417.915518 L 101.607201 417.915518 " transform="matrix(0.109793,0,0,-0.109793,4.981,71.802)"/>
<path style=" stroke:none;fill-rule:nonzero;fill:rgb(13.730068%,12.159915%,12.54902%);fill-opacity:1;" d="M 15.050781 27.492188 L 21 25.898438 L 15.050781 24.304688 L 15.050781 27.492188 "/>
<path style="fill:none;stroke-width:5;stroke-linecap:butt;stroke-linejoin:miter;stroke:rgb(13.730068%,12.159915%,12.54902%);stroke-opacity:1;stroke-miterlimit:4;" d="M 350.976523 417.915518 L 310.986351 417.915518 " transform="matrix(0.109793,0,0,-0.109793,4.981,71.802)"/>
<path style=" stroke:none;fill-rule:nonzero;fill:rgb(13.730068%,12.159915%,12.54902%);fill-opacity:1;" d="M 40.210938 27.492188 L 34.257813 25.898438 L 40.210938 24.304688 L 40.210938 27.492188 "/>
<path style="fill:none;stroke-width:5;stroke-linecap:butt;stroke-linejoin:miter;stroke:rgb(13.730068%,12.159915%,12.54902%);stroke-opacity:1;stroke-miterlimit:4;" d="M 1059.9482 417.915518 L 1099.973951 417.915518 " transform="matrix(0.109793,0,0,-0.109793,4.981,71.802)"/>
<path style=" stroke:none;fill-rule:nonzero;fill:rgb(13.730068%,12.159915%,12.54902%);fill-opacity:1;" d="M 124.660156 27.492188 L 130.613281 25.898438 L 124.660156 24.304688 L 124.660156 27.492188 "/>
<path style="fill:none;stroke-width:5;stroke-linecap:butt;stroke-linejoin:miter;stroke:rgb(13.730068%,12.159915%,12.54902%);stroke-opacity:1;stroke-miterlimit:4;" d="M 1230.689158 113.75539 L 1270.679331 113.75539 " transform="matrix(0.109793,0,0,-0.109793,4.981,71.802)"/>
<path style=" stroke:none;fill-rule:nonzero;fill:rgb(13.730068%,12.159915%,12.54902%);fill-opacity:1;" d="M 143.40625 60.886719 L 149.355469 59.292969 L 143.40625 57.699219 L 143.40625 60.886719 "/>
</g>
</g>
<g clip-path="url(#clip3)" clip-rule="nonzero">
<g style="fill:rgb(0%,0%,0%);fill-opacity:1;">
  <use xlink:href="#glyph0-1" x="52.578" y="35.593"/>
  <use xlink:href="#glyph0-2" x="56.910578" y="35.593"/>
  <use xlink:href="#glyph0-3" x="60.862595" y="35.593"/>
</g>
<g style="fill:rgb(0%,0%,0%);fill-opacity:1;">
  <use xlink:href="#glyph0-4" x="64.447687" y="35.593"/>
  <use xlink:href="#glyph0-5" x="69.379558" y="35.593"/>
  <use xlink:href="#glyph0-2" x="73.613143" y="35.593"/>
</g>
<g style="fill:rgb(0%,0%,0%);fill-opacity:1;">
  <use xlink:href="#glyph0-6" x="79.651721" y="35.593"/>
  <use xlink:href="#glyph0-4" x="83.865152" y="35.593"/>
  <use xlink:href="#glyph0-7" x="88.797023" y="35.593"/>
  <use xlink:href="#glyph0-7" x="92.382707" y="35.593"/>
  <use xlink:href="#glyph0-8" x="95.968391" y="35.593"/>
  <use xlink:href="#glyph0-9" x="97.672613" y="35.593"/>
  <use xlink:href="#glyph0-8" x="101.336543" y="35.593"/>
  <use xlink:href="#glyph0-4" x="103.040765" y="35.593"/>
  <use xlink:href="#glyph0-10" x="107.972637" y="35.593"/>
</g>
<g style="fill:rgb(0%,0%,0%);fill-opacity:1;">
  <use xlink:href="#glyph0-11" x="54.677" y="68.701"/>
  <use xlink:href="#glyph0-3" x="58.945558" y="68.701"/>
  <use xlink:href="#glyph0-12" x="62.714409" y="68.701"/>
  <use xlink:href="#glyph0-2" x="67.279354" y="68.701"/>
  <use xlink:href="#glyph0-5" x="71.231372" y="68.701"/>
</g>
<g style="fill:rgb(0%,0%,0%);fill-opacity:1;">
  <use xlink:href="#glyph0-6" x="77.551517" y="68.701"/>
  <use xlink:href="#glyph0-4" x="81.764948" y="68.701"/>
  <use xlink:href="#glyph0-7" x="86.696819" y="68.701"/>
  <use xlink:href="#glyph0-7" x="90.282503" y="68.701"/>
  <use xlink:href="#glyph0-8" x="93.868187" y="68.701"/>
  <use xlink:href="#glyph0-9" x="95.572409" y="68.701"/>
  <use xlink:href="#glyph0-8" x="99.236339" y="68.701"/>
  <use xlink:href="#glyph0-4" x="100.940562" y="68.701"/>
  <use xlink:href="#glyph0-10" x="105.872433" y="68.701"/>
</g>
<g style="fill:rgb(0%,0%,0%);fill-opacity:1;">
  <use xlink:href="#glyph0-13" x="9.3514" y="4.54465"/>
  <use xlink:href="#glyph0-8" x="13.619958" y="4.54465"/>
  <use xlink:href="#glyph0-2" x="15.324181" y="4.54465"/>
  <use xlink:href="#glyph0-14" x="19.276198" y="4.54465"/>
</g>
<g style="fill:rgb(0%,0%,0%);fill-opacity:1;">
  <use xlink:href="#glyph0-3" x="27.463579" y="4.54465"/>
  <use xlink:href="#glyph0-5" x="31.23243" y="4.54465"/>
  <use xlink:href="#glyph0-4" x="35.466015" y="4.54465"/>
  <use xlink:href="#glyph0-15" x="40.397886" y="4.54465"/>
</g>
<g style="fill:rgb(0%,0%,0%);fill-opacity:1;">
  <use xlink:href="#glyph0-6" x="-0.05215" y="11.31915"/>
  <use xlink:href="#glyph0-2" x="4.16128" y="11.31915"/>
  <use xlink:href="#glyph0-10" x="8.113298" y="11.31915"/>
  <use xlink:href="#glyph0-12" x="12.579843" y="11.31915"/>
  <use xlink:href="#glyph0-2" x="17.144788" y="11.31915"/>
  <use xlink:href="#glyph0-5" x="21.096805" y="11.31915"/>
</g>
<g style="fill:rgb(0%,0%,0%);fill-opacity:1;">
  <use xlink:href="#glyph0-4" x="27.416951" y="11.31915"/>
  <use xlink:href="#glyph0-3" x="32.348822" y="11.31915"/>
</g>
<g style="fill:rgb(0%,0%,0%);fill-opacity:1;">
  <use xlink:href="#glyph0-15" x="38.204234" y="11.31915"/>
  <use xlink:href="#glyph0-11" x="43.76978" y="11.31915"/>
  <use xlink:href="#glyph0-9" x="48.038338" y="11.31915"/>
  <use xlink:href="#glyph0-9" x="51.702268" y="11.31915"/>
</g>
<g style="fill:rgb(0%,0%,0%);fill-opacity:1;">
  <use xlink:href="#glyph0-13" x="108.8469" y="4.5444"/>
  <use xlink:href="#glyph0-8" x="113.115458" y="4.5444"/>
  <use xlink:href="#glyph0-2" x="114.819681" y="4.5444"/>
  <use xlink:href="#glyph0-14" x="118.771698" y="4.5444"/>
</g>
<g style="fill:rgb(0%,0%,0%);fill-opacity:1;">
  <use xlink:href="#glyph0-3" x="126.959079" y="4.5444"/>
  <use xlink:href="#glyph0-5" x="130.72793" y="4.5444"/>
  <use xlink:href="#glyph0-4" x="134.961515" y="4.5444"/>
  <use xlink:href="#glyph0-15" x="139.893386" y="4.5444"/>
</g>
<g style="fill:rgb(0%,0%,0%);fill-opacity:1;">
  <use xlink:href="#glyph0-15" x="107.17665" y="11.3189"/>
  <use xlink:href="#glyph0-4" x="112.742196" y="11.3189"/>
</g>
<g style="fill:rgb(0%,0%,0%);fill-opacity:1;">
  <use xlink:href="#glyph0-13" x="117.490307" y="11.3189"/>
  <use xlink:href="#glyph0-8" x="121.758866" y="11.3189"/>
  <use xlink:href="#glyph0-10" x="123.463088" y="11.3189"/>
  <use xlink:href="#glyph0-16" x="127.929633" y="11.3189"/>
</g>
<g style="fill:rgb(0%,0%,0%);fill-opacity:1;">
  <use xlink:href="#glyph0-6" x="134.412791" y="11.3189"/>
  <use xlink:href="#glyph0-11" x="138.626222" y="11.3189"/>
  <use xlink:href="#glyph0-5" x="142.89478" y="11.3189"/>
</g>
<g style="fill:rgb(0%,0%,0%);fill-opacity:1;">
  <use xlink:href="#glyph0-17" x="93.008" y="18.0934"/>
  <use xlink:href="#glyph0-6" x="95.572336" y="18.0934"/>
  <use xlink:href="#glyph0-11" x="99.785766" y="18.0934"/>
  <use xlink:href="#glyph0-5" x="104.054325" y="18.0934"/>
</g>
<g style="fill:rgb(0%,0%,0%);fill-opacity:1;">
  <use xlink:href="#glyph0-13" x="110.374471" y="18.0934"/>
  <use xlink:href="#glyph0-2" x="114.643029" y="18.0934"/>
  <use xlink:href="#glyph0-7" x="118.595047" y="18.0934"/>
  <use xlink:href="#glyph0-4" x="122.18073" y="18.0934"/>
  <use xlink:href="#glyph0-6" x="127.112602" y="18.0934"/>
  <use xlink:href="#glyph0-8" x="131.326032" y="18.0934"/>
  <use xlink:href="#glyph0-12" x="133.030255" y="18.0934"/>
  <use xlink:href="#glyph0-18" x="137.5952" y="18.0934"/>
</g>
<g style="fill:rgb(0%,0%,0%);fill-opacity:1;">
  <use xlink:href="#glyph0-19" x="143.618366" y="18.0934"/>
</g>
<g style="fill:rgb(0%,0%,0%);fill-opacity:1;">
  <use xlink:href="#glyph1-1" x="150.264" y="18.0934"/>
</g>
<g style="fill:rgb(0%,0%,0%);fill-opacity:1;">
  <use xlink:href="#glyph2-1" x="155.16255" y="18.0934"/>
</g>
<g style="fill:rgb(0%,0%,0%);fill-opacity:1;">
  <use xlink:href="#glyph0-20" x="158.7351" y="18.0934"/>
</g>
<g style="fill:rgb(0%,0%,0%);fill-opacity:1;">
  <use xlink:href="#glyph3-1" x="10.551" y="35.294"/>
</g>
<g style="fill:rgb(0%,0%,0%);fill-opacity:1;">
  <use xlink:href="#glyph3-1" x="38.756" y="35.294"/>
</g>
<g style="fill:rgb(0%,0%,0%);fill-opacity:1;">
  <use xlink:href="#glyph3-1" x="120.11" y="35.294"/>
</g>
<g style="fill:rgb(0%,0%,0%);fill-opacity:1;">
  <use xlink:href="#glyph3-1" x="148.655" y="35.294"/>
</g>
<g style="fill:rgb(0%,0%,0%);fill-opacity:1;">
  <use xlink:href="#glyph3-1" x="16.788" y="68.176"/>
</g>
<g style="fill:rgb(0%,0%,0%);fill-opacity:1;">
  <use xlink:href="#glyph3-1" x="33.342" y="68.176"/>
</g>
<g style="fill:rgb(0%,0%,0%);fill-opacity:1;">
  <use xlink:href="#glyph3-1" x="126.573" y="68.176"/>
</g>
<g style="fill:rgb(0%,0%,0%);fill-opacity:1;">
  <use xlink:href="#glyph3-1" x="143.043" y="68.176"/>
</g>
<g style="fill:rgb(0%,0%,0%);fill-opacity:1;">
  <use xlink:href="#glyph3-2" x="4.07" y="27.44"/>
</g>
<g style="fill:rgb(0%,0%,0%);fill-opacity:1;">
  <use xlink:href="#glyph4-1" x="44.389" y="27.44"/>
</g>
<g style="fill:rgb(0%,0%,0%);fill-opacity:1;">
  <use xlink:href="#glyph3-2" x="50.152" y="27.44"/>
</g>
<g style="fill:rgb(0%,0%,0%);fill-opacity:1;">
  <use xlink:href="#glyph5-1" x="111.491" y="27.44"/>
</g>
<g style="fill:rgb(0%,0%,0%);fill-opacity:1;">
  <use xlink:href="#glyph3-2" x="115.37" y="27.44"/>
</g>
<g style="fill:rgb(0%,0%,0%);fill-opacity:1;">
  <use xlink:href="#glyph5-2" x="157.133" y="27.44"/>
</g>
<g style="fill:rgb(0%,0%,0%);fill-opacity:1;">
  <use xlink:href="#glyph3-2" x="19.046" y="60.463"/>
</g>
<g style="fill:rgb(0%,0%,0%);fill-opacity:1;">
  <use xlink:href="#glyph5-3" x="25.307" y="60.463"/>
</g>
<g style="fill:rgb(0%,0%,0%);fill-opacity:1;">
  <use xlink:href="#glyph5-2" x="33.127419" y="60.463"/>
</g>
<g style="fill:rgb(0%,0%,0%);fill-opacity:1;">
  <use xlink:href="#glyph3-2" x="134.29" y="60.463"/>
</g>
</g>
</g>
</svg>
