<?xml version="1.0" encoding="UTF-8"?>
<svg xmlns="http://www.w3.org/2000/svg" xmlns:xlink="http://www.w3.org/1999/xlink" width="66.2pt" height="33.8pt" viewBox="0 0 51 26" version="1.1">
<defs>
<g>
<symbol overflow="visible" id="glyph0-0">
<path style="stroke:none;" d=""/>
</symbol>
<symbol overflow="visible" id="glyph0-1">
<path style="stroke:none;" d="M 0.921875 -6.21875 L 0.921875 0 L 1.546875 0 L 1.546875 -2.984375 L 4.984375 -2.984375 L 4.984375 0 L 5.609375 0 L 5.609375 -6.21875 L 4.984375 -6.21875 L 4.984375 -3.484375 L 1.546875 -3.484375 L 1.546875 -6.21875 L 0.921875 -6.21875 Z M 0.921875 -6.21875 "/>
</symbol>
<symbol overflow="visible" id="glyph0-2">
<path style="stroke:none;" d="M 5.640625 -0.984375 C 5.453125 -0.890625 5.296875 -0.765625 5.109375 -0.6875 C 4.8125 -0.53125 4.484375 -0.453125 4.15625 -0.4375 C 3.921875 -0.4375 3.6875 -0.421875 3.453125 -0.453125 C 2.984375 -0.53125 2.53125 -0.765625 2.1875 -1.109375 C 1.4375 -1.859375 1.203125 -3.0625 1.546875 -4.0625 C 1.671875 -4.4375 1.859375 -4.765625 2.125 -5.046875 C 2.6875 -5.671875 3.6875 -6.03125 4.828125 -5.625 C 5.140625 -5.515625 5.140625 -5.484375 5.46875 -5.328125 L 5.578125 -5.984375 C 5.34375 -6.0625 5.078125 -6.140625 4.828125 -6.203125 C 4.46875 -6.28125 3.890625 -6.328125 3.484375 -6.28125 C 2.203125 -6.140625 1.296875 -5.28125 0.9375 -4.203125 C 0.515625 -2.953125 0.875 -1.5 1.875 -0.640625 C 2.265625 -0.3125 2.734375 -0.078125 3.234375 0.03125 C 3.515625 0.078125 3.796875 0.078125 4.09375 0.0625 C 4.734375 0.03125 5.15625 -0.125 5.609375 -0.390625 C 5.703125 -0.421875 5.6875 -0.5 5.671875 -0.609375 L 5.640625 -0.984375 Z M 5.640625 -0.984375 "/>
</symbol>
</g>
<clipPath id="clip1">
  <path d="M -280 668 L 332 668 L 332 -124 L -280 -124 L -280 668 Z M -280 668 "/>
</clipPath>
<clipPath id="clip2">
  <path d="M 6.066406 23.472656 L 45.75 23.472656 L 45.75 1.929688 L 6.066406 1.929688 L 6.066406 23.472656 Z M 6.066406 23.472656 "/>
</clipPath>
<clipPath id="clip3">
  <path d="M -280 668 L 332 668 L 332 -124 L -280 -124 L -280 668 Z M -280 668 "/>
</clipPath>
</defs>
<g id="surface0">
<g clip-path="url(#clip1)" clip-rule="nonzero">
<g clip-path="url(#clip2)" clip-rule="nonzero">
<path style="fill:none;stroke-width:5;stroke-linecap:butt;stroke-linejoin:miter;stroke:rgb(13.730068%,12.159915%,12.54902%);stroke-opacity:1;stroke-miterlimit:4;" d="M 335.426978 10.34714 L 285.266376 60.507742 " transform="matrix(0.113386,0,0,-0.113386,6.065,23.474)"/>
<path style="fill:none;stroke-width:5;stroke-linecap:butt;stroke-linejoin:miter;stroke:rgb(13.730068%,12.159915%,12.54902%);stroke-opacity:1;stroke-miterlimit:4;" d="M 335.426978 171.956607 L 285.266376 121.761554 " transform="matrix(0.113386,0,0,-0.113386,6.065,23.474)"/>
<path style="fill:none;stroke-width:5;stroke-linecap:butt;stroke-linejoin:miter;stroke:rgb(13.730068%,12.159915%,12.54902%);stroke-opacity:1;stroke-miterlimit:4;" d="M 10.31324 171.922156 L 60.508293 121.727103 " transform="matrix(0.113386,0,0,-0.113386,6.065,23.474)"/>
<path style="fill:none;stroke-width:5;stroke-linecap:butt;stroke-linejoin:miter;stroke:rgb(13.730068%,12.159915%,12.54902%);stroke-opacity:1;stroke-miterlimit:4;" d="M 10.31324 10.312689 L 60.508293 60.473291 " transform="matrix(0.113386,0,0,-0.113386,6.065,23.474)"/>
<path style="fill:none;stroke-width:5;stroke-linecap:butt;stroke-linejoin:miter;stroke:rgb(13.730068%,12.159915%,12.54902%);stroke-opacity:1;stroke-miterlimit:4;" d="M 214.504098 72.703383 L 129.926984 72.703383 " transform="matrix(0.113386,0,0,-0.113386,6.065,23.474)"/>
<path style="fill:none;stroke-width:5;stroke-linecap:butt;stroke-linejoin:miter;stroke:rgb(13.730068%,12.159915%,12.54902%);stroke-opacity:1;stroke-miterlimit:4;" d="M 129.926984 109.531462 L 214.504098 109.531462 " transform="matrix(0.113386,0,0,-0.113386,6.065,23.474)"/>
</g>
</g>
<g clip-path="url(#clip3)" clip-rule="nonzero">
<g style="fill:rgb(0%,0%,0%);fill-opacity:1;">
  <use xlink:href="#glyph0-1" x="-0.466" y="7.029"/>
</g>
<g style="fill:rgb(0%,0%,0%);fill-opacity:1;">
  <use xlink:href="#glyph0-1" x="-0.466" y="25.17"/>
</g>
<g style="fill:rgb(0%,0%,0%);fill-opacity:1;">
  <use xlink:href="#glyph0-2" x="13.749" y="16.099"/>
</g>
<g style="fill:rgb(0%,0%,0%);fill-opacity:1;">
  <use xlink:href="#glyph0-2" x="31.324" y="16.099"/>
</g>
<g style="fill:rgb(0%,0%,0%);fill-opacity:1;">
  <use xlink:href="#glyph0-1" x="45.183" y="7.029"/>
</g>
<g style="fill:rgb(0%,0%,0%);fill-opacity:1;">
  <use xlink:href="#glyph0-1" x="45.183" y="25.17"/>
</g>
</g>
</g>
</svg>
