<?xml version="1.0" encoding="UTF-8" standalone="no"?>
<svg
   xmlns:dc="http://purl.org/dc/elements/1.1/"
   xmlns:cc="http://creativecommons.org/ns#"
   xmlns:rdf="http://www.w3.org/1999/02/22-rdf-syntax-ns#"
   xmlns:svg="http://www.w3.org/2000/svg"
   xmlns="http://www.w3.org/2000/svg"
   xmlns:xlink="http://www.w3.org/1999/xlink"
   xmlns:sodipodi="http://sodipodi.sourceforge.net/DTD/sodipodi-0.dtd"
   xmlns:inkscape="http://www.inkscape.org/namespaces/inkscape"
   width="294.0pt"
   height="120.4pt"
   viewBox="-12 0 169.73824 69.531253"
   version="1.1"
   id="svg27583"
   inkscape:version="0.48.5 r10040"
   sodipodi:docname="f33-07_tc_big_b.svgz">
  <metadata
     id="metadata27848">
    <rdf:RDF>
      <cc:Work
         rdf:about="">
        <dc:format>image/svg+xml</dc:format>
        <dc:type
           rdf:resource="http://purl.org/dc/dcmitype/StillImage" />
        <dc:title />
      </cc:Work>
    </rdf:RDF>
  </metadata>
  <sodipodi:namedview
     pagecolor="#ffffff"
     bordercolor="#666666"
     borderopacity="1"
     objecttolerance="10"
     gridtolerance="10"
     guidetolerance="10"
     inkscape:pageopacity="0"
     inkscape:pageshadow="2"
     inkscape:window-width="888"
     inkscape:window-height="851"
     id="namedview27846"
     showgrid="false"
     fit-margin-top="0"
     fit-margin-left="0"
     fit-margin-right="0"
     fit-margin-bottom="0"
     inkscape:zoom="1.5"
     inkscape:cx="155.76609"
     inkscape:cy="-38.910403"
     inkscape:window-x="869"
     inkscape:window-y="37"
     inkscape:window-maximized="0"
     inkscape:current-layer="svg27583" />
  <defs
     id="defs27585">
    <g
       id="g27587">
      <g
         id="glyph0-0" />
      <g
         id="glyph0-1">
        <path
           d="M 1.75,-4.828125 0.734375,0 C 1.921875,0 3.15625,0.015625 4.3125,0 4.359375,-0.125 4.390625,-0.28125 4.40625,-0.4375 l -3.046875,0 L 1.75,-2.296875 C 2.640625,-2.3125 3.609375,-2.28125 4.46875,-2.3125 4.515625,-2.421875 4.546875,-2.578125 4.578125,-2.703125 l -2.734375,0 C 1.953125,-3.28125 2.078125,-3.84375 2.1875,-4.40625 l 2.96875,0 0.078125,-0.421875 -3.484375,0 z m 0,0"
           id="path27591"
           inkscape:connector-curvature="0" />
      </g>
      <g
         id="glyph1-0" />
      <g
         id="glyph1-1">
        <path
           d="m 0.53125,-2.359375 c 0.0625,0.109375 0.125,0.203125 0.203125,0.296875 0.03125,0.0625 0.46875,0.71875 0.484375,0.75 0.03125,0.015625 0.0625,0.0625 0.0625,0.09375 0,0.03125 -0.046875,0.0625 -0.078125,0.09375 C 0.984375,-0.921875 0.03125,-0.03125 0,0 0.140625,0 0.265625,0 0.390625,0 l 0.09375,-0.09375 0.9375,-0.9375 C 1.609375,-0.6875 1.8125,-0.34375 2.03125,-0.015625 2.15625,0 2.296875,0 2.421875,0 2.359375,-0.09375 1.6875,-1.09375 1.671875,-1.125 1.65625,-1.140625 1.625,-1.1875 1.625,-1.21875 1.625,-1.25 1.6875,-1.28125 1.703125,-1.296875 1.78125,-1.375 1.859375,-1.4375 1.9375,-1.515625 c 0.078125,-0.0625 0.859375,-0.8125 0.890625,-0.84375 -0.125,0 -0.265625,0 -0.390625,0.015625 C 2.125,-2.0625 1.8125,-1.75 1.5,-1.453125 1.3125,-1.75 1.125,-2.0625 0.921875,-2.34375 0.796875,-2.359375 0.65625,-2.359375 0.53125,-2.359375 z m 0,0"
           id="path27595"
           inkscape:connector-curvature="0" />
      </g>
      <g
         id="glyph1-2">
        <path
           d="M 0.578125,-2.359375 C 0.59375,-2.28125 0.609375,-2.21875 0.625,-2.140625 0.71875,-1.65625 1.078125,-0.0625 1.078125,0 c 0,0.015625 -0.125,0.21875 -0.125,0.21875 C 0.828125,0.40625 0.671875,0.625 0.375,0.59375 0.296875,0.59375 0.234375,0.578125 0.171875,0.5625 0.125,0.5625 0.0625,0.53125 0.015625,0.53125 l -0.03125,0.3125 c 0.171875,0.015625 0.4375,0.046875 0.578125,0 C 0.875,0.765625 1.109375,0.421875 1.25,0.1875 L 1.5,-0.203125 c 0.140625,-0.21875 1.28125,-2.03125 1.34375,-2.15625 -0.125,0 -0.234375,0 -0.34375,0.015625 C 2.375,-2.171875 2.28125,-1.984375 2.15625,-1.8125 1.875,-1.328125 1.5625,-0.875 1.3125,-0.359375 l 0,0 c -0.078125,-0.71875 -0.25,-1.328125 -0.375,-2 l -0.359375,0 z m 0,0"
           id="path27598"
           inkscape:connector-curvature="0" />
      </g>
      <g
         id="glyph2-0" />
      <g
         id="glyph2-1">
        <path
           d="M 0.109375,-3.296875 0.390625,-2.4375 C 0.65625,-1.625 0.90625,-0.796875 1.1875,0 1.328125,0.03125 1.5,0.015625 1.65625,0.015625 1.890625,-0.75 2.390625,-2.09375 2.515625,-2.78125 l 0.015625,0 c 0.0625,0.3125 0.171875,0.59375 0.25,0.90625 L 3.375,-0.03125 c 0.03125,0.0625 0.078125,0.046875 0.171875,0.046875 l 0.25,0 c 0.03125,0 0.09375,0.015625 0.125,-0.015625 C 3.9375,-0.015625 3.9375,-0.0625 3.953125,-0.09375 4.328125,-1.140625 4.640625,-2.234375 5,-3.296875 c -0.15625,0 -0.328125,0 -0.46875,0.015625 l -0.015625,0.078125 c -0.3125,0.875 -0.59375,1.78125 -0.859375,2.6875 l -0.015625,0 c -0.0625,-0.28125 -0.15625,-0.5625 -0.25,-0.84375 -0.0625,-0.171875 -0.609375,-1.875 -0.625,-1.921875 -0.03125,-0.015625 -0.09375,-0.015625 -0.125,-0.015625 l -0.3125,0 c -0.296875,0.9375 -0.609375,1.828125 -0.875,2.78125 C 1.171875,-1.4375 0.90625,-2.375 0.578125,-3.28125 c -0.125,-0.015625 -0.3125,-0.015625 -0.46875,-0.015625 z m 0,0"
           id="path27602"
           inkscape:connector-curvature="0" />
      </g>
      <g
         id="glyph2-2">
        <path
           d="m 0.640625,-2.640625 c 0.125,-0.0625 0.21875,-0.140625 0.34375,-0.203125 C 1.203125,-2.9375 1.4375,-2.984375 1.6875,-3 1.75,-3.015625 1.828125,-3.015625 1.90625,-3.015625 c 0.28125,0.046875 0.515625,0.234375 0.59375,0.5 0.078125,0.203125 0.046875,0.453125 0.046875,0.65625 -0.359375,0 -0.734375,0.03125 -1.09375,0.125 -0.5,0.125 -1.125,0.375 -1.0625,1.015625 0.046875,0.28125 0.203125,0.5625 0.46875,0.703125 C 1.03125,0.0625 1.234375,0.0625 1.4375,0.046875 1.734375,0.015625 2.0625,-0.0625 2.3125,-0.25 c 0.09375,-0.0625 0.171875,-0.140625 0.25,-0.21875 l 0,0.46875 0.484375,0 0,-1.828125 c 0,-0.1875 0.03125,-0.390625 -0.015625,-0.59375 -0.0625,-0.484375 -0.5,-0.84375 -0.953125,-0.9375 -0.28125,-0.046875 -0.71875,0.015625 -0.953125,0.0625 -0.078125,0.03125 -0.46875,0.15625 -0.5,0.21875 -0.03125,0.03125 -0.015625,0.09375 -0.015625,0.125 0.015625,0.109375 0.03125,0.203125 0.03125,0.3125 z m 1.90625,1.015625 0,0.515625 c 0,0.140625 0,0.265625 -0.0625,0.390625 -0.078125,0.140625 -0.21875,0.25 -0.375,0.296875 -0.328125,0.125 -0.78125,0.140625 -1.0625,-0.09375 C 0.96875,-0.5625 0.90625,-0.640625 0.890625,-0.75 0.8125,-1.046875 1.078125,-1.28125 1.3125,-1.390625 1.640625,-1.546875 2.109375,-1.625 2.546875,-1.625 z m 0,0"
           id="path27605"
           inkscape:connector-curvature="0" />
      </g>
      <g
         id="glyph2-3">
        <path
           d="m 0.109375,-3.296875 c 0.015625,0.09375 0.078125,0.1875 0.109375,0.28125 l 0.1875,0.484375 C 0.484375,-2.34375 1.421875,-0.015625 1.421875,0 c 0.03125,0.03125 0.09375,0.015625 0.125,0.015625 l 0.265625,0 c 0.078125,0 0.140625,0.03125 0.171875,-0.046875 0.015625,-0.046875 0.28125,-0.75 0.28125,-0.75 l 0.6875,-1.671875 C 3.046875,-2.734375 3.1875,-3 3.28125,-3.296875 c -0.171875,0 -0.328125,0 -0.46875,0.015625 -0.125,0.234375 -0.203125,0.5 -0.3125,0.734375 l -0.796875,2.03125 C 1.34375,-1.4375 0.984375,-2.375 0.59375,-3.28125 0.453125,-3.296875 0.28125,-3.296875 0.109375,-3.296875 z m 0,0"
           id="path27608"
           inkscape:connector-curvature="0" />
      </g>
      <g
         id="glyph2-4">
        <path
           d="M 3.140625,-0.796875 C 3.09375,-0.765625 3.046875,-0.71875 3,-0.6875 2.59375,-0.390625 1.875,-0.140625 1.328125,-0.53125 0.984375,-0.78125 0.78125,-1.15625 0.78125,-1.734375 l 2.421875,0 c 0,-0.515625 -0.125,-1 -0.421875,-1.296875 C 2.4375,-3.34375 1.90625,-3.4375 1.46875,-3.328125 1.28125,-3.28125 1.109375,-3.1875 0.953125,-3.0625 c -0.4375,0.34375 -0.65625,0.890625 -0.65625,1.453125 0.015625,0.78125 0.59375,1.5 1.375,1.640625 0.390625,0.078125 0.8125,-0.015625 1.171875,-0.1875 0.0625,-0.03125 0.296875,-0.15625 0.3125,-0.21875 0.03125,-0.03125 0,-0.328125 -0.015625,-0.421875 z m -0.359375,-1.25 -1.96875,0 c 0.09375,-0.3125 0.25,-0.609375 0.53125,-0.796875 0.34375,-0.21875 0.859375,-0.1875 1.15625,0.125 0.171875,0.1875 0.25,0.421875 0.28125,0.671875 z m 0,0"
           id="path27611"
           inkscape:connector-curvature="0" />
      </g>
      <g
         id="glyph2-5">
        <path
           d="m 0.828125,-3.296875 -0.625,0 0,0.390625 0.625,0 0,2.90625 0.5,0 0,-2.90625 0.890625,0 0,-0.390625 -0.90625,0 0,-0.578125 c 0,-0.109375 -0.015625,-0.21875 0.015625,-0.3125 0.15625,-0.328125 0.703125,-0.359375 1.125,-0.265625 0.078125,0 0.15625,0.03125 0.234375,0.0625 l 0,-0.453125 C 2.1875,-4.921875 1.625,-4.953125 1.21875,-4.625 1.140625,-4.5625 1.078125,-4.5 1.03125,-4.4375 0.875,-4.25 0.828125,-4.0625 0.828125,-3.734375 l 0,0.4375 z m 0,0"
           id="path27614"
           inkscape:connector-curvature="0" />
      </g>
      <g
         id="glyph2-6">
        <path
           d="m 1.0625,-2.453125 0,0 0,-0.84375 -0.484375,0 0,3.296875 0.5,0 0,-1.3125 c 0,-0.265625 -0.03125,-0.546875 0.078125,-0.796875 0.125,-0.359375 0.453125,-0.59375 0.796875,-0.71875 0.15625,-0.046875 0.328125,-0.078125 0.5,-0.078125 l 0,-0.4375 C 2,-3.34375 1.5625,-3.140625 1.28125,-2.796875 1.203125,-2.6875 1.109375,-2.578125 1.0625,-2.453125 z m 0,0"
           id="path27617"
           inkscape:connector-curvature="0" />
      </g>
      <g
         id="glyph2-7">
        <path
           d="M 0.703125,-2.78125 C 0.25,-2.234375 0.140625,-1.421875 0.5,-0.78125 0.78125,-0.28125 1.359375,0.125 2.109375,0.046875 2.75,-0.015625 3.28125,-0.484375 3.46875,-1 3.734375,-1.703125 3.53125,-2.53125 2.953125,-3.015625 2.796875,-3.140625 2.625,-3.21875 2.4375,-3.296875 1.71875,-3.53125 1.0625,-3.21875 0.703125,-2.78125 z M 2.25,-2.953125 c 0.109375,0.03125 0.203125,0.078125 0.296875,0.125 0.4375,0.25 0.546875,0.8125 0.515625,1.28125 -0.015625,0.328125 -0.09375,0.640625 -0.328125,0.875 C 2.34375,-0.25 1.53125,-0.234375 1.125,-0.671875 0.90625,-0.90625 0.828125,-1.21875 0.796875,-1.546875 0.765625,-2 0.859375,-2.390625 1.09375,-2.640625 c 0.265625,-0.28125 0.6875,-0.40625 1.15625,-0.3125 z m 0,0"
           id="path27620"
           inkscape:connector-curvature="0" />
      </g>
      <g
         id="glyph2-8">
        <path
           d="m 1.078125,-2.625 -0.015625,0 0,-0.671875 -0.484375,0 0,3.296875 0.515625,0 0,-1.53125 c 0,-0.34375 -0.03125,-0.671875 0.125,-0.984375 0.078125,-0.15625 0.203125,-0.296875 0.390625,-0.390625 0.125,-0.0625 0.265625,-0.0625 0.40625,-0.046875 C 2.25,-2.9375 2.484375,-2.875 2.609375,-2.6875 c 0.109375,0.15625 0.125,0.34375 0.125,0.53125 l 0,2.15625 0.5,0 0,-1.875 c 0,-0.34375 0.046875,-0.734375 -0.140625,-1.046875 -0.140625,-0.25 -0.40625,-0.375 -0.6875,-0.40625 C 2.078125,-3.375 1.765625,-3.3125 1.484375,-3.125 c -0.15625,0.109375 -0.34375,0.328125 -0.40625,0.5 z m 0,0"
           id="path27623"
           inkscape:connector-curvature="0" />
      </g>
      <g
         id="glyph2-9">
        <path
           d="m 0.84375,-4.234375 0,0.9375 -0.703125,0 0,0.390625 0.6875,0 0,1.984375 c 0,0.296875 0.015625,0.65625 0.265625,0.859375 0.140625,0.125 0.3125,0.125 0.484375,0.109375 C 1.96875,0.03125 2.3125,-0.09375 2.578125,-0.25 L 2.484375,-0.625 C 2.40625,-0.578125 2.328125,-0.515625 2.25,-0.46875 2.03125,-0.359375 1.640625,-0.265625 1.453125,-0.453125 1.28125,-0.640625 1.3125,-0.953125 1.3125,-1.1875 l 0,-1.71875 1.140625,0 0,-0.390625 -1.140625,0 0,-0.9375 -0.46875,0 z m 0,0"
           id="path27626"
           inkscape:connector-curvature="0" />
      </g>
      <g
         id="glyph2-10">
        <path
           d="m 1.09375,-2.8125 -0.015625,0 0,-0.484375 -0.5,0 0,4.453125 0.515625,0 0,-1.609375 c 0.0625,0.0625 0.125,0.140625 0.1875,0.203125 0.171875,0.15625 0.390625,0.265625 0.625,0.296875 0.109375,0.015625 0.203125,0.015625 0.3125,0 C 2.78125,-0.015625 3.203125,-0.484375 3.390625,-1 3.640625,-1.71875 3.421875,-2.53125 3.03125,-2.96875 2.890625,-3.140625 2.6875,-3.265625 2.46875,-3.3125 2.125,-3.40625 1.71875,-3.28125 1.484375,-3.140625 1.359375,-3.078125 1.15625,-2.9375 1.09375,-2.8125 z m 1.5,0.171875 c 0.5625,0.5625 0.515625,1.625 -0.15625,2.109375 -0.078125,0.046875 -0.171875,0.09375 -0.25,0.125 -0.375,0.125 -0.734375,0.078125 -0.984375,-0.234375 C 1.171875,-0.6875 1.125,-0.75 1.09375,-0.8125 c 0,-0.046875 0,-0.09375 0,-0.125 l 0,-1.375 c 0,-0.0625 -0.015625,-0.15625 0.015625,-0.21875 0.03125,-0.046875 0.078125,-0.109375 0.125,-0.140625 0.375,-0.375 0.984375,-0.34375 1.359375,0.03125 z m 0,0"
           id="path27629"
           inkscape:connector-curvature="0" />
      </g>
      <g
         id="glyph2-11">
        <path
           d="m 0.578125,-4.84375 0,0.5 0.5,0 0,-0.5 -0.5,0 z m 0,1.546875 0,3.296875 0.5,0 0,-3.296875 -0.5,0 z m 0,0"
           id="path27632"
           inkscape:connector-curvature="0" />
      </g>
      <g
         id="glyph2-12">
        <path
           d="M 3.1875,-0.796875 C 3.125,-0.765625 3.078125,-0.71875 3.03125,-0.6875 2.9375,-0.625 2.84375,-0.5625 2.734375,-0.515625 2.3125,-0.3125 1.671875,-0.265625 1.296875,-0.5625 1.03125,-0.75 0.859375,-1.109375 0.84375,-1.5 0.8125,-1.953125 0.921875,-2.453125 1.296875,-2.75 1.5,-2.90625 1.765625,-3 2.140625,-2.96875 2.46875,-2.9375 2.65625,-2.890625 2.921875,-2.75 c 0.0625,0.03125 0.109375,0.078125 0.171875,0.09375 L 3.171875,-3.078125 C 3.015625,-3.15625 2.875,-3.234375 2.703125,-3.28125 c -0.40625,-0.140625 -1.03125,-0.125 -1.390625,0.046875 -0.34375,0.15625 -0.625,0.4375 -0.796875,0.765625 -0.25,0.5 -0.25,1.109375 0,1.625 0.09375,0.1875 0.21875,0.359375 0.390625,0.5 0.46875,0.4375 1.1875,0.484375 1.78125,0.28125 0.140625,-0.0625 0.265625,-0.125 0.390625,-0.203125 0.046875,-0.03125 0.109375,-0.0625 0.125,-0.09375 C 3.21875,-0.40625 3.1875,-0.796875 3.1875,-0.796875 z m 0,0"
           id="path27635"
           inkscape:connector-curvature="0" />
      </g>
      <g
         id="glyph2-13">
        <path
           d="m 0.046875,-3.296875 0.65625,0.75 c 0.25,0.28125 0.5,0.578125 0.75,0.84375 l 0,0.015625 L 0,0 C 0.1875,0 0.375,0 0.546875,-0.015625 0.640625,-0.125 0.75,-0.265625 0.84375,-0.390625 1.125,-0.734375 1.390625,-1.09375 1.671875,-1.421875 l 0.109375,0.125 c 0.359375,0.4375 0.6875,0.875 1.0625,1.296875 0.171875,0 0.359375,0 0.546875,0 l -1.5,-1.6875 0,-0.015625 0.234375,-0.25 1.125,-1.34375 c -0.171875,0 -0.359375,0 -0.53125,0.015625 L 2.625,-3.171875 c -0.3125,0.375 -0.640625,0.75 -0.953125,1.140625 C 1.3125,-2.4375 0.96875,-2.875 0.59375,-3.28125 0.421875,-3.296875 0.234375,-3.296875 0.046875,-3.296875 z m 0,0"
           id="path27638"
           inkscape:connector-curvature="0" />
      </g>
      <g
         id="glyph2-14">
        <path
           d="m 0.296875,-0.71875 c -0.015625,0.09375 -0.03125,0.203125 -0.0625,0.3125 0,0.03125 -0.03125,0.09375 0,0.125 0.015625,0.046875 0.09375,0.078125 0.140625,0.09375 0.3125,0.140625 0.578125,0.203125 0.984375,0.234375 0.5,0.046875 1.09375,-0.0625 1.34375,-0.5625 0.046875,-0.125 0.078125,-0.265625 0.078125,-0.40625 0,-0.09375 0,-0.1875 -0.03125,-0.265625 C 2.640625,-1.515625 2.359375,-1.734375 2.0625,-1.84375 1.890625,-1.90625 1.71875,-1.9375 1.546875,-1.96875 1.296875,-2.015625 0.984375,-2.046875 0.8125,-2.265625 0.671875,-2.421875 0.703125,-2.640625 0.84375,-2.796875 1.015625,-2.96875 1.28125,-3 1.609375,-2.984375 c 0.296875,0.015625 0.546875,0.078125 0.78125,0.1875 0.0625,0.015625 0.125,0.0625 0.1875,0.078125 L 2.65625,-3.140625 C 2.3125,-3.296875 2,-3.375 1.515625,-3.375 1.09375,-3.375 0.734375,-3.28125 0.5,-3.046875 c -0.234375,0.25 -0.3125,0.65625 -0.15625,0.96875 0.140625,0.265625 0.421875,0.4375 0.703125,0.53125 0.40625,0.109375 0.9375,0.09375 1.171875,0.390625 0.15625,0.171875 0.140625,0.4375 -0.03125,0.59375 -0.078125,0.09375 -0.203125,0.15625 -0.328125,0.171875 -0.53125,0.125 -1.109375,-0.078125 -1.4375,-0.25 -0.046875,-0.03125 -0.09375,-0.0625 -0.125,-0.078125 z m 0,0"
           id="path27641"
           inkscape:connector-curvature="0" />
      </g>
    </g>
    <clipPath
       id="clip1">
      <path
         d="m -219,666 612,0 0,-792 -612,0 0,792 z m 0,0"
         id="path27644"
         inkscape:connector-curvature="0" />
    </clipPath>
    <clipPath
       id="clip2">
      <path
         d="m 0.167969,162.33984 172.914061,0 0,-163.539059 -172.914061,0 0,163.539059 z m 0,0"
         id="path27647"
         inkscape:connector-curvature="0" />
    </clipPath>
  </defs>
  <g
     id="g28159"
     transform="translate(-14.054728,-92.03125)">
    <path
       d="m 59.28142,161.30078 70.3088,0 0,-69.01192 -70.3088,0 0,69.01192 z m 0,0"
       id="path27670"
       inkscape:connector-curvature="0"
       style="fill:none;stroke:#231f20;stroke-width:0.52082503" />
    <path
       d="m 84.6604,143.4101 13.019568,12.14847"
       id="path27684"
       inkscape:connector-curvature="0"
       style="fill:none;stroke:#231f20;stroke-width:0.395827" />
    <path
       d="m 96.332031,155.85547 3.921879,2.08594 -2.351566,-3.76563 -1.570313,1.67969"
       id="path27686"
       inkscape:connector-curvature="0"
       style="fill:#231f20" />
    <path
       d="m 59.324389,123.45301 c 0,0 12.347692,7.9844 15.472701,0.17188 C 80.316637,109.82407 59.28142,95.023244 59.28142,95.023244"
       id="path27692"
       inkscape:connector-curvature="0"
       style="fill:none;stroke:#231f20;stroke-width:0.52082503" />
    <path
       d="m 59.28142,106.04671 c 0,0 21.035217,14.71489 15.51567,28.51571 -3.125009,7.81252 -15.51567,-0.17188 -15.51567,-0.17188"
       id="path27694"
       inkscape:connector-curvature="0"
       style="fill:none;stroke:#231f20;stroke-width:0.52082503" />
    <path
       d="m 59.324389,120.89051 c 0,0 20.992248,14.80082 15.472701,28.60164 -3.125009,7.81252 -15.51567,-0.17187 -15.51567,-0.17187"
       id="path27696"
       inkscape:connector-curvature="0"
       style="fill:none;stroke:#231f20;stroke-width:0.52082503" />
    <path
       d="m 75.722873,99.84357 0,54.68375"
       id="path27698"
       inkscape:connector-curvature="0"
       style="fill:none;stroke:#231f20;stroke-width:0.52082503" />
    <path
       d="m 167.17627,149.14449 -37.672,0 -70.656444,-25.17194 -44.793098,0"
       id="path27700"
       inkscape:connector-curvature="0"
       style="fill:none;stroke:#231f20;stroke-width:0.52082503" />
    <path
       d="m 166.14453,150.64062 5.64844,-1.51171 -5.64844,-1.51563 0,3.02734"
       id="path27702"
       inkscape:connector-curvature="0"
       style="fill:#231f20" />
    <path
       d="m 21.535156,122.47656 5.648438,1.51563 -5.648438,1.51172 0,-3.02735"
       id="path27704"
       inkscape:connector-curvature="0"
       style="fill:#231f20" />
    <path
       d="m 91.832295,102.7928 -6.76955,4.68751 2.257819,0.34766 -6.4258,4.68751"
       id="path27706"
       inkscape:connector-curvature="0"
       style="fill:none;stroke:#231f20;stroke-width:0.395827;stroke-linecap:square;stroke-linejoin:round" />
    <path
       d="m 80.859375,111.13672 -2.789062,3.45703 4.144531,-1.60156 -1.355469,-1.85547"
       id="path27708"
       inkscape:connector-curvature="0"
       style="fill:#231f20" />
    <path
       d="m 120.73863,139.76947 0.0859,10.93753"
       id="path27710"
       inkscape:connector-curvature="0"
       style="fill:#ffffff;stroke:#231f20;stroke-width:0.395827;stroke-dasharray:2.0833, 1.04165" />
    <path
       d="m 119.68359,149.93359 1.1836,4.28125 1.11328,-4.30078 -2.29688,0.0195"
       id="path27712"
       inkscape:connector-curvature="0"
       style="fill:#231f20" />
    <path
       d="m 121.87891,140.54687 -1.1836,-4.28125 -1.11328,4.29688 2.29688,-0.0156"
       id="path27714"
       inkscape:connector-curvature="0"
       style="fill:#231f20" />
    <path
       d="m 149.38324,142.63666 0,11.71879"
       id="path27716"
       inkscape:connector-curvature="0"
       style="fill:#ffffff;stroke:#231f20;stroke-width:0.395827;stroke-dasharray:2.0833, 1.04165" />
    <path
       d="m 148.24609,153.57031 1.14844,4.28906 1.15234,-4.28906 -2.30078,0"
       id="path27718"
       inkscape:connector-curvature="0"
       style="fill:#231f20" />
    <path
       d="m 150.51953,143.41797 -1.14844,-4.28906 -1.15234,4.28906 2.30078,0"
       id="path27720"
       inkscape:connector-curvature="0"
       style="fill:#231f20" />
    <path
       d="m 35.582133,117.48425 0,11.71878"
       id="path27722"
       inkscape:connector-curvature="0"
       style="fill:#ffffff;stroke:#231f20;stroke-width:0.395827;stroke-dasharray:2.0833, 1.04165" />
    <path
       d="m 34.449219,128.41797 1.148437,4.28906 1.148438,-4.28906 -2.296875,0"
       id="path27724"
       inkscape:connector-curvature="0"
       style="fill:#231f20" />
    <path
       d="m 36.71875,118.26563 -1.148437,-4.28907 -1.152344,4.28907 2.300781,0"
       id="path27726"
       inkscape:connector-curvature="0"
       style="fill:#231f20" />
    <use
       xlink:href="#glyph0-1"
       transform="translate(31.606,112.734)"
       id="use27740"
       x="0"
       y="0"
       width="172"
       height="162" />
    <use
       xlink:href="#glyph1-2"
       transform="translate(36.662,113.606)"
       id="use27744"
       x="0"
       y="0"
       width="172"
       height="162" />
    <use
       xlink:href="#glyph2-1"
       transform="translate(82.458,101.396)"
       id="use27776"
       x="0"
       y="0"
       width="172"
       height="162" />
    <use
       xlink:href="#glyph2-2"
       transform="translate(87.36058,101.396)"
       id="use27780"
       x="0"
       y="0"
       width="172"
       height="162" />
    <use
       xlink:href="#glyph2-3"
       transform="translate(90.997418,101.396)"
       id="use27782"
       x="0"
       y="0"
       width="172"
       height="162" />
    <use
       xlink:href="#glyph2-4"
       transform="translate(94.39226,101.396)"
       id="use27784"
       x="0"
       y="0"
       width="172"
       height="162" />
    <use
       xlink:href="#glyph2-5"
       transform="translate(100.29489,101.396)"
       id="use27788"
       x="0"
       y="0"
       width="172"
       height="162" />
    <use
       xlink:href="#glyph2-6"
       transform="translate(102.66528,101.396)"
       id="use27790"
       x="0"
       y="0"
       width="172"
       height="162" />
    <use
       xlink:href="#glyph2-7"
       transform="translate(105.23164,101.396)"
       id="use27794"
       x="0"
       y="0"
       width="172"
       height="162" />
    <use
       xlink:href="#glyph2-8"
       transform="translate(109.10419,101.396)"
       id="use27798"
       x="0"
       y="0"
       width="172"
       height="162" />
    <use
       xlink:href="#glyph2-9"
       transform="translate(112.93002,101.396)"
       id="use27800"
       x="0"
       y="0"
       width="172"
       height="162" />
    <use
       xlink:href="#glyph2-7"
       transform="translate(91.673,146.627)"
       id="use27826"
       x="0"
       y="0"
       width="172"
       height="162" />
    <use
       xlink:href="#glyph2-10"
       transform="translate(95.55253,146.627)"
       id="use27828"
       x="0"
       y="0"
       width="172"
       height="162" />
    <use
       xlink:href="#glyph2-9"
       transform="translate(99.37835,146.627)"
       id="use27830"
       x="0"
       y="0"
       width="172"
       height="162" />
    <use
       xlink:href="#glyph2-11"
       transform="translate(102.17973,146.627)"
       id="use27832"
       x="0"
       y="0"
       width="172"
       height="162" />
    <use
       xlink:href="#glyph2-12"
       transform="translate(103.85065,146.627)"
       id="use27834"
       x="0"
       y="0"
       width="172"
       height="162" />
    <use
       xlink:href="#glyph2-2"
       transform="translate(99.378,154.597)"
       id="use27838"
       x="0"
       y="0"
       width="172"
       height="162" />
    <use
       xlink:href="#glyph2-13"
       transform="translate(103.01484,154.597)"
       id="use27840"
       x="0"
       y="0"
       width="172"
       height="162" />
    <use
       xlink:href="#glyph2-11"
       transform="translate(106.40968,154.597)"
       id="use27842"
       x="0"
       y="0"
       width="172"
       height="162" />
    <use
       xlink:href="#glyph2-14"
       transform="translate(108.08061,154.597)"
       id="use27844"
       x="0"
       y="0"
       width="172"
       height="162" />
  </g>
  <text
     xml:space="preserve"
     style="font-size:6.4680233px;font-style:normal;font-variant:normal;font-weight:normal;font-stretch:normal;text-align:start;line-height:125%;letter-spacing:0px;word-spacing:0px;writing-mode:lr-tb;text-anchor:start;fill:#000000;fill-opacity:1;stroke:none;font-family:Arial;-inkscape-font-specification:Arial"
     x="29.248463"
     y="8.2390289"
     id="text3289"
     sodipodi:linespacing="125%"><tspan
       sodipodi:role="line"
       id="tspan3291"
       x="29.248463"
       y="8.2390289">(b)</tspan></text>
</svg>
