<?xml version="1.0" encoding="UTF-8"?>
<svg xmlns="http://www.w3.org/2000/svg" xmlns:xlink="http://www.w3.org/1999/xlink" width="393.1513703397205pt" height="212.13203435596427pt" viewBox="0 0 278 150" version="1.1">
<defs>
<g>
<symbol overflow="visible" id="glyph0-0">
<path style="stroke:none;" d=""/>
</symbol>
<symbol overflow="visible" id="glyph0-1">
<path style="stroke:none;" d="M 0.734375 -4.828125 L 0.734375 0 L 4.328125 0 L 4.328125 -0.4375 L 1.265625 -0.4375 L 1.265625 -2.296875 L 4 -2.296875 L 4 -2.703125 L 1.265625 -2.703125 L 1.265625 -4.40625 L 4.203125 -4.40625 L 4.203125 -4.828125 L 0.734375 -4.828125 Z M 0.734375 -4.828125 "/>
</symbol>
<symbol overflow="visible" id="glyph0-2">
<path style="stroke:none;" d="M 0.734375 -4.84375 L 0.734375 0 L 3.890625 0 L 3.890625 -0.40625 L 1.265625 -0.40625 L 1.265625 -4.84375 L 0.734375 -4.84375 Z M 0.734375 -4.84375 "/>
</symbol>
<symbol overflow="visible" id="glyph0-3">
<path style="stroke:none;" d="M 4.515625 -0.796875 C 4.125 -0.578125 3.875 -0.375 3.296875 -0.359375 C 3.09375 -0.359375 2.875 -0.34375 2.671875 -0.390625 C 2.109375 -0.5 1.640625 -0.890625 1.375 -1.390625 C 0.890625 -2.28125 1.125 -3.5 1.953125 -4.125 C 2.09375 -4.21875 2.234375 -4.3125 2.390625 -4.375 C 2.859375 -4.53125 3.421875 -4.515625 3.890625 -4.34375 C 4.0625 -4.265625 4.21875 -4.1875 4.375 -4.109375 C 4.40625 -4.28125 4.453125 -4.46875 4.46875 -4.640625 C 4.328125 -4.703125 4.171875 -4.75 4 -4.78125 C 3.671875 -4.859375 3.171875 -4.921875 2.796875 -4.890625 C 2.078125 -4.828125 1.46875 -4.421875 1.109375 -3.9375 C 0.640625 -3.34375 0.484375 -2.546875 0.65625 -1.8125 C 0.953125 -0.6875 1.90625 0.125 3.28125 0.046875 C 3.734375 0.03125 4.015625 -0.0625 4.375 -0.234375 C 4.40625 -0.265625 4.53125 -0.3125 4.546875 -0.34375 C 4.5625 -0.390625 4.515625 -0.6875 4.515625 -0.796875 Z M 4.515625 -0.796875 "/>
</symbol>
<symbol overflow="visible" id="glyph0-4">
<path style="stroke:none;" d="M 0.28125 -4.8125 L 0.28125 -4.40625 L 2.421875 -4.40625 L 2.421875 0 L 2.953125 0 L 2.953125 -4.40625 L 5.078125 -4.40625 L 5.078125 -4.8125 L 0.28125 -4.8125 Z M 0.28125 -4.8125 "/>
</symbol>
<symbol overflow="visible" id="glyph0-5">
<path style="stroke:none;" d="M 0.734375 -4.84375 L 0.734375 0 L 1.25 0 L 1.25 -2.21875 L 2.28125 -2.21875 C 2.421875 -2.21875 2.546875 -2.234375 2.65625 -2.203125 C 2.78125 -2.03125 2.90625 -1.859375 3.03125 -1.671875 C 3.421875 -1.125 3.8125 -0.5625 4.21875 -0.015625 C 4.390625 0 4.578125 0 4.75 0 L 4.46875 -0.390625 L 3.125 -2.28125 C 3.25 -2.296875 3.390625 -2.328125 3.515625 -2.390625 C 4.015625 -2.5625 4.578125 -2.96875 4.53125 -3.5625 C 4.515625 -3.796875 4.453125 -3.9375 4.328125 -4.109375 C 4.015625 -4.515625 3.484375 -4.765625 2.875 -4.828125 C 2.625 -4.84375 2.390625 -4.84375 2.125 -4.84375 L 0.734375 -4.84375 Z M 1.25 -2.609375 L 1.25 -4.421875 L 2.296875 -4.421875 C 2.640625 -4.421875 3 -4.421875 3.34375 -4.328125 C 3.671875 -4.203125 4 -3.96875 4.046875 -3.59375 C 4.0625 -3.359375 3.96875 -3.140625 3.8125 -2.984375 C 3.6875 -2.875 3.546875 -2.796875 3.390625 -2.734375 C 3.046875 -2.609375 2.6875 -2.609375 2.328125 -2.609375 L 1.25 -2.609375 Z M 1.25 -2.609375 "/>
</symbol>
<symbol overflow="visible" id="glyph0-6">
<path style="stroke:none;" d="M 1 -4.03125 C 0.265625 -3.125 0.234375 -1.75 0.96875 -0.84375 C 1.28125 -0.4375 1.703125 -0.140625 2.234375 0.015625 C 3.71875 0.421875 4.921875 -0.546875 5.25 -1.65625 C 5.53125 -2.578125 5.25 -3.640625 4.53125 -4.3125 C 4.171875 -4.640625 3.65625 -4.90625 3.046875 -4.9375 C 2.125 -5.015625 1.421875 -4.53125 1 -4.03125 Z M 3.484375 -4.453125 C 3.96875 -4.296875 4.359375 -3.96875 4.59375 -3.53125 C 4.734375 -3.265625 4.796875 -2.96875 4.828125 -2.671875 C 4.890625 -1.84375 4.546875 -0.9375 3.796875 -0.53125 C 3.421875 -0.328125 2.96875 -0.234375 2.484375 -0.34375 C 2.15625 -0.421875 1.859375 -0.59375 1.640625 -0.796875 C 1.21875 -1.1875 1 -1.765625 0.96875 -2.328125 C 0.90625 -3.34375 1.421875 -4.109375 2.140625 -4.390625 C 2.5625 -4.5625 3.03125 -4.59375 3.484375 -4.453125 Z M 3.484375 -4.453125 "/>
</symbol>
<symbol overflow="visible" id="glyph0-7">
<path style="stroke:none;" d="M 0.75 -4.84375 L 0.75 0 L 1.234375 0 L 1.234375 -4.40625 L 1.234375 -4.40625 L 1.4375 -4.0625 L 3.015625 -1.3125 C 3.265625 -0.875 3.5 -0.4375 3.75 -0.015625 C 3.96875 0.03125 4.25 -0.015625 4.484375 0 L 4.484375 -4.84375 L 4 -4.84375 L 4 -0.421875 L 2.1875 -3.59375 C 1.953125 -4 1.734375 -4.4375 1.484375 -4.828125 C 1.28125 -4.859375 0.984375 -4.828125 0.75 -4.84375 Z M 0.75 -4.84375 "/>
</symbol>
<symbol overflow="visible" id="glyph0-8">
<path style="stroke:none;" d="M 4.640625 -2.296875 L 3.015625 -2.296875 L 3.015625 -1.875 L 4.140625 -1.875 L 4.140625 -0.65625 C 4.140625 -0.546875 4.125 -0.515625 4 -0.5 C 3.65625 -0.390625 3.171875 -0.328125 2.78125 -0.375 C 2.3125 -0.4375 1.921875 -0.6875 1.65625 -0.984375 C 0.953125 -1.796875 0.953125 -3.078125 1.671875 -3.875 C 2.03125 -4.25 2.515625 -4.515625 3.1875 -4.46875 C 3.5 -4.453125 3.796875 -4.390625 4.078125 -4.265625 C 4.21875 -4.1875 4.34375 -4.09375 4.484375 -4 C 4.515625 -4.1875 4.5625 -4.375 4.578125 -4.546875 C 4.0625 -4.78125 3.703125 -4.890625 2.96875 -4.890625 C 2.3125 -4.890625 1.75 -4.578125 1.375 -4.25 C 1.234375 -4.125 1.125 -3.96875 1.015625 -3.8125 C 0.46875 -2.984375 0.453125 -1.859375 1.015625 -1.03125 C 1.28125 -0.640625 1.640625 -0.3125 2.109375 -0.125 C 2.734375 0.125 3.421875 0.078125 4.0625 -0.078125 C 4.125 -0.09375 4.625 -0.234375 4.640625 -0.296875 C 4.640625 -0.328125 4.640625 -0.34375 4.640625 -0.375 L 4.640625 -2.296875 Z M 4.640625 -2.296875 "/>
</symbol>
<symbol overflow="visible" id="glyph0-9">
<path style="stroke:none;" d="M 0.734375 -4.84375 L 0.734375 -1.78125 C 0.734375 -1.640625 0.734375 -1.5 0.75 -1.359375 C 0.8125 -0.953125 1.015625 -0.625 1.28125 -0.390625 C 1.84375 0.125 2.703125 0.265625 3.390625 -0.0625 C 3.75 -0.234375 4.078125 -0.5625 4.25 -0.921875 C 4.375 -1.21875 4.390625 -1.40625 4.390625 -1.8125 L 4.390625 -4.84375 L 3.890625 -4.84375 L 3.890625 -1.765625 C 3.890625 -1.5 3.875 -1.21875 3.75 -0.96875 C 3.671875 -0.8125 3.5625 -0.65625 3.40625 -0.546875 C 2.8125 -0.109375 1.765625 -0.28125 1.4375 -0.875 C 1.28125 -1.15625 1.265625 -1.46875 1.265625 -1.78125 L 1.265625 -4.84375 L 0.734375 -4.84375 Z M 0.734375 -4.84375 "/>
</symbol>
<symbol overflow="visible" id="glyph0-10">
<path style="stroke:none;" d="M 2.578125 1.546875 C 2.546875 1.5 2.5 1.46875 2.453125 1.4375 C 1.6875 0.75 1.21875 -0.3125 1.171875 -1.59375 C 1.140625 -2.46875 1.296875 -3.375 1.703125 -4.15625 C 1.90625 -4.53125 2.140625 -4.84375 2.453125 -5.109375 C 2.5 -5.15625 2.546875 -5.1875 2.578125 -5.21875 L 2.328125 -5.21875 C 2.171875 -5.21875 2.1875 -5.21875 2.078125 -5.140625 C 1.71875 -4.859375 1.421875 -4.484375 1.1875 -4.0625 C 0.53125 -2.828125 0.484375 -1.15625 1.09375 0.1875 C 1.3125 0.6875 1.65625 1.109375 2.078125 1.46875 C 2.171875 1.53125 2.171875 1.546875 2.328125 1.546875 L 2.578125 1.546875 Z M 2.578125 1.546875 "/>
</symbol>
<symbol overflow="visible" id="glyph0-11">
<path style="stroke:none;" d="M 0.640625 -2.640625 C 0.765625 -2.703125 0.859375 -2.78125 0.984375 -2.84375 C 1.203125 -2.9375 1.4375 -2.984375 1.6875 -3 C 1.75 -3.015625 1.828125 -3.015625 1.90625 -3.015625 C 2.1875 -2.96875 2.421875 -2.78125 2.5 -2.515625 C 2.578125 -2.3125 2.546875 -2.0625 2.546875 -1.859375 C 2.1875 -1.859375 1.8125 -1.828125 1.453125 -1.734375 C 0.953125 -1.609375 0.328125 -1.359375 0.390625 -0.71875 C 0.4375 -0.4375 0.59375 -0.15625 0.859375 -0.015625 C 1.03125 0.0625 1.234375 0.0625 1.4375 0.046875 C 1.734375 0.015625 2.0625 -0.0625 2.3125 -0.25 C 2.40625 -0.3125 2.484375 -0.390625 2.5625 -0.46875 L 2.5625 0 L 3.046875 0 L 3.046875 -1.828125 C 3.046875 -2.015625 3.078125 -2.21875 3.03125 -2.421875 C 2.96875 -2.90625 2.53125 -3.265625 2.078125 -3.359375 C 1.796875 -3.40625 1.359375 -3.34375 1.125 -3.296875 C 1.046875 -3.265625 0.65625 -3.140625 0.625 -3.078125 C 0.59375 -3.046875 0.609375 -2.984375 0.609375 -2.953125 C 0.625 -2.84375 0.640625 -2.75 0.640625 -2.640625 Z M 2.546875 -1.625 L 2.546875 -1.109375 C 2.546875 -0.96875 2.546875 -0.84375 2.484375 -0.71875 C 2.40625 -0.578125 2.265625 -0.46875 2.109375 -0.421875 C 1.78125 -0.296875 1.328125 -0.28125 1.046875 -0.515625 C 0.96875 -0.5625 0.90625 -0.640625 0.890625 -0.75 C 0.8125 -1.046875 1.078125 -1.28125 1.3125 -1.390625 C 1.640625 -1.546875 2.109375 -1.625 2.546875 -1.625 Z M 2.546875 -1.625 "/>
</symbol>
<symbol overflow="visible" id="glyph0-12">
<path style="stroke:none;" d="M 0.4375 -5.21875 C 0.46875 -5.1875 0.515625 -5.15625 0.5625 -5.109375 C 1.421875 -4.34375 1.890625 -3.109375 1.828125 -1.59375 C 1.8125 -0.84375 1.625 -0.09375 1.265625 0.5625 C 1.078125 0.890625 0.84375 1.1875 0.5625 1.4375 C 0.515625 1.46875 0.46875 1.5 0.4375 1.546875 L 0.6875 1.546875 C 0.84375 1.546875 0.828125 1.546875 0.921875 1.46875 C 1.296875 1.171875 1.59375 0.796875 1.8125 0.390625 C 2.484375 -0.859375 2.53125 -2.515625 1.921875 -3.859375 C 1.6875 -4.375 1.359375 -4.796875 0.9375 -5.140625 C 0.84375 -5.21875 0.84375 -5.21875 0.6875 -5.21875 L 0.4375 -5.21875 Z M 0.4375 -5.21875 "/>
</symbol>
<symbol overflow="visible" id="glyph0-13">
<path style="stroke:none;" d="M 0.109375 -4.84375 C 0.140625 -4.703125 1.609375 -0.25 1.609375 -0.25 C 1.609375 -0.203125 1.671875 0.015625 1.703125 0.03125 C 1.734375 0.0625 1.796875 0.046875 1.828125 0.046875 L 2.046875 0.046875 C 2.078125 0.046875 2.125 0.0625 2.15625 0.046875 C 2.1875 0.046875 2.203125 0 2.21875 -0.015625 C 2.234375 -0.078125 2.515625 -0.984375 2.515625 -0.984375 L 3.203125 -3.109375 C 3.296875 -3.390625 3.515625 -4.0625 3.5625 -4.328125 L 3.578125 -4.328125 C 3.671875 -3.890625 3.8125 -3.53125 3.921875 -3.125 C 4.265625 -2.0625 4.59375 -1 4.953125 0.03125 C 5.09375 0.0625 5.296875 0.046875 5.453125 0.046875 L 5.484375 -0.03125 L 6.625 -3.515625 L 7.046875 -4.84375 C 6.90625 -4.84375 6.734375 -4.84375 6.59375 -4.828125 L 6.5625 -4.75 C 6.109375 -3.328125 5.625 -1.953125 5.21875 -0.515625 L 5.203125 -0.515625 C 5.1875 -0.640625 5.140625 -0.765625 5.09375 -0.890625 L 4.890625 -1.5625 C 4.8125 -1.8125 3.875 -4.78125 3.828125 -4.8125 C 3.8125 -4.84375 3.734375 -4.84375 3.703125 -4.84375 L 3.34375 -4.84375 L 2.390625 -1.875 C 2.25 -1.421875 2.078125 -0.984375 1.984375 -0.515625 C 1.671875 -1.609375 1.3125 -2.640625 0.96875 -3.703125 C 0.84375 -4.0625 0.75 -4.484375 0.59375 -4.828125 C 0.453125 -4.84375 0.28125 -4.84375 0.109375 -4.84375 Z M 0.109375 -4.84375 "/>
</symbol>
<symbol overflow="visible" id="glyph0-14">
<path style="stroke:none;" d="M 0.21875 0 L 0.578125 0 C 0.625 0 0.6875 0.015625 0.71875 -0.015625 C 0.75 -0.03125 0.75 -0.0625 0.765625 -0.09375 C 0.875 -0.34375 1.21875 -1.203125 1.265625 -1.296875 C 1.28125 -1.359375 1.296875 -1.390625 1.375 -1.390625 L 3.046875 -1.390625 C 3.234375 -1.390625 3.421875 -1.40625 3.609375 -1.390625 C 3.6875 -1.390625 3.703125 -1.296875 3.734375 -1.234375 C 3.8125 -1.03125 4.1875 -0.125 4.203125 -0.0625 C 4.234375 0.015625 4.296875 0 4.40625 0 L 4.796875 0 C 4.625 -0.453125 4.4375 -0.890625 4.25 -1.34375 L 2.8125 -4.828125 C 2.796875 -4.859375 2.796875 -4.90625 2.765625 -4.90625 C 2.71875 -4.90625 2.671875 -4.90625 2.625 -4.90625 L 2.375 -4.90625 C 2.328125 -4.90625 2.265625 -4.921875 2.234375 -4.890625 C 2.203125 -4.875 2.1875 -4.84375 2.1875 -4.8125 L 0.765625 -1.34375 L 0.40625 -0.484375 C 0.34375 -0.328125 0.265625 -0.171875 0.21875 0 Z M 2.484375 -4.328125 C 2.796875 -3.46875 3.15625 -2.640625 3.5 -1.8125 L 1.46875 -1.8125 C 1.796875 -2.640625 2.15625 -3.46875 2.46875 -4.328125 L 2.484375 -4.328125 Z M 2.484375 -4.328125 "/>
</symbol>
<symbol overflow="visible" id="glyph0-15">
<path style="stroke:none;" d="M 0.78125 -4.21875 L 0.78125 -3.828125 C 1.125 -3.828125 1.46875 -3.890625 1.78125 -4.03125 L 1.78125 -0.390625 L 0.8125 -0.390625 L 0.8125 0 L 3.25 0 L 3.25 -0.390625 L 2.28125 -0.390625 L 2.28125 -4.6875 C 2.25 -4.6875 2.1875 -4.6875 2.15625 -4.671875 C 2.109375 -4.65625 2.0625 -4.59375 2.015625 -4.5625 C 1.734375 -4.328125 1.21875 -4.21875 0.78125 -4.21875 Z M 0.78125 -4.21875 "/>
</symbol>
<symbol overflow="visible" id="glyph0-16">
<path style="stroke:none;" d="M 0.625 -3.203125 C 0.734375 -3.609375 0.90625 -4.046875 1.34375 -4.203125 C 1.5 -4.265625 1.671875 -4.28125 1.859375 -4.265625 C 2.21875 -4.234375 2.578125 -4.09375 2.796875 -3.78125 C 2.9375 -3.578125 2.984375 -3.328125 2.953125 -3.078125 C 2.875 -2.40625 2.28125 -1.984375 1.796875 -1.609375 C 1.40625 -1.3125 0.59375 -0.59375 0.59375 -0.59375 L 0.453125 -0.484375 C 0.390625 -0.40625 0.390625 -0.421875 0.390625 -0.265625 L 0.390625 0 L 3.484375 0 L 3.484375 -0.4375 L 0.84375 -0.4375 C 1.109375 -0.671875 1.90625 -1.34375 2.140625 -1.515625 C 2.578125 -1.84375 3.0625 -2.15625 3.34375 -2.640625 C 3.640625 -3.203125 3.453125 -3.921875 2.96875 -4.3125 C 2.4375 -4.765625 1.46875 -4.828125 0.875 -4.390625 C 0.65625 -4.234375 0.5 -3.984375 0.390625 -3.734375 C 0.375 -3.671875 0.328125 -3.609375 0.328125 -3.546875 C 0.34375 -3.515625 0.390625 -3.484375 0.40625 -3.4375 C 0.46875 -3.359375 0.546875 -3.265625 0.625 -3.203125 Z M 0.625 -3.203125 "/>
</symbol>
<symbol overflow="visible" id="glyph0-17">
<path style="stroke:none;" d="M 0.734375 -4.84375 L 0.734375 0 L 2.265625 0 C 2.890625 0 3.203125 0.03125 3.71875 -0.21875 C 4.359375 -0.515625 4.875 -1.109375 5.03125 -1.875 C 5.234375 -2.84375 4.828125 -3.90625 4 -4.453125 C 3.703125 -4.640625 3.359375 -4.78125 3 -4.828125 C 2.71875 -4.84375 2.4375 -4.84375 2.15625 -4.84375 L 0.734375 -4.84375 Z M 1.25 -0.40625 L 1.25 -4.421875 L 2.234375 -4.421875 C 2.421875 -4.421875 2.609375 -4.4375 2.796875 -4.421875 C 3.296875 -4.375 3.71875 -4.171875 4.015625 -3.875 C 4.375 -3.5 4.53125 -3 4.5625 -2.5 C 4.59375 -1.90625 4.40625 -1.296875 3.96875 -0.890625 C 3.6875 -0.640625 3.25 -0.453125 2.796875 -0.421875 C 2.609375 -0.40625 2.4375 -0.40625 2.25 -0.40625 L 1.25 -0.40625 Z M 1.25 -0.40625 "/>
</symbol>
<symbol overflow="visible" id="glyph0-18">
<path style="stroke:none;" d="M 0.75 -4.84375 L 0.75 0 L 2.28125 0 C 2.53125 0 2.78125 0 3.03125 -0.015625 C 3.703125 -0.078125 4.359375 -0.421875 4.578125 -0.96875 C 4.75 -1.375 4.609375 -1.75 4.328125 -2.015625 C 4 -2.3125 3.5625 -2.46875 3.140625 -2.53125 C 3.265625 -2.5625 3.375 -2.578125 3.5 -2.625 C 3.90625 -2.78125 4.390625 -3.078125 4.4375 -3.546875 C 4.453125 -3.71875 4.390625 -3.921875 4.328125 -4.015625 C 4.03125 -4.53125 3.34375 -4.796875 2.625 -4.84375 C 2.453125 -4.84375 2.296875 -4.84375 2.125 -4.84375 L 0.75 -4.84375 Z M 1.25 -2.703125 L 1.25 -4.421875 L 2.0625 -4.421875 C 2.5 -4.421875 2.921875 -4.40625 3.328125 -4.25 C 3.59375 -4.140625 3.921875 -3.96875 3.953125 -3.671875 C 4 -3.3125 3.65625 -3.046875 3.375 -2.921875 C 3.078125 -2.796875 2.765625 -2.734375 2.4375 -2.703125 C 2.296875 -2.703125 2.15625 -2.703125 2.015625 -2.703125 L 1.25 -2.703125 Z M 1.25 -0.40625 L 1.25 -2.328125 L 2.125 -2.328125 C 2.265625 -2.328125 2.375 -2.328125 2.5 -2.328125 C 2.859375 -2.3125 3.21875 -2.25 3.546875 -2.078125 C 3.875 -1.921875 4.203125 -1.640625 4.15625 -1.25 C 4.109375 -0.90625 3.765625 -0.703125 3.484375 -0.578125 C 3.21875 -0.46875 2.921875 -0.421875 2.625 -0.40625 C 2.5 -0.40625 2.390625 -0.40625 2.265625 -0.40625 L 1.25 -0.40625 Z M 1.25 -0.40625 "/>
</symbol>
<symbol overflow="visible" id="glyph0-19">
<path style="stroke:none;" d="M 0.75 -4.84375 L 0.75 0 L 1.234375 0 C 1.25 -0.515625 1.21875 -1.03125 1.25 -1.53125 L 1.359375 -1.640625 L 2.390625 -2.609375 L 2.859375 -1.96875 C 3.359375 -1.328125 3.828125 -0.640625 4.34375 -0.015625 C 4.515625 0 4.703125 0 4.90625 0 L 2.859375 -2.71875 C 2.828125 -2.78125 2.765625 -2.84375 2.75 -2.921875 L 2.796875 -2.984375 L 3.296875 -3.453125 L 4.78125 -4.84375 C 4.578125 -4.84375 4.359375 -4.84375 4.15625 -4.828125 L 4.0625 -4.75 L 1.234375 -2.125 L 1.234375 -4.84375 L 0.75 -4.84375 Z M 0.75 -4.84375 "/>
</symbol>
<symbol overflow="visible" id="glyph0-20">
<path style="stroke:none;" d="M 0.4375 -0.90625 C 0.421875 -0.84375 0.328125 -0.40625 0.34375 -0.375 C 0.359375 -0.359375 0.390625 -0.34375 0.40625 -0.328125 L 0.578125 -0.25 C 1.234375 0.09375 2.359375 0.296875 3.109375 -0.125 C 3.5 -0.328125 3.875 -0.765625 3.875 -1.296875 C 3.875 -2.015625 3.296875 -2.453125 2.796875 -2.625 C 2.65625 -2.671875 2.140625 -2.78125 2.046875 -2.796875 C 1.6875 -2.875 1.296875 -2.96875 1.046875 -3.265625 C 1.015625 -3.3125 0.984375 -3.359375 0.96875 -3.421875 C 0.765625 -3.875 1.125 -4.265625 1.546875 -4.421875 C 2 -4.59375 2.578125 -4.546875 2.984375 -4.375 C 3.09375 -4.328125 3.21875 -4.265625 3.3125 -4.1875 C 3.375 -4.15625 3.4375 -4.109375 3.5 -4.0625 C 3.53125 -4.1875 3.546875 -4.328125 3.5625 -4.453125 C 3.578125 -4.546875 3.625 -4.609375 3.515625 -4.640625 L 3.34375 -4.71875 C 2.578125 -5.03125 1.546875 -5.078125 0.890625 -4.515625 C 0.796875 -4.453125 0.71875 -4.359375 0.640625 -4.265625 C 0.4375 -3.984375 0.34375 -3.546875 0.546875 -3.15625 C 0.71875 -2.8125 1.015625 -2.578125 1.390625 -2.4375 C 1.546875 -2.390625 1.6875 -2.359375 1.84375 -2.328125 C 2 -2.28125 2.5625 -2.171875 2.65625 -2.125 C 2.921875 -2.03125 3.1875 -1.859375 3.3125 -1.59375 C 3.375 -1.484375 3.390625 -1.375 3.390625 -1.203125 C 3.34375 -0.78125 2.96875 -0.5 2.59375 -0.390625 C 1.984375 -0.21875 1.296875 -0.40625 0.84375 -0.640625 C 0.703125 -0.71875 0.578125 -0.828125 0.4375 -0.90625 Z M 0.4375 -0.90625 "/>
</symbol>
<symbol overflow="visible" id="glyph0-21">
<path style="stroke:none;" d="M 0.734375 -4.84375 L 0.734375 0 L 1.265625 0 L 1.265625 -2.015625 L 2.296875 -2.015625 C 2.453125 -2.015625 2.625 -2.015625 2.78125 -2.015625 C 3.546875 -2.078125 4.296875 -2.515625 4.421875 -3.21875 C 4.5 -3.625 4.328125 -3.953125 4.140625 -4.1875 C 3.859375 -4.53125 3.421875 -4.765625 2.90625 -4.828125 C 2.65625 -4.84375 2.40625 -4.84375 2.171875 -4.84375 L 0.734375 -4.84375 Z M 1.25 -2.421875 L 1.25 -4.421875 L 2.296875 -4.421875 C 2.90625 -4.421875 3.46875 -4.359375 3.765625 -3.953125 C 4 -3.640625 4 -3.203125 3.765625 -2.890625 C 3.6875 -2.78125 3.578125 -2.703125 3.46875 -2.625 C 3.109375 -2.421875 2.703125 -2.421875 2.328125 -2.421875 L 1.25 -2.421875 Z M 1.25 -2.421875 "/>
</symbol>
<symbol overflow="visible" id="glyph0-22">
<path style="stroke:none;" d="M 0.578125 -4.84375 L 0.578125 0 L 1.09375 0 L 1.09375 -0.46875 L 1.09375 -0.46875 C 1.15625 -0.359375 1.265625 -0.265625 1.359375 -0.1875 C 1.671875 0.0625 2.1875 0.140625 2.640625 -0.078125 C 2.84375 -0.1875 3.015625 -0.359375 3.15625 -0.546875 C 3.84375 -1.5 3.421875 -3.09375 2.453125 -3.3125 C 2.328125 -3.359375 2.171875 -3.359375 2.03125 -3.328125 C 1.625 -3.28125 1.3125 -3.078125 1.078125 -2.828125 L 1.078125 -4.84375 L 0.578125 -4.84375 Z M 1.8125 -2.953125 C 2.140625 -2.984375 2.515625 -2.84375 2.734375 -2.578125 C 2.90625 -2.359375 2.96875 -2.078125 2.96875 -1.8125 C 3 -1.4375 2.953125 -1.03125 2.71875 -0.734375 C 2.515625 -0.46875 2.1875 -0.359375 1.875 -0.328125 C 1.609375 -0.328125 1.375 -0.421875 1.203125 -0.640625 C 1.171875 -0.6875 1.125 -0.75 1.09375 -0.8125 C 1.09375 -0.859375 1.09375 -0.90625 1.09375 -0.9375 L 1.09375 -2.328125 C 1.09375 -2.390625 1.078125 -2.46875 1.109375 -2.53125 C 1.140625 -2.609375 1.203125 -2.65625 1.265625 -2.71875 C 1.421875 -2.84375 1.609375 -2.9375 1.8125 -2.953125 Z M 1.8125 -2.953125 "/>
</symbol>
<symbol overflow="visible" id="glyph0-23">
<path style="stroke:none;" d="M 0.4375 -2.671875 C 0.375 -2.578125 0.4375 -2.453125 0.53125 -2.421875 C 0.578125 -2.40625 0.625 -2.421875 0.671875 -2.421875 L 5.125 -2.421875 C 5.1875 -2.421875 5.234375 -2.421875 5.296875 -2.453125 C 5.375 -2.546875 5.328125 -2.71875 5.203125 -2.734375 C 5.09375 -2.75 4.984375 -2.734375 4.890625 -2.734375 L 0.671875 -2.734375 C 0.5625 -2.734375 0.5 -2.75 0.4375 -2.671875 Z M 0.4375 -1.1875 C 0.375 -1.09375 0.4375 -0.96875 0.53125 -0.953125 C 0.578125 -0.9375 0.625 -0.9375 0.671875 -0.9375 L 5.125 -0.9375 C 5.1875 -0.9375 5.234375 -0.9375 5.296875 -0.984375 C 5.375 -1.078125 5.328125 -1.234375 5.203125 -1.265625 C 5.09375 -1.28125 4.984375 -1.265625 4.890625 -1.265625 L 0.65625 -1.265625 C 0.5625 -1.265625 0.484375 -1.265625 0.4375 -1.1875 Z M 0.4375 -1.1875 "/>
</symbol>
<symbol overflow="visible" id="glyph0-24">
<path style="stroke:none;" d="M 3.1875 -0.796875 C 3.125 -0.765625 3.078125 -0.71875 3.03125 -0.6875 C 2.9375 -0.625 2.84375 -0.5625 2.734375 -0.515625 C 2.3125 -0.3125 1.671875 -0.265625 1.296875 -0.5625 C 1.03125 -0.75 0.859375 -1.109375 0.84375 -1.5 C 0.8125 -1.953125 0.921875 -2.453125 1.296875 -2.75 C 1.5 -2.90625 1.765625 -3 2.140625 -2.96875 C 2.46875 -2.9375 2.65625 -2.890625 2.921875 -2.75 C 2.984375 -2.71875 3.03125 -2.671875 3.09375 -2.65625 L 3.171875 -3.078125 C 3.015625 -3.15625 2.875 -3.234375 2.703125 -3.28125 C 2.296875 -3.421875 1.671875 -3.40625 1.3125 -3.234375 C 0.96875 -3.078125 0.6875 -2.796875 0.515625 -2.46875 C 0.265625 -1.96875 0.265625 -1.359375 0.515625 -0.84375 C 0.609375 -0.65625 0.734375 -0.484375 0.90625 -0.34375 C 1.375 0.09375 2.09375 0.140625 2.6875 -0.0625 C 2.828125 -0.125 2.953125 -0.1875 3.078125 -0.265625 C 3.125 -0.296875 3.1875 -0.328125 3.203125 -0.359375 C 3.21875 -0.40625 3.1875 -0.796875 3.1875 -0.796875 Z M 3.1875 -0.796875 "/>
</symbol>
<symbol overflow="visible" id="glyph0-25">
<path style="stroke:none;" d="M 2.71875 -2 L 0.6875 -2 C 0.640625 -2 0.578125 -2 0.53125 -2 C 0.453125 -1.96875 0.40625 -1.90625 0.40625 -1.84375 C 0.40625 -1.765625 0.453125 -1.703125 0.53125 -1.6875 C 0.578125 -1.671875 0.640625 -1.671875 0.6875 -1.671875 L 2.71875 -1.671875 L 2.71875 0.359375 C 2.71875 0.40625 2.703125 0.453125 2.71875 0.515625 C 2.75 0.578125 2.8125 0.625 2.875 0.625 C 2.953125 0.625 3.015625 0.578125 3.03125 0.515625 C 3.046875 0.453125 3.03125 0.40625 3.03125 0.359375 L 3.03125 -1.671875 L 5.078125 -1.671875 C 5.125 -1.671875 5.171875 -1.671875 5.21875 -1.6875 C 5.296875 -1.703125 5.34375 -1.765625 5.34375 -1.84375 C 5.34375 -1.90625 5.296875 -1.96875 5.21875 -2 C 5.171875 -2 5.125 -2 5.078125 -2 L 3.03125 -2 L 3.03125 -4.03125 C 3.03125 -4.078125 3.046875 -4.140625 3.03125 -4.1875 C 3.015625 -4.265625 2.953125 -4.3125 2.875 -4.3125 C 2.8125 -4.3125 2.75 -4.265625 2.71875 -4.1875 C 2.703125 -4.140625 2.71875 -4.078125 2.71875 -4.03125 L 2.71875 -2 Z M 2.71875 -2 "/>
</symbol>
<symbol overflow="visible" id="glyph1-0">
<path style="stroke:none;" d=""/>
</symbol>
<symbol overflow="visible" id="glyph1-1">
<path style="stroke:none;" d="M 0.75 -3.296875 C 0.828125 -3.140625 0.921875 -3.015625 1.015625 -2.875 C 1.078125 -2.796875 1.6875 -1.875 1.71875 -1.84375 C 1.734375 -1.8125 1.796875 -1.75 1.796875 -1.703125 C 1.796875 -1.65625 1.71875 -1.609375 1.6875 -1.578125 C 1.375 -1.296875 0.046875 -0.046875 0 0 C 0.1875 0 0.375 0 0.53125 0 L 0.6875 -0.140625 L 1.984375 -1.4375 C 2.265625 -0.953125 2.53125 -0.46875 2.84375 -0.015625 C 3.015625 0 3.203125 0 3.390625 0 C 3.296875 -0.140625 2.359375 -1.53125 2.328125 -1.5625 C 2.3125 -1.609375 2.265625 -1.65625 2.265625 -1.6875 C 2.28125 -1.734375 2.34375 -1.78125 2.375 -1.8125 C 2.484375 -1.921875 2.59375 -2.015625 2.703125 -2.125 C 2.8125 -2.21875 3.921875 -3.25 3.953125 -3.296875 C 3.765625 -3.296875 3.59375 -3.296875 3.421875 -3.28125 C 2.96875 -2.875 2.546875 -2.4375 2.09375 -2.03125 C 1.828125 -2.453125 1.578125 -2.890625 1.28125 -3.28125 C 1.109375 -3.296875 0.921875 -3.296875 0.75 -3.296875 Z M 0.75 -3.296875 "/>
</symbol>
<symbol overflow="visible" id="glyph1-2">
<path style="stroke:none;" d="M 1.765625 -4.84375 L 0.734375 0 L 1.109375 0 C 1.15625 0 1.21875 0.015625 1.265625 -0.015625 C 1.296875 -0.03125 1.296875 -0.09375 1.296875 -0.125 C 1.3125 -0.203125 1.671875 -1.875 1.671875 -1.875 C 1.671875 -1.90625 1.671875 -1.984375 1.71875 -2 C 1.734375 -2.03125 1.765625 -2.015625 1.796875 -2.015625 L 2.640625 -2.015625 C 2.859375 -2.015625 3.078125 -2 3.296875 -2.03125 C 3.6875 -2.0625 4.078125 -2.203125 4.40625 -2.421875 C 4.890625 -2.734375 5.3125 -3.296875 5.15625 -3.890625 C 5.0625 -4.28125 4.75 -4.546875 4.421875 -4.6875 C 4.0625 -4.84375 3.65625 -4.84375 3.265625 -4.84375 L 1.765625 -4.84375 Z M 1.765625 -2.421875 C 1.796875 -2.625 1.859375 -2.8125 1.890625 -3.015625 C 1.921875 -3.125 2.15625 -4.21875 2.15625 -4.28125 C 2.171875 -4.34375 2.171875 -4.421875 2.265625 -4.421875 L 3.453125 -4.421875 C 3.9375 -4.421875 4.625 -4.296875 4.6875 -3.6875 C 4.734375 -3.1875 4.359375 -2.765625 3.921875 -2.578125 C 3.546875 -2.421875 3.21875 -2.421875 2.75 -2.421875 L 1.765625 -2.421875 Z M 1.765625 -2.421875 "/>
</symbol>
<symbol overflow="visible" id="glyph1-3">
<path style="stroke:none;" d="M 2.75 -4.84375 C 2.734375 -4.734375 2.484375 -3.5625 2.46875 -3.546875 C 2.453125 -3.5 2.375 -3.5 2.328125 -3.5 C 1.859375 -3.40625 1.484375 -3.203125 1.171875 -2.9375 C 0.59375 -2.453125 0.203125 -1.671875 0.375 -0.90625 C 0.421875 -0.640625 0.546875 -0.4375 0.703125 -0.265625 C 0.921875 -0.015625 1.296875 0.203125 1.671875 0.234375 L 1.46875 1.21875 L 1.984375 1.21875 C 2 1.140625 2.171875 0.265625 2.1875 0.25 C 2.234375 0.203125 2.3125 0.21875 2.34375 0.203125 C 2.453125 0.1875 2.578125 0.15625 2.6875 0.125 C 3 0 3.296875 -0.171875 3.546875 -0.390625 C 4.171875 -0.96875 4.578125 -1.90625 4.171875 -2.734375 C 3.96875 -3.140625 3.484375 -3.484375 2.984375 -3.515625 C 3.078125 -3.953125 3.171875 -4.390625 3.265625 -4.84375 L 2.75 -4.84375 Z M 2.390625 -3.125 L 2.3125 -2.765625 L 1.765625 -0.15625 C 1.515625 -0.1875 1.3125 -0.28125 1.140625 -0.421875 C 0.75 -0.765625 0.765625 -1.34375 0.890625 -1.796875 C 0.984375 -2.109375 1.140625 -2.40625 1.375 -2.640625 C 1.65625 -2.90625 2.015625 -3.078125 2.390625 -3.125 Z M 2.265625 -0.15625 L 2.40625 -0.8125 L 2.90625 -3.125 C 3.140625 -3.09375 3.328125 -3.015625 3.484375 -2.890625 C 3.875 -2.578125 3.90625 -2.015625 3.796875 -1.5625 C 3.703125 -1.25 3.5625 -0.953125 3.34375 -0.703125 C 3.0625 -0.40625 2.671875 -0.21875 2.265625 -0.15625 Z M 2.265625 -0.15625 "/>
</symbol>
<symbol overflow="visible" id="glyph2-0">
<path style="stroke:none;" d=""/>
</symbol>
<symbol overflow="visible" id="glyph2-1">
<path style="stroke:none;" d="M 0.546875 -3.015625 L 0.546875 -2.734375 C 0.796875 -2.734375 1.046875 -2.78125 1.28125 -2.875 L 1.28125 -0.28125 L 0.578125 -0.28125 L 0.578125 0 L 2.328125 0 L 2.328125 -0.28125 L 1.640625 -0.28125 L 1.640625 -3.34375 C 1.609375 -3.34375 1.5625 -3.359375 1.546875 -3.34375 C 1.5 -3.328125 1.46875 -3.296875 1.4375 -3.265625 C 1.234375 -3.09375 0.875 -3.015625 0.546875 -3.015625 Z M 0.546875 -3.015625 "/>
</symbol>
<symbol overflow="visible" id="glyph2-2">
<path style="stroke:none;" d="M 0.4375 -2.28125 C 0.515625 -2.578125 0.65625 -2.890625 0.953125 -3 C 1.078125 -3.046875 1.203125 -3.0625 1.328125 -3.046875 C 1.578125 -3.03125 1.84375 -2.921875 2 -2.703125 C 2.109375 -2.5625 2.140625 -2.375 2.109375 -2.203125 C 2.046875 -1.71875 1.625 -1.421875 1.28125 -1.15625 C 1 -0.9375 0.421875 -0.421875 0.421875 -0.421875 L 0.328125 -0.34375 C 0.28125 -0.296875 0.28125 -0.296875 0.28125 -0.1875 L 0.28125 0 L 2.5 0 L 2.5 -0.3125 L 0.59375 -0.3125 C 0.796875 -0.484375 1.359375 -0.953125 1.53125 -1.078125 C 1.84375 -1.3125 2.1875 -1.546875 2.390625 -1.890625 C 2.609375 -2.28125 2.46875 -2.8125 2.125 -3.078125 C 1.75 -3.40625 1.046875 -3.453125 0.625 -3.140625 C 0.46875 -3.03125 0.359375 -2.84375 0.28125 -2.671875 C 0.265625 -2.625 0.234375 -2.578125 0.234375 -2.546875 C 0.25 -2.515625 0.28125 -2.484375 0.296875 -2.46875 C 0.34375 -2.40625 0.390625 -2.34375 0.4375 -2.28125 Z M 0.4375 -2.28125 "/>
</symbol>
<symbol overflow="visible" id="glyph3-0">
<path style="stroke:none;" d=""/>
</symbol>
<symbol overflow="visible" id="glyph3-1">
<path style="stroke:none;" d="M 0.984375 -5.21875 C 0.84375 -5.171875 0.859375 -5.03125 0.859375 -4.90625 L 0.859375 1.25 C 0.859375 1.359375 0.84375 1.46875 0.953125 1.53125 C 0.96875 1.53125 0.984375 1.546875 1 1.546875 C 1.015625 1.546875 1.03125 1.546875 1.0625 1.546875 C 1.21875 1.5 1.1875 1.3125 1.1875 1.1875 L 1.1875 -5 C 1.1875 -5.03125 1.1875 -5.078125 1.171875 -5.125 C 1.15625 -5.1875 1.0625 -5.234375 0.984375 -5.21875 Z M 0.984375 -5.21875 "/>
</symbol>
</g>
<clipPath id="clip1">
  <path d="M -166 668 L 446 668 L 446 -124 L -166 -124 L -166 668 Z M -166 668 "/>
</clipPath>
<clipPath id="clip2">
  <path d="M 7.082031 118.898438 L 279.207031 118.898438 L 279.207031 3.351563 L 7.082031 3.351563 L 7.082031 118.898438 Z M 7.082031 118.898438 "/>
</clipPath>
<clipPath id="clip3">
  <path d="M -166 668 L 446 668 L 446 -124 L -166 -124 L -166 668 Z M -166 668 "/>
</clipPath>
<clipPath id="clip4">
  <path d="M 7.082031 118.898438 L 279.207031 118.898438 L 279.207031 3.351563 L 7.082031 3.351563 L 7.082031 118.898438 Z M 7.082031 118.898438 "/>
</clipPath>
<clipPath id="clip5">
  <path d="M 91.570313 7.082031 L 91.570313 53.359375 L 87.253906 53.359375 L 87.253906 7.082031 "/>
</clipPath>
<clipPath id="clip6">
  <path d="M -166 668 L 446 668 L 446 -124 L -166 -124 L -166 668 Z M -166 668 "/>
</clipPath>
<clipPath id="clip7">
  <path d="M 7.082031 118.898438 L 279.207031 118.898438 L 279.207031 3.351563 L 7.082031 3.351563 L 7.082031 118.898438 Z M 7.082031 118.898438 "/>
</clipPath>
<clipPath id="clip8">
  <path d="M -166 668 L 446 668 L 446 -124 L -166 -124 L -166 668 Z M -166 668 "/>
</clipPath>
<clipPath id="clip9">
  <path d="M 7.082031 118.898438 L 279.207031 118.898438 L 279.207031 3.351563 L 7.082031 3.351563 L 7.082031 118.898438 Z M 7.082031 118.898438 "/>
</clipPath>
<clipPath id="clip10">
  <path d="M 87.246094 118.050781 L 87.246094 78.839844 L 91.5625 78.839844 L 91.5625 118.050781 "/>
</clipPath>
<clipPath id="clip11">
  <path d="M -166 668 L 446 668 L 446 -124 L -166 -124 L -166 668 Z M -166 668 "/>
</clipPath>
<clipPath id="clip12">
  <path d="M 7.082031 118.898438 L 279.207031 118.898438 L 279.207031 3.351563 L 7.082031 3.351563 L 7.082031 118.898438 Z M 7.082031 118.898438 "/>
</clipPath>
<clipPath id="clip13">
  <path d="M 146.707031 118.050781 L 146.707031 7.082031 L 155.585938 7.082031 L 155.585938 118.050781 L 146.707031 118.050781 Z M 146.707031 118.050781 "/>
</clipPath>
<clipPath id="clip14">
  <path d="M -166 668 L 446 668 L 446 -124 L -166 -124 L -166 668 Z M -166 668 "/>
</clipPath>
<clipPath id="clip15">
  <path d="M 7.082031 118.898438 L 279.207031 118.898438 L 279.207031 3.351563 L 7.082031 3.351563 L 7.082031 118.898438 Z M 7.082031 118.898438 "/>
</clipPath>
<clipPath id="clip16">
  <path d="M -166 668 L 446 668 L 446 -124 L -166 -124 L -166 668 Z M -166 668 "/>
</clipPath>
<clipPath id="clip17">
  <path d="M 7.082031 118.898438 L 279.207031 118.898438 L 279.207031 3.351563 L 7.082031 3.351563 L 7.082031 118.898438 Z M 7.082031 118.898438 "/>
</clipPath>
<clipPath id="clip18">
  <path d="M 91.5625 75.734375 L 87.246094 75.734375 L 87.246094 56.414063 L 91.5625 56.414063 L 91.5625 75.734375 Z M 91.5625 75.734375 "/>
</clipPath>
<clipPath id="clip19">
  <path d="M -166 668 L 446 668 L 446 -124 L -166 -124 L -166 668 Z M -166 668 "/>
</clipPath>
<clipPath id="clip20">
  <path d="M 7.082031 118.898438 L 279.207031 118.898438 L 279.207031 3.351563 L 7.082031 3.351563 L 7.082031 118.898438 Z M 7.082031 118.898438 "/>
</clipPath>
<clipPath id="clip21">
  <path d="M -166 668 L 446 668 L 446 -124 L -166 -124 L -166 668 Z M -166 668 "/>
</clipPath>
</defs>
<g id="surface0">
<g clip-path="url(#clip1)" clip-rule="nonzero">
<g clip-path="url(#clip2)" clip-rule="nonzero">
<path style="fill:none;stroke-width:5;stroke-linecap:butt;stroke-linejoin:miter;stroke:rgb(0%,0%,0%);stroke-opacity:1;stroke-miterlimit:4;" d="M 1982.733085 7.845599 L 1982.733085 1010.177198 " transform="matrix(0.107986,0,0,-0.107986,7.083,118.898)"/>
<path style=" stroke:none;fill-rule:nonzero;fill:rgb(0%,0%,0%);fill-opacity:1;" d="M 222.742188 10.882813 L 221.175781 5.027344 L 219.605469 10.882813 L 222.742188 10.882813 "/>
<path style="fill:none;stroke-width:5;stroke-linecap:butt;stroke-linejoin:miter;stroke:rgb(0%,0%,0%);stroke-opacity:1;stroke-miterlimit:4;" d="M 1555.415492 10.016009 L 1555.415492 1010.828321 " transform="matrix(0.107986,0,0,-0.107986,7.083,118.898)"/>
<path style=" stroke:none;fill-rule:nonzero;fill:rgb(0%,0%,0%);fill-opacity:1;" d="M 176.597656 10.8125 L 175.027344 4.957031 L 173.457031 10.8125 L 176.597656 10.8125 "/>
<path style="fill:none;stroke-width:5;stroke-linecap:butt;stroke-linejoin:miter;stroke:rgb(0%,0%,0%);stroke-opacity:1;stroke-miterlimit:4;" d="M 199.162337 485.625229 L 199.162337 436.89952 L 44.158876 436.89952 L 44.158876 466.453272 " transform="matrix(0.107986,0,0,-0.107986,7.083,118.898)"/>
<path style="fill:none;stroke-width:5;stroke-linecap:butt;stroke-linejoin:miter;stroke:rgb(0%,0%,0%);stroke-opacity:1;stroke-miterlimit:4;" d="M 44.158876 538.547064 L 44.158876 571.03087 L 199.162337 571.03087 L 199.162337 526.031032 " transform="matrix(0.107986,0,0,-0.107986,7.083,118.898)"/>
<path style="fill:none;stroke-width:5;stroke-linecap:butt;stroke-linejoin:miter;stroke:rgb(0%,0%,0%);stroke-opacity:1;stroke-miterlimit:4;" d="M 1984.143851 503.748154 L 2464.166238 503.748154 " transform="matrix(0.107986,0,0,-0.107986,7.083,118.898)"/>
<path style=" stroke:none;fill-rule:nonzero;fill:rgb(0%,0%,0%);fill-opacity:1;" d="M 272.109375 66.050781 L 277.960938 64.480469 L 272.109375 62.914063 L 272.109375 66.050781 "/>
<path style="fill:none;stroke-width:5;stroke-linecap:butt;stroke-linejoin:miter;stroke:rgb(0%,0%,0%);stroke-opacity:1;stroke-miterlimit:4;" d="M 1506.725956 503.748154 L 1837.351775 503.748154 " transform="matrix(0.107986,0,0,-0.107986,7.083,118.898)"/>
<path style=" stroke:none;fill-rule:nonzero;fill:rgb(0%,0%,0%);fill-opacity:1;" d="M 204.316406 66.050781 L 210.742188 64.480469 L 204.316406 62.914063 L 204.316406 66.050781 "/>
<path style="fill:none;stroke-width:5;stroke-linecap:butt;stroke-linejoin:miter;stroke:rgb(0%,0%,0%);stroke-opacity:1;stroke-dasharray:30,30;stroke-miterlimit:4;" d="M 487.356637 503.892848 L 1294.170452 503.892848 " transform="matrix(0.107986,0,0,-0.107986,7.083,118.898)"/>
<path style="fill:none;stroke-width:5;stroke-linecap:butt;stroke-linejoin:miter;stroke:rgb(0%,0%,0%);stroke-opacity:1;stroke-dasharray:30,20;stroke-miterlimit:4;" d="M 206.650253 503.892848 L 482.907296 503.892848 " transform="matrix(0.107986,0,0,-0.107986,7.083,118.898)"/>
<path style=" stroke:none;fill-rule:nonzero;fill:rgb(0%,0%,0%);fill-opacity:1;" d="M 58.160156 66.035156 L 64.015625 64.46875 L 58.160156 62.898438 L 58.160156 66.035156 "/>
<path style="fill:none;stroke-width:5;stroke-linecap:butt;stroke-linejoin:miter;stroke:rgb(0%,0%,0%);stroke-opacity:1;stroke-dasharray:30,20;stroke-miterlimit:4;" d="M 206.650253 503.892848 L 432.300565 355.617658 " transform="matrix(0.107986,0,0,-0.107986,7.083,118.898)"/>
<path style=" stroke:none;fill-rule:nonzero;fill:rgb(0%,0%,0%);fill-opacity:1;" d="M 52.023438 81.203125 L 57.777344 83.105469 L 53.746094 78.582031 L 52.023438 81.203125 "/>
<path style="fill:none;stroke-width:5;stroke-linecap:butt;stroke-linejoin:miter;stroke:rgb(0%,0%,0%);stroke-opacity:1;stroke-dasharray:30,20;stroke-miterlimit:4;" d="M 206.650253 503.892848 L 437.726591 645.403592 " transform="matrix(0.107986,0,0,-0.107986,7.083,118.898)"/>
<path style=" stroke:none;fill-rule:nonzero;fill:rgb(0%,0%,0%);fill-opacity:1;" d="M 54.25 51.082031 L 58.421875 46.6875 L 52.613281 48.40625 L 54.25 51.082031 "/>
<path style="fill:none;stroke-width:5;stroke-linecap:butt;stroke-linejoin:miter;stroke:rgb(0%,0%,0%);stroke-opacity:1;stroke-dasharray:30,20;stroke-miterlimit:4;" d="M 207.482243 504.146062 L 463.409778 590.528388 " transform="matrix(0.107986,0,0,-0.107986,7.083,118.898)"/>
<path style=" stroke:none;fill-rule:nonzero;fill:rgb(0%,0%,0%);fill-opacity:1;" d="M 56.609375 56.9375 L 61.652344 53.582031 L 55.605469 53.964844 L 56.609375 56.9375 "/>
<path style="fill:none;stroke-width:5;stroke-linecap:butt;stroke-linejoin:miter;stroke:rgb(0%,0%,0%);stroke-opacity:1;stroke-dasharray:30,20;stroke-miterlimit:4;" d="M 207.482243 504.146062 L 474.153309 544.153957 " transform="matrix(0.107986,0,0,-0.107986,7.083,118.898)"/>
<path style=" stroke:none;fill-rule:nonzero;fill:rgb(0%,0%,0%);fill-opacity:1;" d="M 57.457031 61.828125 L 63.015625 59.40625 L 56.992188 58.726563 L 57.457031 61.828125 "/>
<path style="fill:none;stroke-width:5;stroke-linecap:butt;stroke-linejoin:miter;stroke:rgb(0%,0%,0%);stroke-opacity:1;stroke-dasharray:30,20;stroke-miterlimit:4;" d="M 207.482243 504.146062 L 463.373605 417.79991 " transform="matrix(0.107986,0,0,-0.107986,7.083,118.898)"/>
<path style=" stroke:none;fill-rule:nonzero;fill:rgb(0%,0%,0%);fill-opacity:1;" d="M 55.613281 74.90625 L 61.660156 75.292969 L 56.617188 71.933594 L 55.613281 74.90625 "/>
<path style="fill:none;stroke-width:5;stroke-linecap:butt;stroke-linejoin:miter;stroke:rgb(0%,0%,0%);stroke-opacity:1;stroke-dasharray:30,20;stroke-miterlimit:4;" d="M 207.482243 504.146062 L 474.153309 464.174341 " transform="matrix(0.107986,0,0,-0.107986,7.083,118.898)"/>
<path style=" stroke:none;fill-rule:nonzero;fill:rgb(0%,0%,0%);fill-opacity:1;" d="M 57 70.148438 L 63.019531 69.464844 L 57.464844 67.046875 L 57 70.148438 "/>
<path style="fill:none;stroke-width:5;stroke-linecap:butt;stroke-linejoin:miter;stroke:rgb(0%,0%,0%);stroke-opacity:1;stroke-miterlimit:4;" d="M -0.00897103 481.682317 C -0.00897103 481.682317 109.669091 481.682317 109.994652 481.682317 C 115.637719 481.682317 123.595889 483.237777 124.934309 487.108342 C 126.634464 492.027939 124.391706 497.888046 119.110375 500.239324 C 113.90139 502.554428 106.956078 496.441106 113.684349 493.07697 C 117.591088 491.123601 123.993798 494.632431 125.730126 498.03274 C 129.49217 505.15892 124.934309 516.40888 116.180321 516.264186 C 109.813785 516.191839 108.185977 508.450709 115.746239 508.414536 C 119.942365 508.378362 126.128035 513.370306 126.128035 518.072861 C 126.128035 526.103379 118.314558 526.103379 113.214094 526.248073 L 1.257102 526.248073 " transform="matrix(0.107986,0,0,-0.107986,7.083,118.898)"/>
<path style="fill:none;stroke-width:5;stroke-linecap:butt;stroke-linejoin:miter;stroke:rgb(0%,0%,0%);stroke-opacity:1;stroke-miterlimit:4;" d="M 1555.415492 967.492464 C 1555.415492 967.492464 1564.386521 749.98119 1679.382087 503.892848 C 1679.382087 503.892848 1782.910653 294.990867 1605.407273 11.245908 " transform="matrix(0.107986,0,0,-0.107986,7.083,118.898)"/>
<path style="fill:none;stroke-width:5;stroke-linecap:butt;stroke-linejoin:miter;stroke:rgb(0%,0%,0%);stroke-opacity:1;stroke-miterlimit:4;" d="M 1576.649338 1017.484246 C 1584.2096 992.271314 1592.6742 967.311597 1601.86227 942.605094 C 1609.856614 921.19038 1618.393561 899.92036 1628.124233 879.229117 C 1640.242357 853.473582 1655.86931 829.671417 1670.157844 805.109609 C 1677.24785 792.919138 1684.120816 780.583973 1690.017097 767.706206 C 1727.890755 684.543323 1721.053963 584.704454 1679.382087 503.892848 C 1679.382087 503.892848 1586.669398 296.25694 1575.419439 143.74945 " transform="matrix(0.107986,0,0,-0.107986,7.083,118.898)"/>
<path style="fill:none;stroke-width:5;stroke-linecap:butt;stroke-linejoin:miter;stroke:rgb(0%,0%,0%);stroke-opacity:1;stroke-miterlimit:4;" d="M 2045.421766 943.654126 C 2045.421766 943.654126 2035.401705 904.912304 2062.893568 891.166373 C 2090.421604 877.384268 2210.409114 856.150422 2127.897353 806.15864 C 2045.421766 756.166859 1982.913952 732.400867 2045.421766 721.150908 L 2251.755428 678.647042 C 2267.201514 674.776477 2293.716691 669.458972 2304.424048 658.751615 C 2322.764014 640.411649 2259.749772 626.918932 2244.484554 623.084541 C 2205.127782 613.173001 2164.721979 608.361925 2124.714085 601.886868 C 2098.886203 597.690741 2072.841281 593.784003 2047.338961 587.743028 C 2038.006198 585.536444 2011.346326 581.991441 2006.607597 571.356431 C 1996.985445 549.76085 2036.848645 549.543809 2049.18381 549.03738 C 2067.885511 548.241563 2086.551039 547.409572 2105.216566 546.505234 C 2158.391616 543.900742 2211.530492 540.825994 2264.597021 536.666042 C 2300.51731 533.844508 2336.546119 532.940171 2372.17702 527.586492 C 2379.701108 526.465114 2387.225197 525.741644 2394.676939 524.403224 C 2401.079649 523.209498 2407.627053 521.798732 2413.523334 518.904852 C 2416.417214 517.457911 2419.1664 515.649236 2421.300637 513.189438 C 2422.349669 511.995712 2423.254006 510.657293 2423.905129 509.174179 C 2426.364928 503.60346 2424.664773 498.141261 2419.672829 494.704778 C 2416.851296 492.751409 2413.595681 491.376816 2410.376239 490.18309 C 2405.52899 488.410588 2400.500873 487.035995 2395.472756 485.84227 C 2388.346576 484.142115 2381.148049 482.731348 2373.913348 481.465276 C 2364.291196 479.728948 2354.560524 478.282007 2344.829851 476.907414 C 2332.349993 475.134913 2319.797787 473.507105 2307.281755 471.987818 C 2291.582455 470.070622 2275.883154 468.298121 2260.183854 466.561792 C 2241.048071 464.463729 2221.876114 462.474187 2202.740331 460.484644 C 2179.80633 458.133366 2156.836155 455.854436 2133.902154 453.575505 C 2112.740655 451.513615 2091.579156 449.451725 2070.417656 447.389836 C 2070.417656 447.389836 1899.172292 431.147933 2119.143365 396.168155 C 2119.143365 396.168155 2287.892757 371.136091 2287.892757 349.902245 C 2287.892757 349.902245 2305.400733 319.154767 2086.659559 279.146873 C 2085.393487 278.929832 2084.163588 278.71279 2082.897515 278.459576 C 2069.260104 275.746563 2049.834933 272.165386 2039.561658 262.109153 C 2030.662976 253.391338 2034.027112 243.009543 2041.876762 235.015199 C 2045.928195 230.927593 2050.703097 227.527284 2055.58652 224.488709 C 2069.947401 215.553854 2085.646701 209.00645 2100.152276 199.81838 C 2114.766371 190.52179 2129.525161 180.067647 2140.77512 166.683451 C 2146.816095 159.521098 2152.929417 150.188334 2151.627171 140.312967 C 2150.397272 130.83551 2142.511448 124.396626 2134.625624 120.128153 C 2127.101536 116.040547 2118.383722 113.580749 2110.497898 109.891051 C 2101.056614 105.514057 2091.904717 100.413593 2083.476291 94.300271 C 2072.298679 86.12506 2061.193413 75.345356 2057.75693 61.45473 C 2053.452283 44.091449 2063.580864 28.066587 2075.4096 16.237851 " transform="matrix(0.107986,0,0,-0.107986,7.083,118.898)"/>
<path style="fill:none;stroke-width:5;stroke-linecap:butt;stroke-linejoin:miter;stroke:rgb(0%,0%,0%);stroke-opacity:1;stroke-miterlimit:4;" d="M 782.243035 1035.462477 L 782.243035 606.914985 L 742.307488 606.914985 L 742.307488 1035.462477 " transform="matrix(0.107986,0,0,-0.107986,7.083,118.898)"/>
</g>
</g>
<g clip-path="url(#clip3)" clip-rule="nonzero">
<g clip-path="url(#clip4)" clip-rule="nonzero">
<g clip-path="url(#clip5)" clip-rule="nonzero">
<path style="fill:none;stroke-width:4;stroke-linecap:butt;stroke-linejoin:miter;stroke:rgb(0%,0%,0%);stroke-opacity:1;stroke-miterlimit:4;" d="M 1116.992633 982.395948 L -172.990663 -307.623522 " transform="matrix(0.107986,0,0,-0.107986,7.083,118.898)"/>
<path style="fill:none;stroke-width:4;stroke-linecap:butt;stroke-linejoin:miter;stroke:rgb(0%,0%,0%);stroke-opacity:1;stroke-miterlimit:4;" d="M 1141.771483 957.653271 L -148.247987 -332.366199 " transform="matrix(0.107986,0,0,-0.107986,7.083,118.898)"/>
<path style="fill:none;stroke-width:4;stroke-linecap:butt;stroke-linejoin:miter;stroke:rgb(0%,0%,0%);stroke-opacity:1;stroke-miterlimit:4;" d="M 1067.507281 1031.8813 L -222.512189 -258.13817 " transform="matrix(0.107986,0,0,-0.107986,7.083,118.898)"/>
<path style="fill:none;stroke-width:4;stroke-linecap:butt;stroke-linejoin:miter;stroke:rgb(0%,0%,0%);stroke-opacity:1;stroke-miterlimit:4;" d="M 1092.249957 1007.138624 L -197.733339 -282.880846 " transform="matrix(0.107986,0,0,-0.107986,7.083,118.898)"/>
<path style="fill:none;stroke-width:4;stroke-linecap:butt;stroke-linejoin:miter;stroke:rgb(0%,0%,0%);stroke-opacity:1;stroke-miterlimit:4;" d="M 1018.021929 1081.402826 L -271.997541 -208.616644 " transform="matrix(0.107986,0,0,-0.107986,7.083,118.898)"/>
<path style="fill:none;stroke-width:4;stroke-linecap:butt;stroke-linejoin:miter;stroke:rgb(0%,0%,0%);stroke-opacity:1;stroke-miterlimit:4;" d="M 1042.764605 1056.623976 L -247.254865 -233.35932 " transform="matrix(0.107986,0,0,-0.107986,7.083,118.898)"/>
<path style="fill:none;stroke-width:4;stroke-linecap:butt;stroke-linejoin:miter;stroke:rgb(0%,0%,0%);stroke-opacity:1;stroke-miterlimit:4;" d="M 968.536576 1130.888178 L -321.482894 -159.131292 " transform="matrix(0.107986,0,0,-0.107986,7.083,118.898)"/>
<path style="fill:none;stroke-width:4;stroke-linecap:butt;stroke-linejoin:miter;stroke:rgb(0%,0%,0%);stroke-opacity:1;stroke-miterlimit:4;" d="M 993.279252 1106.145502 L -296.740218 -183.873968 " transform="matrix(0.107986,0,0,-0.107986,7.083,118.898)"/>
<path style="fill:none;stroke-width:4;stroke-linecap:butt;stroke-linejoin:miter;stroke:rgb(0%,0%,0%);stroke-opacity:1;stroke-miterlimit:4;" d="M 919.01505 1180.37353 L -371.00442 -109.64594 " transform="matrix(0.107986,0,0,-0.107986,7.083,118.898)"/>
<path style="fill:none;stroke-width:4;stroke-linecap:butt;stroke-linejoin:miter;stroke:rgb(0%,0%,0%);stroke-opacity:1;stroke-miterlimit:4;" d="M 943.757727 1155.630854 L -346.22557 -134.388616 " transform="matrix(0.107986,0,0,-0.107986,7.083,118.898)"/>
<path style="fill:none;stroke-width:4;stroke-linecap:butt;stroke-linejoin:miter;stroke:rgb(0%,0%,0%);stroke-opacity:1;stroke-miterlimit:4;" d="M 869.529698 1229.858883 L -420.489772 -60.124414 " transform="matrix(0.107986,0,0,-0.107986,7.083,118.898)"/>
<path style="fill:none;stroke-width:4;stroke-linecap:butt;stroke-linejoin:miter;stroke:rgb(0%,0%,0%);stroke-opacity:1;stroke-miterlimit:4;" d="M 894.272374 1205.116207 L -395.747096 -84.86709 " transform="matrix(0.107986,0,0,-0.107986,7.083,118.898)"/>
</g>
</g>
</g>
<g clip-path="url(#clip6)" clip-rule="nonzero">
<g clip-path="url(#clip7)" clip-rule="nonzero">
<path style="fill:none;stroke-width:5;stroke-linecap:butt;stroke-linejoin:miter;stroke:rgb(0%,0%,0%);stroke-opacity:1;stroke-miterlimit:4;" d="M 742.343661 7.845599 L 742.343661 370.955224 L 782.315382 370.955224 L 782.315382 7.845599 " transform="matrix(0.107986,0,0,-0.107986,7.083,118.898)"/>
</g>
</g>
<g clip-path="url(#clip8)" clip-rule="nonzero">
<g clip-path="url(#clip9)" clip-rule="nonzero">
<g clip-path="url(#clip10)" clip-rule="nonzero">
<path style="fill:none;stroke-width:4;stroke-linecap:butt;stroke-linejoin:miter;stroke:rgb(0%,0%,0%);stroke-opacity:1;stroke-miterlimit:4;" d="M 1413.977094 685.411487 L 123.993798 -604.607983 " transform="matrix(0.107986,0,0,-0.107986,7.083,118.898)"/>
<path style="fill:none;stroke-width:4;stroke-linecap:butt;stroke-linejoin:miter;stroke:rgb(0%,0%,0%);stroke-opacity:1;stroke-miterlimit:4;" d="M 1438.755944 660.66881 L 148.736474 -629.35066 " transform="matrix(0.107986,0,0,-0.107986,7.083,118.898)"/>
<path style="fill:none;stroke-width:4;stroke-linecap:butt;stroke-linejoin:miter;stroke:rgb(0%,0%,0%);stroke-opacity:1;stroke-miterlimit:4;" d="M 1364.491742 734.896839 L 74.472272 -555.086458 " transform="matrix(0.107986,0,0,-0.107986,7.083,118.898)"/>
<path style="fill:none;stroke-width:4;stroke-linecap:butt;stroke-linejoin:miter;stroke:rgb(0%,0%,0%);stroke-opacity:1;stroke-miterlimit:4;" d="M 1389.234418 710.154163 L 99.251122 -579.829134 " transform="matrix(0.107986,0,0,-0.107986,7.083,118.898)"/>
<path style="fill:none;stroke-width:4;stroke-linecap:butt;stroke-linejoin:miter;stroke:rgb(0%,0%,0%);stroke-opacity:1;stroke-miterlimit:4;" d="M 1315.00639 784.418365 L 24.98692 -505.601105 " transform="matrix(0.107986,0,0,-0.107986,7.083,118.898)"/>
<path style="fill:none;stroke-width:4;stroke-linecap:butt;stroke-linejoin:miter;stroke:rgb(0%,0%,0%);stroke-opacity:1;stroke-miterlimit:4;" d="M 1339.749066 759.639515 L 49.729596 -530.343781 " transform="matrix(0.107986,0,0,-0.107986,7.083,118.898)"/>
<path style="fill:none;stroke-width:4;stroke-linecap:butt;stroke-linejoin:miter;stroke:rgb(0%,0%,0%);stroke-opacity:1;stroke-miterlimit:4;" d="M 1265.484864 833.903717 L -24.498433 -456.115753 " transform="matrix(0.107986,0,0,-0.107986,7.083,118.898)"/>
<path style="fill:none;stroke-width:4;stroke-linecap:butt;stroke-linejoin:miter;stroke:rgb(0%,0%,0%);stroke-opacity:1;stroke-miterlimit:4;" d="M 1290.263714 809.161041 L 0.244243 -480.858429 " transform="matrix(0.107986,0,0,-0.107986,7.083,118.898)"/>
<path style="fill:none;stroke-width:4;stroke-linecap:butt;stroke-linejoin:miter;stroke:rgb(0%,0%,0%);stroke-opacity:1;stroke-miterlimit:4;" d="M 1215.999512 883.389069 L -74.019959 -406.594227 " transform="matrix(0.107986,0,0,-0.107986,7.083,118.898)"/>
<path style="fill:none;stroke-width:4;stroke-linecap:butt;stroke-linejoin:miter;stroke:rgb(0%,0%,0%);stroke-opacity:1;stroke-miterlimit:4;" d="M 1240.742188 858.646393 L -49.241109 -431.373077 " transform="matrix(0.107986,0,0,-0.107986,7.083,118.898)"/>
</g>
</g>
</g>
<g clip-path="url(#clip11)" clip-rule="nonzero">
<g clip-path="url(#clip12)" clip-rule="nonzero">
<g clip-path="url(#clip13)" clip-rule="nonzero">
<path style="fill:none;stroke-width:4;stroke-linecap:butt;stroke-linejoin:miter;stroke:rgb(0%,0%,0%);stroke-opacity:1;stroke-miterlimit:4;" d="M 1710.997729 388.427026 L 420.978259 -901.592444 " transform="matrix(0.107986,0,0,-0.107986,7.083,118.898)"/>
<path style="fill:none;stroke-width:4;stroke-linecap:butt;stroke-linejoin:miter;stroke:rgb(0%,0%,0%);stroke-opacity:1;stroke-miterlimit:4;" d="M 1735.704232 363.684349 L 445.720935 -926.335121 " transform="matrix(0.107986,0,0,-0.107986,7.083,118.898)"/>
<path style="fill:none;stroke-width:4;stroke-linecap:butt;stroke-linejoin:miter;stroke:rgb(0%,0%,0%);stroke-opacity:1;stroke-miterlimit:4;" d="M 1661.476203 437.912378 L 371.456733 -852.107092 " transform="matrix(0.107986,0,0,-0.107986,7.083,118.898)"/>
<path style="fill:none;stroke-width:4;stroke-linecap:butt;stroke-linejoin:miter;stroke:rgb(0%,0%,0%);stroke-opacity:1;stroke-miterlimit:4;" d="M 1686.218879 413.169702 L 396.199409 -876.849768 " transform="matrix(0.107986,0,0,-0.107986,7.083,118.898)"/>
<path style="fill:none;stroke-width:4;stroke-linecap:butt;stroke-linejoin:miter;stroke:rgb(0%,0%,0%);stroke-opacity:1;stroke-miterlimit:4;" d="M 1611.990851 487.433904 L 321.971381 -802.585566 " transform="matrix(0.107986,0,0,-0.107986,7.083,118.898)"/>
<path style="fill:none;stroke-width:4;stroke-linecap:butt;stroke-linejoin:miter;stroke:rgb(0%,0%,0%);stroke-opacity:1;stroke-miterlimit:4;" d="M 1636.733527 462.691228 L 346.714057 -827.328242 " transform="matrix(0.107986,0,0,-0.107986,7.083,118.898)"/>
<path style="fill:none;stroke-width:4;stroke-linecap:butt;stroke-linejoin:miter;stroke:rgb(0%,0%,0%);stroke-opacity:1;stroke-miterlimit:4;" d="M 1562.469325 536.919256 L 272.486028 -753.100214 " transform="matrix(0.107986,0,0,-0.107986,7.083,118.898)"/>
<path style="fill:none;stroke-width:4;stroke-linecap:butt;stroke-linejoin:miter;stroke:rgb(0%,0%,0%);stroke-opacity:1;stroke-miterlimit:4;" d="M 1587.248175 512.17658 L 297.228705 -777.84289 " transform="matrix(0.107986,0,0,-0.107986,7.083,118.898)"/>
<path style="fill:none;stroke-width:4;stroke-linecap:butt;stroke-linejoin:miter;stroke:rgb(0%,0%,0%);stroke-opacity:1;stroke-miterlimit:4;" d="M 1512.983973 586.404608 L 222.964503 -703.578688 " transform="matrix(0.107986,0,0,-0.107986,7.083,118.898)"/>
<path style="fill:none;stroke-width:4;stroke-linecap:butt;stroke-linejoin:miter;stroke:rgb(0%,0%,0%);stroke-opacity:1;stroke-miterlimit:4;" d="M 1537.726649 561.661932 L 247.743352 -728.357538 " transform="matrix(0.107986,0,0,-0.107986,7.083,118.898)"/>
<path style="fill:none;stroke-width:4;stroke-linecap:butt;stroke-linejoin:miter;stroke:rgb(0%,0%,0%);stroke-opacity:1;stroke-miterlimit:4;" d="M 1463.49862 635.889961 L 173.47915 -654.093336 " transform="matrix(0.107986,0,0,-0.107986,7.083,118.898)"/>
<path style="fill:none;stroke-width:4;stroke-linecap:butt;stroke-linejoin:miter;stroke:rgb(0%,0%,0%);stroke-opacity:1;stroke-miterlimit:4;" d="M 1488.241296 611.147285 L 198.221826 -678.836012 " transform="matrix(0.107986,0,0,-0.107986,7.083,118.898)"/>
<path style="fill:none;stroke-width:4;stroke-linecap:butt;stroke-linejoin:miter;stroke:rgb(0%,0%,0%);stroke-opacity:1;stroke-miterlimit:4;" d="M 1413.977094 685.411487 L 123.993798 -604.607983 " transform="matrix(0.107986,0,0,-0.107986,7.083,118.898)"/>
<path style="fill:none;stroke-width:4;stroke-linecap:butt;stroke-linejoin:miter;stroke:rgb(0%,0%,0%);stroke-opacity:1;stroke-miterlimit:4;" d="M 1438.755944 660.66881 L 148.736474 -629.35066 " transform="matrix(0.107986,0,0,-0.107986,7.083,118.898)"/>
<path style="fill:none;stroke-width:4;stroke-linecap:butt;stroke-linejoin:miter;stroke:rgb(0%,0%,0%);stroke-opacity:1;stroke-miterlimit:4;" d="M 2654.511212 2024.916309 L 1364.491742 734.896839 " transform="matrix(0.107986,0,0,-0.107986,7.083,118.898)"/>
<path style="fill:none;stroke-width:4;stroke-linecap:butt;stroke-linejoin:miter;stroke:rgb(0%,0%,0%);stroke-opacity:1;stroke-miterlimit:4;" d="M 1364.491742 734.896839 L 74.472272 -555.122631 " transform="matrix(0.107986,0,0,-0.107986,7.083,118.898)"/>
<path style="fill:none;stroke-width:4;stroke-linecap:butt;stroke-linejoin:miter;stroke:rgb(0%,0%,0%);stroke-opacity:1;stroke-miterlimit:4;" d="M 1389.234418 710.154163 L 99.251122 -579.865307 " transform="matrix(0.107986,0,0,-0.107986,7.083,118.898)"/>
<path style="fill:none;stroke-width:4;stroke-linecap:butt;stroke-linejoin:miter;stroke:rgb(0%,0%,0%);stroke-opacity:1;stroke-miterlimit:4;" d="M 2605.02586 2074.401661 L 1315.00639 784.418365 " transform="matrix(0.107986,0,0,-0.107986,7.083,118.898)"/>
<path style="fill:none;stroke-width:4;stroke-linecap:butt;stroke-linejoin:miter;stroke:rgb(0%,0%,0%);stroke-opacity:1;stroke-miterlimit:4;" d="M 2629.768536 2049.658985 L 1339.749066 759.639515 " transform="matrix(0.107986,0,0,-0.107986,7.083,118.898)"/>
<path style="fill:none;stroke-width:4;stroke-linecap:butt;stroke-linejoin:miter;stroke:rgb(0%,0%,0%);stroke-opacity:1;stroke-miterlimit:4;" d="M 1315.00639 784.418365 L 24.98692 -505.601105 " transform="matrix(0.107986,0,0,-0.107986,7.083,118.898)"/>
<path style="fill:none;stroke-width:4;stroke-linecap:butt;stroke-linejoin:miter;stroke:rgb(0%,0%,0%);stroke-opacity:1;stroke-miterlimit:4;" d="M 1339.749066 759.639515 L 49.729596 -530.343781 " transform="matrix(0.107986,0,0,-0.107986,7.083,118.898)"/>
<path style="fill:none;stroke-width:4;stroke-linecap:butt;stroke-linejoin:miter;stroke:rgb(0%,0%,0%);stroke-opacity:1;stroke-miterlimit:4;" d="M 2555.504334 2123.923187 L 1265.484864 833.903717 " transform="matrix(0.107986,0,0,-0.107986,7.083,118.898)"/>
<path style="fill:none;stroke-width:4;stroke-linecap:butt;stroke-linejoin:miter;stroke:rgb(0%,0%,0%);stroke-opacity:1;stroke-miterlimit:4;" d="M 2580.24701 2099.144337 L 1290.22754 809.161041 " transform="matrix(0.107986,0,0,-0.107986,7.083,118.898)"/>
<path style="fill:none;stroke-width:4;stroke-linecap:butt;stroke-linejoin:miter;stroke:rgb(0%,0%,0%);stroke-opacity:1;stroke-miterlimit:4;" d="M 1290.263714 809.161041 L 0.244243 -480.858429 " transform="matrix(0.107986,0,0,-0.107986,7.083,118.898)"/>
<path style="fill:none;stroke-width:4;stroke-linecap:butt;stroke-linejoin:miter;stroke:rgb(0%,0%,0%);stroke-opacity:1;stroke-miterlimit:4;" d="M 2506.018982 2173.408539 L 1215.999512 883.389069 " transform="matrix(0.107986,0,0,-0.107986,7.083,118.898)"/>
<path style="fill:none;stroke-width:4;stroke-linecap:butt;stroke-linejoin:miter;stroke:rgb(0%,0%,0%);stroke-opacity:1;stroke-miterlimit:4;" d="M 2530.761658 2148.665863 L 1240.742188 858.646393 " transform="matrix(0.107986,0,0,-0.107986,7.083,118.898)"/>
<path style="fill:none;stroke-width:4;stroke-linecap:butt;stroke-linejoin:miter;stroke:rgb(0%,0%,0%);stroke-opacity:1;stroke-miterlimit:4;" d="M 2456.497456 2222.893892 L 1166.514159 932.874422 " transform="matrix(0.107986,0,0,-0.107986,7.083,118.898)"/>
<path style="fill:none;stroke-width:4;stroke-linecap:butt;stroke-linejoin:miter;stroke:rgb(0%,0%,0%);stroke-opacity:1;stroke-miterlimit:4;" d="M 2481.276305 2198.151216 L 1191.256835 908.131746 " transform="matrix(0.107986,0,0,-0.107986,7.083,118.898)"/>
</g>
</g>
</g>
<g clip-path="url(#clip14)" clip-rule="nonzero">
<g clip-path="url(#clip15)" clip-rule="nonzero">
<path style="fill:none;stroke-width:5;stroke-linecap:butt;stroke-linejoin:miter;stroke:rgb(0%,0%,0%);stroke-opacity:1;stroke-miterlimit:4;" d="M 1292.976726 7.845599 L 1292.976726 1035.462477 " transform="matrix(0.107986,0,0,-0.107986,7.083,118.898)"/>
<path style="fill:none;stroke-width:5;stroke-linecap:butt;stroke-linejoin:miter;stroke:rgb(0%,0%,0%);stroke-opacity:1;stroke-miterlimit:4;" d="M 1375.199099 1035.462477 L 1375.199099 7.845599 " transform="matrix(0.107986,0,0,-0.107986,7.083,118.898)"/>
</g>
</g>
<g clip-path="url(#clip16)" clip-rule="nonzero">
<g clip-path="url(#clip17)" clip-rule="nonzero">
<g clip-path="url(#clip18)" clip-rule="nonzero">
<path style="fill:none;stroke-width:4;stroke-linecap:butt;stroke-linejoin:miter;stroke:rgb(0%,0%,0%);stroke-opacity:1;stroke-miterlimit:4;" d="M 1265.484864 833.903717 L -24.498433 -456.115753 " transform="matrix(0.107986,0,0,-0.107986,7.083,118.898)"/>
<path style="fill:none;stroke-width:4;stroke-linecap:butt;stroke-linejoin:miter;stroke:rgb(0%,0%,0%);stroke-opacity:1;stroke-miterlimit:4;" d="M 1290.263714 809.161041 L 0.244243 -480.858429 " transform="matrix(0.107986,0,0,-0.107986,7.083,118.898)"/>
<path style="fill:none;stroke-width:4;stroke-linecap:butt;stroke-linejoin:miter;stroke:rgb(0%,0%,0%);stroke-opacity:1;stroke-miterlimit:4;" d="M 1215.999512 883.389069 L -74.019959 -406.594227 " transform="matrix(0.107986,0,0,-0.107986,7.083,118.898)"/>
<path style="fill:none;stroke-width:4;stroke-linecap:butt;stroke-linejoin:miter;stroke:rgb(0%,0%,0%);stroke-opacity:1;stroke-miterlimit:4;" d="M 1240.742188 858.646393 L -49.241109 -431.373077 " transform="matrix(0.107986,0,0,-0.107986,7.083,118.898)"/>
<path style="fill:none;stroke-width:4;stroke-linecap:butt;stroke-linejoin:miter;stroke:rgb(0%,0%,0%);stroke-opacity:1;stroke-miterlimit:4;" d="M 1166.514159 932.910595 L -123.505311 -357.108875 " transform="matrix(0.107986,0,0,-0.107986,7.083,118.898)"/>
<path style="fill:none;stroke-width:4;stroke-linecap:butt;stroke-linejoin:miter;stroke:rgb(0%,0%,0%);stroke-opacity:1;stroke-miterlimit:4;" d="M 1191.256835 908.167919 L -98.762635 -381.851551 " transform="matrix(0.107986,0,0,-0.107986,7.083,118.898)"/>
<path style="fill:none;stroke-width:4;stroke-linecap:butt;stroke-linejoin:miter;stroke:rgb(0%,0%,0%);stroke-opacity:1;stroke-miterlimit:4;" d="M 1116.992633 982.395948 L -172.990663 -307.623522 " transform="matrix(0.107986,0,0,-0.107986,7.083,118.898)"/>
<path style="fill:none;stroke-width:4;stroke-linecap:butt;stroke-linejoin:miter;stroke:rgb(0%,0%,0%);stroke-opacity:1;stroke-miterlimit:4;" d="M 1141.771483 957.653271 L -148.247987 -332.366199 " transform="matrix(0.107986,0,0,-0.107986,7.083,118.898)"/>
</g>
</g>
</g>
<g clip-path="url(#clip19)" clip-rule="nonzero">
<g clip-path="url(#clip20)" clip-rule="nonzero">
<path style="fill:none;stroke-width:5;stroke-linecap:butt;stroke-linejoin:miter;stroke:rgb(13.730068%,12.159915%,12.54902%);stroke-opacity:1;stroke-miterlimit:4;" d="M 742.343661 399.713159 L 782.315382 399.713159 L 782.315382 578.627305 L 742.343661 578.627305 L 742.343661 399.713159 Z M 742.343661 399.713159 " transform="matrix(0.107986,0,0,-0.107986,7.083,118.898)"/>
<path style="fill:none;stroke-width:5;stroke-linecap:butt;stroke-linejoin:miter;stroke:rgb(0%,0%,0%);stroke-opacity:1;stroke-miterlimit:4;" d="M 1225.187581 670.508003 L 1292.687338 670.508003 L 1292.687338 724.261829 L 1225.187581 724.261829 L 1225.187581 707.368803 L 1263.965577 707.368803 L 1263.965577 686.749906 L 1225.802531 686.749906 L 1225.187581 670.508003 Z M 1225.187581 670.508003 " transform="matrix(0.107986,0,0,-0.107986,7.083,118.898)"/>
<path style="fill:none;stroke-width:3.8;stroke-linecap:butt;stroke-linejoin:miter;stroke:rgb(0%,0%,0%);stroke-opacity:1;stroke-miterlimit:4;" d="M 1157.796345 736.488473 L 1195.380615 711.709623 " transform="matrix(0.107986,0,0,-0.107986,7.083,118.898)"/>
<path style=" stroke:none;fill-rule:nonzero;fill:rgb(0%,0%,0%);fill-opacity:1;" d="M 134.839844 42.578125 L 139.210938 44.03125 L 136.152344 40.585938 L 134.839844 42.578125 "/>
</g>
</g>
<g clip-path="url(#clip21)" clip-rule="nonzero">
<g style="fill:rgb(0%,0%,0%);fill-opacity:1;">
  <use xlink:href="#glyph0-1" x="0.039" y="80.54"/>
  <use xlink:href="#glyph0-2" x="4.688432" y="80.54"/>
  <use xlink:href="#glyph0-1" x="8.906884" y="80.54"/>
  <use xlink:href="#glyph0-3" x="13.556317" y="80.54"/>
  <use xlink:href="#glyph0-4" x="18.513294" y="80.54"/>
  <use xlink:href="#glyph0-5" x="23.883817" y="80.54"/>
  <use xlink:href="#glyph0-6" x="28.864505" y="80.54"/>
  <use xlink:href="#glyph0-7" x="34.666707" y="80.54"/>
</g>
<g style="fill:rgb(0%,0%,0%);fill-opacity:1;">
  <use xlink:href="#glyph0-8" x="12.198" y="88.51"/>
  <use xlink:href="#glyph0-9" x="17.370467" y="88.51"/>
  <use xlink:href="#glyph0-7" x="22.508763" y="88.51"/>
</g>
<g style="fill:rgb(0%,0%,0%);fill-opacity:1;">
  <use xlink:href="#glyph0-10" x="84.452" y="147.798"/>
  <use xlink:href="#glyph0-11" x="87.468866" y="147.798"/>
  <use xlink:href="#glyph0-12" x="91.105703" y="147.798"/>
</g>
<g style="fill:rgb(0%,0%,0%);fill-opacity:1;">
  <use xlink:href="#glyph0-13" x="79.293" y="126.009"/>
</g>
<g style="fill:rgb(0%,0%,0%);fill-opacity:1;">
  <use xlink:href="#glyph0-14" x="85.821872" y="126.009"/>
  <use xlink:href="#glyph0-2" x="90.843705" y="126.009"/>
  <use xlink:href="#glyph0-2" x="95.062157" y="126.009"/>
</g>
<g style="fill:rgb(0%,0%,0%);fill-opacity:1;">
  <use xlink:href="#glyph0-15" x="92.972" y="53.418"/>
</g>
<g style="fill:rgb(0%,0%,0%);fill-opacity:1;">
  <use xlink:href="#glyph0-16" x="92.972" y="83.506"/>
</g>
<g style="fill:rgb(0%,0%,0%);fill-opacity:1;">
  <use xlink:href="#glyph0-17" x="101.271" y="37.827"/>
  <use xlink:href="#glyph0-1" x="106.799131" y="37.827"/>
  <use xlink:href="#glyph0-4" x="111.448564" y="37.827"/>
  <use xlink:href="#glyph0-1" x="116.819087" y="37.827"/>
  <use xlink:href="#glyph0-3" x="121.46852" y="37.827"/>
  <use xlink:href="#glyph0-4" x="126.425497" y="37.827"/>
  <use xlink:href="#glyph0-6" x="131.79602" y="37.827"/>
  <use xlink:href="#glyph0-5" x="137.598222" y="37.827"/>
</g>
<g style="fill:rgb(0%,0%,0%);fill-opacity:1;">
  <use xlink:href="#glyph0-18" x="130.851" y="126.009"/>
  <use xlink:href="#glyph0-14" x="135.94815" y="126.009"/>
</g>
<g style="fill:rgb(0%,0%,0%);fill-opacity:1;">
  <use xlink:href="#glyph0-3" x="140.753796" y="126.009"/>
  <use xlink:href="#glyph0-19" x="145.710773" y="126.009"/>
  <use xlink:href="#glyph0-20" x="150.948097" y="126.009"/>
  <use xlink:href="#glyph0-4" x="155.258603" y="126.009"/>
  <use xlink:href="#glyph0-6" x="160.629126" y="126.009"/>
  <use xlink:href="#glyph0-21" x="166.431328" y="126.009"/>
</g>
<g style="fill:rgb(0%,0%,0%);fill-opacity:1;">
  <use xlink:href="#glyph0-10" x="187.113" y="147.798"/>
  <use xlink:href="#glyph0-22" x="190.129866" y="147.798"/>
  <use xlink:href="#glyph0-12" x="193.955693" y="147.798"/>
</g>
<g style="fill:rgb(0%,0%,0%);fill-opacity:1;">
  <use xlink:href="#glyph1-1" x="173.14" y="4.095"/>
</g>
<g style="fill:rgb(0%,0%,0%);fill-opacity:1;">
  <use xlink:href="#glyph1-2" x="193.035" y="40.096"/>
</g>
<g style="fill:rgb(0%,0%,0%);fill-opacity:1;">
  <use xlink:href="#glyph2-1" x="197.396" y="40.968"/>
</g>
<g style="fill:rgb(0%,0%,0%);fill-opacity:1;">
  <use xlink:href="#glyph1-2" x="193.035" y="82.9"/>
</g>
<g style="fill:rgb(0%,0%,0%);fill-opacity:1;">
  <use xlink:href="#glyph2-2" x="197.396" y="83.771"/>
</g>
<g style="fill:rgb(0%,0%,0%);fill-opacity:1;">
  <use xlink:href="#glyph1-2" x="175.735" y="126.896"/>
</g>
<g style="fill:rgb(0%,0%,0%);fill-opacity:1;">
  <use xlink:href="#glyph2-1" x="180.096" y="127.768"/>
</g>
<g style="fill:rgb(0%,0%,0%);fill-opacity:1;">
  <use xlink:href="#glyph0-23" x="185.423" y="126.896"/>
</g>
<g style="fill:rgb(0%,0%,0%);fill-opacity:1;">
  <use xlink:href="#glyph3-1" x="193.244" y="126.896"/>
</g>
<g style="fill:rgb(0%,0%,0%);fill-opacity:1;">
  <use xlink:href="#glyph1-3" x="195.303" y="126.896"/>
</g>
<g style="fill:rgb(0%,0%,0%);fill-opacity:1;">
  <use xlink:href="#glyph2-1" x="199.755" y="127.768"/>
</g>
<g style="fill:rgb(0%,0%,0%);fill-opacity:1;">
  <use xlink:href="#glyph3-1" x="203.024" y="126.896"/>
</g>
<g style="fill:rgb(0%,0%,0%);fill-opacity:1;">
  <use xlink:href="#glyph2-2" x="205.082" y="124.435"/>
</g>
<g style="fill:rgb(0%,0%,0%);fill-opacity:1;">
  <use xlink:href="#glyph1-2" x="175.735" y="135.017"/>
</g>
<g style="fill:rgb(0%,0%,0%);fill-opacity:1;">
  <use xlink:href="#glyph2-2" x="180.096" y="135.889"/>
</g>
<g style="fill:rgb(0%,0%,0%);fill-opacity:1;">
  <use xlink:href="#glyph0-23" x="185.423" y="135.017"/>
</g>
<g style="fill:rgb(0%,0%,0%);fill-opacity:1;">
  <use xlink:href="#glyph3-1" x="193.244" y="135.017"/>
</g>
<g style="fill:rgb(0%,0%,0%);fill-opacity:1;">
  <use xlink:href="#glyph1-3" x="195.303" y="135.017"/>
</g>
<g style="fill:rgb(0%,0%,0%);fill-opacity:1;">
  <use xlink:href="#glyph2-2" x="199.755" y="135.889"/>
</g>
<g style="fill:rgb(0%,0%,0%);fill-opacity:1;">
  <use xlink:href="#glyph3-1" x="203.024" y="135.017"/>
</g>
<g style="fill:rgb(0%,0%,0%);fill-opacity:1;">
  <use xlink:href="#glyph2-2" x="205.082" y="132.556"/>
</g>
<g style="fill:rgb(0%,0%,0%);fill-opacity:1;">
  <use xlink:href="#glyph0-10" x="243.711" y="147.798"/>
  <use xlink:href="#glyph0-24" x="246.727866" y="147.798"/>
  <use xlink:href="#glyph0-12" x="250.175713" y="147.798"/>
</g>
<g style="fill:rgb(0%,0%,0%);fill-opacity:1;">
  <use xlink:href="#glyph1-1" x="219.062" y="4.095"/>
</g>
<g style="fill:rgb(0%,0%,0%);fill-opacity:1;">
  <use xlink:href="#glyph1-2" x="245.476" y="40.096"/>
</g>
<g style="fill:rgb(0%,0%,0%);fill-opacity:1;">
  <use xlink:href="#glyph2-1" x="249.837" y="40.968"/>
  <use xlink:href="#glyph2-2" x="252.608097" y="40.968"/>
</g>
<g style="fill:rgb(0%,0%,0%);fill-opacity:1;">
  <use xlink:href="#glyph1-2" x="222.37" y="126.896"/>
</g>
<g style="fill:rgb(0%,0%,0%);fill-opacity:1;">
  <use xlink:href="#glyph2-1" x="226.731" y="127.768"/>
  <use xlink:href="#glyph2-2" x="229.502097" y="127.768"/>
</g>
<g style="fill:rgb(0%,0%,0%);fill-opacity:1;">
  <use xlink:href="#glyph0-23" x="234.829" y="126.896"/>
</g>
<g style="fill:rgb(0%,0%,0%);fill-opacity:1;">
  <use xlink:href="#glyph3-1" x="242.651" y="126.896"/>
</g>
<g style="fill:rgb(0%,0%,0%);fill-opacity:1;">
  <use xlink:href="#glyph1-3" x="244.709" y="126.896"/>
</g>
<g style="fill:rgb(0%,0%,0%);fill-opacity:1;">
  <use xlink:href="#glyph2-1" x="249.161" y="127.768"/>
</g>
<g style="fill:rgb(0%,0%,0%);fill-opacity:1;">
  <use xlink:href="#glyph0-25" x="254.077" y="126.896"/>
</g>
<g style="fill:rgb(0%,0%,0%);fill-opacity:1;">
  <use xlink:href="#glyph1-3" x="261.486" y="126.896"/>
</g>
<g style="fill:rgb(0%,0%,0%);fill-opacity:1;">
  <use xlink:href="#glyph2-2" x="265.939" y="127.768"/>
</g>
<g style="fill:rgb(0%,0%,0%);fill-opacity:1;">
  <use xlink:href="#glyph3-1" x="269.208" y="126.896"/>
</g>
<g style="fill:rgb(0%,0%,0%);fill-opacity:1;">
  <use xlink:href="#glyph2-2" x="271.266" y="124.435"/>
</g>
</g>
</g>
</svg>
