<?xml version="1.0" encoding="UTF-8"?>
<svg xmlns="http://www.w3.org/2000/svg" xmlns:xlink="http://www.w3.org/1999/xlink" width="243pt" height="241pt" viewBox="0 0 175 174" version="1.1">
<defs>
<g>
<symbol overflow="visible" id="glyph0-0">
<path style="stroke:none;" d=""/>
</symbol>
<symbol overflow="visible" id="glyph0-1">
<path style="stroke:none;" d="M 0.75 -3.296875 C 0.828125 -3.140625 0.921875 -3.015625 1.015625 -2.875 C 1.078125 -2.796875 1.6875 -1.875 1.71875 -1.84375 C 1.734375 -1.8125 1.796875 -1.75 1.796875 -1.703125 C 1.796875 -1.65625 1.71875 -1.609375 1.6875 -1.578125 C 1.375 -1.296875 0.046875 -0.046875 0 0 C 0.1875 0 0.375 0 0.53125 0 L 0.6875 -0.140625 L 1.984375 -1.4375 C 2.265625 -0.953125 2.53125 -0.46875 2.84375 -0.015625 C 3.015625 0 3.203125 0 3.390625 0 C 3.296875 -0.140625 2.359375 -1.53125 2.328125 -1.5625 C 2.3125 -1.609375 2.265625 -1.65625 2.265625 -1.6875 C 2.28125 -1.734375 2.34375 -1.78125 2.375 -1.8125 C 2.484375 -1.921875 2.59375 -2.015625 2.703125 -2.125 C 2.8125 -2.21875 3.921875 -3.25 3.953125 -3.296875 C 3.765625 -3.296875 3.59375 -3.296875 3.421875 -3.28125 C 2.96875 -2.875 2.546875 -2.4375 2.09375 -2.03125 C 1.828125 -2.453125 1.578125 -2.890625 1.28125 -3.28125 C 1.109375 -3.296875 0.921875 -3.296875 0.75 -3.296875 Z M 0.75 -3.296875 "/>
</symbol>
<symbol overflow="visible" id="glyph0-2">
<path style="stroke:none;" d="M 0.8125 -3.296875 C 0.828125 -3.1875 0.84375 -3.09375 0.875 -3 C 1.015625 -2.3125 1.515625 -0.078125 1.515625 0 C 1.5 0.03125 1.328125 0.296875 1.328125 0.296875 C 1.15625 0.578125 0.9375 0.875 0.515625 0.828125 C 0.421875 0.828125 0.328125 0.8125 0.234375 0.796875 C 0.171875 0.78125 0.09375 0.75 0.03125 0.734375 L -0.015625 1.171875 C 0.203125 1.203125 0.578125 1.25 0.796875 1.1875 C 1.234375 1.0625 1.546875 0.59375 1.75 0.265625 L 2.09375 -0.28125 C 2.28125 -0.59375 3.875 -3.125 3.984375 -3.296875 C 3.8125 -3.296875 3.640625 -3.296875 3.5 -3.28125 C 3.328125 -3.03125 3.1875 -2.78125 3.03125 -2.53125 C 2.625 -1.859375 2.1875 -1.234375 1.828125 -0.515625 L 1.828125 -0.515625 C 1.734375 -1.515625 1.484375 -2.359375 1.296875 -3.296875 L 0.8125 -3.296875 Z M 0.8125 -3.296875 "/>
</symbol>
<symbol overflow="visible" id="glyph0-3">
<path style="stroke:none;" d="M 0.78125 -0.578125 L 0.78125 0 L 0.96875 0 L 0.78125 0.78125 L 1.078125 0.78125 C 1.171875 0.515625 1.265625 0.265625 1.359375 0 C 1.359375 -0.1875 1.359375 -0.390625 1.359375 -0.578125 L 0.78125 -0.578125 Z M 0.78125 -0.578125 "/>
</symbol>
<symbol overflow="visible" id="glyph0-4">
<path style="stroke:none;" d="M 4.15625 -0.796875 C 4.046875 -0.75 3.9375 -0.671875 3.828125 -0.625 C 3.546875 -0.5 3.28125 -0.40625 2.984375 -0.375 C 2.71875 -0.34375 2.453125 -0.328125 2.1875 -0.390625 C 1.921875 -0.46875 1.6875 -0.59375 1.515625 -0.78125 C 1.09375 -1.1875 1 -1.8125 1.109375 -2.375 C 1.28125 -3.28125 1.953125 -4.0625 2.8125 -4.375 C 3.265625 -4.53125 3.84375 -4.5 4.265625 -4.359375 C 4.515625 -4.25 4.453125 -4.265625 4.734375 -4.109375 L 4.9375 -4.640625 C 4.71875 -4.71875 4.515625 -4.78125 4.296875 -4.828125 C 3.953125 -4.90625 3.453125 -4.90625 3.109375 -4.859375 C 2.328125 -4.71875 1.734375 -4.296875 1.28125 -3.796875 C 0.65625 -3.078125 0.296875 -2 0.6875 -1.09375 C 0.75 -0.90625 0.859375 -0.734375 0.984375 -0.59375 C 1.375 -0.125 1.9375 0.09375 2.75 0.046875 C 3.234375 0.03125 3.5 -0.0625 3.890625 -0.234375 C 3.9375 -0.25 3.984375 -0.28125 4.03125 -0.296875 C 4.0625 -0.3125 4.078125 -0.328125 4.09375 -0.34375 C 4.125 -0.390625 4.15625 -0.78125 4.15625 -0.796875 Z M 4.15625 -0.796875 "/>
</symbol>
<symbol overflow="visible" id="glyph1-0">
<path style="stroke:none;" d=""/>
</symbol>
<symbol overflow="visible" id="glyph1-1">
<path style="stroke:none;" d="M 2.578125 1.546875 C 2.546875 1.5 2.5 1.46875 2.453125 1.4375 C 1.6875 0.75 1.21875 -0.3125 1.171875 -1.59375 C 1.140625 -2.46875 1.296875 -3.375 1.703125 -4.15625 C 1.90625 -4.53125 2.140625 -4.84375 2.453125 -5.109375 C 2.5 -5.15625 2.546875 -5.1875 2.578125 -5.21875 L 2.328125 -5.21875 C 2.171875 -5.21875 2.1875 -5.21875 2.078125 -5.140625 C 1.71875 -4.859375 1.421875 -4.484375 1.1875 -4.0625 C 0.53125 -2.828125 0.484375 -1.15625 1.09375 0.1875 C 1.3125 0.6875 1.65625 1.109375 2.078125 1.46875 C 2.171875 1.53125 2.171875 1.546875 2.328125 1.546875 L 2.578125 1.546875 Z M 2.578125 1.546875 "/>
</symbol>
<symbol overflow="visible" id="glyph1-2">
<path style="stroke:none;" d="M 0.4375 -5.21875 C 0.46875 -5.1875 0.515625 -5.15625 0.5625 -5.109375 C 1.421875 -4.34375 1.890625 -3.109375 1.828125 -1.59375 C 1.8125 -0.84375 1.625 -0.09375 1.265625 0.5625 C 1.078125 0.890625 0.84375 1.1875 0.5625 1.4375 C 0.515625 1.46875 0.46875 1.5 0.4375 1.546875 L 0.6875 1.546875 C 0.84375 1.546875 0.828125 1.546875 0.921875 1.46875 C 1.296875 1.171875 1.59375 0.796875 1.8125 0.390625 C 2.484375 -0.859375 2.53125 -2.515625 1.921875 -3.859375 C 1.6875 -4.375 1.359375 -4.796875 0.9375 -5.140625 C 0.84375 -5.21875 0.84375 -5.21875 0.6875 -5.21875 L 0.4375 -5.21875 Z M 0.4375 -5.21875 "/>
</symbol>
<symbol overflow="visible" id="glyph1-3">
<path style="stroke:none;" d="M 0.328125 0 L 4.84375 0 C 4.828125 -0.0625 4.796875 -0.109375 4.78125 -0.15625 L 2.984375 -4.609375 L 2.90625 -4.8125 C 2.890625 -4.84375 2.890625 -4.875 2.859375 -4.890625 C 2.828125 -4.921875 2.75 -4.90625 2.71875 -4.90625 L 2.453125 -4.90625 C 2.421875 -4.90625 2.375 -4.90625 2.328125 -4.90625 C 2.296875 -4.90625 2.28125 -4.859375 2.265625 -4.828125 C 1.859375 -3.8125 0.34375 -0.09375 0.328125 0 Z M 2.5625 -4.328125 L 2.6875 -3.96875 L 3.6875 -1.453125 C 3.8125 -1.140625 3.9375 -0.828125 4.0625 -0.5 L 1.03125 -0.5 C 1.46875 -1.640625 1.9375 -2.75 2.390625 -3.890625 C 2.453125 -4.03125 2.5 -4.1875 2.5625 -4.328125 Z M 2.5625 -4.328125 "/>
</symbol>
<symbol overflow="visible" id="glyph1-4">
<path style="stroke:none;" d="M 0.78125 -4.21875 L 0.78125 -3.828125 C 1.125 -3.828125 1.46875 -3.890625 1.78125 -4.03125 L 1.78125 -0.390625 L 0.8125 -0.390625 L 0.8125 0 L 3.25 0 L 3.25 -0.390625 L 2.28125 -0.390625 L 2.28125 -4.6875 C 2.25 -4.6875 2.1875 -4.6875 2.15625 -4.671875 C 2.109375 -4.65625 2.0625 -4.59375 2.015625 -4.5625 C 1.734375 -4.328125 1.21875 -4.21875 0.78125 -4.21875 Z M 0.78125 -4.21875 "/>
</symbol>
<symbol overflow="visible" id="glyph1-5">
<path style="stroke:none;" d="M 0.625 -3.203125 C 0.734375 -3.609375 0.90625 -4.046875 1.34375 -4.203125 C 1.5 -4.265625 1.671875 -4.28125 1.859375 -4.265625 C 2.21875 -4.234375 2.578125 -4.09375 2.796875 -3.78125 C 2.9375 -3.578125 2.984375 -3.328125 2.953125 -3.078125 C 2.875 -2.40625 2.28125 -1.984375 1.796875 -1.609375 C 1.40625 -1.3125 0.59375 -0.59375 0.59375 -0.59375 L 0.453125 -0.484375 C 0.390625 -0.40625 0.390625 -0.421875 0.390625 -0.265625 L 0.390625 0 L 3.484375 0 L 3.484375 -0.4375 L 0.84375 -0.4375 C 1.109375 -0.671875 1.90625 -1.34375 2.140625 -1.515625 C 2.578125 -1.84375 3.0625 -2.15625 3.34375 -2.640625 C 3.640625 -3.203125 3.453125 -3.921875 2.96875 -4.3125 C 2.4375 -4.765625 1.46875 -4.828125 0.875 -4.390625 C 0.65625 -4.234375 0.5 -3.984375 0.390625 -3.734375 C 0.375 -3.671875 0.328125 -3.609375 0.328125 -3.546875 C 0.34375 -3.515625 0.390625 -3.484375 0.40625 -3.4375 C 0.46875 -3.359375 0.546875 -3.265625 0.625 -3.203125 Z M 0.625 -3.203125 "/>
</symbol>
<symbol overflow="visible" id="glyph1-6">
<path style="stroke:none;" d="M 0.6875 -3.546875 L 0.6875 -3.546875 C 0.96875 -4.03125 1.515625 -4.34375 2.078125 -4.28125 C 2.484375 -4.265625 2.875 -4.03125 2.8125 -3.546875 C 2.765625 -3.15625 2.453125 -2.859375 2.078125 -2.75 C 1.875 -2.6875 1.515625 -2.671875 1.296875 -2.65625 L 1.296875 -2.265625 L 1.75 -2.265625 C 1.84375 -2.265625 1.9375 -2.28125 2.046875 -2.265625 C 2.296875 -2.25 2.546875 -2.15625 2.734375 -1.984375 C 3.046875 -1.6875 3.09375 -1.15625 2.90625 -0.78125 C 2.8125 -0.640625 2.703125 -0.515625 2.546875 -0.4375 C 2.1875 -0.21875 1.734375 -0.265625 1.34375 -0.390625 C 1.078125 -0.46875 0.828125 -0.609375 0.625 -0.796875 C 0.53125 -0.875 0.46875 -0.953125 0.390625 -1.03125 C 0.375 -0.953125 0.359375 -0.859375 0.34375 -0.78125 C 0.328125 -0.671875 0.3125 -0.640625 0.390625 -0.5625 L 0.515625 -0.4375 C 0.71875 -0.265625 0.953125 -0.125 1.203125 -0.015625 C 1.75 0.1875 2.390625 0.171875 2.890625 -0.140625 C 3.375 -0.46875 3.734375 -1.09375 3.453125 -1.6875 C 3.265625 -2.09375 2.921875 -2.328125 2.46875 -2.46875 C 2.734375 -2.59375 2.921875 -2.703125 3.09375 -2.953125 C 3.234375 -3.15625 3.390625 -3.46875 3.3125 -3.796875 C 3.25 -4.140625 2.96875 -4.40625 2.65625 -4.546875 C 2.203125 -4.75 1.65625 -4.71875 1.203125 -4.515625 C 0.96875 -4.421875 0.765625 -4.265625 0.59375 -4.078125 C 0.5625 -4.0625 0.453125 -3.921875 0.453125 -3.875 C 0.453125 -3.84375 0.625 -3.609375 0.6875 -3.546875 Z M 0.6875 -3.546875 "/>
</symbol>
<symbol overflow="visible" id="glyph1-7">
<path style="stroke:none;" d="M 0.21875 -1.21875 L 2.34375 -1.21875 L 2.34375 0 L 2.8125 0 L 2.8125 -1.21875 L 3.65625 -1.21875 L 3.65625 -1.640625 L 2.8125 -1.640625 L 2.8125 -4.640625 L 2.421875 -4.640625 C 2.375 -4.640625 2.296875 -4.65625 2.265625 -4.625 C 2.203125 -4.578125 2.109375 -4.40625 2.078125 -4.390625 L 1.671875 -3.78125 C 1.515625 -3.546875 0.375 -1.875 0.296875 -1.75 C 0.21875 -1.671875 0.21875 -1.640625 0.21875 -1.5 L 0.21875 -1.21875 Z M 2.359375 -4.1875 L 2.359375 -1.640625 L 0.71875 -1.640625 L 1.765625 -3.1875 C 1.953125 -3.515625 2.1875 -3.828125 2.359375 -4.1875 Z M 2.359375 -4.1875 "/>
</symbol>
<symbol overflow="visible" id="glyph2-0">
<path style="stroke:none;" d=""/>
</symbol>
<symbol overflow="visible" id="glyph2-1">
<path style="stroke:none;" d="M 3.9375 -0.921875 C 3.578125 -0.75 3.34375 -0.578125 2.84375 -0.546875 C 2.328125 -0.5 1.828125 -0.53125 1.484375 -0.875 C 1.15625 -1.21875 1.15625 -1.75 1.21875 -2.203125 C 1.34375 -2.90625 1.625 -3.65625 2.265625 -4.046875 C 2.703125 -4.3125 3.4375 -4.421875 4.03125 -4.171875 C 4.171875 -4.109375 4.296875 -4.03125 4.4375 -3.953125 L 4.703125 -4.65625 C 4.3125 -4.828125 3.9375 -4.90625 3.40625 -4.90625 C 2.625 -4.90625 1.828125 -4.671875 1.265625 -4.109375 C 0.828125 -3.671875 0.5625 -3.078125 0.421875 -2.484375 C 0.28125 -1.84375 0.25 -1.09375 0.65625 -0.5625 C 1.015625 -0.125 1.59375 0.03125 2.125 0.0625 C 2.265625 0.0625 2.421875 0.078125 2.5625 0.0625 C 3.078125 0.03125 3.234375 -0.03125 3.671875 -0.21875 C 3.734375 -0.25 3.8125 -0.265625 3.859375 -0.328125 C 3.890625 -0.375 3.875 -0.453125 3.890625 -0.5 C 3.90625 -0.640625 3.9375 -0.78125 3.9375 -0.921875 Z M 3.9375 -0.921875 "/>
</symbol>
<symbol overflow="visible" id="glyph3-0">
<path style="stroke:none;" d=""/>
</symbol>
<symbol overflow="visible" id="glyph3-1">
<path style="stroke:none;" d="M 0.53125 -2.359375 C 0.59375 -2.25 0.65625 -2.15625 0.734375 -2.0625 C 0.765625 -2 1.203125 -1.34375 1.21875 -1.3125 C 1.25 -1.296875 1.28125 -1.25 1.28125 -1.21875 C 1.28125 -1.1875 1.234375 -1.15625 1.203125 -1.125 C 0.984375 -0.921875 0.03125 -0.03125 0 0 C 0.140625 0 0.265625 0 0.390625 0 L 0.484375 -0.09375 L 1.421875 -1.03125 C 1.609375 -0.6875 1.8125 -0.34375 2.03125 -0.015625 C 2.15625 0 2.296875 0 2.421875 0 C 2.359375 -0.09375 1.6875 -1.09375 1.671875 -1.125 C 1.65625 -1.140625 1.625 -1.1875 1.625 -1.21875 C 1.625 -1.25 1.6875 -1.28125 1.703125 -1.296875 C 1.78125 -1.375 1.859375 -1.4375 1.9375 -1.515625 C 2.015625 -1.578125 2.796875 -2.328125 2.828125 -2.359375 C 2.703125 -2.359375 2.5625 -2.359375 2.4375 -2.34375 C 2.125 -2.0625 1.8125 -1.75 1.5 -1.453125 C 1.3125 -1.75 1.125 -2.0625 0.921875 -2.34375 C 0.796875 -2.359375 0.65625 -2.359375 0.53125 -2.359375 Z M 0.53125 -2.359375 "/>
</symbol>
<symbol overflow="visible" id="glyph3-2">
<path style="stroke:none;" d="M 0.578125 -2.359375 C 0.59375 -2.28125 0.609375 -2.21875 0.625 -2.140625 C 0.71875 -1.65625 1.078125 -0.0625 1.078125 0 C 1.078125 0.015625 0.953125 0.21875 0.953125 0.21875 C 0.828125 0.40625 0.671875 0.625 0.375 0.59375 C 0.296875 0.59375 0.234375 0.578125 0.171875 0.5625 C 0.125 0.5625 0.0625 0.53125 0.015625 0.53125 L -0.015625 0.84375 C 0.15625 0.859375 0.421875 0.890625 0.5625 0.84375 C 0.875 0.765625 1.109375 0.421875 1.25 0.1875 L 1.5 -0.203125 C 1.640625 -0.421875 2.78125 -2.234375 2.84375 -2.359375 C 2.71875 -2.359375 2.609375 -2.359375 2.5 -2.34375 C 2.375 -2.171875 2.28125 -1.984375 2.15625 -1.8125 C 1.875 -1.328125 1.5625 -0.875 1.3125 -0.359375 L 1.3125 -0.359375 C 1.234375 -1.078125 1.0625 -1.6875 0.9375 -2.359375 L 0.578125 -2.359375 Z M 0.578125 -2.359375 "/>
</symbol>
</g>
<clipPath id="clip1">
  <path d="M -217 666 L 395 666 L 395 -126 L -217 -126 L -217 666 Z M -217 666 "/>
</clipPath>
<clipPath id="clip2">
  <path d="M 6.109375 168.882813 L 176.191406 168.882813 L 176.191406 -1.199219 L 6.109375 -1.199219 L 6.109375 168.882813 Z M 6.109375 168.882813 "/>
</clipPath>
<clipPath id="clip3">
  <path d="M -217 666 L 395 666 L 395 -126 L -217 -126 L -217 666 Z M -217 666 "/>
</clipPath>
</defs>
<g id="surface0">
<g clip-path="url(#clip1)" clip-rule="nonzero">
<g clip-path="url(#clip2)" clip-rule="nonzero">
<path style="fill:none;stroke-width:5;stroke-linecap:butt;stroke-linejoin:miter;stroke:rgb(13.730068%,12.159915%,12.54902%);stroke-opacity:1;stroke-miterlimit:4;" d="M 1448.04086 14.341692 L 14.690163 14.341692 L 14.690163 1454.351071 " transform="matrix(0.112635,0,0,-0.112635,6.111,168.881)"/>
<path style=" stroke:none;fill-rule:nonzero;fill:rgb(13.730068%,12.159915%,12.54902%);fill-opacity:1;" d="M 9.382813 6.1875 L 7.746094 0.0820313 L 6.109375 6.1875 L 9.382813 6.1875 "/>
<path style=" stroke:none;fill-rule:nonzero;fill:rgb(13.730068%,12.159915%,12.54902%);fill-opacity:1;" d="M 168.097656 168.882813 L 174.199219 167.246094 L 168.097656 165.609375 L 168.097656 168.882813 "/>
<path style="fill:none;stroke-width:5;stroke-linecap:butt;stroke-linejoin:miter;stroke:rgb(13.730068%,12.159915%,12.54902%);stroke-opacity:1;stroke-miterlimit:4;" d="M 343.046427 454.334924 L 1104.702561 454.334924 L 1104.702561 1222.684421 L 343.046427 1222.684421 L 343.046427 454.334924 Z M 343.046427 454.334924 " transform="matrix(0.112635,0,0,-0.112635,6.111,168.881)"/>
<path style=" stroke:none;fill-rule:nonzero;fill:rgb(13.730068%,12.159915%,12.54902%);fill-opacity:1;" d="M 46.4375 31.164063 C 46.4375 32.097656 45.679688 32.855469 44.75 32.855469 C 43.816406 32.855469 43.058594 32.097656 43.058594 31.164063 C 43.058594 30.234375 43.816406 29.476563 44.75 29.476563 C 45.679688 29.476563 46.4375 30.234375 46.4375 31.164063 "/>
<path style=" stroke:none;fill-rule:nonzero;fill:rgb(13.730068%,12.159915%,12.54902%);fill-opacity:1;" d="M 46.4375 117.707031 C 46.4375 118.640625 45.679688 119.394531 44.75 119.394531 C 43.816406 119.394531 43.058594 118.640625 43.058594 117.707031 C 43.058594 116.773438 43.816406 116.015625 44.75 116.015625 C 45.679688 116.015625 46.4375 116.773438 46.4375 117.707031 "/>
<path style=" stroke:none;fill-rule:nonzero;fill:rgb(13.730068%,12.159915%,12.54902%);fill-opacity:1;" d="M 132.230469 31.164063 C 132.230469 32.097656 131.472656 32.855469 130.539063 32.855469 C 129.605469 32.855469 128.851563 32.097656 128.851563 31.164063 C 128.851563 30.234375 129.605469 29.476563 130.539063 29.476563 C 131.472656 29.476563 132.230469 30.234375 132.230469 31.164063 "/>
<path style=" stroke:none;fill-rule:nonzero;fill:rgb(13.730068%,12.159915%,12.54902%);fill-opacity:1;" d="M 132.230469 72.925781 C 132.230469 73.855469 131.472656 74.613281 130.539063 74.613281 C 129.605469 74.613281 128.851563 73.855469 128.851563 72.925781 C 128.851563 71.992188 129.605469 71.234375 130.539063 71.234375 C 131.472656 71.234375 132.230469 71.992188 132.230469 72.925781 "/>
<path style=" stroke:none;fill-rule:nonzero;fill:rgb(13.730068%,12.159915%,12.54902%);fill-opacity:1;" d="M 132.230469 117.707031 C 132.230469 118.640625 131.472656 119.394531 130.539063 119.394531 C 129.605469 119.394531 128.851563 118.640625 128.851563 117.707031 C 128.851563 116.773438 129.605469 116.015625 130.539063 116.015625 C 131.472656 116.015625 132.230469 116.773438 132.230469 117.707031 "/>
<path style="fill:none;stroke-width:5;stroke-linecap:butt;stroke-linejoin:miter;stroke:rgb(13.730068%,12.159915%,12.54902%);stroke-opacity:1;stroke-miterlimit:4;" d="M 1104.702561 932.754302 L 1104.702561 851.913739 L 1286.741221 959.180947 " transform="matrix(0.112635,0,0,-0.112635,6.111,168.881)"/>
<path style=" stroke:none;fill-rule:nonzero;fill:rgb(13.730068%,12.159915%,12.54902%);fill-opacity:1;" d="M 150.894531 62.804688 L 155.339844 58.3125 L 149.242188 59.976563 L 150.894531 62.804688 "/>
<path style=" stroke:none;fill-rule:nonzero;fill:rgb(13.730068%,12.159915%,12.54902%);fill-opacity:1;" d="M 132.15625 64.9375 L 130.519531 58.832031 L 128.882813 64.9375 L 132.15625 64.9375 "/>
<path style=" stroke:none;fill-rule:nonzero;fill:rgb(13.730068%,12.159915%,12.54902%);fill-opacity:1;" d="M 132.15625 98.726563 L 130.519531 92.621094 L 128.882813 98.726563 L 132.15625 98.726563 "/>
<path style="fill:none;stroke-width:5;stroke-linecap:butt;stroke-linejoin:miter;stroke:rgb(13.730068%,12.159915%,12.54902%);stroke-opacity:1;stroke-dasharray:30,20;stroke-miterlimit:4;" d="M 1104.529158 977.943171 L 1318.335281 977.943171 " transform="matrix(0.112635,0,0,-0.112635,6.111,168.881)"/>
<path style=" stroke:none;fill-rule:nonzero;fill:rgb(13.730068%,12.159915%,12.54902%);fill-opacity:1;" d="M 92.019531 117.730469 C 92.019531 118.660156 91.261719 119.417969 90.328125 119.417969 C 89.394531 119.417969 88.640625 118.660156 88.640625 117.730469 C 88.640625 116.796875 89.394531 116.039063 90.328125 116.039063 C 91.261719 116.039063 92.019531 116.796875 92.019531 117.730469 "/>
<path style="fill:none;stroke-width:5;stroke-linecap:butt;stroke-linejoin:miter;stroke:rgb(13.730068%,12.159915%,12.54902%);stroke-opacity:1;stroke-miterlimit:4;" d="M 970.592541 552.619847 L 746.763714 454.334924 L 960.22303 454.334924 " transform="matrix(0.112635,0,0,-0.112635,6.111,168.881)"/>
<path style=" stroke:none;fill-rule:nonzero;fill:rgb(13.730068%,12.159915%,12.54902%);fill-opacity:1;" d="M 113.257813 119.34375 L 119.359375 117.710938 L 113.257813 116.074219 L 113.257813 119.34375 "/>
<path style=" stroke:none;fill-rule:nonzero;fill:rgb(13.730068%,12.159915%,12.54902%);fill-opacity:1;" d="M 63.320313 119.34375 L 69.425781 117.707031 L 63.320313 116.070313 L 63.320313 119.34375 "/>
<path style=" stroke:none;fill-rule:nonzero;fill:rgb(13.730068%,12.159915%,12.54902%);fill-opacity:1;" d="M 68.300781 29.488281 L 62.195313 31.125 L 68.300781 32.761719 L 68.300781 29.488281 "/>
<path style=" stroke:none;fill-rule:nonzero;fill:rgb(13.730068%,12.159915%,12.54902%);fill-opacity:1;" d="M 43.113281 94.667969 L 44.75 100.773438 L 46.382813 94.667969 L 43.113281 94.667969 "/>
<path style=" stroke:none;fill-rule:nonzero;fill:rgb(13.730068%,12.159915%,12.54902%);fill-opacity:1;" d="M 115.066406 108.566406 L 119.992188 104.601563 L 113.746094 105.574219 L 115.066406 108.566406 "/>
<path style="fill:none;stroke-width:3.8;stroke-linecap:butt;stroke-linejoin:miter;stroke:rgb(13.730068%,12.159915%,12.54902%);stroke-opacity:1;stroke-miterlimit:4;" d="M 250.206364 1200.766259 L 250.206364 479.582427 " transform="matrix(0.112635,0,0,-0.112635,6.111,168.881)"/>
<path style=" stroke:none;fill-rule:nonzero;fill:rgb(13.730068%,12.159915%,12.54902%);fill-opacity:1;" d="M 33.371094 114.226563 L 34.304688 117.707031 L 35.234375 114.226563 L 33.371094 114.226563 "/>
<path style=" stroke:none;fill-rule:nonzero;fill:rgb(13.730068%,12.159915%,12.54902%);fill-opacity:1;" d="M 35.214844 34.269531 L 34.28125 30.789063 L 33.347656 34.269531 L 35.214844 34.269531 "/>
<path style="fill:none;stroke-width:3.8;stroke-linecap:butt;stroke-linejoin:miter;stroke:rgb(13.730068%,12.159915%,12.54902%);stroke-opacity:1;stroke-miterlimit:4;" d="M 299.383506 454.334924 L 201.029221 454.334924 " transform="matrix(0.112635,0,0,-0.112635,6.111,168.881)"/>
<path style="fill:none;stroke-width:3.8;stroke-linecap:butt;stroke-linejoin:miter;stroke:rgb(13.730068%,12.159915%,12.54902%);stroke-opacity:1;stroke-miterlimit:4;" d="M 299.383506 1226.013762 L 201.029221 1226.013762 " transform="matrix(0.112635,0,0,-0.112635,6.111,168.881)"/>
<path style="fill:none;stroke-width:3.8;stroke-linecap:butt;stroke-linejoin:miter;stroke:rgb(13.730068%,12.159915%,12.54902%);stroke-opacity:1;stroke-miterlimit:4;" d="M 368.502014 293.624856 L 1079.420377 292.723159 " transform="matrix(0.112635,0,0,-0.112635,6.111,168.881)"/>
<path style=" stroke:none;fill-rule:nonzero;fill:rgb(13.730068%,12.159915%,12.54902%);fill-opacity:1;" d="M 127.054688 136.832031 L 130.535156 135.898438 L 127.054688 134.964844 L 127.054688 136.832031 "/>
<path style=" stroke:none;fill-rule:nonzero;fill:rgb(13.730068%,12.159915%,12.54902%);fill-opacity:1;" d="M 48.253906 134.886719 L 44.773438 135.820313 L 48.253906 136.75 L 48.253906 134.886719 "/>
<path style="fill:none;stroke-width:3.8;stroke-linecap:butt;stroke-linejoin:miter;stroke:rgb(13.730068%,12.159915%,12.54902%);stroke-opacity:1;stroke-miterlimit:4;" d="M 1104.66788 343.911778 L 1104.66788 245.592174 " transform="matrix(0.112635,0,0,-0.112635,6.111,168.881)"/>
<path style="fill:none;stroke-width:3.8;stroke-linecap:butt;stroke-linejoin:miter;stroke:rgb(13.730068%,12.159915%,12.54902%);stroke-opacity:1;stroke-miterlimit:4;" d="M 343.046427 344.223904 L 343.046427 245.9043 " transform="matrix(0.112635,0,0,-0.112635,6.111,168.881)"/>
<path style="fill-rule:nonzero;fill:rgb(100%,100%,100%);fill-opacity:1;stroke-width:5;stroke-linecap:butt;stroke-linejoin:miter;stroke:rgb(13.730068%,12.159915%,12.54902%);stroke-opacity:1;stroke-dasharray:30,20;stroke-miterlimit:4;" d="M 1009.053366 570.688459 L 1009.053366 454.334924 " transform="matrix(0.112635,0,0,-0.112635,6.111,168.881)"/>
</g>
</g>
<g clip-path="url(#clip3)" clip-rule="nonzero">
<g style="fill:rgb(0%,0%,0%);fill-opacity:1;">
  <use xlink:href="#glyph0-1" x="168.767" y="173.308"/>
</g>
<g style="fill:rgb(0%,0%,0%);fill-opacity:1;">
  <use xlink:href="#glyph0-2" x="1.058" y="4.686"/>
</g>
<g style="fill:rgb(0%,0%,0%);fill-opacity:1;">
  <use xlink:href="#glyph1-1" x="35.812" y="125.922"/>
</g>
<g style="fill:rgb(0%,0%,0%);fill-opacity:1;">
  <use xlink:href="#glyph0-1" x="38.829" y="125.922"/>
</g>
<g style="fill:rgb(0%,0%,0%);fill-opacity:1;">
  <use xlink:href="#glyph0-3" x="42.900304" y="125.922"/>
</g>
<g style="fill:rgb(0%,0%,0%);fill-opacity:1;">
  <use xlink:href="#glyph0-2" x="46.289571" y="125.922"/>
</g>
<g style="fill:rgb(0%,0%,0%);fill-opacity:1;">
  <use xlink:href="#glyph1-2" x="50.495" y="125.922"/>
</g>
<path style=" stroke:none;fill-rule:nonzero;fill:rgb(100%,100%,100%);fill-opacity:1;" d="M 81.566406 139.554688 L 93.648438 139.554688 L 93.648438 131.875 L 81.566406 131.875 L 81.566406 139.554688 Z M 81.566406 139.554688 "/>
<g style="fill:rgb(0%,0%,0%);fill-opacity:1;">
  <use xlink:href="#glyph1-3" x="82.984" y="138.137"/>
</g>
<g style="fill:rgb(0%,0%,0%);fill-opacity:1;">
  <use xlink:href="#glyph0-1" x="88.157" y="138.137"/>
</g>
<path style=" stroke:none;fill-rule:nonzero;fill:rgb(100%,100%,100%);fill-opacity:1;" d="M 28.070313 78.765625 L 40.277344 78.765625 L 40.277344 69.925781 L 28.070313 69.925781 L 28.070313 78.765625 Z M 28.070313 78.765625 "/>
<g style="fill:rgb(0%,0%,0%);fill-opacity:1;">
  <use xlink:href="#glyph1-3" x="29.487" y="76.186"/>
</g>
<g style="fill:rgb(0%,0%,0%);fill-opacity:1;">
  <use xlink:href="#glyph0-2" x="34.659" y="76.186"/>
</g>
<g style="fill:rgb(0%,0%,0%);fill-opacity:1;">
  <use xlink:href="#glyph2-1" x="102.402" y="109.353"/>
</g>
<g style="fill:rgb(0%,0%,0%);fill-opacity:1;">
  <use xlink:href="#glyph0-4" x="100.775" y="124.117"/>
</g>
<g style="fill:rgb(0%,0%,0%);fill-opacity:1;">
  <use xlink:href="#glyph3-1" x="105.614" y="124.989"/>
</g>
<g style="fill:rgb(0%,0%,0%);fill-opacity:1;">
  <use xlink:href="#glyph2-1" x="156.347" y="61.034"/>
</g>
<g style="fill:rgb(0%,0%,0%);fill-opacity:1;">
  <use xlink:href="#glyph0-4" x="120.795" y="60.467"/>
</g>
<g style="fill:rgb(0%,0%,0%);fill-opacity:1;">
  <use xlink:href="#glyph3-2" x="125.635" y="61.339"/>
</g>
<g style="fill:rgb(0%,0%,0%);fill-opacity:1;">
  <use xlink:href="#glyph1-4" x="67.951" y="111.904"/>
</g>
<g style="fill:rgb(0%,0%,0%);fill-opacity:1;">
  <use xlink:href="#glyph1-5" x="121.003" y="91.515"/>
</g>
<g style="fill:rgb(0%,0%,0%);fill-opacity:1;">
  <use xlink:href="#glyph1-6" x="88.077" y="41.363"/>
</g>
<g style="fill:rgb(0%,0%,0%);fill-opacity:1;">
  <use xlink:href="#glyph1-7" x="50.048" y="67.704"/>
</g>
</g>
</g>
</svg>
