<?xml version="1.0" encoding="UTF-8"?>
<svg xmlns="http://www.w3.org/2000/svg" xmlns:xlink="http://www.w3.org/1999/xlink" width="234pt" height="177pt" viewBox="0 0 169 128" version="1.1">
<defs>
<g>
<symbol overflow="visible" id="glyph0-0">
<path style="stroke:none;" d=""/>
</symbol>
<symbol overflow="visible" id="glyph0-1">
<path style="stroke:none;" d="M 3.328125 -1.640625 L 2.15625 -1.640625 L 2.15625 -1.34375 L 2.953125 -1.34375 L 2.953125 -0.46875 C 2.953125 -0.390625 2.953125 -0.375 2.859375 -0.359375 C 2.609375 -0.28125 2.265625 -0.234375 1.984375 -0.265625 C 1.65625 -0.3125 1.375 -0.484375 1.1875 -0.703125 C 0.6875 -1.28125 0.6875 -2.203125 1.203125 -2.765625 C 1.453125 -3.03125 1.796875 -3.234375 2.28125 -3.203125 C 2.5 -3.1875 2.71875 -3.140625 2.921875 -3.046875 C 3.015625 -3 3.109375 -2.921875 3.203125 -2.859375 C 3.234375 -3 3.265625 -3.125 3.28125 -3.25 C 2.90625 -3.421875 2.65625 -3.5 2.125 -3.5 C 1.65625 -3.5 1.25 -3.28125 0.984375 -3.03125 C 0.890625 -2.953125 0.796875 -2.84375 0.734375 -2.71875 C 0.328125 -2.140625 0.328125 -1.328125 0.71875 -0.734375 C 0.921875 -0.453125 1.171875 -0.21875 1.515625 -0.09375 C 1.953125 0.09375 2.453125 0.0625 2.90625 -0.0625 C 2.953125 -0.0625 3.296875 -0.171875 3.3125 -0.21875 C 3.328125 -0.234375 3.328125 -0.25 3.328125 -0.265625 L 3.328125 -1.640625 Z M 3.328125 -1.640625 "/>
</symbol>
<symbol overflow="visible" id="glyph0-2">
<path style="stroke:none;" d="M 0.53125 -3.453125 L 0.53125 0 L 0.890625 0 L 0.890625 -1.59375 L 1.640625 -1.59375 C 1.734375 -1.59375 1.828125 -1.59375 1.90625 -1.578125 C 2 -1.453125 2.078125 -1.328125 2.171875 -1.203125 C 2.453125 -0.8125 2.71875 -0.40625 3.015625 -0.015625 C 3.140625 0 3.265625 0 3.40625 0 L 3.203125 -0.28125 L 2.234375 -1.625 C 2.328125 -1.640625 2.421875 -1.671875 2.515625 -1.703125 C 2.875 -1.828125 3.265625 -2.125 3.25 -2.546875 C 3.234375 -2.71875 3.1875 -2.828125 3.09375 -2.9375 C 2.875 -3.21875 2.5 -3.40625 2.0625 -3.453125 C 1.875 -3.46875 1.703125 -3.453125 1.53125 -3.453125 L 0.53125 -3.453125 Z M 0.890625 -1.875 L 0.890625 -3.171875 L 1.640625 -3.171875 C 1.890625 -3.171875 2.140625 -3.171875 2.390625 -3.09375 C 2.625 -3.015625 2.859375 -2.84375 2.890625 -2.5625 C 2.90625 -2.40625 2.84375 -2.25 2.71875 -2.140625 C 2.640625 -2.046875 2.53125 -2 2.421875 -1.953125 C 2.171875 -1.875 1.921875 -1.875 1.671875 -1.875 L 0.890625 -1.875 Z M 0.890625 -1.875 "/>
</symbol>
<symbol overflow="visible" id="glyph0-3">
<path style="stroke:none;" d="M 0.71875 -2.890625 C 0.1875 -2.234375 0.171875 -1.25 0.6875 -0.59375 C 0.90625 -0.3125 1.21875 -0.09375 1.59375 0.015625 C 2.65625 0.296875 3.53125 -0.390625 3.75 -1.1875 C 3.953125 -1.84375 3.765625 -2.609375 3.25 -3.078125 C 2.984375 -3.3125 2.609375 -3.5 2.1875 -3.53125 C 1.515625 -3.578125 1.015625 -3.25 0.71875 -2.890625 Z M 2.5 -3.1875 C 2.84375 -3.078125 3.109375 -2.84375 3.28125 -2.53125 C 3.390625 -2.34375 3.4375 -2.125 3.453125 -1.90625 C 3.5 -1.328125 3.25 -0.671875 2.71875 -0.375 C 2.453125 -0.234375 2.125 -0.171875 1.78125 -0.25 C 1.546875 -0.296875 1.328125 -0.421875 1.171875 -0.5625 C 0.875 -0.859375 0.71875 -1.265625 0.6875 -1.671875 C 0.640625 -2.390625 1.015625 -2.9375 1.53125 -3.140625 C 1.828125 -3.265625 2.15625 -3.296875 2.5 -3.1875 Z M 2.5 -3.1875 "/>
</symbol>
<symbol overflow="visible" id="glyph0-4">
<path style="stroke:none;" d="M 0.515625 -3.453125 L 0.515625 -1.28125 C 0.515625 -1.171875 0.515625 -1.078125 0.53125 -0.984375 C 0.578125 -0.6875 0.734375 -0.453125 0.90625 -0.28125 C 1.3125 0.09375 1.921875 0.1875 2.421875 -0.046875 C 2.6875 -0.171875 2.921875 -0.40625 3.046875 -0.65625 C 3.125 -0.875 3.140625 -1 3.140625 -1.296875 L 3.140625 -3.453125 L 2.78125 -3.453125 L 2.78125 -1.265625 C 2.78125 -1.078125 2.78125 -0.875 2.6875 -0.703125 C 2.625 -0.578125 2.546875 -0.46875 2.4375 -0.390625 C 2.015625 -0.078125 1.265625 -0.203125 1.03125 -0.625 C 0.90625 -0.828125 0.90625 -1.046875 0.90625 -1.265625 L 0.90625 -3.453125 L 0.515625 -3.453125 Z M 0.515625 -3.453125 "/>
</symbol>
<symbol overflow="visible" id="glyph0-5">
<path style="stroke:none;" d="M 0.53125 -3.453125 L 0.53125 0 L 0.875 0 L 0.875 -3.15625 L 0.890625 -3.15625 L 1.03125 -2.90625 L 2.15625 -0.9375 C 2.328125 -0.625 2.5 -0.3125 2.6875 -0.015625 C 2.84375 0.015625 3.046875 -0.015625 3.203125 0 L 3.203125 -3.453125 L 2.859375 -3.453125 L 2.859375 -0.296875 L 1.5625 -2.578125 C 1.390625 -2.859375 1.25 -3.171875 1.0625 -3.453125 C 0.90625 -3.484375 0.703125 -3.453125 0.53125 -3.453125 Z M 0.53125 -3.453125 "/>
</symbol>
<symbol overflow="visible" id="glyph0-6">
<path style="stroke:none;" d="M 0.53125 -3.453125 L 0.53125 0 L 1.609375 0 C 2.0625 0 2.296875 0.015625 2.65625 -0.15625 C 3.125 -0.375 3.484375 -0.796875 3.609375 -1.34375 C 3.75 -2.03125 3.453125 -2.796875 2.859375 -3.1875 C 2.640625 -3.328125 2.390625 -3.421875 2.140625 -3.453125 C 1.9375 -3.46875 1.734375 -3.453125 1.546875 -3.453125 L 0.53125 -3.453125 Z M 0.890625 -0.296875 L 0.890625 -3.171875 L 1.59375 -3.171875 C 1.734375 -3.171875 1.875 -3.171875 2 -3.15625 C 2.359375 -3.125 2.65625 -2.984375 2.875 -2.765625 C 3.125 -2.5 3.25 -2.140625 3.265625 -1.796875 C 3.296875 -1.359375 3.15625 -0.9375 2.84375 -0.640625 C 2.640625 -0.453125 2.328125 -0.328125 2 -0.296875 C 1.875 -0.296875 1.734375 -0.296875 1.609375 -0.296875 L 0.890625 -0.296875 Z M 0.890625 -0.296875 "/>
</symbol>
<symbol overflow="visible" id="glyph0-7">
<path style="stroke:none;" d="M 0.515625 -3.453125 L 0.515625 0 L 3.09375 0 L 3.09375 -0.3125 L 0.90625 -0.3125 L 0.90625 -1.640625 L 2.859375 -1.640625 L 2.859375 -1.9375 L 0.90625 -1.9375 L 0.90625 -3.15625 L 3.015625 -3.15625 L 3.015625 -3.453125 L 0.515625 -3.453125 Z M 0.515625 -3.453125 "/>
</symbol>
<symbol overflow="visible" id="glyph0-8">
<path style="stroke:none;" d="M 0.53125 -3.453125 L 0.53125 0 L 0.90625 0 L 0.90625 -1.453125 L 1.640625 -1.453125 C 1.75 -1.453125 1.875 -1.4375 1.984375 -1.453125 C 2.546875 -1.484375 3.078125 -1.796875 3.15625 -2.296875 C 3.21875 -2.59375 3.09375 -2.828125 2.96875 -3 C 2.765625 -3.234375 2.4375 -3.40625 2.078125 -3.453125 C 1.90625 -3.46875 1.71875 -3.453125 1.546875 -3.453125 L 0.53125 -3.453125 Z M 0.890625 -1.734375 L 0.890625 -3.171875 L 1.640625 -3.171875 C 2.078125 -3.171875 2.484375 -3.125 2.703125 -2.828125 C 2.859375 -2.609375 2.859375 -2.28125 2.703125 -2.0625 C 2.640625 -1.984375 2.5625 -1.921875 2.484375 -1.875 C 2.234375 -1.734375 1.9375 -1.734375 1.65625 -1.734375 L 0.890625 -1.734375 Z M 0.890625 -1.734375 "/>
</symbol>
<symbol overflow="visible" id="glyph0-9">
<path style="stroke:none;" d="M 0.515625 -3.453125 L 0.515625 0 L 2.78125 0 L 2.78125 -0.296875 L 0.90625 -0.296875 L 0.90625 -3.453125 L 0.515625 -3.453125 Z M 0.515625 -3.453125 "/>
</symbol>
<symbol overflow="visible" id="glyph0-10">
<path style="stroke:none;" d="M 0.15625 0 L 0.40625 0 C 0.4375 0 0.484375 0.015625 0.515625 -0.015625 C 0.53125 -0.015625 0.53125 -0.046875 0.546875 -0.0625 C 0.625 -0.25 0.875 -0.859375 0.90625 -0.921875 C 0.90625 -0.96875 0.921875 -1 0.984375 -1 L 2.171875 -1 C 2.3125 -1 2.453125 -1 2.578125 -1 C 2.640625 -0.984375 2.65625 -0.921875 2.671875 -0.875 C 2.71875 -0.734375 2.984375 -0.078125 3.015625 -0.046875 C 3.03125 0.015625 3.078125 0 3.15625 0 L 3.421875 0 C 3.296875 -0.328125 3.171875 -0.640625 3.046875 -0.953125 L 2.015625 -3.453125 C 2 -3.46875 2 -3.5 1.96875 -3.515625 C 1.9375 -3.515625 1.90625 -3.515625 1.875 -3.515625 L 1.6875 -3.515625 C 1.671875 -3.515625 1.625 -3.515625 1.59375 -3.5 C 1.578125 -3.484375 1.5625 -3.453125 1.5625 -3.4375 L 0.546875 -0.953125 L 0.296875 -0.34375 C 0.25 -0.234375 0.1875 -0.125 0.15625 0 Z M 1.78125 -3.09375 C 2 -2.484375 2.265625 -1.890625 2.5 -1.296875 L 1.046875 -1.296875 C 1.28125 -1.890625 1.546875 -2.484375 1.765625 -3.09375 L 1.78125 -3.09375 Z M 1.78125 -3.09375 "/>
</symbol>
<symbol overflow="visible" id="glyph0-11">
<path style="stroke:none;" d="M 0.203125 -3.4375 L 0.203125 -3.15625 L 1.734375 -3.15625 L 1.734375 0 L 2.109375 0 L 2.109375 -3.15625 L 3.640625 -3.15625 L 3.640625 -3.4375 L 0.203125 -3.4375 Z M 0.203125 -3.4375 "/>
</symbol>
<symbol overflow="visible" id="glyph1-0">
<path style="stroke:none;" d=""/>
</symbol>
<symbol overflow="visible" id="glyph1-1">
<path style="stroke:none;" d="M 0.640625 0 L 3.1875 0 C 3.484375 -0.015625 3.828125 0.03125 4.09375 -0.015625 C 4.171875 -0.203125 4.1875 -0.453125 4.234375 -0.671875 C 3.375 -0.65625 2.484375 -0.65625 1.625 -0.640625 C 1.703125 -1.03125 1.796875 -1.40625 1.875 -1.796875 L 1.9375 -2.09375 C 1.9375 -2.125 1.9375 -2.1875 1.96875 -2.203125 C 2 -2.234375 2.078125 -2.21875 2.125 -2.21875 L 4.265625 -2.21875 L 4.390625 -2.78125 L 2.078125 -2.78125 L 2.375 -4.203125 L 4.890625 -4.1875 L 5.03125 -4.8125 L 2.546875 -4.8125 C 2.265625 -4.796875 1.921875 -4.84375 1.671875 -4.796875 L 1.640625 -4.703125 L 0.640625 0 Z M 0.640625 0 "/>
</symbol>
</g>
<clipPath id="clip1">
  <path d="M -220 666 L 392 666 L 392 -126 L -220 -126 L -220 666 Z M -220 666 "/>
</clipPath>
<clipPath id="clip2">
  <path d="M 0.585938 128.28125 L 170.664063 128.28125 L 170.664063 -1.199219 L 0.585938 -1.199219 L 0.585938 128.28125 Z M 0.585938 128.28125 "/>
</clipPath>
<clipPath id="clip3">
  <path d="M -220 666 L 392 666 L 392 -126 L -220 -126 L -220 666 Z M -220 666 "/>
</clipPath>
</defs>
<g id="surface0">
<g clip-path="url(#clip1)" clip-rule="nonzero">
<g clip-path="url(#clip2)" clip-rule="nonzero">
<path style="fill:none;stroke-width:5;stroke-linecap:butt;stroke-linejoin:miter;stroke:rgb(0%,0%,0%);stroke-opacity:1;stroke-miterlimit:4;" d="M 25.853655 282.834369 C 344.25403 375.072224 628.336654 493.831577 628.336654 598.137603 L 628.336654 598.386798 C 628.336654 702.692824 344.25403 821.452177 25.853655 913.654432 " transform="matrix(0.109728,0,0,-0.109728,0.585,128.281)"/>
<path style=" stroke:none;fill-rule:nonzero;fill:rgb(0%,0%,0%);fill-opacity:1;" d="M 28.933594 37.917969 L 35.058594 38.542969 L 30.066406 34.941406 L 28.933594 37.917969 "/>
<path style=" stroke:none;fill-rule:nonzero;fill:rgb(0%,0%,0%);fill-opacity:1;" d="M 59.265625 24.402344 L 64.570313 27.53125 L 61.542969 22.171875 L 59.265625 24.402344 "/>
<path style=" stroke:none;fill-rule:nonzero;fill:rgb(0%,0%,0%);fill-opacity:1;" d="M 97.167969 36.40625 L 100.492188 41.589844 L 100.207031 35.4375 L 97.167969 36.40625 "/>
<path style=" stroke:none;fill-rule:nonzero;fill:rgb(0%,0%,0%);fill-opacity:1;" d="M 28.933594 87.332031 L 35.058594 86.707031 L 30.066406 90.308594 L 28.933594 87.332031 "/>
<path style=" stroke:none;fill-rule:nonzero;fill:rgb(0%,0%,0%);fill-opacity:1;" d="M 59.613281 101.089844 L 65.058594 98.210938 L 61.78125 103.425781 L 59.613281 101.089844 "/>
<path style=" stroke:none;fill-rule:nonzero;fill:rgb(0%,0%,0%);fill-opacity:1;" d="M 97.230469 90.484375 L 100.554688 85.300781 L 100.269531 91.453125 L 97.230469 90.484375 "/>
<path style="fill:none;stroke-width:5;stroke-linecap:butt;stroke-linejoin:miter;stroke:rgb(0%,0%,0%);stroke-opacity:1;stroke-miterlimit:4;" d="M 720.823703 10.001132 C 853.288797 202.308693 940.898739 402.875298 940.898739 589.059775 L 940.898739 589.84296 C 940.898739 753.777857 872.975224 928.819745 766.390841 1099.554114 " transform="matrix(0.109728,0,0,-0.109728,0.585,128.281)"/>
<path style="fill:none;stroke-width:5;stroke-linecap:butt;stroke-linejoin:miter;stroke:rgb(0%,0%,0%);stroke-opacity:1;stroke-miterlimit:4;" d="M 235.569286 34.671465 C 508.509321 178.385946 744.141262 355.812988 744.141262 590.590546 L 744.141262 591.053337 C 744.141262 766.237622 581.309944 989.267401 238.310434 1161.852935 " transform="matrix(0.109728,0,0,-0.109728,0.585,128.281)"/>
<path style="fill:none;stroke-width:7.5;stroke-linecap:butt;stroke-linejoin:miter;stroke:rgb(0%,0%,0%);stroke-opacity:1;stroke-dasharray:30,20;stroke-miterlimit:4;" d="M 1351.679365 598.244401 L 1528.323223 598.244401 " transform="matrix(0.109728,0,0,-0.109728,0.585,128.281)"/>
<path style="fill:none;stroke-width:7.5;stroke-linecap:butt;stroke-linejoin:miter;stroke:rgb(0%,0%,0%);stroke-opacity:1;stroke-miterlimit:4;" d="M 536.668388 598.244401 L 1351.679365 598.244401 " transform="matrix(0.109728,0,0,-0.109728,0.585,128.281)"/>
<path style="fill:none;stroke-width:5;stroke-linecap:butt;stroke-linejoin:miter;stroke:rgb(0%,0%,0%);stroke-opacity:1;stroke-miterlimit:4;" d="M 0.00854384 598.244401 L 536.668388 598.244401 " transform="matrix(0.109728,0,0,-0.109728,0.585,128.281)"/>
<path style=" stroke:none;fill-rule:nonzero;fill:rgb(0%,0%,0%);fill-opacity:1;" d="M 14.398438 64.25 L 20.34375 62.65625 L 14.398438 61.0625 L 14.398438 64.25 "/>
</g>
</g>
<g clip-path="url(#clip3)" clip-rule="nonzero">
<g style="fill:rgb(0%,0%,0%);fill-opacity:1;">
  <use xlink:href="#glyph0-1" x="113.124" y="68.686"/>
  <use xlink:href="#glyph0-2" x="116.81863" y="68.686"/>
  <use xlink:href="#glyph0-3" x="120.376275" y="68.686"/>
  <use xlink:href="#glyph0-4" x="124.520218" y="68.686"/>
  <use xlink:href="#glyph0-5" x="128.19044" y="68.686"/>
  <use xlink:href="#glyph0-6" x="131.94385" y="68.686"/>
  <use xlink:href="#glyph0-7" x="135.892526" y="68.686"/>
  <use xlink:href="#glyph0-6" x="139.213559" y="68.686"/>
</g>
<g style="fill:rgb(0%,0%,0%);fill-opacity:1;">
  <use xlink:href="#glyph0-8" x="119.752" y="74.664"/>
  <use xlink:href="#glyph0-9" x="123.23891" y="74.664"/>
  <use xlink:href="#glyph0-10" x="126.252098" y="74.664"/>
</g>
<g style="fill:rgb(0%,0%,0%);fill-opacity:1;">
  <use xlink:href="#glyph0-11" x="129.375872" y="74.664"/>
  <use xlink:href="#glyph0-7" x="133.211971" y="74.664"/>
</g>
<g style="fill:rgb(0%,0%,0%);fill-opacity:1;">
  <use xlink:href="#glyph1-1" x="27.443" y="97.975"/>
</g>
</g>
</g>
</svg>
