<?xml version="1.0" encoding="UTF-8"?>
<svg xmlns="http://www.w3.org/2000/svg" xmlns:xlink="http://www.w3.org/1999/xlink" width="133pt" height="181pt" viewBox="0 0 96 131" version="1.1">
<defs>
<g>
<symbol overflow="visible" id="glyph0-0">
<path style="stroke:none;" d=""/>
</symbol>
<symbol overflow="visible" id="glyph0-1">
<path style="stroke:none;" d="M 1.015625 -3.296875 L 0.9375 -2.90625 L 3.0625 -2.90625 L 1.046875 -1 C 0.796875 -0.75 0.515625 -0.515625 0.28125 -0.265625 C 0.265625 -0.171875 0.234375 -0.09375 0.21875 0 C 1.171875 0 2.1875 0.015625 3.09375 0 C 3.15625 -0.125 3.171875 -0.265625 3.203125 -0.390625 L 0.953125 -0.390625 L 3.734375 -3.03125 C 3.765625 -3.109375 3.78125 -3.203125 3.796875 -3.296875 L 1.015625 -3.296875 Z M 1.015625 -3.296875 "/>
</symbol>
<symbol overflow="visible" id="glyph0-2">
<path style="stroke:none;" d="M 1.765625 -4.84375 L 0.734375 0 L 1.109375 0 C 1.140625 0 1.21875 0.015625 1.25 -0.015625 C 1.28125 -0.03125 1.28125 -0.09375 1.28125 -0.125 C 1.296875 -0.203125 1.6875 -2.046875 1.6875 -2.046875 C 1.703125 -2.109375 1.703125 -2.21875 1.78125 -2.21875 C 1.890625 -2.234375 2 -2.21875 2.109375 -2.21875 L 3.015625 -2.21875 C 3.046875 -2.21875 3.09375 -2.234375 3.125 -2.203125 C 3.15625 -2.171875 3.1875 -2.109375 3.203125 -2.0625 C 3.4375 -1.609375 4 -0.4375 4.140625 -0.15625 C 4.171875 -0.109375 4.1875 -0.03125 4.234375 -0.015625 C 4.265625 0.015625 4.328125 0 4.375 0 L 4.75 0 L 3.609375 -2.28125 C 3.765625 -2.296875 3.9375 -2.34375 4.078125 -2.40625 C 4.453125 -2.546875 4.828125 -2.75 5.078125 -3.078125 C 5.265625 -3.328125 5.375 -3.671875 5.25 -3.984375 C 5.09375 -4.515625 4.390625 -4.78125 3.828125 -4.828125 C 3.640625 -4.84375 3.4375 -4.84375 3.25 -4.84375 L 1.765625 -4.84375 Z M 1.8125 -2.609375 C 1.828125 -2.75 2.109375 -4.0625 2.171875 -4.28125 C 2.1875 -4.359375 2.171875 -4.421875 2.265625 -4.421875 L 2.953125 -4.421875 C 3.28125 -4.421875 3.59375 -4.4375 3.921875 -4.390625 C 4.34375 -4.34375 4.84375 -4.125 4.796875 -3.59375 C 4.765625 -3.171875 4.390625 -2.890625 4 -2.75 C 3.75 -2.65625 3.484375 -2.640625 3.21875 -2.609375 C 3.046875 -2.609375 2.890625 -2.609375 2.734375 -2.609375 L 1.8125 -2.609375 Z M 1.8125 -2.609375 "/>
</symbol>
<symbol overflow="visible" id="glyph0-3">
<path style="stroke:none;" d="M 1.5 -4.34375 L 2 -4.34375 L 2.109375 -4.84375 C 1.9375 -4.84375 1.765625 -4.84375 1.609375 -4.828125 C 1.5625 -4.671875 1.546875 -4.5 1.5 -4.34375 Z M 1.28125 -3.296875 L 1.1875 -2.875 L 0.578125 0 L 0.953125 0 C 0.984375 0 1.046875 0.015625 1.078125 -0.015625 C 1.09375 -0.046875 1.140625 -0.25 1.140625 -0.265625 C 1.25 -0.828125 1.765625 -3.171875 1.78125 -3.296875 L 1.28125 -3.296875 Z M 1.28125 -3.296875 "/>
</symbol>
<symbol overflow="visible" id="glyph0-4">
<path style="stroke:none;" d="M 1.25 -4.84375 L 2.296875 -3.171875 C 2.421875 -2.96875 2.578125 -2.78125 2.6875 -2.5625 L 2.640625 -2.5 L 2 -1.875 L 0.109375 0 C 0.328125 0 0.546875 0 0.75 0 L 0.828125 -0.0625 L 2.921875 -2.1875 C 3.21875 -1.640625 3.5625 -1.140625 3.875 -0.609375 C 4 -0.40625 4.109375 -0.1875 4.25 -0.015625 C 4.4375 0.03125 4.6875 -0.015625 4.90625 0 C 4.421875 -0.8125 3.890625 -1.578125 3.40625 -2.375 C 3.359375 -2.421875 3.328125 -2.46875 3.296875 -2.546875 L 3.34375 -2.609375 L 4.578125 -3.828125 L 5.609375 -4.84375 C 5.390625 -4.84375 5.171875 -4.84375 4.96875 -4.828125 L 4.90625 -4.78125 L 3.078125 -2.96875 C 2.6875 -3.578125 2.3125 -4.21875 1.890625 -4.828125 C 1.71875 -4.859375 1.453125 -4.828125 1.25 -4.84375 Z M 1.25 -4.84375 "/>
</symbol>
</g>
<clipPath id="clip1">
  <path d="M -257 666 L 355 666 L 355 -126 L -257 -126 L -257 666 Z M -257 666 "/>
</clipPath>
<clipPath id="clip2">
  <path d="M -0.273438 131.367188 L 97.519531 131.367188 L 97.519531 -1.199219 L -0.273438 -1.199219 L -0.273438 131.367188 Z M -0.273438 131.367188 "/>
</clipPath>
<clipPath id="clip3">
  <path d="M -257 666 L 355 666 L 355 -126 L -257 -126 L -257 666 Z M -257 666 "/>
</clipPath>
</defs>
<g id="surface0">
<g clip-path="url(#clip1)" clip-rule="nonzero">
<g clip-path="url(#clip2)" clip-rule="nonzero">
<path style="fill-rule:nonzero;fill:rgb(100%,100%,100%);fill-opacity:1;stroke-width:5;stroke-linecap:butt;stroke-linejoin:miter;stroke:rgb(13.730068%,12.159915%,12.54902%);stroke-opacity:1;stroke-miterlimit:4;" d="M 9.998951 374.998907 L 216.201429 374.998907 L 216.201429 849.595337 L 9.998951 849.595337 L 9.998951 374.998907 Z M 9.998951 374.998907 " transform="matrix(0.108661,0,0,-0.108661,-0.274,131.369)"/>
<path style="fill-rule:nonzero;fill:rgb(100%,100%,100%);fill-opacity:1;stroke-width:5;stroke-linecap:butt;stroke-linejoin:miter;stroke:rgb(13.730068%,12.159915%,12.54902%);stroke-opacity:1;stroke-miterlimit:4;" d="M 671.780929 191.408242 L 880.823365 191.408242 L 880.823365 516.241853 L 671.780929 516.241853 L 671.780929 191.408242 Z M 671.780929 191.408242 " transform="matrix(0.108661,0,0,-0.108661,-0.274,131.369)"/>
<path style="fill-rule:nonzero;fill:rgb(100%,100%,100%);fill-opacity:1;stroke-width:5;stroke-linecap:butt;stroke-linejoin:miter;stroke:rgb(13.730068%,12.159915%,12.54902%);stroke-opacity:1;stroke-miterlimit:4;" d="M 113.10019 374.998907 L 113.10019 24.749474 " transform="matrix(0.108661,0,0,-0.108661,-0.274,131.369)"/>
<path style="fill-rule:nonzero;fill:rgb(100%,100%,100%);fill-opacity:1;stroke-width:5;stroke-linecap:butt;stroke-linejoin:miter;stroke:rgb(13.730068%,12.159915%,12.54902%);stroke-opacity:1;stroke-miterlimit:4;" d="M 113.10019 1185.752829 L 113.10019 849.595337 " transform="matrix(0.108661,0,0,-0.108661,-0.274,131.369)"/>
<path style="fill-rule:nonzero;fill:rgb(100%,100%,100%);fill-opacity:1;stroke-width:5;stroke-linecap:butt;stroke-linejoin:miter;stroke:rgb(13.730068%,12.159915%,12.54902%);stroke-opacity:1;stroke-miterlimit:4;" d="M 776.320121 191.408242 L 776.320121 29.386873 " transform="matrix(0.108661,0,0,-0.108661,-0.274,131.369)"/>
<path style="fill-rule:nonzero;fill:rgb(100%,100%,100%);fill-opacity:1;stroke-width:5;stroke-linecap:butt;stroke-linejoin:miter;stroke:rgb(13.730068%,12.159915%,12.54902%);stroke-opacity:1;stroke-miterlimit:4;" d="M 766.721784 1178.886603 L 766.721784 982.606001 L 799.435218 963.445276 L 753.169076 934.111032 L 799.219525 908.155978 L 748.603575 882.200924 L 799.219525 852.86668 L 748.603575 827.486808 L 799.435218 802.142884 L 748.603575 775.037467 L 780.238544 768.279088 L 780.238544 516.241853 " transform="matrix(0.108661,0,0,-0.108661,-0.274,131.369)"/>
<path style="fill-rule:nonzero;fill:rgb(100%,100%,100%);fill-opacity:1;stroke-width:5;stroke-linecap:butt;stroke-linejoin:miter;stroke:rgb(13.730068%,12.159915%,12.54902%);stroke-opacity:1;stroke-miterlimit:4;" d="M 419.420155 666.615801 L 489.412524 666.615801 " transform="matrix(0.108661,0,0,-0.108661,-0.274,131.369)"/>
<path style="fill-rule:nonzero;fill:rgb(100%,100%,100%);fill-opacity:1;stroke-width:5;stroke-linecap:butt;stroke-linejoin:miter;stroke:rgb(13.730068%,12.159915%,12.54902%);stroke-opacity:1;stroke-miterlimit:4;" d="M 419.420155 638.288125 L 489.412524 638.288125 " transform="matrix(0.108661,0,0,-0.108661,-0.274,131.369)"/>
<path style="fill-rule:nonzero;fill:rgb(100%,100%,100%);fill-opacity:1;stroke-width:5;stroke-linecap:butt;stroke-linejoin:miter;stroke:rgb(13.730068%,12.159915%,12.54902%);stroke-opacity:1;stroke-miterlimit:4;" d="M 419.420155 609.996397 L 489.412524 609.996397 " transform="matrix(0.108661,0,0,-0.108661,-0.274,131.369)"/>
<path style=" stroke:none;fill-rule:nonzero;fill:rgb(13.730068%,12.159915%,12.54902%);fill-opacity:1;" d="M 13.644531 2.523438 C 13.644531 3.421875 12.917969 4.152344 12.015625 4.152344 C 11.117188 4.152344 10.386719 3.421875 10.386719 2.523438 C 10.386719 1.621094 11.117188 0.894531 12.015625 0.894531 C 12.917969 0.894531 13.644531 1.621094 13.644531 2.523438 "/>
<path style="fill:none;stroke-width:6.209;stroke-linecap:butt;stroke-linejoin:miter;stroke:rgb(13.730068%,12.159915%,12.54902%);stroke-opacity:1;stroke-miterlimit:4;" d="M 128.090851 1185.752829 C 128.090851 1177.484599 121.404369 1170.762168 113.10019 1170.762168 C 104.83196 1170.762168 98.109529 1177.484599 98.109529 1185.752829 C 98.109529 1194.057009 104.83196 1200.743491 113.10019 1200.743491 C 121.404369 1200.743491 128.090851 1194.057009 128.090851 1185.752829 Z M 128.090851 1185.752829 " transform="matrix(0.108661,0,0,-0.108661,-0.274,131.369)"/>
<path style=" stroke:none;fill-rule:nonzero;fill:rgb(13.730068%,12.159915%,12.54902%);fill-opacity:1;" d="M 13.644531 128.652344 C 13.644531 129.550781 12.917969 130.28125 12.015625 130.28125 C 11.117188 130.28125 10.386719 129.550781 10.386719 128.652344 C 10.386719 127.753906 11.117188 127.023438 12.015625 127.023438 C 12.917969 127.023438 13.644531 127.753906 13.644531 128.652344 "/>
<path style="fill:none;stroke-width:6.208;stroke-linecap:butt;stroke-linejoin:miter;stroke:rgb(13.730068%,12.159915%,12.54902%);stroke-opacity:1;stroke-miterlimit:4;" d="M 128.090851 25.001116 C 128.090851 16.732885 121.404369 10.010454 113.10019 10.010454 C 104.83196 10.010454 98.109529 16.732885 98.109529 25.001116 C 98.109529 33.269346 104.83196 39.991777 113.10019 39.991777 C 121.404369 39.991777 128.090851 33.269346 128.090851 25.001116 Z M 128.090851 25.001116 " transform="matrix(0.108661,0,0,-0.108661,-0.274,131.369)"/>
<path style=" stroke:none;fill-rule:nonzero;fill:rgb(13.730068%,12.159915%,12.54902%);fill-opacity:1;" d="M 84.667969 3.269531 C 84.667969 4.171875 83.941406 4.898438 83.039063 4.898438 C 82.140625 4.898438 81.410156 4.171875 81.410156 3.269531 C 81.410156 2.371094 82.140625 1.640625 83.039063 1.640625 C 83.941406 1.640625 84.667969 2.371094 84.667969 3.269531 "/>
<path style="fill:none;stroke-width:6.208;stroke-linecap:butt;stroke-linejoin:miter;stroke:rgb(13.730068%,12.159915%,12.54902%);stroke-opacity:1;stroke-miterlimit:4;" d="M 781.712446 1178.886603 C 781.712446 1170.582424 775.025964 1163.895942 766.721784 1163.895942 C 758.453554 1163.895942 751.731123 1170.582424 751.731123 1178.886603 C 751.731123 1187.154834 758.453554 1193.877265 766.721784 1193.877265 C 775.025964 1193.877265 781.712446 1187.154834 781.712446 1178.886603 Z M 781.712446 1178.886603 " transform="matrix(0.108661,0,0,-0.108661,-0.274,131.369)"/>
<path style=" stroke:none;fill-rule:nonzero;fill:rgb(13.730068%,12.159915%,12.54902%);fill-opacity:1;" d="M 85.710938 128.175781 C 85.710938 129.074219 84.984375 129.804688 84.082031 129.804688 C 83.183594 129.804688 82.449219 129.074219 82.449219 128.175781 C 82.449219 127.273438 83.183594 126.546875 84.082031 126.546875 C 84.984375 126.546875 85.710938 127.273438 85.710938 128.175781 "/>
<path style="fill:none;stroke-width:6.208;stroke-linecap:butt;stroke-linejoin:miter;stroke:rgb(13.730068%,12.159915%,12.54902%);stroke-opacity:1;stroke-miterlimit:4;" d="M 791.310783 29.386873 C 791.310783 21.118642 784.624301 14.396212 776.320121 14.396212 C 768.051891 14.396212 761.293511 21.118642 761.293511 29.386873 C 761.293511 37.691052 768.051891 44.377534 776.320121 44.377534 C 784.624301 44.377534 791.310783 37.691052 791.310783 29.386873 Z M 791.310783 29.386873 " transform="matrix(0.108661,0,0,-0.108661,-0.274,131.369)"/>
</g>
</g>
<g clip-path="url(#clip3)" clip-rule="nonzero">
<g style="fill:rgb(0%,0%,0%);fill-opacity:1;">
  <use xlink:href="#glyph0-1" x="10.048" y="66.401"/>
</g>
<g style="fill:rgb(0%,0%,0%);fill-opacity:1;">
  <use xlink:href="#glyph0-2" x="88.167" y="38.83"/>
</g>
<g style="fill:rgb(0%,0%,0%);fill-opacity:1;">
  <use xlink:href="#glyph0-3" x="79.914" y="95.239"/>
</g>
<g style="fill:rgb(0%,0%,0%);fill-opacity:1;">
  <use xlink:href="#glyph0-4" x="82.254407" y="95.239"/>
</g>
</g>
</g>
</svg>
