<?xml version="1.0" encoding="UTF-8" standalone="no"?>
<!-- Created with Inkscape (http://www.inkscape.org/) -->
<svg xmlns:dc="http://purl.org/dc/elements/1.1/" xmlns:cc="http://creativecommons.org/ns#" xmlns:rdf="http://www.w3.org/1999/02/22-rdf-syntax-ns#" xmlns:svg="http://www.w3.org/2000/svg" xmlns="http://www.w3.org/2000/svg" xmlns:xlink="http://www.w3.org/1999/xlink" version="1.1" width="271.7pt" height="166.5pt" viewBox="0 0 196.06059 120.09835" id="svg29290">
  <metadata id="metadata29860">
    <rdf:RDF>
      <cc:Work rdf:about="">
        <dc:format>image/svg+xml</dc:format>
        <dc:type rdf:resource="http://purl.org/dc/dcmitype/StillImage"/>
        <dc:title/>
      </cc:Work>
    </rdf:RDF>
  </metadata>
  <defs id="defs29292">
    <g id="g29294">
      <g id="glyph0-0"/>
      <g id="glyph0-1">
        <path d="M 2.578125,1.546875 C 2.546875,1.5 2.5,1.46875 2.453125,1.4375 1.6875,0.75 1.21875,-0.3125 1.171875,-1.59375 c -0.03125,-0.875 0.125,-1.78125 0.53125,-2.5625 0.203125,-0.375 0.4375,-0.6875 0.75,-0.953125 C 2.5,-5.15625 2.546875,-5.1875 2.578125,-5.21875 l -0.25,0 c -0.15625,0 -0.140625,0 -0.25,0.078125 -0.359375,0.28125 -0.65625,0.65625 -0.890625,1.078125 -0.65625,1.234375 -0.703125,2.90625 -0.09375,4.25 0.21875,0.5 0.5625,0.921875 0.984375,1.28125 0.09375,0.0625 0.09375,0.078125 0.25,0.078125 l 0.25,0 z m 0,0" id="path29298"/>
      </g>
      <g id="glyph0-2">
        <path d="m 0.640625,-2.640625 c 0.125,-0.0625 0.21875,-0.140625 0.34375,-0.203125 C 1.203125,-2.9375 1.4375,-2.984375 1.6875,-3 1.75,-3.015625 1.828125,-3.015625 1.90625,-3.015625 c 0.28125,0.046875 0.515625,0.234375 0.59375,0.5 0.078125,0.203125 0.046875,0.453125 0.046875,0.65625 -0.359375,0 -0.734375,0.03125 -1.09375,0.125 -0.5,0.125 -1.125,0.375 -1.0625,1.015625 0.046875,0.28125 0.203125,0.5625 0.46875,0.703125 C 1.03125,0.0625 1.234375,0.0625 1.4375,0.046875 1.734375,0.015625 2.0625,-0.0625 2.3125,-0.25 c 0.09375,-0.0625 0.171875,-0.140625 0.25,-0.21875 l 0,0.46875 0.484375,0 0,-1.828125 c 0,-0.1875 0.03125,-0.390625 -0.015625,-0.59375 -0.0625,-0.484375 -0.5,-0.84375 -0.953125,-0.9375 -0.28125,-0.046875 -0.71875,0.015625 -0.953125,0.0625 -0.078125,0.03125 -0.46875,0.15625 -0.5,0.21875 -0.03125,0.03125 -0.015625,0.09375 -0.015625,0.125 0.015625,0.109375 0.03125,0.203125 0.03125,0.3125 z m 1.90625,1.015625 0,0.515625 c 0,0.140625 0,0.265625 -0.0625,0.390625 -0.078125,0.140625 -0.21875,0.25 -0.375,0.296875 -0.328125,0.125 -0.78125,0.140625 -1.0625,-0.09375 C 0.96875,-0.5625 0.90625,-0.640625 0.890625,-0.75 0.8125,-1.046875 1.078125,-1.28125 1.3125,-1.390625 1.640625,-1.546875 2.109375,-1.625 2.546875,-1.625 z m 0,0" id="path29301"/>
      </g>
      <g id="glyph0-3">
        <path d="m 0.4375,-5.21875 c 0.03125,0.03125 0.078125,0.0625 0.125,0.109375 0.859375,0.765625 1.328125,2 1.265625,3.515625 -0.015625,0.75 -0.203125,1.5 -0.5625,2.15625 C 1.078125,0.890625 0.84375,1.1875 0.5625,1.4375 0.515625,1.46875 0.46875,1.5 0.4375,1.546875 l 0.25,0 c 0.15625,0 0.140625,0 0.234375,-0.078125 0.375,-0.296875 0.671875,-0.671875 0.890625,-1.078125 0.671875,-1.25 0.71875,-2.90625 0.109375,-4.25 C 1.6875,-4.375 1.359375,-4.796875 0.9375,-5.140625 0.84375,-5.21875 0.84375,-5.21875 0.6875,-5.21875 l -0.25,0 z m 0,0" id="path29304"/>
      </g>
      <g id="glyph0-4">
        <path d="m 0.578125,-4.84375 0,4.84375 0.515625,0 0,-0.46875 0,0 c 0.0625,0.109375 0.171875,0.203125 0.265625,0.28125 0.3125,0.25 0.828125,0.328125 1.28125,0.109375 0.203125,-0.109375 0.375,-0.28125 0.515625,-0.46875 C 3.84375,-1.5 3.421875,-3.09375 2.453125,-3.3125 c -0.125,-0.046875 -0.28125,-0.046875 -0.421875,-0.015625 -0.40625,0.046875 -0.71875,0.25 -0.953125,0.5 l 0,-2.015625 -0.5,0 z M 1.8125,-2.953125 c 0.328125,-0.03125 0.703125,0.109375 0.921875,0.375 0.171875,0.21875 0.234375,0.5 0.234375,0.765625 0.03125,0.375 -0.015625,0.78125 -0.25,1.078125 -0.203125,0.265625 -0.53125,0.375 -0.84375,0.40625 -0.265625,0 -0.5,-0.09375 -0.671875,-0.3125 C 1.171875,-0.6875 1.125,-0.75 1.09375,-0.8125 c 0,-0.046875 0,-0.09375 0,-0.125 l 0,-1.390625 c 0,-0.0625 -0.015625,-0.140625 0.015625,-0.203125 0.03125,-0.078125 0.09375,-0.125 0.15625,-0.1875 0.15625,-0.125 0.34375,-0.21875 0.546875,-0.234375 z m 0,0" id="path29307"/>
      </g>
      <g id="glyph0-5">
        <path d="M 0.328125,0 4.84375,0 C 4.828125,-0.0625 4.796875,-0.109375 4.78125,-0.15625 L 2.984375,-4.609375 2.90625,-4.8125 C 2.890625,-4.84375 2.890625,-4.875 2.859375,-4.890625 2.828125,-4.921875 2.75,-4.90625 2.71875,-4.90625 l -0.265625,0 c -0.03125,0 -0.078125,0 -0.125,0 -0.03125,0 -0.046875,0.046875 -0.0625,0.078125 C 1.859375,-3.8125 0.34375,-0.09375 0.328125,0 z m 2.234375,-4.328125 0.125,0.359375 1,2.515625 c 0.125,0.3125 0.25,0.625 0.375,0.953125 l -3.03125,0 C 1.46875,-1.640625 1.9375,-2.75 2.390625,-3.890625 2.453125,-4.03125 2.5,-4.1875 2.5625,-4.328125 z m 0,0" id="path29310"/>
      </g>
      <g id="glyph1-0"/>
      <g id="glyph1-1">
        <path d="M 0.21875,0 0.578125,0 0.71875,-0.015625 0.796875,-0.109375 C 1.0625,-0.53125 1.3125,-0.96875 1.609375,-1.375 l 0.0625,-0.015625 2.296875,0 C 4.0625,-0.9375 4.125,-0.453125 4.25,-0.015625 4.390625,0.03125 4.625,-0.015625 4.796875,0 4.78125,-0.140625 3.9375,-4.359375 3.890625,-4.609375 3.875,-4.65625 3.84375,-4.890625 3.8125,-4.90625 c -0.046875,0 -0.09375,0 -0.140625,0 l -0.265625,0 c -0.046875,0 -0.109375,-0.015625 -0.140625,0.015625 -0.046875,0.03125 -0.1875,0.28125 -0.1875,0.28125 L 1.0625,-1.375 0.515625,-0.46875 C 0.40625,-0.328125 0.296875,-0.15625 0.21875,0 z m 3.1875,-4.328125 c 0.140625,0.84375 0.3125,1.6875 0.46875,2.515625 l -2.015625,0 c 0.5,-0.84375 1.03125,-1.671875 1.546875,-2.515625 z m 0,0" id="path29314"/>
      </g>
      <g id="glyph1-2">
        <path d="M 1.78125,-4.84375 0.765625,0 1.109375,0 c 0.03125,0 0.109375,0.015625 0.125,-0.015625 0.03125,-0.03125 0.078125,-0.3125 0.078125,-0.3125 l 0.84375,-4 0.015625,0 c 0,0.125 0.15625,0.859375 0.21875,1.09375 0.140625,0.71875 0.5625,2.625 0.609375,2.875 L 3.046875,-0.1875 c 0,0.03125 0,0.0625 0.03125,0.078125 0.03125,0 0.078125,0 0.109375,0 l 0.203125,0 c 0.03125,0 0.09375,0 0.125,-0.015625 0.03125,-0.015625 0.03125,-0.046875 0.0625,-0.078125 L 3.671875,-0.375 c 0.484375,-0.734375 2.46875,-3.8125 2.53125,-3.953125 l 0.015625,0 L 5.296875,0 C 5.453125,0 5.625,0 5.765625,-0.015625 l 0.03125,-0.078125 c 0.328125,-1.59375 0.671875,-3.15625 1,-4.75 -0.21875,0.015625 -0.5,-0.015625 -0.703125,0.015625 C 6.015625,-4.71875 5.9375,-4.59375 5.875,-4.484375 L 3.390625,-0.625 2.71875,-3.6875 C 2.625,-4.0625 2.578125,-4.46875 2.453125,-4.828125 L 2.40625,-4.84375 l -0.625,0 z m 0,0" id="path29317"/>
      </g>
      <g id="glyph1-3">
        <path d="m 0.8125,-3.296875 c 0.140625,0.859375 0.3125,1.6875 0.46875,2.515625 0.0625,0.265625 0.0625,0.578125 0.15625,0.796875 C 1.609375,0.015625 1.796875,0.03125 1.953125,0 L 2,-0.0625 3.984375,-3.296875 c -0.171875,0 -0.34375,0 -0.484375,0.015625 L 2.25,-1.25 1.8125,-0.515625 1.421875,-2.578125 C 1.375,-2.796875 1.359375,-3.0625 1.296875,-3.28125 1.140625,-3.296875 0.96875,-3.296875 0.8125,-3.296875 z m 0,0" id="path29320"/>
      </g>
      <g id="glyph1-4">
        <path d="m 0.84375,-3.296875 -0.078125,0.390625 0.671875,0 C 1.421875,-2.703125 1.359375,-2.5 1.3125,-2.3125 1.25,-2 0.96875,-0.78125 0.96875,-0.484375 c 0,0.109375 0.015625,0.21875 0.0625,0.328125 C 1.109375,0 1.25,0.0625 1.46875,0.0625 1.734375,0.0625 2.015625,0 2.265625,-0.09375 2.328125,-0.109375 2.59375,-0.21875 2.625,-0.25 c 0.015625,-0.03125 0,-0.078125 0,-0.09375 C 2.625,-0.4375 2.609375,-0.53125 2.609375,-0.625 2.46875,-0.546875 2.40625,-0.484375 2.21875,-0.421875 2,-0.359375 1.671875,-0.265625 1.546875,-0.484375 1.4375,-0.640625 1.5,-0.875 1.546875,-1.046875 1.5625,-1.203125 1.921875,-2.84375 1.9375,-2.90625 l 1.140625,0 0.078125,-0.390625 -1.140625,0 0.203125,-0.9375 c -0.15625,0 -0.328125,0 -0.46875,0.015625 -0.109375,0.28125 -0.109375,0.640625 -0.21875,0.921875 l -0.046875,0 -0.640625,0 z m 0,0" id="path29323"/>
      </g>
      <g id="glyph2-0"/>
      <g id="glyph2-1">
        <path d="m 0.546875,-3.015625 0,0.28125 c 0.25,0 0.5,-0.046875 0.734375,-0.140625 l 0,2.59375 -0.703125,0 0,0.28125 1.75,0 0,-0.28125 -0.6875,0 0,-3.0625 c -0.03125,0 -0.078125,-0.015625 -0.09375,0 C 1.5,-3.328125 1.46875,-3.296875 1.4375,-3.265625 c -0.203125,0.171875 -0.5625,0.25 -0.890625,0.25 z m 0,0" id="path29327"/>
      </g>
      <g id="glyph2-2">
        <path d="M 0.4375,-2.28125 C 0.515625,-2.578125 0.65625,-2.890625 0.953125,-3 c 0.125,-0.046875 0.25,-0.0625 0.375,-0.046875 0.25,0.015625 0.515625,0.125 0.671875,0.34375 0.109375,0.140625 0.140625,0.328125 0.109375,0.5 C 2.046875,-1.71875 1.625,-1.421875 1.28125,-1.15625 1,-0.9375 0.421875,-0.421875 0.421875,-0.421875 L 0.328125,-0.34375 C 0.28125,-0.296875 0.28125,-0.296875 0.28125,-0.1875 L 0.28125,0 2.5,0 l 0,-0.3125 -1.90625,0 C 0.796875,-0.484375 1.359375,-0.953125 1.53125,-1.078125 1.84375,-1.3125 2.1875,-1.546875 2.390625,-1.890625 2.609375,-2.28125 2.46875,-2.8125 2.125,-3.078125 c -0.375,-0.328125 -1.078125,-0.375 -1.5,-0.0625 -0.15625,0.109375 -0.265625,0.296875 -0.34375,0.46875 -0.015625,0.046875 -0.046875,0.09375 -0.046875,0.125 0.015625,0.03125 0.046875,0.0625 0.0625,0.078125 0.046875,0.0625 0.09375,0.125 0.140625,0.1875 z m 0,0" id="path29330"/>
      </g>
      <g id="glyph3-0"/>
      <g id="glyph3-1">
        <path d="M 0.796875,-3.296875 1.1875,0 C 1.5,-0.015625 1.875,0.015625 2.15625,-0.015625 l 0.046875,-0.0625 1.734375,-3.21875 C 3.71875,-3.28125 3.4375,-3.3125 3.25,-3.28125 l -0.046875,0.0625 -1.015625,1.875 c -0.125,0.21875 -0.25,0.4375 -0.359375,0.65625 L 1.609375,-2.59375 C 1.5625,-2.828125 1.5625,-3.078125 1.515625,-3.28125 l -0.0625,-0.015625 -0.65625,0 z m 0,0" id="path29334"/>
      </g>
      <g id="glyph4-0"/>
      <g id="glyph4-1">
        <path d="m -0.53125,-3.34375 c 0.453125,0.71875 0.9375,1.421875 1.390625,2.125 0.171875,0.21875 0.296875,0.5 0.46875,0.671875 0.15625,-0.0625 0.34375,-0.125 0.46875,-0.21875 L 1.8125,-0.84375 l 0.578125,-3.75 C 2.234375,-4.515625 2.0625,-4.453125 1.9375,-4.390625 L 1.59375,-2.03125 1.46875,-1.171875 0.3125,-2.9375 c -0.140625,-0.171875 -0.265625,-0.40625 -0.40625,-0.578125 -0.140625,0.03125 -0.296875,0.109375 -0.4375,0.171875 z m 0,0" id="path29338"/>
      </g>
      <g id="glyph4-2">
        <path d="m -0.5,-3.359375 0.0625,0.390625 0.625,-0.265625 c 0.0625,0.1875 0.078125,0.40625 0.109375,0.59375 0.078125,0.3125 0.28125,1.546875 0.40625,1.8125 0.046875,0.109375 0.09375,0.1875 0.1875,0.28125 0.125,0.109375 0.296875,0.125 0.5,0.03125 C 1.625,-0.609375 1.859375,-0.78125 2.046875,-0.984375 2.09375,-1 2.3125,-1.21875 2.328125,-1.265625 c 0,-0.03125 -0.03125,-0.0625 -0.046875,-0.078125 C 2.25,-1.4375 2.203125,-1.5 2.15625,-1.59375 2.046875,-1.46875 2.03125,-1.390625 1.875,-1.25 1.703125,-1.109375 1.421875,-0.90625 1.234375,-1.0625 1.078125,-1.15625 1.03125,-1.40625 1.015625,-1.578125 0.96875,-1.71875 0.65625,-3.375 0.640625,-3.421875 L 1.6875,-3.875 1.625,-4.265625 0.578125,-3.8125 0.390625,-4.75 C 0.25,-4.703125 0.078125,-4.625 -0.03125,-4.578125 -0.015625,-4.265625 0.125,-3.9375 0.125,-3.625 l -0.046875,0.015625 -0.578125,0.25 z m 0,0" id="path29341"/>
      </g>
      <g id="glyph5-0"/>
      <g id="glyph5-1">
        <path d="m -0.671875,-3 0.109375,0.265625 c 0.234375,-0.09375 0.4375,-0.234375 0.609375,-0.40625 l 1.015625,2.375 -0.640625,0.28125 0.109375,0.265625 1.609375,-0.6875 -0.109375,-0.265625 -0.625,0.265625 -1.203125,-2.8125 c -0.03125,0.015625 -0.078125,0.015625 -0.09375,0.03125 -0.03125,0.03125 -0.03125,0.078125 -0.0625,0.125 C -0.0625,-3.328125 -0.359375,-3.125 -0.671875,-3 z m 0,0" id="path29345"/>
      </g>
      <g id="glyph6-0"/>
      <g id="glyph6-1">
        <path d="m 0.296875,-0.125 4.15625,-1.765625 C 4.40625,-1.953125 4.375,-1.96875 4.34375,-2.015625 l -3.390625,-3.40625 -0.15625,-0.15625 C 0.765625,-5.578125 0.75,-5.609375 0.71875,-5.625 0.6875,-5.640625 0.609375,-5.59375 0.578125,-5.578125 L 0.34375,-5.46875 c -0.03125,0 -0.078125,0.03125 -0.125,0.046875 -0.03125,0.015625 -0.03125,0.0625 -0.03125,0.09375 0.046875,1.09375 0.09375,5.09375 0.109375,5.203125 z m 0.375,-4.859375 0.25,0.28125 1.90625,1.921875 c 0.234375,0.25 0.46875,0.484375 0.703125,0.734375 L 0.75,-0.859375 C 0.71875,-2.09375 0.703125,-3.28125 0.6875,-4.515625 c 0,-0.140625 -0.03125,-0.328125 -0.015625,-0.46875 z m 0,0" id="path29349"/>
      </g>
    </g>
    <clipPath id="clip1">
      <path d="m 0,255 197,0 0,-261 -197,0 0,261 z m 0,0" id="path29352"/>
    </clipPath>
    <clipPath id="clip2">
      <path d="m 0,-6 197,0 0,261 L 0,255 0,-6 z m 0,0" id="path29355"/>
    </clipPath>
  </defs>
  <g transform="translate(-0.667969,-134.48844)" id="g30416">
    <g clip-path="url(#clip2)" id="g29476">
      <path d="M 3.75e-5,0.0019375 C 2.425819,-14.67775 7.234412,-26.103531 10.750037,-25.5215 c 3.511719,0.578125 4.394532,12.949219 1.96875,27.625 -2.421875,14.675781 -7.238281,26.101562 -10.75,25.523437 C -1.542931,27.048812 -2.425744,14.677719 3.75e-5,0.0019375 z m 0,0" transform="matrix(1,0,0,-1,158.1484,178.041)" id="path29478" style="fill:none;stroke:#231f20;stroke-width:0.5"/>
      <path d="M 0.00191875,-5e-5 C -3.419956,-0.56255 -4.240269,-12.800831 -1.841831,-27.324269 0.556606,-41.855519 5.27145,-53.171925 8.689419,-52.605519" transform="matrix(1,0,0,-1,147.6973,154.2812)" id="path29480" style="fill:none;stroke:#231f20;stroke-width:0.5;stroke-dasharray:4, 3"/>
      <path d="M -0.0015125,9.8125e-4 C -6.403856,-1.659175 -12.923388,-2.733394 -19.513231,-3.077144" transform="matrix(1,0,0,-1,20.1812,227.3252)" id="path29482" style="fill:none;stroke:#231f20;stroke-width:0.5;stroke-dasharray:4, 3"/>
      <path d="M -0.00143125,-9.5e-4 C -6.51315,-1.161106 -13.095181,-1.727512 -19.692838,-1.56345" transform="matrix(1,0,0,-1,23.5444,252.8428)" id="path29484" style="fill:none;stroke:#231f20;stroke-width:0.5;stroke-dasharray:4, 3"/>
      <path d="M -1.25e-5,9.375e-4 C -4.480481,-1.202187 -8.71095,-2.502969 -11.996106,-3.819375 -20.878919,-7.377969 -29.77345,-10.674844 -38.175794,-15.295937 -51.445325,-22.592812 -62.480481,-32.202187 -74.312512,-41.3975 -92.582044,-55.600625 -114.05861,-69.514687 -137.05861,-76.124062" transform="matrix(1,0,0,-1,160.1172,150.415)" id="path29486" style="fill:none;stroke:#231f20;stroke-width:0.5"/>
      <path d="m 1.875e-5,0.00101875 c 0,0 -15.26562475,-2.73828075 -28.38281275,-6.28515575" transform="matrix(1,0,0,-1,188.5742,143.6143)" id="path29488" style="fill:none;stroke:#231f20;stroke-width:0.5;stroke-dasharray:4, 3"/>
      <path d="M 0.00101875,-0.0010125 C -20.377887,-4.672888 -50.311481,-14.907263 -65.471637,-21.063513 c -5.367188,-2.183593 -10.703125,-4.445312 -16.011719,-6.773437 -20.125004,-8.816406 -40.769534,-16.710938 -62.464844,-21.101563" transform="matrix(1,0,0,-1,169.1357,203.5068)" id="path29490" style="fill:none;stroke:#231f20;stroke-width:0.5"/>
      <path d="m 0.00191875,-0.00193125 c 0,0 9.74218725,1.50781225 22.38671825,3.06640625" transform="matrix(1,0,0,-1,174.3223,201.7676)" id="path29492" style="fill:none;stroke:#231f20;stroke-width:0.5;stroke-dasharray:4, 3"/>
      <path d="M -4.9375e-4,-0.00193125 C 2.472163,0.29885 6.612788,-5.7324 9.253413,-13.466775 c 2.484375,-7.285156 2.75,-13.488281 0.695312,-14.417969" transform="matrix(1,0,0,-1,56.4419,212.1426)" id="path29494" style="fill:none;stroke:#231f20;stroke-width:0.5;stroke-dasharray:4, 3"/>
      <path d="M 0.00143125,9.5625e-4 C -0.119663,-0.0576375 -0.244663,-0.0967 -0.381381,-0.112325 -2.73685,-0.405294 -6.682163,5.62205 -9.193881,13.352519 -11.709506,21.086894 -11.838413,27.5908 -9.479038,27.887675" transform="matrix(1,0,0,-1,66.3931,240.0283)" id="path29496" style="fill:none;stroke:#231f20;stroke-width:0.5"/>
      <path d="M 0.0014375,-9.625e-4 C 2.407687,-0.465806 4.82175,-6.598619 5.392062,-13.696275 5.927219,-20.387681 5.036594,-25.391588 2.868625,-25.864244" transform="matrix(1,0,0,-1,24.3345,226.1631)" id="path29498" style="fill:none;stroke:#231f20;stroke-width:0.5;stroke-dasharray:4, 3"/>
      <path d="M 4.4375e-4,4.375e-5 C -2.24565,-0.0624562 -3.2144,1.812544 -3.99565,3.69145 c -1.28125,3.085938 -1.855469,6.503906 -2.082031,9.820313 -0.480469,7.007812 1,12.339843 3.3125,11.902343" transform="matrix(1,0,0,-1,27.6519,251.8477)" id="path29500" style="fill:none;stroke:#231f20;stroke-width:0.5"/>
      <path d="M -0.00148125,0.00193125 C 0.64305,0.642556 16.166487,10.283181 21.857894,13.040994" transform="matrix(1,0,0,-1,86.2632,213.0449)" id="path29502" style="fill:none;stroke:#231f20;stroke-width:0.5"/>
      <path d="m 107.82813,201.90234 4.67968,-4.04297 -6.07812,1.16407 1.39844,2.8789" id="path29504" style="fill:#231f20"/>
      <path d="M 4.4375e-4,-3.75e-5 3.621537,-10.703162" transform="matrix(1,0,0,-1,19.4019,214.1484)" id="path29506" style="fill:none;stroke:#231f20;stroke-width:0.5"/>
      <path d="M 0.00150625,-9.375e-4 3.6226,-10.704062" transform="matrix(1,0,0,-1,52.0649,199.6475)" id="path29508" style="fill:none;stroke:#231f20;stroke-width:0.5"/>
      <path d="M 0.00149375,-0.001 28.251494,12.370094" transform="matrix(1,0,0,-1,20.5571,217.5615)" id="path29510" style="fill:none;stroke:#231f20;stroke-width:0.5"/>
      <path d="m 48.4375,207.07812 4.839844,-3.85156 -6.117188,0.91797 1.277344,2.93359" id="path29512" style="fill:#231f20"/>
      <path d="m 164.16016,158.74609 c 0,0.30078 -0.10547,0.54297 -0.23829,0.54297 -0.13671,0 -0.24218,-0.24219 -0.24218,-0.54297 0,-0.30078 0.10937,-0.54297 0.24218,-0.54297 0.13282,0 0.23829,0.24219 0.23829,0.54297" id="path29514" style="fill:#231f20"/>
      <path d="m 164.69922,161.70703 c 0,0.30078 -0.10938,0.54297 -0.24219,0.54297 -0.13281,0 -0.24219,-0.24219 -0.24219,-0.54297 0,-0.30078 0.10938,-0.54297 0.24219,-0.54297 0.13281,0 0.24219,0.24219 0.24219,0.54297" id="path29516" style="fill:#231f20"/>
      <path d="m 163.13672,161.98437 c 0,0.41407 -0.10938,0.75 -0.24219,0.75 -0.13281,0 -0.24219,-0.33593 -0.24219,-0.75 0,-0.41406 0.10938,-0.75 0.24219,-0.75 0.13281,0 0.24219,0.33985 0.24219,0.75" id="path29518" style="fill:#231f20"/>
      <path d="m 167.59766,164.89844 c 0.14453,0.14843 0.18359,0.34375 0.0859,0.4375 -0.0977,0.0937 -0.29297,0.0469 -0.43359,-0.10157 -0.14453,-0.14843 -0.17969,-0.34765 -0.0859,-0.4414 0.0977,-0.0937 0.28906,-0.043 0.4336,0.10547" id="path29520" style="fill:#231f20"/>
      <path d="m 165.60547,167.875 c 0.14453,0.14844 0.18359,0.34766 0.0859,0.4375 -0.0977,0.0937 -0.29297,0.0469 -0.4336,-0.0977 -0.14453,-0.15234 -0.17969,-0.35156 -0.0859,-0.4414 0.0977,-0.0937 0.28907,-0.0469 0.4336,0.10547" id="path29522" style="fill:#231f20"/>
      <path d="m 158.35156,161.90625 c 0.14453,0.14844 0.1836,0.34766 0.0859,0.4375 -0.0977,0.0937 -0.29297,0.0469 -0.4375,-0.10156 -0.14453,-0.14844 -0.17969,-0.34766 -0.0859,-0.44141 0.0977,-0.0898 0.29297,-0.043 0.4375,0.10547" id="path29524" style="fill:#231f20"/>
      <path d="m 160.27734,156.94922 c 0.14453,0.14844 0.1836,0.34375 0.0859,0.4375 -0.0977,0.0898 -0.29297,0.043 -0.4375,-0.10547 -0.14062,-0.14844 -0.17969,-0.34766 -0.082,-0.4375 0.0937,-0.0898 0.28906,-0.0469 0.4375,0.10547" id="path29526" style="fill:#231f20"/>
      <path d="m 158.40234,155.05859 c 0.14063,0.14844 0.1836,0.34766 0.0859,0.4375 -0.0977,0.0937 -0.29297,0.0469 -0.44141,-0.10156 -0.14062,-0.15234 -0.17578,-0.34766 -0.082,-0.44141 0.0977,-0.0937 0.29297,-0.0469 0.4375,0.10547" id="path29528" style="fill:#231f20"/>
      <path d="m 163.04297,153.53125 c 0.14062,0.15234 0.18359,0.34766 0.0859,0.44141 -0.0977,0.0898 -0.29297,0.043 -0.4375,-0.10547 -0.14063,-0.14844 -0.17969,-0.34766 -0.0859,-0.4375 0.0977,-0.0937 0.29297,-0.0469 0.4375,0.10156" id="path29530" style="fill:#231f20"/>
      <path d="m 161.28906,167.875 c 0.14453,0.14844 0.1836,0.34766 0.0859,0.4375 -0.0977,0.0937 -0.29297,0.0469 -0.4375,-0.0977 -0.14063,-0.15234 -0.17969,-0.35156 -0.0859,-0.4414 0.0977,-0.0937 0.29297,-0.0469 0.44141,0.10547" id="path29532" style="fill:#231f20"/>
      <path d="m 162.45312,163.19141 c 0.14454,0.14843 0.1836,0.34375 0.0859,0.4375 -0.0977,0.0898 -0.28906,0.043 -0.4375,-0.10157 -0.14062,-0.14843 -0.17578,-0.34765 -0.082,-0.4414 0.0977,-0.0937 0.28906,-0.043 0.43359,0.10547" id="path29534" style="fill:#231f20"/>
      <path d="m 168.39844,169.13281 c 0.14453,0.14844 0.18359,0.34375 0.082,0.4375 -0.0937,0.0937 -0.29297,0.0469 -0.4336,-0.10156 -0.14062,-0.15234 -0.17968,-0.34766 -0.0859,-0.44141 0.0977,-0.0898 0.29297,-0.043 0.43359,0.10547" id="path29536" style="fill:#231f20"/>
      <path d="m 164.85156,171.54297 c 0.14844,0.14844 0.1836,0.34765 0.0898,0.4375 -0.0977,0.0937 -0.29297,0.0469 -0.4375,-0.10156 -0.14063,-0.14844 -0.17969,-0.34766 -0.0859,-0.4375 0.0977,-0.0937 0.28906,-0.0469 0.43359,0.10156" id="path29538" style="fill:#231f20"/>
      <path d="m 160.27734,173.84766 c 0.14453,0.14843 0.1836,0.34375 0.0859,0.4375 -0.0977,0.0937 -0.29297,0.0469 -0.4375,-0.10157 -0.14062,-0.15234 -0.17969,-0.34765 -0.082,-0.4414 0.0937,-0.0937 0.28906,-0.0469 0.4375,0.10547" id="path29540" style="fill:#231f20"/>
      <path d="m 159.35937,177.51953 c 0.14454,0.14844 0.1836,0.34766 0.0859,0.4375 -0.0977,0.0937 -0.29297,0.0469 -0.4375,-0.10156 -0.14062,-0.14844 -0.17969,-0.34766 -0.082,-0.4375 0.0937,-0.0937 0.28906,-0.043 0.4375,0.10547" id="path29542" style="fill:#231f20"/>
      <path d="m 167.35156,175.68359 c 0.14453,0.14844 0.1836,0.34766 0.0859,0.4375 -0.0977,0.0898 -0.29297,0.0469 -0.4375,-0.10156 -0.14453,-0.14844 -0.17969,-0.34766 -0.0859,-0.4375 0.0977,-0.0937 0.29297,-0.0469 0.4375,0.10156" id="path29544" style="fill:#231f20"/>
      <path d="m 168.08594,178.07031 c 0.14453,0.14844 0.18359,0.34766 0.0859,0.4375 -0.0977,0.0937 -0.29296,0.0469 -0.4375,-0.10156 -0.14062,-0.14844 -0.17968,-0.34766 -0.0859,-0.4375 0.0977,-0.0937 0.29297,-0.0469 0.4375,0.10547" id="path29546" style="fill:#231f20"/>
      <path d="m 169.64844,178.34375 c 0.14062,0.14844 0.18359,0.34375 0.0859,0.4375 -0.0977,0.0898 -0.29296,0.043 -0.4375,-0.10547 -0.14062,-0.14844 -0.17968,-0.34766 -0.082,-0.4375 0.0937,-0.0937 0.28907,-0.0469 0.4336,0.10547" id="path29548" style="fill:#231f20"/>
      <path d="m 166.92969,181.05078 c 0.14453,0.14844 0.18359,0.34375 0.0898,0.4375 -0.10156,0.0937 -0.29687,0.0469 -0.44141,-0.10156 -0.14062,-0.15235 -0.17968,-0.34766 -0.082,-0.44141 0.0977,-0.0898 0.28907,-0.0469 0.4336,0.10547" id="path29550" style="fill:#231f20"/>
      <path d="m 161.73047,180.17969 c 0.14844,0.14843 0.18359,0.34375 0.0859,0.4375 -0.0977,0.0898 -0.28907,0.043 -0.4336,-0.10547 -0.14062,-0.14844 -0.17969,-0.34375 -0.0859,-0.4375 0.0977,-0.0937 0.28907,-0.0469 0.4336,0.10547" id="path29552" style="fill:#231f20"/>
      <path d="m 166.79687,183.85547 c 0.14844,0.15234 0.1836,0.34765 0.0898,0.4414 -0.10156,0.0898 -0.29297,0.043 -0.44141,-0.10546 -0.14062,-0.14844 -0.17578,-0.34766 -0.082,-0.4375 0.0977,-0.0937 0.28906,-0.0469 0.43359,0.10156" id="path29554" style="fill:#231f20"/>
      <path d="m 165.60547,186.61328 c 0.14453,0.14844 0.18359,0.34766 0.0859,0.4375 -0.0977,0.0937 -0.29297,0.0469 -0.4336,-0.10156 -0.14453,-0.14844 -0.17969,-0.34766 -0.0859,-0.44141 0.0977,-0.0898 0.28907,-0.043 0.4336,0.10547" id="path29556" style="fill:#231f20"/>
      <path d="m 162.85547,185.95312 c 0.14844,0.14844 0.1875,0.34766 0.0898,0.4375 -0.0977,0.0898 -0.29297,0.0469 -0.4375,-0.10156 -0.14062,-0.15234 -0.17969,-0.34765 -0.082,-0.4414 0.0977,-0.0898 0.28906,-0.043 0.4375,0.10546" id="path29558" style="fill:#231f20"/>
      <path d="m 169.28516,185.95312 c 0.14843,0.14844 0.1875,0.34766 0.0898,0.4375 -0.10156,0.0898 -0.29297,0.0469 -0.44141,-0.10156 -0.14062,-0.15234 -0.17578,-0.34765 -0.082,-0.4414 0.0977,-0.0898 0.28906,-0.043 0.4336,0.10546" id="path29560" style="fill:#231f20"/>
      <path d="m 168.91016,189.55078 c 0.14453,0.14844 0.18359,0.34375 0.0859,0.4375 -0.0977,0.0898 -0.29297,0.043 -0.4375,-0.10156 -0.14062,-0.15235 -0.17578,-0.34766 -0.0859,-0.44141 0.0977,-0.0898 0.29296,-0.043 0.4375,0.10547" id="path29562" style="fill:#231f20"/>
      <path d="m 164.13672,191.01953 c 0.14453,0.14844 0.18359,0.34375 0.082,0.4375 -0.0937,0.0937 -0.29297,0.0469 -0.4375,-0.10156 -0.14063,-0.15235 -0.17578,-0.34766 -0.082,-0.4375 0.0977,-0.0937 0.28906,-0.0469 0.4375,0.10156" id="path29564" style="fill:#231f20"/>
      <path d="m 162.76953,189.99609 c 0.14453,0.15235 0.18359,0.34766 0.0859,0.4375 -0.0977,0.0937 -0.28906,0.0469 -0.4375,-0.10156 -0.14063,-0.14844 -0.17969,-0.34766 -0.082,-0.4375 0.0937,-0.0937 0.28906,-0.0469 0.43359,0.10156" id="path29566" style="fill:#231f20"/>
      <path d="m 167.17578,192.38281 c 0.14453,0.14453 0.18359,0.34375 0.0859,0.4375 -0.0977,0.0898 -0.29297,0.043 -0.4375,-0.10156 -0.14063,-0.15234 -0.17578,-0.35156 -0.082,-0.44141 0.0977,-0.0937 0.28906,-0.0469 0.43359,0.10547" id="path29568" style="fill:#231f20"/>
      <path d="m 169.51172,194.38281 c 0.14062,0.14453 0.17969,0.34375 0.082,0.4375 -0.0977,0.0898 -0.28906,0.043 -0.4375,-0.10547 -0.14063,-0.14843 -0.17969,-0.34765 -0.082,-0.4375 0.0937,-0.0937 0.28906,-0.0469 0.4375,0.10547" id="path29570" style="fill:#231f20"/>
      <path d="m 167.26172,194.54687 c 0.14062,0.14844 0.17969,0.34766 0.082,0.4375 -0.0977,0.0937 -0.29297,0.0469 -0.4375,-0.10156 -0.14063,-0.15234 -0.17969,-0.34765 -0.082,-0.4414 0.0937,-0.0898 0.28906,-0.043 0.4375,0.10546" id="path29572" style="fill:#231f20"/>
      <path d="m 163.85156,194.54687 c 0.14453,0.14844 0.1836,0.34766 0.0859,0.4375 -0.0977,0.0937 -0.29297,0.0469 -0.4375,-0.10156 -0.14063,-0.15234 -0.17969,-0.34765 -0.0859,-0.4414 0.0977,-0.0898 0.29297,-0.043 0.4375,0.10546" id="path29574" style="fill:#231f20"/>
      <path d="m 167.80078,197.00781 c 0.14453,0.14453 0.18359,0.34375 0.0859,0.4375 -0.0977,0.0898 -0.29297,0.043 -0.4375,-0.10547 -0.13672,-0.14843 -0.17578,-0.34765 -0.082,-0.4375 0.0977,-0.0937 0.28906,-0.0469 0.43359,0.10547" id="path29576" style="fill:#231f20"/>
      <path d="m 166.48828,198.30469 c 0.14453,0.14843 0.17969,0.34765 0.0859,0.4375 -0.0977,0.0937 -0.29297,0.0469 -0.4375,-0.10157 -0.14063,-0.14843 -0.17969,-0.34765 -0.082,-0.4375 0.0977,-0.0937 0.28906,-0.0469 0.4375,0.10157" id="path29578" style="fill:#231f20"/>
      <path d="m 161.38281,199.92969 c 0.14453,0.14843 0.17969,0.34375 0.082,0.4375 -0.0977,0.0898 -0.28906,0.0469 -0.4375,-0.10157 -0.14062,-0.15234 -0.17968,-0.34765 -0.082,-0.4414 0.0977,-0.0898 0.28906,-0.043 0.4336,0.10547" id="path29580" style="fill:#231f20"/>
      <path d="m 159.77344,201.53906 c 0.14453,0.14844 0.18359,0.34375 0.0859,0.4375 -0.0977,0.0898 -0.29296,0.043 -0.4375,-0.10547 -0.14062,-0.14843 -0.17968,-0.34765 -0.082,-0.4375 0.0937,-0.0937 0.28907,-0.0469 0.4336,0.10157" id="path29582" style="fill:#231f20"/>
      <path d="m 158.26172,203.05078 c 0.14062,0.15234 0.17969,0.34766 0.082,0.4375 -0.0977,0.0937 -0.29297,0.0469 -0.4375,-0.10156 -0.14063,-0.14844 -0.17969,-0.34766 -0.082,-0.4375 0.0937,-0.0937 0.28906,-0.0469 0.4375,0.10156" id="path29584" style="fill:#231f20"/>
      <path d="m 156.40234,201.53125 c 0.14453,0.14844 0.1836,0.34375 0.0859,0.4375 -0.0977,0.0898 -0.28906,0.0469 -0.43359,-0.10547 -0.14453,-0.14844 -0.17969,-0.34766 -0.0859,-0.4375 0.0977,-0.0937 0.28906,-0.0469 0.4375,0.10156" id="path29586" style="fill:#231f20"/>
      <path d="m 152.92969,201.53125 c 0.14453,0.14844 0.18359,0.34375 0.0898,0.4375 -0.0977,0.0898 -0.29687,0.0469 -0.44141,-0.10547 -0.14062,-0.14844 -0.17578,-0.34766 -0.082,-0.4375 0.0977,-0.0937 0.28907,-0.0469 0.4375,0.10156" id="path29588" style="fill:#231f20"/>
      <path d="m 154.21875,198.18359 c 0.14453,0.15235 0.18359,0.34766 0.0859,0.4375 -0.0977,0.0937 -0.29297,0.0469 -0.4375,-0.10156 -0.14063,-0.14844 -0.17969,-0.34766 -0.0859,-0.4375 0.0977,-0.0937 0.29297,-0.0469 0.44141,0.10156" id="path29590" style="fill:#231f20"/>
      <path d="m 160.10156,197.61719 c 0.14844,0.14843 0.1836,0.34765 0.0898,0.4375 -0.0977,0.0937 -0.29297,0.0469 -0.4375,-0.10157 -0.14454,-0.14843 -0.17969,-0.34765 -0.0859,-0.4414 0.0977,-0.0898 0.29297,-0.043 0.43359,0.10547" id="path29592" style="fill:#231f20"/>
      <path d="m 159.00391,193.85156 c 0.14062,0.14844 0.17968,0.34375 0.0859,0.4375 -0.0977,0.0898 -0.29297,0.043 -0.4375,-0.10156 -0.14453,-0.14844 -0.17968,-0.35156 -0.0859,-0.44141 0.0977,-0.0937 0.28906,-0.0469 0.4375,0.10157" id="path29594" style="fill:#231f20"/>
      <path d="m 155.23437,193.74609 c 0.14844,0.15235 0.1836,0.34766 0.0859,0.4375 -0.0977,0.0937 -0.29297,0.0469 -0.4375,-0.10156 -0.14062,-0.14844 -0.17578,-0.34766 -0.082,-0.4375 0.0977,-0.0937 0.28906,-0.0469 0.43359,0.10156" id="path29596" style="fill:#231f20"/>
      <path d="m 153.76562,193.03516 c 0.14454,0.14843 0.1836,0.34765 0.082,0.4414 -0.0937,0.0898 -0.29297,0.043 -0.4336,-0.10547 -0.14062,-0.14843 -0.17969,-0.34765 -0.0859,-0.4375 0.0977,-0.0898 0.29297,-0.0469 0.4375,0.10157" id="path29598" style="fill:#231f20"/>
      <path d="m 154.82812,191.54297 c 0.0977,0.18359 0.0781,0.38281 -0.0391,0.44531 -0.11328,0.0625 -0.29297,-0.0352 -0.39062,-0.21875 -0.0937,-0.17969 -0.082,-0.38281 0.0391,-0.44531 0.11719,-0.0625 0.28906,0.0352 0.39062,0.21875" id="path29600" style="fill:#231f20"/>
      <path d="m 152.67969,194.64062 c 0.14843,0.14844 0.18359,0.34375 0.0898,0.4375 -0.0977,0.0898 -0.29297,0.043 -0.4375,-0.10546 -0.14453,-0.14844 -0.17969,-0.34766 -0.082,-0.4375 0.0937,-0.0898 0.28516,-0.0469 0.42969,0.10546" id="path29602" style="fill:#231f20"/>
      <path d="m 151.57422,196.27734 c 0.14453,0.15235 0.18359,0.34375 0.082,0.4375 -0.0937,0.0898 -0.28906,0.0469 -0.43359,-0.10156 -0.14063,-0.14844 -0.17579,-0.34766 -0.082,-0.44141 0.0937,-0.0898 0.28516,-0.043 0.42969,0.10547" id="path29604" style="fill:#231f20"/>
      <path d="m 157.35156,192.3125 c 0.14844,0.14844 0.1836,0.34375 0.0898,0.4375 -0.0977,0.0898 -0.29297,0.043 -0.4375,-0.10156 -0.14063,-0.15235 -0.17579,-0.34766 -0.082,-0.44141 0.0977,-0.0898 0.28907,-0.0469 0.4336,0.10547" id="path29606" style="fill:#231f20"/>
      <path d="m 155.46094,190.0625 c 0.14062,0.14844 0.17968,0.34766 0.082,0.4375 -0.0977,0.0937 -0.28906,0.0469 -0.4375,-0.10156 -0.14063,-0.14844 -0.17969,-0.34766 -0.0859,-0.4375 0.0977,-0.0937 0.29297,-0.0469 0.44141,0.10156" id="path29608" style="fill:#231f20"/>
      <path d="m 153.76562,189.08984 c 0.14063,0.14453 0.17969,0.34375 0.082,0.4336 -0.0937,0.0937 -0.29297,0.0469 -0.4375,-0.10157 -0.14063,-0.14843 -0.17969,-0.34765 -0.082,-0.4375 0.0977,-0.0937 0.28907,-0.0469 0.4375,0.10157" id="path29610" style="fill:#231f20"/>
      <path d="m 149.71875,188.63281 c 0.14453,0.14844 0.18359,0.34375 0.0859,0.4375 -0.0977,0.0898 -0.29297,0.043 -0.4375,-0.10156 -0.14453,-0.15234 -0.17969,-0.34766 -0.0859,-0.44141 0.0977,-0.0898 0.29297,-0.043 0.4375,0.10547" id="path29612" style="fill:#231f20"/>
      <path d="m 149.71875,187.69922 c 0.14453,0.14844 0.18359,0.34375 0.0859,0.4375 -0.0977,0.0898 -0.29297,0.0469 -0.4375,-0.10547 -0.14453,-0.14844 -0.17969,-0.34766 -0.0859,-0.4375 0.0977,-0.0937 0.29297,-0.0469 0.4375,0.10156" id="path29614" style="fill:#231f20"/>
      <path d="m 149.71875,186.23828 c 0.14453,0.15234 0.18359,0.34766 0.0859,0.4375 -0.0977,0.0937 -0.29297,0.0469 -0.4375,-0.10156 -0.14453,-0.14844 -0.17969,-0.34766 -0.0859,-0.4375 0.0977,-0.0937 0.29297,-0.0469 0.4375,0.10156" id="path29616" style="fill:#231f20"/>
      <path d="m 152.07422,182.05469 c 0.14062,0.14843 0.17969,0.34375 0.0859,0.43359 -0.0977,0.0937 -0.29297,0.0508 -0.4375,-0.10156 -0.14454,-0.14844 -0.17969,-0.34375 -0.0859,-0.4375 0.0977,-0.0937 0.28906,-0.0469 0.4375,0.10547" id="path29618" style="fill:#231f20"/>
      <path d="m 149.40625,179.39062 c 0.14453,0.14844 0.18359,0.34375 0.0898,0.4375 -0.10156,0.0898 -0.29297,0.0469 -0.4414,-0.10546 -0.14063,-0.14844 -0.17578,-0.34375 -0.082,-0.4375 0.0977,-0.0898 0.28906,-0.0469 0.43359,0.10546" id="path29620" style="fill:#231f20"/>
      <path d="m 153.77344,180.00781 c 0.14453,0.14453 0.18359,0.34375 0.0859,0.4375 -0.0977,0.0898 -0.28906,0.043 -0.4375,-0.10547 -0.14062,-0.14843 -0.17578,-0.34765 -0.082,-0.4375 0.0937,-0.0937 0.28907,-0.0469 0.4336,0.10547" id="path29622" style="fill:#231f20"/>
      <path d="m 155.28516,178.49609 c 0.14843,0.15235 0.18359,0.34766 0.0859,0.44141 -0.0937,0.0898 -0.28906,0.043 -0.4375,-0.10156 -0.14062,-0.15235 -0.17578,-0.34766 -0.082,-0.44141 0.0977,-0.0898 0.28906,-0.043 0.4336,0.10547" id="path29624" style="fill:#231f20"/>
      <path d="m 156.24609,184.94531 c 0.14453,0.14844 0.1836,0.34375 0.0859,0.4375 -0.0977,0.0898 -0.29297,0.043 -0.4375,-0.10547 -0.14062,-0.14453 -0.17578,-0.34765 -0.082,-0.4375 0.0937,-0.0937 0.28906,-0.0469 0.42969,0.10547" id="path29626" style="fill:#231f20"/>
      <path d="m 158.53516,185.21484 c 0.14453,0.14453 0.18359,0.34375 0.0859,0.4336 -0.10156,0.0937 -0.29297,0.0469 -0.4414,-0.10157 -0.14063,-0.14843 -0.17578,-0.34375 -0.082,-0.4375 0.0937,-0.0937 0.28906,-0.0469 0.4375,0.10547" id="path29628" style="fill:#231f20"/>
      <path d="m 157.89062,186.98047 c 0.14454,0.14844 0.1836,0.34375 0.082,0.4375 -0.0937,0.0898 -0.29297,0.043 -0.4375,-0.10547 -0.13672,-0.14453 -0.17579,-0.34766 -0.082,-0.4375 0.0977,-0.0937 0.28907,-0.0469 0.4336,0.10156" id="path29630" style="fill:#231f20"/>
      <path d="m 153.30859,169.51562 c 0.14453,0.14844 0.1836,0.34375 0.0859,0.4375 -0.0977,0.0898 -0.29297,0.0469 -0.4375,-0.10546 -0.14062,-0.14844 -0.17969,-0.34375 -0.082,-0.4375 0.0937,-0.0937 0.28906,-0.0469 0.43359,0.10546" id="path29632" style="fill:#231f20"/>
      <path d="m 155.69531,169.51562 c 0.14453,0.14844 0.1836,0.34375 0.0859,0.4375 -0.0977,0.0898 -0.29297,0.0469 -0.4375,-0.10546 -0.14063,-0.14844 -0.17969,-0.34375 -0.082,-0.4375 0.0937,-0.0937 0.28515,-0.0469 0.42969,0.10546" id="path29634" style="fill:#231f20"/>
      <path d="m 151.61328,165.42969 c 0.14453,0.14843 0.17969,0.34375 0.0859,0.4375 -0.0977,0.0937 -0.29297,0.0469 -0.4375,-0.10157 -0.14063,-0.15234 -0.17969,-0.34765 -0.082,-0.4375 0.0937,-0.0937 0.28906,-0.0469 0.43359,0.10157" id="path29636" style="fill:#231f20"/>
      <path d="m 152.73828,163.21094 c 0.14844,0.14453 0.18359,0.34375 0.0859,0.4375 -0.0977,0.0898 -0.29297,0.0469 -0.4375,-0.10157 -0.13672,-0.14843 -0.17578,-0.35156 -0.082,-0.4414 0.0937,-0.0898 0.28906,-0.043 0.4375,0.10547" id="path29638" style="fill:#231f20"/>
      <path d="m 152.47656,160.16016 c 0.14844,0.14843 0.1836,0.34765 0.0898,0.4414 -0.0977,0.0898 -0.29297,0.043 -0.4375,-0.10547 -0.14063,-0.14843 -0.17969,-0.34765 -0.082,-0.4375 0.0937,-0.0898 0.28907,-0.0469 0.4336,0.10157" id="path29640" style="fill:#231f20"/>
      <path d="m 150.91016,161.72266 c 0.14453,0.14843 0.18359,0.34375 0.0859,0.4375 -0.0977,0.0898 -0.29297,0.0469 -0.4375,-0.10157 -0.14062,-0.15234 -0.17968,-0.34765 -0.0859,-0.4414 0.0977,-0.0898 0.29296,-0.0469 0.4375,0.10547" id="path29642" style="fill:#231f20"/>
      <path d="m 149.17578,167.85937 c 0.14453,0.14844 0.18359,0.34766 0.0859,0.4375 -0.0977,0.0937 -0.29297,0.0469 -0.4375,-0.10156 -0.14063,-0.14844 -0.17969,-0.34765 -0.0859,-0.4414 0.0977,-0.0898 0.29297,-0.043 0.4375,0.10546" id="path29644" style="fill:#231f20"/>
      <path d="m 148.34766,163.82031 c 0.14453,0.14844 0.18359,0.34375 0.0859,0.4375 -0.0977,0.0898 -0.29297,0.043 -0.4375,-0.10156 -0.14062,-0.14844 -0.17968,-0.34766 -0.082,-0.44141 0.0977,-0.0898 0.28906,-0.043 0.4336,0.10157" id="path29646" style="fill:#231f20"/>
      <path d="m 148.80469,160.23437 c 0.14843,0.15235 0.1875,0.34766 0.0898,0.44141 -0.0977,0.0898 -0.29297,0.043 -0.4375,-0.10547 -0.14062,-0.14844 -0.17969,-0.34765 -0.082,-0.4375 0.0937,-0.0937 0.28906,-0.0469 0.42969,0.10156" id="path29648" style="fill:#231f20"/>
      <path d="m 150.63672,156.21484 c 0.14453,0.14844 0.18359,0.34375 0.082,0.4375 -0.0937,0.0898 -0.29297,0.0469 -0.43359,-0.10547 -0.14063,-0.14843 -0.17969,-0.34375 -0.0859,-0.4375 0.0977,-0.0937 0.28906,-0.0469 0.4375,0.10547" id="path29650" style="fill:#231f20"/>
      <path d="m 154.03125,156.04687 c 0.14844,0.14844 0.18359,0.34375 0.0859,0.4375 -0.0977,0.0898 -0.28907,0.0469 -0.4375,-0.10156 -0.14063,-0.15234 -0.17578,-0.34765 -0.082,-0.4414 0.0937,-0.0898 0.28906,-0.0469 0.43359,0.10546" id="path29652" style="fill:#231f20"/>
      <path d="m 156.43359,153.65234 c 0.14453,0.15235 0.1836,0.34766 0.0859,0.4375 -0.0977,0.0937 -0.29297,0.0469 -0.43359,-0.10156 -0.14453,-0.14844 -0.17969,-0.34766 -0.0859,-0.4375 0.0977,-0.0937 0.28906,-0.0469 0.4375,0.10156" id="path29654" style="fill:#231f20"/>
      <path d="m 154.49219,153.82422 c 0.14453,0.14844 0.18359,0.34375 0.0859,0.4375 -0.0977,0.0859 -0.29296,0.043 -0.4375,-0.10547 -0.14062,-0.14844 -0.17968,-0.34766 -0.082,-0.4375 0.0937,-0.0937 0.28907,-0.0469 0.4375,0.10547" id="path29656" style="fill:#231f20"/>
      <path d="m 151.55469,153.82422 c 0.14453,0.14844 0.18359,0.34375 0.0859,0.4375 -0.0977,0.0859 -0.29687,0.043 -0.4375,-0.10547 -0.14062,-0.14844 -0.17968,-0.34766 -0.0859,-0.4375 0.0977,-0.0937 0.29297,-0.0469 0.43359,0.10547" id="path29658" style="fill:#231f20"/>
      <path d="m 148.15625,155.9375 c 0.14453,0.14844 0.18359,0.34375 0.0859,0.4375 -0.0977,0.0937 -0.29297,0.0469 -0.4375,-0.10156 -0.14453,-0.15235 -0.17969,-0.34766 -0.0859,-0.44141 0.0977,-0.0898 0.29297,-0.043 0.4375,0.10547" id="path29660" style="fill:#231f20"/>
      <path d="m 153.00391,188.03906 c 0.11328,0.17578 0.11718,0.3711 0.008,0.44531 -0.11328,0.0742 -0.29688,-0.004 -0.41016,-0.17968 -0.11719,-0.16797 -0.11719,-0.3711 -0.004,-0.44532 0.10937,-0.0703 0.29296,0.008 0.40625,0.17969" id="path29662" style="fill:#231f20"/>
      <path d="m 150.82031,190.74609 c 0.14453,0.14844 0.1836,0.34375 0.082,0.4375 -0.0977,0.0898 -0.28906,0.0469 -0.4375,-0.10156 -0.14062,-0.15234 -0.17578,-0.34766 -0.082,-0.44141 0.0937,-0.0898 0.28906,-0.043 0.4336,0.10547" id="path29664" style="fill:#231f20"/>
      <path d="m 152.75781,184.85156 c 0.14453,0.14844 0.1836,0.34375 0.0859,0.4375 -0.0977,0.0898 -0.29688,0.0469 -0.4375,-0.10156 -0.14453,-0.15234 -0.17969,-0.34766 -0.0859,-0.44141 0.0977,-0.0937 0.28906,-0.0469 0.4375,0.10547" id="path29666" style="fill:#231f20"/>
      <path d="m 161.83984,172.28516 c 0.14453,0.14843 0.1836,0.34765 0.0859,0.4375 -0.0977,0.0937 -0.29297,0.0469 -0.4375,-0.10157 -0.14062,-0.14843 -0.17969,-0.34765 -0.0859,-0.4414 0.0977,-0.0898 0.29297,-0.043 0.4375,0.10547" id="path29668" style="fill:#231f20"/>
      <path d="m 161.83984,175.13281 c 0.14453,0.14844 0.1836,0.34375 0.0859,0.4375 -0.0977,0.0898 -0.29297,0.043 -0.4375,-0.10156 -0.14062,-0.14844 -0.17969,-0.34766 -0.0859,-0.44141 0.0977,-0.0898 0.29297,-0.043 0.4375,0.10547" id="path29670" style="fill:#231f20"/>
      <path d="m 165.60547,173.10937 c 0.14453,0.15235 0.18359,0.34766 0.0859,0.44141 -0.0977,0.0898 -0.29297,0.0469 -0.4336,-0.10156 -0.14453,-0.15235 -0.17969,-0.34766 -0.0859,-0.44141 0.0977,-0.0898 0.28907,-0.043 0.4336,0.10547" id="path29672" style="fill:#231f20"/>
      <path d="m 160.5625,165.30078 1.23828,1.39844 c 0,0 -1.23828,-0.25781 -1.23828,-1.39844" id="path29674" style="fill:#231f20"/>
      <path d="m 53.78125,222.23437 0.382813,-0.46875 c 0,0 0.460937,0 0.230468,0.28125 -0.230468,0.28125 -0.332031,0.52735 -0.613281,0.1875" id="path29676" style="fill:#231f20"/>
      <path d="m 58.117188,221.60156 0.386718,-0.2539 c 0,0 0.4375,0.0234 0.207032,0.17968 -0.230469,0.15235 -0.335938,0.29297 -0.59375,0.0742" id="path29678" style="fill:#231f20"/>
      <path d="m 51.777344,220.375 0.386719,-0.25391 c 0,0 0.4375,0.0273 0.210937,0.1836 -0.230469,0.14843 -0.339844,0.29297 -0.597656,0.0703" id="path29680" style="fill:#231f20"/>
      <path d="m 52.605469,217.80469 0.386719,-0.25391 c 0,0 0.441406,0.0273 0.210937,0.17969 -0.234375,0.15234 -0.335937,0.29297 -0.597656,0.0742" id="path29682" style="fill:#231f20"/>
      <path d="m 48.867188,225.33203 0.386718,-0.25391 c 0,0 0.4375,0.0273 0.207032,0.17969 -0.230469,0.15235 -0.335938,0.29297 -0.59375,0.0742" id="path29684" style="fill:#231f20"/>
      <path d="M 49.863281,226.32812 50.25,226.07422 c 0,0 0.441406,0.0273 0.210938,0.18359 -0.230469,0.14844 -0.335938,0.29297 -0.597657,0.0703" id="path29686" style="fill:#231f20"/>
      <path d="m 52.054688,225.24219 0.386718,-0.25391 c 0,0 0.4375,0.0273 0.207032,0.18359 -0.230469,0.14844 -0.335938,0.29297 -0.59375,0.0703" id="path29688" style="fill:#231f20"/>
      <path d="m 46.269531,222.02734 0.382813,-0.2539 c 0,0 0.441406,0.0273 0.210937,0.18359 -0.230468,0.14844 -0.335937,0.29297 -0.59375,0.0703" id="path29690" style="fill:#231f20"/>
      <path d="m 46.269531,227.90625 0.382813,-0.25391 c 0,0 0.441406,0.0273 0.210937,0.1836 -0.230468,0.14843 -0.335937,0.29297 -0.59375,0.0703" id="path29692" style="fill:#231f20"/>
      <path d="m 43.023438,231.15234 0.386718,-0.2539 c 0,0 0.4375,0.0273 0.207032,0.17968 -0.230469,0.15235 -0.335938,0.29297 -0.59375,0.0742" id="path29694" style="fill:#231f20"/>
      <path d="m 39.40625,230.19922 0.386719,-0.25391 c 0,0 0.4375,0.0273 0.210937,0.17969 -0.230468,0.15234 -0.339843,0.29297 -0.597656,0.0742" id="path29696" style="fill:#231f20"/>
      <path d="m 41.796875,225.14844 0.382813,-0.25391 c 0,0 0.441406,0.0273 0.210937,0.17969 -0.230469,0.15234 -0.335937,0.29297 -0.59375,0.0742" id="path29698" style="fill:#231f20"/>
      <path d="m 42.621094,223.03516 0.386719,-0.25391 c 0,0 0.4375,0.0273 0.210937,0.18359 -0.230469,0.14844 -0.339844,0.29297 -0.597656,0.0703" id="path29700" style="fill:#231f20"/>
      <path d="m 40.511719,223.28906 0.382812,-0.2539 c 0,0 0.441407,0.0273 0.210938,0.17968 -0.230469,0.14844 -0.339844,0.29297 -0.59375,0.0742" id="path29702" style="fill:#231f20"/>
      <path d="m 38.277344,224.04687 0.386719,-0.2539 c 0,0 0.4375,0.0273 0.210937,0.18359 -0.230469,0.14844 -0.335937,0.29297 -0.597656,0.0703" id="path29704" style="fill:#231f20"/>
      <path d="m 34.882813,225.24219 0.382812,-0.25391 c 0,0 0.441406,0.0273 0.210938,0.18359 -0.230469,0.14844 -0.335938,0.29297 -0.59375,0.0703" id="path29706" style="fill:#231f20"/>
      <path d="m 37.910156,226.98828 0.386719,-0.25391 c 0,0 0.441406,0.0273 0.210938,0.17969 -0.230469,0.15235 -0.335938,0.29688 -0.597657,0.0742" id="path29708" style="fill:#231f20"/>
      <path d="m 51.800781,232.30469 0.4375,-0.42578 c 0,0 0.496094,0.0313 0.234375,0.28515 -0.265625,0.25391 -0.390625,0.48438 -0.671875,0.13672" id="path29710" style="fill:#231f20"/>
      <path d="m 57.121094,236.78906 0.4375,-0.42578 c 0,0 0.496094,0.0273 0.234375,0.28516 -0.269531,0.2539 -0.394531,0.48828 -0.675781,0.13672" id="path29712" style="fill:#231f20"/>
      <path d="m 58.683594,239.45312 0.4375,-0.42578 c 0,0 0.496094,0.0313 0.230469,0.28516 -0.265625,0.25391 -0.390625,0.48828 -0.671875,0.14062" id="path29714" style="fill:#231f20"/>
      <path d="m 57.855469,241.74609 0.4375,-0.42187 c 0,0 0.496094,0.0273 0.234375,0.28125 -0.265625,0.25781 -0.390625,0.48828 -0.675781,0.14062" id="path29716" style="fill:#231f20"/>
      <path d="m 54.925781,239.62891 0.4375,-0.42579 c 0,0 0.496094,0.0313 0.230469,0.28516 -0.265625,0.25391 -0.390625,0.48828 -0.671875,0.14063" id="path29718" style="fill:#231f20"/>
      <path d="m 55.742188,242.57422 0.441406,-0.42188 c 0,0 0.496094,0.0273 0.230469,0.28125 -0.265625,0.25782 -0.390625,0.48828 -0.671875,0.14063" id="path29720" style="fill:#231f20"/>
      <path d="m 52.4375,240.55469 0.441406,-0.42188 c 0,0 0.496094,0.0273 0.230469,0.28125 -0.265625,0.25781 -0.390625,0.48828 -0.675781,0.14063" id="path29722" style="fill:#231f20"/>
      <path d="m 47.9375,240.69531 0.441406,-0.42578 c 0,0 0.496094,0.0313 0.230469,0.28516 -0.265625,0.2539 -0.390625,0.48437 -0.675781,0.14062" id="path29724" style="fill:#231f20"/>
      <path d="m 43.34375,240.69531 0.441406,-0.42578 c 0,0 0.496094,0.0313 0.234375,0.28516 -0.265625,0.2539 -0.390625,0.48437 -0.675781,0.14062" id="path29726" style="fill:#231f20"/>
      <path d="m 49.589844,243.49219 0.441406,-0.42188 c 0,0 0.496094,0.0273 0.230469,0.28125 -0.265625,0.25781 -0.390625,0.48828 -0.671875,0.14063" id="path29728" style="fill:#231f20"/>
      <path d="m 43.34375,246.52344 0.441406,-0.42188 c 0,0 0.496094,0.0273 0.234375,0.28125 -0.265625,0.25781 -0.390625,0.48828 -0.675781,0.14063" id="path29730" style="fill:#231f20"/>
      <path d="m 43.113281,245.14453 0.441407,-0.42187 c 0,0 0.492187,0.0273 0.226562,0.28515 -0.265625,0.25391 -0.386719,0.48438 -0.671875,0.13672" id="path29732" style="fill:#231f20"/>
      <path d="m 39.027344,243.30859 0.441406,-0.42187 c 0,0 0.496094,0.0273 0.226563,0.28125 -0.261719,0.25781 -0.386719,0.48828 -0.671875,0.14062" id="path29734" style="fill:#231f20"/>
      <path d="m 36.273438,246.06641 0.441406,-0.42579 c 0,0 0.496094,0.0313 0.230469,0.28516 -0.265625,0.25391 -0.390625,0.48438 -0.671875,0.13672" id="path29736" style="fill:#231f20"/>
      <path d="m 34.1875,239.3125 0.441406,-0.42188 c 0,0 0.496094,0.0273 0.230469,0.28516 -0.261719,0.25391 -0.390625,0.48438 -0.671875,0.13672" id="path29738" style="fill:#231f20"/>
      <path d="m 36.484375,233.52734 0.441406,-0.42187 c 0,0 0.496094,0.0273 0.230469,0.28125 -0.261719,0.25781 -0.390625,0.48828 -0.671875,0.14062" id="path29740" style="fill:#231f20"/>
      <path d="m 32.046875,232.74609 0.441406,-0.42187 c 0,0 0.496094,0.0273 0.230469,0.28125 -0.265625,0.25781 -0.390625,0.48828 -0.671875,0.14062" id="path29742" style="fill:#231f20"/>
      <path d="m 29.84375,229.625 0.441406,-0.42578 c 0,0 0.496094,0.0273 0.230469,0.28515 C 30.25,229.73828 30.125,229.97266 29.84375,229.625" id="path29744" style="fill:#231f20"/>
      <path d="m 35.8125,225.95312 0.441406,-0.42578 c 0,0 0.496094,0.0313 0.230469,0.28516 -0.265625,0.25781 -0.390625,0.48828 -0.671875,0.14062" id="path29746" style="fill:#231f20"/>
      <path d="m 32.875,225.30859 0.4375,-0.42578 c 0,0 0.496094,0.0313 0.234375,0.28516 -0.269531,0.2539 -0.394531,0.48437 -0.671875,0.14062" id="path29748" style="fill:#231f20"/>
      <path d="m 28.054688,227.89062 0.441406,-0.42578 c 0,0 0.492187,0.0273 0.226562,0.28516 -0.261718,0.25391 -0.386718,0.48437 -0.671875,0.14062" id="path29750" style="fill:#231f20"/>
      <path d="m 32.414063,240.64844 0.441406,-0.42578 c 0,0 0.496094,0.0273 0.230469,0.28515 -0.261719,0.25391 -0.386719,0.48438 -0.671875,0.13672" id="path29752" style="fill:#231f20"/>
      <path d="m 31.128906,244.32031 0.441407,-0.42578 c 0,0 0.496093,0.0313 0.230468,0.28516 -0.265625,0.2539 -0.390625,0.48828 -0.671875,0.14062" id="path29754" style="fill:#231f20"/>
      <path d="m 30.671875,247.44141 0.4375,-0.42188 c 0,0 0.496094,0.0273 0.234375,0.28125 -0.265625,0.25781 -0.390625,0.48828 -0.671875,0.14063" id="path29756" style="fill:#231f20"/>
      <path d="m 29.84375,250.01562 0.441406,-0.42578 c 0,0 0.496094,0.0273 0.230469,0.28516 -0.265625,0.25391 -0.390625,0.48437 -0.671875,0.14062" id="path29758" style="fill:#231f20"/>
      <path d="m 33.699219,248.91406 0.441406,-0.42578 c 0,0 0.496094,0.0313 0.234375,0.28516 -0.269531,0.2539 -0.394531,0.48828 -0.675781,0.14062" id="path29760" style="fill:#231f20"/>
      <path d="m 27.136719,245.0625 0.441406,-0.42188 c 0,0 0.496094,0.0273 0.230469,0.28516 -0.265625,0.25391 -0.390625,0.48438 -0.671875,0.13672" id="path29762" style="fill:#231f20"/>
      <path d="m 25.484375,244.60156 0.4375,-0.42187 c 0,0 0.496094,0.0313 0.234375,0.28515 -0.265625,0.25391 -0.390625,0.48438 -0.671875,0.13672" id="path29764" style="fill:#231f20"/>
      <path d="m 24.699219,242.66406 0.441406,-0.42187 c 0,0 0.496094,0.0273 0.230469,0.28125 -0.265625,0.25781 -0.390625,0.48828 -0.671875,0.14062" id="path29766" style="fill:#231f20"/>
      <path d="m 26.003906,240.84766 0.441407,-0.42579 c 0,0 0.492187,0.0313 0.230468,0.28516 -0.265625,0.25781 -0.390625,0.48828 -0.671875,0.14063" id="path29768" style="fill:#231f20"/>
      <path d="m 25.160156,236.41797 0.4375,-0.42188 c 0,0 0.496094,0.0273 0.230469,0.28516 -0.265625,0.25391 -0.390625,0.48828 -0.671875,0.14062" id="path29770" style="fill:#231f20"/>
      <path d="m 26.171875,237.42969 0.4375,-0.42188 c 0,0 0.496094,0.0273 0.230469,0.28125 -0.261719,0.25781 -0.386719,0.48828 -0.667969,0.14063" id="path29772" style="fill:#231f20"/>
      <path d="m 22.9375,234.14453 0.441406,-0.42187 c 0,0 0.492188,0.0273 0.230469,0.28125 -0.265625,0.25781 -0.390625,0.48828 -0.671875,0.14062" id="path29774" style="fill:#231f20"/>
      <path d="M 24.058594,229.53125 24.5,229.10937 c 0,0 0.492188,0.0273 0.230469,0.28125 -0.265625,0.25782 -0.390625,0.48829 -0.671875,0.13672" id="path29776" style="fill:#231f20"/>
      <path d="m 56.632813,218.83594 0.378906,-0.46875 c 0,0 0.457031,0 0.230469,0.28125 -0.230469,0.28125 -0.332032,0.52734 -0.609375,0.18359" id="path29778" style="fill:#231f20"/>
      <path d="m 61.402344,226.35156 0.242187,-0.34765 c 0,0 0.285157,0 0.140625,0.20703 -0.140625,0.21093 -0.207031,0.39453 -0.382812,0.14062" id="path29780" style="fill:#231f20"/>
      <path d="m 58.710938,226.22266 0.382812,-0.46875 c 0,0 0.457031,0 0.230469,0.28125 -0.230469,0.28125 -0.332031,0.53125 -0.613281,0.1875" id="path29782" style="fill:#231f20"/>
      <path d="m 62.234375,232.33594 0.382813,-0.46875 c 0,0 0.457031,0 0.226562,0.28125 -0.226562,0.28125 -0.328125,0.53125 -0.609375,0.1875" id="path29784" style="fill:#231f20"/>
      <path d="m 64.527344,231.87891 0.382812,-0.46875 c 0,0 0.457032,0 0.230469,0.28125 -0.230469,0.28125 -0.332031,0.52734 -0.609375,0.1875" id="path29786" style="fill:#231f20"/>
      <path d="m 53.234375,230.03906 0.378906,-0.46875 c 0,0 0.457032,0 0.230469,0.28125 -0.230469,0.28125 -0.332031,0.53125 -0.609375,0.1875" id="path29788" style="fill:#231f20"/>
      <path d="m 59.203125,229.03125 0.382813,-0.46875 c 0,0 0.457031,0 0.226562,0.28125 -0.226562,0.28125 -0.328125,0.52734 -0.609375,0.18359" id="path29790" style="fill:#231f20"/>
      <path d="m -3.125e-5,1.875e-5 0,-13.41796875" transform="matrix(1,0,0,-1,145.293,138.6758)" id="path29792" style="fill:none;stroke:#231f20;stroke-width:0.5"/>
      <path d="m -0.0010125,0.001 0,-13.421875" transform="matrix(1,0,0,-1,159.4932,134.376)" id="path29794" style="fill:none;stroke:#231f20;stroke-width:0.5"/>
      <path d="M -3.125e-5,0.00194375 9.898406,4.298819" transform="matrix(1,0,0,-1,145.293,144.5371)" id="path29796" style="fill:none;stroke:#231f20;stroke-width:0.5"/>
      <path d="m 154.97266,142.14844 4.52343,-4.22657 -6.02734,1.39844 1.50391,2.82813" id="path29798" style="fill:#231f20"/>
    </g>
    <g id="g29802" style="fill:#231f20">
      <use transform="translate(16.5518,175.4766)" id="use29804" x="0" y="0" width="197" height="255" xlink:href="#glyph0-1"/>
      <use transform="translate(19.571455,175.4766)" id="use29806" x="0" y="0" width="197" height="255" xlink:href="#glyph0-4"/>
      <use transform="translate(23.400072,175.4766)" id="use29808" x="0" y="0" width="197" height="255" xlink:href="#glyph0-3"/>
    </g>
    <g id="g29810" style="fill:#231f20">
      <use transform="translate(36.06449,237.29934)" id="use29812" x="0" y="0" width="197" height="255" xlink:href="#glyph0-5"/>
    </g>
    <g id="g29814" style="fill:#231f20">
      <use transform="translate(41.23905,237.29934)" id="use29816" x="0" y="0" width="197" height="255" xlink:href="#glyph1-2"/>
    </g>
    <g id="g29818" style="fill:#231f20">
      <use transform="translate(145.19749,177.48505)" id="use29820" x="0" y="0" width="197" height="255" xlink:href="#glyph0-5"/>
    </g>
    <g id="g29822" style="fill:#231f20">
      <use transform="translate(150.37205,177.48505)" id="use29824" x="0" y="0" width="197" height="255" xlink:href="#glyph1-2"/>
    </g>
    <g id="g29826" style="fill:#231f20">
      <use transform="translate(27.769,211.5243)" id="use29828" x="0" y="0" width="197" height="255" xlink:href="#glyph4-1"/>
    </g>
    <g id="g29830" style="fill:#231f20">
      <use transform="translate(31.2341,211.0009)" id="use29832" x="0" y="0" width="197" height="255" xlink:href="#glyph5-1"/>
    </g>
    <g id="g29834" style="fill:#231f20">
      <use transform="translate(33.9032,208.9208)" id="use29836" x="0" y="0" width="197" height="255" xlink:href="#glyph6-1"/>
    </g>
    <g id="g29838" style="fill:#231f20">
      <use transform="translate(38.666395,206.89892)" id="use29840" x="0" y="0" width="197" height="255" xlink:href="#glyph4-2"/>
    </g>
    <g id="g29842" style="fill:#231f20">
      <use transform="translate(128.7725,146.4365)" id="use29844" x="0" y="0" width="197" height="255" xlink:href="#glyph1-3"/>
    </g>
    <g id="g29846" style="fill:#231f20">
      <use transform="translate(132.168,147.3076)" id="use29848" x="0" y="0" width="197" height="255" xlink:href="#glyph2-2"/>
    </g>
    <g id="g29850" style="fill:#231f20">
      <use transform="translate(135.4365,146.4365)" id="use29852" x="0" y="0" width="197" height="255" xlink:href="#glyph0-5"/>
    </g>
    <g id="g29854" style="fill:#231f20">
      <use transform="translate(140.61106,146.4365)" id="use29856" x="0" y="0" width="197" height="255" xlink:href="#glyph1-4"/>
    </g>
  </g>
</svg>
