<?xml version="1.0" encoding="UTF-8" standalone="no"?>
<svg xmlns="http://www.w3.org/2000/svg" xmlns:xlink="http://www.w3.org/1999/xlink" version="1.1" width="300.0pt" height="163.2pt" viewBox="0.0 0.0 173.17682 94.20172">
 <metadata id="metadata3642"/>
 <defs id="defs3374">
  <g id="g3376">
   <g id="glyph0-0">
   </g>
   <g id="glyph0-1">
    <path d="M 2.578125,1.546875 C 2.546875,1.5 2.5,1.46875 2.453125,1.4375 1.6875,0.75 1.21875,-0.3125 1.171875,-1.59375 c -0.03125,-0.875 0.125,-1.78125 0.53125,-2.5625 0.203125,-0.375 0.4375,-0.6875 0.75,-0.953125 C 2.5,-5.15625 2.546875,-5.1875 2.578125,-5.21875 l -0.25,0 c -0.15625,0 -0.140625,0 -0.25,0.078125 -0.359375,0.28125 -0.65625,0.65625 -0.890625,1.078125 -0.65625,1.234375 -0.703125,2.90625 -0.09375,4.25 0.21875,0.5 0.5625,0.921875 0.984375,1.28125 0.09375,0.0625 0.09375,0.078125 0.25,0.078125 l 0.25,0 z m 0,0" id="path3382"/>
   </g>
   <g id="glyph0-2">
    <path d="m 0.640625,-2.640625 c 0.125,-0.0625 0.21875,-0.140625 0.34375,-0.203125 C 1.203125,-2.9375 1.4375,-2.984375 1.6875,-3 1.75,-3.015625 1.828125,-3.015625 1.90625,-3.015625 c 0.28125,0.046875 0.515625,0.234375 0.59375,0.5 0.078125,0.203125 0.046875,0.453125 0.046875,0.65625 -0.359375,0 -0.734375,0.03125 -1.09375,0.125 -0.5,0.125 -1.125,0.375 -1.0625,1.015625 0.046875,0.28125 0.203125,0.5625 0.46875,0.703125 C 1.03125,0.0625 1.234375,0.0625 1.4375,0.046875 1.734375,0.015625 2.0625,-0.0625 2.3125,-0.25 c 0.09375,-0.0625 0.171875,-0.140625 0.25,-0.21875 l 0,0.46875 0.484375,0 0,-1.828125 c 0,-0.1875 0.03125,-0.390625 -0.015625,-0.59375 -0.0625,-0.484375 -0.5,-0.84375 -0.953125,-0.9375 -0.28125,-0.046875 -0.71875,0.015625 -0.953125,0.0625 -0.078125,0.03125 -0.46875,0.15625 -0.5,0.21875 -0.03125,0.03125 -0.015625,0.09375 -0.015625,0.125 0.015625,0.109375 0.03125,0.203125 0.03125,0.3125 z m 1.90625,1.015625 0,0.515625 c 0,0.140625 0,0.265625 -0.0625,0.390625 -0.078125,0.140625 -0.21875,0.25 -0.375,0.296875 -0.328125,0.125 -0.78125,0.140625 -1.0625,-0.09375 C 0.96875,-0.5625 0.90625,-0.640625 0.890625,-0.75 0.8125,-1.046875 1.078125,-1.28125 1.3125,-1.390625 1.640625,-1.546875 2.109375,-1.625 2.546875,-1.625 z m 0,0" id="path3385"/>
   </g>
   <g id="glyph0-3">
    <path d="m 0.4375,-5.21875 c 0.03125,0.03125 0.078125,0.0625 0.125,0.109375 0.859375,0.765625 1.328125,2 1.265625,3.515625 -0.015625,0.75 -0.203125,1.5 -0.5625,2.15625 C 1.078125,0.890625 0.84375,1.1875 0.5625,1.4375 0.515625,1.46875 0.46875,1.5 0.4375,1.546875 l 0.25,0 c 0.15625,0 0.140625,0 0.234375,-0.078125 0.375,-0.296875 0.671875,-0.671875 0.890625,-1.078125 0.671875,-1.25 0.71875,-2.90625 0.109375,-4.25 C 1.6875,-4.375 1.359375,-4.796875 0.9375,-5.140625 0.84375,-5.21875 0.84375,-5.21875 0.6875,-5.21875 l -0.25,0 z m 0,0" id="path3388"/>
   </g>
   <g id="glyph0-4">
    <path d="m 0.578125,-4.84375 0,4.84375 0.515625,0 0,-0.46875 0,0 c 0.0625,0.109375 0.171875,0.203125 0.265625,0.28125 0.3125,0.25 0.828125,0.328125 1.28125,0.109375 0.203125,-0.109375 0.375,-0.28125 0.515625,-0.46875 C 3.84375,-1.5 3.421875,-3.09375 2.453125,-3.3125 c -0.125,-0.046875 -0.28125,-0.046875 -0.421875,-0.015625 -0.40625,0.046875 -0.71875,0.25 -0.953125,0.5 l 0,-2.015625 -0.5,0 z M 1.8125,-2.953125 c 0.328125,-0.03125 0.703125,0.109375 0.921875,0.375 0.171875,0.21875 0.234375,0.5 0.234375,0.765625 0.03125,0.375 -0.015625,0.78125 -0.25,1.078125 -0.203125,0.265625 -0.53125,0.375 -0.84375,0.40625 -0.265625,0 -0.5,-0.09375 -0.671875,-0.3125 C 1.171875,-0.6875 1.125,-0.75 1.09375,-0.8125 c 0,-0.046875 0,-0.09375 0,-0.125 l 0,-1.390625 c 0,-0.0625 -0.015625,-0.140625 0.015625,-0.203125 0.03125,-0.078125 0.09375,-0.125 0.15625,-0.1875 0.15625,-0.125 0.34375,-0.21875 0.546875,-0.234375 z m 0,0" id="path3391"/>
   </g>
   <g id="glyph0-5">
    <path d="M 3.1875,-0.796875 C 3.125,-0.765625 3.078125,-0.71875 3.03125,-0.6875 2.9375,-0.625 2.84375,-0.5625 2.734375,-0.515625 2.3125,-0.3125 1.671875,-0.265625 1.296875,-0.5625 1.03125,-0.75 0.859375,-1.109375 0.84375,-1.5 0.8125,-1.953125 0.921875,-2.453125 1.296875,-2.75 1.5,-2.90625 1.765625,-3 2.140625,-2.96875 2.46875,-2.9375 2.65625,-2.890625 2.921875,-2.75 c 0.0625,0.03125 0.109375,0.078125 0.171875,0.09375 L 3.171875,-3.078125 C 3.015625,-3.15625 2.875,-3.234375 2.703125,-3.28125 c -0.40625,-0.140625 -1.03125,-0.125 -1.390625,0.046875 -0.34375,0.15625 -0.625,0.4375 -0.796875,0.765625 -0.25,0.5 -0.25,1.109375 0,1.625 0.09375,0.1875 0.21875,0.359375 0.390625,0.5 0.46875,0.4375 1.1875,0.484375 1.78125,0.28125 0.140625,-0.0625 0.265625,-0.125 0.390625,-0.203125 0.046875,-0.03125 0.109375,-0.0625 0.125,-0.09375 C 3.21875,-0.40625 3.1875,-0.796875 3.1875,-0.796875 z m 0,0" id="path3394"/>
   </g>
   <g id="glyph1-0">
   </g>
   <g id="glyph1-1">
    <path d="M 2.25,-4.890625 C 1.8125,-4.84375 1.453125,-4.5 1.1875,-4.15625 c -0.421875,0.546875 -0.671875,1.203125 -0.796875,1.890625 -0.09375,0.4375 -0.09375,0.90625 -0.015625,1.34375 0.09375,0.4375 0.359375,1.03125 0.96875,0.984375 C 1.796875,0 2.15625,-0.34375 2.421875,-0.6875 2.8125,-1.1875 3.046875,-1.796875 3.1875,-2.421875 3.28125,-2.890625 3.34375,-3.515625 3.21875,-3.9375 3.125,-4.34375 2.890625,-4.828125 2.4375,-4.890625 c -0.0625,0 -0.125,-0.015625 -0.1875,0 z m 0.46875,2.28125 -1.75,0 C 1,-2.796875 1.0625,-2.984375 1.109375,-3.15625 1.25,-3.546875 1.421875,-3.9375 1.703125,-4.234375 1.90625,-4.4375 2.234375,-4.609375 2.5,-4.421875 2.671875,-4.3125 2.734375,-4.09375 2.78125,-3.90625 c 0.0625,0.296875 0.046875,0.59375 0,0.875 C 2.765625,-2.890625 2.734375,-2.75 2.71875,-2.609375 z M 2.625,-2.21875 c 0,0.046875 -0.015625,0.109375 -0.03125,0.171875 C 2.4375,-1.5 2.296875,-1.015625 1.90625,-0.625 1.734375,-0.4375 1.453125,-0.25 1.171875,-0.375 0.859375,-0.5 0.78125,-0.953125 0.78125,-1.359375 c 0,-0.296875 0.046875,-0.578125 0.109375,-0.859375 l 1.734375,0 z m 0,0" id="path3400"/>
   </g>
   <g id="glyph2-0">
   </g>
   <g id="glyph2-1">
    <path d="M 3.84375,-0.671875 C 3.5,-0.5 3.296875,-0.3125 2.8125,-0.3125 2.625,-0.296875 2.453125,-0.296875 2.265625,-0.328125 c -0.46875,-0.09375 -0.875,-0.4375 -1.09375,-0.84375 C 0.765625,-1.9375 0.953125,-2.984375 1.65625,-3.5 c 0.125,-0.09375 0.25,-0.15625 0.375,-0.21875 0.40625,-0.140625 0.875,-0.125 1.28125,0.03125 0.140625,0.0625 0.265625,0.125 0.40625,0.203125 0.03125,-0.15625 0.0625,-0.3125 0.078125,-0.46875 -0.125,-0.03125 -0.25,-0.078125 -0.390625,-0.109375 C 3.125,-4.140625 2.703125,-4.1875 2.375,-4.15625 1.765625,-4.09375 1.25,-3.75 0.9375,-3.359375 c -0.390625,0.515625 -0.515625,1.1875 -0.375,1.8125 0.25,0.96875 1.0625,1.65625 2.21875,1.59375 0.390625,-0.015625 0.640625,-0.109375 0.9375,-0.25 0.03125,-0.015625 0.125,-0.0625 0.140625,-0.09375 C 3.875,-0.328125 3.84375,-0.59375 3.84375,-0.671875 z m 0,0" id="path3406"/>
   </g>
   <g id="glyph2-2">
    <path d="M 0.859375,-3.421875 C 0.21875,-2.65625 0.203125,-1.5 0.828125,-0.703125 1.078125,-0.375 1.4375,-0.125 1.890625,0.015625 3.15625,0.359375 4.1875,-0.46875 4.453125,-1.40625 c 0.25,-0.796875 0.015625,-1.6875 -0.59375,-2.25 -0.3125,-0.28125 -0.75,-0.5 -1.265625,-0.546875 C 1.8125,-4.25 1.203125,-3.859375 0.859375,-3.421875 z M 2.96875,-3.78125 C 3.375,-3.65625 3.703125,-3.375 3.90625,-3 c 0.109375,0.21875 0.171875,0.484375 0.1875,0.734375 0.0625,0.703125 -0.234375,1.46875 -0.875,1.8125 -0.3125,0.171875 -0.703125,0.25 -1.109375,0.15625 -0.28125,-0.0625 -0.53125,-0.21875 -0.71875,-0.375 -0.359375,-0.34375 -0.53125,-0.828125 -0.5625,-1.3125 -0.0625,-0.859375 0.375,-1.5 1,-1.75 C 2.171875,-3.875 2.5625,-3.90625 2.96875,-3.78125 z m 0,0" id="path3409"/>
   </g>
   <g id="glyph2-3">
    <path d="m 0.625,-4.109375 0,2.59375 c 0,0.125 0,0.234375 0.015625,0.359375 0.046875,0.34375 0.21875,0.625 0.4375,0.828125 0.484375,0.4375 1.21875,0.546875 1.796875,0.265625 0.3125,-0.140625 0.59375,-0.421875 0.734375,-0.71875 0.109375,-0.265625 0.125,-0.40625 0.125,-0.75 l 0,-2.578125 -0.4375,0 0,2.609375 c 0,0.234375 0,0.453125 -0.109375,0.671875 C 3.125,-0.6875 3.03125,-0.5625 2.890625,-0.46875 2.390625,-0.09375 1.5,-0.234375 1.21875,-0.75 1.078125,-0.984375 1.078125,-1.25 1.078125,-1.515625 l 0,-2.59375 -0.453125,0 z m 0,0" id="path3412"/>
   </g>
   <g id="glyph2-4">
    <path d="m 0.640625,-4.109375 0,4.109375 0.40625,0 0,-3.75 0,0 0.171875,0.296875 1.34375,2.34375 C 2.765625,-0.75 2.96875,-0.375 3.1875,-0.015625 3.375,0.03125 3.609375,-0.015625 3.8125,0 l 0,-4.109375 -0.40625,0 0,3.75 L 1.859375,-3.0625 C 1.65625,-3.40625 1.484375,-3.765625 1.25,-4.09375 c -0.171875,-0.046875 -0.421875,0 -0.609375,-0.015625 z m 0,0" id="path3415"/>
   </g>
   <g id="glyph2-5">
    <path d="m 0.234375,-4.09375 0,0.34375 1.828125,0 0,3.75 0.4375,0 0,-3.75 1.8125,0 0,-0.34375 -4.078125,0 z m 0,0" id="path3418"/>
   </g>
   <g id="glyph2-6">
    <path d="M 0.625,-4.109375 0.625,0 l 0.453125,0 0,-4.109375 -0.453125,0 z m 0,0" id="path3421"/>
   </g>
   <g id="glyph2-7">
    <path d="m 3.953125,-1.953125 -1.390625,0 0,0.359375 0.953125,0 0,1.03125 c 0,0.09375 -0.015625,0.125 -0.109375,0.140625 C 3.109375,-0.34375 2.703125,-0.265625 2.359375,-0.3125 1.96875,-0.375 1.625,-0.578125 1.40625,-0.84375 0.8125,-1.515625 0.8125,-2.625 1.421875,-3.28125 c 0.296875,-0.328125 0.71875,-0.5625 1.296875,-0.515625 0.25,0.015625 0.515625,0.0625 0.75,0.171875 0.125,0.0625 0.21875,0.15625 0.34375,0.21875 C 3.84375,-3.5625 3.875,-3.71875 3.890625,-3.859375 3.453125,-4.0625 3.15625,-4.15625 2.53125,-4.15625 c -0.578125,0 -1.03125,0.265625 -1.359375,0.546875 -0.125,0.109375 -0.21875,0.234375 -0.3125,0.375 -0.46875,0.703125 -0.46875,1.65625 0,2.359375 0.234375,0.34375 0.53125,0.609375 0.9375,0.765625 0.53125,0.21875 1.109375,0.1875 1.65625,0.046875 0.0625,-0.015625 0.46875,-0.140625 0.484375,-0.1875 0.015625,-0.015625 0.015625,-0.046875 0.015625,-0.0625 l 0,-1.640625 z m 0,0" id="path3424"/>
   </g>
   <g id="glyph2-8">
    <path d="M 0.625,-4.109375 0.625,0 l 0.4375,0 0,-1.890625 0.875,0 c 0.125,0 0.234375,0 0.3125,0.015625 0.125,0.140625 0.21875,0.296875 0.328125,0.453125 0.328125,0.46875 0.65625,0.953125 1.015625,1.40625 C 3.71875,0 3.890625,0 4.03125,0 L 3.796875,-0.34375 2.65625,-1.9375 c 0.109375,-0.015625 0.21875,-0.046875 0.328125,-0.09375 0.421875,-0.140625 0.90625,-0.5 0.875,-1 C 3.84375,-3.234375 3.78125,-3.359375 3.6875,-3.484375 3.40625,-3.828125 2.953125,-4.046875 2.453125,-4.09375 2.234375,-4.109375 2.03125,-4.109375 1.8125,-4.109375 l -1.1875,0 z m 0.4375,1.890625 0,-1.546875 0.890625,0 c 0.296875,0 0.59375,0 0.890625,0.09375 0.28125,0.09375 0.5625,0.296875 0.59375,0.625 0.015625,0.1875 -0.0625,0.375 -0.203125,0.515625 C 3.125,-2.4375 3.015625,-2.375 2.875,-2.328125 2.59375,-2.21875 2.28125,-2.21875 1.984375,-2.21875 l -0.921875,0 z m 0,0" id="path3427"/>
   </g>
   <g id="glyph2-9">
    <path d="m 0.1875,0 0.296875,0 c 0.046875,0 0.09375,0.015625 0.125,-0.015625 0.03125,-0.015625 0.03125,-0.046875 0.046875,-0.0625 0.078125,-0.21875 0.375,-0.9375 0.421875,-1.015625 0,-0.0625 0.015625,-0.09375 0.09375,-0.09375 l 1.421875,0 c 0.15625,0 0.3125,0 0.46875,0 0.0625,0.015625 0.09375,0.09375 0.109375,0.140625 0.0625,0.171875 0.375,0.953125 0.40625,1 C 3.59375,0.015625 3.65625,0 3.75,0 l 0.328125,0 c -0.15625,-0.390625 -0.3125,-0.765625 -0.46875,-1.140625 l -1.21875,-2.96875 C 2.375,-4.125 2.375,-4.15625 2.34375,-4.171875 c -0.03125,0 -0.078125,0 -0.109375,0 l -0.21875,0 c -0.03125,0 -0.09375,-0.015625 -0.125,0.015625 -0.015625,0.015625 -0.03125,0.046875 -0.03125,0.0625 l -1.21875,2.953125 -0.296875,0.71875 C 0.296875,-0.28125 0.234375,-0.140625 0.1875,0 z M 2.109375,-3.671875 C 2.375,-2.9375 2.6875,-2.25 2.96875,-1.53125 l -1.71875,0 C 1.53125,-2.25 1.828125,-2.9375 2.109375,-3.671875 l 0,0 z m 0,0" id="path3430"/>
   </g>
   <g id="glyph2-10">
    <path d="m 0.625,-4.09375 0,4.09375 3.046875,0 0,-0.359375 -2.59375,0 0,-1.59375 2.3125,0 0,-0.34375 -2.3125,0 0,-1.453125 2.5,0 0,-0.34375 -2.953125,0 z m 0,0" id="path3433"/>
   </g>
   <g id="glyph2-11">
    <path d="m 0.375,-0.78125 c -0.015625,0.0625 -0.09375,0.4375 -0.078125,0.46875 0.015625,0.015625 0.03125,0.015625 0.046875,0.03125 L 0.5,-0.203125 C 1.046875,0.078125 2,0.25 2.640625,-0.109375 c 0.328125,-0.171875 0.640625,-0.53125 0.640625,-1 0,-0.609375 -0.484375,-0.984375 -0.90625,-1.125 C 2.265625,-2.265625 1.8125,-2.359375 1.734375,-2.375 1.4375,-2.453125 1.09375,-2.515625 0.890625,-2.78125 0.859375,-2.8125 0.828125,-2.859375 0.8125,-2.90625 0.65625,-3.296875 0.953125,-3.625 1.3125,-3.75 c 0.390625,-0.15625 0.875,-0.109375 1.234375,0.03125 0.09375,0.046875 0.1875,0.09375 0.265625,0.15625 0.0625,0.03125 0.109375,0.078125 0.15625,0.109375 C 3,-3.5625 3.015625,-3.671875 3.03125,-3.78125 3.046875,-3.859375 3.078125,-3.921875 2.984375,-3.9375 L 2.84375,-4.015625 C 2.1875,-4.28125 1.328125,-4.3125 0.75,-3.84375 0.671875,-3.78125 0.609375,-3.703125 0.546875,-3.625 c -0.171875,0.25 -0.25,0.609375 -0.078125,0.953125 0.140625,0.28125 0.390625,0.484375 0.71875,0.59375 0.125,0.046875 0.25,0.078125 0.375,0.109375 0.140625,0.03125 0.609375,0.125 0.6875,0.15625 0.234375,0.078125 0.46875,0.234375 0.5625,0.453125 C 2.875,-1.25 2.890625,-1.171875 2.890625,-1.03125 2.84375,-0.671875 2.53125,-0.421875 2.203125,-0.328125 1.6875,-0.1875 1.09375,-0.34375 0.71875,-0.546875 0.59375,-0.609375 0.484375,-0.703125 0.375,-0.78125 z m 0,0" id="path3436"/>
   </g>
   <g id="glyph2-12">
    <path d="M 0.625,-4.109375 0.625,0 l 0.453125,0 0,-1.71875 0.875,0 c 0.125,0 0.28125,0 0.40625,0 0.65625,-0.046875 1.28125,-0.421875 1.390625,-1.015625 0.0625,-0.34375 -0.0625,-0.625 -0.21875,-0.828125 -0.25,-0.28125 -0.625,-0.484375 -1.0625,-0.53125 C 2.25,-4.125 2.046875,-4.109375 1.84375,-4.109375 l -1.21875,0 z m 0.4375,2.046875 0,-1.703125 0.890625,0 c 0.515625,0 1,0.0625 1.25,0.40625 0.203125,0.265625 0.203125,0.640625 0,0.90625 C 3.125,-2.359375 3.046875,-2.296875 2.9375,-2.234375 2.640625,-2.0625 2.296875,-2.0625 1.96875,-2.0625 l -0.90625,0 z m 0,0" id="path3439"/>
   </g>
   <g id="glyph2-13">
    <path d="m 0.625,-4.09375 0,4.09375 0.453125,0 0,-1.875 2.125,0 0,-0.359375 -2.125,0 0,-1.515625 2.40625,0 0,-0.34375 -2.859375,0 z m 0,0" id="path3442"/>
   </g>
   <g id="glyph2-14">
    <path d="M 0.625,-4.109375 0.625,0 l 2.671875,0 0,-0.34375 -2.21875,0 0,-3.765625 -0.453125,0 z m 0,0" id="path3445"/>
   </g>
   <g id="glyph2-15">
    <path d="M 0.640625,-4.109375 0.640625,0 1.9375,0 c 0.21875,0 0.4375,0 0.640625,-0.015625 0.5625,-0.0625 1.125,-0.34375 1.3125,-0.796875 0.140625,-0.359375 0.03125,-0.671875 -0.21875,-0.90625 -0.265625,-0.25 -0.640625,-0.390625 -1,-0.4375 0.09375,-0.015625 0.203125,-0.046875 0.296875,-0.078125 0.359375,-0.125 0.765625,-0.375 0.796875,-0.78125 0.03125,-0.140625 -0.046875,-0.3125 -0.09375,-0.40625 -0.25,-0.4375 -0.828125,-0.65625 -1.4375,-0.6875 -0.140625,0 -0.28125,0 -0.421875,0 l -1.171875,0 z m 0.421875,1.8125 0,-1.46875 0.703125,0 c 0.359375,0 0.71875,0.015625 1.0625,0.15625 0.21875,0.078125 0.5,0.234375 0.53125,0.5 0.046875,0.296875 -0.25,0.515625 -0.5,0.625 -0.25,0.109375 -0.515625,0.15625 -0.78125,0.1875 -0.125,0 -0.25,0 -0.359375,0 l -0.65625,0 z m 0,1.953125 0,-1.625 0.75,0 c 0.109375,0 0.203125,-0.015625 0.3125,0 0.3125,0.015625 0.609375,0.0625 0.890625,0.203125 0.265625,0.125 0.5625,0.375 0.515625,0.703125 C 3.5,-0.78125 3.203125,-0.59375 2.953125,-0.5 c -0.21875,0.09375 -0.46875,0.140625 -0.71875,0.15625 -0.109375,0 -0.203125,0 -0.3125,0 l -0.859375,0 z m 0,0" id="path3448"/>
   </g>
   <g id="glyph2-16">
    <path d="m 0.015625,-4.109375 1.890625,2.46875 c 0.015625,0.53125 0,1.09375 0,1.640625 l 0.4375,0 c 0,-0.546875 -0.015625,-1.109375 0,-1.640625 l 0.0625,-0.078125 1.828125,-2.390625 c -0.171875,0 -0.34375,0 -0.515625,0 L 3.671875,-4.046875 2.53125,-2.5625 c -0.125,0.171875 -0.25,0.328125 -0.390625,0.5 L 2,-2.25 1.765625,-2.5625 c -0.40625,-0.5 -0.78125,-1.03125 -1.1875,-1.53125 -0.15625,-0.03125 -0.375,0 -0.5625,-0.015625 z m 0,0" id="path3451"/>
   </g>
  </g>
  <clipPath id="clip1">
   <path d="m -218,667 612,0 0,-792 -612,0 0,792 z m 0,0" id="path3454"/>
  </clipPath>
  <clipPath id="clip2">
   <path d="m 42.804688,307.80078 132.000002,0 0,-307.999999 -132.000002,0 0,307.999999 z m 0,0" id="path3457"/>
  </clipPath>
  <clipPath id="clip3">
   <path d="m 43.804688,306.80078 130.394532,0 0,-306.058592 -130.394532,0 0,306.058592 z m 0,0" id="path3460"/>
  </clipPath>
 </defs>
 <g transform="translate(-0.67473979,-0.54142388)" id="g3898">
  <path d="m 45.453125,5.71094 0,72.71093 122.429685,0" id="path3472" fill="none" stroke="#000000" stroke-width="0.5"/>
  <path d="m 166.76953,80.027344 6.08203,-1.628906 -6.08203,-1.628907 0,3.257813" id="path3474"/>
  <path d="m 47.0625,6.824219 -1.628906,-6.082031 -1.628906,6.082031 3.257812,0" id="path3476"/>
  <path d="m 78.441406,78.42187 c 0,0 5.328125,-0.23437 6.730469,-17.89843 l 2.523437,-34.06641 c 0,0 0.140625,-3.22266 2.101563,-3.22266 1.964844,0 1.964844,3.08204 1.964844,3.08204 0,0 1.398437,48.83203 7.429687,52.10546" id="path3478" fill="none" stroke="#000000" stroke-width="0.5"/>
  <path d="m 125.01563,78.42187 c 0,0 3.24999,-0.0078 4.28515,-8.91796 l 2.53125,-16.17579 c 0,0 0.10156,-1.6289 1.54688,-1.6289 1.44531,0 1.44531,1.55859 1.44531,1.55859 0,0 1.51562,16.00391 2.49609,20.58203 0.98047,4.58203 3.36328,4.58203 3.36328,4.58203" id="path3480" fill="none" stroke="#000000" stroke-width="0.5"/>
  <use id="use3502" width="175" height="321" xlink:href="#glyph0-1" transform="translate(104.583,92.213997)"/>
  <use id="use3504" width="175" height="321" xlink:href="#glyph0-2" transform="translate(107.59987,92.213997)"/>
  <use id="use3506" width="175" height="321" xlink:href="#glyph0-3" transform="translate(111.2367,92.213997)"/>
  <use id="use3510" width="175" height="321" xlink:href="#glyph1-1" transform="translate(168.84,86.156998)"/>
  <use id="use3514" width="175" height="321" xlink:href="#glyph2-1" transform="translate(9.4090004,4.7306499)"/>
  <use id="use3516" width="175" height="321" xlink:href="#glyph2-2" transform="translate(13.62243,4.7306499)"/>
  <use id="use3518" width="175" height="321" xlink:href="#glyph2-3" transform="translate(18.554302,4.7306499)"/>
  <use id="use3520" width="175" height="321" xlink:href="#glyph2-4" transform="translate(22.921852,4.7306499)"/>
  <use id="use3522" width="175" height="321" xlink:href="#glyph2-5" transform="translate(27.388397,4.7306499)"/>
  <use id="use3524" width="175" height="321" xlink:href="#glyph2-6" transform="translate(31.953342,4.7306499)"/>
  <use id="use3526" width="175" height="321" xlink:href="#glyph2-4" transform="translate(33.657566,4.7306499)"/>
  <use id="use3528" width="175" height="321" xlink:href="#glyph2-7" transform="translate(38.124111,4.7306499)"/>
  <use id="use3532" width="175" height="321" xlink:href="#glyph2-8" transform="translate(17.72965,11.50515)"/>
  <use id="use3534" width="175" height="321" xlink:href="#glyph2-9" transform="translate(21.963236,11.50515)"/>
  <use id="use3538" width="175" height="321" xlink:href="#glyph2-5" transform="translate(25.680513,11.50515)"/>
  <use id="use3540" width="175" height="321" xlink:href="#glyph2-10" transform="translate(30.245459,11.50515)"/>
 </g>
</svg>
