<?xml version="1.0" encoding="UTF-8"?>
<svg xmlns="http://www.w3.org/2000/svg" xmlns:xlink="http://www.w3.org/1999/xlink" width="245pt" height="183pt" viewBox="0 0 177 132" version="1.1">
<defs>
<g>
<symbol overflow="visible" id="glyph0-0">
<path style="stroke:none;" d=""/>
</symbol>
<symbol overflow="visible" id="glyph0-1">
<path style="stroke:none;" d="M 2.140625 -0.625 C 2.234375 -0.421875 2.265625 -0.3125 2.4375 -0.15625 C 2.703125 0.078125 3.09375 0.125 3.421875 -0.015625 C 3.609375 -0.09375 3.75 -0.21875 3.890625 -0.375 C 4.328125 -0.859375 4.484375 -1.546875 4.609375 -2.1875 C 4.671875 -2.5 4.71875 -3.046875 4.546875 -3.28125 C 4.515625 -3.328125 4.453125 -3.34375 4.375 -3.34375 C 4.234375 -3.34375 4.09375 -3.21875 4.078125 -3.0625 C 4.0625 -2.984375 4.109375 -2.921875 4.125 -2.84375 C 4.203125 -2.53125 4.046875 -1.953125 4 -1.75 C 3.9375 -1.453125 3.875 -1.140625 3.734375 -0.859375 C 3.609375 -0.640625 3.4375 -0.453125 3.171875 -0.4375 C 2.828125 -0.4375 2.59375 -0.578125 2.46875 -0.828125 C 2.4375 -0.890625 2.390625 -0.96875 2.390625 -1.03125 C 2.390625 -1.0625 2.453125 -1.203125 2.46875 -1.234375 C 2.546875 -1.4375 2.6875 -1.859375 2.640625 -2.078125 C 2.625 -2.1875 2.546875 -2.25 2.453125 -2.25 C 2.34375 -2.234375 2.265625 -2.140625 2.21875 -2.0625 C 2.09375 -1.828125 2.0625 -1.484375 2.0625 -1.1875 C 2.0625 -1.03125 2.078125 -1.03125 2 -0.9375 C 1.8125 -0.671875 1.46875 -0.40625 1.09375 -0.4375 C 1.046875 -0.4375 1 -0.453125 0.96875 -0.46875 C 0.703125 -0.578125 0.65625 -0.890625 0.65625 -1.140625 C 0.65625 -1.734375 0.890625 -2.375 1.1875 -2.796875 C 1.234375 -2.875 1.328125 -2.96875 1.328125 -3.09375 C 1.328125 -3.265625 1.125 -3.328125 0.984375 -3.265625 C 0.90625 -3.21875 0.84375 -3.125 0.796875 -3.046875 C 0.453125 -2.515625 0.15625 -1.890625 0.15625 -1.109375 C 0.15625 -0.703125 0.265625 -0.328125 0.546875 -0.09375 C 0.8125 0.09375 1.171875 0.09375 1.453125 -0.03125 C 1.625 -0.109375 1.78125 -0.21875 1.921875 -0.34375 C 2 -0.4375 2.078125 -0.515625 2.140625 -0.625 Z M 2.140625 -0.625 "/>
</symbol>
<symbol overflow="visible" id="glyph1-0">
<path style="stroke:none;" d=""/>
</symbol>
<symbol overflow="visible" id="glyph1-1">
<path style="stroke:none;" d="M 1.203125 -2.015625 L 1.265625 -2.359375 L 0.921875 -2.359375 L 0.25 0.828125 L 0.609375 0.828125 L 0.859375 -0.328125 C 0.90625 -0.25 0.953125 -0.171875 1.03125 -0.109375 C 1.296875 0.125 1.6875 0.0625 1.984375 -0.109375 C 2.46875 -0.375 2.78125 -0.9375 2.78125 -1.484375 C 2.796875 -1.84375 2.65625 -2.28125 2.265625 -2.375 C 1.84375 -2.46875 1.390625 -2.203125 1.203125 -2.015625 Z M 2.078125 -2.03125 C 2.359375 -1.890625 2.4375 -1.546875 2.390625 -1.265625 C 2.328125 -0.75 1.90625 -0.265625 1.375 -0.234375 C 1.203125 -0.234375 1.03125 -0.3125 0.953125 -0.46875 C 0.9375 -0.515625 0.90625 -0.546875 0.90625 -0.578125 C 0.90625 -0.640625 0.9375 -0.703125 0.9375 -0.75 C 0.984375 -0.921875 1.140625 -1.75 1.171875 -1.796875 C 1.203125 -1.84375 1.25 -1.890625 1.296875 -1.90625 C 1.5 -2.078125 1.796875 -2.171875 2.078125 -2.03125 Z M 2.078125 -2.03125 "/>
</symbol>
<symbol overflow="visible" id="glyph2-0">
<path style="stroke:none;" d=""/>
</symbol>
<symbol overflow="visible" id="glyph2-1">
<path style="stroke:none;" d="M 0.734375 -4.84375 L 0.734375 0 L 2.265625 0 C 2.890625 0 3.203125 0.03125 3.71875 -0.21875 C 4.359375 -0.515625 4.875 -1.109375 5.03125 -1.875 C 5.234375 -2.84375 4.828125 -3.90625 4 -4.453125 C 3.703125 -4.640625 3.359375 -4.78125 3 -4.828125 C 2.71875 -4.84375 2.4375 -4.84375 2.15625 -4.84375 L 0.734375 -4.84375 Z M 1.25 -0.40625 L 1.25 -4.421875 L 2.234375 -4.421875 C 2.421875 -4.421875 2.609375 -4.4375 2.796875 -4.421875 C 3.296875 -4.375 3.71875 -4.171875 4.015625 -3.875 C 4.375 -3.5 4.53125 -3 4.5625 -2.5 C 4.59375 -1.90625 4.40625 -1.296875 3.96875 -0.890625 C 3.6875 -0.640625 3.25 -0.453125 2.796875 -0.421875 C 2.609375 -0.40625 2.4375 -0.40625 2.25 -0.40625 L 1.25 -0.40625 Z M 1.25 -0.40625 "/>
</symbol>
<symbol overflow="visible" id="glyph2-2">
<path style="stroke:none;" d="M 0.734375 -4.828125 L 0.734375 0 L 4.328125 0 L 4.328125 -0.4375 L 1.265625 -0.4375 L 1.265625 -2.296875 L 4 -2.296875 L 4 -2.703125 L 1.265625 -2.703125 L 1.265625 -4.40625 L 4.203125 -4.40625 L 4.203125 -4.828125 L 0.734375 -4.828125 Z M 0.734375 -4.828125 "/>
</symbol>
<symbol overflow="visible" id="glyph2-3">
<path style="stroke:none;" d="M 0.28125 -4.8125 L 0.28125 -4.40625 L 2.421875 -4.40625 L 2.421875 0 L 2.953125 0 L 2.953125 -4.40625 L 5.078125 -4.40625 L 5.078125 -4.8125 L 0.28125 -4.8125 Z M 0.28125 -4.8125 "/>
</symbol>
<symbol overflow="visible" id="glyph2-4">
<path style="stroke:none;" d="M 4.515625 -0.796875 C 4.125 -0.578125 3.875 -0.375 3.296875 -0.359375 C 3.09375 -0.359375 2.875 -0.34375 2.671875 -0.390625 C 2.109375 -0.5 1.640625 -0.890625 1.375 -1.390625 C 0.890625 -2.28125 1.125 -3.5 1.953125 -4.125 C 2.09375 -4.21875 2.234375 -4.3125 2.390625 -4.375 C 2.859375 -4.53125 3.421875 -4.515625 3.890625 -4.34375 C 4.0625 -4.265625 4.21875 -4.1875 4.375 -4.109375 C 4.40625 -4.28125 4.453125 -4.46875 4.46875 -4.640625 C 4.328125 -4.703125 4.171875 -4.75 4 -4.78125 C 3.671875 -4.859375 3.171875 -4.921875 2.796875 -4.890625 C 2.078125 -4.828125 1.46875 -4.421875 1.109375 -3.9375 C 0.640625 -3.34375 0.484375 -2.546875 0.65625 -1.8125 C 0.953125 -0.6875 1.90625 0.125 3.28125 0.046875 C 3.734375 0.03125 4.015625 -0.0625 4.375 -0.234375 C 4.40625 -0.265625 4.53125 -0.3125 4.546875 -0.34375 C 4.5625 -0.390625 4.515625 -0.6875 4.515625 -0.796875 Z M 4.515625 -0.796875 "/>
</symbol>
<symbol overflow="visible" id="glyph2-5">
<path style="stroke:none;" d="M 1 -4.03125 C 0.265625 -3.125 0.234375 -1.75 0.96875 -0.84375 C 1.28125 -0.4375 1.703125 -0.140625 2.234375 0.015625 C 3.71875 0.421875 4.921875 -0.546875 5.25 -1.65625 C 5.53125 -2.578125 5.25 -3.640625 4.53125 -4.3125 C 4.171875 -4.640625 3.65625 -4.90625 3.046875 -4.9375 C 2.125 -5.015625 1.421875 -4.53125 1 -4.03125 Z M 3.484375 -4.453125 C 3.96875 -4.296875 4.359375 -3.96875 4.59375 -3.53125 C 4.734375 -3.265625 4.796875 -2.96875 4.828125 -2.671875 C 4.890625 -1.84375 4.546875 -0.9375 3.796875 -0.53125 C 3.421875 -0.328125 2.96875 -0.234375 2.484375 -0.34375 C 2.15625 -0.421875 1.859375 -0.59375 1.640625 -0.796875 C 1.21875 -1.1875 1 -1.765625 0.96875 -2.328125 C 0.90625 -3.34375 1.421875 -4.109375 2.140625 -4.390625 C 2.5625 -4.5625 3.03125 -4.59375 3.484375 -4.453125 Z M 3.484375 -4.453125 "/>
</symbol>
<symbol overflow="visible" id="glyph2-6">
<path style="stroke:none;" d="M 0.734375 -4.84375 L 0.734375 0 L 1.25 0 L 1.25 -2.21875 L 2.28125 -2.21875 C 2.421875 -2.21875 2.546875 -2.234375 2.65625 -2.203125 C 2.78125 -2.03125 2.90625 -1.859375 3.03125 -1.671875 C 3.421875 -1.125 3.8125 -0.5625 4.21875 -0.015625 C 4.390625 0 4.578125 0 4.75 0 L 4.46875 -0.390625 L 3.125 -2.28125 C 3.25 -2.296875 3.390625 -2.328125 3.515625 -2.390625 C 4.015625 -2.5625 4.578125 -2.96875 4.53125 -3.5625 C 4.515625 -3.796875 4.453125 -3.9375 4.328125 -4.109375 C 4.015625 -4.515625 3.484375 -4.765625 2.875 -4.828125 C 2.625 -4.84375 2.390625 -4.84375 2.125 -4.84375 L 0.734375 -4.84375 Z M 1.25 -2.609375 L 1.25 -4.421875 L 2.296875 -4.421875 C 2.640625 -4.421875 3 -4.421875 3.34375 -4.328125 C 3.671875 -4.203125 4 -3.96875 4.046875 -3.59375 C 4.0625 -3.359375 3.96875 -3.140625 3.8125 -2.984375 C 3.6875 -2.875 3.546875 -2.796875 3.390625 -2.734375 C 3.046875 -2.609375 2.6875 -2.609375 2.328125 -2.609375 L 1.25 -2.609375 Z M 1.25 -2.609375 "/>
</symbol>
<symbol overflow="visible" id="glyph2-7">
<path style="stroke:none;" d="M 0.734375 -4.84375 L 0.734375 -1.78125 C 0.734375 -1.640625 0.734375 -1.5 0.75 -1.359375 C 0.8125 -0.953125 1.015625 -0.625 1.28125 -0.390625 C 1.84375 0.125 2.703125 0.265625 3.390625 -0.0625 C 3.75 -0.234375 4.078125 -0.5625 4.25 -0.921875 C 4.375 -1.21875 4.390625 -1.40625 4.390625 -1.8125 L 4.390625 -4.84375 L 3.890625 -4.84375 L 3.890625 -1.765625 C 3.890625 -1.5 3.875 -1.21875 3.75 -0.96875 C 3.671875 -0.8125 3.5625 -0.65625 3.40625 -0.546875 C 2.8125 -0.109375 1.765625 -0.28125 1.4375 -0.875 C 1.28125 -1.15625 1.265625 -1.46875 1.265625 -1.78125 L 1.265625 -4.84375 L 0.734375 -4.84375 Z M 0.734375 -4.84375 "/>
</symbol>
<symbol overflow="visible" id="glyph2-8">
<path style="stroke:none;" d="M 0.75 -4.84375 L 0.75 0 L 1.234375 0 L 1.234375 -4.40625 L 1.234375 -4.40625 L 1.4375 -4.0625 L 3.015625 -1.3125 C 3.265625 -0.875 3.5 -0.4375 3.75 -0.015625 C 3.96875 0.03125 4.25 -0.015625 4.484375 0 L 4.484375 -4.84375 L 4 -4.84375 L 4 -0.421875 L 2.1875 -3.59375 C 1.953125 -4 1.734375 -4.4375 1.484375 -4.828125 C 1.28125 -4.859375 0.984375 -4.828125 0.75 -4.84375 Z M 0.75 -4.84375 "/>
</symbol>
</g>
<clipPath id="clip1">
  <path d="M -216 667 L 396 667 L 396 -125 L -216 -125 L -216 667 Z M -216 667 "/>
</clipPath>
<clipPath id="clip2">
  <path d="M 0.332031 130.546875 L 178.914063 130.546875 L 178.914063 16.296875 L 0.332031 16.296875 L 0.332031 130.546875 Z M 0.332031 130.546875 "/>
</clipPath>
<clipPath id="clip3">
  <path d="M -216 667 L 396 667 L 396 -125 L -216 -125 L -216 667 Z M -216 667 "/>
</clipPath>
</defs>
<g id="surface0">
<g clip-path="url(#clip1)" clip-rule="nonzero">
<g clip-path="url(#clip2)" clip-rule="nonzero">
<path style="fill:none;stroke-width:5;stroke-linecap:butt;stroke-linejoin:miter;stroke:rgb(13.730068%,12.159915%,12.54902%);stroke-opacity:1;stroke-miterlimit:4;" d="M 178.010862 47.912803 L 1547.758076 47.912803 " transform="matrix(0.110921,0,0,-0.110921,0.333,130.545)"/>
<path style=" stroke:none;fill-rule:nonzero;fill:rgb(13.730068%,12.159915%,12.54902%);fill-opacity:1;" d="M 170.914063 126.820313 L 176.925781 125.210938 L 170.914063 123.597656 L 170.914063 126.820313 "/>
<path style="fill:none;stroke-width:5;stroke-linecap:butt;stroke-linejoin:miter;stroke:rgb(13.730068%,12.159915%,12.54902%);stroke-opacity:1;stroke-miterlimit:4;" d="M 14.711779 971.008676 L 14.711779 50.201878 L 117.72015 50.201878 " transform="matrix(0.110921,0,0,-0.110921,0.333,130.545)"/>
<path style=" stroke:none;fill-rule:nonzero;fill:rgb(13.730068%,12.159915%,12.54902%);fill-opacity:1;" d="M 3.554688 23.9375 L 1.945313 17.925781 L 0.332031 23.9375 L 3.554688 23.9375 "/>
<path style="fill:none;stroke-width:5;stroke-linecap:butt;stroke-linejoin:miter;stroke:rgb(13.730068%,12.159915%,12.54902%);stroke-opacity:1;stroke-miterlimit:4;" d="M 107.64822 83.375856 C 107.64822 83.375856 117.72015 77.84686 117.72015 56.223906 C 117.72015 34.636169 119.199245 21.570833 132.26458 9.984593 " transform="matrix(0.110921,0,0,-0.110921,0.333,130.545)"/>
<path style="fill:none;stroke-width:5;stroke-linecap:butt;stroke-linejoin:miter;stroke:rgb(13.730068%,12.159915%,12.54902%);stroke-opacity:1;stroke-miterlimit:4;" d="M 165.93159 83.375856 C 165.93159 83.375856 176.003519 77.84686 176.003519 56.223906 C 176.003519 34.636169 177.51783 21.570833 190.583166 9.984593 " transform="matrix(0.110921,0,0,-0.110921,0.333,130.545)"/>
<path style="fill:none;stroke-width:5;stroke-linecap:butt;stroke-linejoin:miter;stroke:rgb(13.730068%,12.159915%,12.54902%);stroke-opacity:1;stroke-dasharray:30,20;stroke-miterlimit:4;" d="M 781.41101 881.276939 L 781.41101 49.004516 " transform="matrix(0.110921,0,0,-0.110921,0.333,130.545)"/>
<path style="fill:none;stroke-width:5;stroke-linecap:butt;stroke-linejoin:miter;stroke:rgb(13.730068%,12.159915%,12.54902%);stroke-opacity:1;stroke-miterlimit:4;" d="M 398.9242 704.560356 C 462.877431 704.560356 526.830663 704.560356 590.783894 704.560356 C 618.640175 704.560356 646.496456 704.525139 674.31752 704.560356 C 718.725574 704.630789 735.840811 669.167736 748.976579 630.922576 C 754.505576 614.758186 760.633253 566.828479 781.41101 561.968597 C 807.295165 555.911352 830.080264 701.144352 911.747414 711.145848 C 911.747414 711.145848 923.615387 713.047541 942.491451 713.047541 L 1422.563286 713.047541 " transform="matrix(0.110921,0,0,-0.110921,0.333,130.545)"/>
</g>
</g>
<g clip-path="url(#clip3)" clip-rule="nonzero">
<g style="fill:rgb(0%,0%,0%);fill-opacity:1;">
  <use xlink:href="#glyph0-1" x="157.687" y="129.87"/>
</g>
<g style="fill:rgb(0%,0%,0%);fill-opacity:1;">
  <use xlink:href="#glyph0-1" x="82.954" y="129.87"/>
</g>
<g style="fill:rgb(0%,0%,0%);fill-opacity:1;">
  <use xlink:href="#glyph1-1" x="87.791" y="130.742"/>
</g>
<g style="fill:rgb(0%,0%,0%);fill-opacity:1;">
  <use xlink:href="#glyph2-1" x="1.75" y="5.381"/>
  <use xlink:href="#glyph2-2" x="7.278131" y="5.381"/>
  <use xlink:href="#glyph2-3" x="11.927564" y="5.381"/>
  <use xlink:href="#glyph2-2" x="17.298087" y="5.381"/>
  <use xlink:href="#glyph2-4" x="21.94752" y="5.381"/>
  <use xlink:href="#glyph2-3" x="26.904497" y="5.381"/>
  <use xlink:href="#glyph2-5" x="32.27502" y="5.381"/>
  <use xlink:href="#glyph2-6" x="38.077222" y="5.381"/>
</g>
<g style="fill:rgb(0%,0%,0%);fill-opacity:1;">
  <use xlink:href="#glyph2-4" x="1.75" y="13.351"/>
  <use xlink:href="#glyph2-7" x="6.706977" y="13.351"/>
  <use xlink:href="#glyph2-6" x="11.845273" y="13.351"/>
  <use xlink:href="#glyph2-6" x="16.825961" y="13.351"/>
  <use xlink:href="#glyph2-2" x="21.806649" y="13.351"/>
  <use xlink:href="#glyph2-8" x="26.456081" y="13.351"/>
  <use xlink:href="#glyph2-3" x="31.71084" y="13.351"/>
</g>
</g>
</g>
</svg>
