<?xml version="1.0" encoding="UTF-8" standalone="no"?>
<!-- Created with Inkscape (http://www.inkscape.org/) -->
<svg xmlns:dc="http://purl.org/dc/elements/1.1/" xmlns:cc="http://creativecommons.org/ns#" xmlns:rdf="http://www.w3.org/1999/02/22-rdf-syntax-ns#" xmlns:svg="http://www.w3.org/2000/svg" xmlns="http://www.w3.org/2000/svg" xmlns:xlink="http://www.w3.org/1999/xlink" version="1.1" width="199.6pt" height="129.1pt" viewBox="0 0 143.98877 93.156252" id="svg5446">
  <defs id="defs5448">
    <g id="g5450">
      <g id="glyph0-0"/>
      <g id="glyph0-1">
        <path d="M 3.203,2 C 3.078,1.859 2.937,1.75 2.812,1.609 2.546,1.328 2.328,1.015 2.14,0.671 1.687,-0.157 1.484,-1.11 1.452,-2.048 1.405,-3.189 1.593,-4.361 2.124,-5.376 2.312,-5.735 2.53,-6.048 2.812,-6.345 2.937,-6.47 3.078,-6.595 3.203,-6.736 H 2.89 c -0.172,0 -0.188,0.016 -0.313,0.141 -1.031,0.828 -1.656,2.25 -1.734,3.922 -0.047,1.094 0.141,2.234 0.656,3.203 0.219,0.406 0.5,0.781 0.828,1.125 0.078,0.078 0.313,0.297 0.406,0.328 0.047,0.031 0.109,0.016 0.156,0.016 h 0.313 m 0,0" id="path5454"/>
      </g>
      <g id="glyph0-2">
        <path d="m 0.797,-3.438 c 0.156,-0.063 0.297,-0.172 0.453,-0.25 0.281,-0.141 0.578,-0.203 0.875,-0.203 0.141,-0.016 0.266,-0.016 0.391,0.016 0.188,0.063 0.359,0.188 0.469,0.344 0.219,0.313 0.203,0.625 0.203,1.141 -0.781,0 -1.594,0.141 -2.109,0.453 -0.313,0.188 -0.625,0.5 -0.563,1.016 0.031,0.328 0.188,0.656 0.469,0.844 0.203,0.141 0.438,0.156 0.688,0.141 0.375,-0.031 0.766,-0.109 1.094,-0.297 0.156,-0.094 0.344,-0.219 0.422,-0.391 H 3.205 V 0.001 H 3.799 V -2.343 C 3.799,-2.624 3.83,-2.906 3.768,-3.171 3.721,-3.405 3.612,-3.624 3.471,-3.812 3.143,-4.203 2.69,-4.375 2.049,-4.328 c -0.422,0.016 -0.797,0.125 -1.125,0.281 -0.047,0.016 -0.125,0.031 -0.156,0.094 -0.016,0.031 0,0.109 0,0.156 0.016,0.125 0.031,0.234 0.031,0.359 m 2.391,1.344 v 0.672 c 0,0.156 0,0.313 -0.063,0.469 -0.266,0.609 -1.531,0.781 -1.953,0.188 -0.219,-0.438 0.047,-0.828 0.453,-1.031 0.422,-0.203 0.984,-0.297 1.563,-0.297 m 0,0" id="path5457"/>
      </g>
      <g id="glyph0-3">
        <path d="m 0.531,-6.734 c 0.125,0.141 0.281,0.266 0.406,0.391 0.266,0.297 0.484,0.609 0.672,0.938 0.453,0.844 0.656,1.781 0.688,2.719 C 2.344,-1.53 2.156,-0.373 1.625,0.658 1.437,1.002 1.203,1.33 0.937,1.611 0.812,1.752 0.656,1.861 0.531,2.002 H 0.859 C 1.047,2.002 1.015,1.986 1.156,1.893 1.594,1.534 1.984,1.018 2.25,0.534 2.766,-0.435 2.953,-1.575 2.906,-2.669 2.828,-4.169 2.312,-5.482 1.437,-6.341 1.359,-6.435 1.109,-6.669 1.015,-6.716 0.968,-6.732 0.906,-6.732 0.859,-6.732 H 0.531 m 0,0" id="path5460"/>
      </g>
      <g id="glyph0-4">
        <path d="M 0.734,-6.219 V 0 h 0.609 v -0.594 h 0.016 c 0.125,0.219 0.375,0.438 0.609,0.547 0.656,0.281 1.375,0.031 1.813,-0.484 C 4.312,-1.156 4.437,-2.047 4.25,-2.828 4.109,-3.391 3.766,-3.953 3.266,-4.187 2.797,-4.406 2.219,-4.296 1.782,-4.031 1.626,-3.922 1.438,-3.781 1.344,-3.609 H 1.328 V -6.218 H 0.734 m 1.516,2.391 c 0.453,-0.031 0.938,0.172 1.188,0.563 0.188,0.266 0.25,0.594 0.281,0.906 0.016,0.531 -0.031,1.094 -0.391,1.5 C 3.187,-0.702 2.984,-0.577 2.797,-0.499 2.281,-0.327 1.813,-0.374 1.5,-0.796 1.437,-0.859 1.375,-0.952 1.359,-1.046 1.343,-1.093 1.343,-1.14 1.343,-1.202 v -1.797 c 0,-0.078 -0.016,-0.188 0.031,-0.281 0.156,-0.313 0.531,-0.516 0.875,-0.547 m 0,0" id="path5463"/>
      </g>
      <g id="glyph0-5">
        <path d="M 3.969,-1.016 C 3.86,-0.938 3.781,-0.86 3.672,-0.782 3.141,-0.454 2.328,-0.266 1.703,-0.641 1.062,-1.063 0.937,-1.954 1.078,-2.641 1.141,-2.922 1.25,-3.188 1.437,-3.407 1.718,-3.72 2.031,-3.845 2.578,-3.845 c 0.438,0.016 0.766,0.109 1.094,0.281 0.063,0.047 0.125,0.094 0.203,0.125 0.016,-0.125 0.047,-0.25 0.063,-0.375 C 3.969,-3.955 3.969,-3.97 3.844,-4.033 3.516,-4.205 3.141,-4.314 2.703,-4.33 2.5,-4.346 2.281,-4.346 2.078,-4.314 c -0.969,0.188 -1.641,1.141 -1.656,2.109 -0.016,0.672 0.219,1.328 0.734,1.797 0.25,0.203 0.453,0.313 0.813,0.422 0.563,0.141 1.234,0 1.625,-0.219 C 3.672,-0.252 3.969,-0.408 4,-0.486 4.031,-0.533 3.969,-1.017 3.969,-1.017 m 0,0" id="path5466"/>
      </g>
      <g id="glyph1-0"/>
      <g id="glyph1-1">
        <path d="m 0.281,-4.813 v 0.406 h 2.141 v 4.406 H 2.953 V -4.407 H 5.078 V -4.813 H 0.281 m 0,0" id="path5470"/>
      </g>
      <g id="glyph1-2">
        <path d="m 0.578,-3.297 v 2.375 c 0,0.297 0.031,0.547 0.203,0.75 0.25,0.297 0.781,0.266 1.125,0.156 0.344,-0.078 0.719,-0.328 0.828,-0.578 H 2.75 V 0 h 0.484 v -3.297 h -0.5 v 1.672 c 0,0.406 0.031,0.75 -0.234,1.031 -0.25,0.234 -0.578,0.297 -0.922,0.266 -0.141,0 -0.313,-0.016 -0.406,-0.141 C 1.094,-0.563 1.094,-0.703 1.094,-0.828 V -3.297 H 0.578 m 0,0" id="path5473"/>
      </g>
      <g id="glyph1-3">
        <path d="M 0.578,-4.844 V 0 h 0.516 v -0.469 l 0,0 C 1.157,-0.36 1.266,-0.266 1.36,-0.188 1.673,0.062 2.188,0.14 2.641,-0.079 2.844,-0.188 3.016,-0.36 3.157,-0.548 3.845,-1.501 3.423,-3.095 2.454,-3.314 2.329,-3.361 2.173,-3.361 2.032,-3.33 1.626,-3.283 1.313,-3.08 1.079,-2.83 v -2.02 h -0.5 m 1.234,1.891 c 0.328,-0.031 0.703,0.109 0.922,0.375 0.172,0.219 0.234,0.5 0.234,0.766 0.031,0.375 -0.016,0.781 -0.25,1.078 -0.203,0.266 -0.531,0.375 -0.844,0.406 -0.266,0 -0.5,-0.094 -0.672,-0.313 -0.031,-0.047 -0.078,-0.109 -0.109,-0.172 0,-0.047 0,-0.094 0,-0.125 v -1.391 c 0,-0.063 -0.016,-0.141 0.016,-0.203 0.031,-0.078 0.094,-0.125 0.156,-0.188 0.156,-0.125 0.344,-0.219 0.547,-0.234 m 0,0" id="path5476"/>
      </g>
      <g id="glyph1-4">
        <path d="M 3.141,-0.797 C 3.094,-0.766 3.047,-0.719 3,-0.688 2.594,-0.391 1.875,-0.141 1.328,-0.532 0.984,-0.782 0.781,-1.157 0.781,-1.735 h 2.422 c 0,-0.516 -0.125,-1 -0.422,-1.297 C 2.437,-3.345 1.906,-3.438 1.468,-3.329 1.28,-3.282 1.109,-3.188 0.952,-3.063 0.514,-2.719 0.296,-2.172 0.296,-1.61 0.312,-0.829 0.89,-0.11 1.671,0.031 2.062,0.109 2.484,0.015 2.843,-0.157 2.906,-0.188 3.14,-0.313 3.156,-0.376 3.187,-0.407 3.156,-0.704 3.14,-0.798 M 2.781,-2.048 H 0.812 c 0.094,-0.313 0.25,-0.609 0.531,-0.797 0.344,-0.219 0.859,-0.188 1.156,0.125 0.172,0.188 0.25,0.422 0.281,0.672 m 0,0" id="path5479"/>
      </g>
      <g id="glyph1-5">
        <path d="m 0.297,-0.719 c -0.016,0.094 -0.031,0.203 -0.063,0.313 0,0.031 -0.031,0.094 0,0.125 0.016,0.047 0.094,0.078 0.141,0.094 0.313,0.141 0.578,0.203 0.984,0.234 0.5,0.047 1.094,-0.063 1.344,-0.563 0.047,-0.125 0.078,-0.266 0.078,-0.406 0,-0.094 0,-0.188 -0.031,-0.266 C 2.641,-1.516 2.359,-1.735 2.062,-1.844 1.89,-1.907 1.718,-1.938 1.546,-1.969 1.296,-2.016 0.983,-2.047 0.812,-2.266 0.671,-2.422 0.703,-2.641 0.843,-2.797 1.015,-2.969 1.281,-3 1.609,-2.985 c 0.297,0.016 0.547,0.078 0.781,0.188 0.063,0.016 0.125,0.063 0.188,0.078 L 2.656,-3.141 C 2.312,-3.297 2,-3.375 1.515,-3.375 c -0.422,0 -0.781,0.094 -1.016,0.328 -0.234,0.25 -0.313,0.656 -0.156,0.969 0.141,0.266 0.422,0.438 0.703,0.531 0.406,0.109 0.938,0.094 1.172,0.391 0.156,0.172 0.141,0.438 -0.031,0.594 C 2.109,-0.468 1.984,-0.406 1.859,-0.39 1.328,-0.265 0.75,-0.468 0.421,-0.64 0.374,-0.671 0.327,-0.703 0.296,-0.718 m 0,0" id="path5482"/>
      </g>
      <g id="glyph1-6">
        <path d="m 0.703,-2.781 c -0.453,0.547 -0.563,1.359 -0.203,2 0.281,0.5 0.859,0.906 1.609,0.828 C 2.75,-0.016 3.281,-0.484 3.468,-1 3.734,-1.703 3.531,-2.531 2.952,-3.02 2.796,-3.145 2.624,-3.223 2.436,-3.301 1.717,-3.535 1.061,-3.223 0.702,-2.785 m 1.547,-0.172 c 0.109,0.031 0.203,0.078 0.297,0.125 0.438,0.25 0.547,0.813 0.516,1.281 -0.016,0.328 -0.094,0.641 -0.328,0.875 -0.391,0.422 -1.203,0.438 -1.609,0 C 0.906,-0.91 0.828,-1.223 0.797,-1.551 0.766,-2.004 0.86,-2.395 1.094,-2.645 1.36,-2.926 1.782,-3.051 2.25,-2.958 m 0,0" id="path5485"/>
      </g>
      <g id="glyph1-7">
        <path d="M 0.578,-4.844 V 0 h 0.5 v -4.844 h -0.5 m 0,0" id="path5488"/>
      </g>
      <g id="glyph1-8">
        <path d="m 0.578,-4.844 v 0.5 h 0.5 v -0.5 h -0.5 m 0,1.547 V 0 h 0.5 v -3.297 h -0.5 m 0,0" id="path5491"/>
      </g>
      <g id="glyph1-9">
        <path d="m 2.734,-4.844 v 2 l 0,0 C 2.703,-2.907 2.656,-2.938 2.609,-2.985 2.328,-3.282 1.734,-3.469 1.25,-3.251 1.078,-3.173 0.937,-3.079 0.812,-2.938 0.281,-2.391 0.187,-1.485 0.499,-0.813 0.687,-0.375 1.093,0.031 1.593,0.062 1.984,0.078 2.312,-0.094 2.515,-0.282 2.593,-0.36 2.656,-0.438 2.718,-0.516 V 0 h 0.516 v -4.844 h -0.5 m -0.797,1.891 c 0.234,-0.016 0.469,0.047 0.641,0.234 0.047,0.031 0.094,0.094 0.125,0.156 0.031,0.063 0.016,0.141 0.016,0.219 v 1.375 c 0,0.172 -0.016,0.172 -0.125,0.297 C 2.453,-0.484 2.25,-0.359 2,-0.328 1.641,-0.312 1.25,-0.469 1.047,-0.781 0.906,-0.984 0.859,-1.234 0.844,-1.484 c -0.031,-0.328 0,-0.703 0.188,-0.984 0.203,-0.313 0.547,-0.453 0.906,-0.484 m 0,0" id="path5494"/>
      </g>
      <g id="glyph1-10">
        <path d="m 2.719,-0.531 0,0 v 1.688 h 0.516 v -4.5 h -0.5 v 0.625 C 2.641,-2.906 2.501,-3.062 2.329,-3.171 1.782,-3.53 1.079,-3.296 0.688,-2.765 0.235,-2.156 0.219,-1.265 0.594,-0.624 0.813,-0.265 1.172,0.017 1.61,0.064 2.141,0.095 2.548,-0.249 2.719,-0.53 M 2.188,-2.921 c 0.25,0.063 0.406,0.281 0.5,0.516 0.063,0.109 0.047,0.203 0.047,0.359 v 0.844 c 0,0.25 0.016,0.281 -0.109,0.469 -0.141,0.219 -0.359,0.375 -0.625,0.406 -0.063,0 -0.125,0 -0.188,-0.016 C 1.313,-0.39 0.969,-0.859 0.86,-1.327 0.766,-1.843 0.923,-2.421 1.376,-2.733 1.564,-2.874 1.892,-2.999 2.189,-2.921 m 0,0" id="path5497"/>
      </g>
    </g>
    <clipPath id="clip1">
      <path d="m -225,666 h 612 v -792 h -612 v 792 m 0,0" id="path5500"/>
    </clipPath>
    <clipPath id="clip2">
      <path d="m -0.164,333.34 h 161.57 V -1.2 H -0.164 v 334.54 m 0,0" id="path5503"/>
    </clipPath>
  </defs>
  <g transform="translate(-6.5061,0)" id="g13565">
    <path d="m 16.392342,55.154191 4.648505,-0.664116 4.66808,-0.621134 4.683616,-0.570278 4.69501,-0.488248 4.699152,-0.390578 2.35548,-0.156293 2.351544,-0.132782 2.347712,-0.105438 2.351544,-0.06245 2.347712,-0.03128 h 2.347712 c 3.484436,0.03128 14.723044,-0.765619 16.652628,3.472629 3.933636,8.624607 -17.308252,11.585787 -21.839614,12.902213 -9.7691,2.839895 -19.718418,7.449249 -26.093398,15.671782" id="path5510" style="fill:none;stroke:#000000;stroke-width:0.51787001;stroke-miterlimit:10"/>
    <path d="m 13.630024,42.899315 6.367729,-0.777322 6.417963,-0.671885 3.222187,-0.293011 3.22633,-0.257796 3.234616,-0.214812 3.234616,-0.167997 3.238759,-0.132782 3.238759,-0.07426 3.234616,-0.02734 3.230473,0.02734 3.222187,0.08203 3.210794,0.156293 3.207066,0.218749 3.191425,0.289075 c 9.718349,0.992239 26.366834,2.714674 22.398914,16.507624 -2.863304,9.945175 -14.42993,14.511753 -23.003786,18.187594 -11.42214,4.910443 -23.632479,9.60131 -33.609763,17.203642" id="path5512" style="fill:none;stroke:#000000;stroke-width:0.51787001;stroke-miterlimit:10"/>
    <path d="m 7.5906237,33.399508 3.1874903,-0.121078 3.097691,-0.125014 3.011932,-0.125014 2.917679,-0.105438 2.83596,-0.109374 2.749993,-0.09373 2.664027,-0.105439 2.585932,-0.08203 2.500276,-0.09374 2.425807,-0.07033 2.347712,-0.07426 2.273449,-0.07033 2.199187,-0.06245 2.125028,-0.05075 2.058637,-0.05469 1.984477,-0.05075 1.92192,-0.03128 1.851592,-0.03128 3.519548,-0.05075 3.273456,-0.01958 h 3.043004 l 2.824463,0.03128 2.621148,0.05862 2.425806,0.08597 2.246106,0.11331 2.081837,0.132781 1.925752,0.175765 1.789034,0.195341 1.656251,0.230452 1.542942,0.257796 1.44144,0.289075 1.347497,0.320354 1.277378,0.35153 1.207052,0.386746 1.160132,0.421857 2.214827,0.933201 2.168011,1.078102 2.218762,1.218755 C 107.02135,45.352565 99.53606,65.540174 90.029002,73.505014 79.78657,82.07887 66.114802,85.69671 54.966096,92.95414" id="path5514" style="fill:none;stroke:#000000;stroke-width:0.51787001;stroke-miterlimit:10"/>
    <path d="m 9.1421622,20.114071 8.9995448,-0.570278 9.062725,-0.406218 4.542963,-0.121078 4.550834,-0.08203 4.554667,-0.02341 4.554667,0.04298 4.550834,0.101606 4.546899,0.175766 4.53913,0.250027 4.523491,0.332058 4.515619,0.402385 4.496148,0.507824 4.476468,0.589854 4.453164,0.683588 c 12.945714,2.1445 31.824144,6.20315 35.151984,21.261671 3.39453,15.320666 -9.60131,32.348231 -19.312412,42.789526" id="path5516" style="fill:none;stroke:#000000;stroke-width:0.51787001;stroke-miterlimit:10"/>
    <path d="m 22.258774,7.6851911 8.652571,-0.082031 8.679502,0.062455 8.695348,0.2148124 8.691412,0.4140889 4.34379,0.2812034 4.335918,0.3320582 4.328151,0.3828095 4.320278,0.4531363 4.308575,0.5078232 4.296871,0.570278 4.281749,0.640605 4.265178,0.714868 c 11.711113,2.042997 27.938053,4.672223 35.671923,14.761367 13.85923,18.074698 0.34376,44.597928 -10.27351,60.496537" id="path5518" style="fill:none;stroke:#000000;stroke-width:0.51787001;stroke-miterlimit:10"/>
    <path d="m 78.536742,0.25893534 3.695313,0.4218569 3.777344,0.47654396 3.839488,0.5508065 3.89459,0.597622 3.921933,0.6835884 3.94099,0.757851 3.93788,0.8398816 3.92194,0.9296802 3.89065,1.0156466 3.84363,1.1289566 3.76906,1.2226911 3.68755,1.3358978 3.59381,1.449207 3.46879,1.574221 1.68753,0.839882 1.65626,0.859353 1.6172,0.898401 1.57422,0.933202 c 21.61693,13.183934 7.25008,44.910722 7.25008,67.894828" id="path5520" style="fill:none;stroke:#000000;stroke-width:0.51787001;stroke-miterlimit:10"/>
    <path d="m 36.591506,71.17188 -4.121,4.094 5.617,-1.48 -1.496,-2.609" id="path5522"/>
    <path d="m 36.591344,71.172946 -4.121106,4.093762 5.616818,-1.480486 -1.496127,-2.60903 v -0.0039 m 0,0" id="path5524" style="fill:none;stroke:#000000;stroke-width:1.00000691;stroke-miterlimit:10"/>
    <path d="m 54.122506,78.28188 -4.355,3.844 5.699,-1.148 -1.344,-2.695" id="path5526"/>
    <path d="m 54.122279,78.279158 -4.355287,3.843631 5.699677,-1.148635 -1.343769,-2.694996 0,0 m 0,0" id="path5528" style="fill:none;stroke:#000000;stroke-width:1.00000691;stroke-miterlimit:10"/>
    <path d="m 79.126506,78.91188 -4.305,3.906 5.68,-1.234 -1.375,-2.672" id="path5530"/>
    <path d="m 79.126078,78.911995 -4.304742,3.906294 5.679687,-1.234395 -1.375048,-2.671899 0,0 m 0,0" id="path5532" style="fill:none;stroke:#000000;stroke-width:1.00000691;stroke-miterlimit:10"/>
    <path d="m 35.575506,51.16188 5.605,1.16 -5.605,1.82 v -2.98" id="path5534"/>
    <path d="m 35.575283,51.165556 5.605425,1.160133 -5.605425,1.820313 v -2.980446 m 0,0" id="path5536" style="fill:none;stroke:#000000;stroke-width:1.00000691;stroke-miterlimit:10"/>
    <path d="m 41.095506,39.02188 5.609,1.285 -5.609,1.699 v -2.984" id="path5538"/>
    <path d="m 41.094741,39.024612 5.609568,1.285146 -5.609568,1.699235 v -2.984381 m 0,0" id="path5540" style="fill:none;stroke:#000000;stroke-width:1.00000691;stroke-miterlimit:10"/>
    <path d="m 45.377506,30.55688 5.613,1.406 -5.613,1.566 v -2.973" id="path5542"/>
    <path d="m 45.380633,30.556402 5.613711,1.406224 -5.613711,1.566039 v -2.972677 m 0,0" id="path5544" style="fill:none;stroke:#000000;stroke-width:1.00000691;stroke-miterlimit:10"/>
    <path d="m 49.044506,17.54588 5.609,1.688 -5.609,1.285 v -2.973" id="path5546"/>
    <path d="m 49.044046,17.5444 5.609568,1.687531 -5.609568,1.285147 V 17.5444 m 0,0" id="path5548" style="fill:none;stroke:#000000;stroke-width:1.00000691;stroke-miterlimit:10"/>
    <path d="m 60.347506,7.6158797 5.613,1.273 -5.613,1.7070003 V 7.6158797" id="path5550"/>
    <path d="m 60.349148,7.6147608 5.613711,1.2734424 -5.613711,1.7070028 V 7.6147608 m 0,0" id="path5552" style="fill:none;stroke:#000000;stroke-width:1.00000691;stroke-miterlimit:10"/>
    <path d="m 93.617506,0.79987966 5.227,2.40200004 -5.836,0.508 0.609,-2.91000004" id="path5554"/>
    <path d="m 93.622295,0.79855588 5.226344,2.40188102 -5.836395,0.5078234 0.609326,-2.91042944 0,0 m 0,0" id="path5556" style="fill:none;stroke:#000000;stroke-width:1.00000691;stroke-miterlimit:10"/>
    <path d="m 108.56751,69.11188 -1.766,5.539 4.301,-3.914 -2.535,-1.625" id="path5558"/>
    <path d="m 108.56388,69.114931 -1.76594,5.539137 4.30081,-3.914061 -2.53518,-1.624973 0,0 m 0,0" id="path5560" style="fill:none;stroke:#000000;stroke-width:1.00000691;stroke-miterlimit:10"/>
    <path d="m 69.917506,58.13188 -3.375,4.746 5.293,-2.414 -1.918,-2.332" id="path5562"/>
    <path d="m 69.915242,58.134015 -3.375062,4.746071 5.292631,-2.414102 -1.917983,-2.332073 0,0 m 0,0" id="path5564" style="fill:none;stroke:#000000;stroke-width:1.00000691;stroke-miterlimit:10"/>
    <path d="m 125.92751,67.97188 -0.992,5.727 3.719,-4.461 -2.727,-1.266" id="path5566"/>
    <path d="m 125.93117,67.974581 -0.99224,5.726606 3.71872,-4.460932 -2.72658,-1.265674 m 0,0" id="path5568" style="fill:none;stroke:#000000;stroke-width:1.00000691;stroke-miterlimit:10"/>
    <path d="m 146.38751,63.58488 0.547,5.789 2.426,-5.293 -2.973,-0.496" id="path5570"/>
    <path d="m 146.38807,63.583043 0.54687,5.789062 2.42581,-5.292632 -2.97268,-0.496119 0,0 m 0,0" id="path5572" style="fill:none;stroke:#000000;stroke-width:1.00000691;stroke-miterlimit:10"/>
    <path d="m 147.04751,30.06188 2.699,5.137 0.23,-5.797 -2.93,0.66" id="path5594"/>
    <path d="m 147.05301,30.056139 2.69914,5.136753 0.23046,-5.796933 -2.93011,0.66018 m 0,0" id="path5596" style="fill:none;stroke:#000000;stroke-width:1.00000691;stroke-miterlimit:10"/>
    <path d="m 130.61751,37.27588 2.332,5.324 0.652,-5.781 -2.984,0.457" id="path5598"/>
    <path d="m 130.62307,37.275247 2.33207,5.32474 0.65231,-5.781294 -2.98438,0.457072 m 0,0" id="path5600" style="fill:none;stroke:#000000;stroke-width:1.00000691;stroke-miterlimit:10"/>
    <path d="m 115.16751,43.25188 2.043,5.438 0.961,-5.727 -3,0.289" id="path5602"/>
    <path d="m 115.16983,43.251467 2.043,5.437635 0.96096,-5.726606 -3.00365,0.289075 m 0,0" id="path5604" style="fill:none;stroke:#000000;stroke-width:1.00000691;stroke-miterlimit:10"/>
    <path d="m 99.477506,47.70588 1.418004,5.613 1.59,-5.613 h -3.010004" id="path5606"/>
    <path d="m 99.482512,47.704113 1.417928,5.613711 1.58986,-5.613711 h -3.007788 l 0,0 m 0,0" id="path5608" style="fill:none;stroke:#000000;stroke-width:1.00000691;stroke-miterlimit:10"/>
    <path d="m 86.327506,50.81488 1.504,5.621 1.504,-5.621 h -3.01" id="path5610"/>
    <path d="m 86.325507,50.813405 1.503894,5.620961 1.503895,-5.620961 h -3.007789 l 0,0 m 0,0" id="path5612" style="fill:none;stroke:#000000;stroke-width:1.00000691;stroke-miterlimit:10"/>
    <use transform="translate(5.6635065,9.5888797)" id="use7722" x="0" y="0" width="160" height="333" xlink:href="#glyph0-1"/>
    <use transform="translate(9.4215065,9.5888797)" id="use7724" x="0" y="0" width="160" height="333" xlink:href="#glyph0-2"/>
    <use transform="translate(13.948506,9.5888797)" id="use7726" x="0" y="0" width="160" height="333" xlink:href="#glyph0-3"/>
  </g>
</svg>
