<?xml version="1.0" encoding="UTF-8"?>
<svg xmlns="http://www.w3.org/2000/svg" xmlns:xlink="http://www.w3.org/1999/xlink" width="197pt" height="301pt" viewBox="0 0 142 217" version="1.1">
<defs>
<g>
<symbol overflow="visible" id="glyph0-0">
<path style="stroke:none;" d=""/>
</symbol>
<symbol overflow="visible" id="glyph0-1">
<path style="stroke:none;" d="M 2.578125 1.546875 C 2.546875 1.5 2.5 1.46875 2.453125 1.4375 C 1.6875 0.75 1.21875 -0.3125 1.171875 -1.59375 C 1.140625 -2.46875 1.296875 -3.375 1.703125 -4.15625 C 1.90625 -4.53125 2.140625 -4.84375 2.453125 -5.109375 C 2.5 -5.15625 2.546875 -5.1875 2.578125 -5.21875 L 2.328125 -5.21875 C 2.171875 -5.21875 2.1875 -5.21875 2.078125 -5.140625 C 1.71875 -4.859375 1.421875 -4.484375 1.1875 -4.0625 C 0.53125 -2.828125 0.484375 -1.15625 1.09375 0.1875 C 1.3125 0.6875 1.65625 1.109375 2.078125 1.46875 C 2.171875 1.53125 2.171875 1.546875 2.328125 1.546875 L 2.578125 1.546875 Z M 2.578125 1.546875 "/>
</symbol>
<symbol overflow="visible" id="glyph0-2">
<path style="stroke:none;" d="M 0.640625 -2.640625 C 0.765625 -2.703125 0.859375 -2.78125 0.984375 -2.84375 C 1.203125 -2.9375 1.4375 -2.984375 1.6875 -3 C 1.75 -3.015625 1.828125 -3.015625 1.90625 -3.015625 C 2.1875 -2.96875 2.421875 -2.78125 2.5 -2.515625 C 2.578125 -2.3125 2.546875 -2.0625 2.546875 -1.859375 C 2.1875 -1.859375 1.8125 -1.828125 1.453125 -1.734375 C 0.953125 -1.609375 0.328125 -1.359375 0.390625 -0.71875 C 0.4375 -0.4375 0.59375 -0.15625 0.859375 -0.015625 C 1.03125 0.0625 1.234375 0.0625 1.4375 0.046875 C 1.734375 0.015625 2.0625 -0.0625 2.3125 -0.25 C 2.40625 -0.3125 2.484375 -0.390625 2.5625 -0.46875 L 2.5625 0 L 3.046875 0 L 3.046875 -1.828125 C 3.046875 -2.015625 3.078125 -2.21875 3.03125 -2.421875 C 2.96875 -2.90625 2.53125 -3.265625 2.078125 -3.359375 C 1.796875 -3.40625 1.359375 -3.34375 1.125 -3.296875 C 1.046875 -3.265625 0.65625 -3.140625 0.625 -3.078125 C 0.59375 -3.046875 0.609375 -2.984375 0.609375 -2.953125 C 0.625 -2.84375 0.640625 -2.75 0.640625 -2.640625 Z M 2.546875 -1.625 L 2.546875 -1.109375 C 2.546875 -0.96875 2.546875 -0.84375 2.484375 -0.71875 C 2.40625 -0.578125 2.265625 -0.46875 2.109375 -0.421875 C 1.78125 -0.296875 1.328125 -0.28125 1.046875 -0.515625 C 0.96875 -0.5625 0.90625 -0.640625 0.890625 -0.75 C 0.8125 -1.046875 1.078125 -1.28125 1.3125 -1.390625 C 1.640625 -1.546875 2.109375 -1.625 2.546875 -1.625 Z M 2.546875 -1.625 "/>
</symbol>
<symbol overflow="visible" id="glyph0-3">
<path style="stroke:none;" d="M 0.4375 -5.21875 C 0.46875 -5.1875 0.515625 -5.15625 0.5625 -5.109375 C 1.421875 -4.34375 1.890625 -3.109375 1.828125 -1.59375 C 1.8125 -0.84375 1.625 -0.09375 1.265625 0.5625 C 1.078125 0.890625 0.84375 1.1875 0.5625 1.4375 C 0.515625 1.46875 0.46875 1.5 0.4375 1.546875 L 0.6875 1.546875 C 0.84375 1.546875 0.828125 1.546875 0.921875 1.46875 C 1.296875 1.171875 1.59375 0.796875 1.8125 0.390625 C 2.484375 -0.859375 2.53125 -2.515625 1.921875 -3.859375 C 1.6875 -4.375 1.359375 -4.796875 0.9375 -5.140625 C 0.84375 -5.21875 0.84375 -5.21875 0.6875 -5.21875 L 0.4375 -5.21875 Z M 0.4375 -5.21875 "/>
</symbol>
<symbol overflow="visible" id="glyph0-4">
<path style="stroke:none;" d="M 0.21875 0 L 0.578125 0 C 0.625 0 0.6875 0.015625 0.71875 -0.015625 C 0.75 -0.03125 0.75 -0.0625 0.765625 -0.09375 C 0.875 -0.34375 1.21875 -1.203125 1.265625 -1.296875 C 1.28125 -1.359375 1.296875 -1.390625 1.375 -1.390625 L 3.046875 -1.390625 C 3.234375 -1.390625 3.421875 -1.40625 3.609375 -1.390625 C 3.6875 -1.390625 3.703125 -1.296875 3.734375 -1.234375 C 3.8125 -1.03125 4.1875 -0.125 4.203125 -0.0625 C 4.234375 0.015625 4.296875 0 4.40625 0 L 4.796875 0 C 4.625 -0.453125 4.4375 -0.890625 4.25 -1.34375 L 2.8125 -4.828125 C 2.796875 -4.859375 2.796875 -4.90625 2.765625 -4.90625 C 2.71875 -4.90625 2.671875 -4.90625 2.625 -4.90625 L 2.375 -4.90625 C 2.328125 -4.90625 2.265625 -4.921875 2.234375 -4.890625 C 2.203125 -4.875 2.1875 -4.84375 2.1875 -4.8125 L 0.765625 -1.34375 L 0.40625 -0.484375 C 0.34375 -0.328125 0.265625 -0.171875 0.21875 0 Z M 2.484375 -4.328125 C 2.796875 -3.46875 3.15625 -2.640625 3.5 -1.8125 L 1.46875 -1.8125 C 1.796875 -2.640625 2.15625 -3.46875 2.46875 -4.328125 L 2.484375 -4.328125 Z M 2.484375 -4.328125 "/>
</symbol>
<symbol overflow="visible" id="glyph0-5">
<path style="stroke:none;" d="M 1.078125 -2.625 L 1.0625 -2.625 L 1.0625 -3.296875 L 0.578125 -3.296875 L 0.578125 0 L 1.09375 0 L 1.09375 -1.53125 C 1.09375 -1.875 1.0625 -2.203125 1.21875 -2.515625 C 1.296875 -2.671875 1.421875 -2.8125 1.609375 -2.90625 C 1.734375 -2.96875 1.875 -2.96875 2.015625 -2.953125 C 2.25 -2.9375 2.484375 -2.875 2.609375 -2.6875 C 2.71875 -2.53125 2.734375 -2.34375 2.734375 -2.15625 L 2.734375 0 L 3.234375 0 L 3.234375 -1.875 C 3.234375 -2.21875 3.28125 -2.609375 3.09375 -2.921875 C 2.953125 -3.171875 2.6875 -3.296875 2.40625 -3.328125 C 2.078125 -3.375 1.765625 -3.3125 1.484375 -3.125 C 1.328125 -3.015625 1.140625 -2.796875 1.078125 -2.625 Z M 1.078125 -2.625 "/>
</symbol>
<symbol overflow="visible" id="glyph0-6">
<path style="stroke:none;" d="M 0.109375 -3.296875 C 0.203125 -3.015625 0.34375 -2.75 0.453125 -2.46875 C 0.53125 -2.296875 1.5 -0.0625 1.5 -0.015625 C 1.515625 0.046875 1.390625 0.296875 1.390625 0.3125 C 1.3125 0.5 1.203125 0.71875 1 0.796875 C 0.796875 0.90625 0.34375 0.78125 0.1875 0.734375 L 0.21875 1.171875 C 0.390625 1.1875 0.734375 1.234375 0.890625 1.21875 C 1.40625 1.171875 1.640625 0.65625 1.796875 0.28125 L 2.015625 -0.234375 L 2.875 -2.328125 L 3.140625 -2.953125 C 3.1875 -3.0625 3.25 -3.171875 3.28125 -3.296875 L 2.9375 -3.296875 C 2.90625 -3.296875 2.828125 -3.296875 2.796875 -3.28125 C 2.78125 -3.25 2.703125 -3.0625 2.703125 -3.0625 L 2.5 -2.546875 L 1.984375 -1.296875 C 1.890625 -1.03125 1.78125 -0.78125 1.71875 -0.515625 C 1.640625 -0.796875 1.53125 -1.078125 1.421875 -1.359375 L 0.703125 -3.078125 L 0.640625 -3.21875 C 0.609375 -3.296875 0.578125 -3.296875 0.453125 -3.296875 L 0.109375 -3.296875 Z M 0.109375 -3.296875 "/>
</symbol>
<symbol overflow="visible" id="glyph0-7">
<path style="stroke:none;" d="M 4.515625 -0.796875 C 4.125 -0.578125 3.875 -0.375 3.296875 -0.359375 C 3.09375 -0.359375 2.875 -0.34375 2.671875 -0.390625 C 2.109375 -0.5 1.640625 -0.890625 1.375 -1.390625 C 0.890625 -2.28125 1.125 -3.5 1.953125 -4.125 C 2.09375 -4.21875 2.234375 -4.3125 2.390625 -4.375 C 2.859375 -4.53125 3.421875 -4.515625 3.890625 -4.34375 C 4.0625 -4.265625 4.21875 -4.1875 4.375 -4.109375 C 4.40625 -4.28125 4.453125 -4.46875 4.46875 -4.640625 C 4.328125 -4.703125 4.171875 -4.75 4 -4.78125 C 3.671875 -4.859375 3.171875 -4.921875 2.796875 -4.890625 C 2.078125 -4.828125 1.46875 -4.421875 1.109375 -3.9375 C 0.640625 -3.34375 0.484375 -2.546875 0.65625 -1.8125 C 0.953125 -0.6875 1.90625 0.125 3.28125 0.046875 C 3.734375 0.03125 4.015625 -0.0625 4.375 -0.234375 C 4.40625 -0.265625 4.53125 -0.3125 4.546875 -0.34375 C 4.5625 -0.390625 4.515625 -0.6875 4.515625 -0.796875 Z M 4.515625 -0.796875 "/>
</symbol>
<symbol overflow="visible" id="glyph0-8">
<path style="stroke:none;" d="M 0.578125 -4.84375 L 0.578125 -4.34375 L 1.078125 -4.34375 L 1.078125 -4.84375 L 0.578125 -4.84375 Z M 0.578125 -3.296875 L 0.578125 0 L 1.078125 0 L 1.078125 -3.296875 L 0.578125 -3.296875 Z M 0.578125 -3.296875 "/>
</symbol>
<symbol overflow="visible" id="glyph0-9">
<path style="stroke:none;" d="M 1.0625 -2.453125 L 1.0625 -2.453125 L 1.0625 -3.296875 L 0.578125 -3.296875 L 0.578125 0 L 1.078125 0 L 1.078125 -1.3125 C 1.078125 -1.578125 1.046875 -1.859375 1.15625 -2.109375 C 1.28125 -2.46875 1.609375 -2.703125 1.953125 -2.828125 C 2.109375 -2.875 2.28125 -2.90625 2.453125 -2.90625 L 2.453125 -3.34375 C 2 -3.34375 1.5625 -3.140625 1.28125 -2.796875 C 1.203125 -2.6875 1.109375 -2.578125 1.0625 -2.453125 Z M 1.0625 -2.453125 "/>
</symbol>
<symbol overflow="visible" id="glyph0-10">
<path style="stroke:none;" d="M 3.1875 -0.796875 C 3.125 -0.765625 3.078125 -0.71875 3.03125 -0.6875 C 2.9375 -0.625 2.84375 -0.5625 2.734375 -0.515625 C 2.3125 -0.3125 1.671875 -0.265625 1.296875 -0.5625 C 1.03125 -0.75 0.859375 -1.109375 0.84375 -1.5 C 0.8125 -1.953125 0.921875 -2.453125 1.296875 -2.75 C 1.5 -2.90625 1.765625 -3 2.140625 -2.96875 C 2.46875 -2.9375 2.65625 -2.890625 2.921875 -2.75 C 2.984375 -2.71875 3.03125 -2.671875 3.09375 -2.65625 L 3.171875 -3.078125 C 3.015625 -3.15625 2.875 -3.234375 2.703125 -3.28125 C 2.296875 -3.421875 1.671875 -3.40625 1.3125 -3.234375 C 0.96875 -3.078125 0.6875 -2.796875 0.515625 -2.46875 C 0.265625 -1.96875 0.265625 -1.359375 0.515625 -0.84375 C 0.609375 -0.65625 0.734375 -0.484375 0.90625 -0.34375 C 1.375 0.09375 2.09375 0.140625 2.6875 -0.0625 C 2.828125 -0.125 2.953125 -0.1875 3.078125 -0.265625 C 3.125 -0.296875 3.1875 -0.328125 3.203125 -0.359375 C 3.21875 -0.40625 3.1875 -0.796875 3.1875 -0.796875 Z M 3.1875 -0.796875 "/>
</symbol>
<symbol overflow="visible" id="glyph0-11">
<path style="stroke:none;" d="M 0.578125 -3.296875 L 0.578125 -0.921875 C 0.578125 -0.625 0.609375 -0.375 0.78125 -0.171875 C 1.03125 0.125 1.5625 0.09375 1.90625 -0.015625 C 2.25 -0.09375 2.625 -0.34375 2.734375 -0.59375 L 2.75 -0.59375 L 2.75 0 L 3.234375 0 L 3.234375 -3.296875 L 2.734375 -3.296875 L 2.734375 -1.625 C 2.734375 -1.21875 2.765625 -0.875 2.5 -0.59375 C 2.25 -0.359375 1.921875 -0.296875 1.578125 -0.328125 C 1.4375 -0.328125 1.265625 -0.34375 1.171875 -0.46875 C 1.09375 -0.5625 1.09375 -0.703125 1.09375 -0.828125 L 1.09375 -3.296875 L 0.578125 -3.296875 Z M 0.578125 -3.296875 "/>
</symbol>
<symbol overflow="visible" id="glyph0-12">
<path style="stroke:none;" d="M 0.84375 -4.234375 L 0.84375 -3.296875 L 0.140625 -3.296875 L 0.140625 -2.90625 L 0.828125 -2.90625 L 0.828125 -0.921875 C 0.828125 -0.625 0.84375 -0.265625 1.09375 -0.0625 C 1.234375 0.0625 1.40625 0.0625 1.578125 0.046875 C 1.96875 0.03125 2.3125 -0.09375 2.578125 -0.25 L 2.484375 -0.625 C 2.40625 -0.578125 2.328125 -0.515625 2.25 -0.46875 C 2.03125 -0.359375 1.640625 -0.265625 1.453125 -0.453125 C 1.28125 -0.640625 1.3125 -0.953125 1.3125 -1.1875 L 1.3125 -2.90625 L 2.453125 -2.90625 L 2.453125 -3.296875 L 1.3125 -3.296875 L 1.3125 -4.234375 L 0.84375 -4.234375 Z M 0.84375 -4.234375 "/>
</symbol>
<symbol overflow="visible" id="glyph0-13">
<path style="stroke:none;" d="M 0.703125 -2.78125 C 0.25 -2.234375 0.140625 -1.421875 0.5 -0.78125 C 0.78125 -0.28125 1.359375 0.125 2.109375 0.046875 C 2.75 -0.015625 3.28125 -0.484375 3.46875 -1 C 3.734375 -1.703125 3.53125 -2.53125 2.953125 -3.015625 C 2.796875 -3.140625 2.625 -3.21875 2.4375 -3.296875 C 1.71875 -3.53125 1.0625 -3.21875 0.703125 -2.78125 Z M 2.25 -2.953125 C 2.359375 -2.921875 2.453125 -2.875 2.546875 -2.828125 C 2.984375 -2.578125 3.09375 -2.015625 3.0625 -1.546875 C 3.046875 -1.21875 2.96875 -0.90625 2.734375 -0.671875 C 2.34375 -0.25 1.53125 -0.234375 1.125 -0.671875 C 0.90625 -0.90625 0.828125 -1.21875 0.796875 -1.546875 C 0.765625 -2 0.859375 -2.390625 1.09375 -2.640625 C 1.359375 -2.921875 1.78125 -3.046875 2.25 -2.953125 Z M 2.25 -2.953125 "/>
</symbol>
<symbol overflow="visible" id="glyph0-14">
<path style="stroke:none;" d="M 0.828125 -3.296875 L 0.203125 -3.296875 L 0.203125 -2.90625 L 0.828125 -2.90625 L 0.828125 0 L 1.328125 0 L 1.328125 -2.90625 L 2.21875 -2.90625 L 2.21875 -3.296875 L 1.3125 -3.296875 L 1.3125 -3.875 C 1.3125 -3.984375 1.296875 -4.09375 1.328125 -4.1875 C 1.484375 -4.515625 2.03125 -4.546875 2.453125 -4.453125 C 2.53125 -4.453125 2.609375 -4.421875 2.6875 -4.390625 L 2.6875 -4.84375 C 2.1875 -4.921875 1.625 -4.953125 1.21875 -4.625 C 1.140625 -4.5625 1.078125 -4.5 1.03125 -4.4375 C 0.875 -4.25 0.828125 -4.0625 0.828125 -3.734375 L 0.828125 -3.296875 Z M 0.828125 -3.296875 "/>
</symbol>
<symbol overflow="visible" id="glyph0-15">
<path style="stroke:none;" d="M 0.78125 -4.84375 L 0.78125 -4.25 L 0.96875 -4.25 L 0.78125 -3.484375 L 1.078125 -3.484375 C 1.171875 -3.734375 1.265625 -3.984375 1.359375 -4.25 C 1.359375 -4.4375 1.359375 -4.640625 1.359375 -4.84375 L 0.78125 -4.84375 Z M 0.78125 -4.84375 "/>
</symbol>
<symbol overflow="visible" id="glyph0-16">
<path style="stroke:none;" d="M 0.296875 -0.71875 C 0.28125 -0.625 0.265625 -0.515625 0.234375 -0.40625 C 0.234375 -0.375 0.203125 -0.3125 0.234375 -0.28125 C 0.25 -0.234375 0.328125 -0.203125 0.375 -0.1875 C 0.6875 -0.046875 0.953125 0.015625 1.359375 0.046875 C 1.859375 0.09375 2.453125 -0.015625 2.703125 -0.515625 C 2.75 -0.640625 2.78125 -0.78125 2.78125 -0.921875 C 2.78125 -1.015625 2.78125 -1.109375 2.75 -1.1875 C 2.640625 -1.515625 2.359375 -1.734375 2.0625 -1.84375 C 1.890625 -1.90625 1.71875 -1.9375 1.546875 -1.96875 C 1.296875 -2.015625 0.984375 -2.046875 0.8125 -2.265625 C 0.671875 -2.421875 0.703125 -2.640625 0.84375 -2.796875 C 1.015625 -2.96875 1.28125 -3 1.609375 -2.984375 C 1.90625 -2.96875 2.15625 -2.90625 2.390625 -2.796875 C 2.453125 -2.78125 2.515625 -2.734375 2.578125 -2.71875 L 2.65625 -3.140625 C 2.3125 -3.296875 2 -3.375 1.515625 -3.375 C 1.09375 -3.375 0.734375 -3.28125 0.5 -3.046875 C 0.265625 -2.796875 0.1875 -2.390625 0.34375 -2.078125 C 0.484375 -1.8125 0.765625 -1.640625 1.046875 -1.546875 C 1.453125 -1.4375 1.984375 -1.453125 2.21875 -1.15625 C 2.375 -0.984375 2.359375 -0.71875 2.1875 -0.5625 C 2.109375 -0.46875 1.984375 -0.40625 1.859375 -0.390625 C 1.328125 -0.265625 0.75 -0.46875 0.421875 -0.640625 C 0.375 -0.671875 0.328125 -0.703125 0.296875 -0.71875 Z M 0.296875 -0.71875 "/>
</symbol>
<symbol overflow="visible" id="glyph0-17">
<path style="stroke:none;" d="M 0.578125 -4.84375 L 0.578125 0 L 1.09375 0 L 1.09375 -0.46875 L 1.09375 -0.46875 C 1.15625 -0.359375 1.265625 -0.265625 1.359375 -0.1875 C 1.671875 0.0625 2.1875 0.140625 2.640625 -0.078125 C 2.84375 -0.1875 3.015625 -0.359375 3.15625 -0.546875 C 3.84375 -1.5 3.421875 -3.09375 2.453125 -3.3125 C 2.328125 -3.359375 2.171875 -3.359375 2.03125 -3.328125 C 1.625 -3.28125 1.3125 -3.078125 1.078125 -2.828125 L 1.078125 -4.84375 L 0.578125 -4.84375 Z M 1.8125 -2.953125 C 2.140625 -2.984375 2.515625 -2.84375 2.734375 -2.578125 C 2.90625 -2.359375 2.96875 -2.078125 2.96875 -1.8125 C 3 -1.4375 2.953125 -1.03125 2.71875 -0.734375 C 2.515625 -0.46875 2.1875 -0.359375 1.875 -0.328125 C 1.609375 -0.328125 1.375 -0.421875 1.203125 -0.640625 C 1.171875 -0.6875 1.125 -0.75 1.09375 -0.8125 C 1.09375 -0.859375 1.09375 -0.90625 1.09375 -0.9375 L 1.09375 -2.328125 C 1.09375 -2.390625 1.078125 -2.46875 1.109375 -2.53125 C 1.140625 -2.609375 1.203125 -2.65625 1.265625 -2.71875 C 1.421875 -2.84375 1.609375 -2.9375 1.8125 -2.953125 Z M 1.8125 -2.953125 "/>
</symbol>
<symbol overflow="visible" id="glyph1-0">
<path style="stroke:none;" d=""/>
</symbol>
<symbol overflow="visible" id="glyph1-1">
<path style="stroke:none;" d="M 1.203125 -2.640625 C 1.46875 -2.78125 1.609375 -2.890625 1.953125 -2.953125 C 2.078125 -2.984375 2.390625 -3.03125 2.53125 -3.015625 C 2.765625 -2.984375 2.953125 -2.84375 3.015625 -2.609375 C 3.09375 -2.359375 2.96875 -2.109375 2.9375 -1.859375 C 2.328125 -1.859375 1.65625 -1.75 1.1875 -1.53125 C 0.9375 -1.390625 0.671875 -1.1875 0.578125 -0.90625 C 0.46875 -0.5 0.640625 0 1.109375 0.0625 C 1.75 0.09375 2.328125 -0.15625 2.65625 -0.46875 L 2.5625 0 L 2.921875 0 C 3 0 3.0625 0.015625 3.0625 -0.078125 C 3.078125 -0.125 3.21875 -0.78125 3.21875 -0.78125 L 3.453125 -1.875 C 3.484375 -2.046875 3.546875 -2.21875 3.546875 -2.390625 C 3.578125 -2.703125 3.4375 -2.984375 3.234375 -3.15625 C 2.984375 -3.359375 2.671875 -3.390625 2.359375 -3.359375 C 2.140625 -3.359375 1.921875 -3.3125 1.703125 -3.25 C 1.640625 -3.234375 1.3125 -3.125 1.265625 -3.078125 C 1.25 -3.046875 1.203125 -2.75 1.203125 -2.640625 Z M 2.890625 -1.625 C 2.875 -1.484375 2.828125 -1.34375 2.796875 -1.203125 C 2.765625 -1.03125 2.734375 -0.84375 2.625 -0.703125 C 2.546875 -0.59375 2.421875 -0.515625 2.296875 -0.453125 C 1.9375 -0.296875 1.375 -0.25 1.125 -0.53125 C 0.984375 -0.6875 1.046875 -0.9375 1.171875 -1.09375 C 1.40625 -1.359375 1.765625 -1.46875 2.09375 -1.546875 C 2.359375 -1.59375 2.625 -1.625 2.890625 -1.625 Z M 2.890625 -1.625 "/>
</symbol>
<symbol overflow="visible" id="glyph1-2">
<path style="stroke:none;" d="M 1.609375 -4.84375 L 0.578125 0 C 0.75 0 0.9375 0 1.09375 -0.015625 C 1.140625 -0.15625 1.15625 -0.3125 1.1875 -0.46875 L 1.203125 -0.46875 C 1.265625 -0.3125 1.421875 -0.15625 1.546875 -0.078125 C 1.921875 0.140625 2.390625 0.0625 2.765625 -0.140625 C 3.453125 -0.515625 3.875 -1.3125 3.890625 -2.09375 C 3.90625 -2.578125 3.703125 -3.171875 3.171875 -3.3125 C 2.578125 -3.46875 1.96875 -3.078125 1.671875 -2.828125 L 2.109375 -4.84375 L 1.609375 -4.84375 Z M 3 -2.84375 C 3.0625 -2.8125 3.125 -2.765625 3.171875 -2.71875 C 3.421875 -2.453125 3.421875 -2.046875 3.34375 -1.703125 C 3.296875 -1.4375 3.203125 -1.1875 3.0625 -0.953125 C 2.8125 -0.578125 2.390625 -0.359375 1.9375 -0.328125 C 1.734375 -0.328125 1.546875 -0.375 1.421875 -0.53125 C 1.375 -0.578125 1.28125 -0.734375 1.28125 -0.8125 C 1.265625 -0.890625 1.296875 -0.96875 1.3125 -1.046875 C 1.359375 -1.296875 1.609375 -2.46875 1.640625 -2.515625 C 1.671875 -2.578125 1.75 -2.640625 1.8125 -2.6875 C 2.109375 -2.9375 2.59375 -3.0625 3 -2.84375 Z M 3 -2.84375 "/>
</symbol>
<symbol overflow="visible" id="glyph1-3">
<path style="stroke:none;" d="M 1.765625 -4.84375 L 1.65625 -4.3125 L 0.734375 0 L 1.125 0 C 1.15625 0 1.25 0.015625 1.265625 -0.015625 C 1.296875 -0.0625 1.296875 -0.109375 1.296875 -0.15625 C 1.328125 -0.25 2.28125 -4.78125 2.296875 -4.84375 L 1.765625 -4.84375 Z M 1.765625 -4.84375 "/>
</symbol>
<symbol overflow="visible" id="glyph1-4">
<path style="stroke:none;" d="M 0.4375 -4.84375 L 1.4375 -0.25 C 1.46875 -0.140625 1.46875 -0.03125 1.515625 0.046875 C 1.703125 0.0625 1.90625 0.0625 2.078125 0.03125 L 2.140625 -0.046875 L 5.21875 -4.84375 C 5.046875 -4.84375 4.875 -4.84375 4.703125 -4.828125 L 4.640625 -4.75 L 2.6875 -1.703125 C 2.4375 -1.296875 2.171875 -0.921875 1.9375 -0.515625 L 1.921875 -0.515625 C 1.640625 -1.984375 1.296875 -3.390625 1 -4.84375 L 0.4375 -4.84375 Z M 0.4375 -4.84375 "/>
</symbol>
<symbol overflow="visible" id="glyph1-5">
<path style="stroke:none;" d="M 1.015625 -3.296875 L 0.9375 -2.90625 L 3.0625 -2.90625 L 1.046875 -1 C 0.796875 -0.75 0.515625 -0.515625 0.28125 -0.265625 C 0.265625 -0.171875 0.234375 -0.09375 0.21875 0 C 1.171875 0 2.1875 0.015625 3.09375 0 C 3.15625 -0.125 3.171875 -0.265625 3.203125 -0.390625 L 0.953125 -0.390625 L 3.734375 -3.03125 C 3.765625 -3.109375 3.78125 -3.203125 3.796875 -3.296875 L 1.015625 -3.296875 Z M 1.015625 -3.296875 "/>
</symbol>
<symbol overflow="visible" id="glyph2-0">
<path style="stroke:none;" d=""/>
</symbol>
<symbol overflow="visible" id="glyph2-1">
<path style="stroke:none;" d="M 1.71875 -2.53125 C 1.609375 -2.46875 1.484375 -2.421875 1.390625 -2.34375 C 1.09375 -2.171875 0.828125 -1.953125 0.609375 -1.671875 C 0.359375 -1.359375 0.0625 -0.8125 0.296875 -0.359375 C 0.4375 -0.125 0.71875 0.03125 1.015625 0.09375 C 1.96875 0.328125 3 -0.234375 3.546875 -0.875 C 3.59375 -0.9375 3.640625 -0.984375 3.671875 -1.0625 C 3.671875 -1.0625 3.6875 -1.078125 3.6875 -1.09375 C 3.6875 -1.15625 3.609375 -1.15625 3.5625 -1.15625 C 3.4375 -1.125 3.328125 -1.0625 3.21875 -0.984375 C 3.125 -0.90625 3.046875 -0.796875 2.96875 -0.703125 C 2.875 -0.59375 2.765625 -0.515625 2.640625 -0.4375 C 2.25 -0.203125 1.703125 -0.203125 1.3125 -0.390625 C 1.078125 -0.484375 0.875 -0.671875 0.84375 -0.9375 C 0.8125 -1.125 0.875 -1.34375 0.96875 -1.515625 C 1.171875 -1.953125 1.5625 -2.265625 2.046875 -2.375 C 2.15625 -2.390625 2.265625 -2.40625 2.375 -2.421875 C 2.421875 -2.421875 2.46875 -2.421875 2.515625 -2.421875 C 2.671875 -2.453125 2.9375 -2.609375 2.984375 -2.734375 C 3.015625 -2.78125 2.984375 -2.8125 2.953125 -2.828125 C 2.90625 -2.828125 2.875 -2.828125 2.84375 -2.828125 C 2.734375 -2.828125 2.640625 -2.84375 2.53125 -2.859375 C 2.171875 -2.921875 1.734375 -3.09375 1.65625 -3.515625 C 1.65625 -3.5625 1.65625 -3.625 1.65625 -3.671875 C 1.6875 -3.921875 1.8125 -4.15625 2 -4.296875 C 2.21875 -4.4375 2.578125 -4.53125 2.890625 -4.5 C 3.21875 -4.46875 3.609375 -4.359375 3.46875 -4 C 3.453125 -3.9375 3.328125 -3.765625 3.4375 -3.75 C 3.609375 -3.734375 3.875 -3.921875 3.9375 -4 C 4.109375 -4.1875 4.203125 -4.5 4.015625 -4.703125 C 3.828125 -4.890625 3.421875 -4.921875 3.109375 -4.90625 C 2.390625 -4.84375 1.671875 -4.46875 1.296875 -4 C 1.09375 -3.734375 0.9375 -3.34375 1.09375 -3.015625 C 1.125 -2.953125 1.15625 -2.890625 1.21875 -2.828125 C 1.34375 -2.703125 1.53125 -2.578125 1.71875 -2.53125 Z M 1.71875 -2.53125 "/>
</symbol>
<symbol overflow="visible" id="glyph3-0">
<path style="stroke:none;" d=""/>
</symbol>
<symbol overflow="visible" id="glyph3-1">
<path style="stroke:none;" d="M 2.25 -0.5625 C 2.21875 -0.546875 2.171875 -0.515625 2.140625 -0.484375 C 1.859375 -0.28125 1.34375 -0.109375 0.953125 -0.375 C 0.703125 -0.546875 0.546875 -0.828125 0.546875 -1.25 L 2.296875 -1.25 C 2.296875 -1.609375 2.203125 -1.953125 1.984375 -2.15625 C 1.75 -2.390625 1.359375 -2.46875 1.046875 -2.375 C 0.921875 -2.34375 0.796875 -2.28125 0.6875 -2.1875 C 0.359375 -1.953125 0.203125 -1.546875 0.21875 -1.15625 C 0.21875 -0.59375 0.640625 -0.078125 1.1875 0.03125 C 1.46875 0.078125 1.78125 0.015625 2.03125 -0.109375 C 2.078125 -0.140625 2.25 -0.21875 2.265625 -0.265625 C 2.28125 -0.296875 2.25 -0.5 2.25 -0.5625 Z M 2 -1.46875 L 0.578125 -1.46875 C 0.640625 -1.6875 0.75 -1.90625 0.953125 -2.03125 C 1.203125 -2.1875 1.578125 -2.171875 1.796875 -1.9375 C 1.90625 -1.8125 1.96875 -1.640625 2 -1.46875 Z M 2 -1.46875 "/>
</symbol>
<symbol overflow="visible" id="glyph3-2">
<path style="stroke:none;" d="M 0.59375 -2.359375 L 0.15625 -2.359375 L 0.15625 -2.078125 L 0.59375 -2.078125 L 0.59375 0 L 0.953125 0 L 0.953125 -2.078125 L 1.59375 -2.078125 L 1.59375 -2.359375 L 0.9375 -2.359375 L 0.9375 -2.78125 C 0.9375 -2.84375 0.921875 -2.921875 0.953125 -2.984375 C 1.046875 -3.21875 1.453125 -3.25 1.734375 -3.1875 C 1.796875 -3.1875 1.859375 -3.15625 1.921875 -3.140625 L 1.921875 -3.453125 C 1.5625 -3.53125 1.15625 -3.53125 0.859375 -3.296875 C 0.8125 -3.265625 0.765625 -3.21875 0.734375 -3.171875 C 0.625 -3.03125 0.59375 -2.890625 0.59375 -2.65625 L 0.59375 -2.359375 Z M 2.125 0 L 2.484375 0 L 2.484375 -2.078125 L 3.125 -2.078125 L 3.125 -2.359375 L 2.46875 -2.359375 L 2.46875 -2.78125 C 2.46875 -2.84375 2.46875 -2.921875 2.484375 -2.984375 C 2.59375 -3.21875 2.984375 -3.25 3.265625 -3.1875 C 3.328125 -3.1875 3.390625 -3.15625 3.453125 -3.140625 L 3.453125 -3.453125 C 3.125 -3.515625 2.75 -3.53125 2.453125 -3.34375 C 2.34375 -3.265625 2.28125 -3.203125 2.203125 -3.078125 C 2.125 -2.921875 2.125 -2.8125 2.125 -2.59375 L 2.125 0 Z M 2.125 0 "/>
</symbol>
</g>
<clipPath id="clip1">
  <path d="M -234 666 L 378 666 L 378 -126 L -234 -126 L -234 666 Z M -234 666 "/>
</clipPath>
<clipPath id="clip2">
  <path d="M 19.523438 210.03125 L 142.828125 210.03125 L 142.828125 -1.199219 L 19.523438 -1.199219 L 19.523438 210.03125 Z M 19.523438 210.03125 "/>
</clipPath>
<clipPath id="clip3">
  <path d="M -234 666 L 378 666 L 378 -126 L -234 -126 L -234 666 Z M -234 666 "/>
</clipPath>
</defs>
<g id="surface0">
<g clip-path="url(#clip1)" clip-rule="nonzero">
<g clip-path="url(#clip2)" clip-rule="nonzero">
<path style="fill:none;stroke-width:5;stroke-linecap:butt;stroke-linejoin:miter;stroke:rgb(13.730068%,12.159915%,12.54902%);stroke-opacity:1;stroke-miterlimit:4;" d="M 569.646631 1817.507118 L 569.646631 1949.095453 L 1133.487346 1949.095453 L 1133.487346 984.624362 L 569.646631 984.624362 L 569.646631 1126.886945 " transform="matrix(0.107224,0,0,-0.107224,19.522,210.032)"/>
<path style="fill:none;stroke-width:5;stroke-linecap:butt;stroke-linejoin:miter;stroke:rgb(13.730068%,12.159915%,12.54902%);stroke-opacity:1;stroke-miterlimit:4;" d="M 569.646631 1138.28981 L 569.646631 1806.104253 " transform="matrix(0.107224,0,0,-0.107224,19.522,210.032)"/>
<path style="fill:none;stroke-width:5;stroke-linecap:butt;stroke-linejoin:miter;stroke:rgb(13.730068%,12.159915%,12.54902%);stroke-opacity:1;stroke-miterlimit:4;" d="M 134.807659 1343.86926 L 134.807659 1132.606593 L 845.464816 1132.606593 " transform="matrix(0.107224,0,0,-0.107224,19.522,210.032)"/>
<path style="fill:none;stroke-width:5;stroke-linecap:butt;stroke-linejoin:miter;stroke:rgb(13.730068%,12.159915%,12.54902%);stroke-opacity:1;stroke-miterlimit:4;" d="M 819.271014 1811.78747 L 134.807659 1811.78747 L 134.807659 1603.147826 " transform="matrix(0.107224,0,0,-0.107224,19.522,210.032)"/>
<path style="fill:none;stroke-width:5;stroke-linecap:butt;stroke-linejoin:miter;stroke:rgb(13.730068%,12.159915%,12.54902%);stroke-opacity:1;stroke-miterlimit:4;" d="M 424.651732 1436.69514 C 429.497039 1390.209338 438.276881 1326.673885 472.776924 1247.436723 " transform="matrix(0.107224,0,0,-0.107224,19.522,210.032)"/>
<path style=" stroke:none;fill-rule:nonzero;fill:rgb(13.730068%,12.159915%,12.54902%);fill-opacity:1;" d="M 68.476563 75.59375 L 71.320313 80.894531 L 71.507813 74.882813 L 68.476563 75.59375 "/>
<path style="fill:none;stroke-width:5;stroke-linecap:butt;stroke-linejoin:miter;stroke:rgb(13.730068%,12.159915%,12.54902%);stroke-opacity:1;stroke-miterlimit:4;" d="M 468.87882 1754.117389 C 468.87882 1754.117389 417.839158 1687.412449 419.697133 1520.704747 " transform="matrix(0.107224,0,0,-0.107224,19.522,210.032)"/>
<path style="fill:none;stroke-width:5;stroke-linecap:butt;stroke-linejoin:miter;stroke:rgb(13.730068%,12.159915%,12.54902%);stroke-opacity:1;stroke-miterlimit:4;" d="M 424.651732 309.305158 C 429.497039 262.819356 438.276881 199.320334 472.776924 120.083172 " transform="matrix(0.107224,0,0,-0.107224,19.522,210.032)"/>
<path style=" stroke:none;fill-rule:nonzero;fill:rgb(13.730068%,12.159915%,12.54902%);fill-opacity:1;" d="M 68.476563 196.476563 L 71.320313 201.777344 L 71.507813 195.761719 L 68.476563 196.476563 "/>
<path style="fill:none;stroke-width:5;stroke-linecap:butt;stroke-linejoin:miter;stroke:rgb(13.730068%,12.159915%,12.54902%);stroke-opacity:1;stroke-miterlimit:4;" d="M 468.87882 626.727407 C 468.87882 626.727407 417.839158 560.022467 419.697133 393.314765 " transform="matrix(0.107224,0,0,-0.107224,19.522,210.032)"/>
<path style="fill:none;stroke-width:5;stroke-linecap:butt;stroke-linejoin:miter;stroke:rgb(13.730068%,12.159915%,12.54902%);stroke-opacity:1;stroke-miterlimit:4;" d="M 794.352293 1857.690378 L 602.908024 1811.78747 L 798.286828 1755.39247 " transform="matrix(0.107224,0,0,-0.107224,19.522,210.032)"/>
<path style="fill:none;stroke-width:5;stroke-linecap:butt;stroke-linejoin:miter;stroke:rgb(13.730068%,12.159915%,12.54902%);stroke-opacity:1;stroke-miterlimit:4;" d="M 834.826999 1178.473069 L 643.38273 1132.606593 L 838.761534 1076.211592 " transform="matrix(0.107224,0,0,-0.107224,19.522,210.032)"/>
<path style="fill:none;stroke-width:5;stroke-linecap:butt;stroke-linejoin:miter;stroke:rgb(13.730068%,12.159915%,12.54902%);stroke-opacity:1;stroke-miterlimit:4;" d="M 134.807659 246.644046 C 65.880436 246.644046 9.995467 303.366924 9.995467 373.314212 C 9.995467 443.297931 65.880436 499.984378 134.807659 499.984378 C 203.734882 499.984378 259.61985 443.297931 259.61985 373.314212 C 259.61985 303.366924 203.734882 246.644046 134.807659 246.644046 " transform="matrix(0.107224,0,0,-0.107224,19.522,210.032)"/>
<path style="fill:none;stroke-width:5;stroke-linecap:butt;stroke-linejoin:miter;stroke:rgb(13.730068%,12.159915%,12.54902%);stroke-opacity:1;stroke-miterlimit:4;" d="M 134.807659 1346.601576 C 65.880436 1346.601576 9.995467 1403.324455 9.995467 1473.271742 C 9.995467 1543.255461 65.880436 1599.941909 134.807659 1599.941909 C 203.734882 1599.941909 259.61985 1543.255461 259.61985 1473.271742 C 259.61985 1403.324455 203.734882 1346.601576 134.807659 1346.601576 " transform="matrix(0.107224,0,0,-0.107224,19.522,210.032)"/>
<path style="fill:none;stroke-width:5;stroke-linecap:butt;stroke-linejoin:miter;stroke:rgb(13.730068%,12.159915%,12.54902%);stroke-opacity:1;stroke-miterlimit:4;" d="M 141.510941 499.984378 L 141.510941 683.814594 L 800.946282 683.814594 L 800.946282 575.833469 " transform="matrix(0.107224,0,0,-0.107224,19.522,210.032)"/>
<path style="fill:none;stroke-width:5;stroke-linecap:butt;stroke-linejoin:miter;stroke:rgb(13.730068%,12.159915%,12.54902%);stroke-opacity:1;stroke-miterlimit:4;" d="M 800.946282 132.578963 L 800.946282 15.672273 L 141.510941 15.672273 L 141.510941 246.753338 " transform="matrix(0.107224,0,0,-0.107224,19.522,210.032)"/>
<path style="fill:none;stroke-width:5;stroke-linecap:butt;stroke-linejoin:miter;stroke:rgb(13.730068%,12.159915%,12.54902%);stroke-opacity:1;stroke-miterlimit:4;" d="M 691.216474 132.578963 L 910.639659 132.578963 L 910.639659 575.833469 L 691.216474 575.833469 L 691.216474 132.578963 Z M 691.216474 132.578963 " transform="matrix(0.107224,0,0,-0.107224,19.522,210.032)"/>
<path style=" stroke:none;fill-rule:nonzero;fill:rgb(13.730068%,12.159915%,12.54902%);fill-opacity:1;" d="M 71.703125 15.765625 C 71.703125 16.652344 70.980469 17.375 70.09375 17.375 C 69.207031 17.375 68.484375 16.652344 68.484375 15.765625 C 68.484375 14.878906 69.207031 14.15625 70.09375 14.15625 C 70.980469 14.15625 71.703125 14.878906 71.703125 15.765625 "/>
<path style=" stroke:none;fill-rule:nonzero;fill:rgb(13.730068%,12.159915%,12.54902%);fill-opacity:1;" d="M 71.703125 136.710938 C 71.703125 137.597656 70.980469 138.316406 70.09375 138.316406 C 69.207031 138.316406 68.484375 137.597656 68.484375 136.710938 C 68.484375 135.820313 69.207031 135.101563 70.09375 135.101563 C 70.980469 135.101563 71.703125 135.820313 71.703125 136.710938 "/>
<path style=" stroke:none;fill-rule:nonzero;fill:rgb(13.730068%,12.159915%,12.54902%);fill-opacity:1;" d="M 71.703125 208.421875 C 71.703125 209.3125 70.980469 210.03125 70.09375 210.03125 C 69.207031 210.03125 68.484375 209.3125 68.484375 208.421875 C 68.484375 207.535156 69.207031 206.816406 70.09375 206.816406 C 70.980469 206.816406 71.703125 207.535156 71.703125 208.421875 "/>
<path style=" stroke:none;fill-rule:nonzero;fill:rgb(13.730068%,12.159915%,12.54902%);fill-opacity:1;" d="M 71.703125 88.589844 C 71.703125 89.480469 70.980469 90.199219 70.09375 90.199219 C 69.207031 90.199219 68.484375 89.480469 68.484375 88.589844 C 68.484375 87.703125 69.207031 86.984375 70.09375 86.984375 C 70.980469 86.984375 71.703125 87.703125 71.703125 88.589844 "/>
<path style="fill:none;stroke-width:5;stroke-linecap:butt;stroke-linejoin:miter;stroke:rgb(13.730068%,12.159915%,12.54902%);stroke-opacity:1;stroke-miterlimit:4;" d="M 91.637067 1425.838738 L 91.637067 1483.326665 " transform="matrix(0.107224,0,0,-0.107224,19.522,210.032)"/>
<path style=" stroke:none;fill-rule:nonzero;fill:rgb(13.730068%,12.159915%,12.54902%);fill-opacity:1;" d="M 30.886719 52.046875 L 29.332031 46.234375 L 27.773438 52.046875 L 30.886719 52.046875 "/>
<path style="fill:none;stroke-width:5;stroke-linecap:butt;stroke-linejoin:miter;stroke:rgb(13.730068%,12.159915%,12.54902%);stroke-opacity:1;stroke-miterlimit:4;" d="M 237.287722 1853.318672 L 344.758815 1853.318672 " transform="matrix(0.107224,0,0,-0.107224,19.522,210.032)"/>
<path style=" stroke:none;fill-rule:nonzero;fill:rgb(13.730068%,12.159915%,12.54902%);fill-opacity:1;" d="M 55.425781 12.851563 L 61.238281 11.292969 L 55.425781 9.734375 L 55.425781 12.851563 "/>
<path style="fill:none;stroke-width:5;stroke-linecap:butt;stroke-linejoin:miter;stroke:rgb(13.730068%,12.159915%,12.54902%);stroke-opacity:1;stroke-miterlimit:4;" d="M 253.535894 720.828367 L 328.510643 720.828367 " transform="matrix(0.107224,0,0,-0.107224,19.522,210.032)"/>
<path style=" stroke:none;fill-rule:nonzero;fill:rgb(13.730068%,12.159915%,12.54902%);fill-opacity:1;" d="M 53.683594 134.28125 L 59.496094 132.722656 L 53.683594 131.164063 L 53.683594 134.28125 "/>
<path style="fill:none;stroke-width:5;stroke-linecap:butt;stroke-linejoin:miter;stroke:rgb(13.730068%,12.159915%,12.54902%);stroke-opacity:1;stroke-miterlimit:4;" d="M 91.637067 313.312554 L 91.637067 388.323734 " transform="matrix(0.107224,0,0,-0.107224,19.522,210.032)"/>
<path style=" stroke:none;fill-rule:nonzero;fill:rgb(13.730068%,12.159915%,12.54902%);fill-opacity:1;" d="M 30.886719 169.457031 L 29.332031 163.644531 L 27.773438 169.457031 L 30.886719 169.457031 "/>
</g>
</g>
<g clip-path="url(#clip3)" clip-rule="nonzero">
<g style="fill:rgb(0%,0%,0%);fill-opacity:1;">
  <use xlink:href="#glyph0-1" x="0.513" y="53.983"/>
  <use xlink:href="#glyph0-2" x="3.529866" y="53.983"/>
  <use xlink:href="#glyph0-3" x="7.166703" y="53.983"/>
</g>
<g style="fill:rgb(0%,0%,0%);fill-opacity:1;">
  <use xlink:href="#glyph1-1" x="68.103" y="12.741"/>
</g>
<g style="fill:rgb(0%,0%,0%);fill-opacity:1;">
  <use xlink:href="#glyph1-2" x="67.979" y="96.387"/>
</g>
<g style="fill:rgb(0%,0%,0%);fill-opacity:1;">
  <use xlink:href="#glyph2-1" x="32.278" y="54.525"/>
</g>
<g style="fill:rgb(0%,0%,0%);fill-opacity:1;">
  <use xlink:href="#glyph1-3" x="48.673" y="9.906"/>
</g>
<path style=" stroke:none;fill-rule:nonzero;fill:rgb(100%,100%,100%);fill-opacity:1;" d="M 58.59375 57.554688 L 70.023438 57.554688 L 70.023438 46.730469 L 58.59375 46.730469 L 58.59375 57.554688 Z M 58.59375 57.554688 "/>
<g style="fill:rgb(0%,0%,0%);fill-opacity:1;">
  <use xlink:href="#glyph1-4" x="61.583" y="54.564"/>
</g>
<g style="fill:rgb(0%,0%,0%);fill-opacity:1;">
  <use xlink:href="#glyph0-4" x="104.676" y="41.781"/>
  <use xlink:href="#glyph0-5" x="109.697833" y="41.781"/>
  <use xlink:href="#glyph0-6" x="113.52366" y="41.781"/>
</g>
<g style="fill:rgb(0%,0%,0%);fill-opacity:1;">
  <use xlink:href="#glyph0-7" x="100.331" y="49.752"/>
  <use xlink:href="#glyph0-8" x="105.287977" y="49.752"/>
  <use xlink:href="#glyph0-9" x="106.9589" y="49.752"/>
  <use xlink:href="#glyph0-10" x="109.518284" y="49.752"/>
  <use xlink:href="#glyph0-11" x="112.966131" y="49.752"/>
  <use xlink:href="#glyph0-8" x="116.791958" y="49.752"/>
  <use xlink:href="#glyph0-12" x="118.46288" y="49.752"/>
</g>
<g style="fill:rgb(0%,0%,0%);fill-opacity:1;">
  <use xlink:href="#glyph0-13" x="107.673" y="57.722"/>
  <use xlink:href="#glyph0-14" x="111.552525" y="57.722"/>
</g>
<g style="fill:rgb(0%,0%,0%);fill-opacity:1;">
  <use xlink:href="#glyph1-5" x="106.224" y="65.692"/>
</g>
<g style="fill:rgb(0%,0%,0%);fill-opacity:1;">
  <use xlink:href="#glyph0-15" x="110.242" y="65.692"/>
  <use xlink:href="#glyph0-16" x="112.396904" y="65.692"/>
</g>
<g style="fill:rgb(0%,0%,0%);fill-opacity:1;">
  <use xlink:href="#glyph0-1" x="0.419" y="171.621"/>
  <use xlink:href="#glyph0-17" x="3.435866" y="171.621"/>
  <use xlink:href="#glyph0-3" x="7.261693" y="171.621"/>
</g>
<g style="fill:rgb(0%,0%,0%);fill-opacity:1;">
  <use xlink:href="#glyph1-1" x="68.103" y="133.78"/>
</g>
<g style="fill:rgb(0%,0%,0%);fill-opacity:1;">
  <use xlink:href="#glyph1-2" x="67.979" y="216.293"/>
</g>
<g style="fill:rgb(0%,0%,0%);fill-opacity:1;">
  <use xlink:href="#glyph2-1" x="32.278" y="172.163"/>
</g>
<g style="fill:rgb(0%,0%,0%);fill-opacity:1;">
  <use xlink:href="#glyph1-3" x="48.673" y="131.229"/>
</g>
<path style=" stroke:none;fill-rule:nonzero;fill:rgb(100%,100%,100%);fill-opacity:1;" d="M 58.59375 175.191406 L 70.023438 175.191406 L 70.023438 164.371094 L 58.59375 164.371094 L 58.59375 175.191406 Z M 58.59375 175.191406 "/>
<g style="fill:rgb(0%,0%,0%);fill-opacity:1;">
  <use xlink:href="#glyph1-4" x="61.583" y="172.202"/>
</g>
<g style="fill:rgb(0%,0%,0%);fill-opacity:1;">
  <use xlink:href="#glyph1-5" x="100.651" y="173.166"/>
</g>
<g style="fill:rgb(0%,0%,0%);fill-opacity:1;">
  <use xlink:href="#glyph3-1" x="103.978" y="174.223"/>
  <use xlink:href="#glyph3-2" x="106.440755" y="174.223"/>
</g>
</g>
</g>
</svg>
