<?xml version="1.0" encoding="UTF-8"?>
<svg xmlns="http://www.w3.org/2000/svg" xmlns:xlink="http://www.w3.org/1999/xlink" width="401pt" height="370pt" viewBox="0 0 232 214" version="1.1">
<defs>
<g>
<symbol overflow="visible" id="glyph0-0">
<path style="stroke:none;" d=""/>
</symbol>
<symbol overflow="visible" id="glyph0-1">
<path style="stroke:none;" d="M 2.578125 1.546875 C 2.546875 1.5 2.5 1.46875 2.453125 1.4375 C 1.6875 0.75 1.21875 -0.3125 1.171875 -1.59375 C 1.140625 -2.46875 1.296875 -3.375 1.703125 -4.15625 C 1.90625 -4.53125 2.140625 -4.84375 2.453125 -5.109375 C 2.5 -5.15625 2.546875 -5.1875 2.578125 -5.21875 L 2.328125 -5.21875 C 2.171875 -5.21875 2.1875 -5.21875 2.078125 -5.140625 C 1.71875 -4.859375 1.421875 -4.484375 1.1875 -4.0625 C 0.53125 -2.828125 0.484375 -1.15625 1.09375 0.1875 C 1.3125 0.6875 1.65625 1.109375 2.078125 1.46875 C 2.171875 1.53125 2.171875 1.546875 2.328125 1.546875 L 2.578125 1.546875 Z M 2.578125 1.546875 "/>
</symbol>
<symbol overflow="visible" id="glyph0-2">
<path style="stroke:none;" d="M 0.578125 -4.84375 L 0.578125 0 L 1.09375 0 L 1.09375 -0.46875 L 1.09375 -0.46875 C 1.15625 -0.359375 1.265625 -0.265625 1.359375 -0.1875 C 1.671875 0.0625 2.1875 0.140625 2.640625 -0.078125 C 2.84375 -0.1875 3.015625 -0.359375 3.15625 -0.546875 C 3.84375 -1.5 3.421875 -3.09375 2.453125 -3.3125 C 2.328125 -3.359375 2.171875 -3.359375 2.03125 -3.328125 C 1.625 -3.28125 1.3125 -3.078125 1.078125 -2.828125 L 1.078125 -4.84375 L 0.578125 -4.84375 Z M 1.8125 -2.953125 C 2.140625 -2.984375 2.515625 -2.84375 2.734375 -2.578125 C 2.90625 -2.359375 2.96875 -2.078125 2.96875 -1.8125 C 3 -1.4375 2.953125 -1.03125 2.71875 -0.734375 C 2.515625 -0.46875 2.1875 -0.359375 1.875 -0.328125 C 1.609375 -0.328125 1.375 -0.421875 1.203125 -0.640625 C 1.171875 -0.6875 1.125 -0.75 1.09375 -0.8125 C 1.09375 -0.859375 1.09375 -0.90625 1.09375 -0.9375 L 1.09375 -2.328125 C 1.09375 -2.390625 1.078125 -2.46875 1.109375 -2.53125 C 1.140625 -2.609375 1.203125 -2.65625 1.265625 -2.71875 C 1.421875 -2.84375 1.609375 -2.9375 1.8125 -2.953125 Z M 1.8125 -2.953125 "/>
</symbol>
<symbol overflow="visible" id="glyph0-3">
<path style="stroke:none;" d="M 0.4375 -5.21875 C 0.46875 -5.1875 0.515625 -5.15625 0.5625 -5.109375 C 1.421875 -4.34375 1.890625 -3.109375 1.828125 -1.59375 C 1.8125 -0.84375 1.625 -0.09375 1.265625 0.5625 C 1.078125 0.890625 0.84375 1.1875 0.5625 1.4375 C 0.515625 1.46875 0.46875 1.5 0.4375 1.546875 L 0.6875 1.546875 C 0.84375 1.546875 0.828125 1.546875 0.921875 1.46875 C 1.296875 1.171875 1.59375 0.796875 1.8125 0.390625 C 2.484375 -0.859375 2.53125 -2.515625 1.921875 -3.859375 C 1.6875 -4.375 1.359375 -4.796875 0.9375 -5.140625 C 0.84375 -5.21875 0.84375 -5.21875 0.6875 -5.21875 L 0.4375 -5.21875 Z M 0.4375 -5.21875 "/>
</symbol>
<symbol overflow="visible" id="glyph0-4">
<path style="stroke:none;" d="M 0.53125 -4.4375 L 0.53125 -4.015625 L 3.328125 -4.015625 L 3.328125 -4.4375 L 0.53125 -4.4375 Z M 0.53125 -4.4375 "/>
</symbol>
<symbol overflow="visible" id="glyph0-5">
<path style="stroke:none;" d="M 0.640625 -2.640625 C 0.765625 -2.703125 0.859375 -2.78125 0.984375 -2.84375 C 1.203125 -2.9375 1.4375 -2.984375 1.6875 -3 C 1.75 -3.015625 1.828125 -3.015625 1.90625 -3.015625 C 2.1875 -2.96875 2.421875 -2.78125 2.5 -2.515625 C 2.578125 -2.3125 2.546875 -2.0625 2.546875 -1.859375 C 2.1875 -1.859375 1.8125 -1.828125 1.453125 -1.734375 C 0.953125 -1.609375 0.328125 -1.359375 0.390625 -0.71875 C 0.4375 -0.4375 0.59375 -0.15625 0.859375 -0.015625 C 1.03125 0.0625 1.234375 0.0625 1.4375 0.046875 C 1.734375 0.015625 2.0625 -0.0625 2.3125 -0.25 C 2.40625 -0.3125 2.484375 -0.390625 2.5625 -0.46875 L 2.5625 0 L 3.046875 0 L 3.046875 -1.828125 C 3.046875 -2.015625 3.078125 -2.21875 3.03125 -2.421875 C 2.96875 -2.90625 2.53125 -3.265625 2.078125 -3.359375 C 1.796875 -3.40625 1.359375 -3.34375 1.125 -3.296875 C 1.046875 -3.265625 0.65625 -3.140625 0.625 -3.078125 C 0.59375 -3.046875 0.609375 -2.984375 0.609375 -2.953125 C 0.625 -2.84375 0.640625 -2.75 0.640625 -2.640625 Z M 2.546875 -1.625 L 2.546875 -1.109375 C 2.546875 -0.96875 2.546875 -0.84375 2.484375 -0.71875 C 2.40625 -0.578125 2.265625 -0.46875 2.109375 -0.421875 C 1.78125 -0.296875 1.328125 -0.28125 1.046875 -0.515625 C 0.96875 -0.5625 0.90625 -0.640625 0.890625 -0.75 C 0.8125 -1.046875 1.078125 -1.28125 1.3125 -1.390625 C 1.640625 -1.546875 2.109375 -1.625 2.546875 -1.625 Z M 2.546875 -1.625 "/>
</symbol>
<symbol overflow="visible" id="glyph0-6">
<path style="stroke:none;" d="M 0.625 -3.203125 C 0.734375 -3.609375 0.90625 -4.046875 1.34375 -4.203125 C 1.5 -4.265625 1.671875 -4.28125 1.859375 -4.265625 C 2.21875 -4.234375 2.578125 -4.09375 2.796875 -3.78125 C 2.9375 -3.578125 2.984375 -3.328125 2.953125 -3.078125 C 2.875 -2.40625 2.28125 -1.984375 1.796875 -1.609375 C 1.40625 -1.3125 0.59375 -0.59375 0.59375 -0.59375 L 0.453125 -0.484375 C 0.390625 -0.40625 0.390625 -0.421875 0.390625 -0.265625 L 0.390625 0 L 3.484375 0 L 3.484375 -0.4375 L 0.84375 -0.4375 C 1.109375 -0.671875 1.90625 -1.34375 2.140625 -1.515625 C 2.578125 -1.84375 3.0625 -2.15625 3.34375 -2.640625 C 3.640625 -3.203125 3.453125 -3.921875 2.96875 -4.3125 C 2.4375 -4.765625 1.46875 -4.828125 0.875 -4.390625 C 0.65625 -4.234375 0.5 -3.984375 0.390625 -3.734375 C 0.375 -3.671875 0.328125 -3.609375 0.328125 -3.546875 C 0.34375 -3.515625 0.390625 -3.484375 0.40625 -3.4375 C 0.46875 -3.359375 0.546875 -3.265625 0.625 -3.203125 Z M 0.625 -3.203125 "/>
</symbol>
<symbol overflow="visible" id="glyph0-7">
<path style="stroke:none;" d="M 1.828125 -4.6875 C 1.671875 -4.65625 1.5 -4.640625 1.359375 -4.5625 C 0.625 -4.28125 0.375 -3.34375 0.375 -2.40625 C 0.375 -2.265625 0.375 -2.125 0.375 -1.96875 C 0.390625 -1.328125 0.546875 -0.6875 0.90625 -0.296875 C 1.21875 0.015625 1.671875 0.140625 2.09375 0.109375 C 2.359375 0.078125 2.578125 -0.015625 2.765625 -0.140625 C 3.359375 -0.5625 3.5 -1.421875 3.5 -2.359375 C 3.5 -3.125 3.359375 -3.8125 2.984375 -4.234375 C 2.703125 -4.546875 2.265625 -4.71875 1.828125 -4.6875 Z M 2.421875 -4.171875 C 2.5 -4.125 2.5625 -4.078125 2.625 -4.015625 C 2.890625 -3.765625 2.96875 -3.265625 2.984375 -2.796875 C 2.984375 -2.703125 2.984375 -2.609375 2.984375 -2.515625 L 2.984375 -2.15625 C 2.984375 -1.5625 2.9375 -0.984375 2.671875 -0.625 C 2.328125 -0.171875 1.578125 -0.15625 1.21875 -0.609375 C 1.125 -0.703125 1.078125 -0.828125 1.03125 -0.9375 C 0.90625 -1.296875 0.875 -1.734375 0.875 -2.1875 L 0.875 -2.546875 C 0.875 -2.640625 0.890625 -2.71875 0.890625 -2.8125 C 0.890625 -3.359375 1.03125 -3.90625 1.390625 -4.140625 C 1.671875 -4.3125 2.09375 -4.359375 2.421875 -4.171875 Z M 2.421875 -4.171875 "/>
</symbol>
<symbol overflow="visible" id="glyph1-0">
<path style="stroke:none;" d=""/>
</symbol>
<symbol overflow="visible" id="glyph1-1">
<path style="stroke:none;" d="M 0.75 -3.296875 C 0.828125 -3.140625 0.921875 -3.015625 1.015625 -2.875 C 1.078125 -2.796875 1.6875 -1.875 1.71875 -1.84375 C 1.734375 -1.8125 1.796875 -1.75 1.796875 -1.703125 C 1.796875 -1.65625 1.71875 -1.609375 1.6875 -1.578125 C 1.375 -1.296875 0.046875 -0.046875 0 0 C 0.1875 0 0.375 0 0.53125 0 L 0.6875 -0.140625 L 1.984375 -1.4375 C 2.265625 -0.953125 2.53125 -0.46875 2.84375 -0.015625 C 3.015625 0 3.203125 0 3.390625 0 C 3.296875 -0.140625 2.359375 -1.53125 2.328125 -1.5625 C 2.3125 -1.609375 2.265625 -1.65625 2.265625 -1.6875 C 2.28125 -1.734375 2.34375 -1.78125 2.375 -1.8125 C 2.484375 -1.921875 2.59375 -2.015625 2.703125 -2.125 C 2.8125 -2.21875 3.921875 -3.25 3.953125 -3.296875 C 3.765625 -3.296875 3.59375 -3.296875 3.421875 -3.28125 C 2.96875 -2.875 2.546875 -2.4375 2.09375 -2.03125 C 1.828125 -2.453125 1.578125 -2.890625 1.28125 -3.28125 C 1.109375 -3.296875 0.921875 -3.296875 0.75 -3.296875 Z M 0.75 -3.296875 "/>
</symbol>
<symbol overflow="visible" id="glyph1-2">
<path style="stroke:none;" d="M 1.609375 -4.84375 L 0.578125 0 L 0.9375 0 C 1.015625 0 1.09375 0.015625 1.09375 -0.0625 C 1.109375 -0.125 1.21875 -0.578125 1.25 -0.78125 C 1.296875 -1 1.484375 -1.875 1.53125 -2.046875 C 1.609375 -2.3125 1.75 -2.5625 1.953125 -2.734375 C 2.09375 -2.84375 2.265625 -2.9375 2.4375 -2.953125 C 2.765625 -2.96875 3.0625 -2.90625 3.1875 -2.6875 C 3.296875 -2.484375 3.203125 -2.25 3.15625 -2.046875 L 2.734375 0 L 3.09375 0 C 3.171875 0 3.25 0.015625 3.25 -0.078125 C 3.296875 -0.21875 3.390625 -0.734375 3.390625 -0.734375 L 3.703125 -2.1875 C 3.765625 -2.453125 3.8125 -2.765625 3.671875 -3.015625 C 3.5 -3.328125 3.09375 -3.375 2.671875 -3.328125 C 2.390625 -3.28125 2.125 -3.140625 1.921875 -2.953125 C 1.8125 -2.859375 1.71875 -2.765625 1.640625 -2.640625 L 1.640625 -2.640625 L 2.09375 -4.84375 L 1.609375 -4.84375 Z M 1.625 -2.640625 C 1.625 -2.640625 1.640625 -2.640625 1.640625 -2.640625 C 1.640625 -2.640625 1.625 -2.625 1.625 -2.640625 Z M 1.625 -2.640625 "/>
</symbol>
<symbol overflow="visible" id="glyph1-3">
<path style="stroke:none;" d="M 1.671875 -2.8125 L 1.78125 -3.296875 L 1.28125 -3.296875 L 0.34375 1.15625 L 0.84375 1.15625 L 1.1875 -0.46875 C 1.265625 -0.34375 1.34375 -0.234375 1.4375 -0.15625 C 1.8125 0.171875 2.375 0.078125 2.765625 -0.140625 C 3.453125 -0.515625 3.890625 -1.3125 3.890625 -2.078125 C 3.90625 -2.578125 3.703125 -3.203125 3.15625 -3.328125 C 2.578125 -3.4375 1.9375 -3.078125 1.671875 -2.8125 Z M 2.90625 -2.84375 C 3.296875 -2.640625 3.40625 -2.171875 3.359375 -1.765625 C 3.25 -1.0625 2.65625 -0.375 1.921875 -0.328125 C 1.671875 -0.328125 1.4375 -0.4375 1.328125 -0.65625 C 1.296875 -0.703125 1.28125 -0.765625 1.28125 -0.8125 C 1.265625 -0.890625 1.296875 -0.96875 1.3125 -1.046875 C 1.359375 -1.296875 1.609375 -2.453125 1.625 -2.515625 C 1.671875 -2.578125 1.75 -2.640625 1.8125 -2.671875 C 2.09375 -2.90625 2.515625 -3.046875 2.90625 -2.84375 Z M 2.90625 -2.84375 "/>
</symbol>
<symbol overflow="visible" id="glyph1-4">
<path style="stroke:none;" d="M 0.4375 -4.84375 L 1.4375 -0.25 C 1.46875 -0.140625 1.46875 -0.03125 1.515625 0.046875 C 1.703125 0.0625 1.90625 0.0625 2.078125 0.03125 L 2.140625 -0.046875 L 5.21875 -4.84375 C 5.046875 -4.84375 4.875 -4.84375 4.703125 -4.828125 L 4.640625 -4.75 L 2.6875 -1.703125 C 2.4375 -1.296875 2.171875 -0.921875 1.9375 -0.515625 L 1.921875 -0.515625 C 1.640625 -1.984375 1.296875 -3.390625 1 -4.84375 L 0.4375 -4.84375 Z M 0.4375 -4.84375 "/>
</symbol>
<symbol overflow="visible" id="glyph1-5">
<path style="stroke:none;" d="M 3.09375 -5.21875 C 2.953125 -5.1875 2.921875 -5 2.875 -4.890625 L 0.90625 0.109375 L 0.453125 1.234375 C 0.4375 1.28125 0.40625 1.328125 0.40625 1.390625 C 0.40625 1.484375 0.5 1.546875 0.59375 1.546875 C 0.6875 1.53125 0.71875 1.46875 0.75 1.390625 C 0.78125 1.328125 3.21875 -4.84375 3.265625 -5 C 3.28125 -5.03125 3.296875 -5.078125 3.28125 -5.109375 C 3.25 -5.1875 3.15625 -5.234375 3.09375 -5.21875 Z M 3.09375 -5.21875 "/>
</symbol>
<symbol overflow="visible" id="glyph1-6">
<path style="stroke:none;" d="M 1.625 -2.625 L 1.625 -2.625 C 1.671875 -2.84375 1.71875 -3.0625 1.765625 -3.296875 L 1.28125 -3.296875 L 0.578125 0 L 0.9375 0 C 1.015625 0 1.09375 0.015625 1.09375 -0.0625 C 1.109375 -0.125 1.21875 -0.578125 1.25 -0.78125 C 1.296875 -1 1.484375 -1.875 1.53125 -2.046875 C 1.609375 -2.3125 1.75 -2.5625 1.953125 -2.734375 C 2.09375 -2.84375 2.265625 -2.9375 2.4375 -2.953125 C 2.765625 -2.96875 3.0625 -2.90625 3.1875 -2.6875 C 3.296875 -2.484375 3.203125 -2.25 3.15625 -2.046875 L 2.734375 0 L 3.09375 0 C 3.15625 0 3.25 0.015625 3.25 -0.0625 C 3.265625 -0.125 3.359375 -0.578125 3.40625 -0.78125 C 3.453125 -1 3.625 -1.875 3.671875 -2.046875 C 3.765625 -2.3125 3.90625 -2.5625 4.109375 -2.734375 C 4.25 -2.84375 4.40625 -2.9375 4.578125 -2.953125 C 4.90625 -2.96875 5.21875 -2.90625 5.34375 -2.6875 C 5.4375 -2.484375 5.359375 -2.25 5.3125 -2.046875 L 4.890625 0 L 5.25 0 C 5.328125 0 5.40625 0.015625 5.40625 -0.078125 C 5.453125 -0.21875 5.546875 -0.734375 5.546875 -0.734375 L 5.859375 -2.1875 C 5.921875 -2.453125 5.96875 -2.78125 5.8125 -3.03125 C 5.6875 -3.25 5.421875 -3.3125 5.1875 -3.34375 C 4.6875 -3.390625 4.3125 -3.171875 4.0625 -2.9375 C 3.953125 -2.84375 3.828125 -2.734375 3.765625 -2.59375 C 3.75 -2.65625 3.765625 -2.703125 3.75 -2.765625 C 3.75 -2.890625 3.6875 -3.03125 3.609375 -3.125 C 3.453125 -3.28125 3.234375 -3.328125 3.03125 -3.34375 C 2.53125 -3.390625 2.171875 -3.171875 1.921875 -2.953125 C 1.8125 -2.859375 1.703125 -2.75 1.625 -2.625 Z M 1.625 -2.625 "/>
</symbol>
<symbol overflow="visible" id="glyph1-7">
<path style="stroke:none;" d="M 4.59375 -1.84375 L 4.59375 -1.828125 C 4.515625 -1.8125 4.4375 -1.765625 4.359375 -1.734375 C 4.265625 -1.671875 1.984375 -0.578125 1.984375 -0.578125 L 0.8125 0 C 0.765625 0.015625 0.703125 0.046875 0.65625 0.078125 C 0.59375 0.15625 0.625 0.28125 0.703125 0.328125 C 0.796875 0.375 0.90625 0.3125 0.984375 0.265625 L 4.078125 -1.21875 L 4.890625 -1.609375 C 4.984375 -1.671875 5.125 -1.703125 5.125 -1.84375 C 5.125 -1.96875 4.984375 -2.015625 4.890625 -2.0625 L 1.578125 -3.65625 L 0.984375 -3.953125 C 0.90625 -4 0.796875 -4.0625 0.703125 -4.015625 C 0.625 -3.96875 0.59375 -3.84375 0.65625 -3.765625 C 0.703125 -3.71875 0.765625 -3.703125 0.8125 -3.671875 L 1.984375 -3.09375 C 2.34375 -2.9375 4.5625 -1.859375 4.59375 -1.84375 Z M 4.59375 -1.84375 "/>
</symbol>
<symbol overflow="visible" id="glyph1-8">
<path style="stroke:none;" d="M 1.171875 -1.828125 L 1.171875 -1.84375 C 1.328125 -1.890625 1.46875 -1.984375 1.609375 -2.046875 L 3.75 -3.09375 L 4.90625 -3.671875 C 4.96875 -3.703125 5.03125 -3.71875 5.0625 -3.765625 C 5.125 -3.84375 5.09375 -3.96875 5.015625 -4.015625 C 4.921875 -4.0625 4.828125 -4 4.75 -3.953125 L 1.6875 -2.453125 L 0.890625 -2.0625 C 0.796875 -2.015625 0.640625 -1.96875 0.640625 -1.84375 C 0.640625 -1.703125 0.796875 -1.671875 0.890625 -1.609375 L 4.15625 -0.015625 L 4.75 0.265625 C 4.828125 0.3125 4.921875 0.375 5.015625 0.328125 C 5.09375 0.28125 5.125 0.15625 5.0625 0.078125 C 5.03125 0.046875 4.96875 0.015625 4.90625 0 L 2.703125 -1.09375 L 1.609375 -1.625 C 1.46875 -1.6875 1.328125 -1.78125 1.171875 -1.828125 Z M 1.171875 -1.828125 "/>
</symbol>
<symbol overflow="visible" id="glyph2-0">
<path style="stroke:none;" d=""/>
</symbol>
<symbol overflow="visible" id="glyph2-1">
<path style="stroke:none;" d="M -4.84375 -0.734375 L 0 -0.734375 L 0 -1.25 L -2.21875 -1.25 L -2.21875 -2.28125 C -2.21875 -2.421875 -2.234375 -2.546875 -2.203125 -2.65625 C -2.03125 -2.78125 -1.859375 -2.90625 -1.671875 -3.03125 C -1.125 -3.421875 -0.5625 -3.8125 -0.015625 -4.21875 C 0 -4.390625 0 -4.578125 0 -4.75 L -0.390625 -4.46875 L -2.28125 -3.125 C -2.296875 -3.25 -2.328125 -3.390625 -2.390625 -3.515625 C -2.5625 -4.015625 -2.96875 -4.578125 -3.5625 -4.53125 C -3.796875 -4.515625 -3.9375 -4.453125 -4.109375 -4.328125 C -4.515625 -4.015625 -4.765625 -3.484375 -4.828125 -2.875 C -4.84375 -2.625 -4.84375 -2.390625 -4.84375 -2.125 L -4.84375 -0.734375 Z M -2.609375 -1.25 L -4.421875 -1.25 L -4.421875 -2.296875 C -4.421875 -2.640625 -4.421875 -3 -4.328125 -3.34375 C -4.203125 -3.671875 -3.96875 -4 -3.59375 -4.046875 C -3.359375 -4.0625 -3.140625 -3.96875 -2.984375 -3.8125 C -2.875 -3.6875 -2.796875 -3.546875 -2.734375 -3.390625 C -2.609375 -3.046875 -2.609375 -2.6875 -2.609375 -2.328125 L -2.609375 -1.25 Z M -2.609375 -1.25 "/>
</symbol>
<symbol overflow="visible" id="glyph2-2">
<path style="stroke:none;" d="M -0.796875 -3.140625 C -0.765625 -3.09375 -0.71875 -3.046875 -0.6875 -3 C -0.390625 -2.59375 -0.140625 -1.875 -0.53125 -1.328125 C -0.78125 -0.984375 -1.15625 -0.78125 -1.734375 -0.78125 L -1.734375 -3.203125 C -2.25 -3.203125 -2.734375 -3.078125 -3.03125 -2.78125 C -3.34375 -2.4375 -3.4375 -1.90625 -3.328125 -1.46875 C -3.28125 -1.28125 -3.1875 -1.109375 -3.0625 -0.953125 C -2.71875 -0.515625 -2.171875 -0.296875 -1.609375 -0.296875 C -0.828125 -0.3125 -0.109375 -0.890625 0.03125 -1.671875 C 0.109375 -2.0625 0.015625 -2.484375 -0.15625 -2.84375 C -0.1875 -2.90625 -0.3125 -3.140625 -0.375 -3.15625 C -0.40625 -3.1875 -0.703125 -3.15625 -0.796875 -3.140625 Z M -2.046875 -2.78125 L -2.046875 -0.8125 C -2.359375 -0.90625 -2.65625 -1.0625 -2.84375 -1.34375 C -3.0625 -1.6875 -3.03125 -2.203125 -2.71875 -2.5 C -2.53125 -2.671875 -2.296875 -2.75 -2.046875 -2.78125 Z M -2.046875 -2.78125 "/>
</symbol>
<symbol overflow="visible" id="glyph2-3">
<path style="stroke:none;" d="M 1.546875 -2.578125 C 1.5 -2.546875 1.46875 -2.5 1.4375 -2.453125 C 0.75 -1.6875 -0.3125 -1.21875 -1.59375 -1.171875 C -2.46875 -1.140625 -3.375 -1.296875 -4.15625 -1.703125 C -4.53125 -1.90625 -4.84375 -2.140625 -5.109375 -2.453125 C -5.15625 -2.5 -5.1875 -2.546875 -5.21875 -2.578125 L -5.21875 -2.328125 C -5.21875 -2.171875 -5.21875 -2.1875 -5.140625 -2.078125 C -4.859375 -1.71875 -4.484375 -1.421875 -4.0625 -1.1875 C -2.828125 -0.53125 -1.15625 -0.484375 0.1875 -1.09375 C 0.6875 -1.3125 1.109375 -1.65625 1.46875 -2.078125 C 1.53125 -2.171875 1.546875 -2.171875 1.546875 -2.328125 L 1.546875 -2.578125 Z M 1.546875 -2.578125 "/>
</symbol>
<symbol overflow="visible" id="glyph2-4">
<path style="stroke:none;" d="M 0 -0.21875 L 0 -0.578125 C 0 -0.625 0.015625 -0.6875 -0.015625 -0.71875 C -0.03125 -0.75 -0.0625 -0.75 -0.09375 -0.765625 C -0.34375 -0.875 -1.203125 -1.21875 -1.296875 -1.265625 C -1.359375 -1.28125 -1.390625 -1.296875 -1.390625 -1.375 L -1.390625 -3.046875 C -1.390625 -3.234375 -1.40625 -3.421875 -1.390625 -3.609375 C -1.390625 -3.6875 -1.296875 -3.703125 -1.234375 -3.734375 C -1.03125 -3.8125 -0.125 -4.1875 -0.0625 -4.203125 C 0.015625 -4.234375 0 -4.296875 0 -4.40625 L 0 -4.796875 C -0.453125 -4.625 -0.890625 -4.4375 -1.34375 -4.25 L -4.828125 -2.8125 C -4.859375 -2.796875 -4.90625 -2.796875 -4.90625 -2.765625 C -4.90625 -2.71875 -4.90625 -2.671875 -4.90625 -2.625 L -4.90625 -2.375 C -4.90625 -2.328125 -4.921875 -2.265625 -4.890625 -2.234375 C -4.875 -2.203125 -4.84375 -2.1875 -4.8125 -2.1875 L -1.34375 -0.765625 L -0.484375 -0.40625 C -0.328125 -0.34375 -0.171875 -0.265625 0 -0.21875 Z M -4.328125 -2.484375 C -3.46875 -2.796875 -2.640625 -3.15625 -1.8125 -3.5 L -1.8125 -1.46875 C -2.640625 -1.796875 -3.46875 -2.15625 -4.328125 -2.46875 L -4.328125 -2.484375 Z M -4.328125 -2.484375 "/>
</symbol>
<symbol overflow="visible" id="glyph2-5">
<path style="stroke:none;" d="M -2.625 -1.078125 L -2.625 -1.0625 L -3.296875 -1.0625 L -3.296875 -0.578125 L 0 -0.578125 L 0 -1.09375 L -1.53125 -1.09375 C -1.875 -1.09375 -2.203125 -1.0625 -2.515625 -1.21875 C -2.671875 -1.296875 -2.8125 -1.421875 -2.90625 -1.609375 C -2.96875 -1.734375 -2.96875 -1.875 -2.953125 -2.015625 C -2.9375 -2.25 -2.875 -2.484375 -2.6875 -2.609375 C -2.53125 -2.71875 -2.34375 -2.734375 -2.15625 -2.734375 L 0 -2.734375 L 0 -3.234375 L -1.53125 -3.234375 C -1.875 -3.234375 -2.203125 -3.21875 -2.515625 -3.375 C -2.671875 -3.453125 -2.8125 -3.578125 -2.90625 -3.75 C -2.96875 -3.890625 -2.96875 -4.03125 -2.953125 -4.171875 C -2.9375 -4.390625 -2.875 -4.640625 -2.6875 -4.765625 C -2.53125 -4.875 -2.34375 -4.890625 -2.15625 -4.890625 L 0 -4.890625 L 0 -5.390625 L -1.875 -5.390625 C -2.21875 -5.390625 -2.609375 -5.421875 -2.921875 -5.25 C -3.171875 -5.109375 -3.296875 -4.84375 -3.328125 -4.5625 C -3.34375 -4.421875 -3.359375 -4.28125 -3.328125 -4.15625 C -3.296875 -3.859375 -3.125 -3.59375 -2.90625 -3.40625 C -2.8125 -3.328125 -2.703125 -3.25 -2.609375 -3.21875 C -2.671875 -3.1875 -2.734375 -3.1875 -2.796875 -3.15625 C -3.125 -3.03125 -3.3125 -2.75 -3.34375 -2.328125 C -3.34375 -2.21875 -3.359375 -2.109375 -3.328125 -2 C -3.296875 -1.734375 -3.171875 -1.515625 -2.984375 -1.328125 C -2.890625 -1.21875 -2.75 -1.125 -2.625 -1.078125 Z M -2.625 -1.078125 "/>
</symbol>
<symbol overflow="visible" id="glyph2-6">
<path style="stroke:none;" d="M -2.8125 -1.09375 L -2.8125 -1.078125 L -3.296875 -1.078125 L -3.296875 -0.578125 L 1.15625 -0.578125 L 1.15625 -1.09375 L -0.453125 -1.09375 C -0.390625 -1.15625 -0.3125 -1.21875 -0.25 -1.28125 C -0.09375 -1.453125 0.015625 -1.671875 0.046875 -1.90625 C 0.0625 -2.015625 0.0625 -2.109375 0.046875 -2.21875 C -0.015625 -2.78125 -0.484375 -3.203125 -1 -3.390625 C -1.71875 -3.640625 -2.53125 -3.421875 -2.96875 -3.03125 C -3.140625 -2.890625 -3.265625 -2.6875 -3.3125 -2.46875 C -3.40625 -2.125 -3.28125 -1.71875 -3.140625 -1.484375 C -3.078125 -1.359375 -2.9375 -1.15625 -2.8125 -1.09375 Z M -2.640625 -2.59375 C -2.078125 -3.15625 -1.015625 -3.109375 -0.53125 -2.4375 C -0.484375 -2.359375 -0.4375 -2.265625 -0.40625 -2.1875 C -0.28125 -1.8125 -0.328125 -1.453125 -0.640625 -1.203125 C -0.6875 -1.171875 -0.75 -1.125 -0.8125 -1.09375 C -0.859375 -1.09375 -0.90625 -1.09375 -0.9375 -1.09375 L -2.3125 -1.09375 C -2.375 -1.09375 -2.46875 -1.078125 -2.53125 -1.109375 C -2.578125 -1.140625 -2.640625 -1.1875 -2.671875 -1.234375 C -3.046875 -1.609375 -3.015625 -2.21875 -2.640625 -2.59375 Z M -2.640625 -2.59375 "/>
</symbol>
<symbol overflow="visible" id="glyph2-7">
<path style="stroke:none;" d="M -5.21875 -0.4375 C -5.1875 -0.46875 -5.15625 -0.515625 -5.109375 -0.5625 C -4.34375 -1.421875 -3.109375 -1.890625 -1.59375 -1.828125 C -0.84375 -1.8125 -0.09375 -1.625 0.5625 -1.265625 C 0.890625 -1.078125 1.1875 -0.84375 1.4375 -0.5625 C 1.46875 -0.515625 1.5 -0.46875 1.546875 -0.4375 L 1.546875 -0.6875 C 1.546875 -0.84375 1.546875 -0.828125 1.46875 -0.921875 C 1.171875 -1.296875 0.796875 -1.59375 0.390625 -1.8125 C -0.859375 -2.484375 -2.515625 -2.53125 -3.859375 -1.921875 C -4.375 -1.6875 -4.796875 -1.359375 -5.140625 -0.9375 C -5.21875 -0.84375 -5.21875 -0.84375 -5.21875 -0.6875 L -5.21875 -0.4375 Z M -5.21875 -0.4375 "/>
</symbol>
<symbol overflow="visible" id="glyph3-0">
<path style="stroke:none;" d=""/>
</symbol>
<symbol overflow="visible" id="glyph3-1">
<path style="stroke:none;" d="M 0.546875 -3.015625 L 0.546875 -2.734375 C 0.796875 -2.734375 1.046875 -2.78125 1.28125 -2.875 L 1.28125 -0.28125 L 0.578125 -0.28125 L 0.578125 0 L 2.328125 0 L 2.328125 -0.28125 L 1.640625 -0.28125 L 1.640625 -3.34375 C 1.609375 -3.34375 1.5625 -3.359375 1.546875 -3.34375 C 1.5 -3.328125 1.46875 -3.296875 1.4375 -3.265625 C 1.234375 -3.09375 0.875 -3.015625 0.546875 -3.015625 Z M 0.546875 -3.015625 "/>
</symbol>
<symbol overflow="visible" id="glyph3-2">
<path style="stroke:none;" d="M 0.4375 -2.28125 C 0.515625 -2.578125 0.65625 -2.890625 0.953125 -3 C 1.078125 -3.046875 1.203125 -3.0625 1.328125 -3.046875 C 1.578125 -3.03125 1.84375 -2.921875 2 -2.703125 C 2.109375 -2.5625 2.140625 -2.375 2.109375 -2.203125 C 2.046875 -1.71875 1.625 -1.421875 1.28125 -1.15625 C 1 -0.9375 0.421875 -0.421875 0.421875 -0.421875 L 0.328125 -0.34375 C 0.28125 -0.296875 0.28125 -0.296875 0.28125 -0.1875 L 0.28125 0 L 2.5 0 L 2.5 -0.3125 L 0.59375 -0.3125 C 0.796875 -0.484375 1.359375 -0.953125 1.53125 -1.078125 C 1.84375 -1.3125 2.1875 -1.546875 2.390625 -1.890625 C 2.609375 -2.28125 2.46875 -2.8125 2.125 -3.078125 C 1.75 -3.40625 1.046875 -3.453125 0.625 -3.140625 C 0.46875 -3.03125 0.359375 -2.84375 0.28125 -2.671875 C 0.265625 -2.625 0.234375 -2.578125 0.234375 -2.546875 C 0.25 -2.515625 0.28125 -2.484375 0.296875 -2.46875 C 0.34375 -2.40625 0.390625 -2.34375 0.4375 -2.28125 Z M 0.4375 -2.28125 "/>
</symbol>
<symbol overflow="visible" id="glyph4-0">
<path style="stroke:none;" d=""/>
</symbol>
<symbol overflow="visible" id="glyph4-1">
<path style="stroke:none;" d="M 0.984375 -5.21875 C 0.84375 -5.171875 0.859375 -5.03125 0.859375 -4.90625 L 0.859375 1.25 C 0.859375 1.359375 0.84375 1.46875 0.953125 1.53125 C 0.96875 1.53125 0.984375 1.546875 1 1.546875 C 1.015625 1.546875 1.03125 1.546875 1.0625 1.546875 C 1.21875 1.5 1.1875 1.3125 1.1875 1.1875 L 1.1875 -5 C 1.1875 -5.03125 1.1875 -5.078125 1.171875 -5.125 C 1.15625 -5.1875 1.0625 -5.234375 0.984375 -5.21875 Z M 0.984375 -5.21875 "/>
</symbol>
</g>
<clipPath id="clip1">
  <path d="M -189 667 L 423 667 L 423 -125 L -189 -125 L -189 667 Z M -189 667 "/>
</clipPath>
<clipPath id="clip2">
  <path d="M 10.980469 214.800781 L 232.980469 214.800781 L 232.980469 -0.199219 L 10.980469 -0.199219 L 10.980469 214.800781 Z M 10.980469 214.800781 "/>
</clipPath>
<clipPath id="clip3">
  <path d="M 13.238281 97.496094 L 109.617188 97.496094 L 109.617188 1.117188 L 13.238281 1.117188 L 13.238281 97.496094 Z M 13.238281 97.496094 "/>
</clipPath>
<clipPath id="clip4">
  <path d="M -189 667 L 423 667 L 423 -125 L -189 -125 L -189 667 Z M -189 667 "/>
</clipPath>
<clipPath id="clip5">
  <path d="M 10.980469 214.800781 L 232.980469 214.800781 L 232.980469 -0.199219 L 10.980469 -0.199219 L 10.980469 214.800781 Z M 10.980469 214.800781 "/>
</clipPath>
<clipPath id="clip6">
  <path d="M 109.617188 97.496094 L 205.992188 97.496094 L 205.992188 1.117188 L 109.617188 1.117188 L 109.617188 97.496094 Z M 109.617188 97.496094 "/>
</clipPath>
<clipPath id="clip7">
  <path d="M -189 667 L 423 667 L 423 -125 L -189 -125 L -189 667 Z M -189 667 "/>
</clipPath>
<clipPath id="clip8">
  <path d="M 10.980469 214.800781 L 232.980469 214.800781 L 232.980469 -0.199219 L 10.980469 -0.199219 L 10.980469 214.800781 Z M 10.980469 214.800781 "/>
</clipPath>
<clipPath id="clip9">
  <path d="M -189 667 L 423 667 L 423 -125 L -189 -125 L -189 667 Z M -189 667 "/>
</clipPath>
</defs>
<g id="surface0">
<g clip-path="url(#clip1)" clip-rule="nonzero">
<g clip-path="url(#clip2)" clip-rule="nonzero">
<g clip-path="url(#clip3)" clip-rule="nonzero">
<path style="fill:none;stroke-width:3;stroke-linecap:round;stroke-linejoin:round;stroke:rgb(0%,0%,0%);stroke-opacity:1;stroke-miterlimit:10;" d="M 490.288125 674.191875 L 1454.077188 1637.941875 " transform="matrix(0.1,0,0,-0.1,10.979,214.802)"/>
<path style="fill:none;stroke-width:3;stroke-linecap:round;stroke-linejoin:round;stroke:rgb(0%,0%,0%);stroke-opacity:1;stroke-miterlimit:10;" d="M 423.49125 740.98875 L 1387.24125 1704.777813 " transform="matrix(0.1,0,0,-0.1,10.979,214.802)"/>
<path style="fill:none;stroke-width:3;stroke-linecap:round;stroke-linejoin:round;stroke:rgb(0%,0%,0%);stroke-opacity:1;stroke-miterlimit:10;" d="M 356.655313 807.824688 L 1320.444375 1771.574688 " transform="matrix(0.1,0,0,-0.1,10.979,214.802)"/>
<path style="fill:none;stroke-width:3;stroke-linecap:round;stroke-linejoin:round;stroke:rgb(0%,0%,0%);stroke-opacity:1;stroke-miterlimit:10;" d="M 289.858438 874.621563 L 1253.608438 1838.410625 " transform="matrix(0.1,0,0,-0.1,10.979,214.802)"/>
<path style="fill:none;stroke-width:3;stroke-linecap:round;stroke-linejoin:round;stroke:rgb(0%,0%,0%);stroke-opacity:1;stroke-miterlimit:10;" d="M 223.0225 941.4575 L 1186.811563 1905.2075 " transform="matrix(0.1,0,0,-0.1,10.979,214.802)"/>
<path style="fill:none;stroke-width:3;stroke-linecap:round;stroke-linejoin:round;stroke:rgb(0%,0%,0%);stroke-opacity:1;stroke-miterlimit:10;" d="M 156.225625 1008.254375 L 1120.014688 1972.043438 " transform="matrix(0.1,0,0,-0.1,10.979,214.802)"/>
<path style="fill:none;stroke-width:3;stroke-linecap:round;stroke-linejoin:round;stroke:rgb(0%,0%,0%);stroke-opacity:1;stroke-miterlimit:10;" d="M 89.389688 1075.05125 L 1053.17875 2038.840313 " transform="matrix(0.1,0,0,-0.1,10.979,214.802)"/>
<path style="fill:none;stroke-width:3;stroke-linecap:round;stroke-linejoin:round;stroke:rgb(0%,0%,0%);stroke-opacity:1;stroke-miterlimit:10;" d="M 22.592813 1141.887188 L 986.381875 2105.67625 " transform="matrix(0.1,0,0,-0.1,10.979,214.802)"/>
<path style="fill:none;stroke-width:3;stroke-linecap:round;stroke-linejoin:round;stroke:rgb(0%,0%,0%);stroke-opacity:1;stroke-miterlimit:10;" d="M -44.204062 1208.684063 L 919.545938 2172.473125 " transform="matrix(0.1,0,0,-0.1,10.979,214.802)"/>
<path style="fill:none;stroke-width:3;stroke-linecap:round;stroke-linejoin:round;stroke:rgb(0%,0%,0%);stroke-opacity:1;stroke-miterlimit:10;" d="M -111.04 1275.52 L 852.749063 2239.309063 " transform="matrix(0.1,0,0,-0.1,10.979,214.802)"/>
<path style="fill:none;stroke-width:3;stroke-linecap:round;stroke-linejoin:round;stroke:rgb(0%,0%,0%);stroke-opacity:1;stroke-miterlimit:10;" d="M -177.836875 1342.316875 L 785.952188 2306.105938 " transform="matrix(0.1,0,0,-0.1,10.979,214.802)"/>
<path style="fill:none;stroke-width:3;stroke-linecap:round;stroke-linejoin:round;stroke:rgb(0%,0%,0%);stroke-opacity:1;stroke-miterlimit:10;" d="M -244.672812 1409.11375 L 719.11625 2372.902813 " transform="matrix(0.1,0,0,-0.1,10.979,214.802)"/>
<path style="fill:none;stroke-width:3;stroke-linecap:round;stroke-linejoin:round;stroke:rgb(0%,0%,0%);stroke-opacity:1;stroke-miterlimit:10;" d="M -311.469687 1475.949688 L 652.319375 2439.73875 " transform="matrix(0.1,0,0,-0.1,10.979,214.802)"/>
<path style="fill:none;stroke-width:3;stroke-linecap:round;stroke-linejoin:round;stroke:rgb(0%,0%,0%);stroke-opacity:1;stroke-miterlimit:10;" d="M -378.266562 1542.746563 L 585.483438 2506.535625 " transform="matrix(0.1,0,0,-0.1,10.979,214.802)"/>
<path style="fill:none;stroke-width:3;stroke-linecap:round;stroke-linejoin:round;stroke:rgb(0%,0%,0%);stroke-opacity:1;stroke-miterlimit:10;" d="M -445.1025 1609.5825 L 518.686563 2573.3325 " transform="matrix(0.1,0,0,-0.1,10.979,214.802)"/>
</g>
</g>
</g>
<g clip-path="url(#clip4)" clip-rule="nonzero">
<g clip-path="url(#clip5)" clip-rule="nonzero">
<g clip-path="url(#clip6)" clip-rule="nonzero">
<path style="fill:none;stroke-width:3;stroke-linecap:round;stroke-linejoin:round;stroke:rgb(0%,0%,0%);stroke-opacity:1;stroke-miterlimit:10;" d="M 1482.475625 736.535625 L 518.686563 1700.324688 " transform="matrix(0.1,0,0,-0.1,10.979,214.802)"/>
<path style="fill:none;stroke-width:3;stroke-linecap:round;stroke-linejoin:round;stroke:rgb(0%,0%,0%);stroke-opacity:1;stroke-miterlimit:10;" d="M 1549.2725 803.371563 L 585.483438 1767.121563 " transform="matrix(0.1,0,0,-0.1,10.979,214.802)"/>
<path style="fill:none;stroke-width:3;stroke-linecap:round;stroke-linejoin:round;stroke:rgb(0%,0%,0%);stroke-opacity:1;stroke-miterlimit:10;" d="M 1616.108438 870.168438 L 652.319375 1833.9575 " transform="matrix(0.1,0,0,-0.1,10.979,214.802)"/>
<path style="fill:none;stroke-width:3;stroke-linecap:round;stroke-linejoin:round;stroke:rgb(0%,0%,0%);stroke-opacity:1;stroke-miterlimit:10;" d="M 1682.905313 937.004375 L 719.11625 1900.754375 " transform="matrix(0.1,0,0,-0.1,10.979,214.802)"/>
<path style="fill:none;stroke-width:3;stroke-linecap:round;stroke-linejoin:round;stroke:rgb(0%,0%,0%);stroke-opacity:1;stroke-miterlimit:10;" d="M 1749.702188 1003.80125 L 785.952188 1967.590313 " transform="matrix(0.1,0,0,-0.1,10.979,214.802)"/>
<path style="fill:none;stroke-width:3;stroke-linecap:round;stroke-linejoin:round;stroke:rgb(0%,0%,0%);stroke-opacity:1;stroke-miterlimit:10;" d="M 1816.538125 1070.637188 L 852.749063 2034.387188 " transform="matrix(0.1,0,0,-0.1,10.979,214.802)"/>
<path style="fill:none;stroke-width:3;stroke-linecap:round;stroke-linejoin:round;stroke:rgb(0%,0%,0%);stroke-opacity:1;stroke-miterlimit:10;" d="M 1883.335 1137.434063 L 919.545938 2101.223125 " transform="matrix(0.1,0,0,-0.1,10.979,214.802)"/>
<path style="fill:none;stroke-width:3;stroke-linecap:round;stroke-linejoin:round;stroke:rgb(0%,0%,0%);stroke-opacity:1;stroke-miterlimit:10;" d="M 1950.131875 1204.230938 L 986.381875 2168.02 " transform="matrix(0.1,0,0,-0.1,10.979,214.802)"/>
<path style="fill:none;stroke-width:3;stroke-linecap:round;stroke-linejoin:round;stroke:rgb(0%,0%,0%);stroke-opacity:1;stroke-miterlimit:10;" d="M 2016.967813 1271.066875 L 1053.17875 2234.855938 " transform="matrix(0.1,0,0,-0.1,10.979,214.802)"/>
<path style="fill:none;stroke-width:3;stroke-linecap:round;stroke-linejoin:round;stroke:rgb(0%,0%,0%);stroke-opacity:1;stroke-miterlimit:10;" d="M 2083.764688 1337.86375 L 1120.014688 2301.652813 " transform="matrix(0.1,0,0,-0.1,10.979,214.802)"/>
<path style="fill:none;stroke-width:3;stroke-linecap:round;stroke-linejoin:round;stroke:rgb(0%,0%,0%);stroke-opacity:1;stroke-miterlimit:10;" d="M 2150.600625 1404.660625 L 1186.811563 2368.449688 " transform="matrix(0.1,0,0,-0.1,10.979,214.802)"/>
<path style="fill:none;stroke-width:3;stroke-linecap:round;stroke-linejoin:round;stroke:rgb(0%,0%,0%);stroke-opacity:1;stroke-miterlimit:10;" d="M 2217.3975 1471.496563 L 1253.608438 2435.285625 " transform="matrix(0.1,0,0,-0.1,10.979,214.802)"/>
<path style="fill:none;stroke-width:3;stroke-linecap:round;stroke-linejoin:round;stroke:rgb(0%,0%,0%);stroke-opacity:1;stroke-miterlimit:10;" d="M 2284.194375 1538.293438 L 1320.444375 2502.0825 " transform="matrix(0.1,0,0,-0.1,10.979,214.802)"/>
<path style="fill:none;stroke-width:3;stroke-linecap:round;stroke-linejoin:round;stroke:rgb(0%,0%,0%);stroke-opacity:1;stroke-miterlimit:10;" d="M 2351.030313 1605.129375 L 1387.24125 2568.918438 " transform="matrix(0.1,0,0,-0.1,10.979,214.802)"/>
<path style="fill:none;stroke-width:3;stroke-linecap:round;stroke-linejoin:round;stroke:rgb(0%,0%,0%);stroke-opacity:1;stroke-miterlimit:10;" d="M 2417.827188 1671.92625 L 1454.077188 2635.715313 " transform="matrix(0.1,0,0,-0.1,10.979,214.802)"/>
</g>
</g>
</g>
<g clip-path="url(#clip7)" clip-rule="nonzero">
<g clip-path="url(#clip8)" clip-rule="nonzero">
<path style="fill:none;stroke-width:5;stroke-linecap:round;stroke-linejoin:round;stroke:rgb(0%,0%,0%);stroke-opacity:1;stroke-miterlimit:10;" d="M 986.381875 1173.059063 L 986.381875 2136.848125 " transform="matrix(0.1,0,0,-0.1,10.979,214.802)"/>
<path style="fill:none;stroke-width:5;stroke-linecap:round;stroke-linejoin:round;stroke:rgb(0%,0%,0%);stroke-opacity:1;stroke-miterlimit:10;" d="M 22.592813 549.42625 L 2205.288125 549.42625 " transform="matrix(0.1,0,0,-0.1,10.979,214.802)"/>
<path style=" stroke:none;fill-rule:nonzero;fill:rgb(0%,0%,0%);fill-opacity:1;" d="M 225.972656 161.085938 L 231.507813 159.859375 L 225.972656 158.632813 "/>
<path style="fill:none;stroke-width:5;stroke-linecap:round;stroke-linejoin:round;stroke:rgb(0%,0%,0%);stroke-opacity:1;stroke-miterlimit:10;" d="M 2149.936563 537.160625 L 2205.288125 549.42625 L 2149.936563 561.691875 L 2149.936563 537.160625 Z M 2149.936563 537.160625 " transform="matrix(0.1,0,0,-0.1,10.979,214.802)"/>
<path style="fill:none;stroke-width:5;stroke-linecap:round;stroke-linejoin:round;stroke:rgb(0%,0%,0%);stroke-opacity:1;stroke-miterlimit:10;" d="M 22.592813 166.77 L 22.592813 988.80125 " transform="matrix(0.1,0,0,-0.1,10.979,214.802)"/>
<path style=" stroke:none;fill-rule:nonzero;fill:rgb(0%,0%,0%);fill-opacity:1;" d="M 14.464844 121.457031 L 13.238281 115.921875 L 12.011719 121.457031 "/>
<path style="fill:none;stroke-width:5;stroke-linecap:round;stroke-linejoin:round;stroke:rgb(0%,0%,0%);stroke-opacity:1;stroke-miterlimit:10;" d="M 34.858438 933.449688 L 22.592813 988.80125 L 10.327188 933.449688 L 34.858438 933.449688 Z M 34.858438 933.449688 " transform="matrix(0.1,0,0,-0.1,10.979,214.802)"/>
<path style="fill:none;stroke-width:5;stroke-linecap:round;stroke-linejoin:round;stroke:rgb(0%,0%,0%);stroke-opacity:1;stroke-miterlimit:10;" d="M 107.631875 593.566875 C 112.592813 578.371563 117.358438 563.48875 121.811563 549.42625 C 153.413125 450.168438 198.530313 308.48875 242.280313 308.48875 C 286.030313 308.48875 331.1475 450.168438 362.749063 549.42625 C 394.350625 648.723125 439.467813 790.402813 483.217813 790.402813 C 527.006875 790.402813 572.085 648.723125 603.686563 549.42625 C 635.288125 450.168438 680.405313 308.48875 724.155313 308.48875 C 767.944375 308.48875 813.061563 450.168438 844.624063 549.42625 C 876.225625 648.723125 921.342813 790.402813 965.131875 790.402813 C 972.202188 790.402813 979.311563 786.691875 986.381875 780.05125 L 986.381875 780.05125 C 1022.631875 745.36375 1062.983438 714.777813 1106.850625 689.309063 C 1144.975625 667.199688 1185.444375 649.035625 1227.319375 634.27 C 1266.61625 620.441875 1306.92875 609.621563 1347.788125 600.910625 C 1387.592813 592.395 1427.827188 585.871563 1468.256875 580.637188 C 1482.3975 578.80125 1496.577188 577.121563 1510.795938 575.598125 " transform="matrix(0.1,0,0,-0.1,10.979,214.802)"/>
<path style="fill:none;stroke-width:3;stroke-linecap:round;stroke-linejoin:round;stroke:rgb(0%,0%,0%);stroke-opacity:1;stroke-miterlimit:10;" d="M 986.381875 10.871563 L 986.381875 209.27 " transform="matrix(0.1,0,0,-0.1,10.979,214.802)"/>
<path style="fill:none;stroke-width:3;stroke-linecap:round;stroke-linejoin:round;stroke:rgb(0%,0%,0%);stroke-opacity:1;stroke-dasharray:56.6928,28.3464;stroke-dashoffset:56.6928;stroke-miterlimit:10;" d="M 986.381875 209.27 L 986.381875 875.441875 " transform="matrix(0.1,0,0,-0.1,10.979,214.802)"/>
<path style="fill:none;stroke-width:3;stroke-linecap:round;stroke-linejoin:round;stroke:rgb(0%,0%,0%);stroke-opacity:1;stroke-miterlimit:10;" d="M 1227.319375 10.871563 L 1227.319375 209.27 " transform="matrix(0.1,0,0,-0.1,10.979,214.802)"/>
<path style="fill:none;stroke-width:3;stroke-linecap:round;stroke-linejoin:round;stroke:rgb(0%,0%,0%);stroke-opacity:1;stroke-dasharray:56.6928,28.3464;stroke-dashoffset:56.6928;stroke-miterlimit:10;" d="M 1227.319375 209.27 L 1227.319375 634.27 " transform="matrix(0.1,0,0,-0.1,10.979,214.802)"/>
<path style="fill:none;stroke-width:3;stroke-linecap:round;stroke-linejoin:round;stroke:rgb(0%,0%,0%);stroke-opacity:1;stroke-miterlimit:10;" d="M 872.983438 124.230938 L 986.381875 124.230938 " transform="matrix(0.1,0,0,-0.1,10.979,214.802)"/>
<path style=" stroke:none;fill-rule:nonzero;fill:rgb(0%,0%,0%);fill-opacity:1;" d="M 105.464844 203.296875 L 109.617188 202.378906 L 105.464844 201.457031 "/>
<path style="fill:none;stroke-width:3;stroke-linecap:round;stroke-linejoin:round;stroke:rgb(0%,0%,0%);stroke-opacity:1;stroke-miterlimit:10;" d="M 944.858438 115.05125 L 986.381875 124.230938 L 944.858438 133.449688 L 944.858438 115.05125 Z M 944.858438 115.05125 " transform="matrix(0.1,0,0,-0.1,10.979,214.802)"/>
<path style="fill:none;stroke-width:3;stroke-linecap:round;stroke-linejoin:round;stroke:rgb(0%,0%,0%);stroke-opacity:1;stroke-miterlimit:10;" d="M 1340.717813 124.230938 L 1227.319375 124.230938 " transform="matrix(0.1,0,0,-0.1,10.979,214.802)"/>
<path style=" stroke:none;fill-rule:nonzero;fill:rgb(0%,0%,0%);fill-opacity:1;" d="M 137.863281 201.457031 L 133.710938 202.378906 L 137.863281 203.296875 "/>
<path style="fill:none;stroke-width:3;stroke-linecap:round;stroke-linejoin:round;stroke:rgb(0%,0%,0%);stroke-opacity:1;stroke-miterlimit:10;" d="M 1268.842813 133.449688 L 1227.319375 124.230938 L 1268.842813 115.05125 L 1268.842813 133.449688 Z M 1268.842813 133.449688 " transform="matrix(0.1,0,0,-0.1,10.979,214.802)"/>
<path style="fill:none;stroke-width:3;stroke-linecap:round;stroke-linejoin:round;stroke:rgb(0%,0%,0%);stroke-opacity:1;stroke-miterlimit:10;" d="M 121.811563 10.871563 L 121.811563 223.449688 " transform="matrix(0.1,0,0,-0.1,10.979,214.802)"/>
<path style="fill:none;stroke-width:3;stroke-linecap:round;stroke-linejoin:round;stroke:rgb(0%,0%,0%);stroke-opacity:1;stroke-miterlimit:10;" d="M 603.686563 10.871563 L 603.686563 223.449688 " transform="matrix(0.1,0,0,-0.1,10.979,214.802)"/>
<path style="fill:none;stroke-width:3;stroke-linecap:round;stroke-linejoin:round;stroke:rgb(0%,0%,0%);stroke-opacity:1;stroke-miterlimit:10;" d="M 121.811563 124.230938 L 603.686563 124.230938 " transform="matrix(0.1,0,0,-0.1,10.979,214.802)"/>
<path style=" stroke:none;fill-rule:nonzero;fill:rgb(0%,0%,0%);fill-opacity:1;" d="M 67.195313 203.296875 L 71.347656 202.378906 L 67.195313 201.457031 "/>
<path style="fill:none;stroke-width:3;stroke-linecap:round;stroke-linejoin:round;stroke:rgb(0%,0%,0%);stroke-opacity:1;stroke-miterlimit:10;" d="M 562.163125 115.05125 L 603.686563 124.230938 L 562.163125 133.449688 L 562.163125 115.05125 Z M 562.163125 115.05125 " transform="matrix(0.1,0,0,-0.1,10.979,214.802)"/>
<path style=" stroke:none;fill-rule:nonzero;fill:rgb(0%,0%,0%);fill-opacity:1;" d="M 27.3125 201.457031 L 23.160156 202.378906 L 27.3125 203.296875 "/>
<path style="fill:none;stroke-width:3;stroke-linecap:round;stroke-linejoin:round;stroke:rgb(0%,0%,0%);stroke-opacity:1;stroke-miterlimit:10;" d="M 163.335 133.449688 L 121.811563 124.230938 L 163.335 115.05125 L 163.335 133.449688 Z M 163.335 133.449688 " transform="matrix(0.1,0,0,-0.1,10.979,214.802)"/>
</g>
</g>
<g clip-path="url(#clip9)" clip-rule="nonzero">
<g style="fill:rgb(0%,0%,0%);fill-opacity:1;">
  <use xlink:href="#glyph0-1" x="0.269" y="117.713"/>
  <use xlink:href="#glyph0-2" x="3.285866" y="117.713"/>
  <use xlink:href="#glyph0-3" x="7.111693" y="117.713"/>
</g>
<g style="fill:rgb(0%,0%,0%);fill-opacity:1;">
  <use xlink:href="#glyph1-1" x="226.643" y="165.938"/>
</g>
<g style="fill:rgb(0%,0%,0%);fill-opacity:1;">
  <use xlink:href="#glyph2-1" x="8.579" y="171.905"/>
  <use xlink:href="#glyph2-2" x="8.579" y="166.924312"/>
  <use xlink:href="#glyph2-3" x="8.579" y="163.476465"/>
  <use xlink:href="#glyph2-4" x="8.579" y="160.459599"/>
  <use xlink:href="#glyph2-5" x="8.579" y="155.437766"/>
  <use xlink:href="#glyph2-6" x="8.579" y="149.457035"/>
  <use xlink:href="#glyph2-7" x="8.579" y="145.631209"/>
</g>
<path style=" stroke:none;fill-rule:nonzero;fill:rgb(100%,100%,100%);fill-opacity:1;" d="M 39.53125 213.359375 L 54.996094 213.359375 L 54.996094 191.296875 L 39.53125 191.296875 L 39.53125 213.359375 Z M 39.53125 213.359375 "/>
<g style="fill:rgb(0%,0%,0%);fill-opacity:1;">
  <use xlink:href="#glyph1-2" x="45.265" y="199.13"/>
</g>
<path style="fill:none;stroke-width:0.339;stroke-linecap:butt;stroke-linejoin:miter;stroke:rgb(0%,0%,0%);stroke-opacity:1;stroke-miterlimit:10;" d="M -0.00015625 -0.0001875 L 7.093594 -0.0001875 " transform="matrix(1,0,0,-1,43.715,202.242)"/>
<g style="fill:rgb(0%,0%,0%);fill-opacity:1;">
  <use xlink:href="#glyph1-3" x="43.715" y="209.21"/>
</g>
<g style="fill:rgb(0%,0%,0%);fill-opacity:1;">
  <use xlink:href="#glyph3-1" x="47.541" y="210.082"/>
</g>
<path style=" stroke:none;fill-rule:nonzero;fill:rgb(100%,100%,100%);fill-opacity:1;" d="M 111.882813 213.554688 L 131.460938 213.554688 L 131.460938 191.105469 L 111.882813 191.105469 L 111.882813 213.554688 Z M 111.882813 213.554688 "/>
<g style="fill:rgb(0%,0%,0%);fill-opacity:1;">
  <use xlink:href="#glyph0-4" x="119.587" y="198.936"/>
</g>
<g style="fill:rgb(0%,0%,0%);fill-opacity:1;">
  <use xlink:href="#glyph1-2" x="119.762" y="198.936"/>
</g>
<path style="fill:none;stroke-width:0.339;stroke-linecap:butt;stroke-linejoin:miter;stroke:rgb(0%,0%,0%);stroke-opacity:1;stroke-miterlimit:10;" d="M 0.00040625 -0.00178125 L 11.211344 -0.00178125 " transform="matrix(1,0,0,-1,116.066,202.049)"/>
<g style="fill:rgb(0%,0%,0%);fill-opacity:1;">
  <use xlink:href="#glyph4-1" x="116.066" y="209.016"/>
</g>
<g style="fill:rgb(0%,0%,0%);fill-opacity:1;">
  <use xlink:href="#glyph1-3" x="118.125" y="209.016"/>
</g>
<g style="fill:rgb(0%,0%,0%);fill-opacity:1;">
  <use xlink:href="#glyph3-2" x="121.951" y="209.888"/>
</g>
<g style="fill:rgb(0%,0%,0%);fill-opacity:1;">
  <use xlink:href="#glyph4-1" x="125.22" y="209.016"/>
</g>
<g style="fill:rgb(0%,0%,0%);fill-opacity:1;">
  <use xlink:href="#glyph0-1" x="0.457" y="9.146"/>
  <use xlink:href="#glyph0-5" x="3.473866" y="9.146"/>
  <use xlink:href="#glyph0-3" x="7.110703" y="9.146"/>
</g>
<path style=" stroke:none;fill-rule:nonzero;fill:rgb(100%,100%,100%);fill-opacity:1;" d="M 54.253906 23.882813 L 62.949219 23.882813 L 62.949219 16.46875 L 54.253906 16.46875 L 54.253906 23.882813 Z M 54.253906 23.882813 "/>
<g style="fill:rgb(0%,0%,0%);fill-opacity:1;">
  <use xlink:href="#glyph1-4" x="55.102" y="22.16"/>
</g>
<g style="fill:rgb(0%,0%,0%);fill-opacity:1;">
  <use xlink:href="#glyph3-1" x="58.831" y="23.032"/>
</g>
<path style=" stroke:none;fill-rule:nonzero;fill:rgb(100%,100%,100%);fill-opacity:1;" d="M 40.339844 33.296875 L 76.863281 33.296875 L 76.863281 23.699219 L 40.339844 23.699219 L 40.339844 33.296875 Z M 40.339844 33.296875 "/>
<g style="fill:rgb(0%,0%,0%);fill-opacity:1;">
  <use xlink:href="#glyph1-3" x="41.188" y="30.282"/>
</g>
<g style="fill:rgb(0%,0%,0%);fill-opacity:1;">
  <use xlink:href="#glyph3-2" x="45.252" y="27.82"/>
</g>
<g style="fill:rgb(0%,0%,0%);fill-opacity:1;">
  <use xlink:href="#glyph3-1" x="45.014" y="32.444"/>
</g>
<g style="fill:rgb(0%,0%,0%);fill-opacity:1;">
  <use xlink:href="#glyph1-5" x="48.521" y="30.282"/>
</g>
<g style="fill:rgb(0%,0%,0%);fill-opacity:1;">
  <use xlink:href="#glyph0-6" x="52.226" y="30.282"/>
</g>
<g style="fill:rgb(0%,0%,0%);fill-opacity:1;">
  <use xlink:href="#glyph1-6" x="56.105" y="30.282"/>
</g>
<g style="fill:rgb(0%,0%,0%);fill-opacity:1;">
  <use xlink:href="#glyph1-7" x="64.317347" y="30.282"/>
</g>
<g style="fill:rgb(0%,0%,0%);fill-opacity:1;">
  <use xlink:href="#glyph0-7" x="72.135" y="30.282"/>
</g>
<path style=" stroke:none;fill-rule:nonzero;fill:rgb(100%,100%,100%);fill-opacity:1;" d="M 156.300781 23.457031 L 164.996094 23.457031 L 164.996094 16.042969 L 156.300781 16.042969 L 156.300781 23.457031 Z M 156.300781 23.457031 "/>
<g style="fill:rgb(0%,0%,0%);fill-opacity:1;">
  <use xlink:href="#glyph1-4" x="157.149" y="21.735"/>
</g>
<g style="fill:rgb(0%,0%,0%);fill-opacity:1;">
  <use xlink:href="#glyph3-2" x="160.879" y="22.607"/>
</g>
<path style=" stroke:none;fill-rule:nonzero;fill:rgb(100%,100%,100%);fill-opacity:1;" d="M 142.386719 33.71875 L 178.910156 33.71875 L 178.910156 24.125 L 142.386719 24.125 L 142.386719 33.71875 Z M 142.386719 33.71875 "/>
<g style="fill:rgb(0%,0%,0%);fill-opacity:1;">
  <use xlink:href="#glyph1-3" x="143.235" y="30.707"/>
</g>
<g style="fill:rgb(0%,0%,0%);fill-opacity:1;">
  <use xlink:href="#glyph3-2" x="147.299" y="28.246"/>
</g>
<g style="fill:rgb(0%,0%,0%);fill-opacity:1;">
  <use xlink:href="#glyph3-2" x="147.061" y="32.869"/>
</g>
<g style="fill:rgb(0%,0%,0%);fill-opacity:1;">
  <use xlink:href="#glyph1-5" x="150.568" y="30.707"/>
</g>
<g style="fill:rgb(0%,0%,0%);fill-opacity:1;">
  <use xlink:href="#glyph0-6" x="154.273" y="30.707"/>
</g>
<g style="fill:rgb(0%,0%,0%);fill-opacity:1;">
  <use xlink:href="#glyph1-6" x="158.152" y="30.707"/>
</g>
<g style="fill:rgb(0%,0%,0%);fill-opacity:1;">
  <use xlink:href="#glyph1-8" x="166.364347" y="30.707"/>
</g>
<g style="fill:rgb(0%,0%,0%);fill-opacity:1;">
  <use xlink:href="#glyph0-7" x="174.183" y="30.707"/>
</g>
</g>
</g>
</svg>
