<?xml version="1.0" encoding="UTF-8"?>
<svg xmlns="http://www.w3.org/2000/svg" xmlns:xlink="http://www.w3.org/1999/xlink" width="277.12812921102034pt" height="178.40123317959436pt" viewBox="0 0 160 103" version="1.1">
<defs>
<g>
<symbol overflow="visible" id="glyph0-0">
<path style="stroke:none;" d=""/>
</symbol>
<symbol overflow="visible" id="glyph0-1">
<path style="stroke:none;" d="M 0.734375 -4.84375 L 0.734375 0 L 1.25 0 L 1.25 -2.21875 L 2.28125 -2.21875 C 2.421875 -2.21875 2.546875 -2.234375 2.65625 -2.203125 C 2.78125 -2.03125 2.90625 -1.859375 3.03125 -1.671875 C 3.421875 -1.125 3.8125 -0.5625 4.21875 -0.015625 C 4.390625 0 4.578125 0 4.75 0 L 4.46875 -0.390625 L 3.125 -2.28125 C 3.25 -2.296875 3.390625 -2.328125 3.515625 -2.390625 C 4.015625 -2.5625 4.578125 -2.96875 4.53125 -3.5625 C 4.515625 -3.796875 4.453125 -3.9375 4.328125 -4.109375 C 4.015625 -4.515625 3.484375 -4.765625 2.875 -4.828125 C 2.625 -4.84375 2.390625 -4.84375 2.125 -4.84375 L 0.734375 -4.84375 Z M 1.25 -2.609375 L 1.25 -4.421875 L 2.296875 -4.421875 C 2.640625 -4.421875 3 -4.421875 3.34375 -4.328125 C 3.671875 -4.203125 4 -3.96875 4.046875 -3.59375 C 4.0625 -3.359375 3.96875 -3.140625 3.8125 -2.984375 C 3.6875 -2.875 3.546875 -2.796875 3.390625 -2.734375 C 3.046875 -2.609375 2.6875 -2.609375 2.328125 -2.609375 L 1.25 -2.609375 Z M 1.25 -2.609375 "/>
</symbol>
<symbol overflow="visible" id="glyph0-2">
<path style="stroke:none;" d="M 0.21875 0 L 0.578125 0 C 0.625 0 0.6875 0.015625 0.71875 -0.015625 C 0.75 -0.03125 0.75 -0.0625 0.765625 -0.09375 C 0.875 -0.34375 1.21875 -1.203125 1.265625 -1.296875 C 1.28125 -1.359375 1.296875 -1.390625 1.375 -1.390625 L 3.046875 -1.390625 C 3.234375 -1.390625 3.421875 -1.40625 3.609375 -1.390625 C 3.6875 -1.390625 3.703125 -1.296875 3.734375 -1.234375 C 3.8125 -1.03125 4.1875 -0.125 4.203125 -0.0625 C 4.234375 0.015625 4.296875 0 4.40625 0 L 4.796875 0 C 4.625 -0.453125 4.4375 -0.890625 4.25 -1.34375 L 2.8125 -4.828125 C 2.796875 -4.859375 2.796875 -4.90625 2.765625 -4.90625 C 2.71875 -4.90625 2.671875 -4.90625 2.625 -4.90625 L 2.375 -4.90625 C 2.328125 -4.90625 2.265625 -4.921875 2.234375 -4.890625 C 2.203125 -4.875 2.1875 -4.84375 2.1875 -4.8125 L 0.765625 -1.34375 L 0.40625 -0.484375 C 0.34375 -0.328125 0.265625 -0.171875 0.21875 0 Z M 2.484375 -4.328125 C 2.796875 -3.46875 3.15625 -2.640625 3.5 -1.8125 L 1.46875 -1.8125 C 1.796875 -2.640625 2.15625 -3.46875 2.46875 -4.328125 L 2.484375 -4.328125 Z M 2.484375 -4.328125 "/>
</symbol>
<symbol overflow="visible" id="glyph0-3">
<path style="stroke:none;" d="M 0.734375 -4.84375 L 0.734375 0 L 2.265625 0 C 2.890625 0 3.203125 0.03125 3.71875 -0.21875 C 4.359375 -0.515625 4.875 -1.109375 5.03125 -1.875 C 5.234375 -2.84375 4.828125 -3.90625 4 -4.453125 C 3.703125 -4.640625 3.359375 -4.78125 3 -4.828125 C 2.71875 -4.84375 2.4375 -4.84375 2.15625 -4.84375 L 0.734375 -4.84375 Z M 1.25 -0.40625 L 1.25 -4.421875 L 2.234375 -4.421875 C 2.421875 -4.421875 2.609375 -4.4375 2.796875 -4.421875 C 3.296875 -4.375 3.71875 -4.171875 4.015625 -3.875 C 4.375 -3.5 4.53125 -3 4.5625 -2.5 C 4.59375 -1.90625 4.40625 -1.296875 3.96875 -0.890625 C 3.6875 -0.640625 3.25 -0.453125 2.796875 -0.421875 C 2.609375 -0.40625 2.4375 -0.40625 2.25 -0.40625 L 1.25 -0.40625 Z M 1.25 -0.40625 "/>
</symbol>
<symbol overflow="visible" id="glyph0-4">
<path style="stroke:none;" d="M 0.734375 -4.84375 L 0.734375 0 L 1.265625 0 L 1.265625 -4.84375 L 0.734375 -4.84375 Z M 0.734375 -4.84375 "/>
</symbol>
<symbol overflow="visible" id="glyph0-5">
<path style="stroke:none;" d="M 1 -4.03125 C 0.265625 -3.125 0.234375 -1.75 0.96875 -0.84375 C 1.28125 -0.4375 1.703125 -0.140625 2.234375 0.015625 C 3.71875 0.421875 4.921875 -0.546875 5.25 -1.65625 C 5.53125 -2.578125 5.25 -3.640625 4.53125 -4.3125 C 4.171875 -4.640625 3.65625 -4.90625 3.046875 -4.9375 C 2.125 -5.015625 1.421875 -4.53125 1 -4.03125 Z M 3.484375 -4.453125 C 3.96875 -4.296875 4.359375 -3.96875 4.59375 -3.53125 C 4.734375 -3.265625 4.796875 -2.96875 4.828125 -2.671875 C 4.890625 -1.84375 4.546875 -0.9375 3.796875 -0.53125 C 3.421875 -0.328125 2.96875 -0.234375 2.484375 -0.34375 C 2.15625 -0.421875 1.859375 -0.59375 1.640625 -0.796875 C 1.21875 -1.1875 1 -1.765625 0.96875 -2.328125 C 0.90625 -3.34375 1.421875 -4.109375 2.140625 -4.390625 C 2.5625 -4.5625 3.03125 -4.59375 3.484375 -4.453125 Z M 3.484375 -4.453125 "/>
</symbol>
<symbol overflow="visible" id="glyph0-6">
<path style="stroke:none;" d="M 4.515625 -0.796875 C 4.125 -0.578125 3.875 -0.375 3.296875 -0.359375 C 3.09375 -0.359375 2.875 -0.34375 2.671875 -0.390625 C 2.109375 -0.5 1.640625 -0.890625 1.375 -1.390625 C 0.890625 -2.28125 1.125 -3.5 1.953125 -4.125 C 2.09375 -4.21875 2.234375 -4.3125 2.390625 -4.375 C 2.859375 -4.53125 3.421875 -4.515625 3.890625 -4.34375 C 4.0625 -4.265625 4.21875 -4.1875 4.375 -4.109375 C 4.40625 -4.28125 4.453125 -4.46875 4.46875 -4.640625 C 4.328125 -4.703125 4.171875 -4.75 4 -4.78125 C 3.671875 -4.859375 3.171875 -4.921875 2.796875 -4.890625 C 2.078125 -4.828125 1.46875 -4.421875 1.109375 -3.9375 C 0.640625 -3.34375 0.484375 -2.546875 0.65625 -1.8125 C 0.953125 -0.6875 1.90625 0.125 3.28125 0.046875 C 3.734375 0.03125 4.015625 -0.0625 4.375 -0.234375 C 4.40625 -0.265625 4.53125 -0.3125 4.546875 -0.34375 C 4.5625 -0.390625 4.515625 -0.6875 4.515625 -0.796875 Z M 4.515625 -0.796875 "/>
</symbol>
<symbol overflow="visible" id="glyph0-7">
<path style="stroke:none;" d="M 0.28125 -4.8125 L 0.28125 -4.40625 L 2.421875 -4.40625 L 2.421875 0 L 2.953125 0 L 2.953125 -4.40625 L 5.078125 -4.40625 L 5.078125 -4.8125 L 0.28125 -4.8125 Z M 0.28125 -4.8125 "/>
</symbol>
<symbol overflow="visible" id="glyph0-8">
<path style="stroke:none;" d="M 0.109375 -4.84375 C 0.15625 -4.703125 0.21875 -4.5625 0.28125 -4.421875 L 2.09375 -0.25 L 2.171875 -0.046875 C 2.1875 -0.015625 2.1875 0.015625 2.21875 0.03125 C 2.265625 0.0625 2.328125 0.046875 2.375 0.046875 L 2.625 0.046875 C 2.671875 0.046875 2.71875 0.0625 2.765625 0.046875 C 2.796875 0.046875 2.8125 0 2.828125 -0.03125 C 2.859375 -0.09375 2.890625 -0.171875 2.921875 -0.234375 C 3.046875 -0.53125 4.875 -4.78125 4.90625 -4.84375 C 4.71875 -4.84375 4.53125 -4.84375 4.390625 -4.828125 L 4.328125 -4.734375 L 2.515625 -0.515625 L 2.03125 -1.671875 L 0.671875 -4.84375 L 0.109375 -4.84375 Z M 0.109375 -4.84375 "/>
</symbol>
<symbol overflow="visible" id="glyph0-9">
<path style="stroke:none;" d="M 0.015625 -4.84375 L 2.234375 -1.9375 C 2.265625 -1.3125 2.234375 -0.640625 2.25 0 L 2.765625 0 C 2.765625 -0.640625 2.75 -1.296875 2.765625 -1.921875 L 2.828125 -2.015625 L 4.984375 -4.84375 C 4.78125 -4.84375 4.578125 -4.84375 4.390625 -4.828125 L 4.328125 -4.765625 L 2.984375 -3.03125 C 2.828125 -2.828125 2.671875 -2.625 2.515625 -2.421875 L 2.34375 -2.65625 L 2.078125 -3.015625 C 1.609375 -3.609375 1.15625 -4.234375 0.671875 -4.828125 C 0.484375 -4.859375 0.234375 -4.828125 0.015625 -4.84375 Z M 0.015625 -4.84375 "/>
</symbol>
<symbol overflow="visible" id="glyph0-10">
<path style="stroke:none;" d="M 0.765625 -4.84375 L 0.765625 0 L 1.234375 0 L 1.234375 -4.328125 L 1.25 -4.328125 C 1.28125 -4.1875 1.359375 -4.0625 1.40625 -3.921875 C 1.5 -3.703125 2.96875 -0.265625 3 -0.1875 C 3.046875 -0.125 3.015625 -0.109375 3.15625 -0.109375 L 3.359375 -0.109375 C 3.390625 -0.109375 3.421875 -0.109375 3.46875 -0.109375 C 3.5 -0.125 3.5 -0.15625 3.515625 -0.1875 C 3.546875 -0.234375 3.5625 -0.296875 3.59375 -0.359375 L 3.921875 -1.125 C 4.015625 -1.359375 5.265625 -4.234375 5.296875 -4.328125 L 5.296875 -4.328125 L 5.296875 0 L 5.78125 0 L 5.78125 -4.84375 C 5.546875 -4.828125 5.265625 -4.859375 5.078125 -4.828125 L 5.03125 -4.734375 L 3.25 -0.625 L 1.9375 -3.671875 C 1.765625 -4.0625 1.625 -4.453125 1.4375 -4.828125 C 1.25 -4.859375 0.96875 -4.828125 0.765625 -4.84375 Z M 0.765625 -4.84375 "/>
</symbol>
<symbol overflow="visible" id="glyph0-11">
<path style="stroke:none;" d="M 0.734375 -4.828125 L 0.734375 0 L 4.328125 0 L 4.328125 -0.4375 L 1.265625 -0.4375 L 1.265625 -2.296875 L 4 -2.296875 L 4 -2.703125 L 1.265625 -2.703125 L 1.265625 -4.40625 L 4.203125 -4.40625 L 4.203125 -4.828125 L 0.734375 -4.828125 Z M 0.734375 -4.828125 "/>
</symbol>
<symbol overflow="visible" id="glyph0-12">
<path style="stroke:none;" d="M 1.828125 -4.6875 C 1.671875 -4.65625 1.5 -4.640625 1.359375 -4.5625 C 0.625 -4.28125 0.375 -3.34375 0.375 -2.40625 C 0.375 -2.265625 0.375 -2.125 0.375 -1.96875 C 0.390625 -1.328125 0.546875 -0.6875 0.90625 -0.296875 C 1.21875 0.015625 1.671875 0.140625 2.09375 0.109375 C 2.359375 0.078125 2.578125 -0.015625 2.765625 -0.140625 C 3.359375 -0.5625 3.5 -1.421875 3.5 -2.359375 C 3.5 -3.125 3.359375 -3.8125 2.984375 -4.234375 C 2.703125 -4.546875 2.265625 -4.71875 1.828125 -4.6875 Z M 2.421875 -4.171875 C 2.5 -4.125 2.5625 -4.078125 2.625 -4.015625 C 2.890625 -3.765625 2.96875 -3.265625 2.984375 -2.796875 C 2.984375 -2.703125 2.984375 -2.609375 2.984375 -2.515625 L 2.984375 -2.15625 C 2.984375 -1.5625 2.9375 -0.984375 2.671875 -0.625 C 2.328125 -0.171875 1.578125 -0.15625 1.21875 -0.609375 C 1.125 -0.703125 1.078125 -0.828125 1.03125 -0.9375 C 0.90625 -1.296875 0.875 -1.734375 0.875 -2.1875 L 0.875 -2.546875 C 0.875 -2.640625 0.890625 -2.71875 0.890625 -2.8125 C 0.890625 -3.359375 1.03125 -3.90625 1.390625 -4.140625 C 1.671875 -4.3125 2.09375 -4.359375 2.421875 -4.171875 Z M 2.421875 -4.171875 "/>
</symbol>
<symbol overflow="visible" id="glyph0-13">
<path style="stroke:none;" d="M 0.625 -3.203125 C 0.734375 -3.609375 0.90625 -4.046875 1.34375 -4.203125 C 1.5 -4.265625 1.671875 -4.28125 1.859375 -4.265625 C 2.21875 -4.234375 2.578125 -4.09375 2.796875 -3.78125 C 2.9375 -3.578125 2.984375 -3.328125 2.953125 -3.078125 C 2.875 -2.40625 2.28125 -1.984375 1.796875 -1.609375 C 1.40625 -1.3125 0.59375 -0.59375 0.59375 -0.59375 L 0.453125 -0.484375 C 0.390625 -0.40625 0.390625 -0.421875 0.390625 -0.265625 L 0.390625 0 L 3.484375 0 L 3.484375 -0.4375 L 0.84375 -0.4375 C 1.109375 -0.671875 1.90625 -1.34375 2.140625 -1.515625 C 2.578125 -1.84375 3.0625 -2.15625 3.34375 -2.640625 C 3.640625 -3.203125 3.453125 -3.921875 2.96875 -4.3125 C 2.4375 -4.765625 1.46875 -4.828125 0.875 -4.390625 C 0.65625 -4.234375 0.5 -3.984375 0.390625 -3.734375 C 0.375 -3.671875 0.328125 -3.609375 0.328125 -3.546875 C 0.34375 -3.515625 0.390625 -3.484375 0.40625 -3.4375 C 0.46875 -3.359375 0.546875 -3.265625 0.625 -3.203125 Z M 0.625 -3.203125 "/>
</symbol>
<symbol overflow="visible" id="glyph0-14">
<path style="stroke:none;" d="M 0.6875 -3.546875 L 0.6875 -3.546875 C 0.96875 -4.03125 1.515625 -4.34375 2.078125 -4.28125 C 2.484375 -4.265625 2.875 -4.03125 2.8125 -3.546875 C 2.765625 -3.15625 2.453125 -2.859375 2.078125 -2.75 C 1.875 -2.6875 1.515625 -2.671875 1.296875 -2.65625 L 1.296875 -2.265625 L 1.75 -2.265625 C 1.84375 -2.265625 1.9375 -2.28125 2.046875 -2.265625 C 2.296875 -2.25 2.546875 -2.15625 2.734375 -1.984375 C 3.046875 -1.6875 3.09375 -1.15625 2.90625 -0.78125 C 2.8125 -0.640625 2.703125 -0.515625 2.546875 -0.4375 C 2.1875 -0.21875 1.734375 -0.265625 1.34375 -0.390625 C 1.078125 -0.46875 0.828125 -0.609375 0.625 -0.796875 C 0.53125 -0.875 0.46875 -0.953125 0.390625 -1.03125 C 0.375 -0.953125 0.359375 -0.859375 0.34375 -0.78125 C 0.328125 -0.671875 0.3125 -0.640625 0.390625 -0.5625 L 0.515625 -0.4375 C 0.71875 -0.265625 0.953125 -0.125 1.203125 -0.015625 C 1.75 0.1875 2.390625 0.171875 2.890625 -0.140625 C 3.375 -0.46875 3.734375 -1.09375 3.453125 -1.6875 C 3.265625 -2.09375 2.921875 -2.328125 2.46875 -2.46875 C 2.734375 -2.59375 2.921875 -2.703125 3.09375 -2.953125 C 3.234375 -3.15625 3.390625 -3.46875 3.3125 -3.796875 C 3.25 -4.140625 2.96875 -4.40625 2.65625 -4.546875 C 2.203125 -4.75 1.65625 -4.71875 1.203125 -4.515625 C 0.96875 -4.421875 0.765625 -4.265625 0.59375 -4.078125 C 0.5625 -4.0625 0.453125 -3.921875 0.453125 -3.875 C 0.453125 -3.84375 0.625 -3.609375 0.6875 -3.546875 Z M 0.6875 -3.546875 "/>
</symbol>
<symbol overflow="visible" id="glyph0-15">
<path style="stroke:none;" d="M 0.78125 -4.21875 L 0.78125 -3.828125 C 1.125 -3.828125 1.46875 -3.890625 1.78125 -4.03125 L 1.78125 -0.390625 L 0.8125 -0.390625 L 0.8125 0 L 3.25 0 L 3.25 -0.390625 L 2.28125 -0.390625 L 2.28125 -4.6875 C 2.25 -4.6875 2.1875 -4.6875 2.15625 -4.671875 C 2.109375 -4.65625 2.0625 -4.59375 2.015625 -4.5625 C 1.734375 -4.328125 1.21875 -4.21875 0.78125 -4.21875 Z M 0.78125 -4.21875 "/>
</symbol>
<symbol overflow="visible" id="glyph0-16">
<path style="stroke:none;" d="M 1.421875 -2.46875 L 1.421875 -2.46875 C 0.953125 -2.34375 0.515625 -2.03125 0.375 -1.59375 C 0.21875 -1.140625 0.40625 -0.65625 0.734375 -0.34375 C 1.078125 -0.015625 1.546875 0.125 2 0.109375 C 2.625 0.09375 3.28125 -0.28125 3.484375 -0.890625 C 3.546875 -1.09375 3.578125 -1.3125 3.515625 -1.546875 C 3.375 -2.03125 2.9375 -2.34375 2.453125 -2.46875 C 2.515625 -2.5 2.59375 -2.515625 2.65625 -2.53125 C 2.921875 -2.640625 3.171875 -2.8125 3.3125 -3.046875 C 3.59375 -3.484375 3.359375 -4.046875 2.984375 -4.34375 C 2.578125 -4.65625 2.015625 -4.75 1.515625 -4.640625 C 1.09375 -4.546875 0.6875 -4.265625 0.515625 -3.859375 C 0.453125 -3.734375 0.421875 -3.5625 0.4375 -3.40625 C 0.46875 -3.03125 0.75 -2.765625 1.078125 -2.59375 C 1.171875 -2.546875 1.296875 -2.484375 1.421875 -2.46875 Z M 2.09375 -4.28125 C 2.328125 -4.265625 2.59375 -4.203125 2.765625 -4.015625 C 3.03125 -3.734375 3.03125 -3.21875 2.75 -2.9375 C 2.578125 -2.765625 2.328125 -2.6875 2.109375 -2.671875 C 1.765625 -2.640625 1.359375 -2.6875 1.109375 -2.9375 C 0.828125 -3.21875 0.84375 -3.78125 1.140625 -4.0625 C 1.375 -4.265625 1.71875 -4.3125 2.09375 -4.28125 Z M 1.8125 -2.265625 C 2.1875 -2.296875 2.609375 -2.203125 2.859375 -1.890625 C 3.109375 -1.546875 3.109375 -0.921875 2.78125 -0.578125 C 2.609375 -0.40625 2.359375 -0.3125 2.109375 -0.296875 C 1.75 -0.265625 1.34375 -0.3125 1.078125 -0.578125 C 0.765625 -0.90625 0.703125 -1.59375 1.078125 -1.96875 C 1.265625 -2.15625 1.546875 -2.25 1.8125 -2.265625 Z M 1.8125 -2.265625 "/>
</symbol>
<symbol overflow="visible" id="glyph0-17">
<path style="stroke:none;" d="M 0.21875 -1.21875 L 2.34375 -1.21875 L 2.34375 0 L 2.8125 0 L 2.8125 -1.21875 L 3.65625 -1.21875 L 3.65625 -1.640625 L 2.8125 -1.640625 L 2.8125 -4.640625 L 2.421875 -4.640625 C 2.375 -4.640625 2.296875 -4.65625 2.265625 -4.625 C 2.203125 -4.578125 2.109375 -4.40625 2.078125 -4.390625 L 1.671875 -3.78125 C 1.515625 -3.546875 0.375 -1.875 0.296875 -1.75 C 0.21875 -1.671875 0.21875 -1.640625 0.21875 -1.5 L 0.21875 -1.21875 Z M 2.359375 -4.1875 L 2.359375 -1.640625 L 0.71875 -1.640625 L 1.765625 -3.1875 C 1.953125 -3.515625 2.1875 -3.828125 2.359375 -4.1875 Z M 2.359375 -4.1875 "/>
</symbol>
<symbol overflow="visible" id="glyph1-0">
<path style="stroke:none;" d=""/>
</symbol>
<symbol overflow="visible" id="glyph1-1">
<path style="stroke:none;" d="M 0.4375 -4.40625 L 2.578125 -4.40625 L 1.640625 0 L 2.03125 0 C 2.0625 0 2.140625 0.015625 2.171875 -0.015625 C 2.1875 -0.03125 2.1875 -0.078125 2.203125 -0.109375 L 2.25 -0.328125 C 2.390625 -1.03125 3.09375 -4.375 3.109375 -4.40625 C 3.8125 -4.421875 4.578125 -4.375 5.234375 -4.421875 C 5.28125 -4.53125 5.296875 -4.6875 5.328125 -4.8125 L 1.71875 -4.8125 C 1.328125 -4.796875 0.890625 -4.84375 0.53125 -4.796875 C 0.5 -4.671875 0.46875 -4.53125 0.4375 -4.40625 Z M 0.4375 -4.40625 "/>
</symbol>
<symbol overflow="visible" id="glyph1-2">
<path style="stroke:none;" d="M 3.09375 -5.21875 C 2.953125 -5.1875 2.921875 -5 2.875 -4.890625 L 0.90625 0.109375 L 0.453125 1.234375 C 0.4375 1.28125 0.40625 1.328125 0.40625 1.390625 C 0.40625 1.484375 0.5 1.546875 0.59375 1.546875 C 0.6875 1.53125 0.71875 1.46875 0.75 1.390625 C 0.78125 1.328125 3.21875 -4.84375 3.265625 -5 C 3.28125 -5.03125 3.296875 -5.078125 3.28125 -5.109375 C 3.25 -5.1875 3.15625 -5.234375 3.09375 -5.21875 Z M 3.09375 -5.21875 "/>
</symbol>
</g>
<clipPath id="clip1">
  <path d="M -226 668 L 386 668 L 386 -124 L -226 -124 L -226 668 Z M -226 668 "/>
</clipPath>
<clipPath id="clip2">
  <path d="M 11.9375 95.914063 L 159.339844 95.914063 L 159.339844 2.609375 L 11.9375 2.609375 L 11.9375 95.914063 Z M 11.9375 95.914063 "/>
</clipPath>
<clipPath id="clip3">
  <path d="M -226 668 L 386 668 L 386 -124 L -226 -124 L -226 668 Z M -226 668 "/>
</clipPath>
</defs>
<g id="surface0">
<g clip-path="url(#clip1)" clip-rule="nonzero">
<g clip-path="url(#clip2)" clip-rule="nonzero">
<path style="fill:none;stroke-width:10.5;stroke-linecap:butt;stroke-linejoin:miter;stroke:rgb(0%,0%,0%);stroke-opacity:1;stroke-miterlimit:10;" d="M 40.524091 223.960789 L 8.962537 223.960789 " transform="matrix(0.0496302,0,0,-0.0496302,11.938,95.916)"/>
<path style="fill:none;stroke-width:10.5;stroke-linecap:butt;stroke-linejoin:miter;stroke:rgb(0%,0%,0%);stroke-opacity:1;stroke-miterlimit:10;" d="M 40.524091 413.015286 L 8.962537 413.015286 " transform="matrix(0.0496302,0,0,-0.0496302,11.938,95.916)"/>
<path style="fill:none;stroke-width:10.5;stroke-linecap:butt;stroke-linejoin:miter;stroke:rgb(0%,0%,0%);stroke-opacity:1;stroke-miterlimit:10;" d="M 40.524091 791.517816 L 8.962537 791.517816 " transform="matrix(0.0496302,0,0,-0.0496302,11.938,95.916)"/>
<path style="fill:none;stroke-width:10.5;stroke-linecap:butt;stroke-linejoin:miter;stroke:rgb(0%,0%,0%);stroke-opacity:1;stroke-miterlimit:10;" d="M 40.524091 1548.522875 L 8.962537 1548.522875 " transform="matrix(0.0496302,0,0,-0.0496302,11.938,95.916)"/>
<path style="fill:none;stroke-width:10.5;stroke-linecap:butt;stroke-linejoin:miter;stroke:rgb(0%,0%,0%);stroke-opacity:1;stroke-miterlimit:10;" d="M 693.006098 34.512756 L 693.006098 3.029909 " transform="matrix(0.0496302,0,0,-0.0496302,11.938,95.916)"/>
<path style="fill:none;stroke-width:10.5;stroke-linecap:butt;stroke-linejoin:miter;stroke:rgb(0%,0%,0%);stroke-opacity:1;stroke-miterlimit:10;" d="M 1346.039055 34.512756 L 1346.039055 3.029909 " transform="matrix(0.0496302,0,0,-0.0496302,11.938,95.916)"/>
<path style="fill:none;stroke-width:10.5;stroke-linecap:butt;stroke-linejoin:miter;stroke:rgb(0%,0%,0%);stroke-opacity:1;stroke-miterlimit:10;" d="M 1998.521062 34.512756 L 1998.521062 3.029909 " transform="matrix(0.0496302,0,0,-0.0496302,11.938,95.916)"/>
<path style="fill:none;stroke-width:6.125;stroke-linecap:butt;stroke-linejoin:miter;stroke:rgb(0%,0%,0%);stroke-opacity:1;stroke-dasharray:94,47;stroke-miterlimit:10;" d="M 40.524091 791.517816 L 693.006098 791.517816 L 693.006098 34.512756 M 40.524091 413.015286 L 1346.039055 413.015286 L 1346.039055 34.512756 M 40.524091 223.960789 L 1998.521062 223.960789 L 1998.521062 34.512756 " transform="matrix(0.0496302,0,0,-0.0496302,11.938,95.916)"/>
<path style=" stroke:none;fill-rule:nonzero;fill:rgb(0%,0%,0%);fill-opacity:1;" d="M 155.070313 94.203125 L 155.070313 94.996094 L 158.074219 94.203125 L 155.070313 93.410156 L 155.070313 94.203125 "/>
<path style="fill:none;stroke-width:10.5;stroke-linecap:butt;stroke-linejoin:miter;stroke:rgb(0%,0%,0%);stroke-opacity:1;stroke-miterlimit:10;" d="M 2883.976138 34.512756 L 2883.976138 18.535211 L 2944.501911 34.512756 L 2883.976138 50.490301 L 2883.976138 34.512756 M 40.524091 34.512756 L 2883.976138 34.512756 " transform="matrix(0.0496302,0,0,-0.0496302,11.938,95.916)"/>
<path style="fill-rule:nonzero;fill:rgb(0%,0%,0%);fill-opacity:1;stroke-width:10.5;stroke-linecap:butt;stroke-linejoin:miter;stroke:rgb(0%,0%,0%);stroke-opacity:1;stroke-miterlimit:10;" d="M 2883.976138 34.512756 L 2883.976138 18.535211 L 2944.501911 34.512756 L 2883.976138 50.490301 L 2883.976138 34.512756 " transform="matrix(0.0496302,0,0,-0.0496302,11.938,95.916)"/>
<path style=" stroke:none;fill-rule:nonzero;fill:rgb(0%,0%,0%);fill-opacity:1;" d="M 13.949219 7.027344 L 14.742188 7.027344 L 13.949219 4.027344 L 13.152344 7.027344 L 13.949219 7.027344 "/>
<path style="fill:none;stroke-width:10.5;stroke-linecap:butt;stroke-linejoin:miter;stroke:rgb(0%,0%,0%);stroke-opacity:1;stroke-miterlimit:10;" d="M 40.524091 1791.019505 L 56.501636 1791.019505 L 40.524091 1851.466572 L 24.467839 1791.019505 L 40.524091 1791.019505 M 40.524091 34.512756 L 40.524091 1791.019505 " transform="matrix(0.0496302,0,0,-0.0496302,11.938,95.916)"/>
<path style="fill-rule:nonzero;fill:rgb(0%,0%,0%);fill-opacity:1;stroke-width:10.5;stroke-linecap:butt;stroke-linejoin:miter;stroke:rgb(0%,0%,0%);stroke-opacity:1;stroke-miterlimit:10;" d="M 40.524091 1791.019505 L 56.501636 1791.019505 L 40.524091 1851.466572 L 24.467839 1791.019505 L 40.524091 1791.019505 " transform="matrix(0.0496302,0,0,-0.0496302,11.938,95.916)"/>
<path style="fill:none;stroke-width:17.5;stroke-linecap:butt;stroke-linejoin:miter;stroke:rgb(0%,0%,0%);stroke-opacity:1;stroke-miterlimit:10;" d="M 40.524091 1548.522875 L 93.966224 1465.014623 L 147.014822 1386.46492 L 200.535662 1312.007986 L 253.505552 1242.037358 L 307.026392 1175.529844 L 359.996283 1112.485442 L 413.517123 1053.533811 L 466.487013 997.494343 L 520.007853 944.524453 L 573.528693 894.466726 L 626.498584 847.006334 L 680.019424 802.536812 L 732.989314 760.034969 L 786.510154 719.973046 L 839.480044 682.508458 L 893.000885 647.011547 L 945.970775 613.010072 L 999.491615 581.527225 L 1052.461505 550.988864 L 1105.982345 522.96913 L 1159.503186 495.972588 L 1212.473076 470.471482 L 1265.993916 446.465811 L 1318.963806 424.034283 L 1372.484646 402.468532 L 1425.533244 382.004682 L 1478.975377 363.036266 L 1532.023974 345.012336 L 1585.466107 328.011599 L 1638.986947 312.034054 L 1692.035545 296.528752 L 1745.477678 281.967935 L 1798.526275 268.509018 L 1851.968408 255.522343 L 1905.017006 243.480154 L 1958.537846 231.988915 L 2011.507736 220.969919 L 2065.028576 210.974115 L 2117.998467 200.978311 L 2171.519307 192.005699 L 2224.96144 183.50533 L 2278.010037 175.004962 L 2331.530877 167.527786 L 2384.500768 159.971902 L 2438.021608 152.966969 L 2490.991498 146.512985 L 2544.512338 140.531244 L 2597.482229 134.470796 L 2651.003069 128.961298 " transform="matrix(0.0496302,0,0,-0.0496302,11.938,95.916)"/>
</g>
</g>
<g clip-path="url(#clip3)" clip-rule="nonzero">
<g style="fill:rgb(0%,0%,0%);fill-opacity:1;">
  <use xlink:href="#glyph0-1" x="15.623" y="5.645"/>
  <use xlink:href="#glyph0-2" x="20.603688" y="5.645"/>
  <use xlink:href="#glyph0-3" x="25.625521" y="5.645"/>
  <use xlink:href="#glyph0-4" x="31.153653" y="5.645"/>
  <use xlink:href="#glyph0-5" x="33.15862" y="5.645"/>
</g>
<g style="fill:rgb(0%,0%,0%);fill-opacity:1;">
  <use xlink:href="#glyph0-2" x="38.744634" y="5.645"/>
</g>
<g style="fill:rgb(0%,0%,0%);fill-opacity:1;">
  <use xlink:href="#glyph0-6" x="43.550279" y="5.645"/>
  <use xlink:href="#glyph0-7" x="48.507257" y="5.645"/>
  <use xlink:href="#glyph0-4" x="53.87778" y="5.645"/>
  <use xlink:href="#glyph0-8" x="55.882747" y="5.645"/>
  <use xlink:href="#glyph0-4" x="60.904581" y="5.645"/>
  <use xlink:href="#glyph0-7" x="62.909548" y="5.645"/>
  <use xlink:href="#glyph0-9" x="68.280072" y="5.645"/>
</g>
<g style="fill:rgb(0%,0%,0%);fill-opacity:1;">
  <use xlink:href="#glyph0-7" x="136.232" y="101.893"/>
  <use xlink:href="#glyph0-4" x="141.602523" y="101.893"/>
  <use xlink:href="#glyph0-10" x="143.607491" y="101.893"/>
  <use xlink:href="#glyph0-11" x="150.155192" y="101.893"/>
</g>
<g style="fill:rgb(0%,0%,0%);fill-opacity:1;">
  <use xlink:href="#glyph0-12" x="12.153" y="101.627"/>
</g>
<g style="fill:rgb(0%,0%,0%);fill-opacity:1;">
  <use xlink:href="#glyph1-1" x="43.732" y="101.893"/>
</g>
<g style="fill:rgb(0%,0%,0%);fill-opacity:1;">
  <use xlink:href="#glyph0-13" x="74.193" y="101.893"/>
</g>
<g style="fill:rgb(0%,0%,0%);fill-opacity:1;">
  <use xlink:href="#glyph1-1" x="78.072" y="101.893"/>
</g>
<g style="fill:rgb(0%,0%,0%);fill-opacity:1;">
  <use xlink:href="#glyph0-14" x="106.593" y="101.893"/>
</g>
<g style="fill:rgb(0%,0%,0%);fill-opacity:1;">
  <use xlink:href="#glyph1-1" x="110.472" y="101.893"/>
</g>
<g style="fill:rgb(0%,0%,0%);fill-opacity:1;">
  <use xlink:href="#glyph0-15" x="-0.092" y="86.73"/>
</g>
<g style="fill:rgb(0%,0%,0%);fill-opacity:1;">
  <use xlink:href="#glyph1-2" x="3.787" y="86.73"/>
</g>
<g style="fill:rgb(0%,0%,0%);fill-opacity:1;">
  <use xlink:href="#glyph0-16" x="7.492" y="86.73"/>
</g>
<g style="fill:rgb(0%,0%,0%);fill-opacity:1;">
  <use xlink:href="#glyph0-15" x="-0.092" y="77.347"/>
</g>
<g style="fill:rgb(0%,0%,0%);fill-opacity:1;">
  <use xlink:href="#glyph1-2" x="3.787" y="77.347"/>
</g>
<g style="fill:rgb(0%,0%,0%);fill-opacity:1;">
  <use xlink:href="#glyph0-17" x="7.492" y="77.347"/>
</g>
<g style="fill:rgb(0%,0%,0%);fill-opacity:1;">
  <use xlink:href="#glyph0-15" x="-0.092" y="58.383"/>
</g>
<g style="fill:rgb(0%,0%,0%);fill-opacity:1;">
  <use xlink:href="#glyph1-2" x="3.787" y="58.383"/>
</g>
<g style="fill:rgb(0%,0%,0%);fill-opacity:1;">
  <use xlink:href="#glyph0-13" x="7.492" y="58.383"/>
</g>
<g style="fill:rgb(0%,0%,0%);fill-opacity:1;">
  <use xlink:href="#glyph0-15" x="3.7" y="21.386"/>
</g>
</g>
</g>
</svg>
