<?xml version="1.0" encoding="UTF-8"?>
<svg xmlns="http://www.w3.org/2000/svg" xmlns:xlink="http://www.w3.org/1999/xlink" width="228.63070659909178pt" height="213.04224933097188pt" viewBox="0 0 132 123" version="1.1">
<defs>
<g>
<symbol overflow="visible" id="glyph0-0">
<path style="stroke:none;" d=""/>
</symbol>
<symbol overflow="visible" id="glyph0-1">
<path style="stroke:none;" d="M 0.75 -3.296875 C 0.828125 -3.140625 0.921875 -3.015625 1.015625 -2.875 C 1.078125 -2.796875 1.6875 -1.875 1.71875 -1.84375 C 1.734375 -1.8125 1.796875 -1.75 1.796875 -1.703125 C 1.796875 -1.65625 1.71875 -1.609375 1.6875 -1.578125 C 1.375 -1.296875 0.046875 -0.046875 0 0 C 0.1875 0 0.375 0 0.53125 0 L 0.6875 -0.140625 L 1.984375 -1.4375 C 2.265625 -0.953125 2.53125 -0.46875 2.84375 -0.015625 C 3.015625 0 3.203125 0 3.390625 0 C 3.296875 -0.140625 2.359375 -1.53125 2.328125 -1.5625 C 2.3125 -1.609375 2.265625 -1.65625 2.265625 -1.6875 C 2.28125 -1.734375 2.34375 -1.78125 2.375 -1.8125 C 2.484375 -1.921875 2.59375 -2.015625 2.703125 -2.125 C 2.8125 -2.21875 3.921875 -3.25 3.953125 -3.296875 C 3.765625 -3.296875 3.59375 -3.296875 3.421875 -3.28125 C 2.96875 -2.875 2.546875 -2.4375 2.09375 -2.03125 C 1.828125 -2.453125 1.578125 -2.890625 1.28125 -3.28125 C 1.109375 -3.296875 0.921875 -3.296875 0.75 -3.296875 Z M 0.75 -3.296875 "/>
</symbol>
<symbol overflow="visible" id="glyph0-2">
<path style="stroke:none;" d="M 0.8125 -3.296875 C 0.953125 -2.4375 1.125 -1.609375 1.28125 -0.78125 C 1.34375 -0.515625 1.34375 -0.203125 1.4375 0.015625 C 1.609375 0.015625 1.796875 0.03125 1.953125 0 L 2 -0.0625 L 3.984375 -3.296875 C 3.8125 -3.296875 3.640625 -3.296875 3.5 -3.28125 L 2.25 -1.25 L 1.8125 -0.515625 L 1.421875 -2.578125 C 1.375 -2.796875 1.359375 -3.0625 1.296875 -3.28125 C 1.140625 -3.296875 0.96875 -3.296875 0.8125 -3.296875 Z M 0.8125 -3.296875 "/>
</symbol>
<symbol overflow="visible" id="glyph0-3">
<path style="stroke:none;" d="M 2.25 -4.890625 C 1.8125 -4.84375 1.453125 -4.5 1.1875 -4.15625 C 0.765625 -3.609375 0.515625 -2.953125 0.390625 -2.265625 C 0.296875 -1.828125 0.296875 -1.359375 0.375 -0.921875 C 0.46875 -0.484375 0.734375 0.109375 1.34375 0.0625 C 1.796875 0 2.15625 -0.34375 2.421875 -0.6875 C 2.8125 -1.1875 3.046875 -1.796875 3.1875 -2.421875 C 3.28125 -2.890625 3.34375 -3.515625 3.21875 -3.9375 C 3.125 -4.34375 2.890625 -4.828125 2.4375 -4.890625 C 2.375 -4.890625 2.3125 -4.90625 2.25 -4.890625 Z M 2.71875 -2.609375 L 0.96875 -2.609375 C 1 -2.796875 1.0625 -2.984375 1.109375 -3.15625 C 1.25 -3.546875 1.421875 -3.9375 1.703125 -4.234375 C 1.90625 -4.4375 2.234375 -4.609375 2.5 -4.421875 C 2.671875 -4.3125 2.734375 -4.09375 2.78125 -3.90625 C 2.84375 -3.609375 2.828125 -3.3125 2.78125 -3.03125 C 2.765625 -2.890625 2.734375 -2.75 2.71875 -2.609375 Z M 2.625 -2.21875 C 2.625 -2.171875 2.609375 -2.109375 2.59375 -2.046875 C 2.4375 -1.5 2.296875 -1.015625 1.90625 -0.625 C 1.734375 -0.4375 1.453125 -0.25 1.171875 -0.375 C 0.859375 -0.5 0.78125 -0.953125 0.78125 -1.359375 C 0.78125 -1.65625 0.828125 -1.9375 0.890625 -2.21875 L 2.625 -2.21875 Z M 2.625 -2.21875 "/>
</symbol>
<symbol overflow="visible" id="glyph0-4">
<path style="stroke:none;" d="M 1.59375 -2.453125 L 1.578125 -2.453125 C 1.640625 -2.71875 1.703125 -3 1.75 -3.296875 L 1.28125 -3.296875 L 0.578125 0 L 0.9375 0 C 0.96875 0 1.046875 0.015625 1.078125 -0.015625 C 1.09375 -0.03125 1.09375 -0.109375 1.109375 -0.140625 C 1.21875 -0.578125 1.375 -1.40625 1.46875 -1.78125 C 1.640625 -2.46875 2.390625 -2.90625 3.0625 -2.90625 L 3.15625 -3.34375 C 2.6875 -3.34375 2.265625 -3.140625 1.921875 -2.828125 C 1.828125 -2.75 1.640625 -2.5625 1.59375 -2.453125 Z M 1.59375 -2.453125 "/>
</symbol>
<symbol overflow="visible" id="glyph1-0">
<path style="stroke:none;" d=""/>
</symbol>
<symbol overflow="visible" id="glyph1-1">
<path style="stroke:none;" d="M 0.546875 -3.015625 L 0.546875 -2.734375 C 0.796875 -2.734375 1.046875 -2.78125 1.28125 -2.875 L 1.28125 -0.28125 L 0.578125 -0.28125 L 0.578125 0 L 2.328125 0 L 2.328125 -0.28125 L 1.640625 -0.28125 L 1.640625 -3.34375 C 1.609375 -3.34375 1.5625 -3.359375 1.546875 -3.34375 C 1.5 -3.328125 1.46875 -3.296875 1.4375 -3.265625 C 1.234375 -3.09375 0.875 -3.015625 0.546875 -3.015625 Z M 0.546875 -3.015625 "/>
</symbol>
<symbol overflow="visible" id="glyph1-2">
<path style="stroke:none;" d="M 0.4375 -2.28125 C 0.515625 -2.578125 0.65625 -2.890625 0.953125 -3 C 1.078125 -3.046875 1.203125 -3.0625 1.328125 -3.046875 C 1.578125 -3.03125 1.84375 -2.921875 2 -2.703125 C 2.109375 -2.5625 2.140625 -2.375 2.109375 -2.203125 C 2.046875 -1.71875 1.625 -1.421875 1.28125 -1.15625 C 1 -0.9375 0.421875 -0.421875 0.421875 -0.421875 L 0.328125 -0.34375 C 0.28125 -0.296875 0.28125 -0.296875 0.28125 -0.1875 L 0.28125 0 L 2.5 0 L 2.5 -0.3125 L 0.59375 -0.3125 C 0.796875 -0.484375 1.359375 -0.953125 1.53125 -1.078125 C 1.84375 -1.3125 2.1875 -1.546875 2.390625 -1.890625 C 2.609375 -2.28125 2.46875 -2.8125 2.125 -3.078125 C 1.75 -3.40625 1.046875 -3.453125 0.625 -3.140625 C 0.46875 -3.03125 0.359375 -2.84375 0.28125 -2.671875 C 0.265625 -2.625 0.234375 -2.578125 0.234375 -2.546875 C 0.25 -2.515625 0.28125 -2.484375 0.296875 -2.46875 C 0.34375 -2.40625 0.390625 -2.34375 0.4375 -2.28125 Z M 0.4375 -2.28125 "/>
</symbol>
<symbol overflow="visible" id="glyph1-3">
<path style="stroke:none;" d="M 0.484375 -2.53125 L 0.5 -2.53125 C 0.703125 -2.875 1.078125 -3.109375 1.484375 -3.0625 C 1.78125 -3.046875 2.046875 -2.890625 2.015625 -2.53125 C 1.96875 -2.265625 1.75 -2.046875 1.484375 -1.96875 C 1.328125 -1.921875 1.09375 -1.90625 0.921875 -1.90625 L 0.921875 -1.625 L 1.25 -1.625 C 1.328125 -1.625 1.390625 -1.625 1.453125 -1.625 C 1.640625 -1.609375 1.8125 -1.546875 1.953125 -1.421875 C 2.171875 -1.203125 2.21875 -0.828125 2.078125 -0.5625 C 2.015625 -0.453125 1.921875 -0.375 1.828125 -0.3125 C 1.5625 -0.15625 1.234375 -0.1875 0.96875 -0.28125 C 0.765625 -0.328125 0.59375 -0.4375 0.4375 -0.578125 C 0.390625 -0.625 0.34375 -0.6875 0.28125 -0.734375 C 0.265625 -0.671875 0.25 -0.609375 0.25 -0.546875 C 0.234375 -0.484375 0.21875 -0.453125 0.28125 -0.40625 L 0.375 -0.3125 C 0.515625 -0.1875 0.6875 -0.078125 0.859375 -0.015625 C 1.25 0.125 1.703125 0.125 2.0625 -0.109375 C 2.421875 -0.328125 2.671875 -0.78125 2.46875 -1.21875 C 2.34375 -1.5 2.09375 -1.671875 1.765625 -1.765625 C 1.953125 -1.859375 2.09375 -1.9375 2.21875 -2.109375 C 2.3125 -2.25 2.421875 -2.484375 2.375 -2.71875 C 2.328125 -2.96875 2.125 -3.15625 1.90625 -3.25 C 1.578125 -3.390625 1.1875 -3.375 0.859375 -3.234375 C 0.703125 -3.15625 0.546875 -3.0625 0.421875 -2.921875 C 0.40625 -2.90625 0.3125 -2.8125 0.3125 -2.765625 C 0.328125 -2.75 0.453125 -2.59375 0.484375 -2.53125 Z M 0.484375 -2.53125 "/>
</symbol>
</g>
<clipPath id="clip1">
  <path d="M -239 666 L 373 666 L 373 -126 L -239 -126 L -239 666 Z M -239 666 "/>
</clipPath>
<clipPath id="clip2">
  <path d="M 0.0117188 123.433594 L 133.238281 123.433594 L 133.238281 -1.199219 L 0.0117188 -1.199219 L 0.0117188 123.433594 Z M 0.0117188 123.433594 "/>
</clipPath>
<clipPath id="clip3">
  <path d="M -239 666 L 373 666 L 373 -126 L -239 -126 L -239 666 Z M -239 666 "/>
</clipPath>
</defs>
<g id="surface0">
<g clip-path="url(#clip1)" clip-rule="nonzero">
<g clip-path="url(#clip2)" clip-rule="nonzero">
<path style="fill:none;stroke-width:5;stroke-linecap:butt;stroke-linejoin:miter;stroke:rgb(0%,0%,0%);stroke-opacity:1;stroke-miterlimit:4;" d="M 224.555331 10.011197 L 969.541647 589.865121 L 257.821764 1143.069541 " transform="matrix(0.107442,0,0,-0.107442,0.01,123.435)"/>
<path style="fill:none;stroke-width:5;stroke-linecap:butt;stroke-linejoin:miter;stroke:rgb(0%,0%,0%);stroke-opacity:1;stroke-miterlimit:4;" d="M 854.90879 589.610623 C 854.90879 488.829692 773.1788 407.099701 672.397868 407.099701 C 571.616937 407.099701 489.886946 488.829692 489.886946 589.610623 C 489.886946 690.391555 571.616937 772.121545 672.397868 772.121545 C 773.1788 772.121545 854.90879 690.391555 854.90879 589.610623 Z M 854.90879 589.610623 " transform="matrix(0.107442,0,0,-0.107442,0.01,123.435)"/>
<path style="fill:none;stroke-width:5;stroke-linecap:butt;stroke-linejoin:miter;stroke:rgb(0%,0%,0%);stroke-opacity:1;stroke-miterlimit:4;" d="M 557.510515 589.610623 C 557.510515 488.829692 475.780524 407.099701 374.999593 407.099701 C 274.218661 407.099701 192.488671 488.829692 192.488671 589.610623 C 192.488671 690.391555 274.218661 772.121545 374.999593 772.121545 C 475.780524 772.121545 557.510515 690.391555 557.510515 589.610623 Z M 557.510515 589.610623 " transform="matrix(0.107442,0,0,-0.107442,0.01,123.435)"/>
<path style="fill:none;stroke-width:5;stroke-linecap:butt;stroke-linejoin:miter;stroke:rgb(0%,0%,0%);stroke-opacity:1;stroke-miterlimit:4;" d="M 739.98508 589.610623 C 739.98508 388.04876 576.597813 224.625136 374.999593 224.625136 C 173.401373 224.625136 10.014105 388.04876 10.014105 589.610623 C 10.014105 791.208843 173.401373 954.632468 374.999593 954.632468 C 576.597813 954.632468 739.98508 791.208843 739.98508 589.610623 Z M 739.98508 589.610623 " transform="matrix(0.107442,0,0,-0.107442,0.01,123.435)"/>
<path style="fill:none;stroke-width:5;stroke-linecap:butt;stroke-linejoin:miter;stroke:rgb(0%,0%,0%);stroke-opacity:1;stroke-miterlimit:4;" d="M 375.181377 589.719693 L 1180.338126 589.719693 " transform="matrix(0.107442,0,0,-0.107442,0.01,123.435)"/>
<path style=" stroke:none;fill-rule:nonzero;fill:rgb(0%,0%,0%);fill-opacity:1;" d="M 125.761719 61.613281 L 131.589844 60.054688 L 125.761719 58.492188 L 125.761719 61.613281 "/>
<path style="fill:none;stroke-width:5;stroke-linecap:butt;stroke-linejoin:miter;stroke:rgb(0%,0%,0%);stroke-opacity:1;stroke-dasharray:30,20;stroke-miterlimit:4;" d="M 374.999593 589.610623 L 600.011564 876.974434 " transform="matrix(0.107442,0,0,-0.107442,0.01,123.435)"/>
<path style="fill:none;stroke-width:5;stroke-linecap:butt;stroke-linejoin:round;stroke:rgb(0%,0%,0%);stroke-opacity:1;stroke-miterlimit:4;" d="M 26.992711 699.953382 L 374.999593 589.828764 L 271.019267 739.764031 " transform="matrix(0.107442,0,0,-0.107442,0.01,123.435)"/>
<path style="fill:none;stroke-width:5;stroke-linecap:butt;stroke-linejoin:miter;stroke:rgb(0%,0%,0%);stroke-opacity:1;stroke-miterlimit:4;" d="M 672.107014 589.53791 L 568.99925 736.41921 " transform="matrix(0.107442,0,0,-0.107442,0.01,123.435)"/>
<path style="fill:none;stroke-width:3.8;stroke-linecap:butt;stroke-linejoin:miter;stroke:rgb(0%,0%,0%);stroke-opacity:1;stroke-miterlimit:4;" d="M 895.446575 647.417867 C 910.75277 667.195943 931.839689 678.757392 947.291311 682.393068 " transform="matrix(0.107442,0,0,-0.107442,0.01,123.435)"/>
<path style="fill:none;stroke-width:2.5;stroke-linecap:butt;stroke-linejoin:miter;stroke:rgb(0%,0%,0%);stroke-opacity:1;stroke-miterlimit:4;" d="M 878.140758 606.880083 C 880.213094 616.041986 884.830402 623.604191 888.611505 632.038959 " transform="matrix(0.107442,0,0,-0.107442,0.01,123.435)"/>
<path style=" stroke:none;fill-rule:nonzero;fill:rgb(0%,0%,0%);fill-opacity:1;" d="M 95.855469 56.136719 L 96.21875 53.875 L 94.773438 55.648438 L 95.855469 56.136719 "/>
<path style=" stroke:none;fill-rule:nonzero;fill:rgb(0%,0%,0%);fill-opacity:1;" d="M 93.851563 57.785156 L 93.957031 60.074219 L 95.007813 58.035156 L 93.851563 57.785156 "/>
</g>
</g>
<g clip-path="url(#clip3)" clip-rule="nonzero">
<g style="fill:rgb(0%,0%,0%);fill-opacity:1;">
  <use xlink:href="#glyph0-1" x="36.646" y="64.649"/>
</g>
<g style="fill:rgb(0%,0%,0%);fill-opacity:1;">
  <use xlink:href="#glyph1-1" x="40.041" y="65.521"/>
</g>
<g style="fill:rgb(0%,0%,0%);fill-opacity:1;">
  <use xlink:href="#glyph0-1" x="68.678" y="64.649"/>
</g>
<g style="fill:rgb(0%,0%,0%);fill-opacity:1;">
  <use xlink:href="#glyph1-2" x="72.073" y="65.521"/>
</g>
<g style="fill:rgb(0%,0%,0%);fill-opacity:1;">
  <use xlink:href="#glyph0-1" x="104.892" y="64.649"/>
</g>
<g style="fill:rgb(0%,0%,0%);fill-opacity:1;">
  <use xlink:href="#glyph1-3" x="108.287" y="65.521"/>
</g>
<g style="fill:rgb(0%,0%,0%);fill-opacity:1;">
  <use xlink:href="#glyph0-2" x="126.885" y="65.5"/>
</g>
<g style="fill:rgb(0%,0%,0%);fill-opacity:1;">
  <use xlink:href="#glyph0-3" x="102.907" y="52.723"/>
</g>
<g style="fill:rgb(0%,0%,0%);fill-opacity:1;">
  <use xlink:href="#glyph0-4" x="35.159" y="51.228"/>
</g>
<g style="fill:rgb(0%,0%,0%);fill-opacity:1;">
  <use xlink:href="#glyph1-1" x="37.719" y="52.1"/>
</g>
<g style="fill:rgb(0%,0%,0%);fill-opacity:1;">
  <use xlink:href="#glyph0-4" x="67.191" y="51.228"/>
</g>
<g style="fill:rgb(0%,0%,0%);fill-opacity:1;">
  <use xlink:href="#glyph1-2" x="69.75" y="52.1"/>
</g>
<g style="fill:rgb(0%,0%,0%);fill-opacity:1;">
  <use xlink:href="#glyph0-4" x="9.851" y="48.862"/>
</g>
<g style="fill:rgb(0%,0%,0%);fill-opacity:1;">
  <use xlink:href="#glyph1-3" x="12.411" y="49.734"/>
</g>
</g>
</g>
</svg>
