<?xml version="1.0" encoding="UTF-8" standalone="no"?>
<svg xmlns:dc="http://purl.org/dc/elements/1.1/" xmlns:cc="http://creativecommons.org/ns#" xmlns:rdf="http://www.w3.org/1999/02/22-rdf-syntax-ns#" xmlns:svg="http://www.w3.org/2000/svg" xmlns="http://www.w3.org/2000/svg" xmlns:xlink="http://www.w3.org/1999/xlink" xmlns:sodipodi="http://sodipodi.sourceforge.net/DTD/sodipodi-0.dtd" xmlns:inkscape="http://www.inkscape.org/namespaces/inkscape" width="136.9pt" height="162.0pt" viewBox="0 0 79.055876 93.550404" version="1.1" id="svg25898" inkscape:version="0.48.4 r9939" sodipodi:docname="f33-06_tc_big_a.svg">
  <metadata id="metadata26275">
    <rdf:RDF>
      <cc:Work rdf:about="">
        <dc:format>image/svg+xml</dc:format>
        <dc:type rdf:resource="http://purl.org/dc/dcmitype/StillImage"/>
        <dc:title/>
      </cc:Work>
    </rdf:RDF>
  </metadata>
  <sodipodi:namedview pagecolor="#ffffff" bordercolor="#666666" borderopacity="1" objecttolerance="10" gridtolerance="10" guidetolerance="10" inkscape:pageopacity="0" inkscape:pageshadow="2" inkscape:window-width="640" inkscape:window-height="480" id="namedview26273" showgrid="false" fit-margin-top="0" fit-margin-left="0" fit-margin-right="0" fit-margin-bottom="0" inkscape:zoom="0.86792874" inkscape:cx="-23.703117" inkscape:cy="101.4611" inkscape:window-x="0" inkscape:window-y="25" inkscape:window-maximized="0" inkscape:current-layer="svg25898"/>
  <defs id="defs25900">
    <g id="g25902">
      <g id="glyph0-0"/>
      <g id="glyph0-1">
        <path d="M 2.578125,1.546875 C 2.546875,1.5 2.5,1.46875 2.453125,1.4375 1.6875,0.75 1.21875,-0.3125 1.171875,-1.59375 c -0.03125,-0.875 0.125,-1.78125 0.53125,-2.5625 0.203125,-0.375 0.4375,-0.6875 0.75,-0.953125 C 2.5,-5.15625 2.546875,-5.1875 2.578125,-5.21875 l -0.25,0 c -0.15625,0 -0.140625,0 -0.25,0.078125 -0.359375,0.28125 -0.65625,0.65625 -0.890625,1.078125 -0.65625,1.234375 -0.703125,2.90625 -0.09375,4.25 0.21875,0.5 0.5625,0.921875 0.984375,1.28125 0.09375,0.0625 0.09375,0.078125 0.25,0.078125 l 0.25,0 z m 0,0" id="path25906" inkscape:connector-curvature="0"/>
      </g>
      <g id="glyph0-2">
        <path d="m 0.640625,-2.640625 c 0.125,-0.0625 0.21875,-0.140625 0.34375,-0.203125 C 1.203125,-2.9375 1.4375,-2.984375 1.6875,-3 1.75,-3.015625 1.828125,-3.015625 1.90625,-3.015625 c 0.28125,0.046875 0.515625,0.234375 0.59375,0.5 0.078125,0.203125 0.046875,0.453125 0.046875,0.65625 -0.359375,0 -0.734375,0.03125 -1.09375,0.125 -0.5,0.125 -1.125,0.375 -1.0625,1.015625 0.046875,0.28125 0.203125,0.5625 0.46875,0.703125 C 1.03125,0.0625 1.234375,0.0625 1.4375,0.046875 1.734375,0.015625 2.0625,-0.0625 2.3125,-0.25 c 0.09375,-0.0625 0.171875,-0.140625 0.25,-0.21875 l 0,0.46875 0.484375,0 0,-1.828125 c 0,-0.1875 0.03125,-0.390625 -0.015625,-0.59375 -0.0625,-0.484375 -0.5,-0.84375 -0.953125,-0.9375 -0.28125,-0.046875 -0.71875,0.015625 -0.953125,0.0625 -0.078125,0.03125 -0.46875,0.15625 -0.5,0.21875 -0.03125,0.03125 -0.015625,0.09375 -0.015625,0.125 0.015625,0.109375 0.03125,0.203125 0.03125,0.3125 z m 1.90625,1.015625 0,0.515625 c 0,0.140625 0,0.265625 -0.0625,0.390625 -0.078125,0.140625 -0.21875,0.25 -0.375,0.296875 -0.328125,0.125 -0.78125,0.140625 -1.0625,-0.09375 C 0.96875,-0.5625 0.90625,-0.640625 0.890625,-0.75 0.8125,-1.046875 1.078125,-1.28125 1.3125,-1.390625 1.640625,-1.546875 2.109375,-1.625 2.546875,-1.625 z m 0,0" id="path25909" inkscape:connector-curvature="0"/>
      </g>
      <g id="glyph0-3">
        <path d="m 0.4375,-5.21875 c 0.03125,0.03125 0.078125,0.0625 0.125,0.109375 0.859375,0.765625 1.328125,2 1.265625,3.515625 -0.015625,0.75 -0.203125,1.5 -0.5625,2.15625 C 1.078125,0.890625 0.84375,1.1875 0.5625,1.4375 0.515625,1.46875 0.46875,1.5 0.4375,1.546875 l 0.25,0 c 0.15625,0 0.140625,0 0.234375,-0.078125 0.375,-0.296875 0.671875,-0.671875 0.890625,-1.078125 0.671875,-1.25 0.71875,-2.90625 0.109375,-4.25 C 1.6875,-4.375 1.359375,-4.796875 0.9375,-5.140625 0.84375,-5.21875 0.84375,-5.21875 0.6875,-5.21875 l -0.25,0 z m 0,0" id="path25912" inkscape:connector-curvature="0"/>
      </g>
      <g id="glyph0-4">
        <path d="m 4.640625,-2.296875 -1.625,0 0,0.421875 1.125,0 0,1.21875 C 4.140625,-0.546875 4.125,-0.515625 4,-0.5 3.65625,-0.390625 3.171875,-0.328125 2.78125,-0.375 2.3125,-0.4375 1.921875,-0.6875 1.65625,-0.984375 0.953125,-1.796875 0.953125,-3.078125 1.671875,-3.875 2.03125,-4.25 2.515625,-4.515625 3.1875,-4.46875 3.5,-4.453125 3.796875,-4.390625 4.078125,-4.265625 4.21875,-4.1875 4.34375,-4.09375 4.484375,-4 4.515625,-4.1875 4.5625,-4.375 4.578125,-4.546875 4.0625,-4.78125 3.703125,-4.890625 2.96875,-4.890625 2.3125,-4.890625 1.75,-4.578125 1.375,-4.25 c -0.140625,0.125 -0.25,0.28125 -0.359375,0.4375 -0.546875,0.828125 -0.5625,1.953125 0,2.78125 0.265625,0.390625 0.625,0.71875 1.09375,0.90625 0.625,0.25 1.3125,0.203125 1.953125,0.046875 0.0625,-0.015625 0.5625,-0.15625 0.578125,-0.21875 0,-0.03125 0,-0.046875 0,-0.078125 l 0,-1.921875 z m 0,0" id="path25915" inkscape:connector-curvature="0"/>
      </g>
      <g id="glyph0-5">
        <path d="m 0.578125,-4.84375 0,4.84375 0.5,0 0,-4.84375 -0.5,0 z m 0,0" id="path25918" inkscape:connector-curvature="0"/>
      </g>
      <g id="glyph0-6">
        <path d="m 0.296875,-0.71875 c -0.015625,0.09375 -0.03125,0.203125 -0.0625,0.3125 0,0.03125 -0.03125,0.09375 0,0.125 0.015625,0.046875 0.09375,0.078125 0.140625,0.09375 0.3125,0.140625 0.578125,0.203125 0.984375,0.234375 0.5,0.046875 1.09375,-0.0625 1.34375,-0.5625 0.046875,-0.125 0.078125,-0.265625 0.078125,-0.40625 0,-0.09375 0,-0.1875 -0.03125,-0.265625 C 2.640625,-1.515625 2.359375,-1.734375 2.0625,-1.84375 1.890625,-1.90625 1.71875,-1.9375 1.546875,-1.96875 1.296875,-2.015625 0.984375,-2.046875 0.8125,-2.265625 0.671875,-2.421875 0.703125,-2.640625 0.84375,-2.796875 1.015625,-2.96875 1.28125,-3 1.609375,-2.984375 c 0.296875,0.015625 0.546875,0.078125 0.78125,0.1875 0.0625,0.015625 0.125,0.0625 0.1875,0.078125 L 2.65625,-3.140625 C 2.3125,-3.296875 2,-3.375 1.515625,-3.375 1.09375,-3.375 0.734375,-3.28125 0.5,-3.046875 c -0.234375,0.25 -0.3125,0.65625 -0.15625,0.96875 0.140625,0.265625 0.421875,0.4375 0.703125,0.53125 0.40625,0.109375 0.9375,0.09375 1.171875,0.390625 0.15625,0.171875 0.140625,0.4375 -0.03125,0.59375 -0.078125,0.09375 -0.203125,0.15625 -0.328125,0.171875 -0.53125,0.125 -1.109375,-0.078125 -1.4375,-0.25 -0.046875,-0.03125 -0.09375,-0.0625 -0.125,-0.078125 z m 0,0" id="path25921" inkscape:connector-curvature="0"/>
      </g>
      <g id="glyph0-7">
        <path d="m 0.78125,-4.21875 0,0.390625 c 0.34375,0 0.6875,-0.0625 1,-0.203125 l 0,3.640625 -0.96875,0 0,0.390625 2.4375,0 0,-0.390625 -0.96875,0 0,-4.296875 c -0.03125,0 -0.09375,0 -0.125,0.015625 C 2.109375,-4.65625 2.0625,-4.59375 2.015625,-4.5625 1.734375,-4.328125 1.21875,-4.21875 0.78125,-4.21875 z m 0,0" id="path25924" inkscape:connector-curvature="0"/>
      </g>
      <g id="glyph0-8">
        <path d="m 0.578125,-4.84375 0,4.84375 0.515625,0 0,-0.46875 0,0 c 0.0625,0.109375 0.171875,0.203125 0.265625,0.28125 0.3125,0.25 0.828125,0.328125 1.28125,0.109375 0.203125,-0.109375 0.375,-0.28125 0.515625,-0.46875 C 3.84375,-1.5 3.421875,-3.09375 2.453125,-3.3125 c -0.125,-0.046875 -0.28125,-0.046875 -0.421875,-0.015625 -0.40625,0.046875 -0.71875,0.25 -0.953125,0.5 l 0,-2.015625 -0.5,0 z M 1.8125,-2.953125 c 0.328125,-0.03125 0.703125,0.109375 0.921875,0.375 0.171875,0.21875 0.234375,0.5 0.234375,0.765625 0.03125,0.375 -0.015625,0.78125 -0.25,1.078125 -0.203125,0.265625 -0.53125,0.375 -0.84375,0.40625 -0.265625,0 -0.5,-0.09375 -0.671875,-0.3125 C 1.171875,-0.6875 1.125,-0.75 1.09375,-0.8125 c 0,-0.046875 0,-0.09375 0,-0.125 l 0,-1.390625 c 0,-0.0625 -0.015625,-0.140625 0.015625,-0.203125 0.03125,-0.078125 0.09375,-0.125 0.15625,-0.1875 0.15625,-0.125 0.34375,-0.21875 0.546875,-0.234375 z m 0,0" id="path25927" inkscape:connector-curvature="0"/>
      </g>
      <g id="glyph1-0"/>
      <g id="glyph1-1">
        <path d="m 0.734375,-2 c -0.140625,0.046875 -0.15625,0.265625 -0.015625,0.3125 0.046875,0.015625 0.09375,0.015625 0.125,0.015625 l 3.9375,0 c 0.09375,0 0.234375,0.015625 0.3125,-0.046875 C 5.171875,-1.8125 5.125,-1.96875 5,-2 4.921875,-2.015625 4.828125,-2 4.734375,-2 l -3.875,0 c -0.03125,0 -0.078125,0 -0.125,0 z m 0,0" id="path25931" inkscape:connector-curvature="0"/>
      </g>
      <g id="glyph2-0"/>
      <g id="glyph2-1">
        <path d="m 1.203125,-2.640625 c 0.265625,-0.140625 0.40625,-0.25 0.75,-0.3125 0.125,-0.03125 0.4375,-0.078125 0.578125,-0.0625 0.234375,0.03125 0.421875,0.171875 0.484375,0.40625 0.078125,0.25 -0.046875,0.5 -0.078125,0.75 -0.609375,0 -1.28125,0.109375 -1.75,0.328125 -0.25,0.140625 -0.515625,0.34375 -0.609375,0.625 C 0.46875,-0.5 0.640625,0 1.109375,0.0625 1.75,0.09375 2.328125,-0.15625 2.65625,-0.46875 L 2.5625,0 2.921875,0 C 3,0 3.0625,0.015625 3.0625,-0.078125 3.078125,-0.125 3.21875,-0.78125 3.21875,-0.78125 L 3.453125,-1.875 c 0.03125,-0.171875 0.09375,-0.34375 0.09375,-0.515625 0.03125,-0.3125 -0.109375,-0.59375 -0.3125,-0.765625 -0.25,-0.203125 -0.5625,-0.234375 -0.875,-0.203125 -0.21875,0 -0.4375,0.046875 -0.65625,0.109375 -0.0625,0.015625 -0.390625,0.125 -0.4375,0.171875 -0.015625,0.03125 -0.0625,0.328125 -0.0625,0.4375 z m 1.6875,1.015625 c -0.015625,0.140625 -0.0625,0.28125 -0.09375,0.421875 -0.03125,0.171875 -0.0625,0.359375 -0.171875,0.5 -0.078125,0.109375 -0.203125,0.1875 -0.328125,0.25 C 1.9375,-0.296875 1.375,-0.25 1.125,-0.53125 0.984375,-0.6875 1.046875,-0.9375 1.171875,-1.09375 1.40625,-1.359375 1.765625,-1.46875 2.09375,-1.546875 2.359375,-1.59375 2.625,-1.625 2.890625,-1.625 z m 0,0" id="path25935" inkscape:connector-curvature="0"/>
      </g>
      <g id="glyph2-2">
        <path d="M 1.609375,-4.84375 0.578125,0 C 0.75,0 0.9375,0 1.09375,-0.015625 1.140625,-0.15625 1.15625,-0.3125 1.1875,-0.46875 l 0.015625,0 c 0.0625,0.15625 0.21875,0.3125 0.34375,0.390625 0.375,0.21875 0.84375,0.140625 1.21875,-0.0625 0.6875,-0.375 1.109375,-1.171875 1.125,-1.953125 0.015625,-0.484375 -0.1875,-1.078125 -0.71875,-1.21875 -0.59375,-0.15625 -1.203125,0.234375 -1.5,0.484375 l 0.4375,-2.015625 -0.5,0 z m 1.390625,2 c 0.0625,0.03125 0.125,0.078125 0.171875,0.125 0.25,0.265625 0.25,0.671875 0.171875,1.015625 -0.046875,0.265625 -0.140625,0.515625 -0.28125,0.75 -0.25,0.375 -0.671875,0.59375 -1.125,0.625 -0.203125,0 -0.390625,-0.046875 -0.515625,-0.203125 C 1.375,-0.578125 1.28125,-0.734375 1.28125,-0.8125 1.265625,-0.890625 1.296875,-0.96875 1.3125,-1.046875 1.359375,-1.296875 1.609375,-2.46875 1.640625,-2.515625 1.671875,-2.578125 1.75,-2.640625 1.8125,-2.6875 2.109375,-2.9375 2.59375,-3.0625 3,-2.84375 z m 0,0" id="path25938" inkscape:connector-curvature="0"/>
      </g>
      <g id="glyph2-3">
        <path d="m 1.5,-4.34375 0.5,0 0.109375,-0.5 c -0.171875,0 -0.34375,0 -0.5,0.015625 C 1.5625,-4.671875 1.546875,-4.5 1.5,-4.34375 z M 1.28125,-3.296875 1.1875,-2.875 0.578125,0 l 0.375,0 c 0.03125,0 0.09375,0.015625 0.125,-0.015625 0.015625,-0.03125 0.0625,-0.234375 0.0625,-0.25 0.109375,-0.5625 0.625,-2.90625 0.640625,-3.03125 l -0.5,0 z m 0,0" id="path25941" inkscape:connector-curvature="0"/>
      </g>
      <g id="glyph2-4">
        <path d="m 1.59375,-2.453125 -0.015625,0 C 1.640625,-2.71875 1.703125,-3 1.75,-3.296875 l -0.46875,0 L 0.578125,0 0.9375,0 C 0.96875,0 1.046875,0.015625 1.078125,-0.015625 1.09375,-0.03125 1.09375,-0.109375 1.109375,-0.140625 1.21875,-0.578125 1.375,-1.40625 1.46875,-1.78125 c 0.171875,-0.6875 0.921875,-1.125 1.59375,-1.125 l 0.09375,-0.4375 c -0.46875,0 -0.890625,0.203125 -1.234375,0.515625 -0.09375,0.078125 -0.28125,0.265625 -0.328125,0.375 z m 0,0" id="path25944" inkscape:connector-curvature="0"/>
      </g>
      <g id="glyph2-5">
        <path d="M 0.21875,0 0.578125,0 0.71875,-0.015625 0.796875,-0.109375 C 1.0625,-0.53125 1.3125,-0.96875 1.609375,-1.375 l 0.0625,-0.015625 2.296875,0 C 4.0625,-0.9375 4.125,-0.453125 4.25,-0.015625 4.390625,0.03125 4.625,-0.015625 4.796875,0 4.78125,-0.140625 3.9375,-4.359375 3.890625,-4.609375 3.875,-4.65625 3.84375,-4.890625 3.8125,-4.90625 c -0.046875,0 -0.09375,0 -0.140625,0 l -0.265625,0 c -0.046875,0 -0.109375,-0.015625 -0.140625,0.015625 -0.046875,0.03125 -0.1875,0.28125 -0.1875,0.28125 L 1.0625,-1.375 0.515625,-0.46875 C 0.40625,-0.328125 0.296875,-0.15625 0.21875,0 z m 3.1875,-4.328125 c 0.140625,0.84375 0.3125,1.6875 0.46875,2.515625 l -2.015625,0 c 0.5,-0.84375 1.03125,-1.671875 1.546875,-2.515625 z m 0,0" id="path25947" inkscape:connector-curvature="0"/>
      </g>
      <g id="glyph2-6">
        <path d="M 1.765625,-4.84375 0.75,0 2.203125,0 c 0.25,0 0.5,0.015625 0.765625,0 C 3.78125,-0.078125 4.578125,-0.484375 4.875,-1.109375 5.03125,-1.5 4.953125,-1.859375 4.625,-2.140625 4.359375,-2.359375 4.015625,-2.484375 3.671875,-2.53125 3.8125,-2.578125 3.9375,-2.59375 4.078125,-2.640625 4.59375,-2.8125 5.15625,-3.171875 5.21875,-3.703125 c 0,-0.046875 0,-0.109375 0,-0.171875 C 5.140625,-4.28125 4.875,-4.484375 4.53125,-4.640625 4.125,-4.84375 3.75,-4.84375 3.21875,-4.84375 l -1.453125,0 z m 0.0625,2.140625 c 0.015625,-0.15625 0.265625,-1.21875 0.34375,-1.59375 0.015625,-0.0625 0,-0.125 0.09375,-0.125 l 0.5625,0 c 0.484375,0 1,-0.03125 1.46875,0.203125 C 4.46875,-4.125 4.6875,-4 4.71875,-3.78125 4.78125,-3.46875 4.515625,-3.21875 4.28125,-3.0625 4.234375,-3.03125 4.1875,-3.015625 4.140625,-2.984375 3.828125,-2.828125 3.484375,-2.75 3.125,-2.71875 2.9375,-2.703125 2.75,-2.703125 2.5625,-2.703125 l -0.734375,0 z M 1.34375,-0.40625 c 0.015625,-0.109375 0.09375,-0.453125 0.109375,-0.5 0.03125,-0.1875 0.234375,-1.109375 0.265625,-1.265625 0.015625,-0.078125 0,-0.15625 0.09375,-0.15625 l 0.703125,0 c 0.15625,0 0.328125,0 0.46875,0 0.390625,0.015625 0.78125,0.09375 1.109375,0.3125 0.171875,0.109375 0.359375,0.28125 0.359375,0.5625 0,0.40625 -0.375,0.65625 -0.703125,0.8125 -0.234375,0.125 -0.640625,0.21875 -0.9375,0.21875 C 2.328125,-0.40625 1.828125,-0.40625 1.34375,-0.40625 z m 0,0" id="path25950" inkscape:connector-curvature="0"/>
      </g>
    </g>
    <clipPath id="clip1">
      <path d="m -215,667 612,0 0,-792 -612,0 0,792 z m 0,0" id="path25953" inkscape:connector-curvature="0"/>
    </clipPath>
    <clipPath id="clip2">
      <path d="m 1.269531,86.800781 179.999999,0 0,-87 -179.999999,0 0,87 z m 0,0" id="path25956" inkscape:connector-curvature="0"/>
    </clipPath>
  </defs>
  <g id="g26786" transform="translate(-101.948,-0.31246981)">
    <path d="m 131.35547,85.613281 0,-85.039062" stroke-miterlimit="10" id="path26053" inkscape:connector-curvature="0" style="fill:none;stroke:#000000;stroke-width:0.5;stroke-linecap:round;stroke-linejoin:round;stroke-miterlimit:10"/>
    <path d="m 105.17969,82.269531 6.97656,-8.9375" stroke-miterlimit="10" id="path26055" inkscape:connector-curvature="0" style="fill:none;stroke:#000000;stroke-width:0.5;stroke-linecap:round;stroke-linejoin:round;stroke-miterlimit:10"/>
    <path d="m 110.77344,76.59375 1.38281,-3.261719 -2.82812,2.132813" id="path26057" inkscape:connector-curvature="0"/>
    <path d="m 110.77344,76.59375 1.38281,-3.261719 -2.82812,2.132813 1.44531,1.128906 z m 0,0" stroke-miterlimit="10" id="path26059" inkscape:connector-curvature="0" style="fill:none;stroke:#000000;stroke-width:0.5;stroke-linecap:round;stroke-linejoin:round;stroke-miterlimit:10"/>
    <path d="M 112.15625,73.332031 131.35547,48.761719" stroke-miterlimit="10" id="path26061" inkscape:connector-curvature="0" style="fill:none;stroke:#000000;stroke-width:0.5;stroke-linecap:round;stroke-linejoin:round;stroke-miterlimit:10"/>
    <path d="M 131.35547,48.761719 105.17969,15.257813" stroke-miterlimit="10" id="path26063" inkscape:connector-curvature="0" style="fill:none;stroke:#000000;stroke-width:0.5;stroke-linecap:round;stroke-linejoin:round;stroke-miterlimit:10"/>
    <path d="m 108.00781,17.390625 -2.82812,-2.132812 1.38281,3.261718" id="path26065" inkscape:connector-curvature="0"/>
    <path d="m 108.00781,17.390625 -2.82812,-2.132812 1.38281,3.261718 1.44531,-1.128906 z m 0,0" stroke-miterlimit="10" id="path26067" inkscape:connector-curvature="0" style="fill:none;stroke:#000000;stroke-width:0.5;stroke-linecap:round;stroke-linejoin:round;stroke-miterlimit:10"/>
    <path d="M 131.35547,48.761719 179.59766,32.152344" stroke-miterlimit="10" id="path26069" inkscape:connector-curvature="0" style="fill:none;stroke:#000000;stroke-width:0.5;stroke-linecap:round;stroke-linejoin:round;stroke-miterlimit:10"/>
    <path d="m 176.66016,34.132813 2.9375,-1.980469 -3.53125,0.246094" id="path26071" inkscape:connector-curvature="0"/>
    <path d="m 176.66016,34.132813 2.9375,-1.980469 -3.53125,0.246094 0.59375,1.734375 z m 0,0" stroke-miterlimit="10" id="path26073" inkscape:connector-curvature="0" style="fill:none;stroke:#000000;stroke-width:0.5;stroke-linecap:round;stroke-linejoin:round;stroke-miterlimit:10"/>
    <path d="M 131.35547,48.761719 155.78906,17.492188" stroke-miterlimit="10" id="path26075" inkscape:connector-curvature="0" style="fill:none;stroke:#000000;stroke-width:0.5;stroke-linecap:round;stroke-linejoin:round;stroke-miterlimit:10;stroke-dasharray:0, 1.25;stroke-dashoffset:0.625"/>
    <path d="m 154.40234,20.753906 1.38672,-3.261718 -2.83203,2.128906" id="path26077" inkscape:connector-curvature="0"/>
    <path d="m 154.40234,20.753906 1.38672,-3.261718 -2.83203,2.128906 1.44531,1.132812 z m 0,0" stroke-miterlimit="10" id="path26079" inkscape:connector-curvature="0" style="fill:none;stroke:#000000;stroke-width:0.5;stroke-linecap:round;stroke-linejoin:round;stroke-miterlimit:10"/>
    <path d="m 108.67969,48.761719 55.27344,0" stroke-miterlimit="10" id="path26081" inkscape:connector-curvature="0" style="fill:none;stroke:#000000;stroke-width:0.30000001;stroke-linecap:round;stroke-linejoin:round;stroke-miterlimit:10;stroke-dasharray:3, 3"/>
    <path d="m 118.59766,48.761719 c 0,-3.925781 1.80859,-7.632813 4.90625,-10.050781" stroke-miterlimit="10" id="path26083" inkscape:connector-curvature="0" style="fill:none;stroke:#000000;stroke-width:0.30000001;stroke-linecap:round;stroke-linejoin:round;stroke-miterlimit:10"/>
    <path d="m 122.43359,40.382813 c 0.3086,-0.578125 0.66797,-1.136719 1.07032,-1.671875 -0.61719,0.261718 -1.20313,0.566406 -1.76172,0.914062" id="path26085" inkscape:connector-curvature="0"/>
    <path d="m 122.43359,40.382813 c 0.3086,-0.578125 0.66797,-1.136719 1.07032,-1.671875 -0.61719,0.261718 -1.20313,0.566406 -1.76172,0.914062 l 0.6914,0.757813 z m 0,0" stroke-miterlimit="10" id="path26087" inkscape:connector-curvature="0" style="fill:none;stroke:#000000;stroke-width:0.30000001;stroke-linecap:round;stroke-linejoin:round;stroke-miterlimit:10"/>
    <path d="m 118.23438,46.8125 c 0.0703,0.652344 0.1914,1.304688 0.36328,1.949219 0.17578,-0.644531 0.39453,-1.269531 0.66406,-1.871094" id="path26089" inkscape:connector-curvature="0"/>
    <path d="m 118.23438,46.8125 c 0.0703,0.652344 0.1914,1.304688 0.36328,1.949219 0.17578,-0.644531 0.39453,-1.269531 0.66406,-1.871094 l -1.02734,-0.07813 z m 0,0" stroke-miterlimit="10" id="path26091" inkscape:connector-curvature="0" style="fill:none;stroke:#000000;stroke-width:0.30000001;stroke-linecap:round;stroke-linejoin:round;stroke-miterlimit:10"/>
    <path d="m 118.59766,48.761719 c 0,3.929687 1.80859,7.636719 4.90625,10.054687" stroke-miterlimit="10" id="path26093" inkscape:connector-curvature="0" style="fill:none;stroke:#000000;stroke-width:0.30000001;stroke-linecap:round;stroke-linejoin:round;stroke-miterlimit:10"/>
    <path d="m 121.74219,57.898438 c 0.55859,0.347656 1.14453,0.65625 1.76172,0.917968 -0.40235,-0.535156 -0.76172,-1.09375 -1.07032,-1.675781" id="path26095" inkscape:connector-curvature="0"/>
    <path d="m 121.74219,57.898438 c 0.55859,0.347656 1.14453,0.65625 1.76172,0.917968 -0.40235,-0.535156 -0.76172,-1.09375 -1.07032,-1.675781 l -0.6914,0.757813 z m 0,0" stroke-miterlimit="10" id="path26097" inkscape:connector-curvature="0" style="fill:none;stroke:#000000;stroke-width:0.30000001;stroke-linecap:round;stroke-linejoin:round;stroke-miterlimit:10"/>
    <path d="m 119.26172,50.632813 c -0.26953,-0.601563 -0.48828,-1.226563 -0.66406,-1.871094 -0.17188,0.644531 -0.29297,1.296875 -0.36328,1.953125" id="path26099" inkscape:connector-curvature="0"/>
    <path d="m 119.26172,50.632813 c -0.26953,-0.601563 -0.48828,-1.226563 -0.66406,-1.871094 -0.17188,0.644531 -0.29297,1.296875 -0.36328,1.953125 l 1.02734,-0.08203 z m 0,0" stroke-miterlimit="10" id="path26101" inkscape:connector-curvature="0" style="fill:none;stroke:#000000;stroke-width:0.30000001;stroke-linecap:round;stroke-linejoin:round;stroke-miterlimit:10"/>
    <path d="m 158.28516,48.761719 c 0,-2.980469 -0.4961,-5.945313 -1.46875,-8.765625" stroke-miterlimit="10" id="path26103" inkscape:connector-curvature="0" style="fill:none;stroke:#000000;stroke-width:0.30000001;stroke-linecap:round;stroke-linejoin:round;stroke-miterlimit:10"/>
    <path d="m 157.86328,41.679688 c -0.32812,-0.574219 -0.67578,-1.132813 -1.04687,-1.683594 0.0469,0.660156 0.0703,1.320312 0.0664,1.984375" id="path26105" inkscape:connector-curvature="0"/>
    <path d="m 157.86328,41.679688 c -0.32812,-0.574219 -0.67578,-1.132813 -1.04687,-1.683594 0.0469,0.660156 0.0703,1.320312 0.0664,1.984375 l 0.98047,-0.300781 z m 0,0" stroke-miterlimit="10" id="path26107" inkscape:connector-curvature="0" style="fill:none;stroke:#000000;stroke-width:0.30000001;stroke-linecap:round;stroke-linejoin:round;stroke-miterlimit:10"/>
    <path d="m 157.69922,46.867188 c 0.21875,0.625 0.41406,1.257812 0.58594,1.894531 0.17187,-0.636719 0.3164,-1.285156 0.4414,-1.933594" id="path26109" inkscape:connector-curvature="0"/>
    <path d="m 157.69922,46.867188 c 0.21875,0.625 0.41406,1.257812 0.58594,1.894531 0.17187,-0.636719 0.3164,-1.285156 0.4414,-1.933594 l -1.02734,0.03906 z m 0,0" stroke-miterlimit="10" id="path26111" inkscape:connector-curvature="0" style="fill:none;stroke:#000000;stroke-width:0.30000001;stroke-linecap:round;stroke-linejoin:round;stroke-miterlimit:10"/>
    <path d="m 112.92578,34.382813 8.9336,-6.980469" stroke-miterlimit="10" id="path26113" inkscape:connector-curvature="0" style="fill:none;stroke:#000000;stroke-width:0.30000001;stroke-linecap:round;stroke-linejoin:round;stroke-miterlimit:10;stroke-dasharray:1.5, 1.5"/>
    <path d="m 120.66797,28.988281 1.19141,-1.585937 -1.82422,0.777344" id="path26115" inkscape:connector-curvature="0"/>
    <path d="m 120.66797,28.988281 1.19141,-1.585937 -1.82422,0.777344 0.63281,0.808593 z m 0,0" stroke-miterlimit="10" id="path26117" inkscape:connector-curvature="0" style="fill:none;stroke:#000000;stroke-width:0.30000001;stroke-linecap:round;stroke-linejoin:round;stroke-miterlimit:10"/>
    <path d="m 114.12109,32.796875 -1.19531,1.585938 1.82813,-0.773438" id="path26119" inkscape:connector-curvature="0"/>
    <path d="m 114.12109,32.796875 -1.19531,1.585938 1.82813,-0.773438 -0.63282,-0.8125 z m 0,0" stroke-miterlimit="10" id="path26121" inkscape:connector-curvature="0" style="fill:none;stroke:#000000;stroke-width:0.30000001;stroke-linecap:round;stroke-linejoin:round;stroke-miterlimit:10"/>
    <path d="m 121.85938,70.125 -8.9336,-6.984375" stroke-miterlimit="10" id="path26123" inkscape:connector-curvature="0" style="fill:none;stroke:#000000;stroke-width:0.30000001;stroke-linecap:round;stroke-linejoin:round;stroke-miterlimit:10;stroke-dasharray:1.5, 1.5"/>
    <path d="m 114.75391,63.917969 -1.82813,-0.777344 1.19531,1.585938" id="path26125" inkscape:connector-curvature="0"/>
    <path d="m 114.75391,63.917969 -1.82813,-0.777344 1.19531,1.585938 0.63282,-0.808594 z m 0,0" stroke-miterlimit="10" id="path26127" inkscape:connector-curvature="0" style="fill:none;stroke:#000000;stroke-width:0.30000001;stroke-linecap:round;stroke-linejoin:round;stroke-miterlimit:10"/>
    <path d="m 120.03516,69.347656 1.82422,0.777344 -1.19141,-1.585937" id="path26129" inkscape:connector-curvature="0"/>
    <path d="m 120.03516,69.347656 1.82422,0.777344 -1.19141,-1.585937 -0.63281,0.808593 z m 0,0" stroke-miterlimit="10" id="path26131" inkscape:connector-curvature="0" style="fill:none;stroke:#000000;stroke-width:0.30000001;stroke-linecap:round;stroke-linejoin:round;stroke-miterlimit:10"/>
    <path d="M 164.02344,43.511719 160.33203,32.789063" stroke-miterlimit="10" id="path26133" inkscape:connector-curvature="0" style="fill:none;stroke:#000000;stroke-width:0.30000001;stroke-linecap:round;stroke-linejoin:round;stroke-miterlimit:10;stroke-dasharray:1.5, 1.5"/>
    <path d="m 161.44141,34.433594 -1.10938,-1.644531 0.14063,1.980468" id="path26135" inkscape:connector-curvature="0"/>
    <path d="m 161.44141,34.433594 -1.10938,-1.644531 0.14063,1.980468 0.96875,-0.335937 z m 0,0" stroke-miterlimit="10" id="path26137" inkscape:connector-curvature="0" style="fill:none;stroke:#000000;stroke-width:0.30000001;stroke-linecap:round;stroke-linejoin:round;stroke-miterlimit:10"/>
    <path d="m 162.91406,41.867188 1.10938,1.644531 -0.13672,-1.980469" id="path26139" inkscape:connector-curvature="0"/>
    <path d="m 162.91406,41.867188 1.10938,1.644531 -0.13672,-1.980469 -0.97266,0.335938 z m 0,0" stroke-miterlimit="10" id="path26141" inkscape:connector-curvature="0" style="fill:none;stroke:#000000;stroke-width:0.30000001;stroke-linecap:round;stroke-linejoin:round;stroke-miterlimit:10"/>
    <path d="m 131.35547,82.777344 4.00781,-4.007813" stroke-miterlimit="10" id="path26143" inkscape:connector-curvature="0" style="fill:none;stroke:#000000;stroke-width:0.30000001;stroke-linecap:round;stroke-linejoin:round;stroke-miterlimit:10"/>
    <path d="m 131.35547,75.691406 4.00781,-4.007812" stroke-miterlimit="10" id="path26145" inkscape:connector-curvature="0" style="fill:none;stroke:#000000;stroke-width:0.30000001;stroke-linecap:round;stroke-linejoin:round;stroke-miterlimit:10"/>
    <path d="m 131.35547,68.605469 4.00781,-4.007813" stroke-miterlimit="10" id="path26147" inkscape:connector-curvature="0" style="fill:none;stroke:#000000;stroke-width:0.30000001;stroke-linecap:round;stroke-linejoin:round;stroke-miterlimit:10"/>
    <path d="m 131.35547,61.519531 4.00781,-4.007812" stroke-miterlimit="10" id="path26149" inkscape:connector-curvature="0" style="fill:none;stroke:#000000;stroke-width:0.30000001;stroke-linecap:round;stroke-linejoin:round;stroke-miterlimit:10"/>
    <path d="m 131.35547,54.433594 4.00781,-4.011719" stroke-miterlimit="10" id="path26151" inkscape:connector-curvature="0" style="fill:none;stroke:#000000;stroke-width:0.30000001;stroke-linecap:round;stroke-linejoin:round;stroke-miterlimit:10"/>
    <path d="m 131.35547,47.34375 2.00391,-2.003906" stroke-miterlimit="10" id="path26153" inkscape:connector-curvature="0" style="fill:none;stroke:#000000;stroke-width:0.30000001;stroke-linecap:round;stroke-linejoin:round;stroke-miterlimit:10"/>
    <path d="M 131.35547,40.257813 135.36328,36.25" stroke-miterlimit="10" id="path26155" inkscape:connector-curvature="0" style="fill:none;stroke:#000000;stroke-width:0.30000001;stroke-linecap:round;stroke-linejoin:round;stroke-miterlimit:10"/>
    <path d="m 131.35547,33.171875 4.00781,-4.007812" stroke-miterlimit="10" id="path26157" inkscape:connector-curvature="0" style="fill:none;stroke:#000000;stroke-width:0.30000001;stroke-linecap:round;stroke-linejoin:round;stroke-miterlimit:10"/>
    <path d="m 131.35547,26.085938 4.00781,-4.007813" stroke-miterlimit="10" id="path26159" inkscape:connector-curvature="0" style="fill:none;stroke:#000000;stroke-width:0.30000001;stroke-linecap:round;stroke-linejoin:round;stroke-miterlimit:10"/>
    <path d="m 131.35547,19 4.00781,-4.007812" stroke-miterlimit="10" id="path26161" inkscape:connector-curvature="0" style="fill:none;stroke:#000000;stroke-width:0.30000001;stroke-linecap:round;stroke-linejoin:round;stroke-miterlimit:10"/>
    <path d="m 131.35547,11.914063 4.00781,-4.011719" stroke-miterlimit="10" id="path26163" inkscape:connector-curvature="0" style="fill:none;stroke:#000000;stroke-width:0.30000001;stroke-linecap:round;stroke-linejoin:round;stroke-miterlimit:10"/>
    <path d="m 131.35547,4.824219 4.00781,-4.007813" stroke-miterlimit="10" id="path26165" inkscape:connector-curvature="0" style="fill:none;stroke:#000000;stroke-width:0.30000001;stroke-linecap:round;stroke-linejoin:round;stroke-miterlimit:10"/>
    <use xlink:href="#glyph0-1" transform="translate(125.599,92.316)" id="use26223" x="0" y="0" width="182" height="94"/>
    <use xlink:href="#glyph0-8" transform="translate(128.61587,92.316)" id="use26225" x="0" y="0" width="182" height="94"/>
    <use xlink:href="#glyph0-3" transform="translate(132.44169,92.316)" id="use26227" x="0" y="0" width="182" height="94"/>
    <use xlink:href="#glyph0-4" transform="translate(137.049,81.003)" id="use26231" x="0" y="0" width="182" height="94"/>
    <use xlink:href="#glyph0-5" transform="translate(142.22147,81.003)" id="use26233" x="0" y="0" width="182" height="94"/>
    <use xlink:href="#glyph0-2" transform="translate(143.89239,81.003)" id="use26235" x="0" y="0" width="182" height="94"/>
    <use xlink:href="#glyph0-6" transform="translate(147.52923,81.003)" id="use26237" x="0" y="0" width="182" height="94"/>
    <use xlink:href="#glyph0-6" transform="translate(150.50355,81.003)" id="use26239" x="0" y="0" width="182" height="94"/>
    <use xlink:href="#glyph0-7" transform="translate(102.086,78.582)" id="use26243" x="0" y="0" width="182" height="94"/>
    <use xlink:href="#glyph1-1" transform="translate(154.907,15.936)" id="use26247" x="0" y="0" width="182" height="94"/>
    <use xlink:href="#glyph0-7" transform="translate(160.67,15.936)" id="use26251" x="0" y="0" width="182" height="94"/>
    <use xlink:href="#glyph2-5" transform="translate(176.207,30.393)" id="use26255" x="0" y="0" width="182" height="94"/>
    <use xlink:href="#glyph2-6" transform="translate(101.198,13.101)" id="use26259" x="0" y="0" width="182" height="94"/>
    <use xlink:href="#glyph2-3" transform="translate(121.421,47.554)" id="use26263" x="0" y="0" width="182" height="94"/>
    <use xlink:href="#glyph2-3" transform="translate(121.421,54.924)" id="use26267" x="0" y="0" width="182" height="94"/>
    <use xlink:href="#glyph2-4" transform="translate(152.09,46.496)" id="use26271" x="0" y="0" width="182" height="94"/>
  </g>
</svg>
