<?xml version="1.0" encoding="UTF-8" standalone="no"?>
<!-- Created with Inkscape (http://www.inkscape.org/) -->

<svg
   xmlns:dc="http://purl.org/dc/elements/1.1/"
   xmlns:cc="http://creativecommons.org/ns#"
   xmlns:rdf="http://www.w3.org/1999/02/22-rdf-syntax-ns#"
   xmlns:svg="http://www.w3.org/2000/svg"
   xmlns="http://www.w3.org/2000/svg"
   xmlns:sodipodi="http://sodipodi.sourceforge.net/DTD/sodipodi-0.dtd"
   xmlns:inkscape="http://www.inkscape.org/namespaces/inkscape"
   id="svg3076"
   version="1.1"
   inkscape:version="0.48.2 r9819"
   width="113.8854"
   height="57.19175"
   xml:space="preserve"
   sodipodi:docname="pm_mode.svg"><metadata
     id="metadata3082"><rdf:RDF><cc:Work
         rdf:about=""><dc:format>image/svg+xml</dc:format><dc:type
           rdf:resource="http://purl.org/dc/dcmitype/StillImage" /><dc:title></dc:title></cc:Work></rdf:RDF></metadata><defs
     id="defs3080" /><sodipodi:namedview
     pagecolor="#ffffff"
     bordercolor="#666666"
     borderopacity="1"
     objecttolerance="10"
     gridtolerance="10"
     guidetolerance="10"
     inkscape:pageopacity="0"
     inkscape:pageshadow="2"
     inkscape:window-width="640"
     inkscape:window-height="480"
     id="namedview3078"
     showgrid="false"
     inkscape:zoom="0.2905303"
     inkscape:cx="230.23406"
     inkscape:cy="-282.96719"
     inkscape:window-x="248"
     inkscape:window-y="116"
     inkscape:window-maximized="0"
     inkscape:current-layer="g3084"
     fit-margin-top="0"
     fit-margin-left="0"
     fit-margin-right="0"
     fit-margin-bottom="0" /><g
     id="g3084"
     inkscape:groupmode="layer"
     inkscape:label="tikzpicture"
     transform="matrix(1.25,0,0,-1.25,-152.26594,835.15894)"><g
       id="g3086"
       transform="translate(122.012,622.573)"><g
         id="g3088"><g
           id="g3090"><path
             d="m 0,0 0,45.3549 90.70982,0 L 90.70982,0 0,0 z"
             style="fill:none;stroke:#000000;stroke-width:0.3985;stroke-linecap:butt;stroke-linejoin:miter;stroke-miterlimit:10;stroke-opacity:1;stroke-dasharray:none"
             id="path3092"
             inkscape:connector-curvature="0" /><g
             id="g3094"><path
               d="m 45.3549,0 0,45.3549"
               style="fill:none;stroke:#000000;stroke-width:0.3985;stroke-linecap:butt;stroke-linejoin:miter;stroke-miterlimit:10;stroke-opacity:1;stroke-dasharray:2.98883, 2.98883;stroke-dashoffset:0"
               id="path3096"
               inkscape:connector-curvature="0" /></g><g
             id="g3098"><g
               id="g3100"
               transform="translate(17.215,19.091)"><g
                 id="g3102"><g
                   id="g3104"
                   transform="translate(-139.227,-641.664)"><text
                     transform="matrix(1,0,0,-1,139.227,641.664)"
                     id="text3106"><tspan
                       style="font-size:14.34619999px;font-variant:normal;font-weight:normal;writing-mode:lr-tb;fill:#000000;fill-opacity:1;fill-rule:nonzero;stroke:none;font-family:CMR12;-inkscape-font-specification:CMR12"
                       x="0"
                       y="0"
                       id="tspan3108">+</tspan></text>
<g
                     id="g3110"
                     transform="translate(139.227,641.664)" /></g></g><g
                 id="g3112"
                 transform="translate(-17.215,-19.091)" /></g></g><g
             id="g3114"><g
               id="g3116"
               transform="translate(62.453,19.091)"><g
                 id="g3118"><g
                   id="g3120"
                   transform="translate(-184.465,-641.664)"><text
                     transform="matrix(1,0,0,-1,184.465,641.664)"
                     id="text3122"><tspan
                       style="font-size:14.34619999px;font-variant:normal;font-weight:normal;writing-mode:lr-tb;fill:#000000;fill-opacity:1;fill-rule:nonzero;stroke:none;font-family:CMSY10;-inkscape-font-specification:CMSY10"
                       x="0"
                       y="0"
                       id="tspan3124">−</tspan></text>
<g
                     id="g3126"
                     transform="translate(184.465,641.664)" /></g></g><g
                 id="g3128"
                 transform="translate(-62.453,-19.091)" /></g></g></g></g></g></g></svg>