<?xml version="1.0" encoding="UTF-8"?>
<svg xmlns="http://www.w3.org/2000/svg" xmlns:xlink="http://www.w3.org/1999/xlink" width="233pt" height="144pt" viewBox="0 0 168 104" version="1.1">
<defs>
<g>
<symbol overflow="visible" id="glyph0-0">
<path style="stroke:none;" d=""/>
</symbol>
<symbol overflow="visible" id="glyph0-1">
<path style="stroke:none;" d="M 2.578125 1.546875 C 2.546875 1.5 2.5 1.46875 2.453125 1.4375 C 1.6875 0.75 1.21875 -0.3125 1.171875 -1.59375 C 1.140625 -2.46875 1.296875 -3.375 1.703125 -4.15625 C 1.90625 -4.53125 2.140625 -4.84375 2.453125 -5.109375 C 2.5 -5.15625 2.546875 -5.1875 2.578125 -5.21875 L 2.328125 -5.21875 C 2.171875 -5.21875 2.1875 -5.21875 2.078125 -5.140625 C 1.71875 -4.859375 1.421875 -4.484375 1.1875 -4.0625 C 0.53125 -2.828125 0.484375 -1.15625 1.09375 0.1875 C 1.3125 0.6875 1.65625 1.109375 2.078125 1.46875 C 2.171875 1.53125 2.171875 1.546875 2.328125 1.546875 L 2.578125 1.546875 Z M 2.578125 1.546875 "/>
</symbol>
<symbol overflow="visible" id="glyph0-2">
<path style="stroke:none;" d="M 0.640625 -2.640625 C 0.765625 -2.703125 0.859375 -2.78125 0.984375 -2.84375 C 1.203125 -2.9375 1.4375 -2.984375 1.6875 -3 C 1.75 -3.015625 1.828125 -3.015625 1.90625 -3.015625 C 2.1875 -2.96875 2.421875 -2.78125 2.5 -2.515625 C 2.578125 -2.3125 2.546875 -2.0625 2.546875 -1.859375 C 2.1875 -1.859375 1.8125 -1.828125 1.453125 -1.734375 C 0.953125 -1.609375 0.328125 -1.359375 0.390625 -0.71875 C 0.4375 -0.4375 0.59375 -0.15625 0.859375 -0.015625 C 1.03125 0.0625 1.234375 0.0625 1.4375 0.046875 C 1.734375 0.015625 2.0625 -0.0625 2.3125 -0.25 C 2.40625 -0.3125 2.484375 -0.390625 2.5625 -0.46875 L 2.5625 0 L 3.046875 0 L 3.046875 -1.828125 C 3.046875 -2.015625 3.078125 -2.21875 3.03125 -2.421875 C 2.96875 -2.90625 2.53125 -3.265625 2.078125 -3.359375 C 1.796875 -3.40625 1.359375 -3.34375 1.125 -3.296875 C 1.046875 -3.265625 0.65625 -3.140625 0.625 -3.078125 C 0.59375 -3.046875 0.609375 -2.984375 0.609375 -2.953125 C 0.625 -2.84375 0.640625 -2.75 0.640625 -2.640625 Z M 2.546875 -1.625 L 2.546875 -1.109375 C 2.546875 -0.96875 2.546875 -0.84375 2.484375 -0.71875 C 2.40625 -0.578125 2.265625 -0.46875 2.109375 -0.421875 C 1.78125 -0.296875 1.328125 -0.28125 1.046875 -0.515625 C 0.96875 -0.5625 0.90625 -0.640625 0.890625 -0.75 C 0.8125 -1.046875 1.078125 -1.28125 1.3125 -1.390625 C 1.640625 -1.546875 2.109375 -1.625 2.546875 -1.625 Z M 2.546875 -1.625 "/>
</symbol>
<symbol overflow="visible" id="glyph0-3">
<path style="stroke:none;" d="M 0.4375 -5.21875 C 0.46875 -5.1875 0.515625 -5.15625 0.5625 -5.109375 C 1.421875 -4.34375 1.890625 -3.109375 1.828125 -1.59375 C 1.8125 -0.84375 1.625 -0.09375 1.265625 0.5625 C 1.078125 0.890625 0.84375 1.1875 0.5625 1.4375 C 0.515625 1.46875 0.46875 1.5 0.4375 1.546875 L 0.6875 1.546875 C 0.84375 1.546875 0.828125 1.546875 0.921875 1.46875 C 1.296875 1.171875 1.59375 0.796875 1.8125 0.390625 C 2.484375 -0.859375 2.53125 -2.515625 1.921875 -3.859375 C 1.6875 -4.375 1.359375 -4.796875 0.9375 -5.140625 C 0.84375 -5.21875 0.84375 -5.21875 0.6875 -5.21875 L 0.4375 -5.21875 Z M 0.4375 -5.21875 "/>
</symbol>
<symbol overflow="visible" id="glyph0-4">
<path style="stroke:none;" d="M 3.140625 -0.796875 C 3.09375 -0.765625 3.046875 -0.71875 3 -0.6875 C 2.59375 -0.390625 1.875 -0.140625 1.328125 -0.53125 C 0.984375 -0.78125 0.78125 -1.15625 0.78125 -1.734375 L 3.203125 -1.734375 C 3.203125 -2.25 3.078125 -2.734375 2.78125 -3.03125 C 2.4375 -3.34375 1.90625 -3.4375 1.46875 -3.328125 C 1.28125 -3.28125 1.109375 -3.1875 0.953125 -3.0625 C 0.515625 -2.71875 0.296875 -2.171875 0.296875 -1.609375 C 0.3125 -0.828125 0.890625 -0.109375 1.671875 0.03125 C 2.0625 0.109375 2.484375 0.015625 2.84375 -0.15625 C 2.90625 -0.1875 3.140625 -0.3125 3.15625 -0.375 C 3.1875 -0.40625 3.15625 -0.703125 3.140625 -0.796875 Z M 2.78125 -2.046875 L 0.8125 -2.046875 C 0.90625 -2.359375 1.0625 -2.65625 1.34375 -2.84375 C 1.6875 -3.0625 2.203125 -3.03125 2.5 -2.71875 C 2.671875 -2.53125 2.75 -2.296875 2.78125 -2.046875 Z M 2.78125 -2.046875 "/>
</symbol>
<symbol overflow="visible" id="glyph0-5">
<path style="stroke:none;" d="M 0.84375 -4.234375 L 0.84375 -3.296875 L 0.140625 -3.296875 L 0.140625 -2.90625 L 0.828125 -2.90625 L 0.828125 -0.921875 C 0.828125 -0.625 0.84375 -0.265625 1.09375 -0.0625 C 1.234375 0.0625 1.40625 0.0625 1.578125 0.046875 C 1.96875 0.03125 2.3125 -0.09375 2.578125 -0.25 L 2.484375 -0.625 C 2.40625 -0.578125 2.328125 -0.515625 2.25 -0.46875 C 2.03125 -0.359375 1.640625 -0.265625 1.453125 -0.453125 C 1.28125 -0.640625 1.3125 -0.953125 1.3125 -1.1875 L 1.3125 -2.90625 L 2.453125 -2.90625 L 2.453125 -3.296875 L 1.3125 -3.296875 L 1.3125 -4.234375 L 0.84375 -4.234375 Z M 0.84375 -4.234375 "/>
</symbol>
<symbol overflow="visible" id="glyph0-6">
<path style="stroke:none;" d="M 3.1875 -0.796875 C 3.125 -0.765625 3.078125 -0.71875 3.03125 -0.6875 C 2.9375 -0.625 2.84375 -0.5625 2.734375 -0.515625 C 2.3125 -0.3125 1.671875 -0.265625 1.296875 -0.5625 C 1.03125 -0.75 0.859375 -1.109375 0.84375 -1.5 C 0.8125 -1.953125 0.921875 -2.453125 1.296875 -2.75 C 1.5 -2.90625 1.765625 -3 2.140625 -2.96875 C 2.46875 -2.9375 2.65625 -2.890625 2.921875 -2.75 C 2.984375 -2.71875 3.03125 -2.671875 3.09375 -2.65625 L 3.171875 -3.078125 C 3.015625 -3.15625 2.875 -3.234375 2.703125 -3.28125 C 2.296875 -3.421875 1.671875 -3.40625 1.3125 -3.234375 C 0.96875 -3.078125 0.6875 -2.796875 0.515625 -2.46875 C 0.265625 -1.96875 0.265625 -1.359375 0.515625 -0.84375 C 0.609375 -0.65625 0.734375 -0.484375 0.90625 -0.34375 C 1.375 0.09375 2.09375 0.140625 2.6875 -0.0625 C 2.828125 -0.125 2.953125 -0.1875 3.078125 -0.265625 C 3.125 -0.296875 3.1875 -0.328125 3.203125 -0.359375 C 3.21875 -0.40625 3.1875 -0.796875 3.1875 -0.796875 Z M 3.1875 -0.796875 "/>
</symbol>
<symbol overflow="visible" id="glyph0-7">
<path style="stroke:none;" d="M 0.78125 -0.578125 L 0.78125 0 L 1.359375 0 L 1.359375 -0.578125 L 0.78125 -0.578125 Z M 0.78125 -0.578125 "/>
</symbol>
<symbol overflow="visible" id="glyph0-8">
<path style="stroke:none;" d="M 0.578125 -4.84375 L 0.578125 0 L 1.09375 0 L 1.09375 -0.46875 L 1.09375 -0.46875 C 1.15625 -0.359375 1.265625 -0.265625 1.359375 -0.1875 C 1.671875 0.0625 2.1875 0.140625 2.640625 -0.078125 C 2.84375 -0.1875 3.015625 -0.359375 3.15625 -0.546875 C 3.84375 -1.5 3.421875 -3.09375 2.453125 -3.3125 C 2.328125 -3.359375 2.171875 -3.359375 2.03125 -3.328125 C 1.625 -3.28125 1.3125 -3.078125 1.078125 -2.828125 L 1.078125 -4.84375 L 0.578125 -4.84375 Z M 1.8125 -2.953125 C 2.140625 -2.984375 2.515625 -2.84375 2.734375 -2.578125 C 2.90625 -2.359375 2.96875 -2.078125 2.96875 -1.8125 C 3 -1.4375 2.953125 -1.03125 2.71875 -0.734375 C 2.515625 -0.46875 2.1875 -0.359375 1.875 -0.328125 C 1.609375 -0.328125 1.375 -0.421875 1.203125 -0.640625 C 1.171875 -0.6875 1.125 -0.75 1.09375 -0.8125 C 1.09375 -0.859375 1.09375 -0.90625 1.09375 -0.9375 L 1.09375 -2.328125 C 1.09375 -2.390625 1.078125 -2.46875 1.109375 -2.53125 C 1.140625 -2.609375 1.203125 -2.65625 1.265625 -2.71875 C 1.421875 -2.84375 1.609375 -2.9375 1.8125 -2.953125 Z M 1.8125 -2.953125 "/>
</symbol>
<symbol overflow="visible" id="glyph0-9">
<path style="stroke:none;" d="M 0.625 -3.203125 C 0.734375 -3.609375 0.90625 -4.046875 1.34375 -4.203125 C 1.5 -4.265625 1.671875 -4.28125 1.859375 -4.265625 C 2.21875 -4.234375 2.578125 -4.09375 2.796875 -3.78125 C 2.9375 -3.578125 2.984375 -3.328125 2.953125 -3.078125 C 2.875 -2.40625 2.28125 -1.984375 1.796875 -1.609375 C 1.40625 -1.3125 0.59375 -0.59375 0.59375 -0.59375 L 0.453125 -0.484375 C 0.390625 -0.40625 0.390625 -0.421875 0.390625 -0.265625 L 0.390625 0 L 3.484375 0 L 3.484375 -0.4375 L 0.84375 -0.4375 C 1.109375 -0.671875 1.90625 -1.34375 2.140625 -1.515625 C 2.578125 -1.84375 3.0625 -2.15625 3.34375 -2.640625 C 3.640625 -3.203125 3.453125 -3.921875 2.96875 -4.3125 C 2.4375 -4.765625 1.46875 -4.828125 0.875 -4.390625 C 0.65625 -4.234375 0.5 -3.984375 0.390625 -3.734375 C 0.375 -3.671875 0.328125 -3.609375 0.328125 -3.546875 C 0.34375 -3.515625 0.390625 -3.484375 0.40625 -3.4375 C 0.46875 -3.359375 0.546875 -3.265625 0.625 -3.203125 Z M 0.625 -3.203125 "/>
</symbol>
<symbol overflow="visible" id="glyph1-0">
<path style="stroke:none;" d=""/>
</symbol>
<symbol overflow="visible" id="glyph1-1">
<path style="stroke:none;" d="M 1.203125 -2.640625 C 1.46875 -2.78125 1.609375 -2.890625 1.953125 -2.953125 C 2.078125 -2.984375 2.390625 -3.03125 2.53125 -3.015625 C 2.765625 -2.984375 2.953125 -2.84375 3.015625 -2.609375 C 3.09375 -2.359375 2.96875 -2.109375 2.9375 -1.859375 C 2.328125 -1.859375 1.65625 -1.75 1.1875 -1.53125 C 0.9375 -1.390625 0.671875 -1.1875 0.578125 -0.90625 C 0.46875 -0.5 0.640625 0 1.109375 0.0625 C 1.75 0.09375 2.328125 -0.15625 2.65625 -0.46875 L 2.5625 0 L 2.921875 0 C 3 0 3.0625 0.015625 3.0625 -0.078125 C 3.078125 -0.125 3.21875 -0.78125 3.21875 -0.78125 L 3.453125 -1.875 C 3.484375 -2.046875 3.546875 -2.21875 3.546875 -2.390625 C 3.578125 -2.703125 3.4375 -2.984375 3.234375 -3.15625 C 2.984375 -3.359375 2.671875 -3.390625 2.359375 -3.359375 C 2.140625 -3.359375 1.921875 -3.3125 1.703125 -3.25 C 1.640625 -3.234375 1.3125 -3.125 1.265625 -3.078125 C 1.25 -3.046875 1.203125 -2.75 1.203125 -2.640625 Z M 2.890625 -1.625 C 2.875 -1.484375 2.828125 -1.34375 2.796875 -1.203125 C 2.765625 -1.03125 2.734375 -0.84375 2.625 -0.703125 C 2.546875 -0.59375 2.421875 -0.515625 2.296875 -0.453125 C 1.9375 -0.296875 1.375 -0.25 1.125 -0.53125 C 0.984375 -0.6875 1.046875 -0.9375 1.171875 -1.09375 C 1.40625 -1.359375 1.765625 -1.46875 2.09375 -1.546875 C 2.359375 -1.59375 2.625 -1.625 2.890625 -1.625 Z M 2.890625 -1.625 "/>
</symbol>
<symbol overflow="visible" id="glyph1-2">
<path style="stroke:none;" d="M 1.609375 -4.84375 L 0.578125 0 C 0.75 0 0.9375 0 1.09375 -0.015625 C 1.140625 -0.15625 1.15625 -0.3125 1.1875 -0.46875 L 1.203125 -0.46875 C 1.265625 -0.3125 1.421875 -0.15625 1.546875 -0.078125 C 1.921875 0.140625 2.390625 0.0625 2.765625 -0.140625 C 3.453125 -0.515625 3.875 -1.3125 3.890625 -2.09375 C 3.90625 -2.578125 3.703125 -3.171875 3.171875 -3.3125 C 2.578125 -3.46875 1.96875 -3.078125 1.671875 -2.828125 L 2.109375 -4.84375 L 1.609375 -4.84375 Z M 3 -2.84375 C 3.0625 -2.8125 3.125 -2.765625 3.171875 -2.71875 C 3.421875 -2.453125 3.421875 -2.046875 3.34375 -1.703125 C 3.296875 -1.4375 3.203125 -1.1875 3.0625 -0.953125 C 2.8125 -0.578125 2.390625 -0.359375 1.9375 -0.328125 C 1.734375 -0.328125 1.546875 -0.375 1.421875 -0.53125 C 1.375 -0.578125 1.28125 -0.734375 1.28125 -0.8125 C 1.265625 -0.890625 1.296875 -0.96875 1.3125 -1.046875 C 1.359375 -1.296875 1.609375 -2.46875 1.640625 -2.515625 C 1.671875 -2.578125 1.75 -2.640625 1.8125 -2.6875 C 2.109375 -2.9375 2.59375 -3.0625 3 -2.84375 Z M 3 -2.84375 "/>
</symbol>
<symbol overflow="visible" id="glyph1-3">
<path style="stroke:none;" d="M 1.75 -4.84375 L 0.734375 0 C 1.765625 0 2.875 0.015625 3.875 0 C 3.9375 -0.125 3.9375 -0.265625 3.96875 -0.40625 L 1.359375 -0.40625 L 2.28125 -4.84375 L 1.75 -4.84375 Z M 1.75 -4.84375 "/>
</symbol>
<symbol overflow="visible" id="glyph1-4">
<path style="stroke:none;" d="M 4.15625 -0.796875 C 4.046875 -0.75 3.9375 -0.671875 3.828125 -0.625 C 3.546875 -0.5 3.28125 -0.40625 2.984375 -0.375 C 2.71875 -0.34375 2.453125 -0.328125 2.1875 -0.390625 C 1.921875 -0.46875 1.6875 -0.59375 1.515625 -0.78125 C 1.09375 -1.1875 1 -1.8125 1.109375 -2.375 C 1.28125 -3.28125 1.953125 -4.0625 2.8125 -4.375 C 3.265625 -4.53125 3.84375 -4.5 4.265625 -4.359375 C 4.515625 -4.25 4.453125 -4.265625 4.734375 -4.109375 L 4.9375 -4.640625 C 4.71875 -4.71875 4.515625 -4.78125 4.296875 -4.828125 C 3.953125 -4.90625 3.453125 -4.90625 3.109375 -4.859375 C 2.328125 -4.71875 1.734375 -4.296875 1.28125 -3.796875 C 0.65625 -3.078125 0.296875 -2 0.6875 -1.09375 C 0.75 -0.90625 0.859375 -0.734375 0.984375 -0.59375 C 1.375 -0.125 1.9375 0.09375 2.75 0.046875 C 3.234375 0.03125 3.5 -0.0625 3.890625 -0.234375 C 3.9375 -0.25 3.984375 -0.28125 4.03125 -0.296875 C 4.0625 -0.3125 4.078125 -0.328125 4.09375 -0.34375 C 4.125 -0.390625 4.15625 -0.78125 4.15625 -0.796875 Z M 4.15625 -0.796875 "/>
</symbol>
<symbol overflow="visible" id="glyph1-5">
<path style="stroke:none;" d="M 3.09375 -5.21875 C 2.953125 -5.1875 2.921875 -5 2.875 -4.890625 L 0.90625 0.109375 L 0.453125 1.234375 C 0.4375 1.28125 0.40625 1.328125 0.40625 1.390625 C 0.40625 1.484375 0.5 1.546875 0.59375 1.546875 C 0.6875 1.53125 0.71875 1.46875 0.75 1.390625 C 0.78125 1.328125 3.21875 -4.84375 3.265625 -5 C 3.28125 -5.03125 3.296875 -5.078125 3.28125 -5.109375 C 3.25 -5.1875 3.15625 -5.234375 3.09375 -5.21875 Z M 3.09375 -5.21875 "/>
</symbol>
<symbol overflow="visible" id="glyph2-0">
<path style="stroke:none;" d=""/>
</symbol>
<symbol overflow="visible" id="glyph2-1">
<path style="stroke:none;" d="M 1.03125 -2.78125 C 1.015625 -2.78125 0.984375 -2.765625 0.96875 -2.765625 C 0.84375 -2.71875 0.828125 -2.59375 0.78125 -2.484375 L 0.734375 -2.28125 L 0.28125 -0.75 C 0.265625 -0.703125 0.140625 -0.34375 0.15625 -0.296875 C 0.15625 -0.25 0.234375 -0.234375 0.28125 -0.21875 C 0.296875 -0.21875 0.328125 -0.203125 0.34375 -0.203125 C 0.40625 -0.21875 0.421875 -0.296875 0.4375 -0.34375 L 0.640625 -0.78125 L 1.09375 -1.859375 C 1.140625 -1.953125 1.328125 -2.328125 1.34375 -2.421875 C 1.4375 -2.65625 1.203125 -2.8125 1.03125 -2.78125 Z M 1.03125 -2.78125 "/>
</symbol>
</g>
<clipPath id="clip1">
  <path d="M -221 668 L 391 668 L 391 -124 L -221 -124 L -221 668 Z M -221 668 "/>
</clipPath>
<clipPath id="clip2">
  <path d="M 10.128906 104.289063 L 168.867188 104.289063 L 168.867188 5.917969 L 10.128906 5.917969 L 10.128906 104.289063 Z M 10.128906 104.289063 "/>
</clipPath>
<clipPath id="clip3">
  <path d="M -221 668 L 391 668 L 391 -124 L -221 -124 L -221 668 Z M -221 668 "/>
</clipPath>
</defs>
<g id="surface0">
<g clip-path="url(#clip1)" clip-rule="nonzero">
<g clip-path="url(#clip2)" clip-rule="nonzero">
<path style="fill:none;stroke-width:5.102;stroke-linecap:butt;stroke-linejoin:miter;stroke:rgb(0%,0%,0%);stroke-opacity:1;stroke-miterlimit:4;" d="M 1222.982535 559.841136 L 32.784758 559.841136 " transform="matrix(0.111789,0,0,-0.111789,10.128,104.291)"/>
<path style="fill:none;stroke-width:5.102;stroke-linecap:butt;stroke-linejoin:miter;stroke:rgb(0%,0%,0%);stroke-opacity:1;stroke-dasharray:30,15;stroke-miterlimit:4;" d="M 1411.325978 559.806193 L 1243.004945 559.806193 " transform="matrix(0.111789,0,0,-0.111789,10.128,104.291)"/>
<path style="fill:none;stroke-width:5.102;stroke-linecap:butt;stroke-linejoin:miter;stroke:rgb(0%,0%,0%);stroke-opacity:1;stroke-miterlimit:4;" d="M 34.986175 829.217685 C 34.986175 820.936165 28.277095 814.227085 19.995574 814.227085 C 11.714054 814.227085 5.004974 820.936165 5.004974 829.217685 C 5.004974 837.499206 11.714054 844.208286 19.995574 844.208286 C 28.277095 844.208286 34.986175 837.499206 34.986175 829.217685 L 34.986175 829.217685 Z M 34.986175 829.217685 " transform="matrix(0.111789,0,0,-0.111789,10.128,104.291)"/>
<path style="fill:none;stroke-width:5.102;stroke-linecap:butt;stroke-linejoin:miter;stroke:rgb(0%,0%,0%);stroke-opacity:1;stroke-miterlimit:4;" d="M 34.986175 559.841136 C 34.986175 551.559615 28.277095 544.850535 19.995574 544.850535 C 11.714054 544.850535 5.004974 551.559615 5.004974 559.841136 C 5.004974 568.122656 11.714054 574.831736 19.995574 574.831736 C 28.277095 574.831736 34.986175 568.122656 34.986175 559.841136 L 34.986175 559.841136 Z M 34.986175 559.841136 " transform="matrix(0.111789,0,0,-0.111789,10.128,104.291)"/>
<path style="fill:none;stroke-width:5.102;stroke-linecap:butt;stroke-linejoin:miter;stroke:rgb(0%,0%,0%);stroke-opacity:1;stroke-miterlimit:4;" d="M 34.811459 830.929899 L 117.277234 830.929899 L 117.277234 831.349216 C 117.277234 846.304874 129.577214 858.430138 144.777473 858.430138 C 159.977733 858.430138 172.277713 846.304874 172.277713 831.349216 C 172.277713 825.967975 168.853286 807.028801 161.829718 817.476796 C 155.92433 826.317406 155.505013 838.198069 159.872903 847.807428 C 162.668353 853.957418 167.141073 858.255422 173.395893 860.736384 C 180.873721 863.671607 185.870588 863.357119 193.523132 861.714792 C 204.00607 857.905991 211.483899 847.9472 211.483899 836.31114 C 211.483899 830.894955 208.094416 811.955782 201.070847 822.438719 C 189.260071 840.015111 199.743009 866.571886 222.525926 866.571886 C 232.344944 866.571886 241.814531 861.47019 246.182422 852.52475 C 249.222474 846.339817 251.458834 830.196093 245.728161 825.059454 C 242.373621 822.054345 239.648057 830.475638 239.12391 832.432453 C 234.790963 848.436404 250.445483 864.195754 265.96023 864.195754 C 280.880945 864.195754 295.836602 852.41992 294.159332 829.49723 L 461.327242 829.49723 L 461.327242 834.354325 C 461.571844 849.309982 474.081482 861.225588 489.281742 861.015929 C 504.447058 860.771327 516.572322 848.436404 516.32772 833.480747 C 516.257834 828.099505 512.553863 809.195275 505.70501 819.783042 C 499.904452 828.693539 499.694793 840.609144 504.202456 850.113674 C 507.102735 856.193778 511.645341 860.456839 517.935104 862.798029 C 525.482819 865.663365 530.444743 865.244047 538.062344 863.496891 C 548.510338 859.513375 555.813451 849.449755 555.638736 837.778751 C 555.533906 832.39751 551.829935 813.528222 544.981083 824.081046 C 533.484795 841.867097 544.352106 868.249156 567.169967 867.899725 C 576.954042 867.725009 586.353743 862.48354 590.581861 853.468214 C 593.517083 847.248338 595.473898 827.295814 589.708282 822.229061 C 586.738117 819.643269 584.361984 829.252629 583.837838 831.314273 C 580.762843 842.810561 585.724766 865.069332 600.820196 864.82473 C 614.587787 864.615071 629.228957 849.519641 629.683217 829.811719 L 773.753721 829.951491 L 819.773817 829.951491 L 819.773817 834.948358 C 820.018419 849.938959 832.528057 861.854564 847.728317 861.609962 C 861.391079 861.400304 873.062082 850.952309 874.634523 837.32449 C 875.193613 832.607169 871.070324 809.684479 864.116642 820.377075 C 858.316084 829.322515 858.106425 841.203177 862.649031 850.707707 C 865.514367 856.822754 870.056974 861.050872 876.381679 863.427005 C 883.894451 866.257398 888.891318 865.873024 896.508919 864.090924 C 898.256075 863.427005 899.933345 862.58837 901.715445 861.575019 C 909.402932 856.682982 914.434742 848.086973 914.29497 838.372784 C 914.19014 832.991543 910.486169 814.122256 903.637317 824.675079 C 898.780222 832.152908 897.662042 841.727324 900.702094 850.113674 C 902.239592 854.271906 904.79044 858.11565 908.14498 861.015929 C 914.923946 866.921317 922.716263 865.977853 930.683295 864.125867 C 941.725323 859.897749 948.679005 850.777594 948.469346 838.407727 C 948.364516 832.991543 944.660545 814.122256 937.811693 824.675079 C 927.748073 840.259713 936.728456 863.322175 953.920473 868.144327 C 975.305666 874.119601 986.732068 857.591503 987.186328 837.569092 L 1201.422627 837.569092 L 1201.422627 837.98841 " transform="matrix(0.111789,0,0,-0.111789,10.128,104.291)"/>
<path style="fill:none;stroke-width:5.102;stroke-linecap:butt;stroke-linejoin:miter;stroke:rgb(0%,0%,0%);stroke-opacity:1;stroke-miterlimit:4;" d="M 19.541314 294.273387 L 76.813095 294.273387 L 76.813095 294.692704 C 76.813095 309.648361 89.148018 321.773626 104.313335 321.773626 C 119.513594 321.773626 131.813574 309.648361 131.813574 294.692704 C 131.813574 289.311463 128.424091 270.372289 121.400523 280.820283 C 115.460191 289.660894 115.075817 301.541556 119.443708 311.150916 C 122.204215 317.265963 126.676935 321.59891 132.931754 324.044929 C 140.444526 327.015095 145.441393 326.700606 153.093937 325.05828 C 163.576874 321.214536 171.054703 311.290688 171.054703 299.654628 C 171.054703 298.536448 171.439078 294.448102 171.159533 292.63106 L 226.334727 292.770832 L 225.041831 292.770832 L 239.857716 292.770832 L 239.857716 293.19015 C 239.857716 308.145807 252.192639 320.271071 267.357955 320.271071 C 282.558215 320.271071 294.858195 308.145807 294.858195 293.19015 C 294.858195 287.773965 291.433768 268.869735 284.445143 279.317729 C 278.504812 288.15834 278.120438 300.039002 282.453385 309.613418 C 285.248835 315.763408 289.721555 320.061413 295.976375 322.542375 C 303.489146 325.477597 308.486013 325.163109 316.138558 323.555725 C 326.621495 319.711981 334.099324 309.788134 334.099324 298.11713 C 334.099324 297.033893 334.483698 292.945548 334.204153 291.093562 L 434.945182 291.093562 L 434.945182 291.51288 C 434.945182 306.468537 447.245162 318.593801 462.445422 318.593801 C 477.610738 318.593801 489.945661 306.468537 489.945661 291.51288 C 489.945661 286.131638 486.521235 267.192465 479.497667 277.640459 C 473.557335 286.48107 473.172961 298.361732 477.540852 307.971091 C 480.336302 314.086138 484.774078 318.419086 491.063841 320.865105 C 498.54167 323.83527 503.538537 323.485839 511.191081 321.878455 C 521.674018 318.034711 529.151847 308.110864 529.151847 296.474803 C 529.151847 295.356623 529.815766 293.504638 529.536221 291.652652 C 529.431392 291.652652 598.863381 291.652652 598.863381 291.652652 C 600.365936 291.687595 594.635263 291.547823 598.863381 291.652652 C 595.229296 307.971091 603.685532 324.114815 618.466474 324.114815 C 633.63179 324.114815 653.164997 311.954608 653.164997 296.99895 C 653.164997 291.617709 649.775514 272.678535 642.751946 283.12653 C 636.811615 291.96714 636.42724 303.847803 640.795131 313.457162 C 643.555638 319.572209 648.028358 323.905156 654.31812 326.351175 C 661.795949 329.321341 666.792816 329.006853 674.44536 327.364526 C 684.928298 323.555725 692.406127 313.596935 692.406127 301.960874 C 692.406127 300.842694 692.790501 298.885879 692.510956 297.033893 L 777.807124 297.033893 L 777.807124 297.488154 C 777.807124 312.443811 790.107104 324.604019 805.307363 324.604019 C 820.507622 324.604019 832.807602 312.443811 832.807602 297.488154 C 832.807602 292.106913 829.383176 273.167739 822.394551 283.615733 C 816.45422 292.456344 816.069846 304.37195 820.437736 313.946366 C 823.198243 320.061413 827.670963 324.39436 833.925782 326.875322 C 838.433445 328.622478 843.325483 328.936966 848.287407 327.85373 C 858.770344 324.044929 866.248173 314.121081 866.248173 302.450078 C 866.248173 301.366841 866.632547 297.278495 866.353002 295.42651 L 952.592635 295.566282 L 952.592635 295.9856 C 952.592635 310.941257 964.927558 323.066521 980.092874 323.066521 C 995.293133 323.066521 1007.593113 310.941257 1007.593113 295.9856 C 1007.593113 290.604358 1004.20363 271.665185 997.180062 282.113179 C 991.239731 290.95379 990.855356 302.869395 995.223247 312.478755 C 1006.614706 337.428146 1041.872319 326.945208 1041.872319 300.91258 C 1041.872319 299.829343 1042.256693 295.740998 1041.977148 293.923955 L 1124.477866 293.923955 L 1124.477866 294.30833 C 1124.477866 309.263987 1136.812789 321.424195 1151.978105 321.424195 C 1167.178364 321.424195 1179.478344 309.263987 1179.478344 294.30833 C 1179.478344 288.927088 1176.053918 269.987915 1169.065293 280.435909 C 1163.124962 289.27652 1162.705644 301.157182 1167.073535 310.766541 C 1169.868985 316.881588 1174.341705 321.214536 1180.596524 323.660555 C 1188.074353 326.63072 1193.106163 326.316232 1200.758707 324.673905 C 1211.241645 320.865105 1218.719474 310.906314 1218.719474 299.270253 C 1218.719474 298.187016 1219.103848 294.133614 1218.824303 292.281628 L 1263.237015 292.281628 " transform="matrix(0.111789,0,0,-0.111789,10.128,104.291)"/>
<path style="fill:none;stroke-width:5.102;stroke-linecap:butt;stroke-linejoin:miter;stroke:rgb(0%,0%,0%);stroke-opacity:1;stroke-miterlimit:4;" d="M 375.961188 684.832693 L 375.961188 558.163866 " transform="matrix(0.111789,0,0,-0.111789,10.128,104.291)"/>
<path style="fill:none;stroke-width:5.102;stroke-linecap:butt;stroke-linejoin:miter;stroke:rgb(0%,0%,0%);stroke-opacity:1;stroke-miterlimit:4;" d="M 375.961188 828.169392 L 375.961188 714.848838 " transform="matrix(0.111789,0,0,-0.111789,10.128,104.291)"/>
<path style="fill:none;stroke-width:5.102;stroke-linecap:butt;stroke-linejoin:miter;stroke:rgb(0%,0%,0%);stroke-opacity:1;stroke-miterlimit:4;" d="M 335.636821 714.848838 L 416.285554 714.848838 " transform="matrix(0.111789,0,0,-0.111789,10.128,104.291)"/>
<path style="fill:none;stroke-width:5.102;stroke-linecap:butt;stroke-linejoin:miter;stroke:rgb(0%,0%,0%);stroke-opacity:1;stroke-miterlimit:4;" d="M 335.636821 685.671328 L 416.285554 685.671328 " transform="matrix(0.111789,0,0,-0.111789,10.128,104.291)"/>
<path style="fill:none;stroke-width:5.102;stroke-linecap:butt;stroke-linejoin:miter;stroke:rgb(0%,0%,0%);stroke-opacity:1;stroke-miterlimit:4;" d="M 726.650389 683.994058 L 726.650389 557.325231 " transform="matrix(0.111789,0,0,-0.111789,10.128,104.291)"/>
<path style="fill:none;stroke-width:5.102;stroke-linecap:butt;stroke-linejoin:miter;stroke:rgb(0%,0%,0%);stroke-opacity:1;stroke-miterlimit:4;" d="M 726.650389 827.330757 L 726.650389 714.010203 " transform="matrix(0.111789,0,0,-0.111789,10.128,104.291)"/>
<path style="fill:none;stroke-width:5.102;stroke-linecap:butt;stroke-linejoin:miter;stroke:rgb(0%,0%,0%);stroke-opacity:1;stroke-miterlimit:4;" d="M 686.326023 714.010203 L 766.974755 714.010203 " transform="matrix(0.111789,0,0,-0.111789,10.128,104.291)"/>
<path style="fill:none;stroke-width:5.102;stroke-linecap:butt;stroke-linejoin:miter;stroke:rgb(0%,0%,0%);stroke-opacity:1;stroke-miterlimit:4;" d="M 686.326023 684.832693 L 766.974755 684.832693 " transform="matrix(0.111789,0,0,-0.111789,10.128,104.291)"/>
<path style="fill:none;stroke-width:5.102;stroke-linecap:butt;stroke-linejoin:miter;stroke:rgb(0%,0%,0%);stroke-opacity:1;stroke-miterlimit:4;" d="M 1083.524523 693.987792 L 1083.524523 557.325231 " transform="matrix(0.111789,0,0,-0.111789,10.128,104.291)"/>
<path style="fill:none;stroke-width:5.102;stroke-linecap:butt;stroke-linejoin:miter;stroke:rgb(0%,0%,0%);stroke-opacity:1;stroke-miterlimit:4;" d="M 1083.524523 837.534149 L 1083.524523 714.010203 " transform="matrix(0.111789,0,0,-0.111789,10.128,104.291)"/>
<path style="fill:none;stroke-width:5.102;stroke-linecap:butt;stroke-linejoin:miter;stroke:rgb(0%,0%,0%);stroke-opacity:1;stroke-miterlimit:4;" d="M 1043.200157 714.010203 L 1123.813946 714.010203 " transform="matrix(0.111789,0,0,-0.111789,10.128,104.291)"/>
<path style="fill:none;stroke-width:5.102;stroke-linecap:butt;stroke-linejoin:miter;stroke:rgb(0%,0%,0%);stroke-opacity:1;stroke-miterlimit:4;" d="M 1043.200157 693.987792 L 1123.813946 693.987792 " transform="matrix(0.111789,0,0,-0.111789,10.128,104.291)"/>
<path style=" stroke:none;fill-rule:nonzero;fill:rgb(0%,0%,0%);fill-opacity:1;" d="M 14.039063 102.054688 C 14.039063 102.980469 13.289063 103.730469 12.363281 103.730469 C 11.4375 103.730469 10.6875 102.980469 10.6875 102.054688 C 10.6875 101.128906 11.4375 100.378906 12.363281 100.378906 C 13.289063 100.378906 14.039063 101.128906 14.039063 102.054688 "/>
<path style=" stroke:none;fill-rule:nonzero;fill:rgb(0%,0%,0%);fill-opacity:1;" d="M 14.039063 71.34375 C 14.039063 72.273438 13.289063 73.023438 12.363281 73.023438 C 11.4375 73.023438 10.6875 72.273438 10.6875 71.34375 C 10.6875 70.417969 11.4375 69.667969 12.363281 69.667969 C 13.289063 69.667969 14.039063 70.417969 14.039063 71.34375 "/>
<path style=" stroke:none;fill-rule:nonzero;fill:rgb(0%,0%,0%);fill-opacity:1;" d="M 33.472656 102.054688 C 33.472656 102.980469 32.722656 103.730469 31.796875 103.730469 C 30.871094 103.730469 30.121094 102.980469 30.121094 102.054688 C 30.121094 101.128906 30.871094 100.378906 31.796875 100.378906 C 32.722656 100.378906 33.472656 101.128906 33.472656 102.054688 "/>
<path style=" stroke:none;fill-rule:nonzero;fill:rgb(0%,0%,0%);fill-opacity:1;" d="M 74.277344 102.054688 C 74.277344 102.980469 73.523438 103.730469 72.597656 103.730469 C 71.671875 103.730469 70.921875 102.980469 70.921875 102.054688 C 70.921875 101.128906 71.671875 100.378906 72.597656 100.378906 C 73.523438 100.378906 74.277344 101.128906 74.277344 102.054688 "/>
<path style=" stroke:none;fill-rule:nonzero;fill:rgb(0%,0%,0%);fill-opacity:1;" d="M 112.84375 102.054688 C 112.84375 102.980469 112.089844 103.730469 111.167969 103.730469 C 110.242188 103.730469 109.488281 102.980469 109.488281 102.054688 C 109.488281 101.128906 110.242188 100.378906 111.167969 100.378906 C 112.089844 100.378906 112.84375 101.128906 112.84375 102.054688 "/>
<path style=" stroke:none;fill-rule:nonzero;fill:rgb(0%,0%,0%);fill-opacity:1;" d="M 34.871094 71.570313 C 34.871094 72.496094 34.117188 73.246094 33.195313 73.246094 C 32.269531 73.246094 31.515625 72.496094 31.515625 71.570313 C 31.515625 70.640625 32.269531 69.890625 33.195313 69.890625 C 34.117188 69.890625 34.871094 70.640625 34.871094 71.570313 "/>
<path style="fill-rule:nonzero;fill:rgb(100%,100%,100%);fill-opacity:1;stroke-width:5.102;stroke-linecap:butt;stroke-linejoin:miter;stroke:rgb(0%,0%,0%);stroke-opacity:1;stroke-miterlimit:4;" d="M 1288.815382 20.004799 L 19.995574 20.004799 " transform="matrix(0.111789,0,0,-0.111789,10.128,104.291)"/>
<path style=" stroke:none;fill-rule:nonzero;fill:rgb(100%,100%,100%);fill-opacity:1;" d="M 156.4375 102.308594 L 165.523438 102.308594 "/>
<path style="fill:none;stroke-width:5.102;stroke-linecap:butt;stroke-linejoin:miter;stroke:rgb(0%,0%,0%);stroke-opacity:1;stroke-dasharray:30,20;stroke-miterlimit:4;" d="M 1308.80285 20.004799 L 1390.080558 20.004799 " transform="matrix(0.111789,0,0,-0.111789,10.128,104.291)"/>
<path style="fill:none;stroke-width:5.102;stroke-linecap:butt;stroke-linejoin:miter;stroke:rgb(0%,0%,0%);stroke-opacity:1;stroke-miterlimit:4;" d="M 1083.524523 144.262551 L 1083.524523 19.061335 " transform="matrix(0.111789,0,0,-0.111789,10.128,104.291)"/>
<path style="fill:none;stroke-width:5.102;stroke-linecap:butt;stroke-linejoin:miter;stroke:rgb(0%,0%,0%);stroke-opacity:1;stroke-miterlimit:4;" d="M 1083.524523 293.889012 L 1083.524523 165.263369 " transform="matrix(0.111789,0,0,-0.111789,10.128,104.291)"/>
<path style="fill:none;stroke-width:5.102;stroke-linecap:butt;stroke-linejoin:miter;stroke:rgb(0%,0%,0%);stroke-opacity:1;stroke-miterlimit:4;" d="M 1043.200157 165.263369 L 1123.813946 165.263369 " transform="matrix(0.111789,0,0,-0.111789,10.128,104.291)"/>
<path style="fill:none;stroke-width:5.102;stroke-linecap:butt;stroke-linejoin:miter;stroke:rgb(0%,0%,0%);stroke-opacity:1;stroke-miterlimit:4;" d="M 1043.200157 144.262551 L 1123.813946 144.262551 " transform="matrix(0.111789,0,0,-0.111789,10.128,104.291)"/>
<path style="fill:none;stroke-width:5.102;stroke-linecap:butt;stroke-linejoin:miter;stroke:rgb(0%,0%,0%);stroke-opacity:1;stroke-miterlimit:4;" d="M 726.650389 141.502044 L 726.650389 20.074685 " transform="matrix(0.111789,0,0,-0.111789,10.128,104.291)"/>
<path style="fill:none;stroke-width:5.102;stroke-linecap:butt;stroke-linejoin:miter;stroke:rgb(0%,0%,0%);stroke-opacity:1;stroke-miterlimit:4;" d="M 726.650389 296.99895 L 726.650389 165.263369 " transform="matrix(0.111789,0,0,-0.111789,10.128,104.291)"/>
<path style="fill:none;stroke-width:5.102;stroke-linecap:butt;stroke-linejoin:miter;stroke:rgb(0%,0%,0%);stroke-opacity:1;stroke-miterlimit:4;" d="M 686.326023 165.263369 L 766.974755 165.263369 " transform="matrix(0.111789,0,0,-0.111789,10.128,104.291)"/>
<path style="fill:none;stroke-width:5.102;stroke-linecap:butt;stroke-linejoin:miter;stroke:rgb(0%,0%,0%);stroke-opacity:1;stroke-miterlimit:4;" d="M 686.326023 144.262551 L 766.974755 144.262551 " transform="matrix(0.111789,0,0,-0.111789,10.128,104.291)"/>
<path style="fill:none;stroke-width:5.102;stroke-linecap:butt;stroke-linejoin:miter;stroke:rgb(0%,0%,0%);stroke-opacity:1;stroke-miterlimit:4;" d="M 375.961188 145.240959 L 375.961188 19.830084 " transform="matrix(0.111789,0,0,-0.111789,10.128,104.291)"/>
<path style="fill:none;stroke-width:5.102;stroke-linecap:butt;stroke-linejoin:miter;stroke:rgb(0%,0%,0%);stroke-opacity:1;stroke-miterlimit:4;" d="M 375.961188 291.093562 L 375.961188 169.002284 " transform="matrix(0.111789,0,0,-0.111789,10.128,104.291)"/>
<path style="fill:none;stroke-width:5.102;stroke-linecap:butt;stroke-linejoin:miter;stroke:rgb(0%,0%,0%);stroke-opacity:1;stroke-miterlimit:4;" d="M 335.636821 169.002284 L 416.285554 169.002284 " transform="matrix(0.111789,0,0,-0.111789,10.128,104.291)"/>
<path style="fill:none;stroke-width:5.102;stroke-linecap:butt;stroke-linejoin:miter;stroke:rgb(0%,0%,0%);stroke-opacity:1;stroke-miterlimit:4;" d="M 335.636821 148.001466 L 416.285554 148.001466 " transform="matrix(0.111789,0,0,-0.111789,10.128,104.291)"/>
<path style="fill:none;stroke-width:5.102;stroke-linecap:butt;stroke-linejoin:round;stroke:rgb(0%,0%,0%);stroke-opacity:1;stroke-miterlimit:4;" d="M 1305.483253 292.945548 L 1280.918236 292.945548 " transform="matrix(0.111789,0,0,-0.111789,10.128,104.291)"/>
<path style="fill:none;stroke-width:5.102;stroke-linecap:butt;stroke-linejoin:round;stroke:rgb(0%,0%,0%);stroke-opacity:1;stroke-miterlimit:4;" d="M 1356.3255 292.945548 L 1331.760483 292.945548 " transform="matrix(0.111789,0,0,-0.111789,10.128,104.291)"/>
<path style=" stroke:none;fill-rule:nonzero;fill:rgb(0%,0%,0%);fill-opacity:1;" d="M 165.101563 71.542969 C 165.101563 72.46875 164.351563 73.21875 163.425781 73.21875 C 162.5 73.21875 161.75 72.46875 161.75 71.542969 C 161.75 70.617188 162.5 69.867188 163.425781 69.867188 C 164.351563 69.867188 165.101563 70.617188 165.101563 71.542969 "/>
<path style=" stroke:none;fill-rule:nonzero;fill:rgb(0%,0%,0%);fill-opacity:1;" d="M 113.121094 71.3125 C 113.121094 72.238281 112.371094 72.988281 111.445313 72.988281 C 110.519531 72.988281 109.769531 72.238281 109.769531 71.3125 C 109.769531 70.386719 110.519531 69.632813 111.445313 69.632813 C 112.371094 69.632813 113.121094 70.386719 113.121094 71.3125 "/>
<path style=" stroke:none;fill-rule:nonzero;fill:rgb(0%,0%,0%);fill-opacity:1;" d="M 75.113281 71.65625 C 75.113281 72.582031 74.363281 73.332031 73.4375 73.332031 C 72.511719 73.332031 71.761719 72.582031 71.761719 71.65625 C 71.761719 70.730469 72.511719 69.980469 73.4375 69.980469 C 74.363281 69.980469 75.113281 70.730469 75.113281 71.65625 "/>
<path style="fill:none;stroke-width:3.685;stroke-linecap:butt;stroke-linejoin:round;stroke:rgb(0%,0%,0%);stroke-opacity:1;stroke-miterlimit:4;" d="M 419.185833 410.144789 C 446.057096 401.758439 476.597387 380.687734 488.198505 352.34886 " transform="matrix(0.111789,0,0,-0.111789,10.128,104.291)"/>
<path style=" stroke:none;fill-rule:nonzero;fill:rgb(0%,0%,0%);fill-opacity:1;" d="M 63.652344 64.539063 L 65.476563 67.617188 L 65.433594 64.042969 L 63.652344 64.539063 "/>
<path style="fill:none;stroke-width:3.685;stroke-linecap:butt;stroke-linejoin:round;stroke:rgb(0%,0%,0%);stroke-opacity:1;stroke-miterlimit:4;" d="M 364.604672 410.144789 C 337.768352 401.758439 307.193118 380.687734 295.626943 352.34886 " transform="matrix(0.111789,0,0,-0.111789,10.128,104.291)"/>
<path style=" stroke:none;fill-rule:nonzero;fill:rgb(0%,0%,0%);fill-opacity:1;" d="M 44.226563 64.539063 L 42.402344 67.617188 L 42.441406 64.042969 L 44.226563 64.539063 "/>
<path style="fill:none;stroke-width:3.685;stroke-linecap:butt;stroke-linejoin:round;stroke:rgb(0%,0%,0%);stroke-opacity:1;stroke-miterlimit:4;" d="M 760.719936 410.144789 C 787.556256 401.758439 818.096547 380.687734 829.697664 352.34886 " transform="matrix(0.111789,0,0,-0.111789,10.128,104.291)"/>
<path style=" stroke:none;fill-rule:nonzero;fill:rgb(0%,0%,0%);fill-opacity:1;" d="M 101.828125 64.539063 L 103.652344 67.617188 L 103.613281 64.042969 L 101.828125 64.539063 "/>
<path style="fill:none;stroke-width:3.685;stroke-linecap:butt;stroke-linejoin:round;stroke:rgb(0%,0%,0%);stroke-opacity:1;stroke-miterlimit:4;" d="M 706.103832 410.144789 C 679.267512 401.758439 648.692277 380.687734 637.126103 352.34886 " transform="matrix(0.111789,0,0,-0.111789,10.128,104.291)"/>
<path style=" stroke:none;fill-rule:nonzero;fill:rgb(0%,0%,0%);fill-opacity:1;" d="M 82.402344 64.539063 L 80.578125 67.617188 L 80.621094 64.042969 L 82.402344 64.539063 "/>
<path style="fill:none;stroke-width:3.685;stroke-linecap:butt;stroke-linejoin:round;stroke:rgb(0%,0%,0%);stroke-opacity:1;stroke-miterlimit:4;" d="M 1124.932126 410.144789 C 1151.80339 401.758439 1182.343681 380.687734 1193.909855 352.34886 " transform="matrix(0.111789,0,0,-0.111789,10.128,104.291)"/>
<path style=" stroke:none;fill-rule:nonzero;fill:rgb(0%,0%,0%);fill-opacity:1;" d="M 142.546875 64.539063 L 144.367188 67.617188 L 144.328125 64.042969 L 142.546875 64.539063 "/>
<path style="fill:none;stroke-width:3.685;stroke-linecap:butt;stroke-linejoin:round;stroke:rgb(0%,0%,0%);stroke-opacity:1;stroke-miterlimit:4;" d="M 1070.350965 410.144789 C 1043.479702 401.758439 1012.939411 380.687734 1001.338294 352.34886 " transform="matrix(0.111789,0,0,-0.111789,10.128,104.291)"/>
<path style=" stroke:none;fill-rule:nonzero;fill:rgb(0%,0%,0%);fill-opacity:1;" d="M 123.117188 64.539063 L 121.296875 67.617188 L 121.335938 64.042969 L 123.117188 64.539063 "/>
<path style="fill:none;stroke-width:5.102;stroke-linecap:butt;stroke-linejoin:miter;stroke:rgb(0%,0%,0%);stroke-opacity:1;stroke-dasharray:30,15;stroke-miterlimit:4;" d="M 1201.422627 837.569092 L 1201.422627 842.426187 C 1201.667229 857.381844 1214.141924 869.29745 1229.342184 869.052848 C 1244.5075 868.843189 1256.632764 856.508266 1256.423105 841.552609 C 1256.318276 836.171367 1252.614305 817.267137 1245.765452 827.854904 C 1239.964894 836.7654 1239.755235 848.681006 1244.262898 858.185536 C 1247.163177 864.26564 1251.705784 868.528701 1257.995546 870.904833 C 1265.543261 873.735227 1270.540128 873.315909 1278.157729 871.568753 C 1288.605723 867.585237 1295.908837 857.521617 1295.734121 845.885556 C 1295.629292 840.469372 1291.92532 821.600084 1285.076468 832.152908 C 1273.545237 849.938959 1284.447492 876.321018 1307.265352 875.971587 C 1317.049427 875.796871 1326.449128 870.555402 1330.677246 861.540076 C 1333.577525 855.3202 1335.569283 835.367675 1329.803668 830.300922 C 1326.833502 827.715131 1324.45737 837.32449 1323.933223 839.386135 C 1320.858228 850.882423 1325.785208 873.10625 1340.915581 872.896592 C 1354.683173 872.686933 1369.324342 857.591503 1369.743659 837.88358 " transform="matrix(0.111789,0,0,-0.111789,10.128,104.291)"/>
</g>
</g>
<g clip-path="url(#clip3)" clip-rule="nonzero">
<g style="fill:rgb(0%,0%,0%);fill-opacity:1;">
  <use xlink:href="#glyph0-1" x="0.474" y="28.32"/>
  <use xlink:href="#glyph0-2" x="3.490866" y="28.32"/>
  <use xlink:href="#glyph0-3" x="7.127703" y="28.32"/>
</g>
<g style="fill:rgb(0%,0%,0%);fill-opacity:1;">
  <use xlink:href="#glyph1-1" x="10.52" y="8.196"/>
</g>
<g style="fill:rgb(0%,0%,0%);fill-opacity:1;">
  <use xlink:href="#glyph1-2" x="10.396" y="38.243"/>
</g>
<g style="fill:rgb(0%,0%,0%);fill-opacity:1;">
  <use xlink:href="#glyph1-3" x="30.906" y="5.645"/>
</g>
<g style="fill:rgb(0%,0%,0%);fill-opacity:1;">
  <use xlink:href="#glyph1-4" x="57.75" y="28.192"/>
</g>
<g style="fill:rgb(0%,0%,0%);fill-opacity:1;">
  <use xlink:href="#glyph1-3" x="68.749" y="5.645"/>
</g>
<g style="fill:rgb(0%,0%,0%);fill-opacity:1;">
  <use xlink:href="#glyph1-4" x="96.868" y="28.192"/>
</g>
<g style="fill:rgb(0%,0%,0%);fill-opacity:1;">
  <use xlink:href="#glyph1-3" x="108.717" y="5.645"/>
</g>
<g style="fill:rgb(0%,0%,0%);fill-opacity:1;">
  <use xlink:href="#glyph1-4" x="136.837" y="28.192"/>
</g>
<g style="fill:rgb(0%,0%,0%);fill-opacity:1;">
  <use xlink:href="#glyph0-4" x="154.128" y="27.888"/>
  <use xlink:href="#glyph0-5" x="157.575847" y="27.888"/>
  <use xlink:href="#glyph0-6" x="160.377222" y="27.888"/>
  <use xlink:href="#glyph0-7" x="163.825069" y="27.888"/>
</g>
<g style="fill:rgb(0%,0%,0%);fill-opacity:1;">
  <use xlink:href="#glyph0-1" x="0.379" y="88.698"/>
  <use xlink:href="#glyph0-8" x="3.395866" y="88.698"/>
  <use xlink:href="#glyph0-3" x="7.221693" y="88.698"/>
</g>
<g style="fill:rgb(0%,0%,0%);fill-opacity:1;">
  <use xlink:href="#glyph1-1" x="10.52" y="68.007"/>
</g>
<g style="fill:rgb(0%,0%,0%);fill-opacity:1;">
  <use xlink:href="#glyph1-2" x="10.396" y="98.905"/>
</g>
<g style="fill:rgb(0%,0%,0%);fill-opacity:1;">
  <use xlink:href="#glyph1-1" x="30.246" y="68.007"/>
</g>
<g style="fill:rgb(0%,0%,0%);fill-opacity:1;">
  <use xlink:href="#glyph2-1" x="33.998" y="65.546"/>
</g>
<g style="fill:rgb(0%,0%,0%);fill-opacity:1;">
  <use xlink:href="#glyph1-3" x="17.901" y="60.354"/>
  <use xlink:href="#glyph1-5" x="22.550432" y="60.354"/>
</g>
<g style="fill:rgb(0%,0%,0%);fill-opacity:1;">
  <use xlink:href="#glyph0-9" x="26.255" y="60.354"/>
</g>
<path style=" stroke:none;fill-rule:nonzero;fill:rgb(100%,100%,100%);fill-opacity:1;" d="M 47.523438 62.1875 L 60.324219 62.1875 L 60.324219 54.839844 L 47.523438 54.839844 L 47.523438 62.1875 Z M 47.523438 62.1875 "/>
<g style="fill:rgb(0%,0%,0%);fill-opacity:1;">
  <use xlink:href="#glyph1-3" x="47.807" y="60.354"/>
  <use xlink:href="#glyph1-5" x="52.456432" y="60.354"/>
</g>
<g style="fill:rgb(0%,0%,0%);fill-opacity:1;">
  <use xlink:href="#glyph0-9" x="56.161" y="60.354"/>
</g>
<g style="fill:rgb(0%,0%,0%);fill-opacity:1;">
  <use xlink:href="#glyph1-4" x="57.75" y="88.854"/>
</g>
<path style=" stroke:none;fill-rule:nonzero;fill:rgb(100%,100%,100%);fill-opacity:1;" d="M 85.648438 62.1875 L 98.449219 62.1875 L 98.449219 54.839844 L 85.648438 54.839844 L 85.648438 62.1875 Z M 85.648438 62.1875 "/>
<g style="fill:rgb(0%,0%,0%);fill-opacity:1;">
  <use xlink:href="#glyph1-3" x="85.933" y="60.354"/>
  <use xlink:href="#glyph1-5" x="90.582432" y="60.354"/>
</g>
<g style="fill:rgb(0%,0%,0%);fill-opacity:1;">
  <use xlink:href="#glyph0-9" x="94.287" y="60.354"/>
</g>
<g style="fill:rgb(0%,0%,0%);fill-opacity:1;">
  <use xlink:href="#glyph1-4" x="96.301" y="88.854"/>
</g>
<path style=" stroke:none;fill-rule:nonzero;fill:rgb(100%,100%,100%);fill-opacity:1;" d="M 126.183594 62.1875 L 138.984375 62.1875 L 138.984375 54.839844 L 126.183594 54.839844 L 126.183594 62.1875 Z M 126.183594 62.1875 "/>
<g style="fill:rgb(0%,0%,0%);fill-opacity:1;">
  <use xlink:href="#glyph1-3" x="126.468" y="60.354"/>
  <use xlink:href="#glyph1-5" x="131.117432" y="60.354"/>
</g>
<g style="fill:rgb(0%,0%,0%);fill-opacity:1;">
  <use xlink:href="#glyph0-9" x="134.822" y="60.354"/>
</g>
<g style="fill:rgb(0%,0%,0%);fill-opacity:1;">
  <use xlink:href="#glyph1-4" x="136.837" y="88.854"/>
</g>
<g style="fill:rgb(0%,0%,0%);fill-opacity:1;">
  <use xlink:href="#glyph0-4" x="154.128" y="88.55"/>
  <use xlink:href="#glyph0-5" x="157.575847" y="88.55"/>
  <use xlink:href="#glyph0-6" x="160.377222" y="88.55"/>
  <use xlink:href="#glyph0-7" x="163.825069" y="88.55"/>
</g>
</g>
</g>
</svg>
